{
    "authors": [
        "ambrus.both@bsc.es"
    ],
    "comparisons": [
        {
            "file": "single_drop_pts_hltabprop_bounceSlip.pts.res-col5.out",
            "method": "absolute",
            "tolerance": "1.0e-7"
        },
        {
            "file": "single_drop_pts_hltabprop_bounceSlip.pts.res-col6.out",
            "method": "absolute",
            "tolerance": "1.0e-7"
        },
        {
            "file": "single_drop_pts_hltabprop_bounceSlip.pts.res-col7.out",
            "method": "absolute",
            "tolerance": "1.0e-7"
        },
        {
            "file": "single_drop_pts_hltabprop_bounceSlip.pts.res-col8.out",
            "method": "absolute",
            "tolerance": "1.0e-6"
        },
        {
            "file": "single_drop_pts_hltabprop_bounceSlip.pts.res-col9.out",
            "method": "absolute",
            "tolerance": "1.0e-6"
        },
        {
            "file": "single_drop_pts_hltabprop_bounceSlip.pts.res-col10.out",
            "method": "absolute",
            "tolerance": "1.0e-6"
        },
        {
            "file": "single_drop_pts_hltabprop_bounceSlip-BOUNC-00000080.post.mpio.txt",
            "method": "absolute",
            "tolerance": "1.0e-6"
        },
        {
            "file": "single_drop_pts_hltabprop_bounceSlip-SLIPW-00000080.post.mpio.txt",
            "method": "absolute",
            "tolerance": "1.0e-6"
        }
		
    ],
    "description": "Droplet bouncing around in a square duct, one of the walls is slip, the rest is bounce.",
    "include": [
		"normal"
	],
    "executions": [
        {
            "commands": {
                "postprocess": "[ALYA-PATH]/Utils/user/extractColumnFromFile.sh [NAME].pts.res 5 6 7 8 9 10; echo | [POST] [NAME]"
            },
            "mpi": 1,
            "openmp": 0
        },
        {
            "commands": {
                "postprocess": "[ALYA-PATH]/Utils/user/extractColumnFromFile.sh [NAME].pts.res 5 6 7 8 9 10; echo | [POST] [NAME]"
            },
            "mpi": 3,
            "openmp": 0
        },
        {
            "commands": {
                "postprocess": "[ALYA-PATH]/Utils/user/extractColumnFromFile.sh [NAME].pts.res 5 6 7 8 9 10; echo | [POST] [NAME]"
            },
            "mpi": 3,
            "openmp": 3
        }
    ],
    "modules": [
        "partis"
    ],
    "name": "single_drop_pts_hltabprop_bounceSlip",
    "postprocess": "mpio2txt"
}
