{
    "authors": [
        "guillaume.houzeaux@bsc.es"
    ],
    "comparisons": [
        {
            "file": "cavamr-qua04-tri03-amr2.post.res",
            "method": "absolute",
            "tolerance": "1.0e-10"
        }
    ],
    "description": "Test the nastin module equations, with the basic solver options.",
    "exclude": [
        "special"
    ],
       "executions": [
        {
            "commands": {
                "postprocess": "[POST] cavamr-qua04-tri03-amr2"
            },
            "mpi": 4
        }
    ],
    "modules": [
        "nastin"
    ],
    "name": "cavamr-qua04-tri03",
    "postprocess": "alya2pos"
}
