 $------------------------------------------------------------
PHYSICAL_PROBLEM
  PROPERTIES
    MATERIAL= 1
      DENSITY:       CONSTANT, PARAMETERS = 1.0
      SPECIFIC_HEAT: CONSTANT, PARAMETERS = 1.0
      CONDUCTIVITY:  CONSTANT, PARAMETERS = 1.0
    END_MATERIAL
  END_PROPERTIES 
END_PHYSICAL_PROBLEM  
$------------------------------------------------------------
NUMERICAL_TREATMENT 
  MESH
   DIVISION=1 
  END_MESH
  SPACE_&_TIME_FUNCTIONS
    FUNCTION=SOURCE, DIMENSION=1
      exp(-100*(sqrt(x*x+y*y)-0.5)**2)
    END_FUNCTION
  END_SPACE_&_TIME_FUNCTIONS
END_NUMERICAL_TREATMENT  
$------------------------------------------------------------
OUTPUT_&_POST_PROCESS  
  ON_LAST_MESH
  STEPS=1e6
END_OUTPUT_&_POST_PROCESS  
$------------------------------------------------------------
 
