$-----------------------------------------------
PHYSICAL_PROBLEM
  NUMBER_COUPLINGS= 4
  ABSOLUTE_TOLERANCE=0.0
  LOST_WET_POINTS=ZERO
  A_TODA_COSTA=ON
## Iniunk couplings
  COUPLING=1
     SOURCE, CODE:      1
     SOURCE, MODULE:    SOLIDZ
     TARGET, CODE:      2
     TARGET, MODULE:    EXMEDI
     WHERE_TYPE:        WHOLEMESH
     WHAT=              UNKNOWN

     VARIABLE=          DISPL

     TYPE:              ELEMENT_INTERPOLATION
     SEND_AND_COMPUTE:  INIUNK AFTER, FREQUENCY:   1
     RECEIVE_ASSEMBLE:  INIUNK AFTER, FREQUENCY:   1
  END_COUPLING

  COUPLING=2
     SOURCE, CODE:      2
     SOURCE, MODULE:    EXMEDI
     TARGET, CODE:      1
     TARGET, MODULE:    SOLIDZ
     WHERE_TYPE:        WHOLEMESH
     WHAT=              UNKNOWN
     VARIABLE=          ECCOU
     TYPE:              ELEMENT_INTERPOLATION
     SEND_AND_COMPUTE:  INIUNK AFTER, FREQUENCY:   1
     RECEIVE_ASSEMBLE:  INIUNK AFTER, FREQUENCY:   1
  END_COUPLING
## Iteration couplings
  COUPLING=3
     SOURCE, CODE:      1
     SOURCE, MODULE:    SOLIDZ
     TARGET, CODE:      2
     TARGET, MODULE:    EXMEDI
     WHERE_TYPE:        WHOLEMESH
     WHAT=              UNKNOWN

     VARIABLE=          DISPL

     TYPE:              ELEMENT_INTERPOLATION
     SEND_AND_COMPUTE:  ENDZON BEFORE, FREQUENCY:   1
     RECEIVE_ASSEMBLE:  BEGZON BEFORE, FREQUENCY:   1
  END_COUPLING

  COUPLING=4
     SOURCE, CODE:      2
     SOURCE, MODULE:    EXMEDI
     TARGET, CODE:      1
     TARGET, MODULE:    SOLIDZ
     WHERE_TYPE:        WHOLEMESH
     WHAT=              UNKNOWN
     VARIABLE=          ECCOU
     TYPE:              ELEMENT_INTERPOLATION
     SEND_AND_COMPUTE:  ENDZON BEFORE, FREQUENCY:   1
     RECEIVE_ASSEMBLE:  ENDZON BEFORE, FREQUENCY:   1
  END_COUPLING

END_PHYSICAL_PROBLEM
$------------------------------------------------------------
NUMERICAL_TREATMENT
  BLOCK, NUMBER=1
    COUPLINGS=  3,4
    ITERATIONS= 1
    TOLERANCE= 1.0e-5
  END_BLOCK
END_NUMERICAL_TREATMENT
$------------------------------------------------------------
