$--------------------------------------------------
DIMENSIONS
  NODAL_POINTS=          4096
  ELEMENTS=              3375
  SPACE_DIMENSIONS=      3
  TYPES_OF_ELEMENTS=     HEX08
  BOUNDARIES=            1350
  FIELDS = 3
    FIELD:1, DIMENSIONS=3, NODES
    FIELD:2, DIMENSIONS=1, NODES
    FIELD:3, DIMENSIONS=1, NODES
  END_FIELDS
END_DIMENSIONS
$--------------------------------------------------
STRATEGY
  INTEGRATION_RULE:          OPEN
  DOMAIN_INTEGRATION_POINTS: 0
  BOUNDARY_ELEMENT:          OFF
  EXTRAPOLATE:               ON
  GROUPS=                    100, SEQUENTIAL_FRONTAL
END_STRATEGY
$--------------------------------------------------
GEOMETRY
  INCLUDE ./mesh/turbul-constvel.geo.dat
END_GEOMETRY
$--------------------------------------------------
SETS
END_SETS
$--------------------------------------------------
BOUNDARY_CONDITIONS
 ON_BOUNDARIES
  INCLUDE ./mesh/turbul-constvel.fix.bou
 END_ON_BOUNDARIES
END_BOUNDARY_CONDITIONS
$-------------------------------------------------------------
FIELDS
  FIELD= 1
     INCLUDE ./veloc-field.dat
  END_FIELD
  FIELD= 2
     INCLUDE ./K-field.dat
  END_FIELD
  FIELD= 3
     INCLUDE ./W-field.dat
  END_FIELD
END_FIELDS
$-------------------------------------------------------------
