GiD Post Results File 1.0
 
Result TURBU ALYA  0.00000000E+00 Scalar OnNodes
ComponentNames TURBU
Values
          1  0.00000000E+000
          2  0.10000000E+000
          3  0.20000000E+000
          4  0.30000000E+000
          5  0.40000000E+000
          6  0.50000000E+000
          7  0.60000000E+000
          8  0.70000000E+000
          9  0.80000000E+000
         10  0.90000000E+000
         11  0.00000000E+000
         12  0.10000000E+001
         13  0.10000000E+000
         14  0.20000000E+000
         15  0.30000000E+000
         16  0.40000000E+000
         17  0.50000000E+000
         18  0.60000000E+000
         19  0.70000000E+000
         20  0.80000000E+000
         21  0.90000000E+000
         22  0.10000000E+001
End values

Result TEMPE ALYA  0.00000000E+00 Scalar OnNodes
ComponentNames TEMPE
Values
          1  0.10000000E+001
          2  0.00000000E+000
          3  0.00000000E+000
          4  0.00000000E+000
          5  0.00000000E+000
          6  0.00000000E+000
          7  0.00000000E+000
          8  0.00000000E+000
          9  0.00000000E+000
         10  0.00000000E+000
         11  0.10000000E+001
         12  0.20000000E+001
         13  0.00000000E+000
         14  0.00000000E+000
         15  0.00000000E+000
         16  0.00000000E+000
         17  0.00000000E+000
         18  0.00000000E+000
         19  0.00000000E+000
         20  0.00000000E+000
         21  0.00000000E+000
         22  0.20000000E+001
End values

Result TURBU ALYA  0.10000000E+00 Scalar OnNodes
ComponentNames TURBU
Values
          1  0.00000000E+000
          2  0.10000000E+000
          3  0.20000000E+000
          4  0.30000000E+000
          5  0.40000000E+000
          6  0.50000000E+000
          7  0.60000000E+000
          8  0.70000000E+000
          9  0.80000000E+000
         10  0.90000000E+000
         11  0.00000000E+000
         12  0.10000000E+001
         13  0.10000000E+000
         14  0.20000000E+000
         15  0.30000000E+000
         16  0.40000000E+000
         17  0.50000000E+000
         18  0.60000000E+000
         19  0.70000000E+000
         20  0.80000000E+000
         21  0.90000000E+000
         22  0.10000000E+001
End values

Result TEMPE ALYA  0.10000000E+00 Scalar OnNodes
ComponentNames TEMPE
Values
          1  0.10000000E+001
          2  0.11374614E+001
          3  0.12629696E+001
          4  0.13784371E+001
          5  0.14853515E+001
          6  0.15848925E+001
          7  0.16780115E+001
          8  0.17654869E+001
          9  0.18479637E+001
         10  0.19259823E+001
         11  0.10000000E+001
         12  0.20000000E+001
         13  0.11374614E+001
         14  0.12629696E+001
         15  0.13784371E+001
         16  0.14853515E+001
         17  0.15848925E+001
         18  0.16780115E+001
         19  0.17654869E+001
         20  0.18479637E+001
         21  0.19259823E+001
         22  0.20000000E+001
End values

