GiD Post Results File 1.0
 
Result VELOC ALYA  0.20000000E+00 Vector OnNodes
ComponentNames VELOC_X,VELOC_Y,VELOC_Z
Values
          1  0.24000000E+001 -0.44500000E+001
          2  0.25000000E+001 -0.45000000E+001
          3  0.26000000E+001 -0.45500000E+001
          4  0.27000000E+001 -0.46000000E+001
          5  0.28000000E+001 -0.46500000E+001
          6  0.29000000E+001 -0.47000000E+001
          7  0.30000000E+001 -0.47500000E+001
          8  0.31000000E+001 -0.48000000E+001
          9  0.32000000E+001 -0.48500000E+001
         10  0.29000000E+001 -0.37000000E+001
         11  0.28000000E+001 -0.34000000E+001
         12  0.27000000E+001 -0.31000000E+001
         13  0.26000000E+001 -0.28000000E+001
         14  0.25000000E+001 -0.25000000E+001
         15  0.24000000E+001 -0.22000000E+001
         16  0.23000000E+001 -0.19000000E+001
         17  0.22000000E+001 -0.16000000E+001
         18  0.21000000E+001 -0.13000000E+001
         19  0.23000000E+001 -0.44000000E+001
         20  0.33000000E+001 -0.49000000E+001
         21  0.20000000E+001 -0.10000000E+001
         22  0.28000000E+001 -0.36500000E+001
         23  0.27000000E+001 -0.36000000E+001
         24  0.26000000E+001 -0.35500000E+001
         25  0.25000000E+001 -0.35000000E+001
         26  0.24000000E+001 -0.34500000E+001
         27  0.23000000E+001 -0.34000000E+001
         28  0.22000000E+001 -0.33500000E+001
         29  0.21000000E+001 -0.33000000E+001
         30  0.20000000E+001 -0.32500000E+001
         31  0.27000000E+001 -0.33500000E+001
         32  0.26000000E+001 -0.30500000E+001
         33  0.25000000E+001 -0.27500000E+001
         34  0.24000000E+001 -0.24500000E+001
         35  0.23000000E+001 -0.21500000E+001
         36  0.22000000E+001 -0.18500000E+001
         37  0.21000000E+001 -0.15500000E+001
         38  0.20000000E+001 -0.12500000E+001
         39  0.19000000E+001 -0.32000000E+001
         40  0.19000000E+001 -0.95000000E+000
         41  0.26000000E+001 -0.33000000E+001
         42  0.25000000E+001 -0.32500000E+001
         43  0.24000000E+001 -0.32000000E+001
         44  0.23000000E+001 -0.31500000E+001
         45  0.22000000E+001 -0.31000000E+001
         46  0.21000000E+001 -0.30500000E+001
         47  0.20000000E+001 -0.30000000E+001
         48  0.19000000E+001 -0.29500000E+001
         49  0.25000000E+001 -0.30000000E+001
         50  0.24000000E+001 -0.27000000E+001
         51  0.23000000E+001 -0.24000000E+001
         52  0.22000000E+001 -0.21000000E+001
         53  0.21000000E+001 -0.18000000E+001
         54  0.20000000E+001 -0.15000000E+001
         55  0.19000000E+001 -0.12000000E+001
         56  0.18000000E+001 -0.29000000E+001
         57  0.18000000E+001 -0.90000000E+000
         58  0.24000000E+001 -0.29500000E+001
         59  0.23000000E+001 -0.29000000E+001
         60  0.22000000E+001 -0.28500000E+001
         61  0.21000000E+001 -0.28000000E+001
         62  0.20000000E+001 -0.27500000E+001
         63  0.19000000E+001 -0.27000000E+001
         64  0.18000000E+001 -0.26500000E+001
         65  0.23000000E+001 -0.26500000E+001
         66  0.22000000E+001 -0.23500000E+001
         67  0.21000000E+001 -0.20500000E+001
         68  0.20000000E+001 -0.17500000E+001
         69  0.19000000E+001 -0.14500000E+001
         70  0.18000000E+001 -0.11500000E+001
         71  0.17000000E+001 -0.26000000E+001
         72  0.17000000E+001 -0.85000000E+000
         73  0.22000000E+001 -0.26000000E+001
         74  0.21000000E+001 -0.25500000E+001
         75  0.20000000E+001 -0.25000000E+001
         76  0.19000000E+001 -0.24500000E+001
         77  0.18000000E+001 -0.24000000E+001
         78  0.17000000E+001 -0.23500000E+001
         79  0.21000000E+001 -0.23000000E+001
         80  0.20000000E+001 -0.20000000E+001
         81  0.19000000E+001 -0.17000000E+001
         82  0.18000000E+001 -0.14000000E+001
         83  0.17000000E+001 -0.11000000E+001
         84  0.16000000E+001 -0.23000000E+001
         85  0.16000000E+001 -0.80000000E+000
         86  0.20000000E+001 -0.22500000E+001
         87  0.19000000E+001 -0.22000000E+001
         88  0.18000000E+001 -0.21500000E+001
         89  0.17000000E+001 -0.21000000E+001
         90  0.16000000E+001 -0.20500000E+001
         91  0.19000000E+001 -0.19500000E+001
         92  0.18000000E+001 -0.16500000E+001
         93  0.17000000E+001 -0.13500000E+001
         94  0.16000000E+001 -0.10500000E+001
         95  0.15000000E+001 -0.20000000E+001
         96  0.15000000E+001 -0.75000000E+000
         97  0.18000000E+001 -0.19000000E+001
         98  0.17000000E+001 -0.18500000E+001
         99  0.16000000E+001 -0.18000000E+001
        100  0.15000000E+001 -0.17500000E+001
        101  0.17000000E+001 -0.16000000E+001
        102  0.16000000E+001 -0.13000000E+001
        103  0.15000000E+001 -0.10000000E+001
        104  0.14000000E+001 -0.17000000E+001
        105  0.14000000E+001 -0.70000000E+000
        106  0.16000000E+001 -0.15500000E+001
        107  0.15000000E+001 -0.15000000E+001
        108  0.14000000E+001 -0.14500000E+001
        109  0.15000000E+001 -0.12500000E+001
        110  0.14000000E+001 -0.95000000E+000
        111  0.13000000E+001 -0.14000000E+001
        112  0.13000000E+001 -0.65000000E+000
        113  0.14000000E+001 -0.12000000E+001
        114  0.13000000E+001 -0.11500000E+001
        115  0.13000000E+001 -0.90000000E+000
        116  0.12000000E+001 -0.11000000E+001
        117  0.12000000E+001 -0.60000000E+000
        118  0.12000000E+001 -0.85000000E+000
        119  0.11000000E+001 -0.80000000E+000
        120  0.11000000E+001 -0.55000000E+000
        121  0.10000000E+001 -0.50000000E+000
        122  0.14000000E+001 -0.39500000E+001
        123  0.15000000E+001 -0.40000000E+001
        124  0.16000000E+001 -0.40500000E+001
        125  0.17000000E+001 -0.41000000E+001
        126  0.18000000E+001 -0.41500000E+001
        127  0.19000000E+001 -0.42000000E+001
        128  0.20000000E+001 -0.42500000E+001
        129  0.21000000E+001 -0.43000000E+001
        130  0.22000000E+001 -0.43500000E+001
        131  0.19000000E+001 -0.32000000E+001
        132  0.18000000E+001 -0.29000000E+001
        133  0.17000000E+001 -0.26000000E+001
        134  0.16000000E+001 -0.23000000E+001
        135  0.15000000E+001 -0.20000000E+001
        136  0.14000000E+001 -0.17000000E+001
        137  0.13000000E+001 -0.14000000E+001
        138  0.12000000E+001 -0.11000000E+001
        139  0.11000000E+001 -0.80000000E+000
        140  0.13000000E+001 -0.39000000E+001
        141  0.23000000E+001 -0.44000000E+001
        142  0.10000000E+001 -0.50000000E+000
        143  0.18000000E+001 -0.31500000E+001
        144  0.17000000E+001 -0.31000000E+001
        145  0.16000000E+001 -0.30500000E+001
        146  0.15000000E+001 -0.30000000E+001
        147  0.14000000E+001 -0.29500000E+001
        148  0.13000000E+001 -0.29000000E+001
        149  0.12000000E+001 -0.28500000E+001
        150  0.11000000E+001 -0.28000000E+001
        151  0.10000000E+001 -0.27500000E+001
        152  0.17000000E+001 -0.28500000E+001
        153  0.16000000E+001 -0.25500000E+001
        154  0.15000000E+001 -0.22500000E+001
        155  0.14000000E+001 -0.19500000E+001
        156  0.13000000E+001 -0.16500000E+001
        157  0.12000000E+001 -0.13500000E+001
        158  0.11000000E+001 -0.10500000E+001
        159  0.10000000E+001 -0.75000000E+000
        160  0.90000000E+000 -0.27000000E+001
        161  0.90000000E+000 -0.45000000E+000
        162  0.16000000E+001 -0.28000000E+001
        163  0.15000000E+001 -0.27500000E+001
        164  0.14000000E+001 -0.27000000E+001
        165  0.13000000E+001 -0.26500000E+001
        166  0.12000000E+001 -0.26000000E+001
        167  0.11000000E+001 -0.25500000E+001
        168  0.10000000E+001 -0.25000000E+001
        169  0.90000000E+000 -0.24500000E+001
        170  0.15000000E+001 -0.25000000E+001
        171  0.14000000E+001 -0.22000000E+001
        172  0.13000000E+001 -0.19000000E+001
        173  0.12000000E+001 -0.16000000E+001
        174  0.11000000E+001 -0.13000000E+001
        175  0.10000000E+001 -0.10000000E+001
        176  0.90000000E+000 -0.70000000E+000
        177  0.80000000E+000 -0.24000000E+001
        178  0.80000000E+000 -0.40000000E+000
        179  0.14000000E+001 -0.24500000E+001
        180  0.13000000E+001 -0.24000000E+001
        181  0.12000000E+001 -0.23500000E+001
        182  0.11000000E+001 -0.23000000E+001
        183  0.10000000E+001 -0.22500000E+001
        184  0.90000000E+000 -0.22000000E+001
        185  0.80000000E+000 -0.21500000E+001
        186  0.13000000E+001 -0.21500000E+001
        187  0.12000000E+001 -0.18500000E+001
        188  0.11000000E+001 -0.15500000E+001
        189  0.10000000E+001 -0.12500000E+001
        190  0.90000000E+000 -0.95000000E+000
        191  0.80000000E+000 -0.65000000E+000
        192  0.70000000E+000 -0.21000000E+001
        193  0.70000000E+000 -0.35000000E+000
        194  0.12000000E+001 -0.21000000E+001
        195  0.11000000E+001 -0.20500000E+001
        196  0.10000000E+001 -0.20000000E+001
        197  0.90000000E+000 -0.19500000E+001
        198  0.80000000E+000 -0.19000000E+001
        199  0.70000000E+000 -0.18500000E+001
        200  0.11000000E+001 -0.18000000E+001
        201  0.10000000E+001 -0.15000000E+001
        202  0.90000000E+000 -0.12000000E+001
        203  0.80000000E+000 -0.90000000E+000
        204  0.70000000E+000 -0.60000000E+000
        205  0.60000000E+000 -0.18000000E+001
        206  0.60000000E+000 -0.30000000E+000
        207  0.10000000E+001 -0.17500000E+001
        208  0.90000000E+000 -0.17000000E+001
        209  0.80000000E+000 -0.16500000E+001
        210  0.70000000E+000 -0.16000000E+001
        211  0.60000000E+000 -0.15500000E+001
        212  0.90000000E+000 -0.14500000E+001
        213  0.80000000E+000 -0.11500000E+001
        214  0.70000000E+000 -0.85000000E+000
        215  0.60000000E+000 -0.55000000E+000
        216  0.50000000E+000 -0.15000000E+001
        217  0.50000000E+000 -0.25000000E+000
        218  0.80000000E+000 -0.14000000E+001
        219  0.70000000E+000 -0.13500000E+001
        220  0.60000000E+000 -0.13000000E+001
        221  0.50000000E+000 -0.12500000E+001
        222  0.70000000E+000 -0.11000000E+001
        223  0.60000000E+000 -0.80000000E+000
        224  0.50000000E+000 -0.50000000E+000
        225  0.40000000E+000 -0.12000000E+001
        226  0.40000000E+000 -0.20000000E+000
        227  0.60000000E+000 -0.10500000E+001
        228  0.50000000E+000 -0.10000000E+001
        229  0.40000000E+000 -0.95000000E+000
        230  0.50000000E+000 -0.75000000E+000
        231  0.40000000E+000 -0.45000000E+000
        232  0.30000000E+000 -0.90000000E+000
        233  0.30000000E+000 -0.15000000E+000
        234  0.40000000E+000 -0.70000000E+000
        235  0.30000000E+000 -0.65000000E+000
        236  0.30000000E+000 -0.40000000E+000
        237  0.20000000E+000 -0.60000000E+000
        238  0.20000000E+000 -0.10000000E+000
        239  0.20000000E+000 -0.35000000E+000
        240  0.10000000E+000 -0.30000000E+000
        241  0.10000000E+000 -0.50000000E-001
        242  0.00000000E+000 -0.00000000E+000
End values

Result PRESS ALYA  0.20000000E+00 Scalar OnNodes
ComponentNames PRESS
Values
          1  0.50500000E+001
          2  0.48000000E+001
          3  0.45500000E+001
          4  0.43000000E+001
          5  0.40500000E+001
          6  0.38000000E+001
          7  0.35500000E+001
          8  0.33000000E+001
          9  0.30500000E+001
         10  0.40000000E+000
         11 -0.20000000E+000
         12 -0.80000000E+000
         13 -0.14000000E+001
         14 -0.20000000E+001
         15 -0.26000000E+001
         16 -0.32000000E+001
         17 -0.38000000E+001
         18 -0.44000000E+001
         19  0.53000000E+001
         20  0.28000000E+001
         21 -0.50000000E+001
         22  0.65000000E+000
         23  0.90000000E+000
         24  0.11500000E+001
         25  0.14000000E+001
         26  0.16500000E+001
         27  0.19000000E+001
         28  0.21500000E+001
         29  0.24000000E+001
         30  0.26500000E+001
         31  0.50000000E-001
         32 -0.55000000E+000
         33 -0.11500000E+001
         34 -0.17500000E+001
         35 -0.23500000E+001
         36 -0.29500000E+001
         37 -0.35500000E+001
         38 -0.41500000E+001
         39  0.29000000E+001
         40 -0.47500000E+001
         41  0.30000000E+000
         42  0.55000000E+000
         43  0.80000000E+000
         44  0.10500000E+001
         45  0.13000000E+001
         46  0.15500000E+001
         47  0.18000000E+001
         48  0.20500000E+001
         49 -0.30000000E+000
         50 -0.90000000E+000
         51 -0.15000000E+001
         52 -0.21000000E+001
         53 -0.27000000E+001
         54 -0.33000000E+001
         55 -0.39000000E+001
         56  0.23000000E+001
         57 -0.45000000E+001
         58 -0.50000000E-001
         59  0.20000000E+000
         60  0.45000000E+000
         61  0.70000000E+000
         62  0.95000000E+000
         63  0.12000000E+001
         64  0.14500000E+001
         65 -0.65000000E+000
         66 -0.12500000E+001
         67 -0.18500000E+001
         68 -0.24500000E+001
         69 -0.30500000E+001
         70 -0.36500000E+001
         71  0.17000000E+001
         72 -0.42500000E+001
         73 -0.40000000E+000
         74 -0.15000000E+000
         75  0.10000000E+000
         76  0.35000000E+000
         77  0.60000000E+000
         78  0.85000000E+000
         79 -0.10000000E+001
         80 -0.16000000E+001
         81 -0.22000000E+001
         82 -0.28000000E+001
         83 -0.34000000E+001
         84  0.11000000E+001
         85 -0.40000000E+001
         86 -0.75000000E+000
         87 -0.50000000E+000
         88 -0.25000000E+000
         89  0.00000000E+000
         90  0.25000000E+000
         91 -0.13500000E+001
         92 -0.19500000E+001
         93 -0.25500000E+001
         94 -0.31500000E+001
         95  0.50000000E+000
         96 -0.37500000E+001
         97 -0.11000000E+001
         98 -0.85000000E+000
         99 -0.60000000E+000
        100 -0.35000000E+000
        101 -0.17000000E+001
        102 -0.23000000E+001
        103 -0.29000000E+001
        104 -0.10000000E+000
        105 -0.35000000E+001
        106 -0.14500000E+001
        107 -0.12000000E+001
        108 -0.95000000E+000
        109 -0.20500000E+001
        110 -0.26500000E+001
        111 -0.70000000E+000
        112 -0.32500000E+001
        113 -0.18000000E+001
        114 -0.15500000E+001
        115 -0.24000000E+001
        116 -0.13000000E+001
        117 -0.30000000E+001
        118 -0.21500000E+001
        119 -0.19000000E+001
        120 -0.27500000E+001
        121 -0.25000000E+001
        122  0.75500000E+001
        123  0.73000000E+001
        124  0.70500000E+001
        125  0.68000000E+001
        126  0.65500000E+001
        127  0.63000000E+001
        128  0.60500000E+001
        129  0.58000000E+001
        130  0.55500000E+001
        131  0.29000000E+001
        132  0.23000000E+001
        133  0.17000000E+001
        134  0.11000000E+001
        135  0.50000000E+000
        136 -0.10000000E+000
        137 -0.70000000E+000
        138 -0.13000000E+001
        139 -0.19000000E+001
        140  0.78000000E+001
        141  0.53000000E+001
        142 -0.25000000E+001
        143  0.31500000E+001
        144  0.34000000E+001
        145  0.36500000E+001
        146  0.39000000E+001
        147  0.41500000E+001
        148  0.44000000E+001
        149  0.46500000E+001
        150  0.49000000E+001
        151  0.51500000E+001
        152  0.25500000E+001
        153  0.19500000E+001
        154  0.13500000E+001
        155  0.75000000E+000
        156  0.15000000E+000
        157 -0.45000000E+000
        158 -0.10500000E+001
        159 -0.16500000E+001
        160  0.54000000E+001
        161 -0.22500000E+001
        162  0.28000000E+001
        163  0.30500000E+001
        164  0.33000000E+001
        165  0.35500000E+001
        166  0.38000000E+001
        167  0.40500000E+001
        168  0.43000000E+001
        169  0.45500000E+001
        170  0.22000000E+001
        171  0.16000000E+001
        172  0.10000000E+001
        173  0.40000000E+000
        174 -0.20000000E+000
        175 -0.80000000E+000
        176 -0.14000000E+001
        177  0.48000000E+001
        178 -0.20000000E+001
        179  0.24500000E+001
        180  0.27000000E+001
        181  0.29500000E+001
        182  0.32000000E+001
        183  0.34500000E+001
        184  0.37000000E+001
        185  0.39500000E+001
        186  0.18500000E+001
        187  0.12500000E+001
        188  0.65000000E+000
        189  0.50000000E-001
        190 -0.55000000E+000
        191 -0.11500000E+001
        192  0.42000000E+001
        193 -0.17500000E+001
        194  0.21000000E+001
        195  0.23500000E+001
        196  0.26000000E+001
        197  0.28500000E+001
        198  0.31000000E+001
        199  0.33500000E+001
        200  0.15000000E+001
        201  0.90000000E+000
        202  0.30000000E+000
        203 -0.30000000E+000
        204 -0.90000000E+000
        205  0.36000000E+001
        206 -0.15000000E+001
        207  0.17500000E+001
        208  0.20000000E+001
        209  0.22500000E+001
        210  0.25000000E+001
        211  0.27500000E+001
        212  0.11500000E+001
        213  0.55000000E+000
        214 -0.50000000E-001
        215 -0.65000000E+000
        216  0.30000000E+001
        217 -0.12500000E+001
        218  0.14000000E+001
        219  0.16500000E+001
        220  0.19000000E+001
        221  0.21500000E+001
        222  0.80000000E+000
        223  0.20000000E+000
        224 -0.40000000E+000
        225  0.24000000E+001
        226 -0.10000000E+001
        227  0.10500000E+001
        228  0.13000000E+001
        229  0.15500000E+001
        230  0.45000000E+000
        231 -0.15000000E+000
        232  0.18000000E+001
        233 -0.75000000E+000
        234  0.70000000E+000
        235  0.95000000E+000
        236  0.10000000E+000
        237  0.12000000E+001
        238 -0.50000000E+000
        239  0.35000000E+000
        240  0.60000000E+000
        241 -0.25000000E+000
        242  0.00000000E+000
End values

