GiD Post Results File 1.0
 
Result WALLD ALYA  0.00000000E+00 Scalar OnNodes
ComponentNames WALLD
Values
        1  0.00000000E+000
        2  0.00000000E+000
        3  0.20000000E+000
        4  0.20000000E+000
        5  0.40000000E+000
        6  0.40000000E+000
        7  0.60000000E+000
        8  0.60000000E+000
        9  0.80000000E+000
       10  0.80000000E+000
       11  0.10000000E+001
       12  0.10000000E+001
       13  0.80000000E+000
       14  0.80000000E+000
       15  0.60000000E+000
       16  0.60000000E+000
       17  0.40000000E+000
       18  0.40000000E+000
       19  0.20000000E+000
       20  0.20000000E+000
       21  0.00000000E+000
       22  0.00000000E+000
End values
