{
    "authors": [
        "cbutakoff@elem.bio"
    ],
    "comparisons": [
        {
            "file": "one_stem_cell_atr.exm.wit",
            "method": "absolute",
            "tolerance": 0
        }
    ],
    "description": "Check stem cell atrial model in one element",
    "exclude": [
        "special"
    ],
    "executions": [
        {
            "mpi": 1,
            "openmp": 0
        }
    ],
    "modules": [
        "exmedi"
    ],
    "name": "one_stem_cell_atr",
    "postprocess": "alya2pos",
    "timeout": "00:02:00"
}
