GiD Post Results File 1.0
 
Result MASSM ALYA  0.00000000E+00 Scalar OnNodes
ComponentNames MASSM
Values
          1  0.10526316E-002
          2  0.56140351E-002
          3  0.28070175E-002
          4  0.28070175E-002
          5  0.21052632E-002
          6  0.56140351E-002
          7  0.56140351E-002
          8  0.21052632E-002
          9  0.21052632E-002
         10  0.56140351E-002
         11  0.56140351E-002
         12  0.56140351E-002
         13  0.56140351E-002
         14  0.56140351E-002
         15  0.42105263E-002
         16  0.56140351E-002
         17  0.56140351E-002
         18  0.28070175E-002
         19  0.28070175E-002
         20  0.21052632E-002
         21  0.21052632E-002
         22  0.56140351E-002
         23  0.56140351E-002
         24  0.56140351E-002
         25  0.56140351E-002
         26  0.56140351E-002
         27  0.56140351E-002
         28  0.56140351E-002
         29  0.21052632E-002
         30  0.21052632E-002
         31  0.56140351E-002
         32  0.56140351E-002
         33  0.21052632E-002
         34  0.56140351E-002
         35  0.56140351E-002
         36  0.42105263E-002
         37  0.42105263E-002
         38  0.56140351E-002
         39  0.56140351E-002
         40  0.56140351E-002
         41  0.56140351E-002
         42  0.56140351E-002
         43  0.56140351E-002
         44  0.28070175E-002
         45  0.28070175E-002
         46  0.56140351E-002
         47  0.21052632E-002
         48  0.21052632E-002
         49  0.56140351E-002
         50  0.56140351E-002
         51  0.56140351E-002
         52  0.56140351E-002
         53  0.56140351E-002
         54  0.56140351E-002
         55  0.42105263E-002
         56  0.56140351E-002
         57  0.56140351E-002
         58  0.56140351E-002
         59  0.56140351E-002
         60  0.21052632E-002
         61  0.21052632E-002
         62  0.21052632E-002
         63  0.21052632E-002
         64  0.56140351E-002
         65  0.56140351E-002
         66  0.56140351E-002
         67  0.56140351E-002
         68  0.42105263E-002
         69  0.42105263E-002
         70  0.56140351E-002
         71  0.56140351E-002
         72  0.56140351E-002
         73  0.56140351E-002
         74  0.56140351E-002
         75  0.56140351E-002
         76  0.56140351E-002
         77  0.56140351E-002
         78  0.56140351E-002
         79  0.56140351E-002
         80  0.56140351E-002
         81  0.56140351E-002
         82  0.56140351E-002
         83  0.28070175E-002
         84  0.28070175E-002
         85  0.21052632E-002
         86  0.21052632E-002
         87  0.21052632E-002
         88  0.56140351E-002
         89  0.56140351E-002
         90  0.42105263E-002
         91  0.42105263E-002
         92  0.56140351E-002
         93  0.56140351E-002
         94  0.56140351E-002
         95  0.56140351E-002
         96  0.56140351E-002
         97  0.56140351E-002
         98  0.21052632E-002
         99  0.21052632E-002
        100  0.56140351E-002
        101  0.56140351E-002
        102  0.56140351E-002
        103  0.56140351E-002
        104  0.56140351E-002
        105  0.56140351E-002
        106  0.56140351E-002
        107  0.56140351E-002
        108  0.56140351E-002
        109  0.21052632E-002
        110  0.21052632E-002
        111  0.56140351E-002
        112  0.56140351E-002
        113  0.56140351E-002
        114  0.56140351E-002
        115  0.42105263E-002
        116  0.42105263E-002
        117  0.56140351E-002
        118  0.56140351E-002
        119  0.42105263E-002
        120  0.56140351E-002
        121  0.56140351E-002
        122  0.56140351E-002
        123  0.56140351E-002
        124  0.56140351E-002
        125  0.56140351E-002
        126  0.21052632E-002
        127  0.21052632E-002
        128  0.56140351E-002
        129  0.56140351E-002
        130  0.56140351E-002
        131  0.56140351E-002
        132  0.56140351E-002
        133  0.56140351E-002
        134  0.42105263E-002
        135  0.42105263E-002
        136  0.28070175E-002
        137  0.28070175E-002
        138  0.21052632E-002
        139  0.21052632E-002
        140  0.56140351E-002
        141  0.56140351E-002
        142  0.56140351E-002
        143  0.56140351E-002
        144  0.56140351E-002
        145  0.56140351E-002
        146  0.56140351E-002
        147  0.56140351E-002
        148  0.56140351E-002
        149  0.56140351E-002
        150  0.56140351E-002
        151  0.21052632E-002
        152  0.21052632E-002
        153  0.56140351E-002
        154  0.56140351E-002
        155  0.56140351E-002
        156  0.56140351E-002
        157  0.56140351E-002
        158  0.56140351E-002
        159  0.56140351E-002
        160  0.56140351E-002
        161  0.56140351E-002
        162  0.56140351E-002
        163  0.21052632E-002
        164  0.56140351E-002
        165  0.56140351E-002
        166  0.10526316E-002
        167  0.10526316E-002
        168  0.42105263E-002
        169  0.42105263E-002
        170  0.28070175E-002
        171  0.28070175E-002
        172  0.56140351E-002
        173  0.56140351E-002
        174  0.56140351E-002
        175  0.56140351E-002
        176  0.21052632E-002
        177  0.21052632E-002
        178  0.21052632E-002
        179  0.21052632E-002
        180  0.28070175E-002
        181  0.28070175E-002
        182  0.56140351E-002
        183  0.56140351E-002
        184  0.56140351E-002
        185  0.56140351E-002
        186  0.56140351E-002
        187  0.56140351E-002
        188  0.56140351E-002
        189  0.21052632E-002
        190  0.21052632E-002
        191  0.56140351E-002
        192  0.56140351E-002
        193  0.56140351E-002
        194  0.56140351E-002
        195  0.28070175E-002
        196  0.28070175E-002
        197  0.42105263E-002
        198  0.56140351E-002
        199  0.56140351E-002
        200  0.21052632E-002
        201  0.21052632E-002
        202  0.56140351E-002
        203  0.56140351E-002
        204  0.21052632E-002
        205  0.21052632E-002
        206  0.56140351E-002
        207  0.56140351E-002
        208  0.56140351E-002
        209  0.56140351E-002
        210  0.56140351E-002
        211  0.28070175E-002
        212  0.28070175E-002
        213  0.21052632E-002
        214  0.56140351E-002
        215  0.56140351E-002
        216  0.21052632E-002
        217  0.21052632E-002
        218  0.56140351E-002
        219  0.28070175E-002
        220  0.28070175E-002
        221  0.10526316E-002
End values

Result TEMPE ALYA  0.00000000E+00 Scalar OnNodes
ComponentNames TEMPE
Values
          1  0.30000000E+001
          2  0.00000000E+000
          3  0.35200000E+001
          4  0.24300000E+001
          5  0.00000000E+000
          6  0.00000000E+000
          7  0.00000000E+000
          8  0.40800000E+001
          9  0.19200000E+001
         10  0.00000000E+000
         11  0.00000000E+000
         12  0.00000000E+000
         13  0.00000000E+000
         14  0.00000000E+000
         15  0.00000000E+000
         16  0.00000000E+000
         17  0.00000000E+000
         18  0.14700000E+001
         19  0.46800000E+001
         20  0.00000000E+000
         21  0.00000000E+000
         22  0.00000000E+000
         23  0.00000000E+000
         24  0.00000000E+000
         25  0.00000000E+000
         26  0.00000000E+000
         27  0.00000000E+000
         28  0.00000000E+000
         29  0.10800000E+001
         30  0.53200000E+001
         31  0.00000000E+000
         32  0.00000000E+000
         33  0.00000000E+000
         34  0.00000000E+000
         35  0.00000000E+000
         36  0.00000000E+000
         37  0.00000000E+000
         38  0.00000000E+000
         39  0.00000000E+000
         40  0.00000000E+000
         41  0.00000000E+000
         42  0.00000000E+000
         43  0.00000000E+000
         44  0.75000000E+000
         45  0.60000000E+001
         46  0.00000000E+000
         47  0.00000000E+000
         48  0.00000000E+000
         49  0.00000000E+000
         50  0.00000000E+000
         51  0.00000000E+000
         52  0.00000000E+000
         53  0.00000000E+000
         54  0.00000000E+000
         55  0.00000000E+000
         56  0.00000000E+000
         57  0.00000000E+000
         58  0.00000000E+000
         59  0.00000000E+000
         60  0.00000000E+000
         61  0.00000000E+000
         62  0.67200000E+001
         63  0.48000000E+000
         64  0.00000000E+000
         65  0.00000000E+000
         66  0.00000000E+000
         67  0.00000000E+000
         68  0.00000000E+000
         69  0.00000000E+000
         70  0.00000000E+000
         71  0.00000000E+000
         72  0.00000000E+000
         73  0.00000000E+000
         74  0.00000000E+000
         75  0.00000000E+000
         76  0.00000000E+000
         77  0.00000000E+000
         78  0.00000000E+000
         79  0.00000000E+000
         80  0.00000000E+000
         81  0.00000000E+000
         82  0.00000000E+000
         83  0.74800000E+001
         84  0.27000000E+000
         85  0.00000000E+000
         86  0.00000000E+000
         87  0.00000000E+000
         88  0.00000000E+000
         89  0.00000000E+000
         90  0.00000000E+000
         91  0.00000000E+000
         92  0.00000000E+000
         93  0.00000000E+000
         94  0.00000000E+000
         95  0.00000000E+000
         96  0.00000000E+000
         97  0.00000000E+000
         98  0.00000000E+000
         99  0.00000000E+000
        100  0.00000000E+000
        101  0.00000000E+000
        102  0.00000000E+000
        103  0.00000000E+000
        104  0.00000000E+000
        105  0.00000000E+000
        106  0.00000000E+000
        107  0.00000000E+000
        108  0.00000000E+000
        109  0.82800000E+001
        110  0.12000000E+000
        111  0.00000000E+000
        112  0.00000000E+000
        113  0.00000000E+000
        114  0.00000000E+000
        115  0.00000000E+000
        116  0.00000000E+000
        117  0.00000000E+000
        118  0.00000000E+000
        119  0.00000000E+000
        120  0.00000000E+000
        121  0.00000000E+000
        122  0.00000000E+000
        123  0.00000000E+000
        124  0.00000000E+000
        125  0.00000000E+000
        126  0.00000000E+000
        127  0.00000000E+000
        128  0.00000000E+000
        129  0.00000000E+000
        130  0.00000000E+000
        131  0.00000000E+000
        132  0.00000000E+000
        133  0.00000000E+000
        134  0.00000000E+000
        135  0.00000000E+000
        136  0.30000000E-001
        137  0.91200000E+001
        138  0.00000000E+000
        139  0.00000000E+000
        140  0.00000000E+000
        141  0.00000000E+000
        142  0.00000000E+000
        143  0.00000000E+000
        144  0.00000000E+000
        145  0.00000000E+000
        146  0.00000000E+000
        147  0.00000000E+000
        148  0.00000000E+000
        149  0.00000000E+000
        150  0.00000000E+000
        151  0.00000000E+000
        152  0.00000000E+000
        153  0.00000000E+000
        154  0.00000000E+000
        155  0.00000000E+000
        156  0.00000000E+000
        157  0.00000000E+000
        158  0.00000000E+000
        159  0.00000000E+000
        160  0.00000000E+000
        161  0.00000000E+000
        162  0.00000000E+000
        163  0.00000000E+000
        164  0.00000000E+000
        165  0.00000000E+000
        166  0.00000000E+000
        167  0.10000000E+002
        168  0.00000000E+000
        169  0.00000000E+000
        170  0.20000000E-001
        171  0.89300000E+001
        172  0.00000000E+000
        173  0.00000000E+000
        174  0.00000000E+000
        175  0.00000000E+000
        176  0.80000000E-001
        177  0.79200000E+001
        178  0.00000000E+000
        179  0.00000000E+000
        180  0.69700000E+001
        181  0.18000000E+000
        182  0.00000000E+000
        183  0.00000000E+000
        184  0.00000000E+000
        185  0.00000000E+000
        186  0.00000000E+000
        187  0.00000000E+000
        188  0.00000000E+000
        189  0.60800000E+001
        190  0.32000000E+000
        191  0.00000000E+000
        192  0.00000000E+000
        193  0.00000000E+000
        194  0.00000000E+000
        195  0.52500000E+001
        196  0.50000000E+000
        197  0.00000000E+000
        198  0.00000000E+000
        199  0.00000000E+000
        200  0.00000000E+000
        201  0.00000000E+000
        202  0.00000000E+000
        203  0.00000000E+000
        204  0.72000000E+000
        205  0.44800000E+001
        206  0.00000000E+000
        207  0.00000000E+000
        208  0.00000000E+000
        209  0.00000000E+000
        210  0.00000000E+000
        211  0.98000000E+000
        212  0.37700000E+001
        213  0.00000000E+000
        214  0.00000000E+000
        215  0.00000000E+000
        216  0.31200000E+001
        217  0.12800000E+001
        218  0.00000000E+000
        219  0.16200000E+001
        220  0.25300000E+001
        221  0.20000000E+001
End values

Result ERROR ALYA  0.00000000E+00 Scalar OnNodes
ComponentNames ERROR
Values
          1  0.00000000E+000
          2 -0.29500000E+001
          3  0.00000000E+000
          4  0.00000000E+000
          5 -0.29000000E+001
          6 -0.34650000E+001
          7 -0.23850000E+001
          8  0.00000000E+000
          9  0.00000000E+000
         10 -0.28500000E+001
         11 -0.34100000E+001
         12 -0.23400000E+001
         13 -0.40200000E+001
         14 -0.18800000E+001
         15 -0.28000000E+001
         16 -0.33550000E+001
         17 -0.22950000E+001
         18  0.00000000E+000
         19  0.00000000E+000
         20 -0.39600000E+001
         21 -0.18400000E+001
         22 -0.46150000E+001
         23 -0.27500000E+001
         24 -0.14350000E+001
         25 -0.33000000E+001
         26 -0.22500000E+001
         27 -0.39000000E+001
         28 -0.18000000E+001
         29  0.00000000E+000
         30  0.00000000E+000
         31 -0.45500000E+001
         32 -0.14000000E+001
         33 -0.27000000E+001
         34 -0.22050000E+001
         35 -0.32450000E+001
         36 -0.38400000E+001
         37 -0.17600000E+001
         38 -0.10500000E+001
         39 -0.52500000E+001
         40 -0.13650000E+001
         41 -0.44850000E+001
         42 -0.26500000E+001
         43 -0.31900000E+001
         44  0.00000000E+000
         45  0.00000000E+000
         46 -0.21600000E+001
         47 -0.51800000E+001
         48 -0.10200000E+001
         49 -0.17200000E+001
         50 -0.37800000E+001
         51 -0.44200000E+001
         52 -0.13300000E+001
         53 -0.72500000E+000
         54 -0.59250000E+001
         55 -0.26000000E+001
         56 -0.21150000E+001
         57 -0.99000000E+000
         58 -0.31350000E+001
         59 -0.51100000E+001
         60 -0.37200000E+001
         61 -0.16800000E+001
         62  0.00000000E+000
         63  0.00000000E+000
         64 -0.12950000E+001
         65 -0.43550000E+001
         66 -0.58500000E+001
         67 -0.70000000E+000
         68 -0.50400000E+001
         69 -0.96000000E+000
         70 -0.25500000E+001
         71 -0.30800000E+001
         72 -0.20700000E+001
         73 -0.66400000E+001
         74 -0.46000000E+000
         75 -0.36600000E+001
         76 -0.16400000E+001
         77 -0.57750000E+001
         78 -0.67500000E+000
         79 -0.42900000E+001
         80 -0.12600000E+001
         81 -0.49700000E+001
         82 -0.93000000E+000
         83  0.00000000E+000
         84  0.00000000E+000
         85 -0.65600000E+001
         86 -0.44000000E+000
         87 -0.25000000E+001
         88 -0.30250000E+001
         89 -0.20250000E+001
         90 -0.36000000E+001
         91 -0.16000000E+001
         92 -0.57000000E+001
         93 -0.65000000E+000
         94 -0.42250000E+001
         95 -0.12250000E+001
         96 -0.73950000E+001
         97 -0.25500000E+000
         98 -0.49000000E+001
         99 -0.90000000E+000
        100 -0.64800000E+001
        101 -0.42000000E+000
        102 -0.24500000E+001
        103 -0.19800000E+001
        104 -0.29700000E+001
        105 -0.56250000E+001
        106 -0.35400000E+001
        107 -0.15600000E+001
        108 -0.62500000E+000
        109  0.00000000E+000
        110  0.00000000E+000
        111 -0.73100000E+001
        112 -0.24000000E+000
        113 -0.11900000E+001
        114 -0.41600000E+001
        115 -0.64000000E+001
        116 -0.40000000E+000
        117 -0.48300000E+001
        118 -0.87000000E+000
        119 -0.24000000E+001
        120 -0.81900000E+001
        121 -0.19350000E+001
        122 -0.11000000E+000
        123 -0.29150000E+001
        124 -0.55500000E+001
        125 -0.60000000E+000
        126 -0.15200000E+001
        127 -0.34800000E+001
        128 -0.72250000E+001
        129 -0.22500000E+000
        130 -0.40950000E+001
        131 -0.11550000E+001
        132 -0.63200000E+001
        133 -0.38000000E+000
        134 -0.47600000E+001
        135 -0.84000000E+000
        136  0.00000000E+000
        137  0.00000000E+000
        138 -0.81000000E+001
        139 -0.10000000E+000
        140 -0.54750000E+001
        141 -0.23500000E+001
        142 -0.57500000E+000
        143 -0.71400000E+001
        144 -0.18900000E+001
        145 -0.21000000E+000
        146 -0.28600000E+001
        147 -0.14800000E+001
        148 -0.34200000E+001
        149 -0.11200000E+001
        150 -0.40300000E+001
        151 -0.62400000E+001
        152 -0.36000000E+000
        153 -0.90250000E+001
        154 -0.25000000E-001
        155 -0.46900000E+001
        156 -0.80100000E+001
        157 -0.90000000E-001
        158 -0.81000000E+000
        159 -0.70550000E+001
        160 -0.19500000E+000
        161 -0.54000000E+001
        162 -0.55000000E+000
        163 -0.23000000E+001
        164 -0.28050000E+001
        165 -0.18450000E+001
        166  0.00000000E+000
        167  0.00000000E+000
        168 -0.14400000E+001
        169 -0.33600000E+001
        170  0.00000000E+000
        171  0.00000000E+000
        172 -0.39650000E+001
        173 -0.61600000E+001
        174 -0.10850000E+001
        175 -0.34000000E+000
        176  0.00000000E+000
        177  0.00000000E+000
        178 -0.46200000E+001
        179 -0.78000000E+000
        180  0.00000000E+000
        181  0.00000000E+000
        182 -0.52500000E+000
        183 -0.53250000E+001
        184 -0.22500000E+001
        185 -0.18000000E+001
        186 -0.27500000E+001
        187 -0.33000000E+001
        188 -0.14000000E+001
        189  0.00000000E+000
        190  0.00000000E+000
        191 -0.10500000E+001
        192 -0.39000000E+001
        193 -0.75000000E+000
        194 -0.45500000E+001
        195  0.00000000E+000
        196  0.00000000E+000
        197 -0.22000000E+001
        198 -0.26950000E+001
        199 -0.17550000E+001
        200 -0.32400000E+001
        201 -0.13600000E+001
        202 -0.38350000E+001
        203 -0.10150000E+001
        204  0.00000000E+000
        205  0.00000000E+000
        206 -0.21500000E+001
        207 -0.17100000E+001
        208 -0.26400000E+001
        209 -0.13200000E+001
        210 -0.31800000E+001
        211  0.00000000E+000
        212  0.00000000E+000
        213 -0.21000000E+001
        214 -0.16650000E+001
        215 -0.25850000E+001
        216  0.00000000E+000
        217  0.00000000E+000
        218 -0.20500000E+001
        219  0.00000000E+000
        220  0.00000000E+000
        221  0.00000000E+000
End values

Result TEMPE ALYA  0.10000000E+00 Scalar OnNodes
ComponentNames TEMPE
Values
          1  0.30000000E+001
          2  0.29500000E+001
          3  0.35200000E+001
          4  0.24300000E+001
          5  0.29000000E+001
          6  0.34650000E+001
          7  0.23850000E+001
          8  0.40800000E+001
          9  0.19200000E+001
         10  0.28500000E+001
         11  0.34100000E+001
         12  0.23400000E+001
         13  0.40200000E+001
         14  0.18800000E+001
         15  0.28000000E+001
         16  0.33550000E+001
         17  0.22950000E+001
         18  0.14700000E+001
         19  0.46800000E+001
         20  0.39600000E+001
         21  0.18400000E+001
         22  0.46150000E+001
         23  0.27500000E+001
         24  0.14350000E+001
         25  0.33000000E+001
         26  0.22500000E+001
         27  0.39000000E+001
         28  0.18000000E+001
         29  0.10800000E+001
         30  0.53200000E+001
         31  0.45500000E+001
         32  0.14000000E+001
         33  0.27000000E+001
         34  0.22050000E+001
         35  0.32450000E+001
         36  0.38400000E+001
         37  0.17600000E+001
         38  0.10500000E+001
         39  0.52500000E+001
         40  0.13650000E+001
         41  0.44850000E+001
         42  0.26500000E+001
         43  0.31900000E+001
         44  0.75000000E+000
         45  0.60000000E+001
         46  0.21600000E+001
         47  0.51800000E+001
         48  0.10200000E+001
         49  0.17200000E+001
         50  0.37800000E+001
         51  0.44200000E+001
         52  0.13300000E+001
         53  0.72500000E+000
         54  0.59250000E+001
         55  0.26000000E+001
         56  0.21150000E+001
         57  0.99000000E+000
         58  0.31350000E+001
         59  0.51100000E+001
         60  0.37200000E+001
         61  0.16800000E+001
         62  0.67200000E+001
         63  0.48000000E+000
         64  0.12950000E+001
         65  0.43550000E+001
         66  0.58500000E+001
         67  0.70000000E+000
         68  0.50400000E+001
         69  0.96000000E+000
         70  0.25500000E+001
         71  0.30800000E+001
         72  0.20700000E+001
         73  0.66400000E+001
         74  0.46000000E+000
         75  0.36600000E+001
         76  0.16400000E+001
         77  0.57750000E+001
         78  0.67500000E+000
         79  0.42900000E+001
         80  0.12600000E+001
         81  0.49700000E+001
         82  0.93000000E+000
         83  0.74800000E+001
         84  0.27000000E+000
         85  0.65600000E+001
         86  0.44000000E+000
         87  0.25000000E+001
         88  0.30250000E+001
         89  0.20250000E+001
         90  0.36000000E+001
         91  0.16000000E+001
         92  0.57000000E+001
         93  0.65000000E+000
         94  0.42250000E+001
         95  0.12250000E+001
         96  0.73950000E+001
         97  0.25500000E+000
         98  0.49000000E+001
         99  0.90000000E+000
        100  0.64800000E+001
        101  0.42000000E+000
        102  0.24500000E+001
        103  0.19800000E+001
        104  0.29700000E+001
        105  0.56250000E+001
        106  0.35400000E+001
        107  0.15600000E+001
        108  0.62500000E+000
        109  0.82800000E+001
        110  0.12000000E+000
        111  0.73100000E+001
        112  0.24000000E+000
        113  0.11900000E+001
        114  0.41600000E+001
        115  0.64000000E+001
        116  0.40000000E+000
        117  0.48300000E+001
        118  0.87000000E+000
        119  0.24000000E+001
        120  0.81900000E+001
        121  0.19350000E+001
        122  0.11000000E+000
        123  0.29150000E+001
        124  0.55500000E+001
        125  0.60000000E+000
        126  0.15200000E+001
        127  0.34800000E+001
        128  0.72250000E+001
        129  0.22500000E+000
        130  0.40950000E+001
        131  0.11550000E+001
        132  0.63200000E+001
        133  0.38000000E+000
        134  0.47600000E+001
        135  0.84000000E+000
        136  0.30000000E-001
        137  0.91200000E+001
        138  0.81000000E+001
        139  0.10000000E+000
        140  0.54750000E+001
        141  0.23500000E+001
        142  0.57500000E+000
        143  0.71400000E+001
        144  0.18900000E+001
        145  0.21000000E+000
        146  0.28600000E+001
        147  0.14800000E+001
        148  0.34200000E+001
        149  0.11200000E+001
        150  0.40300000E+001
        151  0.62400000E+001
        152  0.36000000E+000
        153  0.90250000E+001
        154  0.25000000E-001
        155  0.46900000E+001
        156  0.80100000E+001
        157  0.90000000E-001
        158  0.81000000E+000
        159  0.70550000E+001
        160  0.19500000E+000
        161  0.54000000E+001
        162  0.55000000E+000
        163  0.23000000E+001
        164  0.28050000E+001
        165  0.18450000E+001
        166  0.00000000E+000
        167  0.10000000E+002
        168  0.14400000E+001
        169  0.33600000E+001
        170  0.20000000E-001
        171  0.89300000E+001
        172  0.39650000E+001
        173  0.61600000E+001
        174  0.10850000E+001
        175  0.34000000E+000
        176  0.80000000E-001
        177  0.79200000E+001
        178  0.46200000E+001
        179  0.78000000E+000
        180  0.69700000E+001
        181  0.18000000E+000
        182  0.52500000E+000
        183  0.53250000E+001
        184  0.22500000E+001
        185  0.18000000E+001
        186  0.27500000E+001
        187  0.33000000E+001
        188  0.14000000E+001
        189  0.60800000E+001
        190  0.32000000E+000
        191  0.10500000E+001
        192  0.39000000E+001
        193  0.75000000E+000
        194  0.45500000E+001
        195  0.52500000E+001
        196  0.50000000E+000
        197  0.22000000E+001
        198  0.26950000E+001
        199  0.17550000E+001
        200  0.32400000E+001
        201  0.13600000E+001
        202  0.38350000E+001
        203  0.10150000E+001
        204  0.72000000E+000
        205  0.44800000E+001
        206  0.21500000E+001
        207  0.17100000E+001
        208  0.26400000E+001
        209  0.13200000E+001
        210  0.31800000E+001
        211  0.98000000E+000
        212  0.37700000E+001
        213  0.21000000E+001
        214  0.16650000E+001
        215  0.25850000E+001
        216  0.31200000E+001
        217  0.12800000E+001
        218  0.20500000E+001
        219  0.16200000E+001
        220  0.25300000E+001
        221  0.20000000E+001
End values

Result ERROR ALYA  0.10000000E+00 Scalar OnNodes
ComponentNames ERROR
Values
          1  0.00000000E+000
          2 -0.25757174E-013
          3  0.00000000E+000
          4  0.00000000E+000
          5 -0.11946000E-012
          6 -0.99031894E-013
          7 -0.81268325E-013
          8  0.00000000E+000
          9  0.00000000E+000
         10 -0.29887204E-012
         11 -0.28199665E-012
         12 -0.24424907E-012
         13 -0.17585933E-012
         14 -0.14965806E-012
         15 -0.56088467E-012
         16 -0.54312110E-012
         17 -0.48627768E-012
         18  0.00000000E+000
         19  0.00000000E+000
         20 -0.42987836E-012
         21 -0.36881609E-012
         22 -0.24158453E-012
         23 -0.87707619E-012
         24 -0.21382895E-012
         25 -0.85131902E-012
         26 -0.79047879E-012
         27 -0.73274720E-012
         28 -0.64437344E-012
         29  0.00000000E+000
         30  0.00000000E+000
         31 -0.54001248E-012
         32 -0.46629367E-012
         33 -0.12234658E-011
         34 -0.11173285E-011
         35 -0.11701751E-011
         36 -0.10551560E-011
         37 -0.97499786E-012
         38 -0.24868996E-012
         39 -0.28688163E-012
         40 -0.75806028E-012
         41 -0.82334140E-012
         42 -0.14854784E-011
         43 -0.14250823E-011
         44  0.00000000E+000
         45  0.00000000E+000
         46 -0.14113155E-011
         47 -0.55067062E-012
         48 -0.53246296E-012
         49 -0.12563284E-011
         50 -0.12985168E-011
         51 -0.10489387E-011
         52 -0.10518253E-011
         53 -0.27067237E-012
         54 -0.26911806E-012
         55 -0.17137403E-011
         56 -0.16329160E-011
         57 -0.81445961E-012
         58 -0.16355806E-011
         59 -0.78248519E-012
         60 -0.15072388E-011
         61 -0.14956925E-011
         62  0.00000000E+000
         63  0.00000000E+000
         64 -0.12727597E-011
         65 -0.12656542E-011
         66 -0.51070259E-012
         67 -0.54667382E-012
         68 -0.99831254E-012
         69 -0.10594858E-011
         70 -0.17870150E-011
         71 -0.17283952E-011
         72 -0.17417179E-011
         73 -0.24069635E-012
         74 -0.26778579E-012
         75 -0.16089352E-011
         76 -0.15956125E-011
         77 -0.70965456E-012
         78 -0.76261220E-012
         79 -0.13784529E-011
         80 -0.13888890E-011
         81 -0.11199930E-011
         82 -0.11624035E-011
         83  0.00000000E+000
         84  0.00000000E+000
         85 -0.44853010E-012
         86 -0.50925930E-012
         87 -0.18642865E-011
         88 -0.17719159E-011
         89 -0.17919000E-011
         90 -0.16711077E-011
         91 -0.16622259E-011
         92 -0.86242125E-012
         93 -0.88062890E-012
         94 -0.14521717E-011
         95 -0.14372947E-011
         96 -0.19273472E-012
         97 -0.23414604E-012
         98 -0.12043699E-011
         99 -0.12100321E-011
        100 -0.58886229E-012
        101 -0.62533312E-012
        102 -0.18300916E-011
        103 -0.17792434E-011
        104 -0.17759128E-011
        105 -0.94413366E-012
        106 -0.16702195E-011
        107 -0.16187052E-011
        108 -0.91626706E-012
        109  0.00000000E+000
        110  0.00000000E+000
        111 -0.32684966E-012
        112 -0.37161940E-012
        113 -0.13857804E-011
        114 -0.14521717E-011
        115 -0.67323924E-012
        116 -0.65436545E-012
        117 -0.11999290E-011
        118 -0.11286527E-011
        119 -0.18047785E-011
        120 -0.13677948E-012
        121 -0.17215118E-011
        122 -0.14453716E-012
        123 -0.17221780E-011
        124 -0.93258734E-012
        125 -0.83422158E-012
        126 -0.15667467E-011
        127 -0.16120438E-011
        128 -0.39346304E-012
        129 -0.41197601E-012
        130 -0.13802293E-011
        131 -0.12914114E-011
        132 -0.63948846E-012
        133 -0.57981397E-012
        134 -0.11315393E-011
        135 -0.10147438E-011
        136  0.00000000E+000
        137  0.00000000E+000
        138 -0.20250468E-012
        139 -0.18686441E-012
        140 -0.81445961E-012
        141 -0.16271429E-011
        142 -0.69533268E-012
        143 -0.34727776E-012
        144 -0.15796253E-011
        145 -0.34769410E-012
        146 -0.15463186E-011
        147 -0.14177548E-011
        148 -0.14108714E-011
        149 -0.11532997E-011
        150 -0.11750600E-011
        151 -0.52313709E-012
        152 -0.43270942E-012
        153 -0.62172489E-013
        154 -0.40367015E-013
        155 -0.90860652E-012
        156 -0.14388490E-012
        157 -0.13877788E-012
        158 -0.83977270E-012
        159 -0.21671553E-012
        160 -0.20530799E-012
        161 -0.60662586E-012
        162 -0.52313709E-012
        163 -0.14033219E-011
        164 -0.12949641E-011
        165 -0.13464785E-011
        166  0.00000000E+000
        167  0.00000000E+000
        168 -0.12321255E-011
        169 -0.11510792E-011
        170  0.00000000E+000
        171  0.00000000E+000
        172 -0.91615604E-012
        173 -0.28776981E-012
        174 -0.93214325E-012
        175 -0.23664404E-012
        176  0.00000000E+000
        177  0.00000000E+000
        178 -0.65014660E-012
        179 -0.62727601E-012
        180  0.00000000E+000
        181  0.00000000E+000
        182 -0.29098945E-012
        183 -0.32951419E-012
        184 -0.10222934E-011
        185 -0.10007550E-011
        186 -0.93702823E-012
        187 -0.78514972E-012
        188 -0.87796437E-012
        189  0.00000000E+000
        190  0.00000000E+000
        191 -0.62549965E-012
        192 -0.57820415E-012
        193 -0.31918912E-012
        194 -0.32152059E-012
        195  0.00000000E+000
        196  0.00000000E+000
        197 -0.64659389E-012
        198 -0.58397731E-012
        199 -0.63882233E-012
        200 -0.43831605E-012
        201 -0.54956040E-012
        202 -0.24957814E-012
        203 -0.30553338E-012
        204  0.00000000E+000
        205  0.00000000E+000
        206 -0.33217873E-012
        207 -0.31907810E-012
        208 -0.29443115E-012
        209 -0.22315483E-012
        210 -0.18074431E-012
        211  0.00000000E+000
        212  0.00000000E+000
        213 -0.11635137E-012
        214 -0.97255537E-013
        215 -0.99031894E-013
        216  0.00000000E+000
        217  0.00000000E+000
        218 -0.23092639E-013
        219  0.00000000E+000
        220  0.00000000E+000
        221  0.00000000E+000
End values

