GiD Post Results File 1.0
 
Result TEMPE ALYA  0.00000000E+00 Scalar OnNodes
ComponentNames TEMPE
Values
          1  0.27000000E+002
          2  0.50000000E+001
          3  0.10000000E+001
          4  0.30000000E+001
          5  0.10000000E+001
          6  0.30000000E+001
          7  0.27000000E+002
          8  0.50000000E+001
          9  0.19319350E+002
         10  0.94806504E+001
         11  0.14944272E+001
         12 -0.29442719E+000
         13 -0.47213595E-001
         14  0.84721360E+000
         15  0.72334369E+001
         16  0.17966563E+002
         17  0.16613777E+002
         18  0.12472136E+001
         19  0.49862233E+001
         20  0.35278640E+000
         21  0.49862233E+001
         22  0.35278640E+000
         23  0.16613777E+002
         24  0.12472136E+001
         25 -0.47213595E-001
         26  0.84721360E+000
         27  0.72334369E+001
         28  0.17966563E+002
         29  0.19319350E+002
         30  0.94806504E+001
         31  0.14944272E+001
         32 -0.29442719E+000
         33  0.11813777E+002
         34  0.44472136E+001
         35  0.18622326E+000
         36  0.35527864E+001
         37  0.10766563E+002
         38  0.38944272E+001
         39 -0.11934955E+000
         40  0.15527864E+001
         41  0.21055728E+001
         42  0.33436854E-001
         43  0.24472136E+001
         44  0.97193496E+001
         45  0.21055728E+001
         46  0.33436854E-001
         47  0.24472136E+001
         48  0.97193496E+001
         49  0.10766563E+002
         50  0.38944272E+001
         51 -0.11934955E+000
         52  0.15527864E+001
         53  0.18622326E+000
         54  0.35527864E+001
         55  0.11813777E+002
         56  0.44472136E+001
         57  0.00000000E+000
         58  0.00000000E+000
         59  0.00000000E+000
         60  0.00000000E+000
         61  0.00000000E+000
         62  0.00000000E+000
         63  0.00000000E+000
         64  0.00000000E+000
End values

Result ERROR ALYA  0.00000000E+00 Scalar OnNodes
ComponentNames ERROR
Values
          1  0.00000000E+000
          2  0.00000000E+000
          3  0.00000000E+000
          4  0.00000000E+000
          5  0.00000000E+000
          6  0.00000000E+000
          7  0.00000000E+000
          8  0.00000000E+000
          9  0.00000000E+000
         10  0.00000000E+000
         11  0.00000000E+000
         12  0.00000000E+000
         13  0.00000000E+000
         14  0.00000000E+000
         15  0.00000000E+000
         16  0.00000000E+000
         17  0.00000000E+000
         18  0.00000000E+000
         19  0.00000000E+000
         20  0.00000000E+000
         21  0.00000000E+000
         22  0.00000000E+000
         23  0.00000000E+000
         24  0.00000000E+000
         25  0.00000000E+000
         26  0.00000000E+000
         27  0.00000000E+000
         28  0.00000000E+000
         29  0.00000000E+000
         30  0.00000000E+000
         31  0.00000000E+000
         32  0.00000000E+000
         33  0.00000000E+000
         34  0.00000000E+000
         35  0.00000000E+000
         36  0.00000000E+000
         37  0.00000000E+000
         38  0.00000000E+000
         39  0.00000000E+000
         40  0.00000000E+000
         41  0.00000000E+000
         42  0.00000000E+000
         43  0.00000000E+000
         44  0.00000000E+000
         45  0.00000000E+000
         46  0.00000000E+000
         47  0.00000000E+000
         48  0.00000000E+000
         49  0.00000000E+000
         50  0.00000000E+000
         51  0.00000000E+000
         52  0.00000000E+000
         53  0.00000000E+000
         54  0.00000000E+000
         55  0.00000000E+000
         56  0.00000000E+000
         57 -0.54000000E+001
         58 -0.10000000E+001
         59 -0.20000000E+000
         60 -0.60000000E+000
         61 -0.20000000E+000
         62 -0.60000000E+000
         63 -0.54000000E+001
         64 -0.10000000E+001
End values

Result TEMPE ALYA  0.10000000E+00 Scalar OnNodes
ComponentNames TEMPE
Values
          1  0.27000000E+002
          2  0.50000000E+001
          3  0.10000000E+001
          4  0.30000000E+001
          5  0.10000000E+001
          6  0.30000000E+001
          7  0.27000000E+002
          8  0.50000000E+001
          9  0.19319350E+002
         10  0.94806504E+001
         11  0.14944272E+001
         12 -0.29442719E+000
         13 -0.47213595E-001
         14  0.84721360E+000
         15  0.72334369E+001
         16  0.17966563E+002
         17  0.16613777E+002
         18  0.12472136E+001
         19  0.49862233E+001
         20  0.35278640E+000
         21  0.49862233E+001
         22  0.35278640E+000
         23  0.16613777E+002
         24  0.12472136E+001
         25 -0.47213595E-001
         26  0.84721360E+000
         27  0.72334369E+001
         28  0.17966563E+002
         29  0.19319350E+002
         30  0.94806504E+001
         31  0.14944272E+001
         32 -0.29442719E+000
         33  0.11813777E+002
         34  0.44472136E+001
         35  0.18622326E+000
         36  0.35527864E+001
         37  0.10766563E+002
         38  0.38944272E+001
         39 -0.11934955E+000
         40  0.15527864E+001
         41  0.21055728E+001
         42  0.33436854E-001
         43  0.24472136E+001
         44  0.97193496E+001
         45  0.21055728E+001
         46  0.33436854E-001
         47  0.24472136E+001
         48  0.97193496E+001
         49  0.10766563E+002
         50  0.38944272E+001
         51 -0.11934955E+000
         52  0.15527864E+001
         53  0.18622326E+000
         54  0.35527864E+001
         55  0.11813777E+002
         56  0.44472136E+001
         57  0.54000000E+001
         58  0.10000000E+001
         59  0.20000000E+000
         60  0.60000000E+000
         61  0.20000000E+000
         62  0.60000000E+000
         63  0.54000000E+001
         64  0.10000000E+001
End values

Result ERROR ALYA  0.10000000E+00 Scalar OnNodes
ComponentNames ERROR
Values
          1  0.00000000E+000
          2  0.00000000E+000
          3  0.00000000E+000
          4  0.00000000E+000
          5  0.00000000E+000
          6  0.00000000E+000
          7  0.00000000E+000
          8  0.00000000E+000
          9  0.00000000E+000
         10  0.00000000E+000
         11  0.00000000E+000
         12  0.00000000E+000
         13  0.00000000E+000
         14  0.00000000E+000
         15  0.00000000E+000
         16  0.00000000E+000
         17  0.00000000E+000
         18  0.00000000E+000
         19  0.00000000E+000
         20  0.00000000E+000
         21  0.00000000E+000
         22  0.00000000E+000
         23  0.00000000E+000
         24  0.00000000E+000
         25  0.00000000E+000
         26  0.00000000E+000
         27  0.00000000E+000
         28  0.00000000E+000
         29  0.00000000E+000
         30  0.00000000E+000
         31  0.00000000E+000
         32  0.00000000E+000
         33  0.00000000E+000
         34  0.00000000E+000
         35  0.00000000E+000
         36  0.00000000E+000
         37  0.00000000E+000
         38  0.00000000E+000
         39  0.00000000E+000
         40  0.00000000E+000
         41  0.00000000E+000
         42  0.00000000E+000
         43  0.00000000E+000
         44  0.00000000E+000
         45  0.00000000E+000
         46  0.00000000E+000
         47  0.00000000E+000
         48  0.00000000E+000
         49  0.00000000E+000
         50  0.00000000E+000
         51  0.00000000E+000
         52  0.00000000E+000
         53  0.00000000E+000
         54  0.00000000E+000
         55  0.00000000E+000
         56  0.00000000E+000
         57  0.26645353E-014
         58  0.13322676E-014
         59  0.15543122E-014
         60  0.88817842E-015
         61  0.66613381E-015
         62  0.99920072E-015
         63  0.17763568E-014
         64  0.44408921E-015
End values

