MESH cavtri03_amr-amr2_TRI03 dimension 2 Elemtype Triangle Nnode  3
coordinates
          1  0.00000000E+000  0.00000000E+000
          2  0.00000000E+000  0.10000000E+000
          3  0.10000000E+000  0.00000000E+000
          4  0.10000000E+000  0.10000000E+000
          5  0.00000000E+000  0.20000000E+000
          6  0.20000000E+000  0.00000000E+000
          7  0.20000000E+000  0.10000000E+000
          8  0.10000000E+000  0.20000000E+000
          9  0.20000000E+000  0.20000000E+000
         10  0.30000000E+000  0.00000000E+000
         11  0.00000000E+000  0.30000000E+000
         12  0.30000000E+000  0.10000000E+000
         13  0.10000000E+000  0.30000000E+000
         14  0.30000000E+000  0.20000000E+000
         15  0.20000000E+000  0.30000000E+000
         16  0.00000000E+000  0.40000000E+000
         17  0.40000000E+000  0.00000000E+000
         18  0.40000000E+000  0.10000000E+000
         19  0.10000000E+000  0.40000000E+000
         20  0.30000000E+000  0.30000000E+000
         21  0.40000000E+000  0.20000000E+000
         22  0.20000000E+000  0.40000000E+000
         23  0.50000000E+000  0.00000000E+000
         24  0.00000000E+000  0.50000000E+000
         25  0.40000000E+000  0.30000000E+000
         26  0.30000000E+000  0.40000000E+000
         27  0.50000000E+000  0.10000000E+000
         28  0.10000000E+000  0.50000000E+000
         29  0.50000000E+000  0.20000000E+000
         30  0.20000000E+000  0.50000000E+000
         31  0.40000000E+000  0.40000000E+000
         32  0.50000000E+000  0.30000000E+000
         33  0.30000000E+000  0.50000000E+000
         34  0.60000000E+000  0.00000000E+000
         35  0.00000000E+000  0.60000000E+000
         36  0.60000000E+000  0.10000000E+000
         37  0.10000000E+000  0.60000000E+000
         38  0.60000000E+000  0.20000000E+000
         39  0.20000000E+000  0.60000000E+000
         40  0.50000000E+000  0.40000000E+000
         41  0.40000000E+000  0.50000000E+000
         42  0.60000000E+000  0.30000000E+000
         43  0.30000000E+000  0.60000000E+000
         44  0.70000000E+000  0.00000000E+000
         45  0.00000000E+000  0.70000000E+000
         46  0.70000000E+000  0.10000000E+000
         47  0.10000000E+000  0.70000000E+000
         48  0.50000000E+000  0.50000000E+000
         49  0.60000000E+000  0.40000000E+000
         50  0.40000000E+000  0.60000000E+000
         51  0.70000000E+000  0.20000000E+000
         52  0.20000000E+000  0.70000000E+000
         53  0.70000000E+000  0.30000000E+000
         54  0.30000000E+000  0.70000000E+000
         55  0.60000000E+000  0.50000000E+000
         56  0.50000000E+000  0.60000000E+000
         57  0.80000000E+000  0.00000000E+000
         58  0.00000000E+000  0.80000000E+000
         59  0.80000000E+000  0.10000000E+000
         60  0.70000000E+000  0.40000000E+000
         61  0.10000000E+000  0.80000000E+000
         62  0.40000000E+000  0.70000000E+000
         63  0.80000000E+000  0.20000000E+000
         64  0.20000000E+000  0.80000000E+000
         65  0.60000000E+000  0.60000000E+000
         66  0.80000000E+000  0.30000000E+000
         67  0.30000000E+000  0.80000000E+000
         68  0.70000000E+000  0.50000000E+000
         69  0.50000000E+000  0.70000000E+000
         70  0.80000000E+000  0.40000000E+000
         71  0.40000000E+000  0.80000000E+000
         72  0.00000000E+000  0.90000000E+000
         73  0.90000000E+000  0.00000000E+000
         74  0.90000000E+000  0.10000000E+000
         75  0.10000000E+000  0.90000000E+000
         76  0.90000000E+000  0.20000000E+000
         77  0.70000000E+000  0.60000000E+000
         78  0.60000000E+000  0.70000000E+000
         79  0.20000000E+000  0.90000000E+000
         80  0.80000000E+000  0.50000000E+000
         81  0.50000000E+000  0.80000000E+000
         82  0.90000000E+000  0.30000000E+000
         83  0.30000000E+000  0.90000000E+000
         84  0.90000000E+000  0.40000000E+000
         85  0.40000000E+000  0.90000000E+000
         86  0.70000000E+000  0.70000000E+000
         87  0.10000000E+001  0.00000000E+000
         88  0.00000000E+000  0.10000000E+001
         89  0.80000000E+000  0.60000000E+000
         90  0.60000000E+000  0.80000000E+000
         91  0.10000000E+001  0.10000000E+000
         92  0.10000000E+000  0.10000000E+001
         93  0.20000000E+000  0.10000000E+001
         94  0.10000000E+001  0.20000000E+000
         95  0.90000000E+000  0.50000000E+000
         96  0.50000000E+000  0.90000000E+000
         97  0.10000000E+001  0.30000000E+000
         98  0.30000000E+000  0.10000000E+001
         99  0.80000000E+000  0.70000000E+000
        100  0.70000000E+000  0.80000000E+000
        101  0.10000000E+001  0.40000000E+000
        102  0.40000000E+000  0.10000000E+001
        103  0.90000000E+000  0.60000000E+000
        104  0.60000000E+000  0.90000000E+000
        105  0.10000000E+001  0.50000000E+000
        106  0.50000000E+000  0.10000000E+001
        107  0.80000000E+000  0.80000000E+000
        108  0.90000000E+000  0.70000000E+000
        109  0.70000000E+000  0.90000000E+000
        110  0.60000000E+000  0.10000000E+001
        111  0.10000000E+001  0.60000000E+000
        112  0.90000000E+000  0.80000000E+000
        113  0.80000000E+000  0.90000000E+000
        114  0.10000000E+001  0.70000000E+000
        115  0.70000000E+000  0.10000000E+001
        116  0.90000000E+000  0.90000000E+000
        117  0.80000000E+000  0.10000000E+001
        118  0.10000000E+001  0.80000000E+000
        119  0.90000000E+000  0.10000000E+001
        120  0.10000000E+001  0.90000000E+000
        121  0.10000000E+001  0.10000000E+001
end coordinates
elements
          1         3         4         1        10
          2         4         2         1        10
          3         6         7         3        10
          4         7         4         3        10
          5        10        12         6        10
          6        12         7         6        10
          7        17        18        10        10
          8        18        12        10        10
          9        23        27        17        10
         10        27        18        17        10
         11        34        36        23        10
         12        36        27        23        10
         13        44        46        34        10
         14        46        36        34        10
         15        57        59        44        10
         16        59        46        44        10
         17        73        74        57        10
         18        74        59        57        10
         19        87        91        73        10
         20        91        74        73        10
         21         4         8         2        10
         22         8         5         2        10
         23         7         9         4        10
         24         9         8         4        10
         25        12        14         7        10
         26        14         9         7        10
         27        18        21        12        10
         28        21        14        12        10
         29        27        29        18        10
         30        29        21        18        10
         31        36        38        27        10
         32        38        29        27        10
         33        46        51        36        10
         34        51        38        36        10
         35        59        63        46        10
         36        63        51        46        10
         37        74        76        59        10
         38        76        63        59        10
         39        91        94        74        10
         40        94        76        74        10
         41         8        13         5        10
         42        13        11         5        10
         43         9        15         8        10
         44        15        13         8        10
         45        14        20         9        10
         46        20        15         9        10
         47        21        25        14        10
         48        25        20        14        10
         49        29        32        21        10
         50        32        25        21        10
         51        38        42        29        10
         52        42        32        29        10
         53        51        53        38        10
         54        53        42        38        10
         55        63        66        51        10
         56        66        53        51        10
         57        76        82        63        10
         58        82        66        63        10
         59        94        97        76        10
         60        97        82        76        10
         61        13        19        11        10
         62        19        16        11        10
         63        15        22        13        10
         64        22        19        13        10
         65        20        26        15        10
         66        26        22        15        10
         67        25        31        20        10
         68        31        26        20        10
         69        32        40        25        10
         70        40        31        25        10
         71        42        49        32        10
         72        49        40        32        10
         73        53        60        42        10
         74        60        49        42        10
         75        66        70        53        10
         76        70        60        53        10
         77        82        84        66        10
         78        84        70        66        10
         79        97       101        82        10
         80       101        84        82        10
         81        19        28        16        10
         82        28        24        16        10
         83        22        30        19        10
         84        30        28        19        10
         85        26        33        22        10
         86        33        30        22        10
         87        31        41        26        10
         88        41        33        26        10
         89        40        48        31        10
         90        48        41        31        10
         91        49        55        40        10
         92        55        48        40        10
         93        60        68        49        10
         94        68        55        49        10
         95        70        80        60        10
         96        80        68        60        10
         97        84        95        70        10
         98        95        80        70        10
         99       101       105        84        10
        100       105        95        84        10
        101        28        37        24        10
        102        37        35        24        10
        103        30        39        28        10
        104        39        37        28        10
        105        33        43        30        10
        106        43        39        30        10
        107        41        50        33        10
        108        50        43        33        10
        109        48        56        41        10
        110        56        50        41        10
        111        55        65        48        10
        112        65        56        48        10
        113        68        77        55        10
        114        77        65        55        10
        115        80        89        68        10
        116        89        77        68        10
        117        95       103        80        10
        118       103        89        80        10
        119       105       111        95        10
        120       111       103        95        10
        121        37        47        35        10
        122        47        45        35        10
        123        39        52        37        10
        124        52        47        37        10
        125        43        54        39        10
        126        54        52        39        10
        127        50        62        43        10
        128        62        54        43        10
        129        56        69        50        10
        130        69        62        50        10
        131        65        78        56        10
        132        78        69        56        10
        133        77        86        65        10
        134        86        78        65        10
        135        89        99        77        10
        136        99        86        77        10
        137       103       108        89        10
        138       108        99        89        10
        139       111       114       103        10
        140       114       108       103        10
        141        47        61        45        10
        142        61        58        45        10
        143        52        64        47        10
        144        64        61        47        10
        145        54        67        52        10
        146        67        64        52        10
        147        62        71        54        10
        148        71        67        54        10
        149        69        81        62        10
        150        81        71        62        10
        151        78        90        69        10
        152        90        81        69        10
        153        86       100        78        10
        154       100        90        78        10
        155        99       107        86        10
        156       107       100        86        10
        157       108       112        99        10
        158       112       107        99        10
        159       114       118       108        10
        160       118       112       108        10
        161        61        75        58        10
        162        75        72        58        10
        163        64        79        61        10
        164        79        75        61        10
        165        67        83        64        10
        166        83        79        64        10
        167        71        85        67        10
        168        85        83        67        10
        169        81        96        71        10
        170        96        85        71        10
        171        90       104        81        10
        172       104        96        81        10
        173       100       109        90        10
        174       109       104        90        10
        175       107       113       100        10
        176       113       109       100        10
        177       112       116       107        10
        178       116       113       107        10
        179       118       120       112        10
        180       120       116       112        10
        181        75        92        72        10
        182        92        88        72        10
        183        79        93        75        10
        184        93        92        75        10
        185        83        98        79        10
        186        98        93        79        10
        187        85       102        83        10
        188       102        98        83        10
        189        96       106        85        10
        190       106       102        85        10
        191       104       110        96        10
        192       110       106        96        10
        193       109       115       104        10
        194       115       110       104        10
        195       113       117       109        10
        196       117       115       109        10
        197       116       119       113        10
        198       119       117       113        10
        199       120       121       116        10
        200       121       119       116        10
end elements

