GiD Post Results File 1.0
 
Result VELOC ALYA  0.60000000E+01 Vector OnNodes
ComponentNames VELOC_X,VELOC_Y,VELOC_Z
Values
          1  0.00000000E+000  0.00000000E+000
          2  0.00000000E+000  0.00000000E+000
          3  0.00000000E+000  0.00000000E+000
          4 -0.63099731E-002  0.92960510E-002
          5  0.00000000E+000  0.00000000E+000
          6  0.00000000E+000  0.00000000E+000
          7 -0.20303224E-001  0.12604299E-001
          8 -0.12897849E-001  0.28294490E-001
          9 -0.38497118E-001  0.37307707E-001
         10  0.00000000E+000  0.00000000E+000
         11  0.00000000E+000  0.00000000E+000
         12 -0.35352115E-001  0.11338011E-001
         13 -0.18361960E-001  0.56874025E-001
         14 -0.65567000E-001  0.33101893E-001
         15 -0.53681286E-001  0.73017483E-001
         16  0.00000000E+000  0.00000000E+000
         17  0.00000000E+000  0.00000000E+000
         18 -0.46429904E-001  0.73779832E-002
         19 -0.22599517E-001  0.93358125E-001
         20 -0.91205951E-001  0.65122710E-001
         21 -0.86129848E-001  0.20553550E-001
         22 -0.64234295E-001  0.11715786E+000
         23  0.00000000E+000  0.00000000E+000
         24  0.00000000E+000  0.00000000E+000
         25 -0.12237303E+000  0.41181621E-001
         26 -0.10846446E+000  0.10626894E+000
         27 -0.50217572E-001  0.17506894E-002
         28 -0.25201591E-001  0.13438925E+000
         29 -0.94279738E-001  0.29158243E-002
         30 -0.67144310E-001  0.16373612E+000
         31 -0.14888978E+000  0.72230268E-001
         32 -0.13889698E+000  0.59790261E-002
         33 -0.10975460E+000  0.15051947E+000
         34  0.00000000E+000  0.00000000E+000
         35  0.00000000E+000  0.00000000E+000
         36 -0.45325333E-001 -0.41639428E-002
         37 -0.26597150E-001  0.17417454E+000
         38 -0.86962725E-001 -0.15562759E-001
         39 -0.60404350E-001  0.20250794E+000
         40 -0.17866127E+000  0.17244014E-001
         41 -0.15070610E+000  0.11130711E+000
         42 -0.13368830E+000 -0.32421946E-001
         43 -0.88872776E-001  0.18565369E+000
         44  0.00000000E+000  0.00000000E+000
         45  0.00000000E+000  0.00000000E+000
         46 -0.32958384E-001 -0.84413731E-002
         47 -0.29960445E-001  0.20401143E+000
         48 -0.18937683E+000  0.43881898E-001
         49 -0.18514142E+000 -0.49197466E-001
         50 -0.11527079E+000  0.14558429E+000
         51 -0.65532409E-001 -0.29273377E-001
         52 -0.46323288E-001  0.21925388E+000
         53 -0.10547848E+000 -0.62555535E-001
         54 -0.46861351E-001  0.19537669E+000
         55 -0.21746519E+000 -0.52325906E-001
         56 -0.14534278E+000  0.79265561E-001
         57  0.00000000E+000  0.00000000E+000
         58  0.00000000E+000  0.00000000E+000
         59 -0.17147783E-001 -0.93875980E-002
         60 -0.15774677E+000 -0.10696512E+000
         61 -0.36550362E-001  0.20829600E+000
         62 -0.42692329E-001  0.15631985E+000
         63 -0.36252138E-001 -0.32841261E-001
         64 -0.22583291E-001  0.19468843E+000
         65 -0.18425002E+000 -0.26143723E-001
         66 -0.61523984E-001 -0.72574910E-001
         67  0.19286432E-001  0.16179396E+000
         68 -0.20971557E+000 -0.15241538E+000
         69 -0.44656967E-001  0.99833874E-001
         70 -0.99660931E-001 -0.13238607E+000
         71  0.66764832E-001  0.12622776E+000
         72  0.00000000E+000  0.00000000E+000
         73  0.00000000E+000  0.00000000E+000
         74 -0.39012344E-002 -0.64676128E-002
         75  0.27798304E-001  0.13905766E+000
         76 -0.95814474E-002 -0.23464453E-001
         77 -0.21838882E+000 -0.17175085E+000
         78 -0.64163658E-001  0.15311648E-001
         79  0.10663584E+000  0.95527603E-001
         80 -0.14978487E+000 -0.21157262E+000
         81  0.10531322E+000  0.85144406E-001
         82 -0.17401949E-001 -0.54562514E-001
         83  0.20593495E+000  0.69278205E-001
         84 -0.31127579E-001 -0.10637861E+000
         85  0.29599957E+000  0.52132793E-001
         86 -0.12059436E+000 -0.13040032E+000
         87  0.00000000E+000  0.00000000E+000
         88  0.00000000E+000  0.00000000E+000
         89 -0.19185383E+000 -0.29295280E+000
         90  0.12195966E+000  0.31668307E-001
         91  0.00000000E+000  0.00000000E+000
         92  0.10000000E+001  0.00000000E+000
         93  0.10000000E+001  0.00000000E+000
         94  0.00000000E+000  0.00000000E+000
         95 -0.53844152E-001 -0.18705341E+000
         96  0.36492319E+000  0.36432493E-001
         97  0.00000000E+000  0.00000000E+000
         98  0.10000000E+001  0.00000000E+000
         99 -0.17653830E+000 -0.33009525E+000
        100  0.10109288E+000 -0.46093806E-001
        101  0.00000000E+000  0.00000000E+000
        102  0.10000000E+001  0.00000000E+000
        103 -0.83095442E-001 -0.29820568E+000
        104  0.40667852E+000  0.17872254E-001
        105  0.00000000E+000  0.00000000E+000
        106  0.10000000E+001  0.00000000E+000
        107 -0.21085048E-001 -0.25341049E+000
        108 -0.10398122E+000 -0.42137026E+000
        109  0.41537293E+000 -0.82268319E-002
        110  0.10000000E+001  0.00000000E+000
        111  0.00000000E+000  0.00000000E+000
        112 -0.75442503E-001 -0.50052325E+000
        113  0.38267951E+000 -0.54047940E-001
        114  0.00000000E+000  0.00000000E+000
        115  0.10000000E+001  0.00000000E+000
        116  0.11675422E+000 -0.42540755E+000
        117  0.10000000E+001  0.00000000E+000
        118  0.00000000E+000  0.00000000E+000
        119  0.10000000E+001  0.00000000E+000
        120  0.00000000E+000  0.00000000E+000
        121  0.00000000E+000  0.00000000E+000
End values

Result PRESS ALYA  0.60000000E+01 Scalar OnNodes
ComponentNames PRESS
Values
          1 -0.47452734E+000
          2 -0.47341441E+000
          3 -0.47529186E+000
          4 -0.47453087E+000
          5 -0.47294440E+000
          6 -0.47614490E+000
          7 -0.47558771E+000
          8 -0.47454441E+000
          9 -0.47593585E+000
         10 -0.47645444E+000
         11 -0.47456605E+000
         12 -0.47619160E+000
         13 -0.47674465E+000
         14 -0.47698570E+000
         15 -0.47866447E+000
         16 -0.47948228E+000
         17 -0.47611240E+000
         18 -0.47625627E+000
         19 -0.48230848E+000
         20 -0.48038979E+000
         21 -0.47756998E+000
         22 -0.48502444E+000
         23 -0.47526764E+000
         24 -0.48892287E+000
         25 -0.48160345E+000
         26 -0.48787373E+000
         27 -0.47579032E+000
         28 -0.49254229E+000
         29 -0.47752150E+000
         30 -0.49602538E+000
         31 -0.49039669E+000
         32 -0.48187996E+000
         33 -0.50038793E+000
         34 -0.47431730E+000
         35 -0.50552785E+000
         36 -0.47509044E+000
         37 -0.50934485E+000
         38 -0.47694689E+000
         39 -0.51193596E+000
         40 -0.49139399E+000
         41 -0.50530297E+000
         42 -0.48103918E+000
         43 -0.51678219E+000
         44 -0.47371185E+000
         45 -0.53573010E+000
         46 -0.47460121E+000
         47 -0.53624131E+000
         48 -0.50877308E+000
         49 -0.49014688E+000
         50 -0.52434272E+000
         51 -0.47638191E+000
         52 -0.53211190E+000
         53 -0.47990000E+000
         54 -0.53333300E+000
         55 -0.50779355E+000
         56 -0.53207923E+000
         57 -0.47391032E+000
         58 -0.59865462E+000
         59 -0.47475106E+000
         60 -0.48721981E+000
         61 -0.58115452E+000
         62 -0.54125682E+000
         63 -0.47644650E+000
         64 -0.55508135E+000
         65 -0.53436866E+000
         66 -0.47934084E+000
         67 -0.54463158E+000
         68 -0.50178442E+000
         69 -0.55227654E+000
         70 -0.48446116E+000
         71 -0.54867630E+000
         72 -0.74640139E+000
         73 -0.47476652E+000
         74 -0.47559632E+000
         75 -0.65799344E+000
         76 -0.47738647E+000
         77 -0.52523751E+000
         78 -0.55935021E+000
         79 -0.57797394E+000
         80 -0.49344293E+000
         81 -0.55923465E+000
         82 -0.47999237E+000
         83 -0.54676857E+000
         84 -0.48328150E+000
         85 -0.54471328E+000
         86 -0.55103185E+000
         87 -0.47569212E+000
         88 -0.92281602E+000
         89 -0.50612105E+000
         90 -0.56696064E+000
         91 -0.47665887E+000
         92 -0.87571159E+000
         93 -0.58725989E+000
         94 -0.47885610E+000
         95 -0.48615226E+000
         96 -0.55344983E+000
         97 -0.48203894E+000
         98 -0.52688558E+000
         99 -0.51664858E+000
        100 -0.55999819E+000
        101 -0.48547228E+000
        102 -0.52361592E+000
        103 -0.48314648E+000
        104 -0.55866660E+000
        105 -0.48705666E+000
        106 -0.53430882E+000
        107 -0.51127940E+000
        108 -0.45960624E+000
        109 -0.54393005E+000
        110 -0.54012150E+000
        111 -0.47921204E+000
        112 -0.39032863E+000
        113 -0.48183815E+000
        114 -0.44482258E+000
        115 -0.52146881E+000
        116 -0.26255295E+000
        117 -0.43886278E+000
        118 -0.35617057E+000
        119 -0.18693559E+000
        120 -0.19245478E+000
        121  0.00000000E+000
End values

