{
    "authors": [
        "david.oks@bsc.es"
    ],
    "comparisons": [
        {
            "file": "windk2d3el_expl-boundary.nsi.set",
            "method": "absolute",
            "tolerance": 0
        }
    ],
    "description": "Nastin 3 element windkessel boundary condition with prescribed flowrate. Explicit solver.",
    "exclude": [
        "special"
    ],
    "executions": [
        {
            "mpi": 1,
            "openmp": 0
        },
        {
            "mpi": 3,
            "openmp": 0
        }
    ],
    "modules": [
        "nastin"
    ],
    "name": "windk2d3el_expl",
    "postprocess": "alya2pos"
}
