GiD Post Results File 1.0
 
Result VELOC ALYA  0.00000000E+00 Vector OnNodes
ComponentNames VELOC_X,VELOC_Y,VELOC_Z
Values
          1  0.00000000E+000  0.00000000E+000
          2  0.00000000E+000  0.00000000E+000
          3  0.00000000E+000  0.00000000E+000
          4  0.00000000E+000  0.00000000E+000
          5  0.00000000E+000  0.00000000E+000
          6  0.00000000E+000  0.00000000E+000
          7  0.00000000E+000  0.00000000E+000
          8  0.00000000E+000  0.00000000E+000
          9  0.00000000E+000  0.00000000E+000
         10  0.00000000E+000  0.00000000E+000
         11  0.00000000E+000  0.00000000E+000
         12  0.00000000E+000  0.00000000E+000
         13  0.00000000E+000  0.00000000E+000
         14  0.00000000E+000  0.00000000E+000
         15  0.00000000E+000  0.00000000E+000
         16  0.00000000E+000  0.00000000E+000
         17  0.00000000E+000  0.00000000E+000
         18  0.00000000E+000  0.00000000E+000
         19  0.00000000E+000  0.00000000E+000
         20  0.00000000E+000  0.00000000E+000
         21  0.00000000E+000  0.00000000E+000
         22  0.00000000E+000  0.00000000E+000
         23  0.00000000E+000  0.00000000E+000
         24  0.00000000E+000  0.00000000E+000
         25  0.00000000E+000  0.00000000E+000
         26  0.00000000E+000  0.00000000E+000
         27  0.00000000E+000  0.00000000E+000
         28  0.00000000E+000  0.00000000E+000
         29  0.00000000E+000  0.00000000E+000
         30  0.00000000E+000  0.00000000E+000
         31  0.00000000E+000  0.00000000E+000
         32  0.00000000E+000  0.00000000E+000
         33  0.00000000E+000  0.00000000E+000
         34  0.00000000E+000  0.00000000E+000
         35  0.00000000E+000  0.00000000E+000
         36  0.00000000E+000  0.00000000E+000
End values

Result PRESS ALYA  0.00000000E+00 Scalar OnNodes
ComponentNames PRESS
Values
          1  0.00000000E+000
          2  0.00000000E+000
          3  0.00000000E+000
          4  0.00000000E+000
          5  0.00000000E+000
          6  0.00000000E+000
          7  0.00000000E+000
          8  0.00000000E+000
          9  0.00000000E+000
         10  0.00000000E+000
         11  0.00000000E+000
         12  0.00000000E+000
         13  0.00000000E+000
         14  0.00000000E+000
         15  0.00000000E+000
         16  0.00000000E+000
         17  0.00000000E+000
         18  0.00000000E+000
         19  0.00000000E+000
         20  0.00000000E+000
         21  0.00000000E+000
         22  0.00000000E+000
         23  0.00000000E+000
         24  0.00000000E+000
         25  0.00000000E+000
         26  0.00000000E+000
         27  0.00000000E+000
         28  0.00000000E+000
         29  0.00000000E+000
         30  0.00000000E+000
         31  0.00000000E+000
         32  0.00000000E+000
         33  0.00000000E+000
         34  0.00000000E+000
         35  0.00000000E+000
         36  0.00000000E+000
End values

Result DISPM ALYA  0.10000000E+01 Vector OnNodes
ComponentNames DISPM_X,DISPM_Y,DISPM_Z
Values
          1  0.00000000E+000 -0.50000000E-001
          2  0.00000000E+000 -0.40000000E-001
          3  0.00000000E+000 -0.50000000E-001
          4  0.00000000E+000 -0.40000000E-001
          5  0.00000000E+000 -0.30000000E-001
          6  0.00000000E+000 -0.50000000E-001
          7  0.00000000E+000 -0.40000000E-001
          8  0.00000000E+000 -0.30000000E-001
          9  0.00000000E+000 -0.30000000E-001
         10  0.00000000E+000 -0.20000000E-001
         11  0.00000000E+000 -0.50000000E-001
         12  0.00000000E+000 -0.40000000E-001
         13  0.00000000E+000 -0.20000000E-001
         14  0.00000000E+000 -0.30000000E-001
         15  0.00000000E+000 -0.20000000E-001
         16  0.00000000E+000 -0.50000000E-001
         17  0.00000000E+000 -0.10000000E-001
         18  0.00000000E+000 -0.40000000E-001
         19  0.00000000E+000 -0.10000000E-001
         20  0.00000000E+000 -0.20000000E-001
         21  0.00000000E+000 -0.30000000E-001
         22  0.00000000E+000 -0.10000000E-001
         23  0.00000000E+000  0.00000000E+000
         24  0.00000000E+000 -0.10000000E-001
         25  0.00000000E+000 -0.50000000E-001
         26  0.00000000E+000 -0.20000000E-001
         27  0.00000000E+000  0.00000000E+000
         28  0.00000000E+000 -0.40000000E-001
         29  0.00000000E+000 -0.30000000E-001
         30  0.00000000E+000  0.00000000E+000
         31  0.00000000E+000 -0.10000000E-001
         32  0.00000000E+000 -0.20000000E-001
         33  0.00000000E+000  0.00000000E+000
         34  0.00000000E+000 -0.10000000E-001
         35  0.00000000E+000  0.00000000E+000
         36  0.00000000E+000  0.00000000E+000
End values

Result VELOM ALYA  0.10000000E+01 Vector OnNodes
ComponentNames VELOM_X,VELOM_Y,VELOM_Z
Values
          1  0.00000000E+000 -0.50000000E-001
          2  0.00000000E+000 -0.40000000E-001
          3  0.00000000E+000 -0.50000000E-001
          4  0.00000000E+000 -0.40000000E-001
          5  0.00000000E+000 -0.30000000E-001
          6  0.00000000E+000 -0.50000000E-001
          7  0.00000000E+000 -0.40000000E-001
          8  0.00000000E+000 -0.30000000E-001
          9  0.00000000E+000 -0.30000000E-001
         10  0.00000000E+000 -0.20000000E-001
         11  0.00000000E+000 -0.50000000E-001
         12  0.00000000E+000 -0.40000000E-001
         13  0.00000000E+000 -0.20000000E-001
         14  0.00000000E+000 -0.30000000E-001
         15  0.00000000E+000 -0.20000000E-001
         16  0.00000000E+000 -0.50000000E-001
         17  0.00000000E+000 -0.10000000E-001
         18  0.00000000E+000 -0.40000000E-001
         19  0.00000000E+000 -0.10000000E-001
         20  0.00000000E+000 -0.20000000E-001
         21  0.00000000E+000 -0.30000000E-001
         22  0.00000000E+000 -0.10000000E-001
         23  0.00000000E+000  0.00000000E+000
         24  0.00000000E+000 -0.10000000E-001
         25  0.00000000E+000 -0.50000000E-001
         26  0.00000000E+000 -0.20000000E-001
         27  0.00000000E+000  0.00000000E+000
         28  0.00000000E+000 -0.40000000E-001
         29  0.00000000E+000 -0.30000000E-001
         30  0.00000000E+000  0.00000000E+000
         31  0.00000000E+000 -0.10000000E-001
         32  0.00000000E+000 -0.20000000E-001
         33  0.00000000E+000  0.00000000E+000
         34  0.00000000E+000 -0.10000000E-001
         35  0.00000000E+000  0.00000000E+000
         36  0.00000000E+000  0.00000000E+000
End values

Result VELOC ALYA  0.10000000E+01 Vector OnNodes
ComponentNames VELOC_X,VELOC_Y,VELOC_Z
Values
          1  0.00000000E+000  0.00000000E+000
          2  0.00000000E+000  0.00000000E+000
          3  0.00000000E+000 -0.50000000E-001
          4  0.14229876E-002 -0.41029475E-001
          5  0.00000000E+000  0.00000000E+000
          6  0.00000000E+000 -0.50000000E-001
          7  0.20653359E-002 -0.52027500E-001
          8  0.75505630E-003 -0.37652900E-001
          9  0.67162784E-003 -0.53652856E-001
         10  0.00000000E+000  0.00000000E+000
         11  0.00000000E+000 -0.50000000E-001
         12 -0.20653359E-002 -0.52027500E-001
         13  0.46129243E-003 -0.36955069E-001
         14 -0.67162784E-003 -0.53652856E-001
         15  0.35605843E-003 -0.54620385E-001
         16  0.00000000E+000 -0.50000000E-001
         17  0.00000000E+000  0.00000000E+000
         18 -0.14229876E-002 -0.41029475E-001
         19  0.74767941E-003 -0.37647721E-001
         20 -0.35605843E-003 -0.54620385E-001
         21 -0.75505630E-003 -0.37652900E-001
         22  0.32962375E-003 -0.56120667E-001
         23  0.00000000E+000  0.00000000E+000
         24 -0.32962375E-003 -0.56120667E-001
         25  0.00000000E+000  0.00000000E+000
         26 -0.46129243E-003 -0.36955069E-001
         27  0.10263992E-002 -0.40684779E-001
         28  0.00000000E+000  0.00000000E+000
         29  0.00000000E+000  0.00000000E+000
         30  0.36154949E-003 -0.59315221E-001
         31 -0.74767941E-003 -0.37647721E-001
         32  0.00000000E+000  0.00000000E+000
         33 -0.36154949E-003 -0.59315221E-001
         34  0.00000000E+000  0.00000000E+000
         35 -0.10263992E-002 -0.40684779E-001
         36  0.00000000E+000  0.00000000E+000
End values

Result PRESS ALYA  0.10000000E+01 Scalar OnNodes
ComponentNames PRESS
Values
          1  0.40392605E+000
          2  0.36537192E+000
          3  0.41862636E+000
          4  0.37294516E+000
          5  0.29026782E+000
          6  0.37555186E+000
          7  0.34890599E+000
          8  0.29272440E+000
          9  0.28428022E+000
         10  0.21153120E+000
         11  0.37555186E+000
         12  0.34890599E+000
         13  0.21093034E+000
         14  0.28428022E+000
         15  0.20752358E+000
         16  0.41862636E+000
         17  0.14570959E+000
         18  0.37294516E+000
         19  0.14088753E+000
         20  0.20752358E+000
         21  0.29272440E+000
         22  0.13814821E+000
         23  0.11737440E+000
         24  0.13814821E+000
         25  0.40392605E+000
         26  0.21093034E+000
         27  0.10672035E+000
         28  0.36537192E+000
         29  0.29026782E+000
         30  0.10199425E+000
         31  0.14088753E+000
         32  0.21153120E+000
         33  0.10199425E+000
         34  0.14570959E+000
         35  0.10672035E+000
         36  0.11737440E+000
End values

Result DISPM ALYA  0.20000000E+01 Vector OnNodes
ComponentNames DISPM_X,DISPM_Y,DISPM_Z
Values
          1  0.00000000E+000 -0.10000000E+000
          2  0.00000000E+000 -0.80000000E-001
          3  0.00000000E+000 -0.10000000E+000
          4  0.00000000E+000 -0.80000000E-001
          5  0.00000000E+000 -0.60000000E-001
          6  0.00000000E+000 -0.10000000E+000
          7  0.00000000E+000 -0.80000000E-001
          8  0.00000000E+000 -0.60000000E-001
          9  0.00000000E+000 -0.60000000E-001
         10  0.00000000E+000 -0.40000000E-001
         11  0.00000000E+000 -0.10000000E+000
         12  0.00000000E+000 -0.80000000E-001
         13  0.00000000E+000 -0.40000000E-001
         14  0.00000000E+000 -0.60000000E-001
         15  0.00000000E+000 -0.40000000E-001
         16  0.00000000E+000 -0.10000000E+000
         17  0.00000000E+000 -0.20000000E-001
         18  0.00000000E+000 -0.80000000E-001
         19  0.00000000E+000 -0.20000000E-001
         20  0.00000000E+000 -0.40000000E-001
         21  0.00000000E+000 -0.60000000E-001
         22  0.00000000E+000 -0.20000000E-001
         23  0.00000000E+000  0.00000000E+000
         24  0.00000000E+000 -0.20000000E-001
         25  0.00000000E+000 -0.10000000E+000
         26  0.00000000E+000 -0.40000000E-001
         27  0.00000000E+000  0.00000000E+000
         28  0.00000000E+000 -0.80000000E-001
         29  0.00000000E+000 -0.60000000E-001
         30  0.00000000E+000  0.00000000E+000
         31  0.00000000E+000 -0.20000000E-001
         32  0.00000000E+000 -0.40000000E-001
         33  0.00000000E+000  0.00000000E+000
         34  0.00000000E+000 -0.20000000E-001
         35  0.00000000E+000  0.00000000E+000
         36  0.00000000E+000  0.00000000E+000
End values

Result VELOM ALYA  0.20000000E+01 Vector OnNodes
ComponentNames VELOM_X,VELOM_Y,VELOM_Z
Values
          1  0.00000000E+000 -0.50000000E-001
          2  0.00000000E+000 -0.40000000E-001
          3  0.00000000E+000 -0.50000000E-001
          4  0.00000000E+000 -0.40000000E-001
          5  0.00000000E+000 -0.30000000E-001
          6  0.00000000E+000 -0.50000000E-001
          7  0.00000000E+000 -0.40000000E-001
          8  0.00000000E+000 -0.30000000E-001
          9  0.00000000E+000 -0.30000000E-001
         10  0.00000000E+000 -0.20000000E-001
         11  0.00000000E+000 -0.50000000E-001
         12  0.00000000E+000 -0.40000000E-001
         13  0.00000000E+000 -0.20000000E-001
         14  0.00000000E+000 -0.30000000E-001
         15  0.00000000E+000 -0.20000000E-001
         16  0.00000000E+000 -0.50000000E-001
         17  0.00000000E+000 -0.10000000E-001
         18  0.00000000E+000 -0.40000000E-001
         19  0.00000000E+000 -0.10000000E-001
         20  0.00000000E+000 -0.20000000E-001
         21  0.00000000E+000 -0.30000000E-001
         22  0.00000000E+000 -0.10000000E-001
         23  0.00000000E+000  0.00000000E+000
         24  0.00000000E+000 -0.10000000E-001
         25  0.00000000E+000 -0.50000000E-001
         26  0.00000000E+000 -0.20000000E-001
         27  0.00000000E+000  0.00000000E+000
         28  0.00000000E+000 -0.40000000E-001
         29  0.00000000E+000 -0.30000000E-001
         30  0.00000000E+000  0.00000000E+000
         31  0.00000000E+000 -0.10000000E-001
         32  0.00000000E+000 -0.20000000E-001
         33  0.00000000E+000  0.00000000E+000
         34  0.00000000E+000 -0.10000000E-001
         35  0.00000000E+000  0.00000000E+000
         36  0.00000000E+000  0.00000000E+000
End values

Result VELOC ALYA  0.20000000E+01 Vector OnNodes
ComponentNames VELOC_X,VELOC_Y,VELOC_Z
Values
          1  0.00000000E+000  0.00000000E+000
          2  0.00000000E+000  0.00000000E+000
          3  0.00000000E+000 -0.50000000E-001
          4  0.15933092E-002 -0.41514325E-001
          5  0.00000000E+000  0.00000000E+000
          6  0.00000000E+000 -0.50000000E-001
          7  0.22060340E-002 -0.52218522E-001
          8  0.90942313E-003 -0.38102177E-001
          9  0.81861019E-003 -0.54082265E-001
         10  0.00000000E+000  0.00000000E+000
         11  0.00000000E+000 -0.50000000E-001
         12 -0.22060340E-002 -0.52218522E-001
         13  0.52875645E-003 -0.37280197E-001
         14 -0.81861019E-003 -0.54082265E-001
         15  0.41780767E-003 -0.55176819E-001
         16  0.00000000E+000 -0.50000000E-001
         17  0.00000000E+000  0.00000000E+000
         18 -0.15933092E-002 -0.41514325E-001
         19  0.72298422E-003 -0.37829531E-001
         20 -0.41780767E-003 -0.55176819E-001
         21 -0.90942313E-003 -0.38102177E-001
         22  0.32966785E-003 -0.56606462E-001
         23  0.00000000E+000  0.00000000E+000
         24 -0.32966785E-003 -0.56606462E-001
         25  0.00000000E+000  0.00000000E+000
         26 -0.52875645E-003 -0.37280197E-001
         27  0.92703054E-003 -0.40505869E-001
         28  0.00000000E+000  0.00000000E+000
         29  0.00000000E+000  0.00000000E+000
         30  0.32471700E-003 -0.59494131E-001
         31 -0.72298422E-003 -0.37829531E-001
         32  0.00000000E+000  0.00000000E+000
         33 -0.32471700E-003 -0.59494131E-001
         34  0.00000000E+000  0.00000000E+000
         35 -0.92703054E-003 -0.40505869E-001
         36  0.00000000E+000  0.00000000E+000
End values

Result PRESS ALYA  0.20000000E+01 Scalar OnNodes
ComponentNames PRESS
Values
          1  0.35358738E+000
          2  0.31989494E+000
          3  0.36552065E+000
          4  0.32810446E+000
          5  0.25395939E+000
          6  0.31454082E+000
          7  0.29894191E+000
          8  0.25703218E+000
          9  0.24610299E+000
         10  0.18555558E+000
         11  0.31454082E+000
         12  0.29894191E+000
         13  0.18524217E+000
         14  0.24610299E+000
         15  0.18095811E+000
         16  0.36552065E+000
         17  0.12969954E+000
         18  0.32810446E+000
         19  0.12514546E+000
         20  0.18095811E+000
         21  0.25703218E+000
         22  0.12279561E+000
         23  0.10687228E+000
         24  0.12279561E+000
         25  0.35358738E+000
         26  0.18524217E+000
         27  0.99416708E-001
         28  0.31989494E+000
         29  0.25395939E+000
         30  0.97614044E-001
         31  0.12514546E+000
         32  0.18555558E+000
         33  0.97614044E-001
         34  0.12969954E+000
         35  0.99416708E-001
         36  0.10687228E+000
End values

Result DISPM ALYA  0.30000000E+01 Vector OnNodes
ComponentNames DISPM_X,DISPM_Y,DISPM_Z
Values
          1  0.00000000E+000 -0.15000000E+000
          2  0.00000000E+000 -0.12000000E+000
          3  0.00000000E+000 -0.15000000E+000
          4  0.00000000E+000 -0.12000000E+000
          5  0.00000000E+000 -0.90000000E-001
          6  0.00000000E+000 -0.15000000E+000
          7  0.00000000E+000 -0.12000000E+000
          8  0.00000000E+000 -0.90000000E-001
          9  0.00000000E+000 -0.90000000E-001
         10  0.00000000E+000 -0.60000000E-001
         11  0.00000000E+000 -0.15000000E+000
         12  0.00000000E+000 -0.12000000E+000
         13  0.00000000E+000 -0.60000000E-001
         14  0.00000000E+000 -0.90000000E-001
         15  0.00000000E+000 -0.60000000E-001
         16  0.00000000E+000 -0.15000000E+000
         17  0.00000000E+000 -0.30000000E-001
         18  0.00000000E+000 -0.12000000E+000
         19  0.00000000E+000 -0.30000000E-001
         20  0.00000000E+000 -0.60000000E-001
         21  0.00000000E+000 -0.90000000E-001
         22  0.00000000E+000 -0.30000000E-001
         23  0.00000000E+000  0.00000000E+000
         24  0.00000000E+000 -0.30000000E-001
         25  0.00000000E+000 -0.15000000E+000
         26  0.00000000E+000 -0.60000000E-001
         27  0.00000000E+000  0.00000000E+000
         28  0.00000000E+000 -0.12000000E+000
         29  0.00000000E+000 -0.90000000E-001
         30  0.00000000E+000  0.00000000E+000
         31  0.00000000E+000 -0.30000000E-001
         32  0.00000000E+000 -0.60000000E-001
         33  0.00000000E+000  0.00000000E+000
         34  0.00000000E+000 -0.30000000E-001
         35  0.00000000E+000  0.00000000E+000
         36  0.00000000E+000  0.00000000E+000
End values

Result VELOM ALYA  0.30000000E+01 Vector OnNodes
ComponentNames VELOM_X,VELOM_Y,VELOM_Z
Values
          1  0.00000000E+000 -0.50000000E-001
          2  0.00000000E+000 -0.40000000E-001
          3  0.00000000E+000 -0.50000000E-001
          4  0.00000000E+000 -0.40000000E-001
          5  0.00000000E+000 -0.30000000E-001
          6  0.00000000E+000 -0.50000000E-001
          7  0.00000000E+000 -0.40000000E-001
          8  0.00000000E+000 -0.30000000E-001
          9  0.00000000E+000 -0.30000000E-001
         10  0.00000000E+000 -0.20000000E-001
         11  0.00000000E+000 -0.50000000E-001
         12  0.00000000E+000 -0.40000000E-001
         13  0.00000000E+000 -0.20000000E-001
         14  0.00000000E+000 -0.30000000E-001
         15  0.00000000E+000 -0.20000000E-001
         16  0.00000000E+000 -0.50000000E-001
         17  0.00000000E+000 -0.10000000E-001
         18  0.00000000E+000 -0.40000000E-001
         19  0.00000000E+000 -0.10000000E-001
         20  0.00000000E+000 -0.20000000E-001
         21  0.00000000E+000 -0.30000000E-001
         22  0.00000000E+000 -0.10000000E-001
         23  0.00000000E+000  0.00000000E+000
         24  0.00000000E+000 -0.10000000E-001
         25  0.00000000E+000 -0.50000000E-001
         26  0.00000000E+000 -0.20000000E-001
         27  0.00000000E+000  0.00000000E+000
         28  0.00000000E+000 -0.40000000E-001
         29  0.00000000E+000 -0.30000000E-001
         30  0.00000000E+000  0.00000000E+000
         31  0.00000000E+000 -0.10000000E-001
         32  0.00000000E+000 -0.20000000E-001
         33  0.00000000E+000  0.00000000E+000
         34  0.00000000E+000 -0.10000000E-001
         35  0.00000000E+000  0.00000000E+000
         36  0.00000000E+000  0.00000000E+000
End values

Result VELOC ALYA  0.30000000E+01 Vector OnNodes
ComponentNames VELOC_X,VELOC_Y,VELOC_Z
Values
          1  0.00000000E+000  0.00000000E+000
          2  0.00000000E+000  0.00000000E+000
          3  0.00000000E+000 -0.50000000E-001
          4  0.16940952E-002 -0.42025755E-001
          5  0.00000000E+000  0.00000000E+000
          6  0.00000000E+000 -0.50000000E-001
          7  0.22944773E-002 -0.52296672E-001
          8  0.10450928E-002 -0.38626126E-001
          9  0.95177364E-003 -0.54300369E-001
         10  0.00000000E+000  0.00000000E+000
         11  0.00000000E+000 -0.50000000E-001
         12 -0.22944773E-002 -0.52296672E-001
         13  0.60383964E-003 -0.37696789E-001
         14 -0.95177364E-003 -0.54300369E-001
         15  0.48644956E-003 -0.55495422E-001
         16  0.00000000E+000 -0.50000000E-001
         17  0.00000000E+000  0.00000000E+000
         18 -0.16940952E-002 -0.42025755E-001
         19  0.72696785E-003 -0.38118193E-001
         20 -0.48644956E-003 -0.55495422E-001
         21 -0.10450928E-002 -0.38626126E-001
         22  0.34512546E-003 -0.56874142E-001
         23  0.00000000E+000  0.00000000E+000
         24 -0.34512546E-003 -0.56874142E-001
         25  0.00000000E+000  0.00000000E+000
         26 -0.60383964E-003 -0.37696789E-001
         27  0.89693960E-003 -0.40508829E-001
         28  0.00000000E+000  0.00000000E+000
         29  0.00000000E+000  0.00000000E+000
         30  0.31895604E-003 -0.59491171E-001
         31 -0.72696785E-003 -0.38118193E-001
         32  0.00000000E+000  0.00000000E+000
         33 -0.31895604E-003 -0.59491171E-001
         34  0.00000000E+000  0.00000000E+000
         35 -0.89693960E-003 -0.40508829E-001
         36  0.00000000E+000  0.00000000E+000
End values

Result PRESS ALYA  0.30000000E+01 Scalar OnNodes
ComponentNames PRESS
Values
          1  0.33952385E+000
          2  0.30653626E+000
          3  0.35253922E+000
          4  0.31574699E+000
          5  0.24261191E+000
          6  0.29565102E+000
          7  0.28193717E+000
          8  0.24644533E+000
          9  0.23282658E+000
         10  0.17693765E+000
         11  0.29565102E+000
         12  0.28193717E+000
         13  0.17692123E+000
         14  0.23282658E+000
         15  0.17144607E+000
         16  0.35253922E+000
         17  0.12374626E+000
         18  0.31574699E+000
         19  0.11909052E+000
         20  0.17144607E+000
         21  0.24644533E+000
         22  0.11637677E+000
         23  0.10211269E+000
         24  0.11637677E+000
         25  0.33952385E+000
         26  0.17692123E+000
         27  0.94394488E-001
         28  0.30653626E+000
         29  0.24261191E+000
         30  0.92528839E-001
         31  0.11909052E+000
         32  0.17693765E+000
         33  0.92528839E-001
         34  0.12374626E+000
         35  0.94394488E-001
         36  0.10211269E+000
End values

Result DISPM ALYA  0.40000000E+01 Vector OnNodes
ComponentNames DISPM_X,DISPM_Y,DISPM_Z
Values
          1  0.00000000E+000 -0.20000000E+000
          2  0.00000000E+000 -0.16000000E+000
          3  0.00000000E+000 -0.20000000E+000
          4  0.00000000E+000 -0.16000000E+000
          5  0.00000000E+000 -0.12000000E+000
          6  0.00000000E+000 -0.20000000E+000
          7  0.00000000E+000 -0.16000000E+000
          8  0.00000000E+000 -0.12000000E+000
          9  0.00000000E+000 -0.12000000E+000
         10  0.00000000E+000 -0.80000000E-001
         11  0.00000000E+000 -0.20000000E+000
         12  0.00000000E+000 -0.16000000E+000
         13  0.00000000E+000 -0.80000000E-001
         14  0.00000000E+000 -0.12000000E+000
         15  0.00000000E+000 -0.80000000E-001
         16  0.00000000E+000 -0.20000000E+000
         17  0.00000000E+000 -0.40000000E-001
         18  0.00000000E+000 -0.16000000E+000
         19  0.00000000E+000 -0.40000000E-001
         20  0.00000000E+000 -0.80000000E-001
         21  0.00000000E+000 -0.12000000E+000
         22  0.00000000E+000 -0.40000000E-001
         23  0.00000000E+000  0.00000000E+000
         24  0.00000000E+000 -0.40000000E-001
         25  0.00000000E+000 -0.20000000E+000
         26  0.00000000E+000 -0.80000000E-001
         27  0.00000000E+000  0.00000000E+000
         28  0.00000000E+000 -0.16000000E+000
         29  0.00000000E+000 -0.12000000E+000
         30  0.00000000E+000  0.00000000E+000
         31  0.00000000E+000 -0.40000000E-001
         32  0.00000000E+000 -0.80000000E-001
         33  0.00000000E+000  0.00000000E+000
         34  0.00000000E+000 -0.40000000E-001
         35  0.00000000E+000  0.00000000E+000
         36  0.00000000E+000  0.00000000E+000
End values

Result VELOM ALYA  0.40000000E+01 Vector OnNodes
ComponentNames VELOM_X,VELOM_Y,VELOM_Z
Values
          1  0.00000000E+000 -0.50000000E-001
          2  0.00000000E+000 -0.40000000E-001
          3  0.00000000E+000 -0.50000000E-001
          4  0.00000000E+000 -0.40000000E-001
          5  0.00000000E+000 -0.30000000E-001
          6  0.00000000E+000 -0.50000000E-001
          7  0.00000000E+000 -0.40000000E-001
          8  0.00000000E+000 -0.30000000E-001
          9  0.00000000E+000 -0.30000000E-001
         10  0.00000000E+000 -0.20000000E-001
         11  0.00000000E+000 -0.50000000E-001
         12  0.00000000E+000 -0.40000000E-001
         13  0.00000000E+000 -0.20000000E-001
         14  0.00000000E+000 -0.30000000E-001
         15  0.00000000E+000 -0.20000000E-001
         16  0.00000000E+000 -0.50000000E-001
         17  0.00000000E+000 -0.10000000E-001
         18  0.00000000E+000 -0.40000000E-001
         19  0.00000000E+000 -0.10000000E-001
         20  0.00000000E+000 -0.20000000E-001
         21  0.00000000E+000 -0.30000000E-001
         22  0.00000000E+000 -0.10000000E-001
         23  0.00000000E+000  0.00000000E+000
         24  0.00000000E+000 -0.10000000E-001
         25  0.00000000E+000 -0.50000000E-001
         26  0.00000000E+000 -0.20000000E-001
         27  0.00000000E+000  0.00000000E+000
         28  0.00000000E+000 -0.40000000E-001
         29  0.00000000E+000 -0.30000000E-001
         30  0.00000000E+000  0.00000000E+000
         31  0.00000000E+000 -0.10000000E-001
         32  0.00000000E+000 -0.20000000E-001
         33  0.00000000E+000  0.00000000E+000
         34  0.00000000E+000 -0.10000000E-001
         35  0.00000000E+000  0.00000000E+000
         36  0.00000000E+000  0.00000000E+000
End values

Result VELOC ALYA  0.40000000E+01 Vector OnNodes
ComponentNames VELOC_X,VELOC_Y,VELOC_Z
Values
          1  0.00000000E+000  0.00000000E+000
          2  0.00000000E+000  0.00000000E+000
          3  0.00000000E+000 -0.50000000E-001
          4  0.17933034E-002 -0.42541695E-001
          5  0.00000000E+000  0.00000000E+000
          6  0.00000000E+000 -0.50000000E-001
          7  0.23824242E-002 -0.52346398E-001
          8  0.11916682E-002 -0.39167631E-001
          9  0.10971265E-002 -0.54469536E-001
         10  0.00000000E+000  0.00000000E+000
         11  0.00000000E+000 -0.50000000E-001
         12 -0.23824242E-002 -0.52346398E-001
         13  0.69314500E-003 -0.38129713E-001
         14 -0.10971265E-002 -0.54469536E-001
         15  0.56891114E-003 -0.55764467E-001
         16  0.00000000E+000 -0.50000000E-001
         17  0.00000000E+000  0.00000000E+000
         18 -0.17933034E-002 -0.42541695E-001
         19  0.74068513E-003 -0.38417715E-001
         20 -0.56891114E-003 -0.55764467E-001
         21 -0.11916682E-002 -0.39167631E-001
         22  0.36969396E-003 -0.57104110E-001
         23  0.00000000E+000  0.00000000E+000
         24 -0.36969396E-003 -0.57104110E-001
         25  0.00000000E+000  0.00000000E+000
         26 -0.69314500E-003 -0.38129713E-001
         27  0.87415177E-003 -0.40529099E-001
         28  0.00000000E+000  0.00000000E+000
         29  0.00000000E+000  0.00000000E+000
         30  0.31972345E-003 -0.59470901E-001
         31 -0.74068513E-003 -0.38417715E-001
         32  0.00000000E+000  0.00000000E+000
         33 -0.31972345E-003 -0.59470901E-001
         34  0.00000000E+000  0.00000000E+000
         35 -0.87415177E-003 -0.40529099E-001
         36  0.00000000E+000  0.00000000E+000
End values

Result PRESS ALYA  0.40000000E+01 Scalar OnNodes
ComponentNames PRESS
Values
          1  0.32546243E+000
          2  0.29318277E+000
          3  0.33979068E+000
          4  0.30362857E+000
          5  0.23123503E+000
          6  0.27611984E+000
          7  0.26433355E+000
          8  0.23605642E+000
          9  0.21911069E+000
         10  0.16827573E+000
         11  0.27611984E+000
         12  0.26433355E+000
         13  0.16871474E+000
         14  0.21911069E+000
         15  0.16167498E+000
         16  0.33979068E+000
         17  0.11775684E+000
         18  0.30362857E+000
         19  0.11306945E+000
         20  0.16167498E+000
         21  0.23605642E+000
         22  0.10983358E+000
         23  0.97323825E-001
         24  0.10983358E+000
         25  0.32546243E+000
         26  0.16871474E+000
         27  0.89382216E-001
         28  0.29318277E+000
         29  0.23123503E+000
         30  0.87357834E-001
         31  0.11306945E+000
         32  0.16827573E+000
         33  0.87357834E-001
         34  0.11775684E+000
         35  0.89382216E-001
         36  0.97323825E-001
End values

Result DISPM ALYA  0.50000000E+01 Vector OnNodes
ComponentNames DISPM_X,DISPM_Y,DISPM_Z
Values
          1  0.00000000E+000 -0.25000000E+000
          2  0.00000000E+000 -0.20000000E+000
          3  0.00000000E+000 -0.25000000E+000
          4  0.00000000E+000 -0.20000000E+000
          5  0.00000000E+000 -0.15000000E+000
          6  0.00000000E+000 -0.25000000E+000
          7  0.00000000E+000 -0.20000000E+000
          8  0.00000000E+000 -0.15000000E+000
          9  0.00000000E+000 -0.15000000E+000
         10  0.00000000E+000 -0.10000000E+000
         11  0.00000000E+000 -0.25000000E+000
         12  0.00000000E+000 -0.20000000E+000
         13  0.00000000E+000 -0.10000000E+000
         14  0.00000000E+000 -0.15000000E+000
         15  0.00000000E+000 -0.10000000E+000
         16  0.00000000E+000 -0.25000000E+000
         17  0.00000000E+000 -0.50000000E-001
         18  0.00000000E+000 -0.20000000E+000
         19  0.00000000E+000 -0.50000000E-001
         20  0.00000000E+000 -0.10000000E+000
         21  0.00000000E+000 -0.15000000E+000
         22  0.00000000E+000 -0.50000000E-001
         23  0.00000000E+000  0.00000000E+000
         24  0.00000000E+000 -0.50000000E-001
         25  0.00000000E+000 -0.25000000E+000
         26  0.00000000E+000 -0.10000000E+000
         27  0.00000000E+000  0.00000000E+000
         28  0.00000000E+000 -0.20000000E+000
         29  0.00000000E+000 -0.15000000E+000
         30  0.00000000E+000  0.00000000E+000
         31  0.00000000E+000 -0.50000000E-001
         32  0.00000000E+000 -0.10000000E+000
         33  0.00000000E+000  0.00000000E+000
         34  0.00000000E+000 -0.50000000E-001
         35  0.00000000E+000  0.00000000E+000
         36  0.00000000E+000  0.00000000E+000
End values

Result VELOM ALYA  0.50000000E+01 Vector OnNodes
ComponentNames VELOM_X,VELOM_Y,VELOM_Z
Values
          1  0.00000000E+000 -0.50000000E-001
          2  0.00000000E+000 -0.40000000E-001
          3  0.00000000E+000 -0.50000000E-001
          4  0.00000000E+000 -0.40000000E-001
          5  0.00000000E+000 -0.30000000E-001
          6  0.00000000E+000 -0.50000000E-001
          7  0.00000000E+000 -0.40000000E-001
          8  0.00000000E+000 -0.30000000E-001
          9  0.00000000E+000 -0.30000000E-001
         10  0.00000000E+000 -0.20000000E-001
         11  0.00000000E+000 -0.50000000E-001
         12  0.00000000E+000 -0.40000000E-001
         13  0.00000000E+000 -0.20000000E-001
         14  0.00000000E+000 -0.30000000E-001
         15  0.00000000E+000 -0.20000000E-001
         16  0.00000000E+000 -0.50000000E-001
         17  0.00000000E+000 -0.10000000E-001
         18  0.00000000E+000 -0.40000000E-001
         19  0.00000000E+000 -0.10000000E-001
         20  0.00000000E+000 -0.20000000E-001
         21  0.00000000E+000 -0.30000000E-001
         22  0.00000000E+000 -0.10000000E-001
         23  0.00000000E+000  0.00000000E+000
         24  0.00000000E+000 -0.10000000E-001
         25  0.00000000E+000 -0.50000000E-001
         26  0.00000000E+000 -0.20000000E-001
         27  0.00000000E+000  0.00000000E+000
         28  0.00000000E+000 -0.40000000E-001
         29  0.00000000E+000 -0.30000000E-001
         30  0.00000000E+000  0.00000000E+000
         31  0.00000000E+000 -0.10000000E-001
         32  0.00000000E+000 -0.20000000E-001
         33  0.00000000E+000  0.00000000E+000
         34  0.00000000E+000 -0.10000000E-001
         35  0.00000000E+000  0.00000000E+000
         36  0.00000000E+000  0.00000000E+000
End values

Result VELOC ALYA  0.50000000E+01 Vector OnNodes
ComponentNames VELOC_X,VELOC_Y,VELOC_Z
Values
          1  0.00000000E+000  0.00000000E+000
          2  0.00000000E+000  0.00000000E+000
          3  0.00000000E+000 -0.50000000E-001
          4  0.18899909E-002 -0.43062344E-001
          5  0.00000000E+000  0.00000000E+000
          6  0.00000000E+000 -0.50000000E-001
          7  0.24692278E-002 -0.52366774E-001
          8  0.13492970E-002 -0.39729148E-001
          9  0.12554300E-002 -0.54586397E-001
         10  0.00000000E+000  0.00000000E+000
         11  0.00000000E+000 -0.50000000E-001
         12 -0.24692278E-002 -0.52366774E-001
         13  0.79851531E-003 -0.38583567E-001
         14 -0.12554300E-002 -0.54586397E-001
         15  0.66728350E-003 -0.55978412E-001
         16  0.00000000E+000 -0.50000000E-001
         17  0.00000000E+000  0.00000000E+000
         18 -0.18899909E-002 -0.43062344E-001
         19  0.76633013E-003 -0.38733406E-001
         20 -0.66728350E-003 -0.55978412E-001
         21 -0.13492970E-002 -0.39729148E-001
         22  0.40553770E-003 -0.57290394E-001
         23  0.00000000E+000  0.00000000E+000
         24 -0.40553770E-003 -0.57290394E-001
         25  0.00000000E+000  0.00000000E+000
         26 -0.79851531E-003 -0.38583567E-001
         27  0.86057731E-003 -0.40572094E-001
         28  0.00000000E+000  0.00000000E+000
         29  0.00000000E+000  0.00000000E+000
         30  0.32880240E-003 -0.59427906E-001
         31 -0.76633013E-003 -0.38733406E-001
         32  0.00000000E+000  0.00000000E+000
         33 -0.32880240E-003 -0.59427906E-001
         34  0.00000000E+000  0.00000000E+000
         35 -0.86057731E-003 -0.40572094E-001
         36  0.00000000E+000  0.00000000E+000
End values

Result PRESS ALYA  0.50000000E+01 Scalar OnNodes
ComponentNames PRESS
Values
          1  0.31138897E+000
          2  0.27982091E+000
          3  0.32733398E+000
          4  0.29181444E+000
          5  0.21981358E+000
          6  0.25583492E+000
          7  0.24601933E+000
          8  0.22593245E+000
          9  0.20485925E+000
         10  0.15955253E+000
         11  0.25583492E+000
         12  0.24601933E+000
         13  0.16067691E+000
         14  0.20485925E+000
         15  0.15157961E+000
         16  0.32733398E+000
         17  0.11171397E+000
         18  0.29181444E+000
         19  0.10711582E+000
         20  0.15157961E+000
         21  0.22593245E+000
         22  0.10313334E+000
         23  0.92485055E-001
         24  0.10313334E+000
         25  0.31138897E+000
         26  0.16067691E+000
         27  0.84392712E-001
         28  0.27982091E+000
         29  0.21981358E+000
         30  0.82095010E-001
         31  0.10711582E+000
         32  0.15955253E+000
         33  0.82095010E-001
         34  0.11171397E+000
         35  0.84392712E-001
         36  0.92485055E-001
End values

Result DISPM ALYA  0.60000000E+01 Vector OnNodes
ComponentNames DISPM_X,DISPM_Y,DISPM_Z
Values
          1  0.00000000E+000 -0.30000000E+000
          2  0.00000000E+000 -0.24000000E+000
          3  0.00000000E+000 -0.30000000E+000
          4  0.00000000E+000 -0.24000000E+000
          5  0.00000000E+000 -0.18000000E+000
          6  0.00000000E+000 -0.30000000E+000
          7  0.00000000E+000 -0.24000000E+000
          8  0.00000000E+000 -0.18000000E+000
          9  0.00000000E+000 -0.18000000E+000
         10  0.00000000E+000 -0.12000000E+000
         11  0.00000000E+000 -0.30000000E+000
         12  0.00000000E+000 -0.24000000E+000
         13  0.00000000E+000 -0.12000000E+000
         14  0.00000000E+000 -0.18000000E+000
         15  0.00000000E+000 -0.12000000E+000
         16  0.00000000E+000 -0.30000000E+000
         17  0.00000000E+000 -0.60000000E-001
         18  0.00000000E+000 -0.24000000E+000
         19  0.00000000E+000 -0.60000000E-001
         20  0.00000000E+000 -0.12000000E+000
         21  0.00000000E+000 -0.18000000E+000
         22  0.00000000E+000 -0.60000000E-001
         23  0.00000000E+000  0.00000000E+000
         24  0.00000000E+000 -0.60000000E-001
         25  0.00000000E+000 -0.30000000E+000
         26  0.00000000E+000 -0.12000000E+000
         27  0.00000000E+000  0.00000000E+000
         28  0.00000000E+000 -0.24000000E+000
         29  0.00000000E+000 -0.18000000E+000
         30  0.00000000E+000  0.00000000E+000
         31  0.00000000E+000 -0.60000000E-001
         32  0.00000000E+000 -0.12000000E+000
         33  0.00000000E+000  0.00000000E+000
         34  0.00000000E+000 -0.60000000E-001
         35  0.00000000E+000  0.00000000E+000
         36  0.00000000E+000  0.00000000E+000
End values

Result VELOM ALYA  0.60000000E+01 Vector OnNodes
ComponentNames VELOM_X,VELOM_Y,VELOM_Z
Values
          1  0.00000000E+000 -0.50000000E-001
          2  0.00000000E+000 -0.40000000E-001
          3  0.00000000E+000 -0.50000000E-001
          4  0.00000000E+000 -0.40000000E-001
          5  0.00000000E+000 -0.30000000E-001
          6  0.00000000E+000 -0.50000000E-001
          7  0.00000000E+000 -0.40000000E-001
          8  0.00000000E+000 -0.30000000E-001
          9  0.00000000E+000 -0.30000000E-001
         10  0.00000000E+000 -0.20000000E-001
         11  0.00000000E+000 -0.50000000E-001
         12  0.00000000E+000 -0.40000000E-001
         13  0.00000000E+000 -0.20000000E-001
         14  0.00000000E+000 -0.30000000E-001
         15  0.00000000E+000 -0.20000000E-001
         16  0.00000000E+000 -0.50000000E-001
         17  0.00000000E+000 -0.10000000E-001
         18  0.00000000E+000 -0.40000000E-001
         19  0.00000000E+000 -0.10000000E-001
         20  0.00000000E+000 -0.20000000E-001
         21  0.00000000E+000 -0.30000000E-001
         22  0.00000000E+000 -0.10000000E-001
         23  0.00000000E+000  0.00000000E+000
         24  0.00000000E+000 -0.10000000E-001
         25  0.00000000E+000 -0.50000000E-001
         26  0.00000000E+000 -0.20000000E-001
         27  0.00000000E+000  0.00000000E+000
         28  0.00000000E+000 -0.40000000E-001
         29  0.00000000E+000 -0.30000000E-001
         30  0.00000000E+000  0.00000000E+000
         31  0.00000000E+000 -0.10000000E-001
         32  0.00000000E+000 -0.20000000E-001
         33  0.00000000E+000  0.00000000E+000
         34  0.00000000E+000 -0.10000000E-001
         35  0.00000000E+000  0.00000000E+000
         36  0.00000000E+000  0.00000000E+000
End values

Result VELOC ALYA  0.60000000E+01 Vector OnNodes
ComponentNames VELOC_X,VELOC_Y,VELOC_Z
Values
          1  0.00000000E+000  0.00000000E+000
          2  0.00000000E+000  0.00000000E+000
          3  0.00000000E+000 -0.50000000E-001
          4  0.19820596E-002 -0.43588379E-001
          5  0.00000000E+000  0.00000000E+000
          6  0.00000000E+000 -0.50000000E-001
          7  0.25532894E-002 -0.52356260E-001
          8  0.15169925E-002 -0.40314622E-001
          9  0.14266368E-002 -0.54645760E-001
         10  0.00000000E+000  0.00000000E+000
         11  0.00000000E+000 -0.50000000E-001
         12 -0.25532894E-002 -0.52356260E-001
         13  0.92140173E-003 -0.39065600E-001
         14 -0.14266368E-002 -0.54645760E-001
         15  0.78348283E-003 -0.56128644E-001
         16  0.00000000E+000 -0.50000000E-001
         17  0.00000000E+000  0.00000000E+000
         18 -0.19820596E-002 -0.43588379E-001
         19  0.80654149E-003 -0.39074051E-001
         20 -0.78348283E-003 -0.56128644E-001
         21 -0.15169925E-002 -0.40314622E-001
         22  0.45524918E-003 -0.57423212E-001
         23  0.00000000E+000  0.00000000E+000
         24 -0.45524918E-003 -0.57423212E-001
         25  0.00000000E+000  0.00000000E+000
         26 -0.92140173E-003 -0.39065600E-001
         27  0.85909460E-003 -0.40647221E-001
         28  0.00000000E+000  0.00000000E+000
         29  0.00000000E+000  0.00000000E+000
         30  0.34879700E-003 -0.59352779E-001
         31 -0.80654149E-003 -0.39074051E-001
         32  0.00000000E+000  0.00000000E+000
         33 -0.34879700E-003 -0.59352779E-001
         34  0.00000000E+000  0.00000000E+000
         35 -0.85909460E-003 -0.40647221E-001
         36  0.00000000E+000  0.00000000E+000
End values

Result PRESS ALYA  0.60000000E+01 Scalar OnNodes
ComponentNames PRESS
Values
          1  0.29732475E+000
          2  0.26647452E+000
          3  0.31529103E+000
          4  0.28043282E+000
          5  0.20836144E+000
          6  0.23471944E+000
          7  0.22691013E+000
          8  0.21619669E+000
          9  0.18999295E+000
         10  0.15076348E+000
         11  0.23471944E+000
         12  0.22691013E+000
         13  0.15290435E+000
         14  0.18999295E+000
         15  0.14110230E+000
         16  0.31529103E+000
         17  0.10559957E+000
         18  0.28043282E+000
         19  0.10128797E+000
         20  0.14110230E+000
         21  0.21619669E+000
         22  0.96244943E-001
         23  0.87573320E-001
         24  0.96244943E-001
         25  0.29732475E+000
         26  0.15290435E+000
         27  0.79464920E-001
         28  0.26647452E+000
         29  0.20836144E+000
         30  0.76722077E-001
         31  0.10128797E+000
         32  0.15076348E+000
         33  0.76722077E-001
         34  0.10559957E+000
         35  0.79464920E-001
         36  0.87573320E-001
End values

Result DISPM ALYA  0.70000000E+01 Vector OnNodes
ComponentNames DISPM_X,DISPM_Y,DISPM_Z
Values
          1  0.00000000E+000 -0.35000000E+000
          2  0.00000000E+000 -0.28000000E+000
          3  0.00000000E+000 -0.35000000E+000
          4  0.00000000E+000 -0.28000000E+000
          5  0.00000000E+000 -0.21000000E+000
          6  0.00000000E+000 -0.35000000E+000
          7  0.00000000E+000 -0.28000000E+000
          8  0.00000000E+000 -0.21000000E+000
          9  0.00000000E+000 -0.21000000E+000
         10  0.00000000E+000 -0.14000000E+000
         11  0.00000000E+000 -0.35000000E+000
         12  0.00000000E+000 -0.28000000E+000
         13  0.00000000E+000 -0.14000000E+000
         14  0.00000000E+000 -0.21000000E+000
         15  0.00000000E+000 -0.14000000E+000
         16  0.00000000E+000 -0.35000000E+000
         17  0.00000000E+000 -0.70000000E-001
         18  0.00000000E+000 -0.28000000E+000
         19  0.00000000E+000 -0.70000000E-001
         20  0.00000000E+000 -0.14000000E+000
         21  0.00000000E+000 -0.21000000E+000
         22  0.00000000E+000 -0.70000000E-001
         23  0.00000000E+000  0.00000000E+000
         24  0.00000000E+000 -0.70000000E-001
         25  0.00000000E+000 -0.35000000E+000
         26  0.00000000E+000 -0.14000000E+000
         27  0.00000000E+000  0.00000000E+000
         28  0.00000000E+000 -0.28000000E+000
         29  0.00000000E+000 -0.21000000E+000
         30  0.00000000E+000  0.00000000E+000
         31  0.00000000E+000 -0.70000000E-001
         32  0.00000000E+000 -0.14000000E+000
         33  0.00000000E+000  0.00000000E+000
         34  0.00000000E+000 -0.70000000E-001
         35  0.00000000E+000  0.00000000E+000
         36  0.00000000E+000  0.00000000E+000
End values

Result VELOM ALYA  0.70000000E+01 Vector OnNodes
ComponentNames VELOM_X,VELOM_Y,VELOM_Z
Values
          1  0.00000000E+000 -0.50000000E-001
          2  0.00000000E+000 -0.40000000E-001
          3  0.00000000E+000 -0.50000000E-001
          4  0.00000000E+000 -0.40000000E-001
          5  0.00000000E+000 -0.30000000E-001
          6  0.00000000E+000 -0.50000000E-001
          7  0.00000000E+000 -0.40000000E-001
          8  0.00000000E+000 -0.30000000E-001
          9  0.00000000E+000 -0.30000000E-001
         10  0.00000000E+000 -0.20000000E-001
         11  0.00000000E+000 -0.50000000E-001
         12  0.00000000E+000 -0.40000000E-001
         13  0.00000000E+000 -0.20000000E-001
         14  0.00000000E+000 -0.30000000E-001
         15  0.00000000E+000 -0.20000000E-001
         16  0.00000000E+000 -0.50000000E-001
         17  0.00000000E+000 -0.10000000E-001
         18  0.00000000E+000 -0.40000000E-001
         19  0.00000000E+000 -0.10000000E-001
         20  0.00000000E+000 -0.20000000E-001
         21  0.00000000E+000 -0.30000000E-001
         22  0.00000000E+000 -0.10000000E-001
         23  0.00000000E+000  0.00000000E+000
         24  0.00000000E+000 -0.10000000E-001
         25  0.00000000E+000 -0.50000000E-001
         26  0.00000000E+000 -0.20000000E-001
         27  0.00000000E+000  0.00000000E+000
         28  0.00000000E+000 -0.40000000E-001
         29  0.00000000E+000 -0.30000000E-001
         30  0.00000000E+000  0.00000000E+000
         31  0.00000000E+000 -0.10000000E-001
         32  0.00000000E+000 -0.20000000E-001
         33  0.00000000E+000  0.00000000E+000
         34  0.00000000E+000 -0.10000000E-001
         35  0.00000000E+000  0.00000000E+000
         36  0.00000000E+000  0.00000000E+000
End values

Result VELOC ALYA  0.70000000E+01 Vector OnNodes
ComponentNames VELOC_X,VELOC_Y,VELOC_Z
Values
          1  0.00000000E+000  0.00000000E+000
          2  0.00000000E+000  0.00000000E+000
          3  0.00000000E+000 -0.50000000E-001
          4  0.20664386E-002 -0.44120670E-001
          5  0.00000000E+000  0.00000000E+000
          6  0.00000000E+000 -0.50000000E-001
          7  0.26322032E-002 -0.52313186E-001
          8  0.16924990E-002 -0.40928910E-001
          9  0.16098142E-002 -0.54641621E-001
         10  0.00000000E+000  0.00000000E+000
         11  0.00000000E+000 -0.50000000E-001
         12 -0.26322032E-002 -0.52313186E-001
         13  0.10625869E-002 -0.39585122E-001
         14 -0.16098142E-002 -0.54641621E-001
         15  0.91908086E-003 -0.56204595E-001
         16  0.00000000E+000 -0.50000000E-001
         17  0.00000000E+000  0.00000000E+000
         18 -0.20664386E-002 -0.44120670E-001
         19  0.86412105E-003 -0.39451457E-001
         20 -0.91908086E-003 -0.56204595E-001
         21 -0.16924990E-002 -0.40928910E-001
         22  0.52173058E-003 -0.57489837E-001
         23  0.00000000E+000  0.00000000E+000
         24 -0.52173058E-003 -0.57489837E-001
         25  0.00000000E+000  0.00000000E+000
         26 -0.10625869E-002 -0.39585122E-001
         27  0.87311832E-003 -0.40767332E-001
         28  0.00000000E+000  0.00000000E+000
         29  0.00000000E+000  0.00000000E+000
         30  0.38292334E-003 -0.59232668E-001
         31 -0.86412105E-003 -0.39451457E-001
         32  0.00000000E+000  0.00000000E+000
         33 -0.38292334E-003 -0.59232668E-001
         34  0.00000000E+000  0.00000000E+000
         35 -0.87311832E-003 -0.40767332E-001
         36  0.00000000E+000  0.00000000E+000
End values

Result PRESS ALYA  0.70000000E+01 Scalar OnNodes
ComponentNames PRESS
Values
          1  0.28327360E+000
          2  0.25315354E+000
          3  0.30380623E+000
          4  0.26963737E+000
          5  0.19688025E+000
          6  0.21268276E+000
          7  0.20690398E+000
          8  0.20700085E+000
          9  0.17441219E+000
         10  0.14188767E+000
         11  0.21268276E+000
         12  0.20690398E+000
         13  0.14552048E+000
         14  0.17441219E+000
         15  0.13016736E+000
         16  0.30380623E+000
         17  0.99374439E-001
         18  0.26963737E+000
         19  0.95664702E-001
         20  0.13016736E+000
         21  0.20700085E+000
         22  0.89125138E-001
         23  0.82542777E-001
         24  0.89125138E-001
         25  0.28327360E+000
         26  0.14552048E+000
         27  0.74654366E-001
         28  0.25315354E+000
         29  0.19688025E+000
         30  0.71211783E-001
         31  0.95664702E-001
         32  0.14188767E+000
         33  0.71211783E-001
         34  0.99374439E-001
         35  0.74654366E-001
         36  0.82542777E-001
End values

Result DISPM ALYA  0.80000000E+01 Vector OnNodes
ComponentNames DISPM_X,DISPM_Y,DISPM_Z
Values
          1  0.00000000E+000 -0.40000000E+000
          2  0.00000000E+000 -0.32000000E+000
          3  0.00000000E+000 -0.40000000E+000
          4  0.00000000E+000 -0.32000000E+000
          5  0.00000000E+000 -0.24000000E+000
          6  0.00000000E+000 -0.40000000E+000
          7  0.00000000E+000 -0.32000000E+000
          8  0.00000000E+000 -0.24000000E+000
          9  0.00000000E+000 -0.24000000E+000
         10  0.00000000E+000 -0.16000000E+000
         11  0.00000000E+000 -0.40000000E+000
         12  0.00000000E+000 -0.32000000E+000
         13  0.00000000E+000 -0.16000000E+000
         14  0.00000000E+000 -0.24000000E+000
         15  0.00000000E+000 -0.16000000E+000
         16  0.00000000E+000 -0.40000000E+000
         17  0.00000000E+000 -0.80000000E-001
         18  0.00000000E+000 -0.32000000E+000
         19  0.00000000E+000 -0.80000000E-001
         20  0.00000000E+000 -0.16000000E+000
         21  0.00000000E+000 -0.24000000E+000
         22  0.00000000E+000 -0.80000000E-001
         23  0.00000000E+000  0.00000000E+000
         24  0.00000000E+000 -0.80000000E-001
         25  0.00000000E+000 -0.40000000E+000
         26  0.00000000E+000 -0.16000000E+000
         27  0.00000000E+000  0.00000000E+000
         28  0.00000000E+000 -0.32000000E+000
         29  0.00000000E+000 -0.24000000E+000
         30  0.00000000E+000  0.00000000E+000
         31  0.00000000E+000 -0.80000000E-001
         32  0.00000000E+000 -0.16000000E+000
         33  0.00000000E+000  0.00000000E+000
         34  0.00000000E+000 -0.80000000E-001
         35  0.00000000E+000  0.00000000E+000
         36  0.00000000E+000  0.00000000E+000
End values

Result VELOM ALYA  0.80000000E+01 Vector OnNodes
ComponentNames VELOM_X,VELOM_Y,VELOM_Z
Values
          1  0.00000000E+000 -0.50000000E-001
          2  0.00000000E+000 -0.40000000E-001
          3  0.00000000E+000 -0.50000000E-001
          4  0.00000000E+000 -0.40000000E-001
          5  0.00000000E+000 -0.30000000E-001
          6  0.00000000E+000 -0.50000000E-001
          7  0.00000000E+000 -0.40000000E-001
          8  0.00000000E+000 -0.30000000E-001
          9  0.00000000E+000 -0.30000000E-001
         10  0.00000000E+000 -0.20000000E-001
         11  0.00000000E+000 -0.50000000E-001
         12  0.00000000E+000 -0.40000000E-001
         13  0.00000000E+000 -0.20000000E-001
         14  0.00000000E+000 -0.30000000E-001
         15  0.00000000E+000 -0.20000000E-001
         16  0.00000000E+000 -0.50000000E-001
         17  0.00000000E+000 -0.10000000E-001
         18  0.00000000E+000 -0.40000000E-001
         19  0.00000000E+000 -0.10000000E-001
         20  0.00000000E+000 -0.20000000E-001
         21  0.00000000E+000 -0.30000000E-001
         22  0.00000000E+000 -0.10000000E-001
         23  0.00000000E+000  0.00000000E+000
         24  0.00000000E+000 -0.10000000E-001
         25  0.00000000E+000 -0.50000000E-001
         26  0.00000000E+000 -0.20000000E-001
         27  0.00000000E+000  0.00000000E+000
         28  0.00000000E+000 -0.40000000E-001
         29  0.00000000E+000 -0.30000000E-001
         30  0.00000000E+000  0.00000000E+000
         31  0.00000000E+000 -0.10000000E-001
         32  0.00000000E+000 -0.20000000E-001
         33  0.00000000E+000  0.00000000E+000
         34  0.00000000E+000 -0.10000000E-001
         35  0.00000000E+000  0.00000000E+000
         36  0.00000000E+000  0.00000000E+000
End values

Result VELOC ALYA  0.80000000E+01 Vector OnNodes
ComponentNames VELOC_X,VELOC_Y,VELOC_Z
Values
          1  0.00000000E+000  0.00000000E+000
          2  0.00000000E+000  0.00000000E+000
          3  0.00000000E+000 -0.50000000E-001
          4  0.21385949E-002 -0.44660339E-001
          5  0.00000000E+000  0.00000000E+000
          6  0.00000000E+000 -0.50000000E-001
          7  0.27023087E-002 -0.52235724E-001
          8  0.18715302E-002 -0.41577995E-001
          9  0.18025180E-002 -0.54566994E-001
         10  0.00000000E+000  0.00000000E+000
         11  0.00000000E+000 -0.50000000E-001
         12 -0.27023087E-002 -0.52235724E-001
         13  0.12215263E-002 -0.40154008E-001
         14 -0.18025180E-002 -0.54566994E-001
         15  0.10748121E-002 -0.56193283E-001
         16  0.00000000E+000 -0.50000000E-001
         17  0.00000000E+000  0.00000000E+000
         18 -0.21385949E-002 -0.44660339E-001
         19  0.94170462E-003 -0.39881302E-001
         20 -0.10748121E-002 -0.56193283E-001
         21 -0.18715302E-002 -0.41577995E-001
         22  0.60800650E-003 -0.57473802E-001
         23  0.00000000E+000  0.00000000E+000
         24 -0.60800650E-003 -0.57473802E-001
         25  0.00000000E+000  0.00000000E+000
         26 -0.12215263E-002 -0.40154008E-001
         27  0.90644151E-003 -0.40949782E-001
         28  0.00000000E+000  0.00000000E+000
         29  0.00000000E+000  0.00000000E+000
         30  0.43499143E-003 -0.59050218E-001
         31 -0.94170462E-003 -0.39881302E-001
         32  0.00000000E+000  0.00000000E+000
         33 -0.43499143E-003 -0.59050218E-001
         34  0.00000000E+000  0.00000000E+000
         35 -0.90644151E-003 -0.40949782E-001
         36  0.00000000E+000  0.00000000E+000
End values

Result PRESS ALYA  0.80000000E+01 Scalar OnNodes
ComponentNames PRESS
Values
          1  0.26920434E+000
          2  0.23983935E+000
          3  0.29304550E+000
          4  0.25960747E+000
          5  0.18534791E+000
          6  0.18962205E+000
          7  0.18588122E+000
          8  0.19852746E+000
          9  0.15799482E+000
         10  0.13287610E+000
         11  0.18962205E+000
         12  0.18588122E+000
         13  0.13868042E+000
         14  0.15799482E+000
         15  0.11867779E+000
         16  0.29304550E+000
         17  0.92964520E-001
         18  0.25960747E+000
         19  0.90351793E-001
         20  0.11867779E+000
         21  0.19852746E+000
         22  0.81715144E-001
         23  0.77309935E-001
         24  0.81715144E-001
         25  0.26920434E+000
         26  0.13868042E+000
         27  0.70040138E-001
         28  0.23983935E+000
         29  0.18534791E+000
         30  0.65524814E-001
         31  0.90351793E-001
         32  0.13287610E+000
         33  0.65524814E-001
         34  0.92964520E-001
         35  0.70040138E-001
         36  0.77309935E-001
End values

Result DISPM ALYA  0.90000000E+01 Vector OnNodes
ComponentNames DISPM_X,DISPM_Y,DISPM_Z
Values
          1  0.00000000E+000 -0.45000000E+000
          2  0.00000000E+000 -0.36000000E+000
          3  0.00000000E+000 -0.45000000E+000
          4  0.00000000E+000 -0.36000000E+000
          5  0.00000000E+000 -0.27000000E+000
          6  0.00000000E+000 -0.45000000E+000
          7  0.00000000E+000 -0.36000000E+000
          8  0.00000000E+000 -0.27000000E+000
          9  0.00000000E+000 -0.27000000E+000
         10  0.00000000E+000 -0.18000000E+000
         11  0.00000000E+000 -0.45000000E+000
         12  0.00000000E+000 -0.36000000E+000
         13  0.00000000E+000 -0.18000000E+000
         14  0.00000000E+000 -0.27000000E+000
         15  0.00000000E+000 -0.18000000E+000
         16  0.00000000E+000 -0.45000000E+000
         17  0.00000000E+000 -0.90000000E-001
         18  0.00000000E+000 -0.36000000E+000
         19  0.00000000E+000 -0.90000000E-001
         20  0.00000000E+000 -0.18000000E+000
         21  0.00000000E+000 -0.27000000E+000
         22  0.00000000E+000 -0.90000000E-001
         23  0.00000000E+000  0.00000000E+000
         24  0.00000000E+000 -0.90000000E-001
         25  0.00000000E+000 -0.45000000E+000
         26  0.00000000E+000 -0.18000000E+000
         27  0.00000000E+000  0.00000000E+000
         28  0.00000000E+000 -0.36000000E+000
         29  0.00000000E+000 -0.27000000E+000
         30  0.00000000E+000  0.00000000E+000
         31  0.00000000E+000 -0.90000000E-001
         32  0.00000000E+000 -0.18000000E+000
         33  0.00000000E+000  0.00000000E+000
         34  0.00000000E+000 -0.90000000E-001
         35  0.00000000E+000  0.00000000E+000
         36  0.00000000E+000  0.00000000E+000
End values

Result VELOM ALYA  0.90000000E+01 Vector OnNodes
ComponentNames VELOM_X,VELOM_Y,VELOM_Z
Values
          1  0.00000000E+000 -0.50000000E-001
          2  0.00000000E+000 -0.40000000E-001
          3  0.00000000E+000 -0.50000000E-001
          4  0.00000000E+000 -0.40000000E-001
          5  0.00000000E+000 -0.30000000E-001
          6  0.00000000E+000 -0.50000000E-001
          7  0.00000000E+000 -0.40000000E-001
          8  0.00000000E+000 -0.30000000E-001
          9  0.00000000E+000 -0.30000000E-001
         10  0.00000000E+000 -0.20000000E-001
         11  0.00000000E+000 -0.50000000E-001
         12  0.00000000E+000 -0.40000000E-001
         13  0.00000000E+000 -0.20000000E-001
         14  0.00000000E+000 -0.30000000E-001
         15  0.00000000E+000 -0.20000000E-001
         16  0.00000000E+000 -0.50000000E-001
         17  0.00000000E+000 -0.10000000E-001
         18  0.00000000E+000 -0.40000000E-001
         19  0.00000000E+000 -0.10000000E-001
         20  0.00000000E+000 -0.20000000E-001
         21  0.00000000E+000 -0.30000000E-001
         22  0.00000000E+000 -0.10000000E-001
         23  0.00000000E+000  0.00000000E+000
         24  0.00000000E+000 -0.10000000E-001
         25  0.00000000E+000 -0.50000000E-001
         26  0.00000000E+000 -0.20000000E-001
         27  0.00000000E+000  0.00000000E+000
         28  0.00000000E+000 -0.40000000E-001
         29  0.00000000E+000 -0.30000000E-001
         30  0.00000000E+000  0.00000000E+000
         31  0.00000000E+000 -0.10000000E-001
         32  0.00000000E+000 -0.20000000E-001
         33  0.00000000E+000  0.00000000E+000
         34  0.00000000E+000 -0.10000000E-001
         35  0.00000000E+000  0.00000000E+000
         36  0.00000000E+000  0.00000000E+000
End values

Result VELOC ALYA  0.90000000E+01 Vector OnNodes
ComponentNames VELOC_X,VELOC_Y,VELOC_Z
Values
          1  0.00000000E+000  0.00000000E+000
          2  0.00000000E+000  0.00000000E+000
          3  0.00000000E+000 -0.50000000E-001
          4  0.21918170E-002 -0.45208796E-001
          5  0.00000000E+000  0.00000000E+000
          6  0.00000000E+000 -0.50000000E-001
          7  0.27579945E-002 -0.52121891E-001
          8  0.20466111E-002 -0.42269177E-001
          9  0.19997918E-002 -0.54413787E-001
         10  0.00000000E+000  0.00000000E+000
         11  0.00000000E+000 -0.50000000E-001
         12 -0.27579945E-002 -0.52121891E-001
         13  0.13952652E-002 -0.40787206E-001
         14 -0.19997918E-002 -0.54413787E-001
         15  0.12497217E-002 -0.56078889E-001
         16  0.00000000E+000 -0.50000000E-001
         17  0.00000000E+000  0.00000000E+000
         18 -0.21918170E-002 -0.45208796E-001
         19  0.10410812E-002 -0.40384035E-001
         20 -0.12497217E-002 -0.56078889E-001
         21 -0.20466111E-002 -0.42269177E-001
         22  0.71677861E-003 -0.57354063E-001
         23  0.00000000E+000  0.00000000E+000
         24 -0.71677861E-003 -0.57354063E-001
         25  0.00000000E+000  0.00000000E+000
         26 -0.13952652E-002 -0.40787206E-001
         27  0.96277098E-003 -0.41217632E-001
         28  0.00000000E+000  0.00000000E+000
         29  0.00000000E+000  0.00000000E+000
         30  0.50919090E-003 -0.58782368E-001
         31 -0.10410812E-002 -0.40384035E-001
         32  0.00000000E+000  0.00000000E+000
         33 -0.50919090E-003 -0.58782368E-001
         34  0.00000000E+000  0.00000000E+000
         35 -0.96277098E-003 -0.41217632E-001
         36  0.00000000E+000  0.00000000E+000
End values

Result PRESS ALYA  0.90000000E+01 Scalar OnNodes
ComponentNames PRESS
Values
          1  0.25502065E+000
          2  0.22645969E+000
          3  0.28318790E+000
          4  0.25054174E+000
          5  0.17370012E+000
          6  0.16543109E+000
          7  0.16371039E+000
          8  0.19098708E+000
          9  0.14059824E+000
         10  0.12363427E+000
         11  0.16543109E+000
         12  0.16371039E+000
         13  0.13257341E+000
         14  0.14059824E+000
         15  0.10651411E+000
         16  0.28318790E+000
         17  0.86240872E-001
         18  0.25054174E+000
         19  0.85489285E-001
         20  0.10651411E+000
         21  0.19098708E+000
         22  0.73937610E-001
         23  0.71732244E-001
         24  0.73937610E-001
         25  0.25502065E+000
         26  0.13257341E+000
         27  0.65734260E-001
         28  0.22645969E+000
         29  0.17370012E+000
         30  0.59606049E-001
         31  0.85489285E-001
         32  0.12363427E+000
         33  0.59606049E-001
         34  0.86240872E-001
         35  0.65734260E-001
         36  0.71732244E-001
End values

Result DISPM ALYA  0.10000000E+02 Vector OnNodes
ComponentNames DISPM_X,DISPM_Y,DISPM_Z
Values
          1  0.00000000E+000 -0.50000000E+000
          2  0.00000000E+000 -0.40000000E+000
          3  0.00000000E+000 -0.50000000E+000
          4  0.00000000E+000 -0.40000000E+000
          5  0.00000000E+000 -0.30000000E+000
          6  0.00000000E+000 -0.50000000E+000
          7  0.00000000E+000 -0.40000000E+000
          8  0.00000000E+000 -0.30000000E+000
          9  0.00000000E+000 -0.30000000E+000
         10  0.00000000E+000 -0.20000000E+000
         11  0.00000000E+000 -0.50000000E+000
         12  0.00000000E+000 -0.40000000E+000
         13  0.00000000E+000 -0.20000000E+000
         14  0.00000000E+000 -0.30000000E+000
         15  0.00000000E+000 -0.20000000E+000
         16  0.00000000E+000 -0.50000000E+000
         17  0.00000000E+000 -0.10000000E+000
         18  0.00000000E+000 -0.40000000E+000
         19  0.00000000E+000 -0.10000000E+000
         20  0.00000000E+000 -0.20000000E+000
         21  0.00000000E+000 -0.30000000E+000
         22  0.00000000E+000 -0.10000000E+000
         23  0.00000000E+000  0.00000000E+000
         24  0.00000000E+000 -0.10000000E+000
         25  0.00000000E+000 -0.50000000E+000
         26  0.00000000E+000 -0.20000000E+000
         27  0.00000000E+000  0.00000000E+000
         28  0.00000000E+000 -0.40000000E+000
         29  0.00000000E+000 -0.30000000E+000
         30  0.00000000E+000  0.00000000E+000
         31  0.00000000E+000 -0.10000000E+000
         32  0.00000000E+000 -0.20000000E+000
         33  0.00000000E+000  0.00000000E+000
         34  0.00000000E+000 -0.10000000E+000
         35  0.00000000E+000  0.00000000E+000
         36  0.00000000E+000  0.00000000E+000
End values

Result VELOM ALYA  0.10000000E+02 Vector OnNodes
ComponentNames VELOM_X,VELOM_Y,VELOM_Z
Values
          1  0.00000000E+000 -0.50000000E-001
          2  0.00000000E+000 -0.40000000E-001
          3  0.00000000E+000 -0.50000000E-001
          4  0.00000000E+000 -0.40000000E-001
          5  0.00000000E+000 -0.30000000E-001
          6  0.00000000E+000 -0.50000000E-001
          7  0.00000000E+000 -0.40000000E-001
          8  0.00000000E+000 -0.30000000E-001
          9  0.00000000E+000 -0.30000000E-001
         10  0.00000000E+000 -0.20000000E-001
         11  0.00000000E+000 -0.50000000E-001
         12  0.00000000E+000 -0.40000000E-001
         13  0.00000000E+000 -0.20000000E-001
         14  0.00000000E+000 -0.30000000E-001
         15  0.00000000E+000 -0.20000000E-001
         16  0.00000000E+000 -0.50000000E-001
         17  0.00000000E+000 -0.10000000E-001
         18  0.00000000E+000 -0.40000000E-001
         19  0.00000000E+000 -0.10000000E-001
         20  0.00000000E+000 -0.20000000E-001
         21  0.00000000E+000 -0.30000000E-001
         22  0.00000000E+000 -0.10000000E-001
         23  0.00000000E+000  0.00000000E+000
         24  0.00000000E+000 -0.10000000E-001
         25  0.00000000E+000 -0.50000000E-001
         26  0.00000000E+000 -0.20000000E-001
         27  0.00000000E+000  0.00000000E+000
         28  0.00000000E+000 -0.40000000E-001
         29  0.00000000E+000 -0.30000000E-001
         30  0.00000000E+000  0.00000000E+000
         31  0.00000000E+000 -0.10000000E-001
         32  0.00000000E+000 -0.20000000E-001
         33  0.00000000E+000  0.00000000E+000
         34  0.00000000E+000 -0.10000000E-001
         35  0.00000000E+000  0.00000000E+000
         36  0.00000000E+000  0.00000000E+000
End values

Result VELOC ALYA  0.10000000E+02 Vector OnNodes
ComponentNames VELOC_X,VELOC_Y,VELOC_Z
Values
          1  0.00000000E+000  0.00000000E+000
          2  0.00000000E+000  0.00000000E+000
          3  0.00000000E+000 -0.50000000E-001
          4  0.22162528E-002 -0.45767690E-001
          5  0.00000000E+000  0.00000000E+000
          6  0.00000000E+000 -0.50000000E-001
          7  0.27906742E-002 -0.51969645E-001
          8  0.22054122E-002 -0.43011055E-001
          9  0.21926275E-002 -0.54172928E-001
         10  0.00000000E+000  0.00000000E+000
         11  0.00000000E+000 -0.50000000E-001
         12 -0.27906742E-002 -0.51969645E-001
         13  0.15767273E-002 -0.41502962E-001
         14 -0.21926275E-002 -0.54172928E-001
         15  0.14397421E-002 -0.55842670E-001
         16  0.00000000E+000 -0.50000000E-001
         17  0.00000000E+000  0.00000000E+000
         18 -0.22162528E-002 -0.45767690E-001
         19  0.11618916E-002 -0.40985534E-001
         20 -0.14397421E-002 -0.55842670E-001
         21 -0.22054122E-002 -0.43011055E-001
         22  0.84949161E-003 -0.57104455E-001
         23  0.00000000E+000  0.00000000E+000
         24 -0.84949161E-003 -0.57104455E-001
         25  0.00000000E+000  0.00000000E+000
         26 -0.15767273E-002 -0.41502962E-001
         27  0.10446611E-002 -0.41600688E-001
         28  0.00000000E+000  0.00000000E+000
         29  0.00000000E+000  0.00000000E+000
         30  0.60944409E-003 -0.58399312E-001
         31 -0.11618916E-002 -0.40985534E-001
         32  0.00000000E+000  0.00000000E+000
         33 -0.60944409E-003 -0.58399312E-001
         34  0.00000000E+000  0.00000000E+000
         35 -0.10446611E-002 -0.41600688E-001
         36  0.00000000E+000  0.00000000E+000
End values

Result PRESS ALYA  0.10000000E+02 Scalar OnNodes
ComponentNames PRESS
Values
          1  0.24051069E+000
          2  0.21284671E+000
          3  0.27439957E+000
          4  0.24263479E+000
          5  0.16180118E+000
          6  0.14002364E+000
          7  0.14026733E+000
          8  0.18460155E+000
          9  0.12207153E+000
         10  0.11399816E+000
         11  0.14002364E+000
         12  0.14026733E+000
         13  0.12741663E+000
         14  0.12207153E+000
         15  0.93539336E-001
         16  0.27439957E+000
         17  0.78993932E-001
         18  0.24263479E+000
         19  0.81256710E-001
         20  0.93539336E-001
         21  0.18460155E+000
         22  0.65695552E-001
         23  0.65580698E-001
         24  0.65695552E-001
         25  0.24051069E+000
         26  0.12741663E+000
         27  0.61892192E-001
         28  0.21284671E+000
         29  0.16180118E+000
         30  0.53380884E-001
         31  0.81256710E-001
         32  0.11399816E+000
         33  0.53380884E-001
         34  0.78993932E-001
         35  0.61892192E-001
         36  0.65580698E-001
End values

