$-------------------------------------------------------------------
RUN_DATA
  ALYA:                  cantilever_shell_expl_tw
  CODE:                  1
  LIVE_INFO:             SCREEN
  LOG_FILE:              ON
  OUTPUT:                GID
END_RUN_DATA
$-------------------------------------------------------------------
PROBLEM_DATA
  TIME_COUPLING:         GLOBAL, FROM_CRITICAL
  TIME_INTERVAL:         0.0, 0.05
  NUMBER_OF_STEPS:       500 $ 37685
  MAXIMUM_NUMBER_GLOBAL: 1
  $-----------------------------------------
  SOLIDZ_MODULE          ON
  END_SOLIDZ_MODULE
  PARALL_SERVICE:        ON
    POSTPROCESS:         MASTER
    PARTITION_TYPE:      FACES
    PARTITIONING:
      METHOD:            METIS
    END_PARTITIONING
  END_PARALL_SERVICE
END_PROBLEM_DATA
$-------------------------------------------------------------------
