 0.83732119E-013
 0.25269991E-003
 0.25265123E-003
 0.83736182E-013
 0.22934482E-019
 0.12036732E-005
 0.12035917E-005
 0.22932477E-019
 0.77595561E-013
 0.72653169E-013
 0.68438404E-013
 0.54367360E-013
 0.27699964E-013
 0.11045420E-013
 0.90590513E-014
 0.27712494E-013
 0.50312368E-012
 0.10726754E-010
 0.23660679E-008
 0.31854201E-006
 0.65184613E-005
 0.59382781E-004
 0.59988764E-004
 0.19516945E-005
 0.86731294E-008
 0.94301472E-008
 0.94218535E-008
 0.86628517E-008
 0.19511494E-005
 0.59972772E-004
 0.59380960E-004
 0.65183406E-005
 0.31850891E-006
 0.23653077E-008
 0.10724619E-010
 0.50305277E-012
 0.27708153E-013
 0.90577418E-014
 0.11045276E-013
 0.27699057E-013
 0.54364305E-013
 0.68433959E-013
 0.72650886E-013
 0.77597415E-013
 0.32560841E-012
 0.17661198E-011
 0.59548749E-011
 0.12023892E-010
 0.13839960E-010
 0.75888826E-011
 0.19253942E-011
 0.27530860E-012
 0.38816355E-013
 0.52512731E-014
 0.56065433E-015
 0.48817816E-016
 0.35517846E-017
 0.21926870E-018
 0.20600335E-019
 0.17373420E-019
 0.13458358E-019
 0.10262014E-019
 0.17119809E-018
 0.25919347E-018
 0.19176880E-017
 0.34616486E-014
 0.84290167E-011
 0.22556229E-011
 0.93923185E-016
 0.76579263E-016
 0.88712993E-016
 0.78272603E-016
 0.64323802E-005
 0.62224574E-005
 0.59354018E-005
 0.59311745E-005
 0.59309611E-005
 0.59347661E-005
 0.62212939E-005
 0.64317918E-005
 0.67929607E-016
 0.11901946E-015
 0.55669985E-016
 0.93017183E-016
 0.22597978E-011
 0.84444821E-011
 0.34639336E-014
 0.19183437E-017
 0.25923512E-018
 0.17122041E-018
 0.10261878E-019
 0.13457617E-019
 0.17372042E-019
 0.20598536E-019
 0.21925423E-018
 0.35516321E-017
 0.48816877E-016
 0.56065583E-015
 0.52513724E-014
 0.38817360E-013
 0.27532084E-012
 0.19254559E-011
 0.75889776E-011
 0.13839994E-010
 0.12023795E-010
 0.59547520E-011
 0.17660627E-011
 0.32559417E-012
 0.20893470E-002
 0.11103679E+000
 0.55451796E-001
 0.79469668E-003
 0.81901398E-003
 0.41002524E-001
 0.24906305E+000
 0.88020086E-001
 0.68788135E-002
 0.63619672E-004
 0.35091206E-004
 0.34697805E-004
 0.26637796E-004
 0.70862443E-005
 0.20888061E-002
 0.11103118E+000
 0.55466209E-001
 0.79545579E-003
 0.81910272E-003
 0.41001504E-001
 0.24905960E+000
 0.88021807E-001
 0.68800132E-002
 0.63649424E-004
 0.35091044E-004
 0.34698288E-004
 0.26638783E-004
 0.70866331E-005
 0.10021085E-015
 0.83230782E-016
 0.47442343E-016
 0.15629780E-005
 0.36415247E-003
 0.31239586E-002
 0.37908499E-002
 0.11290210E-003
 0.23053843E-004
 0.11527745E-004
 0.30007110E-004
 0.21365656E-003
 0.45922551E-003
 0.22928855E-003
 0.14948115E-015
 0.59349364E-016
 0.12743368E-007
 0.19807698E-004
 0.23849882E-003
 0.26321859E-003
 0.70744739E-005
 0.33635443E-005
 0.18165861E-005
 0.89324974E-006
 0.65023611E-006
 0.21718033E-005
 0.68122347E-005
 0.83753922E-005
 0.13690213E-015
 0.88259279E-016
 0.30828683E-006
 0.19887171E-004
 0.15560250E-004
 0.42379250E-006
 0.23698214E-006
 0.24621762E-006
 0.15983722E-006
 0.85108374E-007
 0.40513965E-007
 0.19546837E-007
 0.71813529E-007
 0.25915146E-006
 0.98840653E-016
 0.49557479E-008
 0.64010955E-006
 0.51568441E-006
 0.22829340E-007
 0.10208163E-007
 0.13729886E-007
 0.15489117E-007
 0.10709988E-007
 0.61027497E-008
 0.29791648E-008
 0.11185138E-008
 0.59193540E-009
 0.13148235E-008
 0.49213882E-010
 0.13504906E-007
 0.34410324E-007
 0.12402460E-008
 0.35192083E-009
 0.46638516E-009
 0.65173044E-009
 0.71708359E-009
 0.50472044E-009
 0.31953530E-009
 0.17256371E-009
 0.66843281E-010
 0.31282176E-010
 0.18162086E-010
 0.11841854E-009
 0.43821279E-009
 0.68711874E-010
 0.10590089E-010
 0.12793079E-010
 0.17790858E-010
 0.19719592E-010
 0.10482808E-010
 0.91078797E-011
 0.16195656E-010
 0.13612582E-010
 0.60761466E-011
 0.20328125E-011
 0.89884840E-012
 0.29366925E-013
 0.20420918E-012
 0.26294291E-012
 0.30432395E-012
 0.41044659E-012
 0.52799962E-012
 0.33891996E-012
 0.13896832E-011
 0.70379265E-011
 0.13939064E-010
 0.10541750E-010
 0.38944401E-011
 0.72205573E-012
 0.98546807E-013
 0.69468951E-016
 0.25225637E-014
 0.60456664E-014
 0.82586344E-014
 0.11284648E-013
 0.17204475E-013
 0.91423624E-013
 0.13949769E-011
 0.70888187E-011
 0.13980252E-010
 0.10477389E-010
 0.38324947E-011
 0.67405246E-012
 0.66298996E-013
 0.24507403E-017
 0.50403118E-016
 0.13632158E-015
 0.21998674E-015
 0.72316626E-015
 0.84007687E-014
 0.99383846E-013
 0.14258487E-011
 0.72168046E-011
 0.14040239E-010
 0.10427692E-010
 0.38061749E-011
 0.67311617E-012
 0.69979916E-013
 0.53533465E-018
 0.15599022E-017
 0.10915903E-016
 0.14061804E-015
 0.17811886E-014
 0.18563134E-013
 0.15699013E-012
 0.15683394E-011
 0.74947777E-011
 0.14033681E-010
 0.10842163E-010
 0.43127933E-011
 0.94436111E-012
 0.12911022E-012
 0.84867222E-019
 0.14921977E-017
 0.24153427E-016
 0.33330027E-015
 0.37170789E-014
 0.31834157E-013
 0.24445740E-012
 0.18724740E-011
 0.77614259E-011
 0.13995565E-010
 0.11465304E-010
 0.51603242E-011
 0.13807779E-011
 0.22642766E-012
 0.13495297E-018
 0.23879029E-017
 0.36524683E-016
 0.46520695E-015
 0.47416094E-014
 0.37196927E-013
 0.27547165E-012
 0.19671175E-011
 0.77467924E-011
 0.13925286E-010
 0.11743110E-010
 0.55588069E-011
 0.15721301E-011
 0.27383724E-012
 0.17085636E-018
 0.29237889E-017
 0.42732236E-016
 0.51728619E-015
 0.50310824E-014
 0.38088934E-013
 0.27453302E-012
 0.19410297E-011
 0.76635206E-011
 0.13877218E-010
 0.11838458E-010
 0.56748108E-011
 0.16203624E-011
 0.28618228E-012
 0.19812920E-018
 0.32811734E-017
 0.46255524E-016
 0.54209636E-015
 0.51452508E-014
 0.38351455E-013
 0.27299225E-012
 0.19233899E-011
 0.76135972E-011
 0.13854477E-010
 0.11924105E-010
 0.57964221E-011
 0.16803084E-011
 0.30238351E-012
 0.39225438E-004
 0.10186903E-003
 0.11295213E-003
 0.11431724E-003
 0.11334139E-003
 0.14927477E-002
 0.25396793E+000
 0.10403521E+001
 0.30835521E+000
 0.25448353E-001
 0.44814916E-002
 0.16982356E+002
 0.30104829E+002
 0.50031439E-002
 0.36877370E-004
 0.41328411E-004
 0.23568300E-014
 0.54416552E-015
 0.00000000E+000
 0.27034366E-014
 0.14925685E-014
 0.19837957E-001
 0.72036929E-001
 0.14159925E-001
 0.86142340E-002
 0.22136244E+002
 0.44094055E+002
 0.10413071E-001
 0.36198000E-004
 0.43451319E-004
 0.24115001E-014
 0.85807352E-015
 0.58980966E-015
 0.23505941E-014
 0.11806280E-014
 0.37916893E-016
 0.31783884E-014
 0.21196807E-003
 0.94410895E-002
 0.18837140E+002
 0.39337042E+002
 0.10350962E-001
 0.36063851E-004
 0.43362547E-004
 0.14581255E-015
 0.96646055E-015
 0.32053712E-014
 0.31052659E-014
 0.12813633E-014
 0.13612058E-014
 0.20061718E-014
 0.21205422E-003
 0.10093329E-001
 0.18410672E+002
 0.38757689E+002
 0.10804653E-001
 0.36063741E-004
 0.43364297E-004
 0.24176810E-015
 0.19926182E-014
 0.15938287E-014
 0.62701049E-015
 0.11064400E-014
 0.45524865E-015
 0.13121879E-014
 0.21198341E-003
 0.10084177E-001
 0.18403118E+002
 0.38749543E+002
 0.10819397E-001
 0.36197480E-004
 0.43456379E-004
 0.42653494E-015
 0.37750289E-014
 0.10033995E-014
 0.24955236E-015
 0.31400511E-015
 0.21116268E-015
 0.35880112E-015
 0.21183626E-003
 0.94259266E-002
 0.18826204E+002
 0.39326410E+002
 0.10372774E-001
 0.36876327E-004
 0.41338180E-004
 0.64049466E-016
 0.68550145E-015
 0.27629220E-014
 0.92888432E-015
 0.65591166E-015
 0.19831228E-001
 0.72011502E-001
 0.14154726E-001
 0.86063272E-002
 0.22133167E+002
 0.44092545E+002
 0.10420625E-001
 0.39223884E-004
 0.10186937E-003
 0.11295045E-003
 0.11431779E-003
 0.11334036E-003
 0.14922396E-002
 0.25396067E+000
 0.10403505E+001
 0.30830820E+000
 0.25439544E-001
 0.44774084E-002
 0.16981994E+002
 0.30106967E+002
 0.50039259E-002
 0.19814258E-018
 0.32813202E-017
 0.46256522E-016
 0.54209650E-015
 0.51451684E-014
 0.38350531E-013
 0.27298055E-012
 0.19233334E-011
 0.76135236E-011
 0.13854454E-010
 0.11924143E-010
 0.57964723E-011
 0.16803323E-011
 0.30238960E-012
 0.17086646E-018
 0.29238976E-017
 0.42732938E-016
 0.51728530E-015
 0.50310062E-014
 0.38088099E-013
 0.27452232E-012
 0.19409811E-011
 0.76634753E-011
 0.13877210E-010
 0.11838410E-010
 0.56747311E-011
 0.16203251E-011
 0.28617335E-012
 0.13495716E-018
 0.23879307E-017
 0.36524570E-016
 0.46520107E-015
 0.47415261E-014
 0.37196260E-013
 0.27546522E-012
 0.19670938E-011
 0.77467905E-011
 0.13925300E-010
 0.11743010E-010
 0.55586448E-011
 0.15720553E-011
 0.27381981E-012
 0.84867375E-019
 0.14921815E-017
 0.24153009E-016
 0.33329509E-015
 0.37170531E-014
 0.31834255E-013
 0.24446163E-012
 0.18725054E-011
 0.77615204E-011
 0.13995632E-010
 0.11465168E-010
 0.51601493E-011
 0.13807063E-011
 0.22641427E-012
 0.53526877E-018
 0.15597920E-017
 0.10915706E-016
 0.14061715E-015
 0.17812048E-014
 0.18563757E-013
 0.15699873E-012
 0.15683776E-011
 0.74949537E-011
 0.14033791E-010
 0.10842040E-010
 0.43126698E-011
 0.94431548E-012
 0.12910491E-012
 0.24506557E-017
 0.50402134E-016
 0.13631031E-015
 0.21998527E-015
 0.72320550E-015
 0.84015963E-014
 0.99396368E-013
 0.14258942E-011
 0.72169770E-011
 0.14040315E-010
 0.10427562E-010
 0.38060456E-011
 0.67308291E-012
 0.69978741E-013
 0.69484595E-016
 0.25221211E-014
 0.60446591E-014
 0.82578918E-014
 0.11284364E-013
 0.17205476E-013
 0.91435313E-013
 0.13950207E-011
 0.70890037E-011
 0.13980338E-010
 0.10477217E-010
 0.38322763E-011
 0.67397621E-012
 0.66292422E-013
 0.29350759E-013
 0.20410752E-012
 0.26286507E-012
 0.30427735E-012
 0.41041002E-012
 0.52797866E-012
 0.33891579E-012
 0.13897231E-011
 0.70381342E-011
 0.13939157E-010
 0.10541530E-010
 0.38941596E-011
 0.72195876E-012
 0.98535783E-013
 0.11845766E-009
 0.43815163E-009
 0.68625833E-010
 0.10586707E-010
 0.12791171E-010
 0.17789103E-010
 0.19718321E-010
 0.10483432E-010
 0.91087499E-011
 0.16196328E-010
 0.13612638E-010
 0.60758955E-011
 0.20326941E-011
 0.89875520E-012
 0.49227728E-010
 0.13510268E-007
 0.34412529E-007
 0.12390506E-008
 0.35184773E-009
 0.46631898E-009
 0.65167972E-009
 0.71707975E-009
 0.50474766E-009
 0.31956269E-009
 0.17257081E-009
 0.66843550E-010
 0.31280331E-010
 0.18159381E-010
 0.65271937E-016
 0.49578350E-008
 0.64051911E-006
 0.51535758E-006
 0.22813203E-007
 0.10206344E-007
 0.13728373E-007
 0.15488346E-007
 0.10710005E-007
 0.61029149E-008
 0.29792027E-008
 0.11184771E-008
 0.59187531E-009
 0.13144885E-008
 0.11894207E-015
 0.78415586E-016
 0.30881211E-006
 0.19878246E-004
 0.15564049E-004
 0.42360997E-006
 0.23694899E-006
 0.24620036E-006
 0.15983001E-006
 0.85105615E-007
 0.40510855E-007
 0.19544377E-007
 0.71806426E-007
 0.25912980E-006
 0.74560632E-016
 0.63170330E-016
 0.12845062E-007
 0.19817758E-004
 0.23845146E-003
 0.26322315E-003
 0.70728312E-005
 0.33632239E-005
 0.18164742E-005
 0.89320995E-006
 0.65020391E-006
 0.21718923E-005
 0.68126722E-005
 0.83757667E-005
 0.52074733E-016
 0.58078465E-016
 0.40580192E-016
 0.15642416E-005
 0.36435783E-003
 0.31241936E-002
 0.37909316E-002
 0.11289426E-003
 0.23053246E-004
 0.11528008E-004
 0.30012289E-004
 0.21369594E-003
 0.45928120E-003
 0.22928990E-003
