# vtk DataFile Version 3.0
chingon!!
ASCII 
DATASET POLYDATA 
POINTS 29 float 
0 0 0 
0 1 0 
0 1 1 
0 0 1 
0 0.75 0 
0 0.5 0 
0 0.25 0 
0 0.75 1 
0 0.5 1 
0 0.25 1 
0 1 0.25 
0 1 0.5 
0 1 0.75 
0 0 0.25 
0 0 0.5 
0 0 0.75 
0 0.614162 0.354105 
0 0.391309 0.242023 
0 0.749151 0.605141 
0 0.787741 0.195314 
0 0.600504 0.807059 
0 0.817649 0.39363 
0 0.217694 0.487816 
0 0.307159 0.78017 
0 0.456913 0.541316 
0 0.819931 0.83244 
0 0.602847 0.160779 
0 0.13929 0.882543 
0 0.143167 0.24664 
