$MeshFormat
2.2 0 8
$EndMeshFormat
$PhysicalNames
4
2 1 "Left"
2 2 "Right"
2 3 "Wall"
3 4 "Fluid"
$EndPhysicalNames
$Nodes
176
1 0 -0.007853981633974483 -0.007853981633974483
2 0.03141592653589793 -0.007853981633974483 -0.007853981633974483
3 0.03141592653589793 0.007853981633974483 -0.007853981633974483
4 0 0.007853981633974483 -0.007853981633974483
5 0 -0.007853981633974483 0.007853981633974483
6 0.03141592653589793 -0.007853981633974483 0.007853981633974483
7 0.03141592653589793 0.007853981633974483 0.007853981633974483
8 0 0.007853981633974483 0.007853981633974483
9 0.003141592653583988 -0.007853981633974483 -0.007853981633974483
10 0.006283185307165512 -0.007853981633974483 -0.007853981633974483
11 0.009424777960746426 -0.007853981633974483 -0.007853981633974483
12 0.012566370614327 -0.007853981633974483 -0.007853981633974483
13 0.01570796326790772 -0.007853981633974483 -0.007853981633974483
14 0.01884955592150535 -0.007853981633974483 -0.007853981633974483
15 0.02199114857510502 -0.007853981633974483 -0.007853981633974483
16 0.02513274122870063 -0.007853981633974483 -0.007853981633974483
17 0.02827433388230029 -0.007853981633974483 -0.007853981633974483
18 0.03141592653589793 -0.002617993878004605 -0.007853981633974483
19 0.03141592653589793 0.002617993877978047 -0.007853981633974483
20 0.02827433388231519 0.007853981633974483 -0.007853981633974483
21 0.0251327412287338 0.007853981633974483 -0.007853981633974483
22 0.02199114857515376 0.007853981633974483 -0.007853981633974483
23 0.01884955592157184 0.007853981633974483 -0.007853981633974483
24 0.01570796326799235 0.007853981633974483 -0.007853981633974483
25 0.01256637061439429 0.007853981633974483 -0.007853981633974483
26 0.009424777960794183 0.007853981633974483 -0.007853981633974483
27 0.006283185307198166 0.007853981633974483 -0.007853981633974483
28 0.003141592653598063 0.007853981633974483 -0.007853981633974483
29 0 0.002617993878004605 -0.007853981633974483
30 0 -0.002617993877978047 -0.007853981633974483
31 0.003141592653583988 -0.007853981633974483 0.007853981633974483
32 0.006283185307165512 -0.007853981633974483 0.007853981633974483
33 0.009424777960746426 -0.007853981633974483 0.007853981633974483
34 0.012566370614327 -0.007853981633974483 0.007853981633974483
35 0.01570796326790772 -0.007853981633974483 0.007853981633974483
36 0.01884955592150535 -0.007853981633974483 0.007853981633974483
37 0.02199114857510502 -0.007853981633974483 0.007853981633974483
38 0.02513274122870063 -0.007853981633974483 0.007853981633974483
39 0.02827433388230029 -0.007853981633974483 0.007853981633974483
40 0.03141592653589793 -0.002617993878004605 0.007853981633974483
41 0.03141592653589793 0.002617993877978047 0.007853981633974483
42 0.02827433388231519 0.007853981633974483 0.007853981633974483
43 0.0251327412287338 0.007853981633974483 0.007853981633974483
44 0.02199114857515376 0.007853981633974483 0.007853981633974483
45 0.01884955592157184 0.007853981633974483 0.007853981633974483
46 0.01570796326799235 0.007853981633974483 0.007853981633974483
47 0.01256637061439429 0.007853981633974483 0.007853981633974483
48 0.009424777960794183 0.007853981633974483 0.007853981633974483
49 0.006283185307198166 0.007853981633974483 0.007853981633974483
50 0.003141592653598063 0.007853981633974483 0.007853981633974483
51 0 0.002617993878004605 0.007853981633974483
52 0 -0.002617993877978047 0.007853981633974483
53 0 -0.007853981633974483 -0.002617993878004605
54 0 -0.007853981633974483 0.002617993877978047
55 0.03141592653589793 -0.007853981633974483 -0.002617993878004605
56 0.03141592653589793 -0.007853981633974483 0.002617993877978047
57 0.03141592653589793 0.007853981633974483 -0.002617993878004605
58 0.03141592653589793 0.007853981633974483 0.002617993877978047
59 0 0.007853981633974483 -0.002617993878004605
60 0 0.007853981633974483 0.002617993877978047
61 0.003141592653588679 -0.002617993877980703 -0.007853981633974483
62 0.003141592653593372 0.002617993878001949 -0.007853981633974483
63 0.006283185307176396 -0.00261799387798336 -0.007853981633974483
64 0.006283185307187283 0.002617993877999293 -0.007853981633974483
65 0.009424777960762343 -0.002617993877986015 -0.007853981633974483
66 0.009424777960778261 0.002617993877996638 -0.007853981633974483
67 0.01256637061434944 -0.002617993877988671 -0.007853981633974483
68 0.01256637061437186 0.002617993877993981 -0.007853981633974483
69 0.01570796326793593 -0.002617993877991327 -0.007853981633974483
70 0.01570796326796414 0.002617993877991326 -0.007853981633974483
71 0.01884955592152751 -0.002617993877993981 -0.007853981633974483
72 0.01884955592154967 0.00261799387798867 -0.007853981633974483
73 0.02199114857512128 -0.002617993877996638 -0.007853981633974483
74 0.02199114857513752 0.002617993877986014 -0.007853981633974483
75 0.02513274122871168 -0.002617993877999294 -0.007853981633974483
76 0.02513274122872274 0.002617993877983358 -0.007853981633974483
77 0.02827433388230526 -0.002617993878001951 -0.007853981633974483
78 0.02827433388231022 0.002617993877980703 -0.007853981633974483
79 0.003141592653588679 -0.002617993877980703 0.007853981633974483
80 0.003141592653593372 0.002617993878001949 0.007853981633974483
81 0.006283185307176396 -0.00261799387798336 0.007853981633974483
82 0.006283185307187283 0.002617993877999293 0.007853981633974483
83 0.009424777960762343 -0.002617993877986015 0.007853981633974483
84 0.009424777960778261 0.002617993877996638 0.007853981633974483
85 0.01256637061434944 -0.002617993877988671 0.007853981633974483
86 0.01256637061437186 0.002617993877993981 0.007853981633974483
87 0.01570796326793593 -0.002617993877991327 0.007853981633974483
88 0.01570796326796414 0.002617993877991326 0.007853981633974483
89 0.01884955592152751 -0.002617993877993981 0.007853981633974483
90 0.01884955592154967 0.00261799387798867 0.007853981633974483
91 0.02199114857512128 -0.002617993877996638 0.007853981633974483
92 0.02199114857513752 0.002617993877986014 0.007853981633974483
93 0.02513274122871168 -0.002617993877999294 0.007853981633974483
94 0.02513274122872274 0.002617993877983358 0.007853981633974483
95 0.02827433388230526 -0.002617993878001951 0.007853981633974483
96 0.02827433388231022 0.002617993877980703 0.007853981633974483
97 0.003141592653583988 -0.007853981633974483 -0.002617993878004604
98 0.003141592653583989 -0.007853981633974483 0.002617993877978048
99 0.006283185307165512 -0.007853981633974483 -0.002617993878004605
100 0.006283185307165512 -0.007853981633974483 0.002617993877978048
101 0.009424777960746426 -0.007853981633974483 -0.002617993878004605
102 0.009424777960746426 -0.007853981633974483 0.002617993877978048
103 0.01256637061432701 -0.007853981633974483 -0.002617993878004605
104 0.01256637061432701 -0.007853981633974483 0.002617993877978047
105 0.01570796326790772 -0.007853981633974483 -0.002617993878004604
106 0.01570796326790772 -0.007853981633974483 0.002617993877978047
107 0.01884955592150535 -0.007853981633974483 -0.002617993878004604
108 0.01884955592150535 -0.007853981633974483 0.002617993877978047
109 0.02199114857510503 -0.007853981633974483 -0.002617993878004604
110 0.02199114857510503 -0.007853981633974483 0.002617993877978047
111 0.02513274122870063 -0.007853981633974483 -0.002617993878004604
112 0.02513274122870063 -0.007853981633974483 0.002617993877978047
113 0.02827433388230029 -0.007853981633974483 -0.002617993878004605
114 0.02827433388230029 -0.007853981633974483 0.002617993877978048
115 0.03141592653589793 -0.002617993878004606 -0.002617993878004604
116 0.03141592653589793 -0.002617993878004605 0.002617993877978047
117 0.03141592653589793 0.002617993877978047 -0.002617993878004604
118 0.03141592653589793 0.002617993877978046 0.002617993877978047
119 0.02827433388231518 0.007853981633974483 -0.002617993878004602
120 0.02827433388231519 0.007853981633974483 0.002617993877978046
121 0.0251327412287338 0.007853981633974483 -0.002617993878004605
122 0.0251327412287338 0.007853981633974483 0.002617993877978046
123 0.02199114857515376 0.007853981633974483 -0.002617993878004603
124 0.02199114857515377 0.007853981633974483 0.002617993877978046
125 0.01884955592157184 0.007853981633974483 -0.002617993878004605
126 0.01884955592157184 0.007853981633974483 0.002617993877978046
127 0.01570796326799235 0.007853981633974483 -0.002617993878004602
128 0.01570796326799235 0.007853981633974483 0.002617993877978046
129 0.01256637061439429 0.007853981633974483 -0.002617993878004603
130 0.01256637061439429 0.007853981633974483 0.002617993877978046
131 0.009424777960794181 0.007853981633974483 -0.002617993878004603
132 0.009424777960794181 0.007853981633974483 0.002617993877978046
133 0.006283185307198166 0.007853981633974483 -0.002617993878004603
134 0.006283185307198168 0.007853981633974483 0.002617993877978046
135 0.003141592653598062 0.007853981633974483 -0.002617993878004602
136 0.003141592653598063 0.007853981633974483 0.002617993877978046
137 0 0.002617993878004606 -0.002617993878004604
138 0 0.002617993878004605 0.002617993877978047
139 0 -0.002617993877978047 -0.002617993878004604
140 0 -0.002617993877978046 0.002617993877978047
141 0.003141592653588679 -0.002617993877980702 -0.002617993878004603
142 0.00314159265358868 -0.002617993877980704 0.002617993877978048
143 0.003141592653593373 0.002617993878001951 -0.002617993878004602
144 0.003141592653593373 0.002617993878001948 0.002617993877978047
145 0.006283185307176394 -0.002617993877983361 -0.002617993878004607
146 0.006283185307176394 -0.00261799387798336 0.002617993877978048
147 0.006283185307187284 0.002617993877999293 -0.002617993878004603
148 0.006283185307187284 0.002617993877999293 0.002617993877978048
149 0.00942477796076234 -0.002617993877986015 -0.002617993878004605
150 0.009424777960762342 -0.002617993877986015 0.002617993877978048
151 0.009424777960778254 0.002617993877996639 -0.002617993878004604
152 0.009424777960778258 0.002617993877996638 0.002617993877978047
153 0.01256637061434944 -0.002617993877988671 -0.002617993878004604
154 0.01256637061434944 -0.002617993877988672 0.002617993877978047
155 0.01256637061437187 0.002617993877993983 -0.002617993878004603
156 0.01256637061437187 0.002617993877993979 0.002617993877978046
157 0.01570796326793593 -0.002617993877991326 -0.002617993878004603
158 0.01570796326793593 -0.002617993877991328 0.002617993877978047
159 0.01570796326796415 0.002617993877991328 -0.002617993878004602
160 0.01570796326796414 0.002617993877991325 0.002617993877978047
161 0.01884955592152749 -0.002617993877993982 -0.002617993878004606
162 0.0188495559215275 -0.002617993877993979 0.002617993877978046
163 0.01884955592154965 0.002617993877988671 -0.002617993878004605
164 0.01884955592154966 0.002617993877988669 0.002617993877978045
165 0.02199114857512129 -0.002617993877996638 -0.002617993878004604
166 0.02199114857512129 -0.002617993877996639 0.002617993877978047
167 0.02199114857513753 0.002617993877986014 -0.002617993878004603
168 0.02199114857513753 0.002617993877986013 0.002617993877978046
169 0.02513274122871168 -0.002617993877999294 -0.002617993878004605
170 0.02513274122871167 -0.002617993877999293 0.002617993877978047
171 0.02513274122872274 0.002617993877983357 -0.002617993878004605
172 0.02513274122872274 0.002617993877983356 0.002617993877978045
173 0.02827433388230526 -0.002617993878001953 -0.002617993878004606
174 0.02827433388230526 -0.002617993878001954 0.002617993877978048
175 0.02827433388231022 0.002617993877980704 -0.002617993878004605
176 0.02827433388231023 0.002617993877980701 0.002617993877978048
$EndNodes
$Elements
228
1 3 2 3 1 1 9 61 30
2 3 2 3 1 30 61 62 29
3 3 2 3 1 29 62 28 4
4 3 2 3 1 9 10 63 61
5 3 2 3 1 61 63 64 62
6 3 2 3 1 62 64 27 28
7 3 2 3 1 10 11 65 63
8 3 2 3 1 63 65 66 64
9 3 2 3 1 64 66 26 27
10 3 2 3 1 11 12 67 65
11 3 2 3 1 65 67 68 66
12 3 2 3 1 66 68 25 26
13 3 2 3 1 12 13 69 67
14 3 2 3 1 67 69 70 68
15 3 2 3 1 68 70 24 25
16 3 2 3 1 13 14 71 69
17 3 2 3 1 69 71 72 70
18 3 2 3 1 70 72 23 24
19 3 2 3 1 14 15 73 71
20 3 2 3 1 71 73 74 72
21 3 2 3 1 72 74 22 23
22 3 2 3 1 15 16 75 73
23 3 2 3 1 73 75 76 74
24 3 2 3 1 74 76 21 22
25 3 2 3 1 16 17 77 75
26 3 2 3 1 75 77 78 76
27 3 2 3 1 76 78 20 21
28 3 2 3 1 17 2 18 77
29 3 2 3 1 77 18 19 78
30 3 2 3 1 78 19 3 20
31 3 2 3 2 5 52 79 31
32 3 2 3 2 52 51 80 79
33 3 2 3 2 51 8 50 80
34 3 2 3 2 31 79 81 32
35 3 2 3 2 79 80 82 81
36 3 2 3 2 80 50 49 82
37 3 2 3 2 32 81 83 33
38 3 2 3 2 81 82 84 83
39 3 2 3 2 82 49 48 84
40 3 2 3 2 33 83 85 34
41 3 2 3 2 83 84 86 85
42 3 2 3 2 84 48 47 86
43 3 2 3 2 34 85 87 35
44 3 2 3 2 85 86 88 87
45 3 2 3 2 86 47 46 88
46 3 2 3 2 35 87 89 36
47 3 2 3 2 87 88 90 89
48 3 2 3 2 88 46 45 90
49 3 2 3 2 36 89 91 37
50 3 2 3 2 89 90 92 91
51 3 2 3 2 90 45 44 92
52 3 2 3 2 37 91 93 38
53 3 2 3 2 91 92 94 93
54 3 2 3 2 92 44 43 94
55 3 2 3 2 38 93 95 39
56 3 2 3 2 93 94 96 95
57 3 2 3 2 94 43 42 96
58 3 2 3 2 39 95 40 6
59 3 2 3 2 95 96 41 40
60 3 2 3 2 96 42 7 41
61 3 2 3 3 1 53 97 9
62 3 2 3 3 53 54 98 97
63 3 2 3 3 54 5 31 98
64 3 2 3 3 9 97 99 10
65 3 2 3 3 97 98 100 99
66 3 2 3 3 98 31 32 100
67 3 2 3 3 10 99 101 11
68 3 2 3 3 99 100 102 101
69 3 2 3 3 100 32 33 102
70 3 2 3 3 11 101 103 12
71 3 2 3 3 101 102 104 103
72 3 2 3 3 102 33 34 104
73 3 2 3 3 12 103 105 13
74 3 2 3 3 103 104 106 105
75 3 2 3 3 104 34 35 106
76 3 2 3 3 13 105 107 14
77 3 2 3 3 105 106 108 107
78 3 2 3 3 106 35 36 108
79 3 2 3 3 14 107 109 15
80 3 2 3 3 107 108 110 109
81 3 2 3 3 108 36 37 110
82 3 2 3 3 15 109 111 16
83 3 2 3 3 109 110 112 111
84 3 2 3 3 110 37 38 112
85 3 2 3 3 16 111 113 17
86 3 2 3 3 111 112 114 113
87 3 2 3 3 112 38 39 114
88 3 2 3 3 17 113 55 2
89 3 2 3 3 113 114 56 55
90 3 2 3 3 114 39 6 56
91 3 2 2 4 2 55 115 18
92 3 2 2 4 55 56 116 115
93 3 2 2 4 56 6 40 116
94 3 2 2 4 18 115 117 19
95 3 2 2 4 115 116 118 117
96 3 2 2 4 116 40 41 118
97 3 2 2 4 19 117 57 3
98 3 2 2 4 117 118 58 57
99 3 2 2 4 118 41 7 58
100 3 2 3 5 3 57 119 20
101 3 2 3 5 57 58 120 119
102 3 2 3 5 58 7 42 120
103 3 2 3 5 20 119 121 21
104 3 2 3 5 119 120 122 121
105 3 2 3 5 120 42 43 122
106 3 2 3 5 21 121 123 22
107 3 2 3 5 121 122 124 123
108 3 2 3 5 122 43 44 124
109 3 2 3 5 22 123 125 23
110 3 2 3 5 123 124 126 125
111 3 2 3 5 124 44 45 126
112 3 2 3 5 23 125 127 24
113 3 2 3 5 125 126 128 127
114 3 2 3 5 126 45 46 128
115 3 2 3 5 24 127 129 25
116 3 2 3 5 127 128 130 129
117 3 2 3 5 128 46 47 130
118 3 2 3 5 25 129 131 26
119 3 2 3 5 129 130 132 131
120 3 2 3 5 130 47 48 132
121 3 2 3 5 26 131 133 27
122 3 2 3 5 131 132 134 133
123 3 2 3 5 132 48 49 134
124 3 2 3 5 27 133 135 28
125 3 2 3 5 133 134 136 135
126 3 2 3 5 134 49 50 136
127 3 2 3 5 28 135 59 4
128 3 2 3 5 135 136 60 59
129 3 2 3 5 136 50 8 60
130 3 2 1 6 4 59 137 29
131 3 2 1 6 59 60 138 137
132 3 2 1 6 60 8 51 138
133 3 2 1 6 29 137 139 30
134 3 2 1 6 137 138 140 139
135 3 2 1 6 138 51 52 140
136 3 2 1 6 30 139 53 1
137 3 2 1 6 139 140 54 53
138 3 2 1 6 140 52 5 54
139 5 2 4 1 1 9 61 30 53 97 141 139
140 5 2 4 1 53 97 141 139 54 98 142 140
141 5 2 4 1 54 98 142 140 5 31 79 52
142 5 2 4 1 30 61 62 29 139 141 143 137
143 5 2 4 1 139 141 143 137 140 142 144 138
144 5 2 4 1 140 142 144 138 52 79 80 51
145 5 2 4 1 29 62 28 4 137 143 135 59
146 5 2 4 1 137 143 135 59 138 144 136 60
147 5 2 4 1 138 144 136 60 51 80 50 8
148 5 2 4 1 9 10 63 61 97 99 145 141
149 5 2 4 1 97 99 145 141 98 100 146 142
150 5 2 4 1 98 100 146 142 31 32 81 79
151 5 2 4 1 61 63 64 62 141 145 147 143
152 5 2 4 1 141 145 147 143 142 146 148 144
153 5 2 4 1 142 146 148 144 79 81 82 80
154 5 2 4 1 62 64 27 28 143 147 133 135
155 5 2 4 1 143 147 133 135 144 148 134 136
156 5 2 4 1 144 148 134 136 80 82 49 50
157 5 2 4 1 10 11 65 63 99 101 149 145
158 5 2 4 1 99 101 149 145 100 102 150 146
159 5 2 4 1 100 102 150 146 32 33 83 81
160 5 2 4 1 63 65 66 64 145 149 151 147
161 5 2 4 1 145 149 151 147 146 150 152 148
162 5 2 4 1 146 150 152 148 81 83 84 82
163 5 2 4 1 64 66 26 27 147 151 131 133
164 5 2 4 1 147 151 131 133 148 152 132 134
165 5 2 4 1 148 152 132 134 82 84 48 49
166 5 2 4 1 11 12 67 65 101 103 153 149
167 5 2 4 1 101 103 153 149 102 104 154 150
168 5 2 4 1 102 104 154 150 33 34 85 83
169 5 2 4 1 65 67 68 66 149 153 155 151
170 5 2 4 1 149 153 155 151 150 154 156 152
171 5 2 4 1 150 154 156 152 83 85 86 84
172 5 2 4 1 66 68 25 26 151 155 129 131
173 5 2 4 1 151 155 129 131 152 156 130 132
174 5 2 4 1 152 156 130 132 84 86 47 48
175 5 2 4 1 12 13 69 67 103 105 157 153
176 5 2 4 1 103 105 157 153 104 106 158 154
177 5 2 4 1 104 106 158 154 34 35 87 85
178 5 2 4 1 67 69 70 68 153 157 159 155
179 5 2 4 1 153 157 159 155 154 158 160 156
180 5 2 4 1 154 158 160 156 85 87 88 86
181 5 2 4 1 68 70 24 25 155 159 127 129
182 5 2 4 1 155 159 127 129 156 160 128 130
183 5 2 4 1 156 160 128 130 86 88 46 47
184 5 2 4 1 13 14 71 69 105 107 161 157
185 5 2 4 1 105 107 161 157 106 108 162 158
186 5 2 4 1 106 108 162 158 35 36 89 87
187 5 2 4 1 69 71 72 70 157 161 163 159
188 5 2 4 1 157 161 163 159 158 162 164 160
189 5 2 4 1 158 162 164 160 87 89 90 88
190 5 2 4 1 70 72 23 24 159 163 125 127
191 5 2 4 1 159 163 125 127 160 164 126 128
192 5 2 4 1 160 164 126 128 88 90 45 46
193 5 2 4 1 14 15 73 71 107 109 165 161
194 5 2 4 1 107 109 165 161 108 110 166 162
195 5 2 4 1 108 110 166 162 36 37 91 89
196 5 2 4 1 71 73 74 72 161 165 167 163
197 5 2 4 1 161 165 167 163 162 166 168 164
198 5 2 4 1 162 166 168 164 89 91 92 90
199 5 2 4 1 72 74 22 23 163 167 123 125
200 5 2 4 1 163 167 123 125 164 168 124 126
201 5 2 4 1 164 168 124 126 90 92 44 45
202 5 2 4 1 15 16 75 73 109 111 169 165
203 5 2 4 1 109 111 169 165 110 112 170 166
204 5 2 4 1 110 112 170 166 37 38 93 91
205 5 2 4 1 73 75 76 74 165 169 171 167
206 5 2 4 1 165 169 171 167 166 170 172 168
207 5 2 4 1 166 170 172 168 91 93 94 92
208 5 2 4 1 74 76 21 22 167 171 121 123
209 5 2 4 1 167 171 121 123 168 172 122 124
210 5 2 4 1 168 172 122 124 92 94 43 44
211 5 2 4 1 16 17 77 75 111 113 173 169
212 5 2 4 1 111 113 173 169 112 114 174 170
213 5 2 4 1 112 114 174 170 38 39 95 93
214 5 2 4 1 75 77 78 76 169 173 175 171
215 5 2 4 1 169 173 175 171 170 174 176 172
216 5 2 4 1 170 174 176 172 93 95 96 94
217 5 2 4 1 76 78 20 21 171 175 119 121
218 5 2 4 1 171 175 119 121 172 176 120 122
219 5 2 4 1 172 176 120 122 94 96 42 43
220 5 2 4 1 17 2 18 77 113 55 115 173
221 5 2 4 1 113 55 115 173 114 56 116 174
222 5 2 4 1 114 56 116 174 39 6 40 95
223 5 2 4 1 77 18 19 78 173 115 117 175
224 5 2 4 1 173 115 117 175 174 116 118 176
225 5 2 4 1 174 116 118 176 95 40 41 96
226 5 2 4 1 78 19 3 20 175 117 57 119
227 5 2 4 1 175 117 57 119 176 118 58 120
228 5 2 4 1 176 118 58 120 96 41 7 42
$EndElements
