{
    "authors": [
        "guillaume.houzeaux@bsc.es"
    ],
    "comparisons": [
    ],
    "description": "Test MPIO reading but with empty slaves",
    "exclude": [
        "special"
    ],
    "executions": [
        {
            "mpi": 6,
            "openmp": 0
        }
    ],
    "modules": [
        "nastin"
    ],
    "name": "empty-io",
    "postprocess": "alya2pos",
    "timeout": "00:05:00"
}
