$MeshFormat
2.2 0 8
$EndMeshFormat
$PhysicalNames
2
1 1 "WALL"
2 2 "Surf"
$EndPhysicalNames
$Nodes
625
1 0 0 0
2 1 0 0
3 1 1 0
4 0 1 0
5 0.04166666666658461 0 0
6 0.08333333333317298 0 0
7 0.1249999999997731 0 0
8 0.1666666666663209 0 0
9 0.2083333333328659 0 0
10 0.2499999999994109 0 0
11 0.291666666665956 0 0
12 0.333333333332501 0 0
13 0.374999999999046 0 0
14 0.4166666666655911 0 0
15 0.4583333333321362 0 0
16 0.499999999998692 0 0
17 0.5416666666654577 0 0
18 0.5833333333322344 0 0
19 0.6249999999990109 0 0
20 0.6666666666657874 0 0
21 0.708333333332564 0 0
22 0.7499999999993405 0 0
23 0.7916666666661172 0 0
24 0.8333333333328937 0 0
25 0.8749999999996703 0 0
26 0.9166666666664468 0 0
27 0.9583333333332233 0 0
28 1 0.04166666666658461 0
29 1 0.08333333333317298 0
30 1 0.1249999999997731 0
31 1 0.1666666666663209 0
32 1 0.2083333333328659 0
33 1 0.2499999999994109 0
34 1 0.291666666665956 0
35 1 0.333333333332501 0
36 1 0.374999999999046 0
37 1 0.4166666666655911 0
38 1 0.4583333333321362 0
39 1 0.499999999998692 0
40 1 0.5416666666654577 0
41 1 0.5833333333322344 0
42 1 0.6249999999990109 0
43 1 0.6666666666657874 0
44 1 0.708333333332564 0
45 1 0.7499999999993405 0
46 1 0.7916666666661172 0
47 1 0.8333333333328937 0
48 1 0.8749999999996703 0
49 1 0.9166666666664468 0
50 1 0.9583333333332233 0
51 0.9583333333331598 1 0
52 0.9166666666663197 1 0
53 0.8749999999995012 1 0
54 0.833333333333102 1 0
55 0.7916666666667245 1 0
56 0.7500000000003471 1 0
57 0.7083333333339694 1 0
58 0.6666666666675918 1 0
59 0.625000000001214 1 0
60 0.5833333333348364 1 0
61 0.5416666666684589 1 0
62 0.5000000000020595 1 0
63 0.458333333335241 1 0
64 0.416666666668401 1 0
65 0.3750000000015609 1 0
66 0.3333333333347207 1 0
67 0.2916666666678807 1 0
68 0.2500000000010405 1 0
69 0.2083333333342005 1 0
70 0.1666666666673604 1 0
71 0.1250000000005203 1 0
72 0.0833333333336802 1 0
73 0.04166666666684016 1 0
74 0 0.9583333333331598 0
75 0 0.9166666666663197 0
76 0 0.8749999999995012 0
77 0 0.833333333333102 0
78 0 0.7916666666667245 0
79 0 0.7500000000003471 0
80 0 0.7083333333339694 0
81 0 0.6666666666675918 0
82 0 0.625000000001214 0
83 0 0.5833333333348364 0
84 0 0.5416666666684589 0
85 0 0.5000000000020595 0
86 0 0.458333333335241 0
87 0 0.416666666668401 0
88 0 0.3750000000015609 0
89 0 0.3333333333347207 0
90 0 0.2916666666678807 0
91 0 0.2500000000010405 0
92 0 0.2083333333342005 0
93 0 0.1666666666673604 0
94 0 0.1250000000005203 0
95 0 0.0833333333336802 0
96 0 0.04166666666684016 0
97 0.9583333333331625 0.9583333333332207 0
98 0.9583333333331652 0.9166666666664414 0
99 0.9583333333331678 0.8749999999996633 0
100 0.9583333333331703 0.8333333333329025 0
101 0.9583333333331732 0.7916666666661425 0
102 0.9583333333331758 0.7499999999993825 0
103 0.9583333333331785 0.7083333333326225 0
104 0.9583333333331809 0.6666666666658625 0
105 0.9583333333331834 0.6249999999991026 0
106 0.9583333333331865 0.5833333333323426 0
107 0.9583333333331892 0.5416666666655827 0
108 0.9583333333331914 0.4999999999988323 0
109 0.9583333333331943 0.4583333333322656 0
110 0.9583333333331969 0.4166666666657082 0
111 0.9583333333331996 0.3749999999991508 0
112 0.958333333333202 0.3333333333325935 0
113 0.9583333333332047 0.2916666666660361 0
114 0.9583333333332076 0.2499999999994789 0
115 0.95833333333321 0.2083333333329215 0
116 0.9583333333332129 0.1666666666663642 0
117 0.9583333333332154 0.1249999999998043 0
118 0.958333333333218 0.08333333333319412 0
119 0.9583333333332207 0.04166666666659526 0
120 0.916666666666325 0.958333333333218 0
121 0.9166666666663303 0.9166666666664363 0
122 0.9166666666663355 0.8749999999996564 0
123 0.9166666666663408 0.833333333332911 0
124 0.9166666666663461 0.7916666666661678 0
125 0.9166666666663512 0.7499999999994245 0
126 0.9166666666663568 0.7083333333326811 0
127 0.9166666666663621 0.666666666665938 0
128 0.9166666666663674 0.6249999999991945 0
129 0.9166666666663725 0.5833333333324512 0
130 0.9166666666663781 0.5416666666657077 0
131 0.9166666666663832 0.4999999999989726 0
132 0.9166666666663885 0.4583333333323949 0
133 0.9166666666663938 0.4166666666658253 0
134 0.9166666666663992 0.3749999999992556 0
135 0.9166666666664045 0.333333333332686 0
136 0.9166666666664098 0.2916666666661163 0
137 0.9166666666664152 0.2499999999995467 0
138 0.9166666666664205 0.2083333333329771 0
139 0.9166666666664256 0.1666666666664075 0
140 0.9166666666664309 0.1249999999998354 0
141 0.9166666666664363 0.08333333333321524 0
142 0.9166666666664414 0.0416666666666059 0
143 0.8749999999995083 0.9583333333332154 0
144 0.8749999999995152 0.9166666666664309 0
145 0.8749999999995223 0.8749999999996493 0
146 0.8749999999995292 0.8333333333329197 0
147 0.8749999999995365 0.7916666666661931 0
148 0.8749999999995435 0.7499999999994664 0
149 0.8749999999995507 0.7083333333327397 0
150 0.8749999999995575 0.666666666666013 0
151 0.8749999999995647 0.6249999999992865 0
152 0.8749999999995717 0.5833333333325599 0
153 0.8749999999995787 0.541666666665833 0
154 0.8749999999995858 0.4999999999991129 0
155 0.8749999999995929 0.4583333333325242 0
156 0.8749999999995999 0.4166666666659423 0
157 0.874999999999607 0.3749999999993604 0
158 0.8749999999996138 0.3333333333327785 0
159 0.8749999999996211 0.2916666666661966 0
160 0.874999999999628 0.2499999999996146 0
161 0.8749999999996351 0.2083333333330327 0
162 0.8749999999996421 0.1666666666664508 0
163 0.8749999999996493 0.1249999999998666 0
164 0.8749999999996562 0.08333333333323639 0
165 0.8749999999996633 0.04166666666661656 0
166 0.8333333333330935 0.9583333333332127 0
167 0.8333333333330845 0.9166666666664256 0
168 0.8333333333330758 0.8749999999996422 0
169 0.8333333333330672 0.8333333333329287 0
170 0.8333333333330586 0.7916666666662184 0
171 0.8333333333330498 0.7499999999995082 0
172 0.8333333333330413 0.7083333333327984 0
173 0.8333333333330324 0.6666666666660881 0
174 0.8333333333330238 0.6249999999993779 0
175 0.8333333333330152 0.5833333333326681 0
176 0.8333333333330067 0.541666666665958 0
177 0.8333333333329979 0.4999999999992533 0
178 0.833333333332989 0.4583333333326536 0
179 0.8333333333329805 0.4166666666660593 0
180 0.8333333333329718 0.3749999999994652 0
181 0.8333333333329632 0.333333333332871 0
182 0.8333333333329546 0.2916666666662767 0
183 0.8333333333329457 0.2499999999996825 0
184 0.833333333332937 0.2083333333330883 0
185 0.8333333333329285 0.1666666666664942 0
186 0.8333333333329197 0.1249999999998976 0
187 0.833333333332911 0.08333333333325751 0
188 0.8333333333329025 0.0416666666666272 0
189 0.7916666666666992 0.95833333333321 0
190 0.7916666666666738 0.9166666666664205 0
191 0.7916666666666485 0.8749999999996351 0
192 0.7916666666666232 0.8333333333329371 0
193 0.7916666666665979 0.7916666666662437 0
194 0.7916666666665728 0.7499999999995504 0
195 0.7916666666665475 0.7083333333328568 0
196 0.7916666666665222 0.6666666666661634 0
197 0.7916666666664967 0.6249999999994699 0
198 0.7916666666664716 0.5833333333327765 0
199 0.791666666666446 0.541666666666083 0
200 0.7916666666664207 0.4999999999993936 0
201 0.7916666666663954 0.4583333333327829 0
202 0.7916666666663703 0.4166666666661766 0
203 0.791666666666345 0.37499999999957 0
204 0.7916666666663195 0.3333333333329634 0
205 0.7916666666662944 0.291666666666357 0
206 0.7916666666662691 0.2499999999997504 0
207 0.7916666666662437 0.208333333333144 0
208 0.7916666666662184 0.1666666666665375 0
209 0.7916666666661931 0.1249999999999288 0
210 0.7916666666661678 0.08333333333327866 0
211 0.7916666666661425 0.04166666666663785 0
212 0.7500000000003051 0.9583333333332074 0
213 0.7500000000002631 0.9166666666664149 0
214 0.7500000000002214 0.8749999999996281 0
215 0.7500000000001792 0.8333333333329459 0
216 0.7500000000001374 0.7916666666662691 0
217 0.7500000000000955 0.7499999999995921 0
218 0.7500000000000533 0.7083333333329154 0
219 0.7500000000000115 0.6666666666662386 0
220 0.7499999999999696 0.6249999999995618 0
221 0.7499999999999278 0.5833333333328848 0
222 0.7499999999998856 0.541666666666208 0
223 0.7499999999998439 0.4999999999995339 0
224 0.7499999999998019 0.4583333333329124 0
225 0.74999999999976 0.4166666666662936 0
226 0.749999999999718 0.3749999999996748 0
227 0.749999999999676 0.3333333333330559 0
228 0.7499999999996343 0.2916666666664371 0
229 0.7499999999995921 0.2499999999998184 0
230 0.7499999999995504 0.2083333333331995 0
231 0.7499999999995084 0.1666666666665808 0
232 0.7499999999994664 0.1249999999999599 0
233 0.7499999999994245 0.08333333333329979 0
234 0.7499999999993825 0.04166666666664851 0
235 0.7083333333339108 0.9583333333332047 0
236 0.7083333333338524 0.9166666666664098 0
237 0.7083333333337938 0.8749999999996209 0
238 0.7083333333337352 0.8333333333329545 0
239 0.7083333333336765 0.7916666666662941 0
240 0.7083333333336181 0.7499999999996341 0
241 0.7083333333335595 0.7083333333329738 0
242 0.7083333333335009 0.6666666666663137 0
243 0.7083333333334423 0.6249999999996535 0
244 0.7083333333333839 0.5833333333329932 0
245 0.7083333333333253 0.541666666666333 0
246 0.7083333333332669 0.4999999999996743 0
247 0.7083333333332082 0.4583333333330417 0
248 0.7083333333331494 0.4166666666664106 0
249 0.708333333333091 0.3749999999997795 0
250 0.7083333333330324 0.3333333333331484 0
251 0.708333333332974 0.2916666666665173 0
252 0.7083333333329154 0.2499999999998862 0
253 0.7083333333328568 0.2083333333332552 0
254 0.7083333333327984 0.1666666666666241 0
255 0.7083333333327397 0.124999999999991 0
256 0.7083333333326811 0.08333333333332094 0
257 0.7083333333326225 0.04166666666665915 0
258 0.6666666666675165 0.958333333333202 0
259 0.6666666666674415 0.9166666666664045 0
260 0.6666666666673662 0.8749999999996139 0
261 0.6666666666672911 0.8333333333329631 0
262 0.6666666666672161 0.7916666666663197 0
263 0.6666666666671408 0.749999999999676 0
264 0.6666666666670655 0.7083333333330324 0
265 0.6666666666669903 0.666666666666389 0
266 0.6666666666669152 0.6249999999997452 0
267 0.6666666666668399 0.5833333333331016 0
268 0.6666666666667647 0.5416666666664582 0
269 0.6666666666666896 0.4999999999998146 0
270 0.6666666666666143 0.4583333333331711 0
271 0.6666666666665393 0.4166666666665277 0
272 0.6666666666664642 0.3749999999998843 0
273 0.666666666666389 0.333333333333241 0
274 0.6666666666663137 0.2916666666665975 0
275 0.6666666666662384 0.2499999999999541 0
276 0.6666666666661634 0.2083333333333108 0
277 0.6666666666660881 0.1666666666666674 0
278 0.666666666666013 0.1250000000000221 0
279 0.6666666666659378 0.08333333333334206 0
280 0.6666666666658625 0.04166666666666979 0
281 0.6250000000011221 0.9583333333331996 0
282 0.6250000000010306 0.9166666666663992 0
283 0.6250000000009387 0.8749999999996069 0
284 0.6250000000008468 0.8333333333329717 0
285 0.6250000000007551 0.791666666666345 0
286 0.6250000000006631 0.749999999999718 0
287 0.6250000000005714 0.708333333333091 0
288 0.6250000000004797 0.666666666666464 0
289 0.6250000000003878 0.6249999999998371 0
290 0.6250000000002961 0.5833333333332099 0
291 0.6250000000002042 0.541666666666583 0
292 0.6250000000001125 0.4999999999999549 0
293 0.6250000000000205 0.4583333333333005 0
294 0.6249999999999288 0.4166666666666448 0
295 0.6249999999998371 0.3749999999999891 0
296 0.6249999999997452 0.3333333333333334 0
297 0.6249999999996535 0.2916666666666777 0
298 0.6249999999995618 0.250000000000022 0
299 0.6249999999994699 0.2083333333333663 0
300 0.6249999999993779 0.1666666666667107 0
301 0.6249999999992865 0.1250000000000533 0
302 0.6249999999991945 0.08333333333336318 0
303 0.6249999999991026 0.04166666666668044 0
304 0.5833333333347278 0.9583333333331969 0
305 0.5833333333346197 0.9166666666663938 0
306 0.5833333333345112 0.8749999999996001 0
307 0.5833333333344027 0.8333333333329805 0
308 0.5833333333342944 0.7916666666663701 0
309 0.5833333333341858 0.74999999999976 0
310 0.5833333333340774 0.7083333333331496 0
311 0.5833333333339691 0.6666666666665393 0
312 0.5833333333338607 0.6249999999999288 0
313 0.5833333333337521 0.5833333333333187 0
314 0.5833333333336438 0.5416666666667083 0
315 0.5833333333335354 0.5000000000000953 0
316 0.5833333333334269 0.4583333333334298 0
317 0.5833333333333185 0.4166666666667619 0
318 0.5833333333332101 0.3750000000000938 0
319 0.5833333333331018 0.333333333333426 0
320 0.5833333333329932 0.291666666666758 0
321 0.5833333333328848 0.2500000000000899 0
322 0.5833333333327765 0.208333333333422 0
323 0.5833333333326681 0.166666666666754 0
324 0.5833333333325598 0.1250000000000844 0
325 0.5833333333324512 0.08333333333338433 0
326 0.5833333333323426 0.04166666666669108 0
327 0.5416666666683339 0.9583333333331943 0
328 0.5416666666682088 0.9166666666663885 0
329 0.5416666666680838 0.8749999999995929 0
330 0.5416666666679586 0.8333333333329892 0
331 0.5416666666678336 0.7916666666663954 0
332 0.5416666666677086 0.7499999999998017 0
333 0.5416666666675836 0.7083333333332082 0
334 0.5416666666674586 0.6666666666666143 0
335 0.5416666666673335 0.6250000000000205 0
336 0.5416666666672083 0.5833333333334271 0
337 0.5416666666670833 0.5416666666668333 0
338 0.5416666666669583 0.5000000000002354 0
339 0.5416666666668333 0.4583333333335592 0
340 0.5416666666667083 0.416666666666879 0
341 0.541666666666583 0.3750000000001986 0
342 0.5416666666664582 0.3333333333335183 0
343 0.541666666666333 0.2916666666668382 0
344 0.541666666666208 0.2500000000001579 0
345 0.541666666666083 0.2083333333334776 0
346 0.541666666665958 0.1666666666667973 0
347 0.541666666665833 0.1250000000001156 0
348 0.5416666666657077 0.08333333333340545 0
349 0.5416666666655827 0.04166666666670174 0
350 0.5000000000019191 0.9583333333331916 0
351 0.5000000000017788 0.9166666666663832 0
352 0.5000000000016385 0.8749999999995858 0
353 0.5000000000014981 0.8333333333329979 0
354 0.5000000000013578 0.7916666666664207 0
355 0.5000000000012177 0.7499999999998439 0
356 0.5000000000010774 0.7083333333332666 0
357 0.500000000000937 0.6666666666666896 0
358 0.5000000000007967 0.6250000000001125 0
359 0.5000000000006564 0.5833333333335354 0
360 0.500000000000516 0.5416666666669583 0
361 0.5000000000003757 0.5000000000003757 0
362 0.5000000000002354 0.4583333333336885 0
363 0.5000000000000953 0.416666666666996 0
364 0.4999999999999549 0.3750000000003034 0
365 0.4999999999998146 0.3333333333336109 0
366 0.4999999999996743 0.2916666666669183 0
367 0.4999999999995339 0.2500000000002257 0
368 0.4999999999993936 0.2083333333335332 0
369 0.4999999999992533 0.1666666666668407 0
370 0.4999999999991129 0.1250000000001467 0
371 0.4999999999989726 0.0833333333334266 0
372 0.4999999999988323 0.04166666666671238 0
373 0.4583333333351115 0.9583333333331889 0
374 0.4583333333349823 0.9166666666663779 0
375 0.4583333333348529 0.8749999999995787 0
376 0.4583333333347235 0.8333333333330065 0
377 0.4583333333345941 0.791666666666446 0
378 0.4583333333344647 0.7499999999998856 0
379 0.4583333333343353 0.7083333333333253 0
380 0.458333333334206 0.6666666666667649 0
381 0.4583333333340766 0.6250000000002044 0
382 0.4583333333339472 0.5833333333336438 0
383 0.4583333333338179 0.5416666666670833 0
384 0.4583333333336886 0.500000000000516 0
385 0.4583333333335592 0.4583333333338179 0
386 0.4583333333334297 0.4166666666671132 0
387 0.4583333333333005 0.3750000000004082 0
388 0.4583333333331711 0.3333333333337033 0
389 0.4583333333330417 0.2916666666669985 0
390 0.4583333333329124 0.2500000000002935 0
391 0.4583333333327829 0.2083333333335888 0
392 0.4583333333326537 0.166666666666884 0
393 0.4583333333325242 0.1250000000001778 0
394 0.4583333333323949 0.08333333333344772 0
395 0.4583333333322656 0.04166666666672303 0
396 0.4166666666682839 0.9583333333331865 0
397 0.4166666666681669 0.9166666666663725 0
398 0.4166666666680497 0.8749999999995717 0
399 0.4166666666679327 0.8333333333330152 0
400 0.4166666666678155 0.7916666666664713 0
401 0.4166666666676986 0.7499999999999276 0
402 0.4166666666675815 0.7083333333333839 0
403 0.4166666666674643 0.6666666666668399 0
404 0.4166666666673473 0.6250000000002961 0
405 0.4166666666672302 0.5833333333337521 0
406 0.4166666666671132 0.5416666666672083 0
407 0.4166666666669961 0.5000000000006564 0
408 0.4166666666668789 0.4583333333339473 0
409 0.4166666666667619 0.4166666666672302 0
410 0.4166666666666449 0.375000000000513 0
411 0.4166666666665279 0.3333333333337959 0
412 0.4166666666664106 0.2916666666670787 0
413 0.4166666666662936 0.2500000000003615 0
414 0.4166666666661766 0.2083333333336444 0
415 0.4166666666660594 0.1666666666669273 0
416 0.4166666666659423 0.1250000000002089 0
417 0.4166666666658253 0.08333333333346887 0
418 0.4166666666657082 0.04166666666673369 0
419 0.3750000000014561 0.9583333333331836 0
420 0.3750000000013513 0.9166666666663674 0
421 0.3750000000012466 0.8749999999995646 0
422 0.3750000000011418 0.833333333333024 0
423 0.3750000000010369 0.7916666666664967 0
424 0.3750000000009323 0.7499999999999696 0
425 0.3750000000008273 0.7083333333334423 0
426 0.3750000000007225 0.6666666666669152 0
427 0.3750000000006177 0.6250000000003878 0
428 0.375000000000513 0.5833333333338605 0
429 0.3750000000004082 0.5416666666673335 0
430 0.3750000000003034 0.5000000000007967 0
431 0.3750000000001986 0.4583333333340767 0
432 0.3750000000000938 0.4166666666673473 0
433 0.374999999999989 0.3750000000006178 0
434 0.3749999999998844 0.3333333333338883 0
435 0.3749999999997795 0.2916666666671589 0
436 0.3749999999996747 0.2500000000004294 0
437 0.37499999999957 0.2083333333337 0
438 0.3749999999994652 0.1666666666669706 0
439 0.3749999999993604 0.1250000000002401 0
440 0.3749999999992556 0.08333333333349 0
441 0.3749999999991508 0.04166666666674433 0
442 0.3333333333346282 0.9583333333331809 0
443 0.3333333333345357 0.9166666666663621 0
444 0.3333333333344433 0.8749999999995574 0
445 0.3333333333343508 0.8333333333330325 0
446 0.3333333333342583 0.791666666666522 0
447 0.3333333333341658 0.7500000000000115 0
448 0.3333333333340733 0.7083333333335009 0
449 0.3333333333339807 0.6666666666669905 0
450 0.3333333333338884 0.6250000000004797 0
451 0.3333333333337959 0.5833333333339691 0
452 0.3333333333337033 0.5416666666674583 0
453 0.3333333333336109 0.500000000000937 0
454 0.3333333333335184 0.458333333334206 0
455 0.333333333333426 0.4166666666674644 0
456 0.3333333333333334 0.3750000000007226 0
457 0.333333333333241 0.3333333333339809 0
458 0.3333333333331484 0.2916666666672392 0
459 0.333333333333056 0.2500000000004974 0
460 0.3333333333329634 0.2083333333337556 0
461 0.3333333333328711 0.1666666666670139 0
462 0.3333333333327785 0.1250000000002712 0
463 0.333333333332686 0.08333333333351112 0
464 0.3333333333325935 0.04166666666675498 0
465 0.2916666666678005 0.9583333333331783 0
466 0.2916666666677203 0.9166666666663568 0
467 0.2916666666676401 0.8749999999995505 0
468 0.2916666666675598 0.8333333333330414 0
469 0.2916666666674796 0.7916666666665473 0
470 0.2916666666673995 0.7500000000000535 0
471 0.2916666666673193 0.7083333333335595 0
472 0.2916666666672391 0.6666666666670655 0
473 0.2916666666671589 0.6250000000005714 0
474 0.2916666666670787 0.5833333333340777 0
475 0.2916666666669985 0.5416666666675836 0
476 0.2916666666669183 0.5000000000010771 0
477 0.2916666666668382 0.4583333333343355 0
478 0.291666666666758 0.4166666666675815 0
479 0.2916666666666777 0.3750000000008274 0
480 0.2916666666665976 0.3333333333340733 0
481 0.2916666666665173 0.2916666666673193 0
482 0.2916666666664371 0.2500000000005652 0
483 0.291666666666357 0.2083333333338112 0
484 0.2916666666662767 0.1666666666670572 0
485 0.2916666666661966 0.1250000000003023 0
486 0.2916666666661163 0.08333333333353227 0
487 0.2916666666660361 0.04166666666676562 0
488 0.2500000000009726 0.9583333333331758 0
489 0.2500000000009047 0.9166666666663514 0
490 0.2500000000008368 0.8749999999995436 0
491 0.2500000000007689 0.8333333333330498 0
492 0.250000000000701 0.7916666666665726 0
493 0.250000000000633 0.7500000000000953 0
494 0.2500000000005652 0.7083333333336181 0
495 0.2500000000004973 0.6666666666671406 0
496 0.2500000000004294 0.6250000000006631 0
497 0.2500000000003615 0.583333333334186 0
498 0.2500000000002937 0.5416666666677086 0
499 0.2500000000002257 0.5000000000012175 0
500 0.2500000000001579 0.4583333333344647 0
501 0.2500000000000899 0.4166666666676985 0
502 0.250000000000022 0.3750000000009321 0
503 0.2499999999999541 0.3333333333341658 0
504 0.2499999999998862 0.2916666666673995 0
505 0.2499999999998184 0.250000000000633 0
506 0.2499999999997504 0.2083333333338668 0
507 0.2499999999996825 0.1666666666671005 0
508 0.2499999999996146 0.1250000000003335 0
509 0.2499999999995468 0.08333333333355342 0
510 0.2499999999994789 0.04166666666677626 0
511 0.2083333333341448 0.9583333333331732 0
512 0.2083333333340893 0.9166666666663463 0
513 0.2083333333340336 0.8749999999995365 0
514 0.208333333333978 0.8333333333330587 0
515 0.2083333333339225 0.7916666666665979 0
516 0.2083333333338668 0.7500000000001374 0
517 0.2083333333338112 0.7083333333336768 0
518 0.2083333333337556 0.6666666666672159 0
519 0.2083333333337 0.6250000000007551 0
520 0.2083333333336444 0.5833333333342944 0
521 0.2083333333335888 0.5416666666678336 0
522 0.2083333333335332 0.5000000000013578 0
523 0.2083333333334776 0.4583333333345941 0
524 0.208333333333422 0.4166666666678156 0
525 0.2083333333333663 0.3750000000010369 0
526 0.2083333333333107 0.3333333333342583 0
527 0.2083333333332552 0.2916666666674796 0
528 0.2083333333331996 0.250000000000701 0
529 0.2083333333331439 0.2083333333339225 0
530 0.2083333333330883 0.1666666666671438 0
531 0.2083333333330327 0.1250000000003646 0
532 0.2083333333329771 0.08333333333357451 0
533 0.2083333333329215 0.04166666666678692 0
534 0.1666666666673171 0.9583333333331705 0
535 0.1666666666672738 0.916666666666341 0
536 0.1666666666672305 0.8749999999995293 0
537 0.1666666666671872 0.8333333333330672 0
538 0.1666666666671439 0.7916666666666232 0
539 0.1666666666671005 0.7500000000001792 0
540 0.1666666666670572 0.7083333333337352 0
541 0.1666666666670139 0.6666666666672911 0
542 0.1666666666669706 0.625000000000847 0
543 0.1666666666669273 0.5833333333344027 0
544 0.166666666666884 0.5416666666679588 0
545 0.1666666666668406 0.5000000000014981 0
546 0.1666666666667973 0.4583333333347235 0
547 0.166666666666754 0.4166666666679327 0
548 0.1666666666667107 0.3750000000011416 0
549 0.1666666666666674 0.3333333333343508 0
550 0.1666666666666241 0.2916666666675598 0
551 0.1666666666665808 0.2500000000007689 0
552 0.1666666666665374 0.208333333333978 0
553 0.1666666666664941 0.1666666666671872 0
554 0.1666666666664508 0.1250000000003957 0
555 0.1666666666664075 0.08333333333359566 0
556 0.1666666666663642 0.04166666666679757 0
557 0.1250000000004891 0.9583333333331678 0
558 0.125000000000458 0.9166666666663357 0
559 0.1250000000004268 0.8749999999995223 0
560 0.1250000000003957 0.833333333333076 0
561 0.1250000000003646 0.7916666666666485 0
562 0.1250000000003335 0.7500000000002214 0
563 0.1250000000003023 0.7083333333337936 0
564 0.1250000000002712 0.6666666666673662 0
565 0.1250000000002401 0.6250000000009385 0
566 0.1250000000002089 0.5833333333345111 0
567 0.1250000000001778 0.5416666666680836 0
568 0.1250000000001467 0.5000000000016385 0
569 0.1250000000001156 0.4583333333348528 0
570 0.1250000000000844 0.4166666666680497 0
571 0.1250000000000533 0.3750000000012464 0
572 0.1250000000000222 0.3333333333344433 0
573 0.124999999999991 0.2916666666676401 0
574 0.1249999999999599 0.2500000000008368 0
575 0.1249999999999288 0.2083333333340336 0
576 0.1249999999998976 0.1666666666672305 0
577 0.1249999999998666 0.1250000000004269 0
578 0.1249999999998354 0.08333333333361681 0
579 0.1249999999998043 0.04166666666680821 0
580 0.08333333333365908 0.9583333333331652 0
581 0.08333333333363793 0.9166666666663303 0
582 0.08333333333361681 0.8749999999995152 0
583 0.08333333333359566 0.8333333333330847 0
584 0.08333333333357454 0.7916666666666738 0
585 0.08333333333355339 0.7500000000002631 0
586 0.08333333333353227 0.7083333333338524 0
587 0.08333333333351112 0.6666666666674415 0
588 0.08333333333349 0.6250000000010304 0
589 0.08333333333346887 0.5833333333346195 0
590 0.08333333333344772 0.5416666666682088 0
591 0.08333333333342657 0.5000000000017788 0
592 0.08333333333340545 0.4583333333349823 0
593 0.08333333333338433 0.4166666666681669 0
594 0.08333333333336318 0.3750000000013513 0
595 0.08333333333334206 0.3333333333345357 0
596 0.08333333333332094 0.2916666666677202 0
597 0.08333333333329979 0.2500000000009047 0
598 0.08333333333327864 0.2083333333340893 0
599 0.08333333333325751 0.1666666666672738 0
600 0.08333333333323639 0.125000000000458 0
601 0.08333333333321524 0.08333333333363793 0
602 0.08333333333319412 0.04166666666681887 0
603 0.04166666666682951 0.9583333333331625 0
604 0.04166666666681887 0.916666666666325 0
605 0.04166666666680821 0.8749999999995081 0
606 0.04166666666679757 0.8333333333330935 0
607 0.04166666666678692 0.7916666666666992 0
608 0.04166666666677626 0.7500000000003051 0
609 0.04166666666676562 0.7083333333339108 0
610 0.04166666666675498 0.6666666666675167 0
611 0.04166666666674433 0.6250000000011223 0
612 0.04166666666673369 0.583333333334728 0
613 0.04166666666672303 0.5416666666683339 0
614 0.04166666666671238 0.5000000000019191 0
615 0.04166666666670174 0.4583333333351115 0
616 0.04166666666669108 0.416666666668284 0
617 0.04166666666668044 0.3750000000014561 0
618 0.04166666666666979 0.3333333333346282 0
619 0.04166666666665914 0.2916666666678005 0
620 0.04166666666664851 0.2500000000009726 0
621 0.04166666666663785 0.2083333333341448 0
622 0.0416666666666272 0.1666666666673171 0
623 0.04166666666661656 0.1250000000004891 0
624 0.0416666666666059 0.08333333333365905 0
625 0.04166666666659526 0.04166666666682951 0
$EndNodes
$Elements
672
1 1 2 1 1 1 5
2 1 2 1 1 5 6
3 1 2 1 1 6 7
4 1 2 1 1 7 8
5 1 2 1 1 8 9
6 1 2 1 1 9 10
7 1 2 1 1 10 11
8 1 2 1 1 11 12
9 1 2 1 1 12 13
10 1 2 1 1 13 14
11 1 2 1 1 14 15
12 1 2 1 1 15 16
13 1 2 1 1 16 17
14 1 2 1 1 17 18
15 1 2 1 1 18 19
16 1 2 1 1 19 20
17 1 2 1 1 20 21
18 1 2 1 1 21 22
19 1 2 1 1 22 23
20 1 2 1 1 23 24
21 1 2 1 1 24 25
22 1 2 1 1 25 26
23 1 2 1 1 26 27
24 1 2 1 1 27 2
25 1 2 1 2 2 28
26 1 2 1 2 28 29
27 1 2 1 2 29 30
28 1 2 1 2 30 31
29 1 2 1 2 31 32
30 1 2 1 2 32 33
31 1 2 1 2 33 34
32 1 2 1 2 34 35
33 1 2 1 2 35 36
34 1 2 1 2 36 37
35 1 2 1 2 37 38
36 1 2 1 2 38 39
37 1 2 1 2 39 40
38 1 2 1 2 40 41
39 1 2 1 2 41 42
40 1 2 1 2 42 43
41 1 2 1 2 43 44
42 1 2 1 2 44 45
43 1 2 1 2 45 46
44 1 2 1 2 46 47
45 1 2 1 2 47 48
46 1 2 1 2 48 49
47 1 2 1 2 49 50
48 1 2 1 2 50 3
49 1 2 1 3 3 51
50 1 2 1 3 51 52
51 1 2 1 3 52 53
52 1 2 1 3 53 54
53 1 2 1 3 54 55
54 1 2 1 3 55 56
55 1 2 1 3 56 57
56 1 2 1 3 57 58
57 1 2 1 3 58 59
58 1 2 1 3 59 60
59 1 2 1 3 60 61
60 1 2 1 3 61 62
61 1 2 1 3 62 63
62 1 2 1 3 63 64
63 1 2 1 3 64 65
64 1 2 1 3 65 66
65 1 2 1 3 66 67
66 1 2 1 3 67 68
67 1 2 1 3 68 69
68 1 2 1 3 69 70
69 1 2 1 3 70 71
70 1 2 1 3 71 72
71 1 2 1 3 72 73
72 1 2 1 3 73 4
73 1 2 1 4 4 74
74 1 2 1 4 74 75
75 1 2 1 4 75 76
76 1 2 1 4 76 77
77 1 2 1 4 77 78
78 1 2 1 4 78 79
79 1 2 1 4 79 80
80 1 2 1 4 80 81
81 1 2 1 4 81 82
82 1 2 1 4 82 83
83 1 2 1 4 83 84
84 1 2 1 4 84 85
85 1 2 1 4 85 86
86 1 2 1 4 86 87
87 1 2 1 4 87 88
88 1 2 1 4 88 89
89 1 2 1 4 89 90
90 1 2 1 4 90 91
91 1 2 1 4 91 92
92 1 2 1 4 92 93
93 1 2 1 4 93 94
94 1 2 1 4 94 95
95 1 2 1 4 95 96
96 1 2 1 4 96 1
97 3 2 2 9 3 51 97 50
98 3 2 2 9 50 97 98 49
99 3 2 2 9 49 98 99 48
100 3 2 2 9 48 99 100 47
101 3 2 2 9 47 100 101 46
102 3 2 2 9 46 101 102 45
103 3 2 2 9 45 102 103 44
104 3 2 2 9 44 103 104 43
105 3 2 2 9 43 104 105 42
106 3 2 2 9 42 105 106 41
107 3 2 2 9 41 106 107 40
108 3 2 2 9 40 107 108 39
109 3 2 2 9 39 108 109 38
110 3 2 2 9 38 109 110 37
111 3 2 2 9 37 110 111 36
112 3 2 2 9 36 111 112 35
113 3 2 2 9 35 112 113 34
114 3 2 2 9 34 113 114 33
115 3 2 2 9 33 114 115 32
116 3 2 2 9 32 115 116 31
117 3 2 2 9 31 116 117 30
118 3 2 2 9 30 117 118 29
119 3 2 2 9 29 118 119 28
120 3 2 2 9 28 119 27 2
121 3 2 2 9 51 52 120 97
122 3 2 2 9 97 120 121 98
123 3 2 2 9 98 121 122 99
124 3 2 2 9 99 122 123 100
125 3 2 2 9 100 123 124 101
126 3 2 2 9 101 124 125 102
127 3 2 2 9 102 125 126 103
128 3 2 2 9 103 126 127 104
129 3 2 2 9 104 127 128 105
130 3 2 2 9 105 128 129 106
131 3 2 2 9 106 129 130 107
132 3 2 2 9 107 130 131 108
133 3 2 2 9 108 131 132 109
134 3 2 2 9 109 132 133 110
135 3 2 2 9 110 133 134 111
136 3 2 2 9 111 134 135 112
137 3 2 2 9 112 135 136 113
138 3 2 2 9 113 136 137 114
139 3 2 2 9 114 137 138 115
140 3 2 2 9 115 138 139 116
141 3 2 2 9 116 139 140 117
142 3 2 2 9 117 140 141 118
143 3 2 2 9 118 141 142 119
144 3 2 2 9 119 142 26 27
145 3 2 2 9 52 53 143 120
146 3 2 2 9 120 143 144 121
147 3 2 2 9 121 144 145 122
148 3 2 2 9 122 145 146 123
149 3 2 2 9 123 146 147 124
150 3 2 2 9 124 147 148 125
151 3 2 2 9 125 148 149 126
152 3 2 2 9 126 149 150 127
153 3 2 2 9 127 150 151 128
154 3 2 2 9 128 151 152 129
155 3 2 2 9 129 152 153 130
156 3 2 2 9 130 153 154 131
157 3 2 2 9 131 154 155 132
158 3 2 2 9 132 155 156 133
159 3 2 2 9 133 156 157 134
160 3 2 2 9 134 157 158 135
161 3 2 2 9 135 158 159 136
162 3 2 2 9 136 159 160 137
163 3 2 2 9 137 160 161 138
164 3 2 2 9 138 161 162 139
165 3 2 2 9 139 162 163 140
166 3 2 2 9 140 163 164 141
167 3 2 2 9 141 164 165 142
168 3 2 2 9 142 165 25 26
169 3 2 2 9 53 54 166 143
170 3 2 2 9 143 166 167 144
171 3 2 2 9 144 167 168 145
172 3 2 2 9 145 168 169 146
173 3 2 2 9 146 169 170 147
174 3 2 2 9 147 170 171 148
175 3 2 2 9 148 171 172 149
176 3 2 2 9 149 172 173 150
177 3 2 2 9 150 173 174 151
178 3 2 2 9 151 174 175 152
179 3 2 2 9 152 175 176 153
180 3 2 2 9 153 176 177 154
181 3 2 2 9 154 177 178 155
182 3 2 2 9 155 178 179 156
183 3 2 2 9 156 179 180 157
184 3 2 2 9 157 180 181 158
185 3 2 2 9 158 181 182 159
186 3 2 2 9 159 182 183 160
187 3 2 2 9 160 183 184 161
188 3 2 2 9 161 184 185 162
189 3 2 2 9 162 185 186 163
190 3 2 2 9 163 186 187 164
191 3 2 2 9 164 187 188 165
192 3 2 2 9 165 188 24 25
193 3 2 2 9 54 55 189 166
194 3 2 2 9 166 189 190 167
195 3 2 2 9 167 190 191 168
196 3 2 2 9 168 191 192 169
197 3 2 2 9 169 192 193 170
198 3 2 2 9 170 193 194 171
199 3 2 2 9 171 194 195 172
200 3 2 2 9 172 195 196 173
201 3 2 2 9 173 196 197 174
202 3 2 2 9 174 197 198 175
203 3 2 2 9 175 198 199 176
204 3 2 2 9 176 199 200 177
205 3 2 2 9 177 200 201 178
206 3 2 2 9 178 201 202 179
207 3 2 2 9 179 202 203 180
208 3 2 2 9 180 203 204 181
209 3 2 2 9 181 204 205 182
210 3 2 2 9 182 205 206 183
211 3 2 2 9 183 206 207 184
212 3 2 2 9 184 207 208 185
213 3 2 2 9 185 208 209 186
214 3 2 2 9 186 209 210 187
215 3 2 2 9 187 210 211 188
216 3 2 2 9 188 211 23 24
217 3 2 2 9 55 56 212 189
218 3 2 2 9 189 212 213 190
219 3 2 2 9 190 213 214 191
220 3 2 2 9 191 214 215 192
221 3 2 2 9 192 215 216 193
222 3 2 2 9 193 216 217 194
223 3 2 2 9 194 217 218 195
224 3 2 2 9 195 218 219 196
225 3 2 2 9 196 219 220 197
226 3 2 2 9 197 220 221 198
227 3 2 2 9 198 221 222 199
228 3 2 2 9 199 222 223 200
229 3 2 2 9 200 223 224 201
230 3 2 2 9 201 224 225 202
231 3 2 2 9 202 225 226 203
232 3 2 2 9 203 226 227 204
233 3 2 2 9 204 227 228 205
234 3 2 2 9 205 228 229 206
235 3 2 2 9 206 229 230 207
236 3 2 2 9 207 230 231 208
237 3 2 2 9 208 231 232 209
238 3 2 2 9 209 232 233 210
239 3 2 2 9 210 233 234 211
240 3 2 2 9 211 234 22 23
241 3 2 2 9 56 57 235 212
242 3 2 2 9 212 235 236 213
243 3 2 2 9 213 236 237 214
244 3 2 2 9 214 237 238 215
245 3 2 2 9 215 238 239 216
246 3 2 2 9 216 239 240 217
247 3 2 2 9 217 240 241 218
248 3 2 2 9 218 241 242 219
249 3 2 2 9 219 242 243 220
250 3 2 2 9 220 243 244 221
251 3 2 2 9 221 244 245 222
252 3 2 2 9 222 245 246 223
253 3 2 2 9 223 246 247 224
254 3 2 2 9 224 247 248 225
255 3 2 2 9 225 248 249 226
256 3 2 2 9 226 249 250 227
257 3 2 2 9 227 250 251 228
258 3 2 2 9 228 251 252 229
259 3 2 2 9 229 252 253 230
260 3 2 2 9 230 253 254 231
261 3 2 2 9 231 254 255 232
262 3 2 2 9 232 255 256 233
263 3 2 2 9 233 256 257 234
264 3 2 2 9 234 257 21 22
265 3 2 2 9 57 58 258 235
266 3 2 2 9 235 258 259 236
267 3 2 2 9 236 259 260 237
268 3 2 2 9 237 260 261 238
269 3 2 2 9 238 261 262 239
270 3 2 2 9 239 262 263 240
271 3 2 2 9 240 263 264 241
272 3 2 2 9 241 264 265 242
273 3 2 2 9 242 265 266 243
274 3 2 2 9 243 266 267 244
275 3 2 2 9 244 267 268 245
276 3 2 2 9 245 268 269 246
277 3 2 2 9 246 269 270 247
278 3 2 2 9 247 270 271 248
279 3 2 2 9 248 271 272 249
280 3 2 2 9 249 272 273 250
281 3 2 2 9 250 273 274 251
282 3 2 2 9 251 274 275 252
283 3 2 2 9 252 275 276 253
284 3 2 2 9 253 276 277 254
285 3 2 2 9 254 277 278 255
286 3 2 2 9 255 278 279 256
287 3 2 2 9 256 279 280 257
288 3 2 2 9 257 280 20 21
289 3 2 2 9 58 59 281 258
290 3 2 2 9 258 281 282 259
291 3 2 2 9 259 282 283 260
292 3 2 2 9 260 283 284 261
293 3 2 2 9 261 284 285 262
294 3 2 2 9 262 285 286 263
295 3 2 2 9 263 286 287 264
296 3 2 2 9 264 287 288 265
297 3 2 2 9 265 288 289 266
298 3 2 2 9 266 289 290 267
299 3 2 2 9 267 290 291 268
300 3 2 2 9 268 291 292 269
301 3 2 2 9 269 292 293 270
302 3 2 2 9 270 293 294 271
303 3 2 2 9 271 294 295 272
304 3 2 2 9 272 295 296 273
305 3 2 2 9 273 296 297 274
306 3 2 2 9 274 297 298 275
307 3 2 2 9 275 298 299 276
308 3 2 2 9 276 299 300 277
309 3 2 2 9 277 300 301 278
310 3 2 2 9 278 301 302 279
311 3 2 2 9 279 302 303 280
312 3 2 2 9 280 303 19 20
313 3 2 2 9 59 60 304 281
314 3 2 2 9 281 304 305 282
315 3 2 2 9 282 305 306 283
316 3 2 2 9 283 306 307 284
317 3 2 2 9 284 307 308 285
318 3 2 2 9 285 308 309 286
319 3 2 2 9 286 309 310 287
320 3 2 2 9 287 310 311 288
321 3 2 2 9 288 311 312 289
322 3 2 2 9 289 312 313 290
323 3 2 2 9 290 313 314 291
324 3 2 2 9 291 314 315 292
325 3 2 2 9 292 315 316 293
326 3 2 2 9 293 316 317 294
327 3 2 2 9 294 317 318 295
328 3 2 2 9 295 318 319 296
329 3 2 2 9 296 319 320 297
330 3 2 2 9 297 320 321 298
331 3 2 2 9 298 321 322 299
332 3 2 2 9 299 322 323 300
333 3 2 2 9 300 323 324 301
334 3 2 2 9 301 324 325 302
335 3 2 2 9 302 325 326 303
336 3 2 2 9 303 326 18 19
337 3 2 2 9 60 61 327 304
338 3 2 2 9 304 327 328 305
339 3 2 2 9 305 328 329 306
340 3 2 2 9 306 329 330 307
341 3 2 2 9 307 330 331 308
342 3 2 2 9 308 331 332 309
343 3 2 2 9 309 332 333 310
344 3 2 2 9 310 333 334 311
345 3 2 2 9 311 334 335 312
346 3 2 2 9 312 335 336 313
347 3 2 2 9 313 336 337 314
348 3 2 2 9 314 337 338 315
349 3 2 2 9 315 338 339 316
350 3 2 2 9 316 339 340 317
351 3 2 2 9 317 340 341 318
352 3 2 2 9 318 341 342 319
353 3 2 2 9 319 342 343 320
354 3 2 2 9 320 343 344 321
355 3 2 2 9 321 344 345 322
356 3 2 2 9 322 345 346 323
357 3 2 2 9 323 346 347 324
358 3 2 2 9 324 347 348 325
359 3 2 2 9 325 348 349 326
360 3 2 2 9 326 349 17 18
361 3 2 2 9 61 62 350 327
362 3 2 2 9 327 350 351 328
363 3 2 2 9 328 351 352 329
364 3 2 2 9 329 352 353 330
365 3 2 2 9 330 353 354 331
366 3 2 2 9 331 354 355 332
367 3 2 2 9 332 355 356 333
368 3 2 2 9 333 356 357 334
369 3 2 2 9 334 357 358 335
370 3 2 2 9 335 358 359 336
371 3 2 2 9 336 359 360 337
372 3 2 2 9 337 360 361 338
373 3 2 2 9 338 361 362 339
374 3 2 2 9 339 362 363 340
375 3 2 2 9 340 363 364 341
376 3 2 2 9 341 364 365 342
377 3 2 2 9 342 365 366 343
378 3 2 2 9 343 366 367 344
379 3 2 2 9 344 367 368 345
380 3 2 2 9 345 368 369 346
381 3 2 2 9 346 369 370 347
382 3 2 2 9 347 370 371 348
383 3 2 2 9 348 371 372 349
384 3 2 2 9 349 372 16 17
385 3 2 2 9 62 63 373 350
386 3 2 2 9 350 373 374 351
387 3 2 2 9 351 374 375 352
388 3 2 2 9 352 375 376 353
389 3 2 2 9 353 376 377 354
390 3 2 2 9 354 377 378 355
391 3 2 2 9 355 378 379 356
392 3 2 2 9 356 379 380 357
393 3 2 2 9 357 380 381 358
394 3 2 2 9 358 381 382 359
395 3 2 2 9 359 382 383 360
396 3 2 2 9 360 383 384 361
397 3 2 2 9 361 384 385 362
398 3 2 2 9 362 385 386 363
399 3 2 2 9 363 386 387 364
400 3 2 2 9 364 387 388 365
401 3 2 2 9 365 388 389 366
402 3 2 2 9 366 389 390 367
403 3 2 2 9 367 390 391 368
404 3 2 2 9 368 391 392 369
405 3 2 2 9 369 392 393 370
406 3 2 2 9 370 393 394 371
407 3 2 2 9 371 394 395 372
408 3 2 2 9 372 395 15 16
409 3 2 2 9 63 64 396 373
410 3 2 2 9 373 396 397 374
411 3 2 2 9 374 397 398 375
412 3 2 2 9 375 398 399 376
413 3 2 2 9 376 399 400 377
414 3 2 2 9 377 400 401 378
415 3 2 2 9 378 401 402 379
416 3 2 2 9 379 402 403 380
417 3 2 2 9 380 403 404 381
418 3 2 2 9 381 404 405 382
419 3 2 2 9 382 405 406 383
420 3 2 2 9 383 406 407 384
421 3 2 2 9 384 407 408 385
422 3 2 2 9 385 408 409 386
423 3 2 2 9 386 409 410 387
424 3 2 2 9 387 410 411 388
425 3 2 2 9 388 411 412 389
426 3 2 2 9 389 412 413 390
427 3 2 2 9 390 413 414 391
428 3 2 2 9 391 414 415 392
429 3 2 2 9 392 415 416 393
430 3 2 2 9 393 416 417 394
431 3 2 2 9 394 417 418 395
432 3 2 2 9 395 418 14 15
433 3 2 2 9 64 65 419 396
434 3 2 2 9 396 419 420 397
435 3 2 2 9 397 420 421 398
436 3 2 2 9 398 421 422 399
437 3 2 2 9 399 422 423 400
438 3 2 2 9 400 423 424 401
439 3 2 2 9 401 424 425 402
440 3 2 2 9 402 425 426 403
441 3 2 2 9 403 426 427 404
442 3 2 2 9 404 427 428 405
443 3 2 2 9 405 428 429 406
444 3 2 2 9 406 429 430 407
445 3 2 2 9 407 430 431 408
446 3 2 2 9 408 431 432 409
447 3 2 2 9 409 432 433 410
448 3 2 2 9 410 433 434 411
449 3 2 2 9 411 434 435 412
450 3 2 2 9 412 435 436 413
451 3 2 2 9 413 436 437 414
452 3 2 2 9 414 437 438 415
453 3 2 2 9 415 438 439 416
454 3 2 2 9 416 439 440 417
455 3 2 2 9 417 440 441 418
456 3 2 2 9 418 441 13 14
457 3 2 2 9 65 66 442 419
458 3 2 2 9 419 442 443 420
459 3 2 2 9 420 443 444 421
460 3 2 2 9 421 444 445 422
461 3 2 2 9 422 445 446 423
462 3 2 2 9 423 446 447 424
463 3 2 2 9 424 447 448 425
464 3 2 2 9 425 448 449 426
465 3 2 2 9 426 449 450 427
466 3 2 2 9 427 450 451 428
467 3 2 2 9 428 451 452 429
468 3 2 2 9 429 452 453 430
469 3 2 2 9 430 453 454 431
470 3 2 2 9 431 454 455 432
471 3 2 2 9 432 455 456 433
472 3 2 2 9 433 456 457 434
473 3 2 2 9 434 457 458 435
474 3 2 2 9 435 458 459 436
475 3 2 2 9 436 459 460 437
476 3 2 2 9 437 460 461 438
477 3 2 2 9 438 461 462 439
478 3 2 2 9 439 462 463 440
479 3 2 2 9 440 463 464 441
480 3 2 2 9 441 464 12 13
481 3 2 2 9 66 67 465 442
482 3 2 2 9 442 465 466 443
483 3 2 2 9 443 466 467 444
484 3 2 2 9 444 467 468 445
485 3 2 2 9 445 468 469 446
486 3 2 2 9 446 469 470 447
487 3 2 2 9 447 470 471 448
488 3 2 2 9 448 471 472 449
489 3 2 2 9 449 472 473 450
490 3 2 2 9 450 473 474 451
491 3 2 2 9 451 474 475 452
492 3 2 2 9 452 475 476 453
493 3 2 2 9 453 476 477 454
494 3 2 2 9 454 477 478 455
495 3 2 2 9 455 478 479 456
496 3 2 2 9 456 479 480 457
497 3 2 2 9 457 480 481 458
498 3 2 2 9 458 481 482 459
499 3 2 2 9 459 482 483 460
500 3 2 2 9 460 483 484 461
501 3 2 2 9 461 484 485 462
502 3 2 2 9 462 485 486 463
503 3 2 2 9 463 486 487 464
504 3 2 2 9 464 487 11 12
505 3 2 2 9 67 68 488 465
506 3 2 2 9 465 488 489 466
507 3 2 2 9 466 489 490 467
508 3 2 2 9 467 490 491 468
509 3 2 2 9 468 491 492 469
510 3 2 2 9 469 492 493 470
511 3 2 2 9 470 493 494 471
512 3 2 2 9 471 494 495 472
513 3 2 2 9 472 495 496 473
514 3 2 2 9 473 496 497 474
515 3 2 2 9 474 497 498 475
516 3 2 2 9 475 498 499 476
517 3 2 2 9 476 499 500 477
518 3 2 2 9 477 500 501 478
519 3 2 2 9 478 501 502 479
520 3 2 2 9 479 502 503 480
521 3 2 2 9 480 503 504 481
522 3 2 2 9 481 504 505 482
523 3 2 2 9 482 505 506 483
524 3 2 2 9 483 506 507 484
525 3 2 2 9 484 507 508 485
526 3 2 2 9 485 508 509 486
527 3 2 2 9 486 509 510 487
528 3 2 2 9 487 510 10 11
529 3 2 2 9 68 69 511 488
530 3 2 2 9 488 511 512 489
531 3 2 2 9 489 512 513 490
532 3 2 2 9 490 513 514 491
533 3 2 2 9 491 514 515 492
534 3 2 2 9 492 515 516 493
535 3 2 2 9 493 516 517 494
536 3 2 2 9 494 517 518 495
537 3 2 2 9 495 518 519 496
538 3 2 2 9 496 519 520 497
539 3 2 2 9 497 520 521 498
540 3 2 2 9 498 521 522 499
541 3 2 2 9 499 522 523 500
542 3 2 2 9 500 523 524 501
543 3 2 2 9 501 524 525 502
544 3 2 2 9 502 525 526 503
545 3 2 2 9 503 526 527 504
546 3 2 2 9 504 527 528 505
547 3 2 2 9 505 528 529 506
548 3 2 2 9 506 529 530 507
549 3 2 2 9 507 530 531 508
550 3 2 2 9 508 531 532 509
551 3 2 2 9 509 532 533 510
552 3 2 2 9 510 533 9 10
553 3 2 2 9 69 70 534 511
554 3 2 2 9 511 534 535 512
555 3 2 2 9 512 535 536 513
556 3 2 2 9 513 536 537 514
557 3 2 2 9 514 537 538 515
558 3 2 2 9 515 538 539 516
559 3 2 2 9 516 539 540 517
560 3 2 2 9 517 540 541 518
561 3 2 2 9 518 541 542 519
562 3 2 2 9 519 542 543 520
563 3 2 2 9 520 543 544 521
564 3 2 2 9 521 544 545 522
565 3 2 2 9 522 545 546 523
566 3 2 2 9 523 546 547 524
567 3 2 2 9 524 547 548 525
568 3 2 2 9 525 548 549 526
569 3 2 2 9 526 549 550 527
570 3 2 2 9 527 550 551 528
571 3 2 2 9 528 551 552 529
572 3 2 2 9 529 552 553 530
573 3 2 2 9 530 553 554 531
574 3 2 2 9 531 554 555 532
575 3 2 2 9 532 555 556 533
576 3 2 2 9 533 556 8 9
577 3 2 2 9 70 71 557 534
578 3 2 2 9 534 557 558 535
579 3 2 2 9 535 558 559 536
580 3 2 2 9 536 559 560 537
581 3 2 2 9 537 560 561 538
582 3 2 2 9 538 561 562 539
583 3 2 2 9 539 562 563 540
584 3 2 2 9 540 563 564 541
585 3 2 2 9 541 564 565 542
586 3 2 2 9 542 565 566 543
587 3 2 2 9 543 566 567 544
588 3 2 2 9 544 567 568 545
589 3 2 2 9 545 568 569 546
590 3 2 2 9 546 569 570 547
591 3 2 2 9 547 570 571 548
592 3 2 2 9 548 571 572 549
593 3 2 2 9 549 572 573 550
594 3 2 2 9 550 573 574 551
595 3 2 2 9 551 574 575 552
596 3 2 2 9 552 575 576 553
597 3 2 2 9 553 576 577 554
598 3 2 2 9 554 577 578 555
599 3 2 2 9 555 578 579 556
600 3 2 2 9 556 579 7 8
601 3 2 2 9 71 72 580 557
602 3 2 2 9 557 580 581 558
603 3 2 2 9 558 581 582 559
604 3 2 2 9 559 582 583 560
605 3 2 2 9 560 583 584 561
606 3 2 2 9 561 584 585 562
607 3 2 2 9 562 585 586 563
608 3 2 2 9 563 586 587 564
609 3 2 2 9 564 587 588 565
610 3 2 2 9 565 588 589 566
611 3 2 2 9 566 589 590 567
612 3 2 2 9 567 590 591 568
613 3 2 2 9 568 591 592 569
614 3 2 2 9 569 592 593 570
615 3 2 2 9 570 593 594 571
616 3 2 2 9 571 594 595 572
617 3 2 2 9 572 595 596 573
618 3 2 2 9 573 596 597 574
619 3 2 2 9 574 597 598 575
620 3 2 2 9 575 598 599 576
621 3 2 2 9 576 599 600 577
622 3 2 2 9 577 600 601 578
623 3 2 2 9 578 601 602 579
624 3 2 2 9 579 602 6 7
625 3 2 2 9 72 73 603 580
626 3 2 2 9 580 603 604 581
627 3 2 2 9 581 604 605 582
628 3 2 2 9 582 605 606 583
629 3 2 2 9 583 606 607 584
630 3 2 2 9 584 607 608 585
631 3 2 2 9 585 608 609 586
632 3 2 2 9 586 609 610 587
633 3 2 2 9 587 610 611 588
634 3 2 2 9 588 611 612 589
635 3 2 2 9 589 612 613 590
636 3 2 2 9 590 613 614 591
637 3 2 2 9 591 614 615 592
638 3 2 2 9 592 615 616 593
639 3 2 2 9 593 616 617 594
640 3 2 2 9 594 617 618 595
641 3 2 2 9 595 618 619 596
642 3 2 2 9 596 619 620 597
643 3 2 2 9 597 620 621 598
644 3 2 2 9 598 621 622 599
645 3 2 2 9 599 622 623 600
646 3 2 2 9 600 623 624 601
647 3 2 2 9 601 624 625 602
648 3 2 2 9 602 625 5 6
649 3 2 2 9 73 4 74 603
650 3 2 2 9 603 74 75 604
651 3 2 2 9 604 75 76 605
652 3 2 2 9 605 76 77 606
653 3 2 2 9 606 77 78 607
654 3 2 2 9 607 78 79 608
655 3 2 2 9 608 79 80 609
656 3 2 2 9 609 80 81 610
657 3 2 2 9 610 81 82 611
658 3 2 2 9 611 82 83 612
659 3 2 2 9 612 83 84 613
660 3 2 2 9 613 84 85 614
661 3 2 2 9 614 85 86 615
662 3 2 2 9 615 86 87 616
663 3 2 2 9 616 87 88 617
664 3 2 2 9 617 88 89 618
665 3 2 2 9 618 89 90 619
666 3 2 2 9 619 90 91 620
667 3 2 2 9 620 91 92 621
668 3 2 2 9 621 92 93 622
669 3 2 2 9 622 93 94 623
670 3 2 2 9 623 94 95 624
671 3 2 2 9 624 95 96 625
672 3 2 2 9 625 96 1 5
$EndElements
