$-------------------------------------------------------------
PHYSICAL_PROBLEM
  PROPERTIES
    MATERIAL = 1
      DENSITY       = SPRAY, PARAMETER = 1000.0 1.0, UPDP1=ENDSTE, UPDP2=NEVER 
      VISCOSITY     = CONST, PARAMETER = 1.2e-15,    UPDP1=ENDSTE, UPDP2=NEVER 
      SPECIFIC_HEAT = CONST, PARAMETER = 4180.0,     UPDP1=ENDSTE, UPDP2=NEVER
      CONDUCTIVITY  = CONST, PARAMETER = 5.91e-13,   UPDP1=ENDSTE, UPDP2=NEVER
    END_MATERIAL
  END_PROPERTIES
  
  VELOCITY: FIELD = 5

END_PHYSICAL_PROBLEM
$-------------------------------------------------------------
NUMERICAL_TREATMENT

  ELSEST: ON
    STRATEGY: BIN
    NUMBER: 50,50,50
  END_ELSEST

END_NUMERICAL_TREATMENT
$-------------------------------------------------------------
OUTPUT_&_POST_PROCESS
  ON_LASTMESH
  STEPS = 100
  POSTPROCESS DENSI
END_OUTPUT_&_POST_PROCESS
$-------------------------------------------------------------------
