GiD Post Results File 1.0
 
Result MASSM ALYA  0.00000000E+00 Scalar OnNodes
ComponentNames MASSM
Values
          1  0.61217983E-001
          2  0.61217983E-001
          3  0.61217983E-001
          4  0.61217983E-001
          5  0.30991604E+000
          6  0.30991604E+000
          7  0.30991604E+000
          8  0.30991604E+000
          9  0.30991604E+000
         10  0.30991604E+000
         11  0.30991604E+000
         12  0.30991604E+000
         13  0.15689499E+001
         14  0.15689499E+001
         15  0.15689499E+001
         16  0.15689499E+001
End values

Result TEMPE ALYA  0.00000000E+00 Scalar OnNodes
ComponentNames TEMPE
Values
          1  0.00000000E+000
          2  0.18000000E+002
          3  0.90000000E+002
          4  0.27000000E+002
          5  0.20000000E+001
          6  0.80000000E+001
          7  0.36000000E+002
          8  0.60000000E+002
          9  0.65000000E+002
         10  0.44000000E+002
         11  0.12000000E+002
         12  0.30000000E+001
         13  0.00000000E+000
         14  0.00000000E+000
         15  0.00000000E+000
         16  0.00000000E+000
End values

Result ERROR ALYA  0.00000000E+00 Scalar OnNodes
ComponentNames ERROR
Values
          1  0.00000000E+000
          2  0.00000000E+000
          3  0.00000000E+000
          4  0.00000000E+000
          5  0.00000000E+000
          6  0.00000000E+000
          7  0.00000000E+000
          8  0.00000000E+000
          9  0.00000000E+000
         10  0.00000000E+000
         11  0.00000000E+000
         12  0.00000000E+000
         13 -0.10000000E+002
         14 -0.21000000E+002
         15 -0.40000000E+002
         16 -0.24000000E+002
End values

Result TEMPE ALYA  0.10000000E+00 Scalar OnNodes
ComponentNames TEMPE
Values
          1  0.00000000E+000
          2  0.18000000E+002
          3  0.90000000E+002
          4  0.27000000E+002
          5  0.20000000E+001
          6  0.80000000E+001
          7  0.36000000E+002
          8  0.60000000E+002
          9  0.65000000E+002
         10  0.44000000E+002
         11  0.12000000E+002
         12  0.30000000E+001
         13  0.10000000E+002
         14  0.21000000E+002
         15  0.40000000E+002
         16  0.24000000E+002
End values

Result ERROR ALYA  0.10000000E+00 Scalar OnNodes
ComponentNames ERROR
Values
          1  0.00000000E+000
          2  0.00000000E+000
          3  0.00000000E+000
          4  0.00000000E+000
          5  0.00000000E+000
          6  0.00000000E+000
          7  0.00000000E+000
          8  0.00000000E+000
          9  0.00000000E+000
         10  0.00000000E+000
         11  0.00000000E+000
         12  0.00000000E+000
         13 -0.17763568E-013
         14 -0.17763568E-013
         15  0.00000000E+000
         16 -0.42632564E-013
End values

