# ALYA Lagrangian postprocess  
#
# HEADER
# T , Column :   1
# ILAGR , Column :   2
# ITYPE , Column :   3
# EXIST , Column :   4
# COORX , Column :   5
# COORY , Column :   6
# COORZ , Column :   7
# VELOX , Column :   8
# VELOY , Column :   9
# VELOZ , Column :  10
# DTK , Column :  11
# CD , Column :  12
# TEMPK , Column :  13
# MASSK , Column :  14
# MPIRA , Column :  15
# DIAMK , Column :  16
# TEMPF , Column :  17
# YVAPF , Column :  18
# DIAM0 , Column :  19
# MASS0 , Column :  20
# BM , Column :  21
#               T            ILAGR            ITYPE            EXIST            COORX            COORY            COORZ            VELOX            VELOY            VELOZ              DTK               CD            TEMPK            MASSK            MPIRA            DIAMK            TEMPF            YVAPF            DIAM0            MASS0               BM            
  0.00000000E+000                1                1               -5  0.00000000E+000  0.00000000E+000  0.00000000E+000 -1.00000000E+001  0.00000000E+000  0.00000000E+000  5.00000000E-006  0.00000000E+000  2.88000000E+002  7.80447225E-011  1.00000000E+000  6.00000000E-005  0.00000000E+000  0.00000000E+000  6.00000000E-005  7.80447225E-011  0.00000000E+000
  2.00000000E-005                1                1               -1 -1.99306588E-004 -3.84510971E-008  0.00000000E+000 -9.92255810E+000 -4.27117617E-003  0.00000000E+000  5.00000000E-006  6.25538010E+000  2.96062832E+002  7.80111926E-011  1.00000000E+000  6.01884212E-005  2.02347614E+003  1.00000000E-003  6.00000000E-005  7.80447225E-011  1.76307214E-001
  4.00000000E-005                1                1               -1 -3.96885321E-004 -1.71729611E-007  0.00000000E+000 -9.83561645E+000 -9.04054588E-003  0.00000000E+000  5.00000000E-006  6.03718442E+000  3.04169644E+002  7.79590524E-011  1.00000000E+000  6.03785011E-005  2.02347614E+003  1.00000000E-003  6.00000000E-005  7.80447225E-011  2.71467788E-001
  6.00000000E-005                1                1               -1 -5.92743676E-004 -3.99406771E-007  0.00000000E+000 -9.75055406E+000 -1.37092789E-002  0.00000000E+000  5.00000000E-006  5.75193604E+000  3.12346980E+002  7.78791939E-011  1.00000000E+000  6.05689453E-005  2.02347614E+003  1.00000000E-003  6.00000000E-005  7.80447225E-011  4.13156935E-001
  8.00000000E-005                1                1               -1 -7.86921067E-004 -7.19374416E-007  0.00000000E+000 -9.66754222E+000 -1.82684348E-002  0.00000000E+000  5.00000000E-006  5.41083807E+000  3.20616725E+002  7.77583267E-011  1.00000000E+000  6.07573258E-005  2.02347614E+003  1.00000000E-003  6.00000000E-005  7.80447225E-011  6.26404465E-001
  1.00000000E-004                1                1               -1 -9.79459455E-004 -1.12939175E-006  0.00000000E+000 -9.58666006E+000 -2.27139279E-002  0.00000000E+000  5.00000000E-006  5.03347291E+000  3.28989297E+002  7.75771571E-011  1.00000000E+000  6.09393783E-005  2.02347614E+003  1.00000000E-003  6.00000000E-005  7.80447225E-011  9.55115767E-001
  1.20000000E-004                1                1               -1 -1.17040125E-003 -1.62719572E-006  0.00000000E+000 -9.50787143E+000 -2.70477324E-002  0.00000000E+000  5.00000000E-006  4.64471195E+000  3.37456197E+002  7.73077820E-011  1.00000000E+000  6.11080041E-005  2.02347614E+003  1.00000000E-003  6.00000000E-005  7.80447225E-011  1.48386075E+000
  1.40000000E-004                1                1               -1 -1.35978692E-003 -2.21062726E-006  0.00000000E+000 -9.43101792E+000 -3.12782394E-002  0.00000000E+000  5.00000000E-006  4.27000158E+000  3.45980088E+002  7.69094917E-011  1.00000000E+000  6.12516642E-005  2.02347614E+003  1.00000000E-003  6.00000000E-005  7.80447225E-011  2.39888087E+000
  1.60000000E-004                1                1               -1 -1.54765261E-003 -2.87775552E-006  0.00000000E+000 -9.35582934E+000 -3.54196961E-002  0.00000000E+000  5.00000000E-006  3.93067068E+000  3.54479234E+002  7.63202205E-011  1.00000000E+000  6.13512305E-005  2.02347614E+003  1.00000000E-003  6.00000000E-005  7.80447225E-011  4.20482588E+000
  1.80000000E-004                1                1               -1 -1.73402811E-003 -3.62698333E-006  0.00000000E+000 -9.28194738E+000 -3.94909550E-002  0.00000000E+000  5.00000000E-006  3.64158803E+000  3.62786062E+002  7.54309448E-011  1.00000000E+000  6.13709729E-005  2.02347614E+003  1.00000000E-003  6.00000000E-005  7.80447225E-011  8.88989038E+000
  2.00000000E-004                1                1               -1 -1.91893532E-003 -4.45712982E-006  0.00000000E+000 -9.20894117E+000 -4.35146495E-002  0.00000000E+000  5.00000000E-006  3.41427887E+000  3.70390648E+002  7.39324442E-011  1.00000000E+000  6.12060493E-005  2.02347614E+003  1.00000000E-003  6.00000000E-005  7.80447225E-011  3.83233409E+001
  2.20000000E-004                1                1               -1 -2.10238575E-003 -5.36755857E-006  0.00000000E+000 -9.13615116E+000 -4.75253679E-002  0.00000000E+000  5.00000000E-006  3.35824716E+000  3.71547208E+002  6.87920118E-011  1.00000000E+000  5.97903249E-005  2.02347614E+003  1.00000000E-003  6.00000000E-005  7.80447225E-011  1.00000000E+006
  2.40000000E-004                1                1               -1 -2.28436318E-003 -6.35908560E-006  0.00000000E+000 -9.06144270E+000 -5.16349213E-002  0.00000000E+000  5.00000000E-006  3.43194059E+000  3.71547191E+002  6.30238184E-011  1.00000000E+000  5.80701761E-005  2.02347614E+003  1.00000000E-003  6.00000000E-005  7.80447225E-011  1.00000000E+006
  2.60000000E-004                1                1               -1 -2.46481935E-003 -7.43420560E-006  0.00000000E+000 -8.98396864E+000 -5.58875647E-002  0.00000000E+000  5.00000000E-006  3.52252768E+000  3.71547174E+002  5.74822529E-011  1.00000000E+000  5.63157012E-005  2.02347614E+003  1.00000000E-003  6.00000000E-005  7.80447225E-011  1.00000000E+006
  2.80000000E-004                1                1               -1 -2.64369535E-003 -8.59596718E-006  0.00000000E+000 -8.90340450E+000 -6.03001381E-002  0.00000000E+000  5.00000000E-006  3.62094844E+000  3.71547156E+002  5.21690450E-011  1.00000000E+000  5.45241863E-005  2.02347614E+003  1.00000000E-003  6.00000000E-005  7.80447225E-011  1.00000000E+006
  3.00000000E-004                1                1               -1 -2.82092621E-003 -9.84773195E-006  0.00000000E+000 -8.81943232E+000 -6.48891119E-002  0.00000000E+000  5.00000000E-006  3.72837362E+000  3.71547136E+002  4.70860827E-011  1.00000000E+000  5.26925335E-005  2.02347614E+003  1.00000000E-003  6.00000000E-005  7.80447225E-011  1.00000000E+006
  3.20000000E-004                1                1               -1 -2.99644012E-003 -1.11932185E-005  0.00000000E+000 -8.73168013E+000 -6.96737561E-002  0.00000000E+000  5.00000000E-006  3.84623073E+000  3.71547116E+002  4.22354331E-011  1.00000000E+000  5.08171774E-005  2.02347614E+003  1.00000000E-003  6.00000000E-005  7.80447225E-011  1.00000000E+006
  3.40000000E-004                1                1               -1 -3.17015712E-003 -1.26365652E-005  0.00000000E+000 -8.63970871E+000 -7.46768262E-002  0.00000000E+000  5.00000000E-006  3.97628062E+000  3.71547094E+002  3.76193709E-011  1.00000000E+000  4.88939802E-005  2.02347614E+003  1.00000000E-003  6.00000000E-005  7.80447225E-011  1.00000000E+006
  3.60000000E-004                1                1               -1 -3.34198765E-003 -1.41824087E-005  0.00000000E+000 -8.54299392E+000 -7.99254758E-002  0.00000000E+000  5.00000000E-006  4.12072369E+000  3.71547070E+002  3.32404126E-011  1.00000000E+000  4.69180924E-005  2.02347614E+003  1.00000000E-003  6.00000000E-005  7.80447225E-011  1.00000000E+006
  3.80000000E-004                1                1               -1 -3.51183060E-003 -1.58359843E-005  0.00000000E+000 -8.44090287E+000 -8.54524933E-002  0.00000000E+000  5.00000000E-006  4.28235021E+000  3.71547045E+002  2.91013605E-011  1.00000000E+000  4.48837674E-005  2.02347614E+003  1.00000000E-003  6.00000000E-005  7.80447225E-011  1.00000000E+006
  4.00000000E-004                1                1               -1 -3.67957080E-003 -1.76032551E-005  0.00000000E+000 -8.33266095E+000 -9.12980114E-002  0.00000000E+000  5.00000000E-006  4.46475828E+000  3.71547017E+002  2.52053573E-011  1.00000000E+000  4.27841083E-005  2.02347614E+003  1.00000000E-003  6.00000000E-005  7.80447225E-011  1.00000000E+006
  4.20000000E-004                1                1               -1 -3.84507576E-003 -1.94910827E-005  0.00000000E+000 -8.21730508E+000 -9.75119270E-002  0.00000000E+000  5.00000000E-006  4.67267808E+000  3.71546987E+002  2.15559584E-011  1.00000000E+000  4.06107151E-005  2.02347614E+003  1.00000000E-003  6.00000000E-005  7.80447225E-011  1.00000000E+006
  4.40000000E-004                1                1               -1 -4.00819118E-003 -2.15074570E-005  0.00000000E+000 -8.09361580E+000 -1.04157421E-001  0.00000000E+000  5.00000000E-006  4.91246950E+000  3.71546954E+002  1.81572257E-011  1.00000000E+000  3.83531773E-005  2.02347614E+003  1.00000000E-003  6.00000000E-005  7.80447225E-011  1.00000000E+006
  4.60000000E-004                1                1               -1 -4.16873490E-003 -2.36618130E-005  0.00000000E+000 -7.96001523E+000 -1.11316247E-001  0.00000000E+000  5.00000000E-006  5.19291358E+000  3.71546917E+002  1.50138561E-011  1.00000000E+000  3.59983221E-005  2.02347614E+003  1.00000000E-003  6.00000000E-005  7.80447225E-011  1.00000000E+006
  4.80000000E-004                1                1               -1 -4.32648812E-003 -2.59654830E-005  0.00000000E+000 -7.81440789E+000 -1.19096976E-001  0.00000000E+000  5.00000000E-006  5.52652602E+000  3.71546875E+002  1.21313602E-011  1.00000000E+000  3.35290564E-005  2.02347614E+003  1.00000000E-003  6.00000000E-005  7.80447225E-011  1.00000000E+006
  5.00000000E-004                1                1               -1 -4.48118256E-003 -2.84323636E-005  0.00000000E+000 -7.65392070E+000 -1.27648472E-001  0.00000000E+000  5.00000000E-006  5.93185200E+000  3.71546827E+002  9.51632074E-012  1.00000000E+000  3.09224938E-005  2.02347614E+003  1.00000000E-003  6.00000000E-005  7.80447225E-011  1.00000000E+006
  5.20000000E-004                1                1               -1 -4.63248053E-003 -3.10799474E-005  0.00000000E+000 -7.47445346E+000 -1.37183180E-001  0.00000000E+000  5.00000000E-006  6.43773773E+000  3.71546770E+002  7.17678425E-012  1.00000000E+000  2.81467402E-005  2.02347614E+003  1.00000000E-003  6.00000000E-005  7.80447225E-011  1.00000000E+006
  5.40000000E-004                1                1               -1 -4.77994232E-003 -3.39310132E-005  0.00000000E+000 -7.26984332E+000 -1.48020424E-001  0.00000000E+000  5.00000000E-006  7.09194588E+000  3.71546699E+002  5.12288938E-012  1.00000000E+000  2.51549302E-005  2.02347614E+003  1.00000000E-003  6.00000000E-005  7.80447225E-011  1.00000000E+006
  5.60000000E-004                1                1               -1 -4.92296849E-003 -3.70166170E-005  0.00000000E+000 -7.03015708E+000 -1.60674888E-001  0.00000000E+000  5.00000000E-006  7.98046497E+000  3.71546607E+002  3.36795752E-012  1.00000000E+000  2.18729304E-005  2.02347614E+003  1.00000000E-003  6.00000000E-005  7.80447225E-011  1.00000000E+006
  5.80000000E-004                1                1               -1 -5.06068614E-003 -4.03819835E-005  0.00000000E+000 -6.73770815E+000 -1.76063004E-001  0.00000000E+000  5.00000000E-006  9.27758044E+000  3.71546477E+002  1.93060952E-012  1.00000000E+000  1.81697752E-005  2.02347614E+003  1.00000000E-003  6.00000000E-005  7.80447225E-011  1.00000000E+006
  6.00000000E-004                1                1               -6 -5.19168534E-003 -4.41001651E-005  0.00000000E+000 -6.35574182E+000 -1.96089221E-001  0.00000000E+000  5.00000000E-006  1.14076505E+001  3.71546477E+002  0.00000000E+000  1.00000000E+000  0.00000000E+000  2.02347614E+003  1.00000000E-003  6.00000000E-005  7.80447225E-011  0.00000000E+000
