{
    "authors": [
        "ambrus.both@bsc.es",
        "guillermo.oyarzun@bsc.es"
    ],
    "comparisons": [
        {
            "file": "prem_box_Var_vectorized.chm.wit-col2.out",
            "method": "absolute",
            "tolerance": "1.0e-6"
        },
        {
            "file": "prem_box_Var_vectorized.chm.wit-col3.out",
            "method": "absolute",
            "tolerance": "1.0e-6"
        },
        {
            "file": "prem_box_Var_vectorized.chm.wit-col10.out",
            "method": "absolute",
            "tolerance": "1.0e-6"
        },
        {
            "file": "prem_box_Var_vectorized.chm.wit-col11.out",
            "method": "absolute",
            "tolerance": "1.0e-6"
        },
        {
            "file": "prem_box_Var_vectorized-CON01-00000010.post.mpio.txt",
            "method": "absolute",
            "tolerance": "1.0e-7"
        },
        {
            "file": "prem_box_Var_vectorized-CON02-00000010.post.mpio.txt",
            "method": "absolute",
            "tolerance": "1.0e-7"
        },
        {
            "file": "prem_box_Var_vectorized-TEMPE-00000010.post.mpio.txt",
            "method": "absolute",
            "tolerance": "1.0e-4"
        },
        {
            "file": "prem_box_Var_vectorized-XYR-00000010.post.mpio.txt",
            "method": "absolute",
            "tolerance": "1.0e-3"
        },
        {
            "file": "prem_box_Var_vectorized-XYS-00000010.post.mpio.txt",
            "method": "absolute",
            "tolerance": "1.0e-3"
        },
        {
            "file": "prem_box_Var_vectorized-VELOC-00000010.post.mpio.txt",
            "method": "absolute",
            "tolerance": "1.0e-7"
        }
    ],
    "description": "Premixed flame in square shaped duct, variance model on.",
    "include": [
		"normal"
	],
    "executions": [
        {
            "commands": {
                "postprocess": " [ALYA-PATH]/Utils/user/extractColumnFromFile.sh [NAME].chm.wit 2 3 10 11; echo | [POST] [NAME]"
            },
            "mpi": 1,
            "openmp": 0
        },
        {
            "commands": {
                "postprocess": " [ALYA-PATH]/Utils/user/extractColumnFromFile.sh [NAME].chm.wit 2 3 10 11; echo | [POST] [NAME]"
            },
            "mpi": 3,
            "openmp": 0
        },
        {
            "commands": {
                "postprocess": " [ALYA-PATH]/Utils/user/extractColumnFromFile.sh [NAME].chm.wit 2 3 10 11; echo | [POST] [NAME]"
            },
            "mpi": 3,
            "openmp": 3
        }
    ],
    "modules": [
        "nastin",
        "temper",
        "chemic"
    ],
    "name": "prem_box_Var_vectorized",
    "postprocess": "mpio2txt",
	"timeout": "00:02:00"
}
