$-------------------------------------------------------------------
RUN_DATA
  ALYA:                   prem_box
  RUN_TYPE:               NOCONTINUATION,PRELIMINARY,FREQUENCY=10
END_RUN_DATA
$-------------------------------------------------------------------
PROBLEM_DATA
  TIME_COUPLING:          Global, PRESCRIBED
  NUMBER_OF_STEPS:        10
  TIME_STEP:              1.0e-4
  TIME_INTERVAL:          0,1000

  MAXIMUM_NUMBER_GLOBAL:  1
  BLOCK_ITERATION: 1
     1 CHEMIC, TEMPER, NASTIN
  END_BLOCK_ITERATION

  NASTIN_PROBLEM:         ON
  END_NASTIN 
  CHEMIC_PROBLEM:         ON
  END_CHEMIC
  TEMPER_PROBLEM:         ON
  END_TEMPER

  PARALL_SERVICE:         ON
    METHOD:               METIS
    PARTITION_TYPE:       FACES
    OPENMP:
      COLORING: MINCO
    END_OPENMP
  END_PARALL
END_PROBLEM_DATA
$-------------------------------------------------------------------
MPI_IO: ON
  GEOMETRY: OFF $ ON / OFF/  Expor
  RESTART: ON
  POSTPROCESS: ON
  SYNCHRONOUS: ON
END_MPI_IO
$-------------------------------------------------------------------
