{
    "authors": [
        "eduardo.perez@bsc.es"
    ],
    "comparisons": [
        {
            "file": "fluid.ensi.CON03-000001",
            "method": "absolute",
            "tolerance": "1.0e-8"
        },
        {
            "file": "fluid.ensi.CON04-000001",
            "method": "absolute",
            "tolerance": "1.0e-7"
        },
        {
            "file": "fluid.ensi.DRHOD-000001",
            "method": "absolute",
            "tolerance": "1.0e-3"
        },
        {
            "file": "fluid.ensi.VELOC-000001",
            "method": "absolute",
            "tolerance": "1.0e-5"
        },
        {
            "file": "react.ensi.Y19-000001",
            "method": "absolute",
            "tolerance": "1.0e-8"
        },
        {
            "file": "react.ensi.19_07-000001",
            "method": "absolute",
            "tolerance": "1.0e-8"
        },
        {
            "file": "react.ensi.Y06-000001",
            "method": "absolute",
            "tolerance": "1.0e-8"
        },
        {
            "file": "react.ensi.06_07-000001",
            "method": "absolute",
            "tolerance": "1.0e-8"
        },
        {
            "file": "react.ensi.Y12-000001",
            "method": "absolute",
            "tolerance": "1.0e-8"
        },
        {
            "file": "react.ensi.12_07-000001",
            "method": "absolute",
            "tolerance": "1.0e-8"
        },
        {
            "file": "react.ensi.TEMUN-000001",
            "method": "absolute",
            "tolerance": "1.0e-3"
        },
        {
            "file": "fluid.ensi.CON03-000002",
            "method": "absolute",
            "tolerance": "1.0e-8"
        },
        {
            "file": "fluid.ensi.CON04-000002",
            "method": "absolute",
            "tolerance": "1.0e-7"
        },
        {
            "file": "fluid.ensi.DRHOD-000002",
            "method": "absolute",
            "tolerance": "1.0e-3"
        },
        {
            "file": "fluid.ensi.VELOC-000002",
            "method": "absolute",
            "tolerance": "1.0e-5"
        },
        {
            "file": "react.ensi.Y19-000002",
            "method": "absolute",
            "tolerance": "1.0e-8"
        },
        {
            "file": "react.ensi.19_07-000002",
            "method": "absolute",
            "tolerance": "1.0e-8"
        },
        {
            "file": "react.ensi.Y06-000002",
            "method": "absolute",
            "tolerance": "1.0e-8"
        },
        {
            "file": "react.ensi.06_07-000002",
            "method": "absolute",
            "tolerance": "1.0e-8"
        },
        {
            "file": "react.ensi.Y12-000002",
            "method": "absolute",
            "tolerance": "1.0e-8"
        },
        {
            "file": "react.ensi.12_07-000002",
            "method": "absolute",
            "tolerance": "1.0e-8"
        },
        {
            "file": "react.ensi.TEMUN-000002",
            "method": "absolute",
            "tolerance": "1.0e-3"
        }
    ],
    "description": "1D diffusion-convection problem with no chemistry by solving species CMC model transport equations. Nastin-Chemic and Chemic coupled by two instances of Alya.",
    "enabled": true,
    "executions": [
        {
"commands": {
                "alya": "[RUN] [NP] 3 [ALYA] fluid [SEP] [NP] 3 [ALYA] react",
                "postprocess": "[POST] fluid; [POST] react"
            },
            "mpi": 6,
            "openmp": 0
        }
    ],
    "include": [
        "cantera"
    ],
    "modules": [
        "chemic",
        "nastin"
    ],
    "name": "CMC_1D_inert_X0_no_enthalpy_coupling",
    "postprocess": "alya2pos",
    "timeout": "00:02:00"
}
