 0.00000000E+000
 0.99535711E+000
 0.99550480E+000
 0.00000000E+000
 0.00000000E+000
 0.99214613E+000
 0.98506660E+000
 0.00000000E+000
 0.00000000E+000
 0.10000000E+001
 0.10000000E+001
 0.10000000E+001
 0.97218328E+000
 0.93817217E+000
 0.94281773E+000
 0.85187378E+000
 0.97236363E+000
 0.94939265E+000
 0.94958518E+000
 0.97676706E+000
 0.85367247E+000
 0.93864295E+000
 0.95098024E+000
 0.99032476E+000
 0.10000000E+001
 0.10000000E+001
 0.99999999E+000
 0.00000000E+000
 0.00000000E+000
 0.00000000E+000
 0.00000000E+000
 0.10000000E+001
 0.10000000E+001
 0.99999999E+000
 0.99620129E+000
 0.96218558E+000
 0.92725986E+000
 0.84641215E+000
 0.97646792E+000
 0.94483871E+000
 0.93906363E+000
 0.97505228E+000
 0.84862312E+000
 0.93195773E+000
 0.93139177E+000
 0.98415131E+000
 0.10000000E+001
 0.10000000E+001
 0.99999999E+000
 0.00000000E+000
 0.00000000E+000
 0.00000000E+000
 0.00000000E+000
 0.00000000E+000
 0.94758313E+000
 0.94774973E+000
 0.94583128E+000
 0.93888193E+000
 0.00000000E+000
 0.00000000E+000
 0.00000000E+000
 0.00000000E+000
 0.99999999E+000
 0.10000000E+001
 0.99999999E+000
 0.10000000E+001
 0.99999999E+000
 0.99999999E+000
 0.98137581E+000
 0.98875053E+000
 0.94839805E+000
 0.95209907E+000
 0.93771187E+000
 0.93456534E+000
 0.82942029E+000
 0.83109983E+000
 0.94983300E+000
 0.95128880E+000
 0.00000000E+000
 0.00000000E+000
 0.10000000E+001
 0.10000000E+001
 0.10000000E+001
 0.10000000E+001
 0.10000000E+001
 0.10000000E+001
 0.99857252E+000
 0.98813616E+000
 0.96661205E+000
 0.94584391E+000
 0.93871488E+000
 0.94066472E+000
 0.82585375E+000
 0.82449099E+000
 0.94728826E+000
 0.94606457E+000
 0.00000000E+000
 0.00000000E+000
 0.99999999E+000
 0.99999999E+000
 0.10000000E+001
 0.99999999E+000
 0.99999999E+000
 0.10000000E+001
 0.98032249E+000
 0.99162077E+000
 0.94824157E+000
 0.95828123E+000
 0.93770193E+000
 0.93124057E+000
 0.82819277E+000
 0.82911585E+000
 0.94826814E+000
 0.94790086E+000
 0.87842003E+000
 0.87656422E+000
 0.87712256E+000
 0.87214703E+000
 0.94520669E+000
 0.94801774E+000
 0.82993345E+000
 0.82322879E+000
 0.93913102E+000
 0.93418604E+000
 0.95644764E+000
 0.94135781E+000
 0.99098618E+000
 0.98631176E+000
 0.10000000E+001
 0.10000000E+001
 0.10000000E+001
 0.99999999E+000
 0.10000000E+001
 0.99999999E+000
 0.00000000E+000
 0.00000000E+000
 0.00000000E+000
 0.00000000E+000
 0.00000000E+000
 0.00000000E+000
 0.00000000E+000
 0.00000000E+000
 0.00000000E+000
 0.00000000E+000
 0.99999999E+000
 0.99999999E+000
 0.10000000E+001
 0.99999999E+000
 0.10000000E+001
 0.99999999E+000
 0.10000000E+001
 0.99999999E+000
 0.10000000E+001
 0.10000000E+001
 0.10000000E+001
 0.10000000E+001
 0.98001238E+000
 0.98887078E+000
 0.98536225E+000
 0.98563779E+000
 0.94127864E+000
 0.95032878E+000
 0.94447963E+000
 0.94230364E+000
 0.92142447E+000
 0.92299443E+000
 0.92153150E+000
 0.92482621E+000
 0.80413928E+000
 0.80585293E+000
 0.80631099E+000
 0.80202949E+000
 0.91523289E+000
 0.91420034E+000
 0.91432367E+000
 0.91419732E+000
