 0.00000000E+000
 0.73174693E-004
 0.72273441E-004
 0.00000000E+000
 0.00000000E+000
 0.70922949E-004
 0.74124939E-004
 0.00000000E+000
 0.70797580E-004
 0.74889295E-004
 0.92505513E-004
 0.10206356E-003
 0.10349675E-003
 0.99441740E-004
 0.10034518E-003
 0.89904475E-004
 0.97185055E-004
 0.72008202E-004
 0.71337999E-004
 0.96562277E-004
 0.89346181E-004
 0.10088428E-003
 0.10123551E-003
 0.10563272E-003
 0.10176026E-003
 0.91827575E-004
 0.73805320E-004
 0.69705048E-004
 0.00000000E+000
 0.00000000E+000
 0.71562428E-004
 0.75086339E-004
 0.92923226E-004
 0.10253154E-003
 0.10670800E-003
 0.10299227E-003
 0.10045616E-003
 0.88524695E-004
 0.95981480E-004
 0.69860864E-004
 0.71173868E-004
 0.98261184E-004
 0.89986423E-004
 0.99986900E-004
 0.99276786E-004
 0.10516519E-003
 0.10234576E-003
 0.92731108E-004
 0.75086275E-004
 0.70878865E-004
 0.00000000E+000
 0.00000000E+000
 0.00000000E+000
 0.00000000E+000
 0.71848593E-004
 0.70401461E-004
 0.70844751E-004
 0.71445917E-004
 0.00000000E+000
 0.00000000E+000
 0.69905991E-004
 0.69163446E-004
 0.74989511E-004
 0.74461442E-004
 0.93197174E-004
 0.92795434E-004
 0.10221102E-003
 0.10212297E-003
 0.10439348E-003
 0.10533525E-003
 0.10047884E-003
 0.10112597E-003
 0.10004506E-003
 0.10019902E-003
 0.87639209E-004
 0.87448068E-004
 0.94160032E-004
 0.93777631E-004
 0.70737953E-004
 0.70303346E-004
 0.75288866E-004
 0.75354236E-004
 0.93273536E-004
 0.93090113E-004
 0.10257487E-003
 0.10266456E-003
 0.10680451E-003
 0.10565532E-003
 0.10332070E-003
 0.10097617E-003
 0.10151356E-003
 0.10126157E-003
 0.87172994E-004
 0.87644981E-004
 0.93151593E-004
 0.94169039E-004
 0.69473445E-004
 0.69798165E-004
 0.75132741E-004
 0.75254692E-004
 0.92931567E-004
 0.93101023E-004
 0.10212690E-003
 0.10235807E-003
 0.10431763E-003
 0.10587890E-003
 0.10053426E-003
 0.10215294E-003
 0.10024897E-003
 0.10045122E-003
 0.87670437E-004
 0.87392451E-004
 0.94123430E-004
 0.93251637E-004
 0.68423169E-004
 0.67273489E-004
 0.67866510E-004
 0.67724377E-004
 0.93411150E-004
 0.94480921E-004
 0.87603401E-004
 0.87484432E-004
 0.10093314E-003
 0.10033082E-003
 0.10159718E-003
 0.10017055E-003
 0.10558247E-003
 0.10522558E-003
 0.10213930E-003
 0.10241217E-003
 0.92455185E-004
 0.92822766E-004
 0.74126083E-004
 0.74698978E-004
 0.68538970E-004
 0.69215276E-004
 0.00000000E+000
 0.00000000E+000
 0.00000000E+000
 0.00000000E+000
 0.66272346E-004
 0.66566959E-004
 0.65628080E-004
 0.66136010E-004
 0.75318476E-004
 0.75522152E-004
 0.74846438E-004
 0.75289635E-004
 0.92975723E-004
 0.93040198E-004
 0.92678627E-004
 0.92826397E-004
 0.10207145E-003
 0.10227845E-003
 0.10208548E-003
 0.10233045E-003
 0.10431121E-003
 0.10554761E-003
 0.10494506E-003
 0.10514484E-003
 0.99985967E-004
 0.10140787E-003
 0.10043309E-003
 0.10043422E-003
 0.98774858E-004
 0.99620220E-004
 0.99052072E-004
 0.99611062E-004
 0.85119642E-004
 0.85260385E-004
 0.85213685E-004
 0.85204448E-004
 0.89764315E-004
 0.89250761E-004
 0.89451777E-004
 0.89805987E-004
