GiD Post Results File 1.0
 
Result VELOC ALYA  0.30000000E+02 Vector OnNodes
ComponentNames VELOC_X,VELOC_Y,VELOC_Z
Values
          1  0.00000000E+000  0.00000000E+000
          2  0.00000000E+000  0.00000000E+000
          3  0.00000000E+000  0.00000000E+000
          4 -0.70718581E-001 -0.70195565E-001
          5  0.00000000E+000  0.00000000E+000
          6  0.00000000E+000  0.00000000E+000
          7 -0.21753687E+000 -0.10797149E+000
          8 -0.11020352E+000 -0.21789932E+000
          9 -0.33264143E+000 -0.32865395E+000
         10  0.00000000E+000  0.00000000E+000
         11  0.00000000E+000  0.00000000E+000
         12 -0.12279839E+000 -0.40015604E+000
         13 -0.39606003E+000 -0.11858739E+000
         14 -0.37279154E+000 -0.60356758E+000
         15 -0.60583005E+000 -0.36313461E+000
         16  0.00000000E+000  0.00000000E+000
         17  0.00000000E+000  0.00000000E+000
         18 -0.57645306E+000 -0.11314263E+000
         19 -0.11830212E+000 -0.58674992E+000
         20 -0.68455776E+000 -0.67251675E+000
         21 -0.36273591E+000 -0.89084965E+000
         22 -0.88769011E+000 -0.34976286E+000
         23  0.00000000E+000  0.00000000E+000
         24  0.00000000E+000  0.00000000E+000
         25 -0.10113557E+001 -0.65443535E+000
         26 -0.67322809E+000 -0.10010754E+001
         27 -0.74109168E+000 -0.98912828E-001
         28 -0.10342693E+000 -0.75821571E+000
         29 -0.11502377E+001 -0.30869017E+000
         30 -0.32082947E+000 -0.11607006E+001
         31 -0.10038425E+001 -0.98295150E+000
         32 -0.13205763E+001 -0.58320440E+000
         33 -0.60237180E+000 -0.13151144E+001
         34  0.00000000E+000  0.00000000E+000
         35  0.00000000E+000  0.00000000E+000
         36 -0.82678168E-001 -0.90265839E+000
         37 -0.88032367E+000 -0.80263948E-001
         38 -0.13761822E+001 -0.25259030E+000
         39 -0.25987631E+000 -0.13931942E+001
         40 -0.13211070E+001 -0.88339473E+000
         41 -0.90714481E+000 -0.13016542E+001
         42 -0.15904781E+001 -0.48126110E+000
         43 -0.49420936E+000 -0.15907485E+001
         44  0.00000000E+000  0.00000000E+000
         45  0.00000000E+000  0.00000000E+000
         46 -0.98923421E+000 -0.59594336E-001
         47 -0.59025986E-001 -0.10133804E+001
         48 -0.12038124E+001 -0.11785142E+001
         49 -0.16015758E+001 -0.73447932E+000
         50 -0.75251355E+000 -0.15858307E+001
         51 -0.18870392E+000 -0.15759302E+001
         52 -0.15554815E+001 -0.18889341E+000
         53 -0.18073273E+001 -0.36254294E+000
         54 -0.36464616E+000 -0.18120341E+001
         55 -0.10079296E+001 -0.14453494E+001
         56 -0.14694480E+001 -0.98645976E+000
         57  0.00000000E+000  0.00000000E+000
         58  0.00000000E+000  0.00000000E+000
         59 -0.10655267E+001 -0.38111821E-001
         60 -0.18295601E+001 -0.55706576E+000
         61 -0.34411764E-001 -0.10872302E+001
         62 -0.56294367E+000 -0.18181590E+001
         63 -0.16826557E+001 -0.12165792E+000
         64 -0.11331434E+000 -0.17020474E+001
         65 -0.12398928E+001 -0.12172496E+001
         66 -0.19629323E+001 -0.23524144E+000
         67 -0.22489803E+000 -0.19692109E+001
         68 -0.76285167E+000 -0.16670388E+001
         69 -0.16880161E+001 -0.75295391E+000
         70 -0.19951290E+001 -0.36414078E+000
         71 -0.35511777E+000 -0.19872743E+001
         72  0.00000000E+000  0.00000000E+000
         73  0.00000000E+000  0.00000000E+000
         74 -0.10070866E-001 -0.11234349E+001
         75 -0.11082388E+001 -0.16357231E-001
         76 -0.17549493E+001 -0.52964142E-001
         77 -0.14334216E+001 -0.93477511E+000
         78 -0.94762111E+000 -0.14119197E+001
         79 -0.37702933E-001 -0.17686573E+001
         80 -0.18489023E+001 -0.49587944E+000
         81 -0.49034845E+000 -0.18319350E+001
         82 -0.82736283E-001 -0.20572091E+001
         83 -0.20527934E+001 -0.10400848E+000
         84 -0.14097964E+000 -0.20865202E+001
         85 -0.20925026E+001 -0.16364486E+000
         86 -0.11045019E+001 -0.10906466E+001
         87  0.00000000E+000  0.00000000E+000
         88  0.00000000E+000  0.00000000E+000
         89 -0.15782085E+001 -0.62035527E+000
         90 -0.61870500E+000 -0.15597056E+001
         91 -0.11170500E+001  0.54420856E-002
         92  0.13244078E-001 -0.11227701E+001
         93 -0.17712369E+001  0.16087034E-001
         94  0.35537761E-001 -0.17756664E+001
         95 -0.20640502E+000 -0.19326299E+001
         96 -0.19456484E+001 -0.22677869E+000
         97 -0.20748999E+001  0.28350849E-001
         98  0.56519172E-001 -0.20744777E+001
         99 -0.12243732E+001 -0.72949728E+000
        100 -0.73059853E+000 -0.12116265E+001
        101 -0.21189253E+001  0.39239751E-001
        102  0.70937714E-001 -0.21129566E+001
        103 -0.16677318E+001 -0.28906731E+000
        104 -0.27265193E+000 -0.16532917E+001
        105  0.00000000E+000  0.00000000E+000
        106  0.00000000E+000  0.00000000E+000
        107  0.35090996E-001 -0.10869905E+001
        108 -0.10920099E+001  0.27125336E-001
        109 -0.19749942E+001  0.46414033E-001
        110  0.10472426E+000 -0.17249515E+001
        111 -0.17315294E+001  0.84642468E-001
        112  0.77168242E-001 -0.19651993E+001
        113 -0.81883817E+000 -0.81687255E+000
        114 -0.33395783E+000 -0.12912301E+001
        115  0.18914139E+000 -0.20221509E+001
        116 -0.13012316E+001 -0.34669307E+000
        117 -0.20291216E+001  0.15957625E+000
        118 -0.16985103E+001  0.48348119E-001
        119  0.75742536E-001 -0.16882953E+001
        120  0.27431108E+000 -0.20666620E+001
        121 -0.20740335E+001  0.24024901E+000
        122  0.00000000E+000  0.00000000E+000
        123  0.00000000E+000  0.00000000E+000
        124 -0.38563964E+000 -0.87740916E+000
        125 -0.10335772E+001  0.48411060E-001
        126 -0.87846829E+000 -0.39616062E+000
        127  0.55183264E-001 -0.10184855E+001
        128  0.35123699E+000 -0.19286989E+001
        129 -0.19362821E+001  0.31708949E+000
        130 -0.16369599E+001  0.15152834E+000
        131  0.16862140E+000 -0.16198707E+001
        132  0.68199733E-001 -0.13251348E+001
        133 -0.13316782E+001  0.44453137E-001
        134 -0.19171159E+001  0.28691169E+000
        135  0.31216946E+000 -0.19035675E+001
        136 -0.16695826E+001  0.38288028E+000
        137  0.41464482E+000 -0.16629666E+001
        138 -0.19596904E+001  0.43452338E+000
        139  0.46384298E+000 -0.19503548E+001
        140 -0.42424346E+000 -0.43421581E+000
        141  0.56321737E-001 -0.90729074E+000
        142 -0.90648412E+000  0.35095674E-001
        143 -0.18312399E+001  0.57802976E+000
        144  0.00000000E+000  0.00000000E+000
        145  0.00000000E+000  0.00000000E+000
        146  0.60784519E+000 -0.18249318E+001
        147 -0.94291160E+000  0.68737390E-001
        148  0.73224064E-001 -0.92016524E+000
        149 -0.13145018E+001  0.43273249E+000
        150  0.46172318E+000 -0.13110750E+001
        151 -0.14901659E+001  0.21476682E+000
        152  0.22594715E+000 -0.14651246E+001
        153 -0.17426752E+001  0.40621900E+000
        154  0.42251810E+000 -0.17241643E+001
        155 -0.15822629E+001  0.70497275E+000
        156  0.73342533E+000 -0.15781131E+001
        157 -0.44747050E+000  0.21493465E-001
        158  0.41722034E-001 -0.45790024E+000
        159 -0.17802428E+001  0.61530728E+000
        160  0.63398882E+000 -0.17693559E+001
        161  0.49115850E+000 -0.90402541E+000
        162 -0.90154029E+000  0.46390291E+000
        163 -0.12504298E+001  0.80651100E+000
        164  0.83356668E+000 -0.12489117E+001
        165 -0.16641328E+001  0.81972179E+000
        166  0.83861348E+000 -0.16585023E+001
        167  0.00000000E+000  0.00000000E+000
        168  0.00000000E+000  0.00000000E+000
        169 -0.82238785E+000  0.87104845E-001
        170  0.88701523E-001 -0.79561093E+000
        171  0.27477476E+000 -0.12670130E+001
        172  0.25714654E-001  0.55002863E-002
        173 -0.12960155E+001  0.27111703E+000
        174  0.50251472E+000 -0.46474843E+000
        175 -0.45400360E+000  0.47550759E+000
        176  0.51593093E+000 -0.14917798E+001
        177 -0.14401974E+001  0.10024978E+001
        178  0.10207949E+001 -0.14372489E+001
        179 -0.15124563E+001  0.51116018E+000
        180  0.90388299E+000 -0.86664297E+000
        181 -0.86372079E+000  0.87700212E+000
        182  0.77749565E+000 -0.15319141E+001
        183 -0.15431480E+001  0.77276866E+000
        184  0.11697323E+001 -0.11408657E+001
        185 -0.11421048E+001  0.11514213E+001
        186  0.10329371E+001 -0.14371610E+001
        187  0.49592242E+000 -0.10677914E-001
        188  0.93734690E-002  0.46816905E+000
        189 -0.14422588E+001  0.10288300E+001
        190 -0.44333280E+000  0.91353287E+000
        191  0.94183700E+000 -0.45310327E+000
        192  0.00000000E+000  0.00000000E+000
        193  0.00000000E+000  0.00000000E+000
        194 -0.67633704E+000  0.10189654E+000
        195  0.10061154E+000 -0.64956295E+000
        196 -0.10626480E+001  0.31558560E+000
        197  0.31176385E+000 -0.10341535E+001
        198  0.12627453E+001 -0.12469593E+001
        199 -0.12497272E+001  0.12589046E+001
        200  0.12782255E+001 -0.79598573E+000
        201 -0.79444556E+000  0.12583433E+001
        202 -0.12370323E+001  0.59237887E+000
        203  0.58569844E+000 -0.12174039E+001
        204 -0.12599169E+001  0.89286712E+000
        205  0.88368015E+000 -0.12499037E+001
        206  0.47202800E+000  0.44365566E+000
        207 -0.63035338E-002  0.91545672E+000
        208  0.94628824E+000 -0.24830914E-001
        209 -0.99432093E+000  0.14482157E+001
        210  0.14530362E+001 -0.99189373E+000
        211 -0.41558786E+000  0.13185302E+001
        212 -0.11767520E+001  0.11867567E+001
        213  0.11759164E+001 -0.11724361E+001
        214  0.13417767E+001 -0.42242019E+000
        215  0.00000000E+000  0.00000000E+000
        216  0.00000000E+000  0.00000000E+000
        217 -0.51204370E+000  0.11064704E+000
        218  0.10707821E+000 -0.48885425E+000
        219 -0.80280258E+000  0.34085074E+000
        220  0.15943024E+001 -0.69507469E+000
        221  0.33117375E+000 -0.77872830E+000
        222 -0.69658573E+000  0.15866808E+001
        223  0.14402248E+001 -0.10174699E+001
        224 -0.10205513E+001  0.14514690E+001
        225  0.43213459E+000  0.88398355E+000
        226  0.91733284E+000  0.40454984E+000
        227 -0.93219893E+000  0.63663031E+000
        228  0.62112380E+000 -0.91637921E+000
        229  0.13580142E+001 -0.35088336E-001
        230 -0.20222411E-001  0.13301016E+001
        231  0.93645271E+000 -0.93987916E+000
        232 -0.94730245E+000  0.95622153E+000
        233 -0.81454772E+000  0.16707053E+001
        234  0.16606167E+001 -0.81018912E+000
        235  0.16804288E+001 -0.37360733E+000
        236 -0.37154711E+000  0.16680825E+001
        237  0.12460302E+001 -0.88053856E+000
        238 -0.88364924E+000  0.12682357E+001
        239  0.85636896E+000  0.82184400E+000
        240  0.18260375E+001 -0.56953225E+000
        241  0.00000000E+000  0.00000000E+000
        242 -0.57484606E+000  0.18332076E+001
        243  0.00000000E+000  0.00000000E+000
        244 -0.34105815E+000  0.10972095E+000
        245  0.10486082E+000 -0.32390297E+000
        246  0.37838037E+000  0.12935889E+001
        247  0.13264180E+001  0.35391295E+000
        248  0.15265415E+001 -0.76340420E+000
        249 -0.76667508E+000  0.15495834E+001
        250 -0.53537507E+000  0.33658339E+000
        251  0.32373472E+000 -0.51823925E+000
        252  0.17080024E+001 -0.40197306E-001
        253 -0.31094759E-001  0.16894177E+001
        254 -0.62042404E+000  0.62585671E+000
        255  0.60589034E+000 -0.60997597E+000
        256 -0.62864546E+000  0.93696836E+000
        257  0.91227013E+000 -0.62443610E+000
        258  0.17611631E+001 -0.60778577E+000
        259 -0.61374877E+000  0.17837279E+001
        260 -0.31287045E+000  0.19317566E+001
        261  0.19293121E+001 -0.30935533E+000
        262  0.12483149E+001  0.73305358E+000
        263  0.76631550E+000  0.12116401E+001
        264 -0.58517167E+000  0.12398984E+001
        265  0.12126760E+001 -0.58352743E+000
        266  0.16759243E+001  0.29508121E+000
        267  0.31393673E+000  0.16504489E+001
        268  0.19383177E+001 -0.42802473E+000
        269 -0.43643522E+000  0.19592047E+001
        270  0.00000000E+000  0.00000000E+000
        271  0.00000000E+000  0.00000000E+000
        272 -0.37493900E-001  0.19624404E+001
        273  0.14845639E+001 -0.50471783E+000
        274 -0.18087819E+000  0.94015453E-001
        275 -0.50760242E+000  0.15129981E+001
        276  0.19663435E+001 -0.39731081E-001
        277  0.88973324E-001 -0.17077457E+000
        278  0.27578645E+000 -0.27750592E+000
        279 -0.28700677E+000  0.28879166E+000
        280 -0.33224648E+000  0.53644618E+000
        281  0.51697307E+000 -0.32712167E+000
        282  0.20505440E+001 -0.23440963E+000
        283 -0.24259004E+000  0.20684498E+001
        284  0.11271060E+001  0.10888929E+001
        285 -0.40745622E+000  0.17410754E+001
        286  0.17119074E+001 -0.40123334E+000
        287  0.15853266E+001  0.62281533E+000
        288  0.77844813E+000 -0.33387283E+000
        289  0.65191270E+000  0.15534773E+001
        290 -0.33533374E+000  0.80162249E+000
        291  0.24314306E+000  0.19242154E+001
        292  0.19356063E+001  0.23160246E+000
        293 -0.31114692E+000  0.10586372E+001
        294  0.10337799E+001 -0.31074128E+000
        295  0.18839108E+001 -0.28268117E+000
        296 -0.29199881E+000  0.19136666E+001
        297  0.20935797E+001 -0.34188154E-001
        298 -0.38133905E-001  0.21069971E+001
        299  0.12638260E+001 -0.26774986E+000
        300 -0.26963171E+000  0.12898123E+001
        301  0.00000000E+000  0.00000000E+000
        302  0.00000000E+000  0.00000000E+000
        303 -0.56669170E-001  0.56903888E-001
        304  0.52913893E-001 -0.53141849E-001
        305  0.17093189E+000 -0.89945776E-001
        306 -0.93028427E-001  0.18074702E+000
        307  0.14397889E+001  0.93203176E+000
        308  0.96867232E+000  0.14033451E+001
        309  0.18379737E+001  0.49760433E+000
        310  0.52004443E+000  0.18187634E+001
        311 -0.16587333E+000  0.20237164E+001
        312  0.32549469E+000 -0.10643687E+000
        313 -0.10782533E+000  0.33930000E+000
        314  0.19937878E+001 -0.15575545E+000
        315 -0.21693832E+000  0.14832309E+001
        316  0.14554724E+001 -0.21224720E+000
        317  0.49221933E+000 -0.10832155E+000
        318  0.20657343E+001  0.16731524E+000
        319 -0.10844183E+000  0.50762136E+000
        320  0.17147642E+000  0.20730575E+001
        321  0.65355110E+000 -0.10035540E+000
        322 -0.10028041E+000  0.66924111E+000
        323  0.16002478E+001 -0.14939874E+000
        324 -0.15668169E+000  0.16308341E+001
        325 -0.32419439E-001  0.20667345E+001
        326  0.20377444E+001 -0.24970852E-001
        327  0.12458283E+001  0.12076677E+001
        328  0.16769017E+001  0.75004376E+000
        329  0.78189628E+000  0.16506377E+001
        330 -0.86793820E-001  0.81376630E+000
        331  0.79760485E+000 -0.86084235E-001
        332  0.00000000E+000  0.00000000E+000
        333  0.19676159E+001  0.36543419E+000
        334  0.00000000E+000  0.00000000E+000
        335  0.37999222E+000  0.19674648E+001
        336  0.00000000E+000  0.00000000E+000
        337  0.00000000E+000  0.00000000E+000
        338  0.00000000E+000  0.00000000E+000
        339  0.00000000E+000  0.00000000E+000
        340  0.16930733E+001 -0.82667811E-001
        341 -0.90985863E-001  0.17270824E+001
        342  0.00000000E+000  0.00000000E+000
        343  0.00000000E+000  0.00000000E+000
        344  0.10527708E+000  0.20404079E+001
        345 -0.69979971E-001  0.93462972E+000
        346  0.20142559E+001  0.10656043E+000
        347  0.91672737E+000 -0.67996853E-001
        348  0.00000000E+000  0.00000000E+000
        349  0.00000000E+000  0.00000000E+000
        350  0.10136210E+001  0.14276831E+001
        351  0.14589808E+001  0.97728975E+000
        352  0.17312501E+001 -0.14259551E-001
        353 -0.21271968E-001  0.17681700E+001
        354  0.10062904E+001 -0.47778957E-001
        355  0.00000000E+000  0.00000000E+000
        356  0.18022646E+001  0.55467979E+000
        357  0.57922381E+000  0.17939625E+001
        358  0.00000000E+000  0.00000000E+000
        359 -0.50924544E-001  0.10275107E+001
        360  0.24351074E+000  0.19446256E+001
        361  0.19237052E+001  0.23626170E+000
        362  0.00000000E+000  0.00000000E+000
        363  0.00000000E+000  0.00000000E+000
        364 -0.30200599E-001  0.10893580E+001
        365  0.10637331E+001 -0.26512159E-001
        366  0.51145221E-001  0.17517112E+001
        367  0.17137349E+001  0.54439091E-001
        368  0.00000000E+000  0.00000000E+000
        369  0.00000000E+000  0.00000000E+000
        370  0.11948411E+001  0.11617092E+001
        371  0.15757343E+001  0.72695718E+000
        372  0.75788995E+000  0.15598065E+001
        373  0.37715901E+000  0.17818731E+001
        374  0.17684476E+001  0.36106842E+000
        375  0.10878295E+001 -0.48394858E-002
        376 -0.81514652E-002  0.11178742E+001
        377  0.00000000E+000  0.00000000E+000
        378  0.00000000E+000  0.00000000E+000
        379  0.16407452E+001  0.12238265E+000
        380  0.12457451E+000  0.16768178E+001
        381  0.12981464E+001  0.86939054E+000
        382  0.00000000E+000  0.00000000E+000
        383  0.00000000E+000  0.00000000E+000
        384  0.90036124E+000  0.12766552E+001
        385  0.14905771E-001  0.11113387E+001
        386  0.10781691E+001  0.16882463E-001
        387  0.15533736E+001  0.47616105E+000
        388  0.49886486E+000  0.15579678E+001
        389  0.15137531E+001  0.18830363E+000
        390  0.19650686E+000  0.15445188E+001
        391  0.00000000E+000  0.00000000E+000
        392  0.00000000E+000  0.00000000E+000
        393  0.10348557E+001  0.38424503E-001
        394  0.38519706E-001  0.10686917E+001
        395  0.98519570E+000  0.96171080E+000
        396  0.59810183E+000  0.12831204E+001
        397  0.12870359E+001  0.57335228E+000
        398  0.13359466E+001  0.24999569E+000
        399  0.26314745E+000  0.13585022E+001
        400  0.00000000E+000  0.00000000E+000
        401  0.00000000E+000  0.00000000E+000
        402  0.61956897E-001  0.98983791E+000
        403  0.95845741E+000  0.59497691E-001
        404  0.00000000E+000  0.00000000E+000
        405  0.00000000E+000  0.00000000E+000
        406  0.66002228E+000  0.97329680E+000
        407  0.98337683E+000  0.63904862E+000
        408  0.11132672E+001  0.30335697E+000
        409  0.31884829E+000  0.11261901E+001
        410  0.84039343E-001  0.87616575E+000
        411  0.85026542E+000  0.79509734E-001
        412  0.00000000E+000  0.00000000E+000
        413  0.00000000E+000  0.00000000E+000
        414  0.66399958E+000  0.65182057E+000
        415  0.85613968E+000  0.34109510E+000
        416  0.35534954E+000  0.86017716E+000
        417  0.71296203E+000  0.97224237E-001
        418  0.10293482E+000  0.73131133E+000
        419  0.00000000E+000  0.00000000E+000
        420  0.00000000E+000  0.00000000E+000
        421  0.58195561E+000  0.35106413E+000
        422  0.36074413E+000  0.58004277E+000
        423  0.11585683E+000  0.56223992E+000
        424  0.55184963E+000  0.11027084E+000
        425  0.00000000E+000  0.00000000E+000
        426  0.00000000E+000  0.00000000E+000
        427  0.31814989E+000  0.31444533E+000
        428  0.11860360E+000  0.38077180E+000
        429  0.37684244E+000  0.11444526E+000
        430  0.00000000E+000  0.00000000E+000
        431  0.00000000E+000  0.00000000E+000
        432  0.10498883E+000  0.20574124E+000
        433  0.20541481E+000  0.10293248E+000
        434  0.00000000E+000  0.00000000E+000
        435  0.00000000E+000  0.00000000E+000
        436  0.66211305E-001  0.65735952E-001
        437  0.00000000E+000  0.00000000E+000
        438  0.00000000E+000  0.00000000E+000
        439  0.00000000E+000  0.00000000E+000
        440  0.00000000E+000  0.00000000E+000
        441  0.00000000E+000  0.00000000E+000
End values

Result PRESS ALYA  0.30000000E+02 Scalar OnNodes
ComponentNames PRESS
Values
          1  0.00000000E+000
          2  0.17483120E+002
          3  0.51029269E+000
          4  0.17097153E+002
          5  0.27193640E+001
          6  0.33222345E+002
          7  0.18155258E+002
          8  0.32202575E+002
          9  0.32379456E+002
         10  0.70582358E+001
         11  0.46711943E+002
         12  0.45376225E+002
         13  0.21030763E+002
         14  0.44922865E+002
         15  0.34116129E+002
         16  0.57999346E+002
         17  0.13409866E+002
         18  0.25701352E+002
         19  0.56588304E+002
         20  0.45768072E+002
         21  0.55751420E+002
         22  0.37398437E+002
         23  0.67399795E+002
         24  0.21442501E+002
         25  0.47914390E+002
         26  0.55939126E+002
         27  0.31932652E+002
         28  0.66078830E+002
         29  0.42050870E+002
         30  0.65068589E+002
         31  0.57183055E+002
         32  0.51230582E+002
         33  0.64810032E+002
         34  0.75334903E+002
         35  0.30780363E+002
         36  0.74212519E+002
         37  0.39421516E+002
         38  0.47841414E+002
         39  0.73193429E+002
         40  0.59395756E+002
         41  0.65364188E+002
         42  0.55543510E+002
         43  0.72668310E+002
         44  0.82249803E+002
         45  0.41070188E+002
         46  0.47863573E+002
         47  0.81392735E+002
         48  0.66687221E+002
         49  0.62457594E+002
         50  0.72718518E+002
         51  0.80486737E+002
         52  0.54527846E+002
         53  0.60669788E+002
         54  0.79840358E+002
         55  0.73340837E+002
         56  0.68709571E+002
         57  0.51999467E+002
         58  0.88569640E+002
         59  0.56976182E+002
         60  0.66239274E+002
         61  0.88014528E+002
         62  0.79542615E+002
         63  0.61874933E+002
         64  0.87307113E+002
         65  0.74512008E+002
         66  0.66424726E+002
         67  0.86651428E+002
         68  0.79624932E+002
         69  0.71352134E+002
         70  0.70605073E+002
         71  0.86131069E+002
         72  0.63292298E+002
         73  0.94678772E+002
         74  0.94440742E+002
         75  0.66499746E+002
         76  0.69656658E+002
         77  0.76199182E+002
         78  0.80105763E+002
         79  0.93986870E+002
         80  0.74525478E+002
         81  0.85804414E+002
         82  0.93402662E+002
         83  0.72622514E+002
         84  0.92754628E+002
         85  0.75410699E+002
         86  0.80994396E+002
         87  0.10091348E+003
         88  0.74696562E+002
         89  0.78356214E+002
         90  0.85726267E+002
         91  0.76189738E+002
         92  0.10099221E+003
         93  0.77651616E+002
         94  0.10082088E+003
         95  0.92119928E+002
         96  0.78126000E+002
         97  0.79072765E+002
         98  0.10035966E+003
         99  0.82284786E+002
        100  0.85943907E+002
        101  0.80499950E+002
        102  0.99648865E+002
        103  0.80918566E+002
        104  0.91583962E+002
        105  0.10756329E+003
        106  0.85969160E+002
        107  0.10794683E+003
        108  0.85806007E+002
        109  0.82032474E+002
        110  0.10806385E+003
        111  0.85636144E+002
        112  0.98776811E+002
        113  0.86488253E+002
        114  0.91227847E+002
        115  0.10774882E+003
        116  0.83949524E+002
        117  0.85576004E+002
        118  0.83799722E+002
        119  0.97853785E+002
        120  0.10701002E+003
        121  0.85701466E+002
        122  0.11487791E+003
        123  0.96862872E+002
        124  0.91116554E+002
        125  0.95103008E+002
        126  0.87366992E+002
        127  0.11554441E+003
        128  0.10594070E+003
        129  0.86103535E+002
        130  0.93378025E+002
        131  0.11593304E+003
        132  0.96990644E+002
        133  0.85936093E+002
        134  0.91919848E+002
        135  0.11575867E+003
        136  0.86889174E+002
        137  0.10467073E+003
        138  0.90826418E+002
        139  0.11499564E+003
        140  0.91290983E+002
        141  0.96283580E+002
        142  0.88560705E+002
        143  0.90176292E+002
        144  0.12307771E+003
        145  0.10711713E+003
        146  0.11373768E+003
        147  0.10382343E+003
        148  0.12399466E+003
        149  0.88165176E+002
        150  0.10333674E+003
        151  0.10063297E+003
        152  0.12461404E+003
        153  0.97877489E+002
        154  0.12454431E+003
        155  0.90051642E+002
        156  0.11212969E+003
        157  0.91763758E+002
        158  0.95804974E+002
        159  0.95668221E+002
        160  0.12372826E+003
        161  0.10206335E+003
        162  0.90021289E+002
        163  0.90530323E+002
        164  0.11033018E+003
        165  0.94066745E+002
        166  0.12225761E+003
        167  0.13236546E+003
        168  0.11645471E+003
        169  0.11169740E+003
        170  0.13348628E+003
        171  0.13426760E+003
        172  0.95598831E+002
        173  0.10714598E+003
        174  0.10095253E+003
        175  0.92517816E+002
        176  0.13423337E+003
        177  0.93127901E+002
        178  0.12028838E+003
        179  0.10321033E+003
        180  0.10848935E+003
        181  0.91671980E+002
        182  0.13330120E+003
        183  0.10000582E+003
        184  0.11799722E+003
        185  0.92898979E+002
        186  0.13155984E+003
        187  0.10007834E+003
        188  0.95678133E+002
        189  0.97573326E+002
        190  0.93506652E+002
        191  0.10673695E+003
        192  0.14293609E+003
        193  0.12458690E+003
        194  0.11845003E+003
        195  0.14419349E+003
        196  0.11266007E+003
        197  0.14503500E+003
        198  0.12917300E+003
        199  0.95938295E+002
        200  0.11555702E+003
        201  0.93408417E+002
        202  0.10767692E+003
        203  0.14493190E+003
        204  0.10361247E+003
        205  0.14378548E+003
        206  0.99485134E+002
        207  0.96027522E+002
        208  0.10517623E+003
        209  0.95115775E+002
        210  0.12633192E+003
        211  0.94655239E+002
        212  0.10048537E+003
        213  0.14168092E+003
        214  0.11312327E+003
        215  0.15497825E+003
        216  0.13123121E+003
        217  0.12382137E+003
        218  0.15627459E+003
        219  0.11693573E+003
        220  0.12322918E+003
        221  0.15703812E+003
        222  0.95101539E+002
        223  0.13878642E+003
        224  0.98290690E+002
        225  0.99187492E+002
        226  0.10388174E+003
        227  0.11105098E+003
        228  0.15672803E+003
        229  0.11082718E+003
        230  0.96602015E+002
        231  0.15523664E+003
        232  0.10627261E+003
        233  0.97009765E+002
        234  0.13530453E+003
        235  0.12004381E+003
        236  0.95862524E+002
        237  0.15264350E+003
        238  0.10259911E+003
        239  0.10289904E+003
        240  0.13144462E+003
        241  0.13614918E+003
        242  0.96604156E+002
        243  0.16865573E+003
        244  0.12760560E+003
        245  0.16985219E+003
        246  0.99171384E+002
        247  0.10877287E+003
        248  0.14911844E+003
        249  0.99995497E+002
        250  0.11978591E+003
        251  0.17036760E+003
        252  0.11693339E+003
        253  0.97330084E+002
        254  0.11315223E+003
        255  0.16968885E+003
        256  0.10781082E+003
        257  0.16769711E+003
        258  0.14487265E+003
        259  0.98408367E+002
        260  0.97007506E+002
        261  0.12740683E+003
        262  0.10703689E+003
        263  0.10224567E+003
        264  0.10374544E+003
        265  0.16446241E+003
        266  0.11403077E+003
        267  0.99396388E+002
        268  0.14012989E+003
        269  0.97763659E+002
        270  0.13921778E+003
        271  0.18404749E+003
        272  0.98119245E+002
        273  0.16015443E+003
        274  0.12972150E+003
        275  0.10089222E+003
        276  0.12337329E+003
        277  0.18495760E+003
        278  0.18504860E+003
        279  0.12113312E+003
        280  0.11389830E+003
        281  0.18383833E+003
        282  0.13510915E+003
        283  0.97960588E+002
        284  0.10566939E+003
        285  0.99162127E+002
        286  0.15499208E+003
        287  0.11144349E+003
        288  0.18118129E+003
        289  0.10191369E+003
        290  0.10814232E+003
        291  0.99800831E+002
        292  0.11950451E+003
        293  0.10383986E+003
        294  0.17713455E+003
        295  0.14921252E+003
        296  0.98444236E+002
        297  0.13001526E+003
        298  0.98866043E+002
        299  0.17186967E+003
        300  0.10089752E+003
        301  0.20100001E+003
        302  0.14056836E+003
        303  0.13032420E+003
        304  0.20142288E+003
        305  0.20096175E+003
        306  0.12110242E+003
        307  0.10925516E+003
        308  0.10469661E+003
        309  0.11593885E+003
        310  0.10187460E+003
        311  0.98602663E+002
        312  0.19908566E+003
        313  0.11339915E+003
        314  0.14305219E+003
        315  0.99188497E+002
        316  0.16561655E+003
        317  0.19560432E+003
        318  0.12503500E+003
        319  0.10737413E+003
        320  0.10031065E+003
        321  0.19057020E+003
        322  0.10298575E+003
        323  0.15862751E+003
        324  0.98564249E+002
        325  0.99471780E+002
        326  0.13673677E+003
        327  0.10752813E+003
        328  0.11279422E+003
        329  0.10412566E+003
        330  0.10010199E+003
        331  0.18417010E+003
        332  0.14080146E+003
        333  0.12033706E+003
        334  0.21887967E+003
        335  0.10208710E+003
        336  0.12991330E+003
        337  0.21875675E+003
        338  0.12017028E+003
        339  0.21768817E+003
        340  0.15115620E+003
        341  0.98854652E+002
        342  0.11217604E+003
        343  0.21500541E+003
        344  0.10085189E+003
        345  0.98555439E+002
        346  0.13047757E+003
        347  0.17665378E+003
        348  0.10605961E+003
        349  0.21052714E+003
        350  0.10630788E+003
        351  0.11017090E+003
        352  0.14344732E+003
        353  0.99863469E+002
        354  0.16829261E+003
        355  0.20434361E+003
        356  0.11607415E+003
        357  0.10395147E+003
        358  0.10172386E+003
        359  0.98162143E+002
        360  0.10250666E+003
        361  0.12447226E+003
        362  0.98991187E+002
        363  0.19667463E+003
        364  0.98722815E+002
        365  0.15935728E+003
        366  0.10136289E+003
        367  0.13573379E+003
        368  0.97661310E+002
        369  0.18779490E+003
        370  0.10815567E+003
        371  0.11238626E+003
        372  0.10562902E+003
        373  0.10416368E+003
        374  0.11890805E+003
        375  0.15010816E+003
        376  0.10001672E+003
        377  0.97528067E+002
        378  0.17799291E+003
        379  0.12823915E+003
        380  0.10308944E+003
        381  0.10940426E+003
        382  0.98377135E+002
        383  0.16755030E+003
        384  0.10682626E+003
        385  0.10179383E+003
        386  0.14079434E+003
        387  0.11396584E+003
        388  0.10551967E+003
        389  0.12118277E+003
        390  0.10474311E+003
        391  0.99976615E+002
        392  0.15673435E+003
        393  0.13165845E+003
        394  0.10376842E+003
        395  0.10725237E+003
        396  0.10625283E+003
        397  0.10982330E+003
        398  0.11478578E+003
        399  0.10599161E+003
        400  0.14579935E+003
        401  0.10206641E+003
        402  0.10561596E+003
        403  0.12294511E+003
        404  0.10434942E+003
        405  0.13499426E+003
        406  0.10604546E+003
        407  0.10665464E+003
        408  0.10927475E+003
        409  0.10648253E+003
        410  0.10697573E+003
        411  0.11491021E+003
        412  0.12457429E+003
        413  0.10648636E+003
        414  0.10462183E+003
        415  0.10487864E+003
        416  0.10586740E+003
        417  0.10782724E+003
        418  0.10746167E+003
        419  0.10809620E+003
        420  0.11481412E+003
        421  0.10181114E+003
        422  0.10384393E+003
        423  0.10668671E+003
        424  0.10198427E+003
        425  0.10876474E+003
        426  0.10601868E+003
        427  0.10022528E+003
        428  0.10430863E+003
        429  0.97659353E+002
        430  0.98524843E+002
        431  0.10806608E+003
        432  0.10011276E+003
        433  0.95052793E+002
        434  0.10560582E+003
        435  0.92680247E+002
        436  0.94148711E+002
        437  0.10110217E+003
        438  0.88774252E+002
        439  0.86867035E+002
        440  0.94543885E+002
        441  0.86466578E+002
End values

Result TEMPE ALYA  0.30000000E+02 Scalar OnNodes
ComponentNames TEMPE
Values
          1  0.24000000E+003
          2  0.24000000E+003
          3  0.27582828E+003
          4  0.27585893E+003
          5  0.31152785E+003
          6  0.24000000E+003
          7  0.31161579E+003
          8  0.27585046E+003
          9  0.31163538E+003
         10  0.34690687E+003
         11  0.24000000E+003
         12  0.27568825E+003
         13  0.34707139E+003
         14  0.31133738E+003
         15  0.34715193E+003
         16  0.24000000E+003
         17  0.38172403E+003
         18  0.38196707E+003
         19  0.27531242E+003
         20  0.34674728E+003
         21  0.31060086E+003
         22  0.38211799E+003
         23  0.24000000E+003
         24  0.41573493E+003
         25  0.38162251E+003
         26  0.34567155E+003
         27  0.41604380E+003
         28  0.27470630E+003
         29  0.41625026E+003
         30  0.30939449E+003
         31  0.38022786E+003
         32  0.41566251E+003
         33  0.34387927E+003
         34  0.24000000E+003
         35  0.44873191E+003
         36  0.27388173E+003
         37  0.44908457E+003
         38  0.44931422E+003
         39  0.30774451E+003
         40  0.41396455E+003
         41  0.37787354E+003
         42  0.44861907E+003
         43  0.34141291E+003
         44  0.24000000E+003
         45  0.48056872E+003
         46  0.48093906E+003
         47  0.27286828E+003
         48  0.41108058E+003
         49  0.44662958E+003
         50  0.37461812E+003
         51  0.30571224E+003
         52  0.48115096E+003
         53  0.48032648E+003
         54  0.33836768E+003
         55  0.40708367E+003
         56  0.44325617E+003
         57  0.51117088E+003
         58  0.24000000E+003
         59  0.51153298E+003
         60  0.47805677E+003
         61  0.27170600E+003
         62  0.37059091E+003
         63  0.51168571E+003
         64  0.30337942E+003
         65  0.43858439E+003
         66  0.51071031E+003
         67  0.33486883E+003
         68  0.40213528E+003
         69  0.47424218E+003
         70  0.50817542E+003
         71  0.36596099E+003
         72  0.54053507E+003
         73  0.24000000E+003
         74  0.27044073E+003
         75  0.54086600E+003
         76  0.54092354E+003
         77  0.46897891E+003
         78  0.43280427E+003
         79  0.30083893E+003
         80  0.50397661E+003
         81  0.39644629E+003
         82  0.33105770E+003
         83  0.53978174E+003
         84  0.36091815E+003
         85  0.53700394E+003
         86  0.46248110E+003
         87  0.24000000E+003
         88  0.56872144E+003
         89  0.49821950E+003
         90  0.42616436E+003
         91  0.56900276E+003
         92  0.26912125E+003
         93  0.56893787E+003
         94  0.29818920E+003
         95  0.39025292E+003
         96  0.53248717E+003
         97  0.56762374E+003
         98  0.32708322E+003
         99  0.49113751E+003
        100  0.45502918E+003
        101  0.56463473E+003
        102  0.35566164E+003
        103  0.52634573E+003
        104  0.41894286E+003
        105  0.24000000E+003
        106  0.59584249E+003
        107  0.26779733E+003
        108  0.59606058E+003
        109  0.55987555E+003
        110  0.29553050E+003
        111  0.59585605E+003
        112  0.38380239E+003
        113  0.48303624E+003
        114  0.44693705E+003
        115  0.32309678E+003
        116  0.51882748E+003
        117  0.59437458E+003
        118  0.55346869E+003
        119  0.41143045E+003
        120  0.35039331E+003
        121  0.59121601E+003
        122  0.24000000E+003
        123  0.62205098E+003
        124  0.47425755E+003
        125  0.62219679E+003
        126  0.51025598E+003
        127  0.26651833E+003
        128  0.37734450E+003
        129  0.58629832E+003
        130  0.62184508E+003
        131  0.29296230E+003
        132  0.43853217E+003
        133  0.54567169E+003
        134  0.62021183E+003
        135  0.31924839E+003
        136  0.57975156E+003
        137  0.40392009E+003
        138  0.61693439E+003
        139  0.34531285E+003
        140  0.50099254E+003
        141  0.46515749E+003
        142  0.53681873E+003
        143  0.61194842E+003
        144  0.24000000E+003
        145  0.64752877E+003
        146  0.37112577E+003
        147  0.64759719E+003
        148  0.26533164E+003
        149  0.57183818E+003
        150  0.43014384E+003
        151  0.64709928E+003
        152  0.29058035E+003
        153  0.64533892E+003
        154  0.31568266E+003
        155  0.60539037E+003
        156  0.39670014E+003
        157  0.52728172E+003
        158  0.49141258E+003
        159  0.64200026E+003
        160  0.34061266E+003
        161  0.45609321E+003
        162  0.56289570E+003
        163  0.59752275E+003
        164  0.42209530E+003
        165  0.63703940E+003
        166  0.36538335E+003
        167  0.24000000E+003
        168  0.67247713E+003
        169  0.67246640E+003
        170  0.26428068E+003
        171  0.28847278E+003
        172  0.51744571E+003
        173  0.67183047E+003
        174  0.48189150E+003
        175  0.55329775E+003
        176  0.31253306E+003
        177  0.63059726E+003
        178  0.39004742E+003
        179  0.66997474E+003
        180  0.44741429E+003
        181  0.58867919E+003
        182  0.33647054E+003
        183  0.66663648E+003
        184  0.41469609E+003
        185  0.62293130E+003
        186  0.36033630E+003
        187  0.50769426E+003
        188  0.54342933E+003
        189  0.66179309E+003
        190  0.57922657E+003
        191  0.47279558E+003
        192  0.24000000E+003
        193  0.69710856E+003
        194  0.69701990E+003
        195  0.26340207E+003
        196  0.69626031E+003
        197  0.28671441E+003
        198  0.38421719E+003
        199  0.65558699E+003
        200  0.43945455E+003
        201  0.61436437E+003
        202  0.69434596E+003
        203  0.30991350E+003
        204  0.69107018E+003
        205  0.33303856E+003
        206  0.53367204E+003
        207  0.56954057E+003
        208  0.49840012E+003
        209  0.64826533E+003
        210  0.40823102E+003
        211  0.60524859E+003
        212  0.68643041E+003
        213  0.35617192E+003
        214  0.46447351E+003
        215  0.24000000E+003
        216  0.72163899E+003
        217  0.72147691E+003
        218  0.26272177E+003
        219  0.72061389E+003
        220  0.43252045E+003
        221  0.28535885E+003
        222  0.64013355E+003
        223  0.37942742E+003
        224  0.68056668E+003
        225  0.55999127E+003
        226  0.52439494E+003
        227  0.71868084E+003
        228  0.30790619E+003
        229  0.48991700E+003
        230  0.59594202E+003
        231  0.33042671E+003
        232  0.71552622E+003
        233  0.67371041E+003
        234  0.40294276E+003
        235  0.45724469E+003
        236  0.63152206E+003
        237  0.35302551E+003
        238  0.71116420E+003
        239  0.55093441E+003
        240  0.42687255E+003
        241  0.74627906E+003
        242  0.66614379E+003
        243  0.24000000E+003
        244  0.74605228E+003
        245  0.26225005E+003
        246  0.58679468E+003
        247  0.51594682E+003
        248  0.37583493E+003
        249  0.70572778E+003
        250  0.74511269E+003
        251  0.28442813E+003
        252  0.48256805E+003
        253  0.62276423E+003
        254  0.74320259E+003
        255  0.30654545E+003
        256  0.74022049E+003
        257  0.32868065E+003
        258  0.39900513E+003
        259  0.69942762E+003
        260  0.65816979E+003
        261  0.45138014E+003
        262  0.54270450E+003
        263  0.57814061E+003
        264  0.73619215E+003
        265  0.35095212E+003
        266  0.50864548E+003
        267  0.61418325E+003
        268  0.42269661E+003
        269  0.69251790E+003
        270  0.77122179E+003
        271  0.24000000E+003
        272  0.65009187E+003
        273  0.37350169E+003
        274  0.77094522E+003
        275  0.73123883E+003
        276  0.47662709E+003
        277  0.26197573E+003
        278  0.28390016E+003
        279  0.76996420E+003
        280  0.76811936E+003
        281  0.30579741E+003
        282  0.44707233E+003
        283  0.68527010E+003
        284  0.57029172E+003
        285  0.72554642E+003
        286  0.39648447E+003
        287  0.53560523E+003
        288  0.32775310E+003
        289  0.60608470E+003
        290  0.76534980E+003
        291  0.64220167E+003
        292  0.50275977E+003
        293  0.76168666E+003
        294  0.34988938E+003
        295  0.42006103E+003
        296  0.71933803E+003
        297  0.47228800E+003
        298  0.67795477E+003
        299  0.37234929E+003
        300  0.75723574E+003
        301  0.24000000E+003
        302  0.79662412E+003
        303  0.79632145E+003
        304  0.26186048E+003
        305  0.28369550E+003
        306  0.79534450E+003
        307  0.56352975E+003
        308  0.59875140E+003
        309  0.52989304E+003
        310  0.63477202E+003
        311  0.71285192E+003
        312  0.30553697E+003
        313  0.79360662E+003
        314  0.44438979E+003
        315  0.75215627E+003
        316  0.39528647E+003
        317  0.32746910E+003
        318  0.49847978E+003
        319  0.79107376E+003
        320  0.67082986E+003
        321  0.34961038E+003
        322  0.78777663E+003
        323  0.41885707E+003
        324  0.74663996E+003
        325  0.70632513E+003
        326  0.46961793E+003
        327  0.59243675E+003
        328  0.55809185E+003
        329  0.62805247E+003
        330  0.78380463E+003
        331  0.37209957E+003
        332  0.82258010E+003
        333  0.52574909E+003
        334  0.24000000E+003
        335  0.66413401E+003
        336  0.82228588E+003
        337  0.26183900E+003
        338  0.82136955E+003
        339  0.28366957E+003
        340  0.44321215E+003
        341  0.74089267E+003
        342  0.81977596E+003
        343  0.30552488E+003
        344  0.69998256E+003
        345  0.77929223E+003
        346  0.49587005E+003
        347  0.39508535E+003
        348  0.81748153E+003
        349  0.32748498E+003
        350  0.62226390E+003
        351  0.58735281E+003
        352  0.46848888E+003
        353  0.73512004E+003
        354  0.41871787E+003
        355  0.34966418E+003
        356  0.55414537E+003
        357  0.65808223E+003
        358  0.81451375E+003
        359  0.77440301E+003
        360  0.69403016E+003
        361  0.52323421E+003
        362  0.81094991E+003
        363  0.37219776E+003
        364  0.76931448E+003
        365  0.44314065E+003
        366  0.72951710E+003
        367  0.49479983E+003
        368  0.80690700E+003
        369  0.39523127E+003
        370  0.61758917E+003
        371  0.58364869E+003
        372  0.65286160E+003
        373  0.68865046E+003
        374  0.55174625E+003
        375  0.46848172E+003
        376  0.76420542E+003
        377  0.80252845E+003
        378  0.41891165E+003
        379  0.52222030E+003
        380  0.72426128E+003
        381  0.61415559E+003
        382  0.79797101E+003
        383  0.44337883E+003
        384  0.64862400E+003
        385  0.75924617E+003
        386  0.49484334E+003
        387  0.58137405E+003
        388  0.68399864E+003
        389  0.55077434E+003
        390  0.71950755E+003
        391  0.79339347E+003
        392  0.46875663E+003
        393  0.52229015E+003
        394  0.75459155E+003
        395  0.64547292E+003
        396  0.68019698E+003
        397  0.61200488E+003
        398  0.58042110E+003
        399  0.71538440E+003
        400  0.49514260E+003
        401  0.78894772E+003
        402  0.75037564E+003
        403  0.55083677E+003
        404  0.78477205E+003
        405  0.52259650E+003
        406  0.67732536E+003
        407  0.64344053E+003
        408  0.61104450E+003
        409  0.71198917E+003
        410  0.74670758E+003
        411  0.58043626E+003
        412  0.55112858E+003
        413  0.78098611E+003
        414  0.67540526E+003
        415  0.64245016E+003
        416  0.70938121E+003
        417  0.61097220E+003
        418  0.74366707E+003
        419  0.77768674E+003
        420  0.58068908E+003
        421  0.67437417E+003
        422  0.70757162E+003
        423  0.74129905E+003
        424  0.64225789E+003
        425  0.77494369E+003
        426  0.61116159E+003
        427  0.70650837E+003
        428  0.73960684E+003
        429  0.67404661E+003
        430  0.64236361E+003
        431  0.77279489E+003
        432  0.73854483E+003
        433  0.70605669E+003
        434  0.77124093E+003
        435  0.67405794E+003
        436  0.73801392E+003
        437  0.77024042E+003
        438  0.70597831E+003
        439  0.73787119E+003
        440  0.76971124E+003
        441  0.76955276E+003
End values

