# --| ALYA reactions and displacement on user-sets
# --| Columns displayed:
# --|
# --|  1. Current time                        
# --| Set # 1
# --|  2. DISPX   3. DISPY   4. DISPZ   5. REACX   6. REACY   7. REACZ
# --| Set # 2
# --|  8. DISPX   9. DISPY  10. DISPZ  11. REACX  12. REACY  13. REACZ
# --| Set # 3
# --| 14. DISPX  15. DISPY  16. DISPZ  17. REACX  18. REACY  19. REACZ
# --|
    0.50000000E+00     0.50000000E+00    0.00000000E+00    0.00000000E+00    0.54513567E+05    0.32120327E+05    0.92860577E+00     0.00000000E+00    0.00000000E+00    0.00000000E+00   -0.54513552E+05   -0.32120318E+05   -0.91930619E+00     0.50000000E+00    0.00000000E+00    0.00000000E+00    0.54513567E+05    0.32120327E+05    0.92860577E+00
    0.10000000E+01     0.10000000E+01    0.00000000E+00    0.00000000E+00    0.10951526E+06    0.64427139E+05    0.18046517E+01     0.00000000E+00    0.00000000E+00    0.00000000E+00   -0.10951524E+06   -0.64427130E+05   -0.17953738E+01     0.10000000E+01    0.00000000E+00    0.00000000E+00    0.10951526E+06    0.64427139E+05    0.18046517E+01
