 0.15240742E-001
 0.25132456E+000
 0.25132456E+000
 0.15240742E-001
 0.15240742E-001
 0.00000000E+000
 0.00000000E+000
 0.15240742E-001
 0.15240742E-001
 0.15240742E-001
 0.15240743E-001
 0.15240742E-001
 0.15240744E-001
 0.15240743E-001
 0.15240856E-001
 0.15240916E-001
 0.15246746E-001
 0.15257527E-001
 0.15487829E-001
 0.15938591E-001
 0.22101956E-001
 0.25555803E-001
 0.25132456E+000
 0.25132456E+000
 0.25132456E+000
 0.25132456E+000
 0.25132456E+000
 0.25132456E+000
 0.25132456E+000
 0.25132456E+000
 0.25555814E-001
 0.22101958E-001
 0.15938592E-001
 0.15487829E-001
 0.15257527E-001
 0.15246746E-001
 0.15240916E-001
 0.15240856E-001
 0.15240743E-001
 0.15240744E-001
 0.15240742E-001
 0.15240743E-001
 0.15240742E-001
 0.15240742E-001
 0.15240742E-001
 0.15240742E-001
 0.15240742E-001
 0.15240742E-001
 0.15240742E-001
 0.15240742E-001
 0.15240742E-001
 0.15240742E-001
 0.15240742E-001
 0.15240742E-001
 0.15240742E-001
 0.15240742E-001
 0.15240742E-001
 0.15240742E-001
 0.15240742E-001
 0.15240742E-001
 0.15240742E-001
 0.15240743E-001
 0.15240742E-001
 0.15240743E-001
 0.15240735E-001
 0.15240752E-001
 0.15240375E-001
 0.15239922E-001
 0.15223724E-001
 0.15186785E-001
 0.14707525E-001
 0.14190755E-001
 0.00000000E+000
 0.00000000E+000
 0.00000000E+000
 0.00000000E+000
 0.00000000E+000
 0.00000000E+000
 0.00000000E+000
 0.00000000E+000
 0.14190754E-001
 0.14707525E-001
 0.15186784E-001
 0.15223724E-001
 0.15239922E-001
 0.15240375E-001
 0.15240752E-001
 0.15240735E-001
 0.15240743E-001
 0.15240742E-001
 0.15240743E-001
 0.15240742E-001
 0.15240742E-001
 0.15240742E-001
 0.15240742E-001
 0.15240742E-001
 0.15240742E-001
 0.15240742E-001
 0.15240742E-001
 0.15240742E-001
 0.15240742E-001
 0.15240742E-001
 0.15240742E-001
 0.15240742E-001
 0.15240742E-001
 0.15240742E-001
 0.15240742E-001
 0.15240742E-001
 0.95331405E-001
 0.51595824E-001
 0.32418194E-001
 0.23174697E-001
 0.18706724E-001
 0.16641996E-001
 0.15749303E-001
 0.15373177E-001
 0.15168564E-001
 0.14934563E-001
 0.14502614E-001
 0.13663027E-001
 0.12087576E-001
 0.90387371E-002
 0.95331415E-001
 0.51595830E-001
 0.32418197E-001
 0.23174698E-001
 0.18706725E-001
 0.16641996E-001
 0.15749303E-001
 0.15373177E-001
 0.15168564E-001
 0.14934563E-001
 0.14502615E-001
 0.13663027E-001
 0.12087577E-001
 0.90387381E-002
 0.13152306E-001
 0.13798037E-001
 0.14419165E-001
 0.14828380E-001
 0.15062715E-001
 0.15200343E-001
 0.15329137E-001
 0.15568443E-001
 0.16125231E-001
 0.17373417E-001
 0.19936513E-001
 0.24724401E-001
 0.32663972E-001
 0.42129440E-001
 0.14939385E-001
 0.14907958E-001
 0.14987298E-001
 0.15089104E-001
 0.15168319E-001
 0.15226001E-001
 0.15288733E-001
 0.15406170E-001
 0.15662916E-001
 0.16186114E-001
 0.17106649E-001
 0.18389012E-001
 0.19412772E-001
 0.18733998E-001
 0.15149519E-001
 0.15182034E-001
 0.15192773E-001
 0.15205922E-001
 0.15221725E-001
 0.15238419E-001
 0.15261152E-001
 0.15303300E-001
 0.15385060E-001
 0.15524142E-001
 0.15710279E-001
 0.15880081E-001
 0.16007526E-001
 0.16476979E-001
 0.15232364E-001
 0.15228802E-001
 0.15232437E-001
 0.15235131E-001
 0.15237695E-001
 0.15241312E-001
 0.15247318E-001
 0.15257898E-001
 0.15275137E-001
 0.15298604E-001
 0.15325458E-001
 0.15360808E-001
 0.15416220E-001
 0.15366666E-001
 0.15238390E-001
 0.15239652E-001
 0.15239502E-001
 0.15239907E-001
 0.15240435E-001
 0.15241143E-001
 0.15242306E-001
 0.15244144E-001
 0.15246731E-001
 0.15250216E-001
 0.15255372E-001
 0.15261278E-001
 0.15259538E-001
 0.15277608E-001
 0.15240687E-001
 0.15240490E-001
 0.15240630E-001
 0.15240656E-001
 0.15240726E-001
 0.15240844E-001
 0.15241018E-001
 0.15241268E-001
 0.15241643E-001
 0.15242207E-001
 0.15242791E-001
 0.15243058E-001
 0.15245142E-001
 0.15242765E-001
 0.15240696E-001
 0.15240741E-001
 0.15240722E-001
 0.15240736E-001
 0.15240746E-001
 0.15240760E-001
 0.15240782E-001
 0.15240816E-001
 0.15240867E-001
 0.15240921E-001
 0.15240982E-001
 0.15241179E-001
 0.15240966E-001
 0.15241528E-001
 0.15240745E-001
 0.15240738E-001
 0.15240743E-001
 0.15240742E-001
 0.15240743E-001
 0.15240745E-001
 0.15240748E-001
 0.15240752E-001
 0.15240756E-001
 0.15240764E-001
 0.15240779E-001
 0.15240765E-001
 0.15240827E-001
 0.15240756E-001
 0.15240742E-001
 0.15240743E-001
 0.15240742E-001
 0.15240743E-001
 0.15240743E-001
 0.15240743E-001
 0.15240743E-001
 0.15240743E-001
 0.15240744E-001
 0.15240745E-001
 0.15240745E-001
 0.15240750E-001
 0.15240743E-001
 0.15240756E-001
 0.15240743E-001
 0.15240742E-001
 0.15240743E-001
 0.15240742E-001
 0.15240743E-001
 0.15240743E-001
 0.15240743E-001
 0.15240743E-001
 0.15240743E-001
 0.15240743E-001
 0.15240743E-001
 0.15240743E-001
 0.15240744E-001
 0.15240742E-001
 0.15240742E-001
 0.15240742E-001
 0.15240742E-001
 0.15240742E-001
 0.15240742E-001
 0.15240742E-001
 0.15240742E-001
 0.15240742E-001
 0.15240742E-001
 0.15240743E-001
 0.15240742E-001
 0.15240743E-001
 0.15240742E-001
 0.15240743E-001
 0.15240742E-001
 0.15240742E-001
 0.15240742E-001
 0.15240742E-001
 0.15240742E-001
 0.15240742E-001
 0.15240742E-001
 0.15240742E-001
 0.15240742E-001
 0.15240742E-001
 0.15240742E-001
 0.15240742E-001
 0.15240743E-001
 0.15240742E-001
 0.15240742E-001
 0.15240742E-001
 0.15240742E-001
 0.15240742E-001
 0.15240742E-001
 0.15240742E-001
 0.15240742E-001
 0.15240742E-001
 0.15240742E-001
 0.15240742E-001
 0.15240742E-001
 0.15240742E-001
 0.15240742E-001
 0.15240742E-001
 0.15240742E-001
 0.15240742E-001
 0.15240742E-001
 0.15240742E-001
 0.15240742E-001
 0.15240742E-001
 0.15240742E-001
 0.15240742E-001
 0.15240742E-001
 0.15240742E-001
 0.15240742E-001
 0.15240742E-001
 0.15240742E-001
 0.15240742E-001
 0.75922235E-002
 0.11217876E-001
 0.13202945E-001
 0.14281711E-001
 0.14841029E-001
 0.15144778E-001
 0.15408493E-001
 0.15889414E-001
 0.17024120E-001
 0.19637415E-001
 0.25285967E-001
 0.37070563E-001
 0.61868982E-001
 0.11804787E+000
 0.74647790E-002
 0.10986570E-001
 0.13021401E-001
 0.14173725E-001
 0.14789097E-001
 0.15131123E-001
 0.15431987E-001
 0.15977866E-001
 0.17251578E-001
 0.20145271E-001
 0.26304563E-001
 0.38916570E-001
 0.64731906E-001
 0.12071922E+000
 0.74333685E-002
 0.10947036E-001
 0.12974927E-001
 0.14137448E-001
 0.14768269E-001
 0.15125448E-001
 0.15444028E-001
 0.16020631E-001
 0.17352991E-001
 0.20347395E-001
 0.26648876E-001
 0.39396706E-001
 0.65201496E-001
 0.12095855E+000
 0.74148766E-002
 0.10937032E-001
 0.12967428E-001
 0.14129409E-001
 0.14762540E-001
 0.15123904E-001
 0.15448673E-001
 0.16035565E-001
 0.17384950E-001
 0.20401949E-001
 0.26722216E-001
 0.39463154E-001
 0.65216745E-001
 0.12090524E+000
 0.74148765E-002
 0.10937032E-001
 0.12967428E-001
 0.14129409E-001
 0.14762540E-001
 0.15123904E-001
 0.15448673E-001
 0.16035566E-001
 0.17384950E-001
 0.20401949E-001
 0.26722217E-001
 0.39463156E-001
 0.65216748E-001
 0.12090525E+000
 0.74333683E-002
 0.10947036E-001
 0.12974927E-001
 0.14137448E-001
 0.14768269E-001
 0.15125449E-001
 0.15444028E-001
 0.16020631E-001
 0.17352991E-001
 0.20347395E-001
 0.26648877E-001
 0.39396708E-001
 0.65201502E-001
 0.12095856E+000
 0.74647789E-002
 0.10986570E-001
 0.13021401E-001
 0.14173725E-001
 0.14789097E-001
 0.15131123E-001
 0.15431987E-001
 0.15977866E-001
 0.17251578E-001
 0.20145271E-001
 0.26304564E-001
 0.38916572E-001
 0.64731910E-001
 0.12071923E+000
 0.75922227E-002
 0.11217875E-001
 0.13202945E-001
 0.14281711E-001
 0.14841029E-001
 0.15144778E-001
 0.15408493E-001
 0.15889414E-001
 0.17024120E-001
 0.19637415E-001
 0.25285967E-001
 0.37070562E-001
 0.61868980E-001
 0.11804786E+000
 0.15240742E-001
 0.15240742E-001
 0.15240742E-001
 0.15240742E-001
 0.15240742E-001
 0.15240742E-001
 0.15240742E-001
 0.15240742E-001
 0.15240742E-001
 0.15240742E-001
 0.15240742E-001
 0.15240742E-001
 0.15240742E-001
 0.15240742E-001
 0.15240742E-001
 0.15240742E-001
 0.15240742E-001
 0.15240742E-001
 0.15240742E-001
 0.15240742E-001
 0.15240742E-001
 0.15240742E-001
 0.15240742E-001
 0.15240742E-001
 0.15240742E-001
 0.15240742E-001
 0.15240742E-001
 0.15240742E-001
 0.15240742E-001
 0.15240742E-001
 0.15240742E-001
 0.15240742E-001
 0.15240742E-001
 0.15240742E-001
 0.15240742E-001
 0.15240742E-001
 0.15240742E-001
 0.15240742E-001
 0.15240742E-001
 0.15240742E-001
 0.15240743E-001
 0.15240742E-001
 0.15240742E-001
 0.15240742E-001
 0.15240742E-001
 0.15240742E-001
 0.15240742E-001
 0.15240742E-001
 0.15240742E-001
 0.15240742E-001
 0.15240742E-001
 0.15240743E-001
 0.15240742E-001
 0.15240743E-001
 0.15240742E-001
 0.15240743E-001
 0.15240743E-001
 0.15240742E-001
 0.15240743E-001
 0.15240742E-001
 0.15240743E-001
 0.15240743E-001
 0.15240743E-001
 0.15240743E-001
 0.15240743E-001
 0.15240743E-001
 0.15240743E-001
 0.15240743E-001
 0.15240744E-001
 0.15240742E-001
 0.15240742E-001
 0.15240743E-001
 0.15240742E-001
 0.15240743E-001
 0.15240743E-001
 0.15240743E-001
 0.15240743E-001
 0.15240743E-001
 0.15240744E-001
 0.15240745E-001
 0.15240745E-001
 0.15240750E-001
 0.15240743E-001
 0.15240756E-001
 0.15240745E-001
 0.15240738E-001
 0.15240743E-001
 0.15240742E-001
 0.15240743E-001
 0.15240745E-001
 0.15240748E-001
 0.15240752E-001
 0.15240756E-001
 0.15240764E-001
 0.15240779E-001
 0.15240765E-001
 0.15240827E-001
 0.15240756E-001
 0.15240696E-001
 0.15240741E-001
 0.15240722E-001
 0.15240736E-001
 0.15240746E-001
 0.15240760E-001
 0.15240782E-001
 0.15240816E-001
 0.15240867E-001
 0.15240921E-001
 0.15240982E-001
 0.15241179E-001
 0.15240966E-001
 0.15241528E-001
 0.15240687E-001
 0.15240490E-001
 0.15240630E-001
 0.15240656E-001
 0.15240726E-001
 0.15240844E-001
 0.15241018E-001
 0.15241268E-001
 0.15241643E-001
 0.15242207E-001
 0.15242791E-001
 0.15243058E-001
 0.15245142E-001
 0.15242765E-001
 0.15238390E-001
 0.15239652E-001
 0.15239502E-001
 0.15239907E-001
 0.15240435E-001
 0.15241143E-001
 0.15242306E-001
 0.15244144E-001
 0.15246731E-001
 0.15250216E-001
 0.15255372E-001
 0.15261278E-001
 0.15259538E-001
 0.15277608E-001
 0.15232364E-001
 0.15228802E-001
 0.15232437E-001
 0.15235131E-001
 0.15237695E-001
 0.15241312E-001
 0.15247318E-001
 0.15257898E-001
 0.15275137E-001
 0.15298604E-001
 0.15325458E-001
 0.15360808E-001
 0.15416220E-001
 0.15366666E-001
 0.15149519E-001
 0.15182034E-001
 0.15192773E-001
 0.15205922E-001
 0.15221725E-001
 0.15238419E-001
 0.15261152E-001
 0.15303300E-001
 0.15385060E-001
 0.15524142E-001
 0.15710280E-001
 0.15880081E-001
 0.16007526E-001
 0.16476980E-001
 0.14939386E-001
 0.14907958E-001
 0.14987298E-001
 0.15089104E-001
 0.15168319E-001
 0.15226001E-001
 0.15288733E-001
 0.15406170E-001
 0.15662916E-001
 0.16186114E-001
 0.17106650E-001
 0.18389013E-001
 0.19412774E-001
 0.18734001E-001
 0.13152307E-001
 0.13798038E-001
 0.14419166E-001
 0.14828380E-001
 0.15062715E-001
 0.15200343E-001
 0.15329137E-001
 0.15568443E-001
 0.16125232E-001
 0.17373417E-001
 0.19936514E-001
 0.24724404E-001
 0.32663978E-001
 0.42129449E-001
