-0.28210449E+006
-0.46503102E+007
-0.46503102E+007
-0.28210449E+006
-0.28210449E+006
-0.11232598E+003
-0.11232598E+003
-0.28210449E+006
-0.28210449E+006
-0.28210449E+006
-0.28210449E+006
-0.28210448E+006
-0.28210453E+006
-0.28210437E+006
-0.28210671E+006
-0.28210350E+006
-0.28220470E+006
-0.28228390E+006
-0.28618902E+006
-0.29235650E+006
-0.40217920E+006
-0.45004556E+006
-0.46503102E+007
-0.46503102E+007
-0.46503102E+007
-0.46503102E+007
-0.46503102E+007
-0.46503102E+007
-0.46503102E+007
-0.46503102E+007
-0.45004579E+006
-0.40217925E+006
-0.29235651E+006
-0.28618902E+006
-0.28228390E+006
-0.28220470E+006
-0.28210350E+006
-0.28210671E+006
-0.28210437E+006
-0.28210453E+006
-0.28210448E+006
-0.28210449E+006
-0.28210449E+006
-0.28210449E+006
-0.28210449E+006
-0.28210449E+006
-0.28210449E+006
-0.28210449E+006
-0.28210449E+006
-0.28210449E+006
-0.28210449E+006
-0.28210449E+006
-0.28210449E+006
-0.28210449E+006
-0.28210449E+006
-0.28210449E+006
-0.28210449E+006
-0.28210449E+006
-0.28210449E+006
-0.28210449E+006
-0.28210449E+006
-0.28210449E+006
-0.28210448E+006
-0.28210450E+006
-0.28210435E+006
-0.28210465E+006
-0.28209769E+006
-0.28208931E+006
-0.28178960E+006
-0.28110613E+006
-0.27223862E+006
-0.26267708E+006
-0.11232598E+003
-0.11232598E+003
-0.11232598E+003
-0.11232598E+003
-0.11232598E+003
-0.11232598E+003
-0.11232598E+003
-0.11232598E+003
-0.26267706E+006
-0.27223862E+006
-0.28110613E+006
-0.28178959E+006
-0.28208931E+006
-0.28209769E+006
-0.28210465E+006
-0.28210435E+006
-0.28210450E+006
-0.28210448E+006
-0.28210449E+006
-0.28210449E+006
-0.28210449E+006
-0.28210449E+006
-0.28210449E+006
-0.28210449E+006
-0.28210449E+006
-0.28210449E+006
-0.28210449E+006
-0.28210449E+006
-0.28210449E+006
-0.28210449E+006
-0.28210449E+006
-0.28210449E+006
-0.28210449E+006
-0.28210449E+006
-0.28210449E+006
-0.28210449E+006
-0.17585326E+007
-0.95066249E+006
-0.59759388E+006
-0.42776468E+006
-0.34574967E+006
-0.30785146E+006
-0.29145626E+006
-0.28453883E+006
-0.28076529E+006
-0.27643872E+006
-0.26844719E+006
-0.25291278E+006
-0.22376297E+006
-0.16735175E+006
-0.17585328E+007
-0.95066261E+006
-0.59759393E+006
-0.42776470E+006
-0.34574967E+006
-0.30785146E+006
-0.29145626E+006
-0.28453883E+006
-0.28076529E+006
-0.27643873E+006
-0.26844719E+006
-0.25291279E+006
-0.22376298E+006
-0.16735177E+006
-0.24346316E+006
-0.25541081E+006
-0.26690325E+006
-0.27447464E+006
-0.27880966E+006
-0.28135218E+006
-0.28371908E+006
-0.28809024E+006
-0.29821944E+006
-0.32085227E+006
-0.36718760E+006
-0.45348588E+006
-0.59605013E+006
-0.76413258E+006
-0.27652862E+006
-0.27594715E+006
-0.27741512E+006
-0.27929867E+006
-0.28076356E+006
-0.28182698E+006
-0.28297232E+006
-0.28509228E+006
-0.28968442E+006
-0.29895410E+006
-0.31507076E+006
-0.33709668E+006
-0.35363207E+006
-0.33920979E+006
-0.28041662E+006
-0.28101823E+006
-0.28121693E+006
-0.28146011E+006
-0.28175188E+006
-0.28205798E+006
-0.28246807E+006
-0.28321407E+006
-0.28463420E+006
-0.28699456E+006
-0.29004290E+006
-0.29263601E+006
-0.29450655E+006
-0.30289093E+006
-0.28194947E+006
-0.28188356E+006
-0.28195080E+006
-0.28200059E+006
-0.28204766E+006
-0.28211309E+006
-0.28221911E+006
-0.28240042E+006
-0.28268549E+006
-0.28305605E+006
-0.28346131E+006
-0.28401296E+006
-0.28491681E+006
-0.28385131E+006
-0.28206096E+006
-0.28208430E+006
-0.28208153E+006
-0.28208900E+006
-0.28209860E+006
-0.28211112E+006
-0.28213095E+006
-0.28216098E+006
-0.28220123E+006
-0.28225415E+006
-0.28233375E+006
-0.28241962E+006
-0.28236241E+006
-0.28270139E+006
-0.28210347E+006
-0.28209981E+006
-0.28210241E+006
-0.28210287E+006
-0.28210411E+006
-0.28210615E+006
-0.28210900E+006
-0.28211295E+006
-0.28211875E+006
-0.28212739E+006
-0.28213522E+006
-0.28213712E+006
-0.28217433E+006
-0.28212074E+006
-0.28210363E+006
-0.28210446E+006
-0.28210411E+006
-0.28210437E+006
-0.28210453E+006
-0.28210476E+006
-0.28210512E+006
-0.28210568E+006
-0.28210647E+006
-0.28210720E+006
-0.28210807E+006
-0.28211138E+006
-0.28210616E+006
-0.28211813E+006
-0.28210454E+006
-0.28210440E+006
-0.28210449E+006
-0.28210447E+006
-0.28210450E+006
-0.28210453E+006
-0.28210457E+006
-0.28210464E+006
-0.28210471E+006
-0.28210483E+006
-0.28210508E+006
-0.28210470E+006
-0.28210604E+006
-0.28210411E+006
-0.28210447E+006
-0.28210449E+006
-0.28210448E+006
-0.28210449E+006
-0.28210449E+006
-0.28210449E+006
-0.28210450E+006
-0.28210450E+006
-0.28210452E+006
-0.28210453E+006
-0.28210451E+006
-0.28210464E+006
-0.28210443E+006
-0.28210479E+006
-0.28210449E+006
-0.28210448E+006
-0.28210449E+006
-0.28210449E+006
-0.28210449E+006
-0.28210449E+006
-0.28210449E+006
-0.28210449E+006
-0.28210449E+006
-0.28210449E+006
-0.28210450E+006
-0.28210448E+006
-0.28210452E+006
-0.28210447E+006
-0.28210449E+006
-0.28210449E+006
-0.28210449E+006
-0.28210449E+006
-0.28210449E+006
-0.28210449E+006
-0.28210449E+006
-0.28210449E+006
-0.28210449E+006
-0.28210449E+006
-0.28210449E+006
-0.28210449E+006
-0.28210448E+006
-0.28210449E+006
-0.28210449E+006
-0.28210449E+006
-0.28210449E+006
-0.28210449E+006
-0.28210449E+006
-0.28210449E+006
-0.28210449E+006
-0.28210449E+006
-0.28210449E+006
-0.28210449E+006
-0.28210449E+006
-0.28210449E+006
-0.28210449E+006
-0.28210449E+006
-0.28210449E+006
-0.28210449E+006
-0.28210449E+006
-0.28210449E+006
-0.28210449E+006
-0.28210449E+006
-0.28210449E+006
-0.28210449E+006
-0.28210449E+006
-0.28210449E+006
-0.28210449E+006
-0.28210449E+006
-0.28210449E+006
-0.28210449E+006
-0.28210449E+006
-0.28210449E+006
-0.28210449E+006
-0.28210449E+006
-0.28210449E+006
-0.28210449E+006
-0.28210449E+006
-0.28210449E+006
-0.28210449E+006
-0.28210449E+006
-0.28210449E+006
-0.28210449E+006
-0.28210449E+006
-0.28210449E+006
-0.14058760E+006
-0.20767131E+006
-0.24440012E+006
-0.26435996E+006
-0.27470838E+006
-0.28032668E+006
-0.28519903E+006
-0.29407484E+006
-0.31501025E+006
-0.36323287E+006
-0.46751950E+006
-0.68528584E+006
-0.11440307E+007
-0.21840958E+007
-0.13822955E+006
-0.20339157E+006
-0.24104108E+006
-0.26236197E+006
-0.27374773E+006
-0.28007524E+006
-0.28563898E+006
-0.29573060E+006
-0.31927813E+006
-0.37278554E+006
-0.48671083E+006
-0.72005748E+006
-0.11977628E+007
-0.22336905E+007
-0.13764838E+006
-0.20266010E+006
-0.24018120E+006
-0.26169076E+006
-0.27336247E+006
-0.27997092E+006
-0.28586455E+006
-0.29653102E+006
-0.32117931E+006
-0.37657936E+006
-0.49317236E+006
-0.72904541E+006
-0.12065060E+007
-0.22381764E+007
-0.13730623E+006
-0.20247500E+006
-0.24004245E+006
-0.26154203E+006
-0.27325653E+006
-0.27994259E+006
-0.28595147E+006
-0.29681019E+006
-0.32177706E+006
-0.37759962E+006
-0.49454214E+006
-0.73028494E+006
-0.12067989E+007
-0.22371907E+007
-0.13730623E+006
-0.20247500E+006
-0.24004245E+006
-0.26154203E+006
-0.27325653E+006
-0.27994259E+006
-0.28595147E+006
-0.29681020E+006
-0.32177707E+006
-0.37759963E+006
-0.49454215E+006
-0.73028497E+006
-0.12067989E+007
-0.22371908E+007
-0.13764838E+006
-0.20266010E+006
-0.24018120E+006
-0.26169076E+006
-0.27336247E+006
-0.27997092E+006
-0.28586455E+006
-0.29653102E+006
-0.32117931E+006
-0.37657937E+006
-0.49317238E+006
-0.72904546E+006
-0.12065062E+007
-0.22381766E+007
-0.13822955E+006
-0.20339157E+006
-0.24104108E+006
-0.26236197E+006
-0.27374773E+006
-0.28007524E+006
-0.28563898E+006
-0.29573060E+006
-0.31927813E+006
-0.37278554E+006
-0.48671084E+006
-0.72005751E+006
-0.11977629E+007
-0.22336907E+007
-0.14058758E+006
-0.20767130E+006
-0.24440011E+006
-0.26435995E+006
-0.27470838E+006
-0.28032668E+006
-0.28519903E+006
-0.29407483E+006
-0.31501025E+006
-0.36323286E+006
-0.46751949E+006
-0.68528582E+006
-0.11440307E+007
-0.21840958E+007
-0.28210449E+006
-0.28210449E+006
-0.28210449E+006
-0.28210449E+006
-0.28210449E+006
-0.28210449E+006
-0.28210449E+006
-0.28210449E+006
-0.28210449E+006
-0.28210449E+006
-0.28210449E+006
-0.28210449E+006
-0.28210449E+006
-0.28210449E+006
-0.28210449E+006
-0.28210449E+006
-0.28210449E+006
-0.28210449E+006
-0.28210449E+006
-0.28210449E+006
-0.28210449E+006
-0.28210449E+006
-0.28210449E+006
-0.28210449E+006
-0.28210449E+006
-0.28210449E+006
-0.28210449E+006
-0.28210449E+006
-0.28210449E+006
-0.28210449E+006
-0.28210449E+006
-0.28210449E+006
-0.28210449E+006
-0.28210449E+006
-0.28210449E+006
-0.28210449E+006
-0.28210449E+006
-0.28210449E+006
-0.28210449E+006
-0.28210449E+006
-0.28210449E+006
-0.28210449E+006
-0.28210449E+006
-0.28210449E+006
-0.28210449E+006
-0.28210449E+006
-0.28210449E+006
-0.28210449E+006
-0.28210449E+006
-0.28210449E+006
-0.28210449E+006
-0.28210449E+006
-0.28210449E+006
-0.28210449E+006
-0.28210448E+006
-0.28210449E+006
-0.28210449E+006
-0.28210448E+006
-0.28210449E+006
-0.28210449E+006
-0.28210449E+006
-0.28210449E+006
-0.28210449E+006
-0.28210449E+006
-0.28210449E+006
-0.28210449E+006
-0.28210450E+006
-0.28210448E+006
-0.28210452E+006
-0.28210447E+006
-0.28210447E+006
-0.28210449E+006
-0.28210448E+006
-0.28210449E+006
-0.28210449E+006
-0.28210449E+006
-0.28210450E+006
-0.28210450E+006
-0.28210452E+006
-0.28210453E+006
-0.28210451E+006
-0.28210464E+006
-0.28210443E+006
-0.28210479E+006
-0.28210454E+006
-0.28210440E+006
-0.28210449E+006
-0.28210447E+006
-0.28210450E+006
-0.28210453E+006
-0.28210457E+006
-0.28210464E+006
-0.28210471E+006
-0.28210483E+006
-0.28210508E+006
-0.28210470E+006
-0.28210604E+006
-0.28210411E+006
-0.28210363E+006
-0.28210446E+006
-0.28210411E+006
-0.28210437E+006
-0.28210453E+006
-0.28210476E+006
-0.28210512E+006
-0.28210568E+006
-0.28210647E+006
-0.28210720E+006
-0.28210807E+006
-0.28211138E+006
-0.28210616E+006
-0.28211813E+006
-0.28210347E+006
-0.28209981E+006
-0.28210241E+006
-0.28210287E+006
-0.28210411E+006
-0.28210615E+006
-0.28210900E+006
-0.28211295E+006
-0.28211875E+006
-0.28212739E+006
-0.28213522E+006
-0.28213712E+006
-0.28217433E+006
-0.28212074E+006
-0.28206096E+006
-0.28208430E+006
-0.28208153E+006
-0.28208900E+006
-0.28209860E+006
-0.28211112E+006
-0.28213095E+006
-0.28216098E+006
-0.28220123E+006
-0.28225415E+006
-0.28233375E+006
-0.28241962E+006
-0.28236241E+006
-0.28270139E+006
-0.28194947E+006
-0.28188357E+006
-0.28195080E+006
-0.28200059E+006
-0.28204766E+006
-0.28211309E+006
-0.28221911E+006
-0.28240042E+006
-0.28268549E+006
-0.28305605E+006
-0.28346131E+006
-0.28401296E+006
-0.28491682E+006
-0.28385132E+006
-0.28041662E+006
-0.28101823E+006
-0.28121693E+006
-0.28146011E+006
-0.28175188E+006
-0.28205798E+006
-0.28246807E+006
-0.28321407E+006
-0.28463420E+006
-0.28699456E+006
-0.29004291E+006
-0.29263602E+006
-0.29450656E+006
-0.30289094E+006
-0.27652863E+006
-0.27594715E+006
-0.27741512E+006
-0.27929867E+006
-0.28076356E+006
-0.28182698E+006
-0.28297232E+006
-0.28509228E+006
-0.28968442E+006
-0.29895411E+006
-0.31507078E+006
-0.33709670E+006
-0.35363212E+006
-0.33920984E+006
-0.24346317E+006
-0.25541082E+006
-0.26690325E+006
-0.27447464E+006
-0.27880966E+006
-0.28135218E+006
-0.28371909E+006
-0.28809024E+006
-0.29821945E+006
-0.32085229E+006
-0.36718762E+006
-0.45348593E+006
-0.59605025E+006
-0.76413276E+006
