 0.17242309E-001
 0.00000000E+000
 0.00000000E+000
 0.17242309E-001
 0.17242309E-001
 0.00000000E+000
 0.00000000E+000
 0.17242309E-001
 0.17242309E-001
 0.17242309E-001
 0.17242309E-001
 0.17242309E-001
 0.17242321E-001
 0.17242314E-001
 0.17243003E-001
 0.17243946E-001
 0.17271411E-001
 0.17336352E-001
 0.17954584E-001
 0.18815724E-001
 0.20091825E-001
 0.17484205E-001
 0.00000000E+000
 0.00000000E+000
 0.00000000E+000
 0.00000000E+000
 0.00000000E+000
 0.00000000E+000
 0.00000000E+000
 0.00000000E+000
 0.17484205E-001
 0.20091824E-001
 0.18815725E-001
 0.17954584E-001
 0.17336352E-001
 0.17271411E-001
 0.17243946E-001
 0.17243003E-001
 0.17242314E-001
 0.17242321E-001
 0.17242309E-001
 0.17242309E-001
 0.17242309E-001
 0.17242309E-001
 0.17242309E-001
 0.17242309E-001
 0.17242309E-001
 0.17242309E-001
 0.17242309E-001
 0.17242309E-001
 0.17242309E-001
 0.17242309E-001
 0.17242309E-001
 0.17242309E-001
 0.17242309E-001
 0.17242309E-001
 0.17242309E-001
 0.17242309E-001
 0.17242309E-001
 0.17242309E-001
 0.17242309E-001
 0.17242309E-001
 0.17242308E-001
 0.17242312E-001
 0.17242266E-001
 0.17242239E-001
 0.17239726E-001
 0.17230288E-001
 0.17122071E-001
 0.16710644E-001
 0.14485672E-001
 0.10754690E-001
 0.00000000E+000
 0.00000000E+000
 0.00000000E+000
 0.00000000E+000
 0.00000000E+000
 0.00000000E+000
 0.00000000E+000
 0.00000000E+000
 0.10754689E-001
 0.14485671E-001
 0.16710644E-001
 0.17122071E-001
 0.17230288E-001
 0.17239726E-001
 0.17242239E-001
 0.17242266E-001
 0.17242312E-001
 0.17242308E-001
 0.17242309E-001
 0.17242309E-001
 0.17242309E-001
 0.17242309E-001
 0.17242309E-001
 0.17242309E-001
 0.17242309E-001
 0.17242309E-001
 0.17242309E-001
 0.17242309E-001
 0.17242309E-001
 0.17242309E-001
 0.17242309E-001
 0.17242309E-001
 0.17242309E-001
 0.17242309E-001
 0.17242309E-001
 0.17242309E-001
 0.12459407E-001
 0.16677134E-001
 0.18857412E-001
 0.20137144E-001
 0.20333056E-001
 0.19504838E-001
 0.18406199E-001
 0.17491108E-001
 0.16630094E-001
 0.15435820E-001
 0.13563463E-001
 0.11000331E-001
 0.82463911E-002
 0.57656014E-002
 0.12459406E-001
 0.16677133E-001
 0.18857411E-001
 0.20137144E-001
 0.20333056E-001
 0.19504838E-001
 0.18406199E-001
 0.17491108E-001
 0.16630094E-001
 0.15435820E-001
 0.13563464E-001
 0.11000332E-001
 0.82463924E-002
 0.57656025E-002
 0.99057135E-002
 0.11372734E-001
 0.13264249E-001
 0.14932416E-001
 0.16113877E-001
 0.16870236E-001
 0.17440709E-001
 0.18099248E-001
 0.19003997E-001
 0.19964137E-001
 0.20375261E-001
 0.19807280E-001
 0.18540689E-001
 0.17183666E-001
 0.14987877E-001
 0.15176592E-001
 0.15681154E-001
 0.16263543E-001
 0.16738822E-001
 0.17081239E-001
 0.17374721E-001
 0.17749340E-001
 0.18315588E-001
 0.19063345E-001
 0.19771922E-001
 0.20114105E-001
 0.19979727E-001
 0.19647703E-001
 0.16632626E-001
 0.16770215E-001
 0.16869687E-001
 0.16979536E-001
 0.17093481E-001
 0.17199183E-001
 0.17311624E-001
 0.17468655E-001
 0.17707900E-001
 0.18030992E-001
 0.18375108E-001
 0.18648139E-001
 0.18878648E-001
 0.19290444E-001
 0.17153030E-001
 0.17148789E-001
 0.17172027E-001
 0.17193519E-001
 0.17213995E-001
 0.17237779E-001
 0.17269434E-001
 0.17315641E-001
 0.17381117E-001
 0.17462658E-001
 0.17554012E-001
 0.17666193E-001
 0.17792390E-001
 0.17725024E-001
 0.17224835E-001
 0.17230651E-001
 0.17231459E-001
 0.17234725E-001
 0.17238649E-001
 0.17243350E-001
 0.17250022E-001
 0.17259529E-001
 0.17272170E-001
 0.17288712E-001
 0.17311255E-001
 0.17334111E-001
 0.17336926E-001
 0.17390902E-001
 0.17241063E-001
 0.17240339E-001
 0.17241115E-001
 0.17241431E-001
 0.17241983E-001
 0.17242801E-001
 0.17243913E-001
 0.17245445E-001
 0.17247640E-001
 0.17250734E-001
 0.17253876E-001
 0.17256147E-001
 0.17264618E-001
 0.17256577E-001
 0.17241998E-001
 0.17242210E-001
 0.17242142E-001
 0.17242234E-001
 0.17242309E-001
 0.17242415E-001
 0.17242574E-001
 0.17242809E-001
 0.17243142E-001
 0.17243498E-001
 0.17243930E-001
 0.17244935E-001
 0.17244104E-001
 0.17246700E-001
 0.17242312E-001
 0.17242279E-001
 0.17242305E-001
 0.17242302E-001
 0.17242313E-001
 0.17242327E-001
 0.17242348E-001
 0.17242378E-001
 0.17242413E-001
 0.17242468E-001
 0.17242564E-001
 0.17242502E-001
 0.17242842E-001
 0.17242462E-001
 0.17242304E-001
 0.17242310E-001
 0.17242307E-001
 0.17242310E-001
 0.17242310E-001
 0.17242312E-001
 0.17242314E-001
 0.17242317E-001
 0.17242322E-001
 0.17242330E-001
 0.17242327E-001
 0.17242363E-001
 0.17242320E-001
 0.17242398E-001
 0.17242309E-001
 0.17242309E-001
 0.17242309E-001
 0.17242309E-001
 0.17242309E-001
 0.17242309E-001
 0.17242310E-001
 0.17242310E-001
 0.17242311E-001
 0.17242311E-001
 0.17242314E-001
 0.17242310E-001
 0.17242318E-001
 0.17242308E-001
 0.17242309E-001
 0.17242309E-001
 0.17242309E-001
 0.17242309E-001
 0.17242309E-001
 0.17242309E-001
 0.17242309E-001
 0.17242309E-001
 0.17242309E-001
 0.17242309E-001
 0.17242309E-001
 0.17242310E-001
 0.17242309E-001
 0.17242311E-001
 0.17242309E-001
 0.17242309E-001
 0.17242309E-001
 0.17242309E-001
 0.17242309E-001
 0.17242309E-001
 0.17242309E-001
 0.17242309E-001
 0.17242309E-001
 0.17242309E-001
 0.17242309E-001
 0.17242309E-001
 0.17242309E-001
 0.17242309E-001
 0.17242309E-001
 0.17242309E-001
 0.17242309E-001
 0.17242309E-001
 0.17242309E-001
 0.17242309E-001
 0.17242309E-001
 0.17242309E-001
 0.17242309E-001
 0.17242309E-001
 0.17242309E-001
 0.17242309E-001
 0.17242309E-001
 0.17242309E-001
 0.17242309E-001
 0.17242309E-001
 0.17242309E-001
 0.17242309E-001
 0.17242309E-001
 0.17242309E-001
 0.17242309E-001
 0.17242309E-001
 0.17242309E-001
 0.17242309E-001
 0.17242309E-001
 0.17242309E-001
 0.17242309E-001
 0.17242309E-001
 0.48456568E-002
 0.72264187E-002
 0.99521398E-002
 0.12767676E-001
 0.14981470E-001
 0.16453842E-001
 0.17517403E-001
 0.18587843E-001
 0.19731151E-001
 0.20361360E-001
 0.19835960E-001
 0.18312670E-001
 0.15689978E-001
 0.10652411E-001
 0.47433920E-002
 0.69552379E-002
 0.95682142E-002
 0.12402922E-001
 0.14739674E-001
 0.16351000E-001
 0.17531669E-001
 0.18687521E-001
 0.19838267E-001
 0.20354385E-001
 0.19696784E-001
 0.18100027E-001
 0.15407372E-001
 0.10397687E-001
 0.47105646E-002
 0.68906957E-002
 0.94575913E-002
 0.12276596E-001
 0.14641891E-001
 0.16304878E-001
 0.17537594E-001
 0.18731444E-001
 0.19881017E-001
 0.20349878E-001
 0.19650289E-001
 0.18041028E-001
 0.15351984E-001
 0.10370363E-001
 0.46963997E-002
 0.68754461E-002
 0.94353114E-002
 0.12245326E-001
 0.14613447E-001
 0.16290044E-001
 0.17539935E-001
 0.18746051E-001
 0.19894209E-001
 0.20349002E-001
 0.19640136E-001
 0.18031205E-001
 0.15348048E-001
 0.10373288E-001
 0.46963997E-002
 0.68754461E-002
 0.94353114E-002
 0.12245326E-001
 0.14613447E-001
 0.16290045E-001
 0.17539935E-001
 0.18746051E-001
 0.19894209E-001
 0.20349002E-001
 0.19640136E-001
 0.18031205E-001
 0.15348047E-001
 0.10373288E-001
 0.47105645E-002
 0.68906957E-002
 0.94575914E-002
 0.12276597E-001
 0.14641892E-001
 0.16304879E-001
 0.17537594E-001
 0.18731444E-001
 0.19881017E-001
 0.20349878E-001
 0.19650289E-001
 0.18041028E-001
 0.15351984E-001
 0.10370362E-001
 0.47433920E-002
 0.69552378E-002
 0.95682141E-002
 0.12402922E-001
 0.14739674E-001
 0.16351000E-001
 0.17531669E-001
 0.18687521E-001
 0.19838267E-001
 0.20354385E-001
 0.19696783E-001
 0.18100027E-001
 0.15407371E-001
 0.10397686E-001
 0.48456562E-002
 0.72264180E-002
 0.99521391E-002
 0.12767675E-001
 0.14981470E-001
 0.16453842E-001
 0.17517403E-001
 0.18587843E-001
 0.19731151E-001
 0.20361360E-001
 0.19835960E-001
 0.18312670E-001
 0.15689978E-001
 0.10652411E-001
 0.17242309E-001
 0.17242309E-001
 0.17242309E-001
 0.17242309E-001
 0.17242309E-001
 0.17242309E-001
 0.17242309E-001
 0.17242309E-001
 0.17242309E-001
 0.17242309E-001
 0.17242309E-001
 0.17242309E-001
 0.17242309E-001
 0.17242309E-001
 0.17242309E-001
 0.17242309E-001
 0.17242309E-001
 0.17242309E-001
 0.17242309E-001
 0.17242309E-001
 0.17242309E-001
 0.17242309E-001
 0.17242309E-001
 0.17242309E-001
 0.17242309E-001
 0.17242309E-001
 0.17242309E-001
 0.17242309E-001
 0.17242309E-001
 0.17242309E-001
 0.17242309E-001
 0.17242309E-001
 0.17242309E-001
 0.17242309E-001
 0.17242309E-001
 0.17242309E-001
 0.17242309E-001
 0.17242309E-001
 0.17242309E-001
 0.17242309E-001
 0.17242309E-001
 0.17242309E-001
 0.17242309E-001
 0.17242309E-001
 0.17242309E-001
 0.17242309E-001
 0.17242309E-001
 0.17242309E-001
 0.17242309E-001
 0.17242309E-001
 0.17242309E-001
 0.17242309E-001
 0.17242309E-001
 0.17242310E-001
 0.17242309E-001
 0.17242311E-001
 0.17242309E-001
 0.17242309E-001
 0.17242309E-001
 0.17242309E-001
 0.17242309E-001
 0.17242309E-001
 0.17242310E-001
 0.17242310E-001
 0.17242311E-001
 0.17242311E-001
 0.17242314E-001
 0.17242310E-001
 0.17242318E-001
 0.17242308E-001
 0.17242304E-001
 0.17242310E-001
 0.17242307E-001
 0.17242310E-001
 0.17242310E-001
 0.17242312E-001
 0.17242314E-001
 0.17242317E-001
 0.17242322E-001
 0.17242330E-001
 0.17242327E-001
 0.17242363E-001
 0.17242320E-001
 0.17242398E-001
 0.17242312E-001
 0.17242279E-001
 0.17242305E-001
 0.17242302E-001
 0.17242313E-001
 0.17242327E-001
 0.17242348E-001
 0.17242378E-001
 0.17242413E-001
 0.17242468E-001
 0.17242564E-001
 0.17242502E-001
 0.17242842E-001
 0.17242462E-001
 0.17241998E-001
 0.17242210E-001
 0.17242142E-001
 0.17242234E-001
 0.17242309E-001
 0.17242415E-001
 0.17242574E-001
 0.17242809E-001
 0.17243142E-001
 0.17243498E-001
 0.17243930E-001
 0.17244935E-001
 0.17244104E-001
 0.17246700E-001
 0.17241063E-001
 0.17240339E-001
 0.17241115E-001
 0.17241431E-001
 0.17241983E-001
 0.17242801E-001
 0.17243913E-001
 0.17245445E-001
 0.17247640E-001
 0.17250734E-001
 0.17253876E-001
 0.17256147E-001
 0.17264618E-001
 0.17256577E-001
 0.17224835E-001
 0.17230651E-001
 0.17231459E-001
 0.17234725E-001
 0.17238649E-001
 0.17243350E-001
 0.17250022E-001
 0.17259529E-001
 0.17272170E-001
 0.17288712E-001
 0.17311255E-001
 0.17334112E-001
 0.17336926E-001
 0.17390902E-001
 0.17153030E-001
 0.17148789E-001
 0.17172027E-001
 0.17193519E-001
 0.17213995E-001
 0.17237779E-001
 0.17269434E-001
 0.17315641E-001
 0.17381117E-001
 0.17462658E-001
 0.17554012E-001
 0.17666194E-001
 0.17792390E-001
 0.17725024E-001
 0.16632626E-001
 0.16770215E-001
 0.16869687E-001
 0.16979537E-001
 0.17093481E-001
 0.17199184E-001
 0.17311624E-001
 0.17468655E-001
 0.17707900E-001
 0.18030992E-001
 0.18375109E-001
 0.18648139E-001
 0.18878648E-001
 0.19290444E-001
 0.14987878E-001
 0.15176593E-001
 0.15681155E-001
 0.16263543E-001
 0.16738822E-001
 0.17081239E-001
 0.17374721E-001
 0.17749340E-001
 0.18315588E-001
 0.19063345E-001
 0.19771923E-001
 0.20114105E-001
 0.19979727E-001
 0.19647703E-001
 0.99057152E-002
 0.11372735E-001
 0.13264251E-001
 0.14932417E-001
 0.16113878E-001
 0.16870236E-001
 0.17440709E-001
 0.18099248E-001
 0.19003998E-001
 0.19964138E-001
 0.20375261E-001
 0.19807280E-001
 0.18540689E-001
 0.17183665E-001
