GiD Post Results File 1.0
 
Result EXNOR ALYA  0.00000000E+00 Vector OnNodes
ComponentNames EXNOR_X,EXNOR_Y,EXNOR_Z
Values
          1 -0.69388939E-016 -0.10000000E+001
          2  0.10000000E+001  0.00000000E+000
          3  0.00000000E+000 -0.10000000E+001
          4  0.00000000E+000  0.00000000E+000
          5  0.10000000E+001  0.00000000E+000
          6  0.69388939E-016 -0.10000000E+001
          7  0.00000000E+000  0.00000000E+000
          8  0.00000000E+000  0.00000000E+000
          9  0.00000000E+000  0.00000000E+000
         10  0.00000000E+000 -0.10000000E+001
         11  0.10000000E+001  0.00000000E+000
         12  0.00000000E+000  0.00000000E+000
         13  0.00000000E+000  0.00000000E+000
         14  0.00000000E+000  0.00000000E+000
         15  0.00000000E+000  0.00000000E+000
         16  0.10000000E+001  0.00000000E+000
         17  0.00000000E+000 -0.10000000E+001
         18  0.00000000E+000  0.00000000E+000
         19  0.00000000E+000  0.00000000E+000
         20  0.00000000E+000  0.00000000E+000
         21  0.00000000E+000  0.00000000E+000
         22  0.00000000E+000  0.00000000E+000
         23  0.00000000E+000 -0.10000000E+001
         24  0.10000000E+001  0.00000000E+000
         25  0.00000000E+000  0.00000000E+000
         26  0.00000000E+000  0.00000000E+000
         27  0.00000000E+000  0.00000000E+000
         28  0.00000000E+000  0.00000000E+000
         29  0.00000000E+000  0.00000000E+000
         30  0.00000000E+000  0.00000000E+000
         31  0.00000000E+000  0.00000000E+000
         32  0.00000000E+000  0.00000000E+000
         33  0.00000000E+000  0.00000000E+000
         34  0.00000000E+000 -0.10000000E+001
         35  0.10000000E+001  0.00000000E+000
         36  0.00000000E+000  0.00000000E+000
         37  0.00000000E+000  0.00000000E+000
         38  0.00000000E+000  0.00000000E+000
         39  0.00000000E+000  0.00000000E+000
         40  0.00000000E+000  0.00000000E+000
         41  0.00000000E+000  0.00000000E+000
         42  0.00000000E+000  0.00000000E+000
         43  0.00000000E+000 -0.10000000E+001
         44 -0.69388939E-016 -0.10000000E+001
         45  0.10000000E+001  0.00000000E+000
         46  0.00000000E+000  0.00000000E+000
         47  0.00000000E+000  0.00000000E+000
         48  0.00000000E+000  0.00000000E+000
         49  0.00000000E+000  0.00000000E+000
         50  0.00000000E+000 -0.10000000E+001
         51  0.00000000E+000  0.00000000E+000
         52  0.00000000E+000  0.00000000E+000
         53  0.00000000E+000  0.00000000E+000
         54  0.00000000E+000  0.00000000E+000
         55  0.00000000E+000  0.00000000E+000
         56  0.70710678E+000 -0.70710678E+000
         57  0.69388939E-016 -0.10000000E+001
         58  0.10000000E+001  0.00000000E+000
         59  0.00000000E+000  0.00000000E+000
         60  0.00000000E+000  0.00000000E+000
         61  0.00000000E+000  0.00000000E+000
         62  0.00000000E+000  0.00000000E+000
         63  0.00000000E+000  0.00000000E+000
         64  0.00000000E+000  0.00000000E+000
         65  0.00000000E+000  0.00000000E+000
         66  0.00000000E+000  0.00000000E+000
         67  0.00000000E+000  0.00000000E+000
         68  0.00000000E+000  0.00000000E+000
         69  0.10000000E+001  0.00000000E+000
         70  0.00000000E+000  0.00000000E+000
         71  0.00000000E+000  0.00000000E+000
         72  0.10000000E+001  0.00000000E+000
         73  0.00000000E+000 -0.10000000E+001
         74  0.00000000E+000  0.00000000E+000
         75  0.00000000E+000  0.00000000E+000
         76  0.00000000E+000  0.00000000E+000
         77  0.00000000E+000  0.00000000E+000
         78  0.00000000E+000  0.00000000E+000
         79  0.00000000E+000  0.00000000E+000
         80  0.00000000E+000  0.00000000E+000
         81  0.10000000E+001  0.00000000E+000
         82  0.00000000E+000  0.00000000E+000
         83  0.00000000E+000  0.00000000E+000
         84  0.00000000E+000  0.00000000E+000
         85  0.00000000E+000  0.00000000E+000
         86  0.00000000E+000  0.00000000E+000
         87 -0.69388939E-016 -0.10000000E+001
         88  0.00000000E+000  0.10000000E+001
         89  0.00000000E+000  0.00000000E+000
         90  0.00000000E+000  0.00000000E+000
         91  0.10000000E+001  0.00000000E+000
         92  0.00000000E+000  0.10000000E+001
         93  0.00000000E+000  0.10000000E+001
         94  0.10000000E+001  0.00000000E+000
         95  0.00000000E+000  0.00000000E+000
         96  0.00000000E+000  0.00000000E+000
         97  0.10000000E+001  0.00000000E+000
         98  0.00000000E+000  0.10000000E+001
         99  0.00000000E+000  0.00000000E+000
        100  0.00000000E+000  0.00000000E+000
        101  0.10000000E+001  0.00000000E+000
        102  0.00000000E+000  0.10000000E+001
        103  0.00000000E+000  0.00000000E+000
        104  0.00000000E+000  0.00000000E+000
        105  0.10000000E+001  0.00000000E+000
        106  0.00000000E+000  0.10000000E+001
        107  0.00000000E+000  0.00000000E+000
        108  0.00000000E+000  0.00000000E+000
        109  0.00000000E+000  0.00000000E+000
        110  0.00000000E+000  0.10000000E+001
        111  0.10000000E+001  0.00000000E+000
        112  0.00000000E+000  0.00000000E+000
        113  0.00000000E+000  0.00000000E+000
        114  0.10000000E+001  0.00000000E+000
        115  0.00000000E+000  0.10000000E+001
        116  0.00000000E+000  0.00000000E+000
        117  0.00000000E+000  0.10000000E+001
        118  0.10000000E+001  0.00000000E+000
        119  0.00000000E+000  0.10000000E+001
        120  0.10000000E+001  0.00000000E+000
        121  0.00000000E+000  0.10000000E+001
End values

Result MASSM ALYA  0.00000000E+00 Scalar OnNodes
ComponentNames MASSM
Values
          1  0.50000000E-002
          2  0.10000000E-001
          3  0.50000000E-002
          4  0.10000000E-001
          5  0.10000000E-001
          6  0.50000000E-002
          7  0.10000000E-001
          8  0.10000000E-001
          9  0.10000000E-001
         10  0.50000000E-002
         11  0.10000000E-001
         12  0.10000000E-001
         13  0.10000000E-001
         14  0.10000000E-001
         15  0.10000000E-001
         16  0.10000000E-001
         17  0.50000000E-002
         18  0.10000000E-001
         19  0.10000000E-001
         20  0.10000000E-001
         21  0.10000000E-001
         22  0.10000000E-001
         23  0.50000000E-002
         24  0.10000000E-001
         25  0.10000000E-001
         26  0.10000000E-001
         27  0.10000000E-001
         28  0.10000000E-001
         29  0.10000000E-001
         30  0.10000000E-001
         31  0.10000000E-001
         32  0.10000000E-001
         33  0.10000000E-001
         34  0.50000000E-002
         35  0.10000000E-001
         36  0.10000000E-001
         37  0.10000000E-001
         38  0.10000000E-001
         39  0.10000000E-001
         40  0.10000000E-001
         41  0.10000000E-001
         42  0.10000000E-001
         43  0.10000000E-001
         44  0.50000000E-002
         45  0.10000000E-001
         46  0.10000000E-001
         47  0.10000000E-001
         48  0.10000000E-001
         49  0.10000000E-001
         50  0.10000000E-001
         51  0.10000000E-001
         52  0.10000000E-001
         53  0.10000000E-001
         54  0.10000000E-001
         55  0.10000000E-001
         56  0.10000000E-001
         57  0.50000000E-002
         58  0.10000000E-001
         59  0.10000000E-001
         60  0.10000000E-001
         61  0.10000000E-001
         62  0.10000000E-001
         63  0.10000000E-001
         64  0.10000000E-001
         65  0.10000000E-001
         66  0.10000000E-001
         67  0.10000000E-001
         68  0.10000000E-001
         69  0.10000000E-001
         70  0.10000000E-001
         71  0.10000000E-001
         72  0.10000000E-001
         73  0.50000000E-002
         74  0.10000000E-001
         75  0.10000000E-001
         76  0.10000000E-001
         77  0.10000000E-001
         78  0.10000000E-001
         79  0.10000000E-001
         80  0.10000000E-001
         81  0.10000000E-001
         82  0.10000000E-001
         83  0.10000000E-001
         84  0.10000000E-001
         85  0.10000000E-001
         86  0.10000000E-001
         87  0.50000000E-002
         88  0.50000000E-002
         89  0.10000000E-001
         90  0.10000000E-001
         91  0.10000000E-001
         92  0.50000000E-002
         93  0.50000000E-002
         94  0.10000000E-001
         95  0.10000000E-001
         96  0.10000000E-001
         97  0.10000000E-001
         98  0.50000000E-002
         99  0.10000000E-001
        100  0.10000000E-001
        101  0.10000000E-001
        102  0.50000000E-002
        103  0.10000000E-001
        104  0.10000000E-001
        105  0.10000000E-001
        106  0.50000000E-002
        107  0.10000000E-001
        108  0.10000000E-001
        109  0.10000000E-001
        110  0.50000000E-002
        111  0.10000000E-001
        112  0.10000000E-001
        113  0.10000000E-001
        114  0.10000000E-001
        115  0.50000000E-002
        116  0.10000000E-001
        117  0.50000000E-002
        118  0.10000000E-001
        119  0.50000000E-002
        120  0.10000000E-001
        121  0.50000000E-002
End values

Result MASSC ALYA  0.00000000E+00 Scalar OnNodes
ComponentNames MASSC
Values
          1  0.50000000E-002
          2  0.10000000E-001
          3  0.50000000E-002
          4  0.10000000E-001
          5  0.10000000E-001
          6  0.50000000E-002
          7  0.10000000E-001
          8  0.10000000E-001
          9  0.10000000E-001
         10  0.50000000E-002
         11  0.10000000E-001
         12  0.10000000E-001
         13  0.10000000E-001
         14  0.10000000E-001
         15  0.10000000E-001
         16  0.10000000E-001
         17  0.50000000E-002
         18  0.10000000E-001
         19  0.10000000E-001
         20  0.10000000E-001
         21  0.10000000E-001
         22  0.10000000E-001
         23  0.50000000E-002
         24  0.10000000E-001
         25  0.10000000E-001
         26  0.10000000E-001
         27  0.10000000E-001
         28  0.10000000E-001
         29  0.10000000E-001
         30  0.10000000E-001
         31  0.10000000E-001
         32  0.10000000E-001
         33  0.10000000E-001
         34  0.50000000E-002
         35  0.10000000E-001
         36  0.10000000E-001
         37  0.10000000E-001
         38  0.10000000E-001
         39  0.10000000E-001
         40  0.10000000E-001
         41  0.10000000E-001
         42  0.10000000E-001
         43  0.10000000E-001
         44  0.50000000E-002
         45  0.10000000E-001
         46  0.10000000E-001
         47  0.10000000E-001
         48  0.10000000E-001
         49  0.10000000E-001
         50  0.10000000E-001
         51  0.10000000E-001
         52  0.10000000E-001
         53  0.10000000E-001
         54  0.10000000E-001
         55  0.10000000E-001
         56  0.10000000E-001
         57  0.50000000E-002
         58  0.10000000E-001
         59  0.10000000E-001
         60  0.10000000E-001
         61  0.10000000E-001
         62  0.10000000E-001
         63  0.10000000E-001
         64  0.10000000E-001
         65  0.10000000E-001
         66  0.10000000E-001
         67  0.10000000E-001
         68  0.10000000E-001
         69  0.10000000E-001
         70  0.10000000E-001
         71  0.10000000E-001
         72  0.10000000E-001
         73  0.50000000E-002
         74  0.10000000E-001
         75  0.10000000E-001
         76  0.10000000E-001
         77  0.10000000E-001
         78  0.10000000E-001
         79  0.10000000E-001
         80  0.10000000E-001
         81  0.10000000E-001
         82  0.10000000E-001
         83  0.10000000E-001
         84  0.10000000E-001
         85  0.10000000E-001
         86  0.10000000E-001
         87  0.50000000E-002
         88  0.50000000E-002
         89  0.10000000E-001
         90  0.10000000E-001
         91  0.10000000E-001
         92  0.50000000E-002
         93  0.50000000E-002
         94  0.10000000E-001
         95  0.10000000E-001
         96  0.10000000E-001
         97  0.10000000E-001
         98  0.50000000E-002
         99  0.10000000E-001
        100  0.10000000E-001
        101  0.10000000E-001
        102  0.50000000E-002
        103  0.10000000E-001
        104  0.10000000E-001
        105  0.10000000E-001
        106  0.50000000E-002
        107  0.10000000E-001
        108  0.10000000E-001
        109  0.10000000E-001
        110  0.50000000E-002
        111  0.10000000E-001
        112  0.10000000E-001
        113  0.10000000E-001
        114  0.10000000E-001
        115  0.50000000E-002
        116  0.10000000E-001
        117  0.50000000E-002
        118  0.10000000E-001
        119  0.50000000E-002
        120  0.10000000E-001
        121  0.50000000E-002
End values

