{
    "authors": [
        "guillaume.houzeaux@bsc.es"
    ],
    "comparisons": [
        {
            "file": "cavtri03_maphys_gmres.post.res",
            "method": "absolute",
            "tolerance": 0
        }
    ],
    "description": "Test GMRES with MAPHYS to solve momentum equations.",
    "exclude": [
        "special"
    ],
    "executions": [
        {
            "mpi": 4,
	    "openmp": 0
        }
    ],
    "modules": [
        "nastin"
    ],
    "name": "cavtri03_maphys_gmres",
    "postprocess": "alya2pos",
    "timeout": "00:02:00",
    "enabled": false
}
