$------------------------------------------------------------
DIMENSIONS
  INCLUDE                  mesh2d.dims.dat
  SPACE_DIMENSIONS=        2
  TYPES_OF_ELEMENTS=       TRI03
  
  FIELDS = 5
        FIELD: 1, DIMEN= 1, NODES
        FIELD: 2, DIMEN= 1, NODES
        FIELD: 3, DIMEN= 1, NODES
        FIELD: 4, DIMEN= 1, NODES
        FIELD: 5, DIMEN= 2, NODES
  END_FIELDS

END_DIMENSIONS
$------------------------------------------------------------
STRATEGY
  INTEGRATION_RULE:          OPEN  
  DOMAIN_INTEGRATION_POINTS: 0 
  GROUPS:                    10
  EXTRAPOLATE:               ON
  BOUNDARY_ELEMENT:          OFF
END_STRATEGY
$-------------------------------------------------------------
GEOMETRY
  INCLUDE mesh2d.geo.dat
END_GEOMETRY
$-------------------------------------------------------------
SETS
  BOUNDARIES
    INCLUDE  mesh2d.fix.bou
  END_BOUNDARIES
END_SETS
$-------------------------------------------------------------
BOUNDARY_CONDITIONS
  ON_BOUNDARIES
    INCLUDE mesh2d.fix.bou
  END_ON_BOUNDARIES
END_BOUNDARY_CONDITIONS
$-------------------------------------------------------------
FIELDS
  FIELD= 1
    INCLUDE CON01.alya
  END_FIELD
  FIELD= 2
    INCLUDE CON02.alya
  END_FIELD
  FIELD= 3
    INCLUDE CON03.alya
  END_FIELD
  FIELD= 4
    INCLUDE CON04.alya
  END_FIELD
  FIELD= 5
    INCLUDE VELOC.alya
  END_FIELD
END_FIELDS
$--------------------------------------------------

