1.00000000E+001
7.47957495E+000
5.35822620E+000
4.15321305E+000
3.42281696E+000
2.95461597E+000
2.64173532E+000
2.42614466E+000
2.27415740E+000
2.16512547E+000
2.08582801E+000
2.02749964E+000
1.98416733E+000
1.95853826E+000
