# ALYA Lagrangian postprocess  
#
# HEADER
# T , Column :   1
# ILAGR , Column :   2
# ITYPE , Column :   3
# EXIST , Column :   4
# COORX , Column :   5
# COORY , Column :   6
# COORZ , Column :   7
# VELOX , Column :   8
# VELOY , Column :   9
# VELOZ , Column :  10
# DTK , Column :  11
# CD , Column :  12
# TEMPK , Column :  13
# MASSK , Column :  14
# MPIRA , Column :  15
# DIAMK , Column :  16
# TEMPF , Column :  17
# YVAPF , Column :  18
#               T            ILAGR            ITYPE            EXIST            COORX            COORY            COORZ            VELOX            VELOY            VELOZ              DTK               CD            TEMPK            MASSK            MPIRA            DIAMK            TEMPF            YVAPF            
  0.00000000E+000                1                1               -5  1.00000000E-001  0.00000000E+000  0.00000000E+000  1.00000000E+001  0.00000000E+000  0.00000000E+000  1.00000000E-002  0.00000000E+000  3.50000000E+002  8.02226863E-009  1.00000000E+000  2.50000000E-004  0.00000000E+000  0.00000000E+000
  2.00000000E-002                1                1               -1  2.78535206E-001  0.00000000E+000  0.00000000E+000  7.47957495E+000  0.00000000E+000  0.00000000E+000  1.00000000E-002  1.22764322E+000  3.28471355E+002  7.68640213E-009  1.00000000E+000  2.45941963E-004  3.73150000E+002  0.00000000E+000
  4.00000000E-002                1                1               -1  4.05355452E-001  0.00000000E+000  0.00000000E+000  5.35822620E+000  0.00000000E+000  0.00000000E+000  1.00000000E-002  1.47343325E+000  3.18258178E+002  7.48852908E-009  1.00000000E+000  2.43580372E-004  3.73150000E+002  0.00000000E+000
  6.00000000E-002                1                1               -1  4.99674562E-001  0.00000000E+000  0.00000000E+000  4.15321305E+000  0.00000000E+000  0.00000000E+000  1.00000000E-002  1.73759011E+000  3.13156837E+002  7.36077200E-009  2.00000000E+000  2.42074173E-004  3.73150000E+002  0.00000000E+000
  8.00000000E-002                1                1               -1  5.75009385E-001  0.00000000E+000  0.00000000E+000  3.42281696E+000  0.00000000E+000  0.00000000E+000  1.00000000E-002  2.00805473E+000  3.10242513E+002  7.26488932E-009  2.00000000E+000  2.40954901E-004  3.73150000E+002  0.00000000E+000
  1.00000000E-001                1                1               -1  6.38538570E-001  0.00000000E+000  0.00000000E+000  2.95461597E+000  0.00000000E+000  0.00000000E+000  1.00000000E-002  2.27497717E+000  3.08422548E+002  7.18608631E-009  2.00000000E+000  2.40041216E-004  3.73150000E+002  0.00000000E+000
  1.20000000E-001                1                1               -1  6.94351849E-001  0.00000000E+000  0.00000000E+000  2.64173532E+000  0.00000000E+000  0.00000000E+000  1.00000000E-002  2.52941510E+000  3.07216779E+002  7.11756640E-009  2.00000000E+000  2.39250000E-004  3.73150000E+002  0.00000000E+000
  1.40000000E-001                1                1               -1  7.44934081E-001  0.00000000E+000  0.00000000E+000  2.42614466E+000  0.00000000E+000  0.00000000E+000  1.00000000E-002  2.76400021E+000  3.06384491E+002  7.05572940E-009  2.00000000E+000  2.38537386E-004  3.73150000E+002  0.00000000E+000
  1.60000000E-001                1                1               -1  7.91872724E-001  0.00000000E+000  0.00000000E+000  2.27415740E+000  0.00000000E+000  0.00000000E+000  1.00000000E-002  2.97367737E+000  3.05792865E+002  6.99846512E-009  2.00000000E+000  2.37877762E-004  3.73150000E+002  0.00000000E+000
  1.80000000E-001                1                1               -1  8.36221429E-001  0.00000000E+000  0.00000000E+000  2.16512547E+000  0.00000000E+000  0.00000000E+000  1.00000000E-002  3.15601519E+000  3.05363173E+002  6.94444476E-009  2.00000000E+000  2.37255054E-004  3.73150000E+002  0.00000000E+000
  2.00000000E-001                1                1               -1  8.78700079E-001  0.00000000E+000  0.00000000E+000  2.08582801E+000  0.00000000E+000  0.00000000E+000  1.00000000E-002  3.31097717E+000  3.05046100E+002  6.89278777E-009  2.00000000E+000  2.36658633E-004  3.73150000E+002  0.00000000E+000
  2.20000000E-001                1                1               -1  9.19811393E-001  0.00000000E+000  0.00000000E+000  2.02749964E+000  0.00000000E+000  0.00000000E+000  1.00000000E-002  3.44033902E+000  3.04809359E+002  6.84288893E-009  2.00000000E+000  2.36081202E-004  3.73150000E+002  0.00000000E+000
  2.40000000E-001                1                1               -1  9.59912259E-001  0.00000000E+000  0.00000000E+000  1.98416733E+000  0.00000000E+000  0.00000000E+000  1.00000000E-002  3.54695695E+000  3.04631052E+002  6.79432136E-009  2.00000000E+000  2.35517615E-004  3.73150000E+002  0.00000000E+000
  2.55264913E-001                1                1               -3  9.90000110E-001  0.00000000E+000  0.00000000E+000  1.95853826E+000  0.00000000E+000  0.00000000E+000  1.00967233E-011  3.61595090E+000  3.04523434E+002  6.75795144E-009  2.00000000E+000  2.35094375E-004  3.73150000E+002  0.00000000E+000
