{
    "authors": [
        "guillaume.houzeaux@bsc.es"
    ],
    "comparisons": [
        {
            "file": "tet10-mm.post.msh",
            "method": "absolute",
            "tolerance": "1e-10"
        }
    ],
    "description": "Divide TET10 elements using 1 level of MM and parallelization",
    "exclude": [
        "special"
    ],
    "executions": [
        {
            "mpi": 6,
            "openmp": 0
        }
    ],
    "modules": [
        "temper"
    ],
    "name": "tet10-mm",
    "postprocess": "alya2pos"
}
