5.90319519E-005
7.47642205E-005
5.00758259E-005
5.92164304E-005
5.18936349E-005
6.86509217E-005
5.80849869E-005
7.38973666E-005
4.90911541E-005
5.82691593E-005
5.09287523E-005
6.77555862E-005
6.57572766E-005
4.98766398E-005
5.35977016E-005
5.86283080E-005
5.06683425E-005
5.16560782E-005
5.54065997E-005
6.56049693E-005
5.38019630E-005
4.08572868E-005
5.94351143E-005
5.04489721E-005
4.76209011E-005
6.63357023E-005
5.11406483E-005
5.73858943E-005
5.75344007E-005
7.33462791E-005
4.85000192E-005
5.77192589E-005
5.03478402E-005
6.72111357E-005
6.48376845E-005
4.88920432E-005
5.26310159E-005
5.76820103E-005
4.97045563E-005
5.06914224E-005
5.44443627E-005
6.46856474E-005
5.28350425E-005
3.98260041E-005
5.84874793E-005
4.94658580E-005
4.66346729E-005
6.54150881E-005
5.01764615E-005
5.64416229E-005
5.11496658E-005
4.96557273E-005
5.09009539E-005
5.34984501E-005
4.94266281E-005
3.52478205E-005
6.18774151E-005
5.05137426E-005
5.16630869E-005
4.67399590E-005
4.25172115E-005
4.83216440E-005
4.83065880E-005
5.30876635E-005
5.18821046E-005
5.70309809E-005
7.29024909E-005
4.79257791E-005
5.72170071E-005
4.97907280E-005
6.67513898E-005
6.42937557E-005
4.82993376E-005
5.20607648E-005
5.71298861E-005
4.91151476E-005
5.01089192E-005
5.38804730E-005
6.41414259E-005
5.22659838E-005
3.91408964E-005
5.79383781E-005
4.88771234E-005
4.60242459E-005
6.48730337E-005
4.95904139E-005
5.58844315E-005
5.01854711E-005
4.86708004E-005
4.99369740E-005
5.25318772E-005
4.84417734E-005
3.41738230E-005
6.09648185E-005
4.95448144E-005
5.06984245E-005
4.57536562E-005
4.15066745E-005
4.73353534E-005
4.73202999E-005
5.21215477E-005
5.09172331E-005
5.11991382E-005
5.37248482E-005
7.72659569E-005
4.35077363E-005
4.88493836E-005
4.82055646E-005
3.48941590E-005
4.98063336E-005
4.12767502E-005
5.65293874E-005
7.24816108E-005
4.73468522E-005
5.67167131E-005
4.92301656E-005
6.63054883E-005
6.38236586E-005
4.77231321E-005
5.15184079E-005
5.66238745E-005
4.85466278E-005
4.95496540E-005
5.33520267E-005
6.36706511E-005
5.17253175E-005
3.84501132E-005
5.74374977E-005
4.83065266E-005
4.54243071E-005
6.44052607E-005
4.90263929E-005
5.53701232E-005
4.95994867E-005
4.80764599E-005
4.93492344E-005
5.19610402E-005
4.78456111E-005
3.33915209E-005
6.04117864E-005
4.89553619E-005
5.01159686E-005
4.51349872E-005
4.08430729E-005
4.67311508E-005
4.67159665E-005
5.15482407E-005
5.03362445E-005
5.02348998E-005
5.27580167E-005
7.64245641E-005
4.24988423E-005
4.78646693E-005
4.72192914E-005
3.38174862E-005
4.88217619E-005
4.02476984E-005
4.89084196E-005
5.20009243E-005
5.16957907E-005
4.98372658E-005
6.39498218E-005
3.05904596E-005
4.90972742E-005
4.19057881E-005
5.60247504E-005
7.20645265E-005
4.67619642E-005
5.62134257E-005
4.86643074E-005
6.58602527E-005
6.33633369E-005
4.71421207E-005
5.09735689E-005
5.61194039E-005
4.79739631E-005
4.89868044E-005
5.28226659E-005
6.32095095E-005
5.11822862E-005
3.77482890E-005
5.69387317E-005
4.77314657E-005
4.48181847E-005
6.39479790E-005
4.84584658E-005
5.48564967E-005
4.90355498E-005
4.74980420E-005
4.87829248E-005
5.14178560E-005
4.72648722E-005
3.25936585E-005
5.99226822E-005
4.83854494E-005
4.95567673E-005
4.45250123E-005
4.01778658E-005
4.61388901E-005
4.61235436E-005
5.10015911E-005
4.97790283E-005
4.96492609E-005
5.21885100E-005
7.58661129E-005
4.18475626E-005
4.72637907E-005
4.66140774E-005
3.30277169E-005
4.82285088E-005
3.95681126E-005
4.79236937E-005
5.10359371E-005
5.07310974E-005
4.88526832E-005
6.30334642E-005
2.94424204E-005
4.81125070E-005
4.08905562E-005
5.02615414E-005
5.05648176E-005
5.13082647E-005
5.21631333E-005
4.85837039E-005
5.55164799E-005
7.16468960E-005
4.61707877E-005
5.57065424E-005
4.80928915E-005
6.54132311E-005
6.29023989E-005
4.65550690E-005
5.04240253E-005
5.56117800E-005
4.73955816E-005
4.84185642E-005
5.22891529E-005
6.27477022E-005
5.06346140E-005
3.70347858E-005
5.64370315E-005
4.71505898E-005
4.42050230E-005
6.34902977E-005
4.78849903E-005
5.43393735E-005
4.84677121E-005
4.69146930E-005
4.82126024E-005
5.08721328E-005
4.66790764E-005
3.17777837E-005
5.94398651E-005
4.78111787E-005
4.89939856E-005
4.39083479E-005
3.95030503E-005
4.55408357E-005
4.55253187E-005
5.04521680E-005
4.92183554E-005
4.90857854E-005
5.16472073E-005
7.54218387E-005
4.11964084E-005
4.66770883E-005
4.60205629E-005
3.22217504E-005
4.76516013E-005
3.88840067E-005
4.73233059E-005
5.04557350E-005
5.01488621E-005
4.82596713E-005
6.24857337E-005
2.85448915E-005
4.75136761E-005
4.02192499E-005
4.92785042E-005
4.95958486E-005
5.03439290E-005
5.11979855E-005
4.75973643E-005
4.79577582E-005
4.81682274E-005
4.88016460E-005
2.16569305E-005
5.15064272E-005
5.50044273E-005
7.12277202E-005
4.55731137E-005
5.51959146E-005
4.75157277E-005
6.49639254E-005
6.24391300E-005
4.59616468E-005
4.98694845E-005
5.51004382E-005
4.68112081E-005
4.78446927E-005
5.17511549E-005
6.22835385E-005
5.00820052E-005
3.63089233E-005
5.59317798E-005
4.65636301E-005
4.35844934E-005
6.30303860E-005
4.73056999E-005
5.38182598E-005
4.78943292E-005
4.63251588E-005
4.76366504E-005
5.03216740E-005
4.60870009E-005
3.09424534E-005
5.89551249E-005
4.72311258E-005
4.84258156E-005
4.32841768E-005
3.88179708E-005
4.49360682E-005
4.49203739E-005
4.98978783E-005
4.86523827E-005
4.85184370E-005
5.11034954E-005
7.50072705E-005
4.05363903E-005
4.60849537E-005
4.54211909E-005
3.13971197E-005
4.70698495E-005
3.81891812E-005
4.67372211E-005
4.98995872E-005
4.95899585E-005
4.76830729E-005
6.20072434E-005
2.76208585E-005
4.69295551E-005
3.95449482E-005
4.86883641E-005
4.90069614E-005
4.97590480E-005
5.06188467E-005
4.69955876E-005
4.69715129E-005
4.71819593E-005
4.78169405E-005
2.02382792E-005
5.05419109E-005
5.30024831E-005
2.49645774E-005
5.54789937E-005
5.44884850E-005
7.08067528E-005
4.49687155E-005
5.46814360E-005
4.69326124E-005
6.45122276E-005
6.19732110E-005
4.53616408E-005
4.93097744E-005
5.45852307E-005
4.62205631E-005
4.72649881E-005
5.12085149E-005
6.18167041E-005
4.95242906E-005
3.55699106E-005
5.54228273E-005
4.59703014E-005
4.29562966E-005
6.25679023E-005
4.67203810E-005
5.32930104E-005
4.73151347E-005
4.57291919E-005
4.70547944E-005
4.97661879E-005
4.54883953E-005
3.00860991E-005
5.84673366E-005
4.66450194E-005
4.78520169E-005
4.26521906E-005
3.81221674E-005
4.43242959E-005
4.43084171E-005
4.93384353E-005
4.80808484E-005
4.79455616E-005
5.05551186E-005
7.45993872E-005
3.98668646E-005
4.54863239E-005
4.48150530E-005
3.05523384E-005
4.64819742E-005
3.74830680E-005
4.61457371E-005
4.93400499E-005
4.90274929E-005
4.71016472E-005
6.15368684E-005
2.66673187E-005
4.63401402E-005
3.88605612E-005
4.81159421E-005
4.84374715E-005
4.91965864E-005
5.00641478E-005
4.64060567E-005
4.63641139E-005
4.65764184E-005
4.72156637E-005
1.89429160E-005
4.99583917E-005
5.20364601E-005
2.36801261E-005
5.45166753E-005
4.90366380E-005
5.39685453E-005
7.03839149E-005
4.43573264E-005
5.41630005E-005
4.63432725E-005
6.40580753E-005
6.15045428E-005
4.47548188E-005
4.87446925E-005
5.40660466E-005
4.56234409E-005
4.66792396E-005
5.06610875E-005
6.13471000E-005
4.89613009E-005
3.48169371E-005
5.49100693E-005
4.53703923E-005
4.23200585E-005
6.21027448E-005
4.61287549E-005
5.27634698E-005
4.67299152E-005
4.51265675E-005
4.64667608E-005
4.92055014E-005
4.48830290E-005
2.92068582E-005
5.79763064E-005
4.60525762E-005
4.72723877E-005
4.20119940E-005
3.74149520E-005
4.37052321E-005
4.36891613E-005
4.87736301E-005
4.75035620E-005
4.73668928E-005
5.00017825E-005
7.41919645E-005
3.91873870E-005
4.48809338E-005
4.42018549E-005
2.96857617E-005
4.58877293E-005
3.67650311E-005
4.55477835E-005
4.87752540E-005
4.84596620E-005
4.65141654E-005
6.10653008E-005
2.56811225E-005
4.57443368E-005
3.81653626E-005
4.75389536E-005
4.78637188E-005
4.86303137E-005
4.95061510E-005
4.58109486E-005
4.57678989E-005
4.59824991E-005
4.66284607E-005
1.75567832E-005
4.93977577E-005
5.14626318E-005
2.25730004E-005
5.39532620E-005
4.80518848E-005
4.92733701E-005
5.34444997E-005
6.99591639E-005
4.37386618E-005
5.36405017E-005
4.57475053E-005
6.36014160E-005
6.10330582E-005
4.41409081E-005
4.81740739E-005
5.35427780E-005
4.50196161E-005
4.60871678E-005
5.01087211E-005
6.08746589E-005
4.83928163E-005
3.40491326E-005
5.43934019E-005
4.47636711E-005
4.16754298E-005
6.16348483E-005
4.55306140E-005
5.22294849E-005
4.61383923E-005
4.45170233E-005
4.58723495E-005
4.86394100E-005
4.42706327E-005
2.83026998E-005
5.74819362E-005
4.54535868E-005
4.66867173E-005
4.13632257E-005
3.66957259E-005
4.30785437E-005
4.30622726E-005
4.82032978E-005
4.69203196E-005
4.67822180E-005
4.94433167E-005
7.37834486E-005
3.84973874E-005
4.42685129E-005
4.35812868E-005
2.87953777E-005
4.52868937E-005
3.60343718E-005
4.49430962E-005
4.82049374E-005
4.78862027E-005
4.59202968E-005
6.05910948E-005
2.46583884E-005
4.51418838E-005
3.74588547E-005
4.69560781E-005
4.72842066E-005
4.80585554E-005
4.89429810E-005
4.52092473E-005
4.51656891E-005
4.53827016E-005
4.60357986E-005
1.60565781E-005
4.88334248E-005
5.09152551E-005
2.14121902E-005
5.34253170E-005
4.74525562E-005
4.82885586E-005
5.29161976E-005
6.95324644E-005
4.31123894E-005
5.31137913E-005
4.51450882E-005
6.31421975E-005
6.05586937E-005
4.35195976E-005
4.75977353E-005
5.30152756E-005
4.44088233E-005
4.54885641E-005
4.95512561E-005
6.03993161E-005
4.78186864E-005
3.32654798E-005
5.38727168E-005
4.41498653E-005
4.10220654E-005
6.11641518E-005
4.49257306E-005
5.16909784E-005
4.55403586E-005
4.39002793E-005
4.52713409E-005
4.80677470E-005
4.36508999E-005
2.73711267E-005
5.69841403E-005
4.48478216E-005
4.60947266E-005
4.07055276E-005
3.59638091E-005
4.24439304E-005
4.24274503E-005
4.76272555E-005
4.63308478E-005
4.61912602E-005
4.88795212E-005
7.33734040E-005
3.77963290E-005
4.36487543E-005
4.29530498E-005
2.78789360E-005
4.46792093E-005
3.52902611E-005
4.43314064E-005
4.76289117E-005
4.73069250E-005
4.53198270E-005
6.01139819E-005
2.35943575E-005
4.45325179E-005
3.67403884E-005
4.63669895E-005
4.66986609E-005
4.74810416E-005
4.83743164E-005
4.46006638E-005
4.45565991E-005
4.47761213E-005
4.54366206E-005
1.44070143E-005
4.82636777E-005
5.03650565E-005
2.01884478E-005
5.28965468E-005
4.68678066E-005
4.76911618E-005
5.23834883E-005
6.91037817E-005
4.24782103E-005
5.25827207E-005
4.45357595E-005
6.26803661E-005
6.00813837E-005
4.28905865E-005
4.70154749E-005
5.24833896E-005
4.37907796E-005
4.48831997E-005
4.89885243E-005
5.99210056E-005
4.72387140E-005
3.24648378E-005
5.33479046E-005
4.35286640E-005
4.03595523E-005
6.06905928E-005
4.43138368E-005
5.11478128E-005
4.49355865E-005
4.32760091E-005
4.46634767E-005
4.74903272E-005
4.30235338E-005
2.64092751E-005
5.64828315E-005
4.42350104E-005
4.54962071E-005
4.00384712E-005
3.52183426E-005
4.18009483E-005
4.17842497E-005
4.70453020E-005
4.57349437E-005
4.55938134E-005
4.83102333E-005
7.29616909E-005
3.70836341E-005
4.30213614E-005
4.23167698E-005
2.69338951E-005
4.40644011E-005
3.45318619E-005
4.37124286E-005
4.70469755E-005
4.67216190E-005
4.47125230E-005
5.96338654E-005
2.24833441E-005
4.39159594E-005
3.60092868E-005
4.57714832E-005
4.61067996E-005
4.68975638E-005
4.78000005E-005
4.39849200E-005
4.39403289E-005
4.41624628E-005
4.48306607E-005
1.25497766E-005
4.76882462E-005
4.98099637E-005
1.88898619E-005
5.23636497E-005
4.62777293E-005
4.71088558E-005
5.18462957E-005
6.86730804E-005
4.18356822E-005
5.20472160E-005
4.39192399E-005
6.22158662E-005
5.96010605E-005
4.22534980E-005
4.64270217E-005
5.19470450E-005
4.31651546E-005
4.42708055E-005
4.84203065E-005
5.94396587E-005
4.66526879E-005
3.16459728E-005
5.28188137E-005
4.28997668E-005
3.96874351E-005
6.02141066E-005
4.36946466E-005
5.05998432E-005
4.43238085E-005
4.26439191E-005
4.40484814E-005
4.69069465E-005
4.23881630E-005
2.54138182E-005
5.59779191E-005
4.36148453E-005
4.48909302E-005
3.93615832E-005
3.44585502E-005
4.11493071E-005
4.11323799E-005
4.64571672E-005
4.51323845E-005
4.49896512E-005
4.77352720E-005
7.25482555E-005
3.63586338E-005
4.23859626E-005
4.16720972E-005
2.59570544E-005
4.34421557E-005
3.37582690E-005
4.30858298E-005
4.64588585E-005
4.61300063E-005
4.40981106E-005
5.91506178E-005
2.13179369E-005
4.32918901E-005
3.52646782E-005
4.51693373E-005
4.55084145E-005
4.63078478E-005
4.72198355E-005
4.33616996E-005
4.33165598E-005
4.35414151E-005
4.42176469E-005
1.03747974E-005
4.71069257E-005
4.92496911E-005
1.74997240E-005
5.18262867E-005
4.56812377E-005
4.65214086E-005
5.13044844E-005
6.82403243E-005
4.11845159E-005
5.15071439E-005
4.32952110E-005
6.17486404E-005
5.91175685E-005
4.16079803E-005
4.58321749E-005
5.14061076E-005
4.25316510E-005
4.36510747E-005
4.78464527E-005
5.89551181E-005
4.60603280E-005
3.08074084E-005
5.22852919E-005
4.22627973E-005
3.90052352E-005
5.97346264E-005
4.30678262E-005
5.00469172E-005
4.37047389E-005
4.20036139E-005
4.34260410E-005
4.63173312E-005
4.17444408E-005
2.43805621E-005
5.54693086E-005
4.29870285E-005
4.42786270E-005
3.86743207E-005
3.36834783E-005
4.04885997E-005
4.04714330E-005
4.58626508E-005
4.45229079E-005
4.43785076E-005
4.71544384E-005
7.21330639E-005
3.56205500E-005
4.17422112E-005
4.10186869E-005
2.49448038E-005
4.28121701E-005
3.29684000E-005
4.24513100E-005
4.58643607E-005
4.55318793E-005
4.34762775E-005
5.86641840E-005
2.00887684E-005
4.26600020E-005
3.45057782E-005
4.45602906E-005
4.49032773E-005
4.57116902E-005
4.66336097E-005
4.27306971E-005
4.26849850E-005
4.29126780E-005
4.35972709E-005
8.47018818E-006
4.65195022E-005
4.86840280E-005
1.59943890E-005
5.12843012E-005
4.50780697E-005
4.59276174E-005
5.07579114E-005
6.78054762E-005
4.05243060E-005
5.09623643E-005
4.26633651E-005
6.12786290E-005
5.86309173E-005
4.09536854E-005
4.52307139E-005
5.08604358E-005
4.18898290E-005
4.30237108E-005
4.72667662E-005
5.84673535E-005
4.54614251E-005
2.99475560E-005
5.17472625E-005
4.16174039E-005
3.83123715E-005
5.92520825E-005
4.24330753E-005
4.94888744E-005
4.30780443E-005
4.13547321E-005
4.27958521E-005
4.57212781E-005
4.10920252E-005
2.33046889E-005
5.49569014E-005
4.23511872E-005
4.36589910E-005
3.79761681E-005
3.28919907E-005
3.98183865E-005
3.98009684E-005
4.52615331E-005
4.39062344E-005
4.37600985E-005
4.65675197E-005
7.17160857E-005
3.48685733E-005
4.10897650E-005
4.03561257E-005
2.38927339E-005
4.21740633E-005
3.21610986E-005
4.18084258E-005
4.52632622E-005
4.49270104E-005
4.28467221E-005
5.81744805E-005
1.87836399E-005
4.20199077E-005
3.37316507E-005
4.39440644E-005
4.42911194E-005
4.51088676E-005
4.60410426E-005
4.20915280E-005
4.20452181E-005
4.22758758E-005
4.29692341E-005
8.47018829E-006
4.59256920E-005
4.81128082E-005
1.43379380E-005
5.07375488E-005
4.44679601E-005
4.53272298E-005
5.02064267E-005
6.73684482E-005
3.98546149E-005
5.04127299E-005
4.20233149E-005
6.08057704E-005
5.81409907E-005
4.02901971E-005
4.46223794E-005
5.03098809E-005
4.12394014E-005
4.23883423E-005
4.66810366E-005
5.79763262E-005
4.48557498E-005
2.90644827E-005
5.12045886E-005
4.09632393E-005
3.76082707E-005
5.87663158E-005
4.17899493E-005
4.89255455E-005
4.24434246E-005
4.06969152E-005
4.21575328E-005
4.51185641E-005
4.04305063E-005
2.21800631E-005
5.44405943E-005
4.17069732E-005
4.30317259E-005
3.72665124E-005
3.20829453E-005
3.91381786E-005
3.91204964E-005
4.46535555E-005
4.32820377E-005
4.31340926E-005
4.59742334E-005
7.12972911E-005
3.41018194E-005
4.04282141E-005
3.96839580E-005
2.27952899E-005
4.15274807E-005
3.13350264E-005
4.11568869E-005
4.46553046E-005
4.43151316E-005
4.22090645E-005
5.76814666E-005
1.73854043E-005
4.13712466E-005
3.29412091E-005
4.33203414E-005
4.36716336E-005
4.44991171E-005
4.54419245E-005
4.14438345E-005
4.13968993E-005
4.16306572E-005
4.23331631E-005
4.53252828E-005
4.75358472E-005
1.24707469E-005
5.01858790E-005
4.38506275E-005
4.47200112E-005
4.96498722E-005
6.69292479E-005
3.91749556E-005
4.98580855E-005
4.13746999E-005
6.03300006E-005
5.76477484E-005
3.96170561E-005
4.40068946E-005
4.97542863E-005
4.05799654E-005
4.17446225E-005
4.60889842E-005
5.74819563E-005
4.42430321E-005
2.81561411E-005
5.06571262E-005
4.02998874E-005
3.68923608E-005
5.82772951E-005
4.11381576E-005
4.83567100E-005
4.18004358E-005
4.00297341E-005
4.15107281E-005
4.45089267E-005
3.97594417E-005
2.09988232E-005
5.39202794E-005
4.10540429E-005
4.23964606E-005
3.65447196E-005
3.12550347E-005
3.84474125E-005
3.84294521E-005
4.40384421E-005
4.26500244E-005
4.25001915E-005
4.53743683E-005
7.08766495E-005
3.33192745E-005
3.97571158E-005
3.90017051E-005
2.16457602E-005
4.08720712E-005
3.04886857E-005
4.04962866E-005
4.40402120E-005
4.36959571E-005
4.15629516E-005
5.71850609E-005
1.58696860E-005
4.07136607E-005
3.21332929E-005
4.26888146E-005
4.30445263E-005
4.38821585E-005
4.48360255E-005
4.07872619E-005
4.07396719E-005
4.09766756E-005
4.16887090E-005
4.47180417E-005
4.69529419E-005
1.02794972E-005
4.96291333E-005
4.32257439E-005
4.41056877E-005
4.90880811E-005
6.64878354E-005
3.84847672E-005
4.92982679E-005
4.07171623E-005
5.98512532E-005
5.71511084E-005
3.89337353E-005
4.33839441E-005
4.91934870E-005
3.99110861E-005
4.10922094E-005
4.54904008E-005
5.69841606E-005
4.36229644E-005
2.72199037E-005
5.01047236E-005
3.96268897E-005
3.61639567E-005
5.77849811E-005
4.04772924E-005
4.77822170E-005
4.11487876E-005
3.93527121E-005
4.08550860E-005
4.38920856E-005
3.90783389E-005
1.97508603E-005
5.33958481E-005
4.03919847E-005
4.17528487E-005
3.58100808E-005
3.04066757E-005
3.77455481E-005
3.77272944E-005
4.34158786E-005
4.20097993E-005
4.18579541E-005
4.47676929E-005
7.04541296E-005
3.25198238E-005
3.90759777E-005
3.83087855E-005
2.04353081E-005
4.02074144E-005
2.96204149E-005
3.98261859E-005
4.34176702E-005
4.30691531E-005
4.09080338E-005
5.66851777E-005
1.41992348E-005
4.00467219E-005
3.13065578E-005
4.20490978E-005
4.24094758E-005
4.32576645E-005
4.42230751E-005
4.01213858E-005
4.00731092E-005
4.03135155E-005
4.10355275E-005
4.41036949E-005
4.63638199E-005
9.76383385E-006
4.90671447E-005
4.25930138E-005
4.34839472E-005
4.85208475E-005
6.60441684E-005
3.77835120E-005
4.87330749E-005
4.00502741E-005
5.93694592E-005
5.66509851E-005
3.82397353E-005
4.27532232E-005
4.86272790E-005
3.92322799E-005
4.04306931E-005
4.48850574E-005
5.64828519E-005
4.29952492E-005
2.62529428E-005
4.95472213E-005
3.89437195E-005
3.54222529E-005
5.72892926E-005
3.98069137E-005
4.72018685E-005
4.04880728E-005
3.86653117E-005
4.01901855E-005
4.32677143E-005
3.83866305E-005
1.84229851E-005
5.28671491E-005
3.97203540E-005
4.11005484E-005
3.50617208E-005
2.95361600E-005
3.70319770E-005
3.70134133E-005
4.27855614E-005
4.13610013E-005
4.12070919E-005
4.41539347E-005
7.00296992E-005
3.17022437E-005
3.83842320E-005
3.76046257E-005
1.91527144E-005
3.95330467E-005
2.87281816E-005
3.91460962E-005
4.27873756E-005
4.24344191E-005
4.02438925E-005
5.61817280E-005
1.23116983E-005
3.93699576E-005
3.04594999E-005
4.14008315E-005
4.17660368E-005
4.26253411E-005
4.36027650E-005
3.94457375E-005
3.93967398E-005
3.96407191E-005
4.03732060E-005
4.34819300E-005
4.57682788E-005
9.76383385E-006
4.84997069E-005
4.19520400E-005
4.28544883E-005
4.79480008E-005
6.55982035E-005
3.70705845E-005
4.81623413E-005
3.93735630E-005
5.88844607E-005
5.61472889E-005
3.75344633E-005
4.21143482E-005
4.80554954E-005
3.85429896E-005
3.97596312E-005
4.42726851E-005
5.59779397E-005
4.23595139E-005
2.52517579E-005
4.89844509E-005
3.82498782E-005
3.46664429E-005
5.67901448E-005
3.91265318E-005
4.66154525E-005
3.98178519E-005
3.79670138E-005
3.95155617E-005
4.26355188E-005
3.76837722E-005
1.69964204E-005
5.23340309E-005
3.90386562E-005
4.04391505E-005
3.42988077E-005
2.86415105E-005
3.63060494E-005
3.62871576E-005
4.21471081E-005
4.07032721E-005
4.05472006E-005
4.35327830E-005
6.96033252E-005
3.08650537E-005
3.76813344E-005
3.68886534E-005
1.77823110E-005
3.88484355E-005
2.78096991E-005
3.84554546E-005
4.21489460E-005
4.17913110E-005
3.95700660E-005
5.56746187E-005
1.19641587E-005
3.86828252E-005
2.95904013E-005
4.07436590E-005
4.11139174E-005
4.19847921E-005
4.29747970E-005
3.87597793E-005
3.87100229E-005
3.89577606E-005
3.97012843E-005
4.28524458E-005
4.51660966E-005
9.76383385E-006
4.79266488E-005
4.13024586E-005
4.22169316E-005
