0.00000000E+000
0.00000000E+000
0.00000000E+000
0.00000000E+000
0.00000000E+000
0.00000000E+000
0.00000000E+000
0.00000000E+000
0.00000000E+000
0.00000000E+000
0.00000000E+000
0.00000000E+000
5.00000000E-002
5.00000000E-002
5.00000000E-002
5.00000000E-002
5.00000000E-002
5.00000000E-002
5.00000000E-002
5.00000000E-002
5.00000000E-002
5.00000000E-002
5.00000000E-002
5.00000000E-002
5.00000000E-002
5.00000000E-002
5.00000000E-002
5.00000000E-002
0.00000000E+000
0.00000000E+000
0.00000000E+000
0.00000000E+000
0.00000000E+000
0.00000000E+000
5.00000000E-002
5.00000000E-002
5.00000000E-002
5.00000000E-002
5.00000000E-002
5.00000000E-002
5.00000000E-002
5.00000000E-002
5.00000000E-002
5.00000000E-002
5.00000000E-002
5.00000000E-002
5.00000000E-002
5.00000000E-002
5.00000000E-002
5.00000000E-002
1.00000000E-001
1.00000000E-001
1.00000000E-001
1.00000000E-001
1.00000000E-001
1.00000000E-001
1.00000000E-001
1.00000000E-001
1.00000000E-001
1.00000000E-001
1.00000000E-001
1.00000000E-001
1.00000000E-001
1.00000000E-001
1.00000000E-001
0.00000000E+000
0.00000000E+000
0.00000000E+000
0.00000000E+000
0.00000000E+000
0.00000000E+000
5.00000000E-002
5.00000000E-002
5.00000000E-002
5.00000000E-002
5.00000000E-002
5.00000000E-002
5.00000000E-002
5.00000000E-002
5.00000000E-002
5.00000000E-002
5.00000000E-002
5.00000000E-002
5.00000000E-002
5.00000000E-002
5.00000000E-002
5.00000000E-002
1.00000000E-001
1.00000000E-001
1.00000000E-001
1.00000000E-001
1.00000000E-001
1.00000000E-001
1.00000000E-001
1.00000000E-001
1.00000000E-001
1.00000000E-001
1.00000000E-001
1.00000000E-001
1.00000000E-001
1.00000000E-001
1.00000000E-001
1.50000000E-001
1.50000000E-001
1.50000000E-001
1.50000000E-001
1.50000000E-001
1.50000000E-001
1.50000000E-001
1.50000000E-001
1.50000000E-001
0.00000000E+000
0.00000000E+000
0.00000000E+000
0.00000000E+000
0.00000000E+000
0.00000000E+000
5.00000000E-002
5.00000000E-002
5.00000000E-002
5.00000000E-002
5.00000000E-002
5.00000000E-002
5.00000000E-002
5.00000000E-002
5.00000000E-002
5.00000000E-002
5.00000000E-002
5.00000000E-002
5.00000000E-002
5.00000000E-002
5.00000000E-002
5.00000000E-002
1.00000000E-001
1.00000000E-001
1.00000000E-001
1.00000000E-001
1.00000000E-001
1.00000000E-001
1.00000000E-001
1.00000000E-001
1.00000000E-001
1.00000000E-001
1.00000000E-001
1.00000000E-001
1.00000000E-001
1.00000000E-001
1.00000000E-001
1.50000000E-001
1.50000000E-001
1.50000000E-001
1.50000000E-001
1.50000000E-001
1.50000000E-001
1.50000000E-001
1.50000000E-001
1.50000000E-001
2.00000000E-001
2.00000000E-001
2.00000000E-001
2.00000000E-001
2.00000000E-001
2.00000000E-001
2.00000000E-001
2.00000000E-001
0.00000000E+000
0.00000000E+000
0.00000000E+000
0.00000000E+000
0.00000000E+000
0.00000000E+000
5.00000000E-002
5.00000000E-002
5.00000000E-002
5.00000000E-002
5.00000000E-002
5.00000000E-002
5.00000000E-002
5.00000000E-002
5.00000000E-002
5.00000000E-002
5.00000000E-002
5.00000000E-002
5.00000000E-002
5.00000000E-002
5.00000000E-002
5.00000000E-002
1.00000000E-001
1.00000000E-001
1.00000000E-001
1.00000000E-001
1.00000000E-001
1.00000000E-001
1.00000000E-001
1.00000000E-001
1.00000000E-001
1.00000000E-001
1.00000000E-001
1.00000000E-001
1.00000000E-001
1.00000000E-001
1.00000000E-001
1.50000000E-001
1.50000000E-001
1.50000000E-001
1.50000000E-001
1.50000000E-001
1.50000000E-001
1.50000000E-001
1.50000000E-001
1.50000000E-001
2.00000000E-001
2.00000000E-001
2.00000000E-001
2.00000000E-001
2.00000000E-001
2.00000000E-001
2.00000000E-001
2.00000000E-001
2.50000000E-001
2.50000000E-001
2.50000000E-001
2.50000000E-001
2.50000000E-001
0.00000000E+000
0.00000000E+000
0.00000000E+000
0.00000000E+000
0.00000000E+000
0.00000000E+000
5.00000000E-002
5.00000000E-002
5.00000000E-002
5.00000000E-002
5.00000000E-002
5.00000000E-002
5.00000000E-002
5.00000000E-002
5.00000000E-002
5.00000000E-002
5.00000000E-002
5.00000000E-002
5.00000000E-002
5.00000000E-002
5.00000000E-002
5.00000000E-002
1.00000000E-001
1.00000000E-001
1.00000000E-001
1.00000000E-001
1.00000000E-001
1.00000000E-001
1.00000000E-001
1.00000000E-001
1.00000000E-001
1.00000000E-001
1.00000000E-001
1.00000000E-001
1.00000000E-001
1.00000000E-001
1.00000000E-001
1.50000000E-001
1.50000000E-001
1.50000000E-001
1.50000000E-001
1.50000000E-001
1.50000000E-001
1.50000000E-001
1.50000000E-001
1.50000000E-001
2.00000000E-001
2.00000000E-001
2.00000000E-001
2.00000000E-001
2.00000000E-001
2.00000000E-001
2.00000000E-001
2.00000000E-001
2.50000000E-001
2.50000000E-001
2.50000000E-001
2.50000000E-001
2.50000000E-001
3.00000000E-001
3.00000000E-001
3.00000000E-001
3.00000000E-001
3.00000000E-001
0.00000000E+000
0.00000000E+000
0.00000000E+000
0.00000000E+000
0.00000000E+000
0.00000000E+000
5.00000000E-002
5.00000000E-002
5.00000000E-002
5.00000000E-002
5.00000000E-002
5.00000000E-002
5.00000000E-002
5.00000000E-002
5.00000000E-002
5.00000000E-002
5.00000000E-002
5.00000000E-002
5.00000000E-002
5.00000000E-002
5.00000000E-002
5.00000000E-002
1.00000000E-001
1.00000000E-001
1.00000000E-001
1.00000000E-001
1.00000000E-001
1.00000000E-001
1.00000000E-001
1.00000000E-001
1.00000000E-001
1.00000000E-001
1.00000000E-001
1.00000000E-001
1.00000000E-001
1.00000000E-001
1.00000000E-001
1.50000000E-001
1.50000000E-001
1.50000000E-001
1.50000000E-001
1.50000000E-001
1.50000000E-001
1.50000000E-001
1.50000000E-001
1.50000000E-001
2.00000000E-001
2.00000000E-001
2.00000000E-001
2.00000000E-001
2.00000000E-001
2.00000000E-001
2.00000000E-001
2.00000000E-001
2.50000000E-001
2.50000000E-001
2.50000000E-001
2.50000000E-001
2.50000000E-001
3.00000000E-001
3.00000000E-001
3.00000000E-001
3.00000000E-001
3.00000000E-001
3.50000000E-001
3.50000000E-001
3.50000000E-001
0.00000000E+000
0.00000000E+000
0.00000000E+000
0.00000000E+000
0.00000000E+000
0.00000000E+000
5.00000000E-002
5.00000000E-002
5.00000000E-002
5.00000000E-002
5.00000000E-002
5.00000000E-002
5.00000000E-002
5.00000000E-002
5.00000000E-002
5.00000000E-002
5.00000000E-002
5.00000000E-002
5.00000000E-002
5.00000000E-002
5.00000000E-002
5.00000000E-002
1.00000000E-001
1.00000000E-001
1.00000000E-001
1.00000000E-001
1.00000000E-001
1.00000000E-001
1.00000000E-001
1.00000000E-001
1.00000000E-001
1.00000000E-001
1.00000000E-001
1.00000000E-001
1.00000000E-001
1.00000000E-001
1.00000000E-001
1.50000000E-001
1.50000000E-001
1.50000000E-001
1.50000000E-001
1.50000000E-001
1.50000000E-001
1.50000000E-001
1.50000000E-001
1.50000000E-001
2.00000000E-001
2.00000000E-001
2.00000000E-001
2.00000000E-001
2.00000000E-001
2.00000000E-001
2.00000000E-001
2.00000000E-001
2.50000000E-001
2.50000000E-001
2.50000000E-001
2.50000000E-001
2.50000000E-001
3.00000000E-001
3.00000000E-001
3.00000000E-001
3.00000000E-001
3.00000000E-001
3.50000000E-001
3.50000000E-001
3.50000000E-001
4.00000000E-001
0.00000000E+000
0.00000000E+000
0.00000000E+000
0.00000000E+000
0.00000000E+000
0.00000000E+000
5.00000000E-002
5.00000000E-002
5.00000000E-002
5.00000000E-002
5.00000000E-002
5.00000000E-002
5.00000000E-002
5.00000000E-002
5.00000000E-002
5.00000000E-002
5.00000000E-002
5.00000000E-002
5.00000000E-002
5.00000000E-002
5.00000000E-002
5.00000000E-002
1.00000000E-001
1.00000000E-001
1.00000000E-001
1.00000000E-001
1.00000000E-001
1.00000000E-001
1.00000000E-001
1.00000000E-001
1.00000000E-001
1.00000000E-001
1.00000000E-001
1.00000000E-001
1.00000000E-001
1.00000000E-001
1.00000000E-001
1.50000000E-001
1.50000000E-001
1.50000000E-001
1.50000000E-001
1.50000000E-001
1.50000000E-001
1.50000000E-001
1.50000000E-001
1.50000000E-001
2.00000000E-001
2.00000000E-001
2.00000000E-001
2.00000000E-001
2.00000000E-001
2.00000000E-001
2.00000000E-001
2.00000000E-001
2.50000000E-001
2.50000000E-001
2.50000000E-001
2.50000000E-001
2.50000000E-001
3.00000000E-001
3.00000000E-001
3.00000000E-001
3.00000000E-001
3.00000000E-001
3.50000000E-001
3.50000000E-001
3.50000000E-001
4.00000000E-001
4.50000000E-001
0.00000000E+000
0.00000000E+000
0.00000000E+000
0.00000000E+000
0.00000000E+000
0.00000000E+000
5.00000000E-002
5.00000000E-002
5.00000000E-002
5.00000000E-002
5.00000000E-002
5.00000000E-002
5.00000000E-002
5.00000000E-002
5.00000000E-002
5.00000000E-002
5.00000000E-002
5.00000000E-002
5.00000000E-002
5.00000000E-002
5.00000000E-002
5.00000000E-002
1.00000000E-001
1.00000000E-001
1.00000000E-001
1.00000000E-001
1.00000000E-001
1.00000000E-001
1.00000000E-001
1.00000000E-001
1.00000000E-001
1.00000000E-001
1.00000000E-001
1.00000000E-001
1.00000000E-001
1.00000000E-001
1.00000000E-001
1.50000000E-001
1.50000000E-001
1.50000000E-001
1.50000000E-001
1.50000000E-001
1.50000000E-001
1.50000000E-001
1.50000000E-001
1.50000000E-001
2.00000000E-001
2.00000000E-001
2.00000000E-001
2.00000000E-001
2.00000000E-001
2.00000000E-001
2.00000000E-001
2.00000000E-001
2.50000000E-001
2.50000000E-001
2.50000000E-001
2.50000000E-001
2.50000000E-001
3.00000000E-001
3.00000000E-001
3.00000000E-001
3.00000000E-001
3.00000000E-001
3.50000000E-001
3.50000000E-001
3.50000000E-001
4.00000000E-001
4.50000000E-001
0.00000000E+000
0.00000000E+000
0.00000000E+000
0.00000000E+000
0.00000000E+000
0.00000000E+000
5.00000000E-002
5.00000000E-002
5.00000000E-002
5.00000000E-002
5.00000000E-002
5.00000000E-002
5.00000000E-002
5.00000000E-002
5.00000000E-002
5.00000000E-002
5.00000000E-002
5.00000000E-002
5.00000000E-002
5.00000000E-002
5.00000000E-002
5.00000000E-002
1.00000000E-001
1.00000000E-001
1.00000000E-001
1.00000000E-001
1.00000000E-001
1.00000000E-001
1.00000000E-001
1.00000000E-001
1.00000000E-001
1.00000000E-001
1.00000000E-001
1.00000000E-001
1.00000000E-001
1.00000000E-001
1.00000000E-001
1.50000000E-001
1.50000000E-001
1.50000000E-001
1.50000000E-001
1.50000000E-001
1.50000000E-001
1.50000000E-001
1.50000000E-001
1.50000000E-001
2.00000000E-001
2.00000000E-001
2.00000000E-001
2.00000000E-001
2.00000000E-001
2.00000000E-001
2.00000000E-001
2.00000000E-001
2.50000000E-001
2.50000000E-001
2.50000000E-001
2.50000000E-001
2.50000000E-001
3.00000000E-001
3.00000000E-001
3.00000000E-001
3.00000000E-001
3.00000000E-001
3.50000000E-001
3.50000000E-001
3.50000000E-001
4.00000000E-001
4.50000000E-001
0.00000000E+000
0.00000000E+000
0.00000000E+000
0.00000000E+000
0.00000000E+000
0.00000000E+000
5.00000000E-002
5.00000000E-002
5.00000000E-002
5.00000000E-002
5.00000000E-002
5.00000000E-002
5.00000000E-002
5.00000000E-002
5.00000000E-002
5.00000000E-002
5.00000000E-002
5.00000000E-002
5.00000000E-002
5.00000000E-002
5.00000000E-002
5.00000000E-002
1.00000000E-001
1.00000000E-001
1.00000000E-001
1.00000000E-001
1.00000000E-001
1.00000000E-001
1.00000000E-001
1.00000000E-001
1.00000000E-001
1.00000000E-001
1.00000000E-001
1.00000000E-001
1.00000000E-001
1.00000000E-001
1.00000000E-001
1.50000000E-001
1.50000000E-001
1.50000000E-001
1.50000000E-001
1.50000000E-001
1.50000000E-001
1.50000000E-001
1.50000000E-001
1.50000000E-001
2.00000000E-001
2.00000000E-001
2.00000000E-001
2.00000000E-001
2.00000000E-001
2.00000000E-001
2.00000000E-001
2.00000000E-001
2.50000000E-001
2.50000000E-001
2.50000000E-001
2.50000000E-001
2.50000000E-001
3.00000000E-001
3.00000000E-001
3.00000000E-001
3.00000000E-001
3.00000000E-001
3.50000000E-001
3.50000000E-001
3.50000000E-001
4.00000000E-001
4.50000000E-001
0.00000000E+000
0.00000000E+000
0.00000000E+000
0.00000000E+000
0.00000000E+000
0.00000000E+000
5.00000000E-002
5.00000000E-002
5.00000000E-002
5.00000000E-002
5.00000000E-002
5.00000000E-002
5.00000000E-002
5.00000000E-002
5.00000000E-002
5.00000000E-002
5.00000000E-002
5.00000000E-002
5.00000000E-002
5.00000000E-002
5.00000000E-002
5.00000000E-002
1.00000000E-001
1.00000000E-001
1.00000000E-001
1.00000000E-001
1.00000000E-001
1.00000000E-001
1.00000000E-001
1.00000000E-001
1.00000000E-001
1.00000000E-001
1.00000000E-001
1.00000000E-001
1.00000000E-001
1.00000000E-001
1.00000000E-001
1.50000000E-001
1.50000000E-001
1.50000000E-001
1.50000000E-001
1.50000000E-001
1.50000000E-001
1.50000000E-001
1.50000000E-001
1.50000000E-001
2.00000000E-001
2.00000000E-001
2.00000000E-001
2.00000000E-001
2.00000000E-001
2.00000000E-001
2.00000000E-001
2.00000000E-001
2.50000000E-001
2.50000000E-001
2.50000000E-001
2.50000000E-001
2.50000000E-001
3.00000000E-001
3.00000000E-001
3.00000000E-001
3.00000000E-001
3.00000000E-001
3.50000000E-001
3.50000000E-001
3.50000000E-001
4.00000000E-001
4.50000000E-001
0.00000000E+000
0.00000000E+000
0.00000000E+000
0.00000000E+000
0.00000000E+000
0.00000000E+000
5.00000000E-002
5.00000000E-002
5.00000000E-002
5.00000000E-002
5.00000000E-002
5.00000000E-002
5.00000000E-002
5.00000000E-002
5.00000000E-002
5.00000000E-002
5.00000000E-002
5.00000000E-002
5.00000000E-002
5.00000000E-002
5.00000000E-002
5.00000000E-002
1.00000000E-001
1.00000000E-001
1.00000000E-001
1.00000000E-001
1.00000000E-001
1.00000000E-001
1.00000000E-001
1.00000000E-001
1.00000000E-001
1.00000000E-001
1.00000000E-001
1.00000000E-001
1.00000000E-001
1.00000000E-001
1.00000000E-001
1.50000000E-001
1.50000000E-001
1.50000000E-001
1.50000000E-001
1.50000000E-001
1.50000000E-001
1.50000000E-001
1.50000000E-001
1.50000000E-001
2.00000000E-001
2.00000000E-001
2.00000000E-001
2.00000000E-001
2.00000000E-001
2.00000000E-001
2.00000000E-001
2.00000000E-001
2.50000000E-001
2.50000000E-001
2.50000000E-001
2.50000000E-001
2.50000000E-001
3.00000000E-001
3.00000000E-001
3.00000000E-001
3.00000000E-001
3.00000000E-001
3.50000000E-001
3.50000000E-001
3.50000000E-001
4.00000000E-001
4.50000000E-001
0.00000000E+000
0.00000000E+000
0.00000000E+000
0.00000000E+000
0.00000000E+000
0.00000000E+000
5.00000000E-002
5.00000000E-002
5.00000000E-002
5.00000000E-002
5.00000000E-002
5.00000000E-002
5.00000000E-002
5.00000000E-002
5.00000000E-002
5.00000000E-002
5.00000000E-002
5.00000000E-002
5.00000000E-002
5.00000000E-002
5.00000000E-002
5.00000000E-002
1.00000000E-001
1.00000000E-001
1.00000000E-001
1.00000000E-001
1.00000000E-001
1.00000000E-001
1.00000000E-001
1.00000000E-001
1.00000000E-001
1.00000000E-001
1.00000000E-001
1.00000000E-001
1.00000000E-001
1.00000000E-001
1.00000000E-001
1.50000000E-001
1.50000000E-001
1.50000000E-001
1.50000000E-001
1.50000000E-001
1.50000000E-001
1.50000000E-001
1.50000000E-001
1.50000000E-001
2.00000000E-001
2.00000000E-001
2.00000000E-001
2.00000000E-001
2.00000000E-001
2.00000000E-001
2.00000000E-001
2.00000000E-001
2.50000000E-001
2.50000000E-001
2.50000000E-001
2.50000000E-001
2.50000000E-001
3.00000000E-001
3.00000000E-001
3.00000000E-001
3.00000000E-001
3.00000000E-001
3.50000000E-001
3.50000000E-001
3.50000000E-001
4.00000000E-001
4.50000000E-001
0.00000000E+000
0.00000000E+000
0.00000000E+000
0.00000000E+000
0.00000000E+000
0.00000000E+000
5.00000000E-002
5.00000000E-002
5.00000000E-002
5.00000000E-002
5.00000000E-002
5.00000000E-002
5.00000000E-002
5.00000000E-002
5.00000000E-002
5.00000000E-002
5.00000000E-002
5.00000000E-002
5.00000000E-002
5.00000000E-002
5.00000000E-002
5.00000000E-002
1.00000000E-001
1.00000000E-001
1.00000000E-001
1.00000000E-001
1.00000000E-001
1.00000000E-001
1.00000000E-001
1.00000000E-001
1.00000000E-001
1.00000000E-001
1.00000000E-001
1.00000000E-001
1.00000000E-001
1.00000000E-001
1.00000000E-001
1.50000000E-001
1.50000000E-001
1.50000000E-001
1.50000000E-001
1.50000000E-001
1.50000000E-001
1.50000000E-001
1.50000000E-001
1.50000000E-001
2.00000000E-001
2.00000000E-001
2.00000000E-001
2.00000000E-001
2.00000000E-001
2.00000000E-001
2.00000000E-001
2.00000000E-001
2.50000000E-001
2.50000000E-001
2.50000000E-001
2.50000000E-001
2.50000000E-001
3.00000000E-001
3.00000000E-001
3.00000000E-001
3.00000000E-001
3.50000000E-001
3.50000000E-001
3.50000000E-001
4.00000000E-001
4.50000000E-001
0.00000000E+000
0.00000000E+000
0.00000000E+000
0.00000000E+000
0.00000000E+000
0.00000000E+000
5.00000000E-002
5.00000000E-002
5.00000000E-002
5.00000000E-002
5.00000000E-002
5.00000000E-002
5.00000000E-002
5.00000000E-002
5.00000000E-002
5.00000000E-002
5.00000000E-002
5.00000000E-002
5.00000000E-002
5.00000000E-002
5.00000000E-002
5.00000000E-002
1.00000000E-001
1.00000000E-001
1.00000000E-001
1.00000000E-001
1.00000000E-001
1.00000000E-001
1.00000000E-001
1.00000000E-001
1.00000000E-001
1.00000000E-001
1.00000000E-001
1.00000000E-001
1.00000000E-001
1.00000000E-001
1.00000000E-001
1.50000000E-001
1.50000000E-001
1.50000000E-001
1.50000000E-001
1.50000000E-001
1.50000000E-001
1.50000000E-001
1.50000000E-001
1.50000000E-001
2.00000000E-001
2.00000000E-001
2.00000000E-001
2.00000000E-001
2.00000000E-001
2.00000000E-001
2.00000000E-001
2.00000000E-001
2.50000000E-001
2.50000000E-001
2.50000000E-001
2.50000000E-001
2.50000000E-001
3.00000000E-001
3.00000000E-001
3.00000000E-001
3.00000000E-001
3.50000000E-001
3.50000000E-001
3.50000000E-001
4.00000000E-001
4.50000000E-001
0.00000000E+000
0.00000000E+000
0.00000000E+000
0.00000000E+000
0.00000000E+000
0.00000000E+000
5.00000000E-002
5.00000000E-002
5.00000000E-002
5.00000000E-002
5.00000000E-002
5.00000000E-002
5.00000000E-002
5.00000000E-002
5.00000000E-002
5.00000000E-002
5.00000000E-002
5.00000000E-002
5.00000000E-002
5.00000000E-002
5.00000000E-002
5.00000000E-002
1.00000000E-001
1.00000000E-001
1.00000000E-001
1.00000000E-001
1.00000000E-001
1.00000000E-001
1.00000000E-001
1.00000000E-001
1.00000000E-001
1.00000000E-001
1.00000000E-001
1.00000000E-001
1.00000000E-001
1.00000000E-001
1.00000000E-001
1.50000000E-001
1.50000000E-001
1.50000000E-001
1.50000000E-001
1.50000000E-001
1.50000000E-001
1.50000000E-001
1.50000000E-001
1.50000000E-001
2.00000000E-001
2.00000000E-001
2.00000000E-001
2.00000000E-001
2.00000000E-001
2.00000000E-001
2.00000000E-001
2.00000000E-001
2.50000000E-001
2.50000000E-001
2.50000000E-001
2.50000000E-001
2.50000000E-001
3.00000000E-001
3.00000000E-001
3.00000000E-001
3.00000000E-001
3.50000000E-001
3.50000000E-001
3.50000000E-001
4.00000000E-001
4.50000000E-001
0.00000000E+000
0.00000000E+000
0.00000000E+000
0.00000000E+000
0.00000000E+000
0.00000000E+000
5.00000000E-002
5.00000000E-002
5.00000000E-002
5.00000000E-002
5.00000000E-002
5.00000000E-002
5.00000000E-002
5.00000000E-002
5.00000000E-002
5.00000000E-002
5.00000000E-002
5.00000000E-002
5.00000000E-002
5.00000000E-002
5.00000000E-002
5.00000000E-002
1.00000000E-001
1.00000000E-001
1.00000000E-001
1.00000000E-001
1.00000000E-001
1.00000000E-001
1.00000000E-001
1.00000000E-001
1.00000000E-001
1.00000000E-001
1.00000000E-001
1.00000000E-001
1.00000000E-001
1.00000000E-001
1.00000000E-001
1.50000000E-001
1.50000000E-001
1.50000000E-001
1.50000000E-001
1.50000000E-001
1.50000000E-001
1.50000000E-001
1.50000000E-001
1.50000000E-001
2.00000000E-001
2.00000000E-001
2.00000000E-001
2.00000000E-001
2.00000000E-001
2.00000000E-001
2.00000000E-001
2.00000000E-001
2.50000000E-001
2.50000000E-001
2.50000000E-001
2.50000000E-001
2.50000000E-001
3.00000000E-001
3.00000000E-001
3.00000000E-001
3.00000000E-001
3.50000000E-001
3.50000000E-001
3.50000000E-001
4.00000000E-001
4.50000000E-001
0.00000000E+000
0.00000000E+000
0.00000000E+000
0.00000000E+000
0.00000000E+000
0.00000000E+000
5.00000000E-002
5.00000000E-002
5.00000000E-002
5.00000000E-002
5.00000000E-002
5.00000000E-002
5.00000000E-002
5.00000000E-002
5.00000000E-002
5.00000000E-002
5.00000000E-002
5.00000000E-002
5.00000000E-002
5.00000000E-002
5.00000000E-002
5.00000000E-002
1.00000000E-001
1.00000000E-001
1.00000000E-001
1.00000000E-001
1.00000000E-001
1.00000000E-001
1.00000000E-001
1.00000000E-001
1.00000000E-001
1.00000000E-001
1.00000000E-001
1.00000000E-001
1.00000000E-001
1.00000000E-001
1.00000000E-001
1.50000000E-001
1.50000000E-001
1.50000000E-001
1.50000000E-001
1.50000000E-001
1.50000000E-001
1.50000000E-001
1.50000000E-001
1.50000000E-001
2.00000000E-001
2.00000000E-001
2.00000000E-001
2.00000000E-001
2.00000000E-001
2.00000000E-001
2.00000000E-001
2.00000000E-001
2.50000000E-001
2.50000000E-001
2.50000000E-001
2.50000000E-001
2.50000000E-001
3.00000000E-001
3.00000000E-001
3.00000000E-001
3.00000000E-001
3.50000000E-001
3.50000000E-001
3.50000000E-001
4.00000000E-001
4.50000000E-001
