$------------------------------------------------------------                         
PHYSICAL_PROBLEM  
                                                    
END_PHYSICAL_PROBLEM                                                                  
$------------------------------------------------------------                         
NUMERICAL_TREATMENT  

  MESH
    DIVISION=1
  END_MESH
                         
                                        
$  STABILIZATION_STRATEGY:  SUPG
$  MAXIMUM_NUMBER_OF_ITER:  3
$  CONVERGENCE_TOLERANCE:   1.0e-3   
$  NITSCHE                  1.0  smooth   
$  RELAXATION=              1.0
                               
$  ALGEBRAIC_SOLVER     
$    SOLVER:                GMRES, KRYLOV=10
$    CONVERGENCE:           ITERA=1000, TOLER=1.0e-10, ADAPTIVE, RATIO=1.0e-2
$    OUTPUT:                CONVERGENCE
$    PRECONDITIONER:        DIAGONAL
$  END_ALGEBRAIC_SOLVER        

END_NUMERICAL_TREATMENT                                                         
$------------------------------------------------------------
OUTPUT_&_POST_PROCESS  
  ON_ORIGINAL_MESH
  POSTPROCESS RADIATION, STEPS=1
  POSTPROCESS ENERGY, STEPS=1
  POSTPROCESS FLUX,      STEPS=1
  POSTPROCESS CURRENT,   STEPS=1

END_OUTPUT_&_POST_PROCESS  
$------------------------------------------------------------
BOUNDARY_CONDITIONS
   CODES, BOUNDARIES, ALL
     1 4
     2 1
     3 3
   END_CODES
END_BOUNDARY_CONDITIONS  
$------------------------------------------------------------
