{
    "authors": [
        "guillaume.houzeaux@bsc.es"
    ],
    "comparisons": [
        {
            "file": "uniform_fs_consistent-PRESS-00000000.post.mpio.txt",
            "method": "absolute",
            "tolerance": "1.0e-12"
        },
        {
            "file": "uniform_fs_consistent-VELOC-00000000.post.mpio.txt",
            "method": "absolute",
            "tolerance": "1.0e-12"
        },
        {
            "file": "uniform_fs_consistent-PRESS-00000300.post.mpio.txt",
            "method": "absolute",
            "tolerance": "1.0e-10"
        },
        {
            "file": "uniform_fs_consistent-VELOC-00000300.post.mpio.txt",
            "method": "absolute",
            "tolerance": "1.0e-12"
        }
		  
    ],
    "description": "Check that the fraction step method captures a uniform flow including local axes as a boundary condition and consistent mass matrix",
    "exclude": [
        "special"
    ],
    "executions": [
        {
            "mpi": 4,
            "openmp": 0
        },
        {
            "mpi": 3,
            "openmp": 3
        }
    ],
    "modules": [
        "nastin"
    ],
    "name": "uniform_fs_consistent",
    "postprocess": "mpio2txt",
    "timeout": "00:05:00"
}
