$------------------------------------------------
RUN_DATA
  ALYA:			TS-SLAB-TRI03-STR
END_RUN_DATA
$------------------------------------------------
PROBLEM_DATA
  TIME_COUPLING:	Global, prescribed
  TIME_INTERVAL=	0.0, 0.005
  TIME_STEP_SIZE=	0.0001
  NUMBER_OF_STEPS=	10
  MAGNET_MODULE:	On
  END_MAGNET_MODULE 
  PARALL_SERVICE:	On
    OUTPUT_FILE:	Yes
    POSTPROCESS:	MASTER
    PARTITION_TYPE:	FACES
    COMMUNICATIONS:	SYNCHRONOUS
  END_PARALL_SERVICE
END_PROBLEM_DATA
$------------------------------------------------
 
