$------------------------------------------------
INCLUDE alya_dimensions.dat
$------------------------------------------------
STRATEGY
  INTEGRATION_RULE:          		Open  
  DOMAIN_INTEGRATION_POINTS: 		0
  BOUNDARY_ELEMENT:                 	ON
  EXTRAPOLATE_BOUNDARY_CONDITIONS:  	ON
END_STRATEGY
$------------------------------------------------
GEOMETRY
  INCLUDE alya_typesofelements.dat
  INCLUDE alya_coordinates.dat
  INCLUDE alya_elements.dat
  INCLUDE alya_materials.dat
$  INCLUDE alya_boundariesnodes.dat
$  INCLUDE alya_boundaries.dat
  INCLUDE alya_boundarieselements.dat
END_GEOMETRY
$------------------------------------------------
SETS
END_SETS
$------------------------------------------------
BOUNDARY_CONDITIONS
  INCLUDE alya_onboundaries.dat
END_BOUNDARY_CONDITIONS
$------------------------------------------------
