$-------------------------------------------------------------------
PHYSICAL_PROBLEM
  PROPERTIES
    MATERIAL: 1,     NAME=GENERIC
      DENSITY=       CONSTANT, VALUE=1.0
      VISCOSITY=     CONSTANT, VALUE=1.0
      SPECIFIC_HEAT= CONSTANT, VALUE=1.0
      CONDUCTIVITY=  CONSTANT, VALUE=1.0
    END_MATERIAL
  END_PROPERTIES
  GAS_CONSTANT = 287.0
END_PHYSICAL_PROBLEM
$-------------------------------------------------------------------
NUMERICAL_TREATMENT 
  ELSEST
    STRATEGY:    Bin
    NUMBER_BINS= 20,20,20
    TOLERANCE=   1.0e-10
  END_ELSEST
  MESH
    MULTIPLICATION= 0
  END_MESH
END_NUMERICAL_TREATMENT  
$-------------------------------------------------------------------
OUTPUT_&_POST_PROCESS  
  On_last_mesh
   STEPS = 1e6
END_OUTPUT_&_POST_PROCESS  
$-------------------------------------------------------------------
