$-------------------------------------------------------------------
RUN_DATA
  ALYA:                   DIF_HEA_CAV
  CODE:                   2
  LIVE_INFO:              FILE
END_RUN_DATA
$-------------------------------------------------------------------
PROBLEM_DATA
  TIME_COUPLING:          GLOBAL,  PRESCRIBED 
  TIME_STEP:              3.0e-1
  NUMBER_OF_STEPS:        100

  MAXIMUM_NUMBER_GLOBAL:  1
$  BLOCK_ITERATION: 1
$     1 TEMPER, NASTIN
$  END_BLOCK_ITERATION

  NASTIN_MODULE:          Off
  END_NASTIN_MODULE

  TEMPER_MODULE:          On
  END_TEMPER_MODULE

  PARALL_SERVICE:         ON
    METHOD:               METIS
    PARTITION_TYPE:       FACES
  END_PARALL_SERVICE

END_PROBLEM_DATA
$-------------------------------------------------------------------
MPI_IO:        Off
  GEOMETRY:    OFF 
  RESTART:     Off
  POSTPROCESS: Off
END_MPI_IO
$-------------------------------------------------------------------
