{
    "authors": [
        "eva.casoni@bsc.es"
    ],
    "comparisons": [
        {
            "file": "oneCOURTE_ISAC.exm.wit",
            "method": "absolute",
            "tolerance": 1e-15
        },
        {
            "file": "fort.1000101",
            "method": "absolute",
            "tolerance": 1e-15
        }
    ],
    "description": "Check cellular and FEM part of COURTEMANCHE model with ISAC currents modification",
    "exclude": [
        "special"
    ],
    "executions": [
        {
            "mpi": 1,
            "openmp": 0
        }
    ],
    "modules": [
        "exmedi"
    ],
    "name": "oneCOURTE_ISAC",
    "postprocess": "alya2pos",
    "timeout": "00:02:00"
}
