{
    "authors": [
        "guillaume.houzeaux@bsc.es"
    ],
    "comparisons": [
        {
            "file": "exatemqua16.post.res",
            "method": "absolute",
            "tolerance": "1.0e-08"
        }
    ],
    "description": "Only tests the temper module equations, it tests the finite element errors with a 1E-8 tolerance",
    "exclude": [
        "special"
    ],
    "executions": [
        {
            "mpi": 1,
            "openmp": 0
        }
    ],
    "modules": [
        "temper"
    ],
    "name": "exatemqua16",
    "postprocess": "alya2pos"
}
