GiD Post Results File 1.0
 
Result VELOC ALYA  0.62673832E+00 Vector OnNodes
ComponentNames VELOC_X,VELOC_Y,VELOC_Z
Values
          1  0.00000000E+000  0.00000000E+000  0.00000000E+000
          2  0.00000000E+000  0.00000000E+000  0.00000000E+000
          3  0.00000000E+000  0.00000000E+000  0.00000000E+000
          4  0.00000000E+000  0.00000000E+000  0.00000000E+000
          5 -0.52227208E-001  0.19351995E+000  0.75392130E-001
          6  0.00000000E+000  0.00000000E+000  0.00000000E+000
          7  0.10000000E+001  0.00000000E+000  0.00000000E+000
          8  0.00000000E+000  0.00000000E+000  0.00000000E+000
          9 -0.24363419E+000  0.21691191E+000 -0.17325732E-001
         10  0.00000000E+000  0.00000000E+000  0.00000000E+000
         11  0.00000000E+000  0.00000000E+000  0.00000000E+000
         12  0.00000000E+000  0.00000000E+000  0.00000000E+000
         13  0.10000000E+001  0.00000000E+000  0.00000000E+000
         14  0.00000000E+000  0.00000000E+000  0.00000000E+000
         15  0.00000000E+000  0.00000000E+000  0.00000000E+000
         16  0.19560178E+000 -0.75564541E-001  0.82159510E-002
         17  0.62364080E-002  0.17897769E+000 -0.22844636E-001
         18 -0.90046763E-001  0.18977013E+000 -0.46253217E-003
         19 -0.17755575E+000  0.19390467E+000  0.99756634E-002
         20 -0.75364162E-001  0.10774072E+000 -0.68118827E-002
         21 -0.18729591E+000  0.73917356E-001  0.24062144E-001
         22  0.00000000E+000  0.00000000E+000  0.00000000E+000
         23  0.00000000E+000  0.00000000E+000  0.00000000E+000
         24  0.00000000E+000  0.00000000E+000  0.00000000E+000
         25  0.10000000E+001  0.00000000E+000  0.00000000E+000
         26  0.10000000E+001  0.00000000E+000  0.00000000E+000
         27 -0.16280455E-001  0.84693204E-001 -0.20018951E-002
         28 -0.11847571E+000  0.23076512E+000 -0.14880045E-001
         29 -0.11153675E-001  0.29546581E+000  0.77729148E-002
         30 -0.13242541E+000  0.91248721E-001 -0.11372512E-001
         31 -0.15232424E+000  0.28198965E-003  0.11621281E-003
         32  0.00000000E+000  0.00000000E+000  0.00000000E+000
         33 -0.18243701E+000  0.25811161E+000 -0.13587016E-001
         34  0.00000000E+000  0.00000000E+000  0.00000000E+000
         35  0.00000000E+000  0.00000000E+000  0.00000000E+000
         36  0.00000000E+000  0.00000000E+000  0.00000000E+000
         37  0.10000000E+001  0.00000000E+000  0.00000000E+000
         38  0.00000000E+000  0.00000000E+000  0.00000000E+000
         39  0.00000000E+000  0.00000000E+000  0.00000000E+000
         40  0.00000000E+000  0.00000000E+000  0.00000000E+000
         41 -0.70598446E-001 -0.78458827E-001  0.18640791E-001
         42  0.86587138E-001 -0.31174839E-003  0.54997199E-001
         43 -0.48214658E-001  0.77216111E-001 -0.10178858E-001
         44 -0.17656597E+000  0.67705047E-001  0.97793010E-002
         45 -0.36580457E-001  0.57797533E-001 -0.66582642E-002
         46  0.32898907E-001  0.25139044E+000 -0.32509902E-001
         47 -0.14046690E+000 -0.11325617E+000  0.24666329E-001
         48 -0.10360336E+000  0.41214582E-001 -0.52592025E-002
         49 -0.15951178E+000 -0.47184423E-002  0.23033319E-002
         50  0.00000000E+000  0.00000000E+000  0.00000000E+000
         51  0.10000000E+001  0.00000000E+000  0.00000000E+000
         52 -0.61317954E-001  0.10029827E+000 -0.43469594E-002
         53  0.00000000E+000  0.00000000E+000  0.00000000E+000
         54 -0.41430929E-002  0.32692722E-001 -0.42678053E-002
         55  0.10000000E+001  0.00000000E+000  0.00000000E+000
         56  0.10000000E+001  0.00000000E+000  0.00000000E+000
         57  0.00000000E+000  0.00000000E+000  0.00000000E+000
         58  0.00000000E+000  0.00000000E+000  0.00000000E+000
         59  0.10000000E+001  0.00000000E+000  0.00000000E+000
         60 -0.10803753E+000  0.44239895E-001 -0.22949531E-002
         61 -0.10865617E+000 -0.96392355E-002 -0.43007168E-002
         62  0.11183639E+000  0.23120005E-001  0.61663455E-002
         63 -0.14753140E+000 -0.69354349E-001  0.13578339E-002
         64 -0.14297165E+000  0.78357486E-001  0.16662347E-002
         65 -0.76572121E-001  0.16500053E+000 -0.22662998E-002
         66  0.44906710E+000 -0.39081444E-001 -0.36241509E-002
         67 -0.17446302E-001  0.55528806E-001 -0.60179221E-002
         68 -0.16573522E+000  0.18748113E+000 -0.98379500E-002
         69 -0.22485366E+000  0.77058521E-001 -0.85503932E-002
         70 -0.55130259E-001  0.33530809E-001 -0.54188853E-002
         71 -0.17538176E+000 -0.79219447E-001  0.12418378E-001
         72  0.00000000E+000  0.00000000E+000  0.00000000E+000
         73  0.00000000E+000  0.00000000E+000  0.00000000E+000
         74  0.00000000E+000  0.00000000E+000  0.00000000E+000
         75  0.00000000E+000  0.00000000E+000  0.00000000E+000
         76  0.10000000E+001  0.00000000E+000  0.00000000E+000
         77  0.00000000E+000  0.00000000E+000  0.00000000E+000
         78 -0.66406186E-001 -0.12696579E-002 -0.36836834E-002
         79 -0.57543683E-001  0.39409698E-001 -0.29048341E-002
         80  0.00000000E+000  0.00000000E+000  0.00000000E+000
         81  0.22571402E+000 -0.45347000E-002  0.17395805E-002
         82 -0.23642791E+000 -0.24884683E-001  0.55398858E-002
         83  0.00000000E+000  0.00000000E+000  0.00000000E+000
         84  0.00000000E+000  0.00000000E+000  0.00000000E+000
         85 -0.13850281E+000 -0.14991583E+000  0.89664303E-002
         86 -0.69094969E-001  0.90006668E-002 -0.26478766E-002
         87  0.00000000E+000  0.00000000E+000  0.00000000E+000
         88 -0.15019494E+000 -0.15481049E-001  0.11061405E-001
         89 -0.90394073E-001  0.22205490E+000 -0.30294368E-001
         90 -0.23251897E-001  0.34813992E-001 -0.61960172E-002
         91 -0.11627705E+000 -0.45956830E-001  0.27015554E-002
         92  0.29934866E-001  0.18907216E+000  0.14487307E-001
         93  0.00000000E+000  0.00000000E+000  0.00000000E+000
         94  0.00000000E+000  0.00000000E+000  0.00000000E+000
         95 -0.58825130E-001  0.67196808E-001 -0.10210370E-002
         96 -0.96124798E-001  0.19890088E+000  0.17003756E-002
         97  0.10000000E+001  0.00000000E+000  0.00000000E+000
         98 -0.90584560E-001  0.26614733E-001  0.19343547E-002
         99 -0.79959075E-001  0.13653391E-003 -0.26694555E-003
        100  0.00000000E+000  0.00000000E+000  0.00000000E+000
        101 -0.44358142E-001  0.38486367E-001 -0.95615026E-003
        102 -0.20472239E-001  0.21671383E-001 -0.34665865E-002
        103 -0.66801314E-002  0.37568018E-001 -0.33650136E-002
        104 -0.10132924E+000  0.89682825E-001  0.84772388E-003
        105  0.00000000E+000  0.00000000E+000  0.00000000E+000
        106  0.00000000E+000  0.00000000E+000  0.00000000E+000
        107  0.00000000E+000  0.00000000E+000  0.00000000E+000
        108 -0.86140141E-001 -0.61299523E-001 -0.12070452E-002
        109 -0.22129811E-001 -0.23031891E+000  0.69921270E-002
        110  0.00000000E+000  0.00000000E+000  0.00000000E+000
        111  0.00000000E+000  0.00000000E+000  0.00000000E+000
        112  0.10000000E+001  0.00000000E+000  0.00000000E+000
        113  0.10000000E+001  0.00000000E+000  0.00000000E+000
        114 -0.12802843E+000 -0.14096282E+000 -0.35852675E-002
        115  0.10000000E+001  0.00000000E+000  0.00000000E+000
        116 -0.21389418E-001  0.25177884E-001 -0.25601104E-002
        117 -0.49226759E-001  0.12487888E-001 -0.12423579E-002
        118  0.25701636E-001 -0.21602166E+000 -0.24967536E-001
        119  0.00000000E+000  0.00000000E+000  0.00000000E+000
        120 -0.98225431E-001 -0.14263001E+000 -0.24323215E-002
        121  0.00000000E+000  0.00000000E+000  0.00000000E+000
        122 -0.18706782E-001  0.14793221E-001 -0.26874653E-002
        123 -0.42639201E-001  0.10536764E+000  0.27775260E-003
        124  0.00000000E+000  0.00000000E+000  0.00000000E+000
        125  0.00000000E+000  0.00000000E+000  0.00000000E+000
        126 -0.15873253E+000  0.33209160E-001 -0.61627102E-004
        127  0.00000000E+000  0.00000000E+000  0.00000000E+000
        128  0.00000000E+000  0.00000000E+000  0.00000000E+000
        129 -0.13961274E+000 -0.16062312E-001  0.67086093E-002
        130  0.00000000E+000  0.00000000E+000  0.00000000E+000
        131  0.00000000E+000  0.00000000E+000  0.00000000E+000
        132 -0.77874017E-001 -0.22098505E-001 -0.15570466E-001
        133 -0.18833304E-001  0.18299837E-001 -0.24166495E-002
        134 -0.41908067E-001  0.61581769E-002 -0.14006334E-002
        135 -0.15769347E+000 -0.11592903E+000  0.15654000E-001
        136 -0.16127974E+000 -0.22672646E+000 -0.50932215E-002
        137  0.00000000E+000  0.00000000E+000  0.00000000E+000
        138 -0.10126743E+000  0.29103763E-001  0.16218445E-002
        139 -0.17273625E-001  0.88615709E-002 -0.21942566E-002
        140 -0.13210640E+000 -0.10874177E+000  0.56278230E-002
        141  0.10000000E+001  0.00000000E+000  0.00000000E+000
        142  0.00000000E+000  0.00000000E+000  0.00000000E+000
        143  0.00000000E+000  0.00000000E+000  0.00000000E+000
        144 -0.61272543E-001 -0.29659537E-001 -0.19142129E-002
        145  0.33944491E-001 -0.19799447E-002  0.26568166E-001
        146 -0.48155769E-001  0.11351857E-001 -0.17147528E-002
        147  0.00000000E+000  0.00000000E+000  0.00000000E+000
        148  0.00000000E+000  0.00000000E+000  0.00000000E+000
        149 -0.12316771E+000  0.90089692E-001 -0.13753191E-001
        150 -0.17361727E-001  0.12581898E-001 -0.22907246E-002
        151 -0.38332034E-001  0.41244545E-002 -0.14005159E-002
        152 -0.20257954E-001  0.45194435E-001  0.20804112E-002
        153  0.00000000E+000  0.00000000E+000  0.00000000E+000
        154  0.00000000E+000  0.00000000E+000  0.00000000E+000
        155  0.00000000E+000  0.00000000E+000  0.00000000E+000
        156  0.00000000E+000  0.00000000E+000  0.00000000E+000
        157  0.00000000E+000  0.00000000E+000  0.00000000E+000
        158  0.00000000E+000  0.00000000E+000  0.00000000E+000
        159 -0.14183673E-001  0.36429703E-002 -0.16818795E-002
        160  0.00000000E+000  0.00000000E+000  0.00000000E+000
        161  0.00000000E+000  0.00000000E+000  0.00000000E+000
        162  0.00000000E+000  0.00000000E+000  0.00000000E+000
        163 -0.71881952E-001 -0.40229764E-001  0.25303829E-003
        164 -0.10536525E+000 -0.18675802E+000  0.10059539E-001
        165 -0.49813185E-001 -0.81020253E-001 -0.14031001E-002
        166 -0.41724624E-001  0.67217984E-002 -0.12789372E-002
        167 -0.88822569E-001  0.57544831E-002  0.68619986E-002
        168 -0.56473004E-001  0.25916987E-001  0.27932023E-003
        169 -0.21605282E-001  0.24102137E-001 -0.15815669E-002
        170  0.00000000E+000  0.00000000E+000  0.00000000E+000
        171  0.00000000E+000  0.00000000E+000  0.00000000E+000
        172  0.00000000E+000  0.00000000E+000  0.00000000E+000
        173  0.00000000E+000  0.00000000E+000  0.00000000E+000
        174 -0.45650439E-001 -0.94728103E-002 -0.17244968E-002
        175  0.00000000E+000  0.00000000E+000  0.00000000E+000
        176  0.00000000E+000  0.00000000E+000  0.00000000E+000
        177 -0.16068218E-001  0.74133673E-002 -0.21529687E-002
        178 -0.35645045E-001  0.25862115E-002 -0.13548187E-002
        179 -0.32654695E-001 -0.82798653E-001  0.14068989E-003
        180 -0.36704110E-001 -0.26409357E-001  0.48189617E-004
        181 -0.15970564E+000 -0.30651388E-001 -0.27107321E-003
        182  0.00000000E+000  0.00000000E+000  0.00000000E+000
        183  0.00000000E+000  0.00000000E+000  0.00000000E+000
        184 -0.63169144E-001  0.48361716E-001  0.12236490E-002
        185 -0.54599392E-001  0.76364437E-001  0.67393440E-002
        186  0.00000000E+000  0.00000000E+000  0.00000000E+000
        187  0.00000000E+000  0.00000000E+000  0.00000000E+000
        188  0.00000000E+000  0.00000000E+000  0.00000000E+000
        189 -0.23118528E-001 -0.68864746E-001  0.50143296E-002
        190  0.11950645E+000 -0.15576768E+000  0.17687509E-001
        191 -0.76329140E-001 -0.87661993E-002  0.35977559E-003
        192 -0.38196037E-001  0.44761294E-002 -0.13265931E-002
        193 -0.97057414E-001  0.42254303E-001  0.51879792E-002
        194 -0.18761981E-001  0.18097652E-001 -0.11205037E-002
        195 -0.39110664E-001 -0.76390828E-002 -0.12543280E-002
        196  0.00000000E+000  0.00000000E+000  0.00000000E+000
        197  0.00000000E+000  0.00000000E+000  0.00000000E+000
        198 -0.12574943E-001  0.29010244E-002 -0.18772297E-002
        199 -0.29728945E-001  0.98149035E-003 -0.11624487E-002
        200  0.00000000E+000  0.00000000E+000  0.00000000E+000
        201  0.00000000E+000  0.00000000E+000  0.00000000E+000
        202  0.10000000E+001  0.00000000E+000  0.00000000E+000
        203 -0.25185831E-001 -0.51549833E-001 -0.49354904E-003
        204  0.00000000E+000  0.00000000E+000  0.00000000E+000
        205 -0.48639604E-001  0.95618350E-002 -0.26024108E-003
        206  0.00000000E+000  0.00000000E+000  0.00000000E+000
        207  0.00000000E+000  0.00000000E+000  0.00000000E+000
        208 -0.48144054E-001 -0.11204534E-001 -0.14150795E-002
        209  0.00000000E+000  0.00000000E+000  0.00000000E+000
        210 -0.26461064E-001  0.58111179E-001  0.10553635E-002
        211  0.00000000E+000  0.00000000E+000  0.00000000E+000
        212  0.00000000E+000  0.00000000E+000  0.00000000E+000
        213 -0.64522879E-001 -0.14116126E+000  0.96393223E-002
        214 -0.35388009E-001  0.26957324E-002 -0.13489338E-002
        215 -0.17009948E-001  0.12392236E-001 -0.91124294E-003
        216 -0.36017959E-001 -0.55162037E-002 -0.12663254E-002
        217 -0.11593026E+000 -0.12968580E-001 -0.44379413E-002
        218  0.00000000E+000  0.00000000E+000  0.00000000E+000
        219  0.00000000E+000  0.00000000E+000  0.00000000E+000
        220 -0.13628149E+000 -0.21236618E+000 -0.11460571E-001
        221  0.00000000E+000  0.00000000E+000  0.00000000E+000
        222  0.00000000E+000  0.00000000E+000  0.00000000E+000
        223  0.00000000E+000  0.00000000E+000  0.00000000E+000
        224  0.00000000E+000  0.00000000E+000  0.00000000E+000
        225  0.00000000E+000  0.00000000E+000  0.00000000E+000
        226  0.10000000E+001  0.00000000E+000  0.00000000E+000
        227 -0.41864023E-001  0.66575685E-002 -0.51971790E-003
        228 -0.40940102E-001 -0.87071082E-002 -0.15871694E-002
        229  0.00000000E+000  0.00000000E+000  0.00000000E+000
        230 -0.28697854E-001  0.10440186E-002 -0.11854187E-002
        231 -0.11132327E+000 -0.92914168E-001 -0.61041926E-002
        232 -0.15617139E-001  0.72318841E-002 -0.83699167E-003
        233 -0.33810475E-001 -0.33300582E-002 -0.13070595E-002
        234  0.00000000E+000  0.00000000E+000  0.00000000E+000
        235  0.00000000E+000  0.00000000E+000  0.00000000E+000
        236  0.00000000E+000  0.00000000E+000  0.00000000E+000
        237  0.00000000E+000  0.00000000E+000  0.00000000E+000
        238  0.00000000E+000  0.00000000E+000  0.00000000E+000
        239  0.00000000E+000  0.00000000E+000  0.00000000E+000
        240  0.00000000E+000  0.00000000E+000  0.00000000E+000
        241  0.00000000E+000  0.00000000E+000  0.00000000E+000
        242  0.00000000E+000  0.00000000E+000  0.00000000E+000
        243 -0.44004737E-001 -0.78552641E-001 -0.35768487E-003
        244  0.00000000E+000  0.00000000E+000  0.00000000E+000
        245 -0.38105501E-001  0.45225862E-002 -0.62108301E-003
        246 -0.36772144E-001 -0.60775065E-002 -0.15164767E-002
        247 -0.69698343E-001  0.58374065E-002  0.15762672E-002
        248 -0.23306110E-001  0.29459210E-001  0.15880341E-002
        249  0.00000000E+000  0.00000000E+000  0.00000000E+000
        250 -0.20214809E-001 -0.25598160E-001 -0.11149777E-003
        251 -0.12188915E-001  0.27977748E-002 -0.71949505E-003
        252 -0.28286369E-001 -0.13617290E-002 -0.12600907E-002
        253 -0.96067952E-002 -0.25068268E-001  0.80229937E-003
        254  0.00000000E+000  0.00000000E+000  0.00000000E+000
        255  0.00000000E+000  0.00000000E+000  0.00000000E+000
        256  0.00000000E+000  0.00000000E+000  0.00000000E+000
        257  0.00000000E+000  0.00000000E+000  0.00000000E+000
        258  0.00000000E+000  0.00000000E+000  0.00000000E+000
        259 -0.48143368E-001 -0.11723718E-001 -0.45521414E-003
        260  0.00000000E+000  0.00000000E+000  0.00000000E+000
        261  0.00000000E+000  0.00000000E+000  0.00000000E+000
        262  0.00000000E+000  0.00000000E+000  0.00000000E+000
        263  0.00000000E+000  0.00000000E+000  0.00000000E+000
        264 -0.35250452E-001  0.27347510E-002 -0.65598442E-003
        265 -0.33973923E-001 -0.36049005E-002 -0.14290047E-002
        266 -0.14178944E+000 -0.21083195E+000 -0.10834190E-002
        267 -0.19069147E-001  0.17552867E-001  0.99543584E-003
        268 -0.18239980E-001 -0.16969885E-001 -0.43677935E-003
        269  0.00000000E+000  0.00000000E+000  0.00000000E+000
        270 -0.15927864E+000 -0.10319077E+000  0.64076406E-002
        271  0.00000000E+000  0.00000000E+000  0.00000000E+000
        272  0.00000000E+000  0.00000000E+000  0.00000000E+000
        273  0.00000000E+000  0.00000000E+000  0.00000000E+000
        274 -0.72463425E-002  0.23795760E-001  0.55788342E-003
        275 -0.69190310E-002 -0.26203823E-001  0.97388906E-004
        276  0.00000000E+000  0.00000000E+000  0.00000000E+000
        277  0.00000000E+000  0.00000000E+000  0.00000000E+000
        278  0.00000000E+000  0.00000000E+000  0.00000000E+000
        279 -0.56928296E-002 -0.28029612E-001 -0.12067127E-002
        280 -0.41369791E-001 -0.91430832E-002 -0.64754325E-003
        281 -0.49626228E-002 -0.34068851E-001 -0.29652731E-002
        282 -0.46469592E-001  0.11423686E-001  0.17346222E-002
        283 -0.24744031E-001 -0.30443318E-001 -0.14732312E-002
        284  0.00000000E+000  0.00000000E+000  0.00000000E+000
        285  0.00000000E+000  0.00000000E+000  0.00000000E+000
        286 -0.28595681E-001  0.10604773E-002 -0.58092688E-003
        287 -0.27798735E-001 -0.13794488E-002 -0.12470766E-002
        288  0.00000000E+000  0.00000000E+000  0.00000000E+000
        289  0.00000000E+000  0.00000000E+000  0.00000000E+000
        290 -0.17432673E-001  0.12235546E-001  0.84116960E-003
        291 -0.16228214E-001 -0.11646615E-001 -0.40186023E-003
        292 -0.49111764E-001 -0.32115050E-001  0.53966078E-003
        293 -0.40644869E-001  0.17398245E-001  0.10043396E-002
        294  0.00000000E+000  0.00000000E+000  0.00000000E+000
        295  0.00000000E+000  0.00000000E+000  0.00000000E+000
        296  0.00000000E+000  0.00000000E+000  0.00000000E+000
        297  0.00000000E+000  0.00000000E+000  0.00000000E+000
        298 -0.37133717E-001 -0.64183766E-002 -0.75297306E-003
        299 -0.40214228E-001  0.79693841E-002  0.71731973E-003
        300 -0.18716002E-001 -0.17989226E-001 -0.16701498E-002
        301  0.00000000E+000  0.00000000E+000  0.00000000E+000
        302  0.00000000E+000  0.00000000E+000  0.00000000E+000
        303  0.00000000E+000  0.00000000E+000  0.00000000E+000
        304  0.00000000E+000  0.00000000E+000  0.00000000E+000
        305 -0.16185463E-001  0.73628767E-002  0.66715099E-003
        306 -0.14955533E-001 -0.69723365E-002 -0.41291529E-003
        307  0.19793235E-001 -0.24901154E+000  0.28642060E-001
        308  0.00000000E+000  0.00000000E+000  0.00000000E+000
        309  0.00000000E+000  0.00000000E+000  0.00000000E+000
        310  0.00000000E+000  0.00000000E+000  0.00000000E+000
        311  0.00000000E+000  0.00000000E+000  0.00000000E+000
        312 -0.62227688E-001 -0.29103440E-001 -0.77905393E-003
        313 -0.34230476E-001 -0.38212853E-002 -0.76949446E-003
        314 -0.37129891E-001  0.54855883E-002  0.19669322E-003
        315 -0.15522787E-001 -0.12105406E-001 -0.15857697E-002
        316  0.00000000E+000  0.00000000E+000  0.00000000E+000
        317  0.00000000E+000  0.00000000E+000  0.00000000E+000
        318 -0.12963482E-001  0.29781778E-002  0.45443982E-003
        319 -0.12143817E-001 -0.27987456E-002 -0.48074202E-003
        320  0.00000000E+000  0.00000000E+000  0.00000000E+000
        321 -0.46612586E-001 -0.79955038E-002  0.40550190E-003
        322 -0.22364477E-001 -0.29097141E-001 -0.12164272E-002
        323  0.00000000E+000  0.00000000E+000  0.00000000E+000
        324  0.00000000E+000  0.00000000E+000  0.00000000E+000
        325  0.00000000E+000  0.00000000E+000  0.00000000E+000
        326  0.00000000E+000  0.00000000E+000  0.00000000E+000
        327  0.00000000E+000  0.00000000E+000  0.00000000E+000
        328 -0.27982606E-001 -0.14870541E-002 -0.66240632E-003
        329 -0.29755272E-001 -0.52117695E-001 -0.37906209E-002
        330 -0.34765290E-001  0.34123915E-002 -0.10813391E-003
        331 -0.14060898E-001 -0.71969030E-002 -0.14706927E-002
        332  0.00000000E+000  0.00000000E+000  0.00000000E+000
        333  0.00000000E+000  0.00000000E+000  0.00000000E+000
        334  0.00000000E+000  0.00000000E+000  0.00000000E+000
        335  0.00000000E+000  0.00000000E+000  0.00000000E+000
        336  0.00000000E+000  0.00000000E+000  0.00000000E+000
        337  0.00000000E+000  0.00000000E+000  0.00000000E+000
        338 -0.57752921E-002 -0.31458374E-001 -0.12041498E-002
        339 -0.40572213E-001 -0.74838415E-002  0.93532935E-004
        340 -0.18482405E-001 -0.19308981E-001 -0.13935614E-002
        341  0.00000000E+000  0.00000000E+000  0.00000000E+000
        342  0.00000000E+000  0.00000000E+000  0.00000000E+000
        343 -0.77438255E-001 -0.16923859E+000 -0.66070076E-002
        344  0.00000000E+000  0.00000000E+000  0.00000000E+000
        345 -0.28914880E-001  0.14452926E-002 -0.26337626E-003
        346 -0.11165957E-001 -0.27944341E-002 -0.12990378E-002
        347  0.00000000E+000  0.00000000E+000  0.00000000E+000
        348  0.00000000E+000  0.00000000E+000  0.00000000E+000
        349 -0.36844691E-001 -0.54218261E-002 -0.45277173E-004
        350 -0.15766772E-001 -0.13137704E-001 -0.12857370E-002
        351  0.00000000E+000  0.00000000E+000  0.00000000E+000
        352  0.00000000E+000  0.00000000E+000  0.00000000E+000
        353 -0.43871771E-001 -0.83771256E-001 -0.14178020E-001
        354  0.00000000E+000  0.00000000E+000  0.00000000E+000
        355  0.00000000E+000  0.00000000E+000  0.00000000E+000
        356  0.00000000E+000  0.00000000E+000  0.00000000E+000
        357  0.00000000E+000  0.00000000E+000  0.00000000E+000
        358  0.00000000E+000  0.00000000E+000  0.00000000E+000
        359  0.00000000E+000  0.00000000E+000  0.00000000E+000
        360  0.00000000E+000  0.00000000E+000  0.00000000E+000
        361  0.00000000E+000  0.00000000E+000  0.00000000E+000
        362 -0.34190258E-001 -0.32160925E-002 -0.12256174E-003
        363 -0.14331606E-001 -0.77978171E-002 -0.11904051E-002
        364  0.00000000E+000  0.00000000E+000  0.00000000E+000
        365  0.00000000E+000  0.00000000E+000  0.00000000E+000
        366  0.00000000E+000  0.00000000E+000  0.00000000E+000
        367  0.00000000E+000  0.00000000E+000  0.00000000E+000
        368  0.00000000E+000  0.00000000E+000  0.00000000E+000
        369  0.00000000E+000  0.00000000E+000  0.00000000E+000
        370  0.00000000E+000  0.00000000E+000  0.00000000E+000
        371  0.00000000E+000  0.00000000E+000  0.00000000E+000
        372 -0.25552188E-001 -0.28691992E-001 -0.37290137E-002
        373 -0.28745509E-001 -0.12272403E-002 -0.10080231E-003
        374 -0.11359001E-001 -0.30977998E-002 -0.10363712E-002
        375  0.00000000E+000  0.00000000E+000  0.00000000E+000
        376  0.00000000E+000  0.00000000E+000  0.00000000E+000
        377  0.00000000E+000  0.00000000E+000  0.00000000E+000
        378  0.00000000E+000  0.00000000E+000  0.00000000E+000
        379  0.00000000E+000  0.00000000E+000  0.00000000E+000
        380  0.00000000E+000  0.00000000E+000  0.00000000E+000
        381 -0.19306417E-001 -0.18955811E-001 -0.15569424E-002
        382  0.00000000E+000  0.00000000E+000  0.00000000E+000
        383  0.00000000E+000  0.00000000E+000  0.00000000E+000
        384  0.00000000E+000  0.00000000E+000  0.00000000E+000
        385  0.00000000E+000  0.00000000E+000  0.00000000E+000
        386  0.00000000E+000  0.00000000E+000  0.00000000E+000
        387  0.00000000E+000  0.00000000E+000  0.00000000E+000
        388  0.00000000E+000  0.00000000E+000  0.00000000E+000
        389  0.00000000E+000  0.00000000E+000  0.00000000E+000
        390  0.00000000E+000  0.00000000E+000  0.00000000E+000
        391  0.00000000E+000  0.00000000E+000  0.00000000E+000
        392  0.00000000E+000  0.00000000E+000  0.00000000E+000
        393  0.00000000E+000  0.00000000E+000  0.00000000E+000
        394  0.00000000E+000  0.00000000E+000  0.00000000E+000
        395  0.00000000E+000  0.00000000E+000  0.00000000E+000
        396 -0.16611103E-001 -0.13151271E-001 -0.91288115E-003
        397  0.00000000E+000  0.00000000E+000  0.00000000E+000
        398  0.00000000E+000  0.00000000E+000  0.00000000E+000
        399  0.00000000E+000  0.00000000E+000  0.00000000E+000
        400  0.00000000E+000  0.00000000E+000  0.00000000E+000
        401 -0.15275011E-001 -0.78954557E-002 -0.61151950E-003
        402  0.00000000E+000  0.00000000E+000  0.00000000E+000
        403  0.00000000E+000  0.00000000E+000  0.00000000E+000
        404 -0.91408884E-002 -0.31845924E-001 -0.21143301E-002
        405  0.00000000E+000  0.00000000E+000  0.00000000E+000
        406  0.00000000E+000  0.00000000E+000  0.00000000E+000
        407  0.00000000E+000  0.00000000E+000  0.00000000E+000
        408 -0.12688629E-001 -0.32215186E-002 -0.32106138E-003
        409  0.00000000E+000  0.00000000E+000  0.00000000E+000
        410  0.00000000E+000  0.00000000E+000  0.00000000E+000
        411  0.00000000E+000  0.00000000E+000  0.00000000E+000
        412  0.00000000E+000  0.00000000E+000  0.00000000E+000
        413  0.00000000E+000  0.00000000E+000  0.00000000E+000
        414  0.00000000E+000  0.00000000E+000  0.00000000E+000
        415  0.00000000E+000  0.00000000E+000  0.00000000E+000
        416  0.00000000E+000  0.00000000E+000  0.00000000E+000
        417  0.00000000E+000  0.00000000E+000  0.00000000E+000
        418  0.00000000E+000  0.00000000E+000  0.00000000E+000
        419  0.00000000E+000  0.00000000E+000  0.00000000E+000
        420  0.00000000E+000  0.00000000E+000  0.00000000E+000
        421  0.00000000E+000  0.00000000E+000  0.00000000E+000
        422  0.00000000E+000  0.00000000E+000  0.00000000E+000
        423  0.00000000E+000  0.00000000E+000  0.00000000E+000
        424  0.00000000E+000  0.00000000E+000  0.00000000E+000
        425  0.00000000E+000  0.00000000E+000  0.00000000E+000
        426  0.00000000E+000  0.00000000E+000  0.00000000E+000
        427  0.00000000E+000  0.00000000E+000  0.00000000E+000
        428  0.00000000E+000  0.00000000E+000  0.00000000E+000
        429  0.00000000E+000  0.00000000E+000  0.00000000E+000
        430  0.00000000E+000  0.00000000E+000  0.00000000E+000
        431  0.00000000E+000  0.00000000E+000  0.00000000E+000
        432  0.00000000E+000  0.00000000E+000  0.00000000E+000
        433  0.00000000E+000  0.00000000E+000  0.00000000E+000
        434  0.00000000E+000  0.00000000E+000  0.00000000E+000
        435  0.00000000E+000  0.00000000E+000  0.00000000E+000
        436  0.00000000E+000  0.00000000E+000  0.00000000E+000
        437  0.00000000E+000  0.00000000E+000  0.00000000E+000
        438  0.00000000E+000  0.00000000E+000  0.00000000E+000
        439  0.00000000E+000  0.00000000E+000  0.00000000E+000
End values

Result PRESS ALYA  0.62673832E+00 Scalar OnNodes
ComponentNames PRESS
Values
          1 -0.44260719E-001
          2 -0.36298954E-001
          3  0.60186749E-001
          4 -0.15667056E+000
          5 -0.68198191E-002
          6  0.90369921E-001
          7 -0.61735560E-001
          8  0.22817228E-001
          9  0.97169378E-001
         10  0.13295791E+000
         11 -0.24390678E+000
         12  0.13678160E+000
         13  0.93102596E-001
         14  0.11591910E+000
         15  0.14756354E+000
         16  0.15011373E+000
         17 -0.15622470E-001
         18  0.13875597E+000
         19  0.10568409E+000
         20  0.14022420E+000
         21  0.13915066E+000
         22  0.14900120E+000
         23  0.14522587E+000
         24 -0.29571439E-001
         25  0.11664198E+000
         26 -0.29205874E-001
         27  0.15324285E+000
         28  0.13505333E+000
         29  0.11504961E+000
         30  0.13963612E+000
         31  0.15474822E+000
         32  0.15898159E+000
         33  0.10905884E+000
         34  0.21032681E+000
         35 -0.18766443E+000
         36  0.16086977E+000
         37  0.18302538E+000
         38  0.18145431E+000
         39  0.12848092E+000
         40  0.16434656E+000
         41  0.17263908E+000
         42  0.20414458E+000
         43  0.15602686E+000
         44  0.14080455E+000
         45  0.15936427E+000
         46  0.46007795E-001
         47  0.14461471E+000
         48  0.16500665E+000
         49  0.16933090E+000
         50  0.27445503E-001
         51  0.11847166E+000
         52  0.14924894E+000
         53  0.17916056E+000
         54  0.16662728E+000
         55  0.15509229E+000
         56  0.26196364E+000
         57  0.17065749E+000
         58  0.22525972E+000
         59 -0.18237722E-001
         60  0.16507761E+000
         61  0.17747905E+000
         62  0.18842667E+000
         63  0.18815130E+000
         64  0.14950524E+000
         65  0.14364658E+000
         66  0.12958066E+000
         67  0.16748824E+000
         68  0.11813997E+000
         69  0.11955156E+000
         70  0.17042038E+000
         71  0.18209653E+000
         72  0.16749377E+000
         73  0.32480950E+000
         74  0.16700047E+000
         75 -0.85231652E-001
         76  0.22594810E+000
         77  0.20550734E+000
         78  0.17850046E+000
         79  0.16939319E+000
         80  0.15062671E+000
         81  0.17889237E+000
         82  0.15071747E+000
         83  0.17029595E+000
         84  0.16806582E+000
         85  0.22392317E+000
         86  0.17641351E+000
         87  0.16867915E+000
         88  0.18045483E+000
         89  0.27723047E-001
         90  0.16888535E+000
         91  0.18934183E+000
         92  0.76979135E-001
         93  0.17145292E+000
         94  0.16982015E+000
         95  0.15909861E+000
         96  0.12314467E+000
         97  0.12685701E+000
         98  0.17382499E+000
         99  0.17927556E+000
        100  0.16992939E+000
        101  0.16901005E+000
        102  0.16952558E+000
        103  0.17156625E+000
        104  0.14975113E+000
        105  0.10926501E+000
        106  0.17408968E+000
        107  0.17785885E+000
        108  0.19667470E+000
        109  0.28104399E+000
        110  0.17221321E+000
        111  0.17096379E+000
        112  0.44134562E+000
        113  0.16188126E+000
        114  0.20842856E+000
        115  0.24547760E+000
        116  0.17044292E+000
        117  0.17785506E+000
        118  0.32994432E+000
        119  0.17076946E+000
        120  0.20857722E+000
        121  0.23103440E+000
        122  0.17053173E+000
        123  0.15402727E+000
        124  0.17421731E+000
        125  0.17774402E+000
        126  0.16042636E+000
        127  0.17262842E+000
        128  0.17167804E+000
        129  0.17934870E+000
        130  0.19491195E+000
        131  0.16681468E+000
        132  0.15636060E+000
        133  0.17114417E+000
        134  0.17739461E+000
        135  0.18381824E+000
        136  0.23745522E+000
        137  0.17129501E+000
        138  0.17218251E+000
        139  0.17124034E+000
        140  0.20051659E+000
        141  0.43180571E+000
        142  0.17435912E+000
        143  0.17771258E+000
        144  0.18994101E+000
        145  0.17787464E+000
        146  0.17739407E+000
        147  0.17270091E+000
        148  0.17203323E+000
        149  0.14029584E+000
        150  0.17175618E+000
        151  0.17745093E+000
        152  0.16845848E+000
        153  0.15476070E+000
        154  0.17355792E+000
        155  0.17152341E+000
        156  0.38547298E+000
        157  0.64240972E-015
        158  0.18588542E+000
        159  0.17152129E+000
        160  0.20376852E+000
        161  0.17436739E+000
        162  0.17770971E+000
        163  0.19172585E+000
        164  0.25475923E+000
        165  0.19899707E+000
        166  0.17750543E+000
        167  0.14656982E+000
        168  0.17388065E+000
        169  0.17083947E+000
        170  0.17260061E+000
        171  0.93865620E-002
        172  0.50794437E+000
        173  0.17212098E+000
        174  0.18561371E+000
        175  0.78677682E-001
        176  0.31465933E+000
        177  0.17218367E+000
        178  0.17757791E+000
        179  0.19882386E+000
        180  0.19156365E+000
        181  0.17140367E+000
        182  0.17449192E+000
        183  0.18544067E+000
        184  0.16647688E+000
        185  0.14991235E+000
        186  0.17149508E+000
        187  0.17418663E+000
        188  0.17767300E+000
        189  0.19745978E+000
        190  0.34294890E+000
        191  0.18305552E+000
        192  0.17771106E+000
        193  0.16320334E+000
        194  0.17175557E+000
        195  0.18536292E+000
        196  0.11003960E+000
        197  0.26929710E+000
        198  0.17232565E+000
        199  0.17756673E+000
        200  0.17494727E+000
        201  0.18511536E+000
        202  0.21363570E+000
        203  0.19320337E+000
        204  0.17400260E+000
        205  0.17767650E+000
        206  0.19179198E+000
        207  0.61098976E+000
        208  0.18650249E+000
        209  0.17763055E+000
        210  0.16380043E+000
        211  0.37196340E+000
        212  0.14383033E+000
        213  0.21180870E+000
        214  0.17786181E+000
        215  0.17239834E+000
        216  0.18517419E+000
        217  0.18010907E+000
        218  0.21572654E+000
        219  0.13739580E+000
        220  0.20902367E+000
        221  0.17226447E+000
        222  0.17748953E+000
        223  0.19356008E+000
        224  0.17506083E+000
        225  0.18490571E+000
        226  0.43256561E+000
        227  0.17782902E+000
        228  0.18615197E+000
        229  0.16937816E+000
        230  0.17786910E+000
        231  0.19993959E+000
        232  0.17280994E+000
        233  0.18508837E+000
        234  0.16101233E+000
        235  0.15399010E+000
        236  0.19779232E+000
        237  0.17399166E+000
        238  0.19013195E+000
        239  0.17492201E+000
        240  0.18478149E+000
        241  0.15148841E+000
        242  0.20778018E+000
        243  0.19854566E+000
        244  0.43183460E+000
        245  0.17798178E+000
        246  0.18589246E+000
        247  0.17804762E+000
        248  0.17170323E+000
        249  0.17780093E+000
        250  0.19029799E+000
        251  0.17294760E+000
        252  0.18510040E+000
        253  0.19042728E+000
        254  0.17463005E+000
        255  0.18951550E+000
        256  0.16263135E+000
        257  0.19551729E+000
        258  0.17476680E+000
        259  0.18704530E+000
        260  0.13178479E+000
        261  0.64391694E+000
        262  0.18473456E+000
        263  0.22993942E+000
        264  0.17811174E+000
        265  0.18572476E+000
        266  0.25118085E+000
        267  0.17181995E+000
        268  0.19020767E+000
        269  0.17236692E+000
        270  0.20383257E+000
        271  0.19040623E+000
        272  0.17289050E+000
        273  0.18516683E+000
        274  0.17070635E+000
        275  0.19009558E+000
        276  0.17135661E+000
        277  0.17498476E+000
        278  0.18910790E+000
        279  0.19037213E+000
        280  0.18664243E+000
        281  0.19017908E+000
        282  0.17695114E+000
        283  0.19077862E+000
        284  0.16644054E+000
        285  0.19083272E+000
        286  0.17811295E+000
        287  0.18571438E+000
        288  0.16739100E+000
        289  0.19136429E+000
        290  0.17250740E+000
        291  0.18979093E+000
        292  0.18979361E+000
        293  0.17303717E+000
        294  0.39794036E+000
        295  0.17338281E+000
        296  0.17508776E+000
        297  0.18884427E+000
        298  0.18632825E+000
        299  0.17728515E+000
        300  0.19120655E+000
        301  0.19055935E+000
        302  0.16988284E+000
        303  0.17804125E+000
        304  0.18579317E+000
        305  0.17297581E+000
        306  0.18947524E+000
        307  0.31874250E+000
        308  0.17045830E+000
        309  0.18919292E+000
        310  0.17494141E+000
        311  0.18871825E+000
        312  0.18856862E+000
        313  0.18613273E+000
        314  0.17760605E+000
        315  0.19076320E+000
        316  0.19259922E+000
        317  0.17863640E+000
        318  0.17312186E+000
        319  0.18940036E+000
        320  0.17476236E+000
        321  0.18672666E+000
        322  0.19238871E+000
        323  0.54203845E+000
        324  0.34308402E+000
        325  0.18827312E+000
        326  0.17209092E+000
        327  0.18869109E+000
        328  0.18610826E+000
        329  0.19241373E+000
        330  0.17784761E+000
        331  0.19036397E+000
        332  0.20371410E+000
        333  0.21114750E+000
        334  0.17305870E+000
        335  0.18775916E+000
        336  0.18948046E+000
        337  0.17133792E+000
        338  0.19047604E+000
        339  0.18621662E+000
        340  0.19218294E+000
        341  0.17292311E+000
        342  0.18815624E+000
        343  0.24077766E+000
        344  0.18618218E+000
        345  0.17792703E+000
        346  0.19024400E+000
        347  0.18722808E+000
        348  0.17223225E+000
        349  0.18594599E+000
        350  0.19157766E+000
        351  0.17344959E+000
        352  0.18805983E+000
        353  0.19934942E+000
        354  0.17788989E+000
        355  0.18835196E+000
        356  0.19031084E+000
        357  0.17568863E+000
        358  0.25529919E+000
        359  0.27139124E+000
        360  0.18709048E+000
        361  0.17289603E+000
        362  0.18580429E+000
        363  0.19111487E+000
        364  0.17374192E+000
        365  0.18802835E+000
        366  0.18786394E+000
        367  0.17685281E+000
        368  0.18716253E+000
        369  0.17333613E+000
        370  0.19214325E+000
        371  0.19386696E+000
        372  0.19211070E+000
        373  0.18580127E+000
        374  0.19096289E+000
        375  0.18806006E+000
        376  0.17384611E+000
        377  0.18776469E+000
        378  0.17752234E+000
        379  0.18739410E+000
        380  0.17355419E+000
        381  0.19199085E+000
        382  0.21178455E+000
        383  0.20748578E+000
        384  0.18587484E+000
        385  0.18930071E+000
        386  0.19102737E+000
        387  0.41936184E+000
        388  0.18808927E+000
        389  0.17385138E+000
        390  0.18661872E+000
        391  0.18784213E+000
        392  0.17790517E+000
        393  0.18758889E+000
        394  0.17359714E+000
        395  0.32154793E+000
        396  0.19134641E+000
        397  0.18875171E+000
        398  0.18604160E+000
        399  0.18804743E+000
        400  0.17810468E+000
        401  0.19088925E+000
        402  0.18853849E+000
        403  0.18570257E+000
        404  0.19417052E+000
        405  0.18821185E+000
        406  0.17816489E+000
        407  0.22769871E+000
        408  0.19073314E+000
        409  0.18853548E+000
        410  0.18552568E+000
        411  0.19157512E+000
        412  0.19471085E+000
        413  0.19027195E+000
        414  0.19078710E+000
        415  0.19242529E+000
        416  0.18871282E+000
        417  0.18546997E+000
        418  0.18950028E+000
        419  0.19122382E+000
        420  0.20032666E+000
        421  0.18888461E+000
        422  0.18547384E+000
        423  0.19266770E+000
        424  0.19310473E+000
        425  0.18913752E+000
        426  0.19050610E+000
        427  0.18900712E+000
        428  0.19006328E+000
        429  0.19358849E+000
        430  0.18908369E+000
        431  0.18984186E+000
        432  0.18921816E+000
        433  0.19181894E+000
        434  0.18978784E+000
        435  0.19128177E+000
        436  0.19070033E+000
        437  0.19027851E+000
        438  0.18999555E+000
        439  0.18985701E+000
End values

