# ALYA Lagrangian postprocess  
#
# HEADER
# T , Column :   1
# ILAGR , Column :   2
# ITYPE , Column :   3
# EXIST , Column :   4
# COORX , Column :   5
# COORY , Column :   6
# COORZ , Column :   7
# VELOX , Column :   8
# VELOY , Column :   9
# VELOZ , Column :  10
# DTK , Column :  11
# CD , Column :  12
#               T            ILAGR            ITYPE            EXIST            COORX            COORY            COORZ            VELOX            VELOY            VELOZ              DTK               CD            
  0.00000000E+000                1                1               -5  3.00000000E-001  3.00000000E-001  0.00000000E+000  2.00000000E-001 -2.00000000E-001  0.00000000E+000  1.00000000E-012  0.00000000E+000
  1.00000000E-002                1                1               -1  3.02007624E-001  2.98007654E-001  0.00000000E+000  2.01831004E-001 -1.98156208E-001  0.00000000E+000  1.83740878E-003  1.08086380E+017
  2.00000000E-002                1                1               -1  3.04030476E-001  2.96030715E-001  0.00000000E+000  2.03580342E-001 -1.96370194E-001  0.00000000E+000  3.81005085E-003  1.08086380E+017
  3.00000000E-002                1                1               -1  3.06068390E-001  2.94069188E-001  0.00000000E+000  2.04867101E-001 -1.95038743E-001  0.00000000E+000  5.48647322E-003  1.08086380E+017
  4.00000000E-002                1                1               -1  3.08120695E-001  2.92122583E-001  0.00000000E+000  2.07214902E-001 -1.92582812E-001  0.00000000E+000  7.90052144E-003  1.08086380E+017
  5.00000000E-002                1                1               -1  3.10194057E-001  2.90198047E-001  0.00000000E+000  2.09797340E-001 -1.89811041E-001  0.00000000E+000  7.41154754E-005  1.08086367E+017
  6.00000000E-002                1                1               -1  3.12301325E-001  2.88310276E-001  0.00000000E+000  2.11681889E-001 -1.87707510E-001  0.00000000E+000  7.36572047E-005  1.08086367E+017
  7.00000000E-002                1                1               -1  3.14427367E-001  2.86443669E-001  0.00000000E+000  2.13548229E-001 -1.85581954E-001  0.00000000E+000  7.36572047E-005  1.08086367E+017
  8.00000000E-002                1                1               -1  3.16571971E-001  2.84598414E-001  0.00000000E+000  2.15394960E-001 -1.83435808E-001  0.00000000E+000  7.36572047E-005  1.08086367E+017
  9.00000000E-002                1                1               -1  3.18734922E-001  2.82774694E-001  0.00000000E+000  2.17217552E-001 -1.81274367E-001  0.00000000E+000  7.36572047E-005  1.08086367E+017
  1.00000000E-001                1                1               -1  3.20916004E-001  2.80972693E-001  0.00000000E+000  2.19020902E-001 -1.79091827E-001  0.00000000E+000  7.36572047E-005  1.08086367E+017
