GiD Post Results File 1.0
 
Result VELOC ALYA  0.00000000E+00 Vector OnNodes
ComponentNames VELOC_X,VELOC_Y,VELOC_Z
Values
          1  0.10000000E+001  0.00000000E+000
          2  0.10000000E+001  0.00000000E+000
          3  0.10000000E+001  0.00000000E+000
          4  0.10000000E+001  0.00000000E+000
          5  0.10000000E+001  0.00000000E+000
          6  0.10000000E+001  0.00000000E+000
          7  0.10000000E+001  0.00000000E+000
          8  0.10000000E+001  0.00000000E+000
          9  0.10000000E+001  0.00000000E+000
         10  0.10000000E+001  0.00000000E+000
         11  0.10000000E+001  0.00000000E+000
         12  0.10000000E+001  0.00000000E+000
         13  0.10000000E+001  0.00000000E+000
         14  0.10000000E+001  0.00000000E+000
         15  0.10000000E+001  0.00000000E+000
         16  0.10000000E+001  0.00000000E+000
         17  0.10000000E+001  0.00000000E+000
         18  0.10000000E+001  0.00000000E+000
         19  0.10000000E+001  0.00000000E+000
         20  0.10000000E+001  0.00000000E+000
         21  0.10000000E+001  0.00000000E+000
         22  0.10000000E+001  0.00000000E+000
         23  0.10000000E+001  0.00000000E+000
         24  0.10000000E+001  0.00000000E+000
         25  0.10000000E+001  0.00000000E+000
         26  0.10000000E+001  0.00000000E+000
         27  0.10000000E+001  0.00000000E+000
         28  0.10000000E+001  0.00000000E+000
         29  0.10000000E+001  0.00000000E+000
         30  0.10000000E+001  0.00000000E+000
         31  0.10000000E+001  0.00000000E+000
         32  0.10000000E+001  0.00000000E+000
         33  0.10000000E+001  0.00000000E+000
         34  0.10000000E+001  0.00000000E+000
         35  0.10000000E+001  0.00000000E+000
         36  0.10000000E+001  0.00000000E+000
         37  0.10000000E+001  0.00000000E+000
         38  0.10000000E+001  0.00000000E+000
         39  0.10000000E+001  0.00000000E+000
         40  0.10000000E+001  0.00000000E+000
         41  0.10000000E+001  0.00000000E+000
         42  0.10000000E+001  0.00000000E+000
         43  0.10000000E+001  0.00000000E+000
         44  0.10000000E+001  0.00000000E+000
         45  0.10000000E+001  0.00000000E+000
         46  0.10000000E+001  0.00000000E+000
         47  0.10000000E+001  0.00000000E+000
         48  0.10000000E+001  0.00000000E+000
         49  0.10000000E+001  0.00000000E+000
         50  0.10000000E+001 -0.97144476E-016
         51  0.10000000E+001  0.00000000E+000
         52  0.10000000E+001  0.00000000E+000
         53  0.10000000E+001  0.00000000E+000
         54  0.10000000E+001  0.00000000E+000
         55  0.10000000E+001  0.00000000E+000
         56  0.10000000E+001  0.00000000E+000
         57  0.10000000E+001  0.00000000E+000
         58  0.10000000E+001  0.00000000E+000
         59  0.10000000E+001  0.00000000E+000
         60  0.10000000E+001  0.00000000E+000
         61  0.10000000E+001  0.00000000E+000
         62  0.10000000E+001  0.00000000E+000
         63  0.10000000E+001  0.00000000E+000
         64  0.10000000E+001  0.00000000E+000
         65  0.10000000E+001  0.00000000E+000
         66  0.10000000E+001  0.00000000E+000
         67  0.10000000E+001  0.00000000E+000
         68  0.10000000E+001  0.00000000E+000
         69  0.10000000E+001  0.00000000E+000
         70  0.10000000E+001  0.00000000E+000
         71  0.10000000E+001  0.00000000E+000
         72  0.10000000E+001  0.00000000E+000
         73  0.10000000E+001  0.00000000E+000
         74  0.10000000E+001  0.00000000E+000
         75  0.10000000E+001  0.00000000E+000
         76  0.10000000E+001  0.00000000E+000
         77  0.10000000E+001  0.00000000E+000
         78  0.10000000E+001  0.00000000E+000
         79  0.10000000E+001  0.00000000E+000
         80  0.10000000E+001  0.00000000E+000
         81  0.10000000E+001  0.00000000E+000
         82  0.10000000E+001  0.00000000E+000
         83  0.10000000E+001  0.00000000E+000
         84  0.10000000E+001  0.00000000E+000
         85  0.10000000E+001  0.00000000E+000
         86  0.10000000E+001  0.00000000E+000
         87  0.10000000E+001  0.00000000E+000
         88  0.10000000E+001  0.00000000E+000
         89  0.10000000E+001  0.00000000E+000
         90  0.10000000E+001  0.00000000E+000
         91  0.10000000E+001  0.00000000E+000
         92  0.10000000E+001  0.00000000E+000
         93  0.10000000E+001  0.00000000E+000
         94  0.10000000E+001  0.00000000E+000
         95  0.10000000E+001  0.00000000E+000
         96  0.10000000E+001  0.00000000E+000
         97  0.10000000E+001  0.00000000E+000
         98  0.10000000E+001  0.00000000E+000
         99  0.10000000E+001  0.00000000E+000
        100  0.10000000E+001  0.00000000E+000
        101  0.10000000E+001  0.00000000E+000
        102  0.10000000E+001  0.00000000E+000
        103  0.10000000E+001  0.00000000E+000
        104  0.10000000E+001  0.00000000E+000
        105  0.10000000E+001  0.00000000E+000
        106  0.10000000E+001  0.00000000E+000
        107  0.10000000E+001  0.00000000E+000
        108  0.10000000E+001  0.00000000E+000
        109  0.10000000E+001  0.00000000E+000
        110  0.10000000E+001  0.00000000E+000
        111  0.10000000E+001  0.00000000E+000
        112  0.10000000E+001  0.00000000E+000
        113  0.10000000E+001  0.00000000E+000
        114  0.10000000E+001  0.00000000E+000
        115  0.10000000E+001  0.00000000E+000
        116  0.10000000E+001  0.00000000E+000
        117  0.10000000E+001  0.00000000E+000
        118  0.10000000E+001  0.00000000E+000
        119  0.10000000E+001  0.00000000E+000
        120  0.10000000E+001  0.00000000E+000
        121  0.10000000E+001  0.00000000E+000
        122  0.10000000E+001  0.00000000E+000
        123  0.10000000E+001  0.00000000E+000
        124  0.10000000E+001  0.00000000E+000
        125  0.10000000E+001  0.00000000E+000
        126  0.10000000E+001  0.00000000E+000
        127  0.10000000E+001  0.00000000E+000
        128  0.10000000E+001  0.00000000E+000
        129  0.10000000E+001  0.00000000E+000
        130  0.10000000E+001  0.00000000E+000
        131  0.10000000E+001  0.00000000E+000
        132  0.10000000E+001  0.00000000E+000
        133  0.10000000E+001  0.00000000E+000
        134  0.10000000E+001  0.00000000E+000
        135  0.10000000E+001  0.00000000E+000
        136  0.10000000E+001  0.00000000E+000
        137  0.10000000E+001  0.00000000E+000
        138  0.10000000E+001  0.00000000E+000
        139  0.10000000E+001  0.00000000E+000
        140  0.10000000E+001  0.00000000E+000
        141  0.10000000E+001  0.00000000E+000
        142  0.10000000E+001  0.00000000E+000
        143  0.10000000E+001  0.00000000E+000
        144  0.10000000E+001  0.00000000E+000
        145  0.10000000E+001  0.00000000E+000
        146  0.10000000E+001  0.00000000E+000
        147  0.10000000E+001  0.00000000E+000
        148  0.10000000E+001  0.00000000E+000
        149  0.10000000E+001  0.00000000E+000
        150  0.10000000E+001  0.00000000E+000
        151  0.10000000E+001  0.00000000E+000
        152  0.10000000E+001  0.00000000E+000
        153  0.10000000E+001  0.12143068E-016
        154  0.10000000E+001  0.00000000E+000
        155  0.10000000E+001  0.00000000E+000
        156  0.10000000E+001  0.00000000E+000
        157  0.10000000E+001  0.00000000E+000
        158  0.10000000E+001  0.00000000E+000
        159  0.10000000E+001  0.00000000E+000
        160  0.10000000E+001  0.00000000E+000
        161  0.10000000E+001  0.00000000E+000
        162  0.10000000E+001  0.00000000E+000
        163  0.10000000E+001  0.00000000E+000
        164  0.10000000E+001  0.00000000E+000
        165  0.10000000E+001  0.00000000E+000
        166  0.10000000E+001  0.00000000E+000
        167  0.10000000E+001  0.00000000E+000
        168  0.10000000E+001  0.00000000E+000
        169  0.10000000E+001  0.00000000E+000
        170  0.10000000E+001  0.00000000E+000
        171  0.10000000E+001  0.00000000E+000
        172  0.10000000E+001  0.00000000E+000
        173  0.10000000E+001  0.00000000E+000
        174  0.10000000E+001  0.00000000E+000
        175  0.10000000E+001  0.00000000E+000
        176  0.10000000E+001  0.00000000E+000
        177  0.10000000E+001  0.00000000E+000
        178  0.10000000E+001  0.00000000E+000
        179  0.10000000E+001  0.00000000E+000
        180  0.10000000E+001  0.00000000E+000
        181  0.10000000E+001  0.00000000E+000
        182  0.10000000E+001  0.00000000E+000
        183  0.10000000E+001  0.00000000E+000
        184  0.10000000E+001  0.00000000E+000
        185  0.10000000E+001  0.00000000E+000
        186  0.10000000E+001  0.00000000E+000
        187  0.10000000E+001  0.00000000E+000
        188  0.10000000E+001  0.00000000E+000
        189  0.10000000E+001  0.00000000E+000
        190  0.10000000E+001  0.00000000E+000
        191  0.10000000E+001  0.00000000E+000
        192  0.10000000E+001  0.00000000E+000
        193  0.10000000E+001  0.00000000E+000
        194  0.10000000E+001  0.00000000E+000
        195  0.10000000E+001  0.00000000E+000
        196  0.10000000E+001  0.00000000E+000
        197  0.10000000E+001  0.00000000E+000
        198  0.10000000E+001  0.00000000E+000
        199  0.10000000E+001  0.00000000E+000
        200  0.10000000E+001  0.00000000E+000
        201  0.10000000E+001  0.00000000E+000
        202  0.10000000E+001  0.00000000E+000
        203  0.10000000E+001  0.00000000E+000
        204  0.10000000E+001  0.00000000E+000
        205  0.10000000E+001  0.00000000E+000
        206  0.10000000E+001  0.00000000E+000
        207  0.10000000E+001  0.00000000E+000
        208  0.10000000E+001  0.00000000E+000
        209  0.10000000E+001  0.00000000E+000
        210  0.10000000E+001  0.00000000E+000
        211  0.10000000E+001 -0.60715340E-017
        212  0.10000000E+001  0.00000000E+000
        213  0.10000000E+001  0.00000000E+000
        214  0.10000000E+001  0.00000000E+000
        215  0.10000000E+001  0.00000000E+000
        216  0.10000000E+001  0.00000000E+000
        217  0.10000000E+001 -0.30357670E-017
        218  0.10000000E+001  0.00000000E+000
        219  0.10000000E+001  0.00000000E+000
        220  0.10000000E+001  0.00000000E+000
        221  0.10000000E+001  0.00000000E+000
        222  0.10000000E+001  0.48572238E-016
        223  0.10000000E+001  0.00000000E+000
        224  0.10000000E+001  0.00000000E+000
        225  0.10000000E+001  0.00000000E+000
        226  0.10000000E+001 -0.48572238E-016
        227  0.10000000E+001  0.00000000E+000
        228  0.10000000E+001  0.00000000E+000
        229  0.10000000E+001  0.00000000E+000
        230  0.10000000E+001 -0.48572262E-016
        231  0.10000000E+001  0.00000000E+000
        232  0.10000000E+001 -0.48572272E-016
        233  0.10000000E+001  0.00000000E+000
End values

Result PRESS ALYA  0.00000000E+00 Scalar OnNodes
ComponentNames PRESS
Values
          1  0.00000000E+000
          2  0.00000000E+000
          3  0.00000000E+000
          4  0.00000000E+000
          5  0.00000000E+000
          6  0.00000000E+000
          7  0.00000000E+000
          8  0.00000000E+000
          9  0.00000000E+000
         10  0.00000000E+000
         11  0.00000000E+000
         12  0.00000000E+000
         13  0.00000000E+000
         14  0.00000000E+000
         15  0.00000000E+000
         16  0.00000000E+000
         17  0.00000000E+000
         18  0.00000000E+000
         19  0.00000000E+000
         20  0.00000000E+000
         21  0.00000000E+000
         22  0.00000000E+000
         23  0.00000000E+000
         24  0.00000000E+000
         25  0.00000000E+000
         26  0.00000000E+000
         27  0.00000000E+000
         28  0.00000000E+000
         29  0.00000000E+000
         30  0.00000000E+000
         31  0.00000000E+000
         32  0.00000000E+000
         33  0.00000000E+000
         34  0.00000000E+000
         35  0.00000000E+000
         36  0.00000000E+000
         37  0.00000000E+000
         38  0.00000000E+000
         39  0.00000000E+000
         40  0.00000000E+000
         41  0.00000000E+000
         42  0.00000000E+000
         43  0.00000000E+000
         44  0.00000000E+000
         45  0.00000000E+000
         46  0.00000000E+000
         47  0.00000000E+000
         48  0.00000000E+000
         49  0.00000000E+000
         50  0.00000000E+000
         51  0.00000000E+000
         52  0.00000000E+000
         53  0.00000000E+000
         54  0.00000000E+000
         55  0.00000000E+000
         56  0.00000000E+000
         57  0.00000000E+000
         58  0.00000000E+000
         59  0.00000000E+000
         60  0.00000000E+000
         61  0.00000000E+000
         62  0.00000000E+000
         63  0.00000000E+000
         64  0.00000000E+000
         65  0.00000000E+000
         66  0.00000000E+000
         67  0.00000000E+000
         68  0.00000000E+000
         69  0.00000000E+000
         70  0.00000000E+000
         71  0.00000000E+000
         72  0.00000000E+000
         73  0.00000000E+000
         74  0.00000000E+000
         75  0.00000000E+000
         76  0.00000000E+000
         77  0.00000000E+000
         78  0.00000000E+000
         79  0.00000000E+000
         80  0.00000000E+000
         81  0.00000000E+000
         82  0.00000000E+000
         83  0.00000000E+000
         84  0.00000000E+000
         85  0.00000000E+000
         86  0.00000000E+000
         87  0.00000000E+000
         88  0.00000000E+000
         89  0.00000000E+000
         90  0.00000000E+000
         91  0.00000000E+000
         92  0.00000000E+000
         93  0.00000000E+000
         94  0.00000000E+000
         95  0.00000000E+000
         96  0.00000000E+000
         97  0.00000000E+000
         98  0.00000000E+000
         99  0.00000000E+000
        100  0.00000000E+000
        101  0.00000000E+000
        102  0.00000000E+000
        103  0.00000000E+000
        104  0.00000000E+000
        105  0.00000000E+000
        106  0.00000000E+000
        107  0.00000000E+000
        108  0.00000000E+000
        109  0.00000000E+000
        110  0.00000000E+000
        111  0.00000000E+000
        112  0.00000000E+000
        113  0.00000000E+000
        114  0.00000000E+000
        115  0.00000000E+000
        116  0.00000000E+000
        117  0.00000000E+000
        118  0.00000000E+000
        119  0.00000000E+000
        120  0.00000000E+000
        121  0.00000000E+000
        122  0.00000000E+000
        123  0.00000000E+000
        124  0.00000000E+000
        125  0.00000000E+000
        126  0.00000000E+000
        127  0.00000000E+000
        128  0.00000000E+000
        129  0.00000000E+000
        130  0.00000000E+000
        131  0.00000000E+000
        132  0.00000000E+000
        133  0.00000000E+000
        134  0.00000000E+000
        135  0.00000000E+000
        136  0.00000000E+000
        137  0.00000000E+000
        138  0.00000000E+000
        139  0.00000000E+000
        140  0.00000000E+000
        141  0.00000000E+000
        142  0.00000000E+000
        143  0.00000000E+000
        144  0.00000000E+000
        145  0.00000000E+000
        146  0.00000000E+000
        147  0.00000000E+000
        148  0.00000000E+000
        149  0.00000000E+000
        150  0.00000000E+000
        151  0.00000000E+000
        152  0.00000000E+000
        153  0.00000000E+000
        154  0.00000000E+000
        155  0.00000000E+000
        156  0.00000000E+000
        157  0.00000000E+000
        158  0.00000000E+000
        159  0.00000000E+000
        160  0.00000000E+000
        161  0.00000000E+000
        162  0.00000000E+000
        163  0.00000000E+000
        164  0.00000000E+000
        165  0.00000000E+000
        166  0.00000000E+000
        167  0.00000000E+000
        168  0.00000000E+000
        169  0.00000000E+000
        170  0.00000000E+000
        171  0.00000000E+000
        172  0.00000000E+000
        173  0.00000000E+000
        174  0.00000000E+000
        175  0.00000000E+000
        176  0.00000000E+000
        177  0.00000000E+000
        178  0.00000000E+000
        179  0.00000000E+000
        180  0.00000000E+000
        181  0.00000000E+000
        182  0.00000000E+000
        183  0.00000000E+000
        184  0.00000000E+000
        185  0.00000000E+000
        186  0.00000000E+000
        187  0.00000000E+000
        188  0.00000000E+000
        189  0.00000000E+000
        190  0.00000000E+000
        191  0.00000000E+000
        192  0.00000000E+000
        193  0.00000000E+000
        194  0.00000000E+000
        195  0.00000000E+000
        196  0.00000000E+000
        197  0.00000000E+000
        198  0.00000000E+000
        199  0.00000000E+000
        200  0.00000000E+000
        201  0.00000000E+000
        202  0.00000000E+000
        203  0.00000000E+000
        204  0.00000000E+000
        205  0.00000000E+000
        206  0.00000000E+000
        207  0.00000000E+000
        208  0.00000000E+000
        209  0.00000000E+000
        210  0.00000000E+000
        211  0.00000000E+000
        212  0.00000000E+000
        213  0.00000000E+000
        214  0.00000000E+000
        215  0.00000000E+000
        216  0.00000000E+000
        217  0.00000000E+000
        218  0.00000000E+000
        219  0.00000000E+000
        220  0.00000000E+000
        221  0.00000000E+000
        222  0.00000000E+000
        223  0.00000000E+000
        224  0.00000000E+000
        225  0.00000000E+000
        226  0.00000000E+000
        227  0.00000000E+000
        228  0.00000000E+000
        229  0.00000000E+000
        230  0.00000000E+000
        231  0.00000000E+000
        232  0.00000000E+000
        233  0.00000000E+000
End values

Result VELOC ALYA  0.60000000E+00 Vector OnNodes
ComponentNames VELOC_X,VELOC_Y,VELOC_Z
Values
          1  0.10000000E+001  0.00000000E+000
          2  0.10000000E+001  0.00000000E+000
          3  0.10000000E+001  0.00000000E+000
          4  0.10000000E+001  0.00000000E+000
          5  0.10000000E+001  0.00000000E+000
          6  0.10000000E+001  0.00000000E+000
          7  0.10000000E+001  0.00000000E+000
          8  0.10000000E+001  0.00000000E+000
          9  0.10000000E+001  0.00000000E+000
         10  0.10000000E+001  0.00000000E+000
         11  0.10000000E+001  0.00000000E+000
         12  0.10000000E+001  0.00000000E+000
         13  0.10000000E+001  0.00000000E+000
         14  0.10000000E+001  0.00000000E+000
         15  0.10000000E+001  0.00000000E+000
         16  0.10000000E+001  0.00000000E+000
         17  0.10000000E+001  0.00000000E+000
         18  0.10000000E+001  0.00000000E+000
         19  0.10000000E+001  0.00000000E+000
         20  0.10000000E+001  0.00000000E+000
         21  0.10000000E+001  0.00000000E+000
         22  0.10000000E+001  0.00000000E+000
         23  0.10000000E+001  0.00000000E+000
         24  0.10000000E+001  0.00000000E+000
         25  0.10000000E+001  0.00000000E+000
         26  0.10000000E+001  0.00000000E+000
         27  0.10000000E+001  0.00000000E+000
         28  0.10000000E+001  0.00000000E+000
         29  0.10000000E+001  0.00000000E+000
         30  0.10000000E+001  0.00000000E+000
         31  0.10000000E+001  0.00000000E+000
         32  0.10000000E+001  0.00000000E+000
         33  0.10000000E+001  0.00000000E+000
         34  0.10000000E+001  0.00000000E+000
         35  0.10000000E+001  0.00000000E+000
         36  0.10000000E+001  0.00000000E+000
         37  0.10000000E+001  0.00000000E+000
         38  0.10000000E+001  0.00000000E+000
         39  0.10000000E+001  0.00000000E+000
         40  0.10000000E+001  0.00000000E+000
         41  0.10000000E+001  0.00000000E+000
         42  0.10000000E+001  0.00000000E+000
         43  0.10000000E+001  0.00000000E+000
         44  0.10000000E+001  0.00000000E+000
         45  0.10000000E+001  0.00000000E+000
         46  0.10000000E+001  0.00000000E+000
         47  0.10000000E+001  0.00000000E+000
         48  0.10000000E+001  0.00000000E+000
         49  0.10000000E+001  0.00000000E+000
         50  0.10000000E+001 -0.97144476E-016
         51  0.10000000E+001  0.00000000E+000
         52  0.10000000E+001  0.00000000E+000
         53  0.10000000E+001  0.00000000E+000
         54  0.10000000E+001  0.00000000E+000
         55  0.10000000E+001  0.00000000E+000
         56  0.10000000E+001  0.00000000E+000
         57  0.10000000E+001  0.00000000E+000
         58  0.10000000E+001  0.00000000E+000
         59  0.10000000E+001  0.00000000E+000
         60  0.10000000E+001  0.00000000E+000
         61  0.10000000E+001  0.00000000E+000
         62  0.10000000E+001  0.00000000E+000
         63  0.10000000E+001  0.00000000E+000
         64  0.10000000E+001  0.00000000E+000
         65  0.10000000E+001  0.00000000E+000
         66  0.10000000E+001  0.00000000E+000
         67  0.10000000E+001  0.00000000E+000
         68  0.10000000E+001  0.00000000E+000
         69  0.10000000E+001  0.00000000E+000
         70  0.10000000E+001  0.00000000E+000
         71  0.10000000E+001  0.00000000E+000
         72  0.10000000E+001  0.00000000E+000
         73  0.10000000E+001  0.00000000E+000
         74  0.10000000E+001  0.00000000E+000
         75  0.10000000E+001  0.00000000E+000
         76  0.10000000E+001  0.00000000E+000
         77  0.10000000E+001  0.00000000E+000
         78  0.10000000E+001  0.00000000E+000
         79  0.10000000E+001  0.00000000E+000
         80  0.10000000E+001  0.00000000E+000
         81  0.10000000E+001  0.00000000E+000
         82  0.10000000E+001  0.00000000E+000
         83  0.10000000E+001  0.00000000E+000
         84  0.10000000E+001  0.00000000E+000
         85  0.10000000E+001  0.00000000E+000
         86  0.10000000E+001  0.00000000E+000
         87  0.10000000E+001  0.00000000E+000
         88  0.10000000E+001  0.00000000E+000
         89  0.10000000E+001  0.00000000E+000
         90  0.10000000E+001  0.00000000E+000
         91  0.10000000E+001  0.00000000E+000
         92  0.10000000E+001  0.00000000E+000
         93  0.10000000E+001  0.00000000E+000
         94  0.10000000E+001  0.00000000E+000
         95  0.10000000E+001  0.00000000E+000
         96  0.10000000E+001  0.00000000E+000
         97  0.10000000E+001  0.00000000E+000
         98  0.10000000E+001  0.00000000E+000
         99  0.10000000E+001  0.00000000E+000
        100  0.10000000E+001  0.00000000E+000
        101  0.10000000E+001  0.00000000E+000
        102  0.10000000E+001  0.00000000E+000
        103  0.10000000E+001  0.00000000E+000
        104  0.10000000E+001  0.00000000E+000
        105  0.10000000E+001  0.00000000E+000
        106  0.10000000E+001  0.00000000E+000
        107  0.10000000E+001  0.00000000E+000
        108  0.10000000E+001  0.00000000E+000
        109  0.10000000E+001  0.00000000E+000
        110  0.10000000E+001  0.00000000E+000
        111  0.10000000E+001  0.00000000E+000
        112  0.10000000E+001  0.00000000E+000
        113  0.10000000E+001  0.00000000E+000
        114  0.10000000E+001  0.00000000E+000
        115  0.10000000E+001  0.00000000E+000
        116  0.10000000E+001  0.00000000E+000
        117  0.10000000E+001  0.00000000E+000
        118  0.10000000E+001  0.00000000E+000
        119  0.10000000E+001  0.00000000E+000
        120  0.10000000E+001  0.00000000E+000
        121  0.10000000E+001  0.00000000E+000
        122  0.10000000E+001  0.00000000E+000
        123  0.10000000E+001  0.00000000E+000
        124  0.10000000E+001  0.00000000E+000
        125  0.10000000E+001  0.00000000E+000
        126  0.10000000E+001  0.00000000E+000
        127  0.10000000E+001  0.00000000E+000
        128  0.10000000E+001  0.00000000E+000
        129  0.10000000E+001  0.00000000E+000
        130  0.10000000E+001  0.00000000E+000
        131  0.10000000E+001  0.00000000E+000
        132  0.10000000E+001  0.00000000E+000
        133  0.10000000E+001  0.00000000E+000
        134  0.10000000E+001  0.00000000E+000
        135  0.10000000E+001  0.00000000E+000
        136  0.10000000E+001  0.00000000E+000
        137  0.10000000E+001  0.00000000E+000
        138  0.10000000E+001  0.00000000E+000
        139  0.10000000E+001  0.00000000E+000
        140  0.10000000E+001  0.00000000E+000
        141  0.10000000E+001  0.00000000E+000
        142  0.10000000E+001  0.00000000E+000
        143  0.10000000E+001  0.00000000E+000
        144  0.10000000E+001  0.00000000E+000
        145  0.10000000E+001  0.00000000E+000
        146  0.10000000E+001  0.00000000E+000
        147  0.10000000E+001  0.00000000E+000
        148  0.10000000E+001  0.00000000E+000
        149  0.10000000E+001  0.00000000E+000
        150  0.10000000E+001  0.00000000E+000
        151  0.10000000E+001  0.00000000E+000
        152  0.10000000E+001  0.00000000E+000
        153  0.10000000E+001  0.12143068E-016
        154  0.10000000E+001  0.00000000E+000
        155  0.10000000E+001  0.00000000E+000
        156  0.10000000E+001  0.00000000E+000
        157  0.10000000E+001  0.00000000E+000
        158  0.10000000E+001  0.00000000E+000
        159  0.10000000E+001  0.00000000E+000
        160  0.10000000E+001  0.00000000E+000
        161  0.10000000E+001  0.00000000E+000
        162  0.10000000E+001  0.00000000E+000
        163  0.10000000E+001  0.00000000E+000
        164  0.10000000E+001  0.00000000E+000
        165  0.10000000E+001  0.00000000E+000
        166  0.10000000E+001  0.00000000E+000
        167  0.10000000E+001  0.00000000E+000
        168  0.10000000E+001  0.00000000E+000
        169  0.10000000E+001  0.00000000E+000
        170  0.10000000E+001  0.00000000E+000
        171  0.10000000E+001  0.00000000E+000
        172  0.10000000E+001  0.00000000E+000
        173  0.10000000E+001  0.00000000E+000
        174  0.10000000E+001  0.00000000E+000
        175  0.10000000E+001  0.00000000E+000
        176  0.10000000E+001  0.00000000E+000
        177  0.10000000E+001  0.00000000E+000
        178  0.10000000E+001  0.00000000E+000
        179  0.10000000E+001  0.00000000E+000
        180  0.10000000E+001  0.00000000E+000
        181  0.10000000E+001  0.00000000E+000
        182  0.10000000E+001  0.00000000E+000
        183  0.10000000E+001  0.00000000E+000
        184  0.10000000E+001  0.00000000E+000
        185  0.10000000E+001  0.00000000E+000
        186  0.10000000E+001  0.00000000E+000
        187  0.10000000E+001  0.00000000E+000
        188  0.10000000E+001  0.00000000E+000
        189  0.10000000E+001  0.00000000E+000
        190  0.10000000E+001  0.00000000E+000
        191  0.10000000E+001  0.00000000E+000
        192  0.10000000E+001  0.00000000E+000
        193  0.10000000E+001  0.00000000E+000
        194  0.10000000E+001  0.00000000E+000
        195  0.10000000E+001  0.00000000E+000
        196  0.10000000E+001  0.00000000E+000
        197  0.10000000E+001  0.00000000E+000
        198  0.10000000E+001  0.00000000E+000
        199  0.10000000E+001  0.00000000E+000
        200  0.10000000E+001  0.00000000E+000
        201  0.10000000E+001  0.00000000E+000
        202  0.10000000E+001  0.00000000E+000
        203  0.10000000E+001  0.00000000E+000
        204  0.10000000E+001  0.00000000E+000
        205  0.10000000E+001  0.00000000E+000
        206  0.10000000E+001  0.00000000E+000
        207  0.10000000E+001  0.00000000E+000
        208  0.10000000E+001  0.00000000E+000
        209  0.10000000E+001  0.00000000E+000
        210  0.10000000E+001  0.00000000E+000
        211  0.10000000E+001 -0.60715340E-017
        212  0.10000000E+001  0.00000000E+000
        213  0.10000000E+001  0.00000000E+000
        214  0.10000000E+001  0.00000000E+000
        215  0.10000000E+001  0.00000000E+000
        216  0.10000000E+001  0.00000000E+000
        217  0.10000000E+001 -0.30357670E-017
        218  0.10000000E+001  0.00000000E+000
        219  0.10000000E+001  0.00000000E+000
        220  0.10000000E+001  0.00000000E+000
        221  0.10000000E+001  0.00000000E+000
        222  0.10000000E+001  0.48572238E-016
        223  0.10000000E+001  0.00000000E+000
        224  0.10000000E+001  0.00000000E+000
        225  0.10000000E+001  0.00000000E+000
        226  0.10000000E+001 -0.48572238E-016
        227  0.10000000E+001  0.00000000E+000
        228  0.10000000E+001  0.00000000E+000
        229  0.10000000E+001  0.00000000E+000
        230  0.10000000E+001 -0.48572262E-016
        231  0.10000000E+001  0.00000000E+000
        232  0.10000000E+001 -0.48572272E-016
        233  0.10000000E+001  0.00000000E+000
End values

Result PRESS ALYA  0.60000000E+00 Scalar OnNodes
ComponentNames PRESS
Values
          1  0.00000000E+000
          2  0.00000000E+000
          3  0.00000000E+000
          4  0.00000000E+000
          5  0.00000000E+000
          6  0.00000000E+000
          7  0.00000000E+000
          8  0.00000000E+000
          9  0.00000000E+000
         10  0.00000000E+000
         11  0.00000000E+000
         12  0.00000000E+000
         13  0.00000000E+000
         14  0.00000000E+000
         15  0.00000000E+000
         16  0.00000000E+000
         17  0.00000000E+000
         18  0.00000000E+000
         19  0.00000000E+000
         20  0.00000000E+000
         21  0.00000000E+000
         22  0.00000000E+000
         23  0.00000000E+000
         24  0.00000000E+000
         25  0.00000000E+000
         26  0.00000000E+000
         27  0.00000000E+000
         28  0.00000000E+000
         29  0.00000000E+000
         30  0.00000000E+000
         31  0.00000000E+000
         32  0.00000000E+000
         33  0.00000000E+000
         34  0.00000000E+000
         35  0.00000000E+000
         36  0.00000000E+000
         37  0.00000000E+000
         38  0.00000000E+000
         39  0.00000000E+000
         40  0.00000000E+000
         41  0.00000000E+000
         42  0.00000000E+000
         43  0.00000000E+000
         44  0.00000000E+000
         45  0.00000000E+000
         46  0.00000000E+000
         47  0.00000000E+000
         48  0.00000000E+000
         49  0.00000000E+000
         50  0.00000000E+000
         51  0.00000000E+000
         52  0.00000000E+000
         53  0.00000000E+000
         54  0.00000000E+000
         55  0.00000000E+000
         56  0.00000000E+000
         57  0.00000000E+000
         58  0.00000000E+000
         59  0.00000000E+000
         60  0.00000000E+000
         61  0.00000000E+000
         62  0.00000000E+000
         63  0.00000000E+000
         64  0.00000000E+000
         65  0.00000000E+000
         66  0.00000000E+000
         67  0.00000000E+000
         68  0.00000000E+000
         69  0.00000000E+000
         70  0.00000000E+000
         71  0.00000000E+000
         72  0.00000000E+000
         73  0.00000000E+000
         74  0.00000000E+000
         75  0.00000000E+000
         76  0.00000000E+000
         77  0.00000000E+000
         78  0.00000000E+000
         79  0.00000000E+000
         80  0.00000000E+000
         81  0.00000000E+000
         82  0.00000000E+000
         83  0.00000000E+000
         84  0.00000000E+000
         85  0.00000000E+000
         86  0.00000000E+000
         87  0.00000000E+000
         88  0.00000000E+000
         89  0.00000000E+000
         90  0.00000000E+000
         91  0.00000000E+000
         92  0.00000000E+000
         93  0.00000000E+000
         94  0.00000000E+000
         95  0.00000000E+000
         96  0.00000000E+000
         97  0.00000000E+000
         98  0.00000000E+000
         99  0.00000000E+000
        100  0.00000000E+000
        101  0.00000000E+000
        102  0.00000000E+000
        103  0.00000000E+000
        104  0.00000000E+000
        105  0.00000000E+000
        106  0.00000000E+000
        107  0.00000000E+000
        108  0.00000000E+000
        109  0.00000000E+000
        110  0.00000000E+000
        111  0.00000000E+000
        112  0.00000000E+000
        113  0.00000000E+000
        114  0.00000000E+000
        115  0.00000000E+000
        116  0.00000000E+000
        117  0.00000000E+000
        118  0.00000000E+000
        119  0.00000000E+000
        120  0.00000000E+000
        121  0.00000000E+000
        122  0.00000000E+000
        123  0.00000000E+000
        124  0.00000000E+000
        125  0.00000000E+000
        126  0.00000000E+000
        127  0.00000000E+000
        128  0.00000000E+000
        129  0.00000000E+000
        130  0.00000000E+000
        131  0.00000000E+000
        132  0.00000000E+000
        133  0.00000000E+000
        134  0.00000000E+000
        135  0.00000000E+000
        136  0.00000000E+000
        137  0.00000000E+000
        138  0.00000000E+000
        139  0.00000000E+000
        140  0.00000000E+000
        141  0.00000000E+000
        142  0.00000000E+000
        143  0.00000000E+000
        144  0.00000000E+000
        145  0.00000000E+000
        146  0.00000000E+000
        147  0.00000000E+000
        148  0.00000000E+000
        149  0.00000000E+000
        150  0.00000000E+000
        151  0.00000000E+000
        152  0.00000000E+000
        153  0.00000000E+000
        154  0.00000000E+000
        155  0.00000000E+000
        156  0.00000000E+000
        157  0.00000000E+000
        158  0.00000000E+000
        159  0.00000000E+000
        160  0.00000000E+000
        161  0.00000000E+000
        162  0.00000000E+000
        163  0.00000000E+000
        164  0.00000000E+000
        165  0.00000000E+000
        166  0.00000000E+000
        167  0.00000000E+000
        168  0.00000000E+000
        169  0.00000000E+000
        170  0.00000000E+000
        171  0.00000000E+000
        172  0.00000000E+000
        173  0.00000000E+000
        174  0.00000000E+000
        175  0.00000000E+000
        176  0.00000000E+000
        177  0.00000000E+000
        178  0.00000000E+000
        179  0.00000000E+000
        180  0.00000000E+000
        181  0.00000000E+000
        182  0.00000000E+000
        183  0.00000000E+000
        184  0.00000000E+000
        185  0.00000000E+000
        186  0.00000000E+000
        187  0.00000000E+000
        188  0.00000000E+000
        189  0.00000000E+000
        190  0.00000000E+000
        191  0.00000000E+000
        192  0.00000000E+000
        193  0.00000000E+000
        194  0.00000000E+000
        195  0.00000000E+000
        196  0.00000000E+000
        197  0.00000000E+000
        198  0.00000000E+000
        199  0.00000000E+000
        200  0.00000000E+000
        201  0.00000000E+000
        202  0.00000000E+000
        203  0.00000000E+000
        204  0.00000000E+000
        205  0.00000000E+000
        206  0.00000000E+000
        207  0.00000000E+000
        208  0.00000000E+000
        209  0.00000000E+000
        210  0.00000000E+000
        211  0.00000000E+000
        212  0.00000000E+000
        213  0.00000000E+000
        214  0.00000000E+000
        215  0.00000000E+000
        216  0.00000000E+000
        217  0.00000000E+000
        218  0.00000000E+000
        219  0.00000000E+000
        220  0.00000000E+000
        221  0.00000000E+000
        222  0.00000000E+000
        223  0.00000000E+000
        224  0.00000000E+000
        225  0.00000000E+000
        226  0.00000000E+000
        227  0.00000000E+000
        228  0.00000000E+000
        229  0.00000000E+000
        230  0.00000000E+000
        231  0.00000000E+000
        232  0.00000000E+000
        233  0.00000000E+000
End values

