{
    "authors": [
        "guillaume.houzeaux@bsc.es"
    ],
    "comparisons": [
        {
            "file": "cavtri03_repart_linelet-VELOC-00000200.post.mpio.txt",
            "method": "absolute",
            "tolerance": "1.0e-12"
        },
        {
            "file": "cavtri03_repart_linelet-PRESS-00000200.post.mpio.txt",
            "method": "absolute",
            "tolerance": "1.0e-12"
        }
    ],
    "description": "Test of linelet with repartitioning. Repartitioning of Alya at each time step, should give same solution as cavtri03 test. There can be empty subdomains, this is fancy isnt it?",
    "exclude": [
        "special"
    ],
    "executions": [
        {
            "mpi": 3,
            "openmp": 0
        }
    ],
    "modules": [
        "nastin"
    ],
    "name": "cavtri03_repart_linelet",
    "postprocess": "mpio2txt"
}
