{
    "authors": [
        "guillaume.houzeaux@bsc.es"
    ],
    "comparisons": [
        {
            "file": "case2-extnor.post.res",
            "method": "absolute",
            "tolerance": 0
        }
    ],
    "description": "Compute exterior normals in ugly elements",
    "exclude": [
        "special"
    ],
    "executions": [
        {
            "mpi": 1,
            "openmp": 0
        }
    ],
    "modules": [
        "nastin"
    ],
    "name": "case2-extnor",
    "postprocess": "alya2pos"
}