$-------------------------------------------------------------------
PHYSICAL_PROBLEM
  PROPERTIES
    MATERIAL: 1
       DENSITY:       Constant, VALUE=1.0
       CONDUCTIVITY:  Constant, VALUE=1.0
       SPECIFIC_HEAT: Constant, VALUE=1.0
    END_MATERIAL
  END_PROPERTIES
END_PHYSICAL_PROBLEM
$-------------------------------------------------------------------
NUMERICAL_TREATMENT 
  ELSEST
    STRATEGY:    Bin
    NUMBER_BINS= 10,10
  END_ELSEST
  MESH
    MULTIPLICATION= 0
  END_MESH
  SPACE_&_TIME_FUNCTIONS
    FUNCTION=LINEAR
       2.0*x+3.0*y
    END_FUNCTION
  END_SPACE_&_TIME_FUNCTIONS
END_NUMERICAL_TREATMENT  
$-------------------------------------------------------------------
OUTPUT_&_POST_PROCESS  
  On_last_mesh
  STEPS = 1e6
END_OUTPUT_&_POST_PROCESS  
$-------------------------------------------------------------------
