GiD Post Results File 1.0
 
Result TEMPE ALYA  0.00000000E+00 Scalar OnNodes
ComponentNames TEMPE
Values
          1  0.00000000E+000
          2  0.00000000E+000
          3  0.00000000E+000
          4  0.00000000E+000
          5  0.00000000E+000
          6  0.00000000E+000
          7  0.00000000E+000
          8  0.00000000E+000
          9  0.00000000E+000
         10  0.00000000E+000
         11  0.00000000E+000
         12  0.00000000E+000
         13  0.00000000E+000
         14  0.00000000E+000
         15  0.00000000E+000
         16  0.00000000E+000
         17  0.00000000E+000
         18  0.00000000E+000
         19  0.00000000E+000
         20  0.00000000E+000
         21  0.00000000E+000
         22  0.00000000E+000
         23  0.00000000E+000
         24  0.00000000E+000
         25  0.00000000E+000
         26  0.00000000E+000
         27  0.00000000E+000
         28  0.00000000E+000
         29  0.00000000E+000
         30  0.00000000E+000
         31  0.00000000E+000
         32  0.00000000E+000
         33  0.00000000E+000
         34  0.00000000E+000
         35  0.00000000E+000
         36  0.00000000E+000
         37  0.00000000E+000
         38  0.00000000E+000
         39  0.00000000E+000
         40  0.00000000E+000
         41  0.00000000E+000
         42  0.00000000E+000
         43  0.00000000E+000
         44  0.00000000E+000
         45  0.00000000E+000
         46  0.00000000E+000
         47  0.00000000E+000
         48  0.00000000E+000
         49  0.00000000E+000
         50  0.00000000E+000
         51  0.00000000E+000
         52  0.00000000E+000
         53  0.00000000E+000
         54  0.00000000E+000
         55  0.00000000E+000
         56  0.00000000E+000
         57  0.00000000E+000
         58  0.00000000E+000
         59  0.00000000E+000
         60  0.00000000E+000
         61  0.00000000E+000
         62  0.00000000E+000
         63  0.00000000E+000
         64  0.00000000E+000
         65  0.00000000E+000
         66  0.00000000E+000
         67  0.00000000E+000
         68  0.00000000E+000
         69  0.00000000E+000
         70  0.00000000E+000
         71  0.00000000E+000
         72  0.00000000E+000
         73  0.00000000E+000
         74  0.00000000E+000
         75  0.00000000E+000
         76  0.00000000E+000
         77  0.00000000E+000
         78  0.00000000E+000
         79  0.00000000E+000
         80  0.00000000E+000
         81  0.00000000E+000
         82  0.00000000E+000
         83  0.00000000E+000
         84  0.00000000E+000
         85  0.00000000E+000
         86  0.00000000E+000
         87  0.00000000E+000
         88  0.00000000E+000
         89  0.00000000E+000
         90  0.00000000E+000
         91  0.00000000E+000
         92  0.00000000E+000
         93  0.00000000E+000
         94  0.00000000E+000
         95  0.00000000E+000
         96  0.00000000E+000
         97  0.00000000E+000
         98  0.00000000E+000
         99  0.00000000E+000
        100  0.00000000E+000
        101  0.00000000E+000
        102  0.00000000E+000
        103  0.00000000E+000
        104  0.00000000E+000
        105  0.00000000E+000
        106  0.00000000E+000
        107  0.00000000E+000
        108  0.00000000E+000
        109  0.00000000E+000
        110  0.00000000E+000
        111  0.00000000E+000
        112  0.00000000E+000
        113  0.00000000E+000
        114  0.00000000E+000
        115  0.00000000E+000
        116  0.00000000E+000
        117  0.00000000E+000
        118  0.00000000E+000
        119  0.00000000E+000
        120  0.00000000E+000
        121  0.00000000E+000
        122  0.00000000E+000
        123  0.00000000E+000
        124  0.00000000E+000
        125  0.00000000E+000
        126  0.00000000E+000
        127  0.00000000E+000
        128  0.00000000E+000
        129  0.00000000E+000
        130  0.00000000E+000
        131  0.00000000E+000
        132  0.00000000E+000
        133  0.00000000E+000
        134  0.00000000E+000
        135  0.00000000E+000
        136  0.00000000E+000
        137  0.00000000E+000
        138  0.00000000E+000
        139  0.00000000E+000
        140  0.00000000E+000
        141  0.00000000E+000
        142  0.00000000E+000
        143  0.00000000E+000
        144  0.00000000E+000
        145  0.00000000E+000
        146  0.00000000E+000
        147  0.00000000E+000
        148  0.00000000E+000
        149  0.00000000E+000
        150  0.00000000E+000
        151  0.00000000E+000
        152  0.00000000E+000
        153  0.00000000E+000
        154  0.00000000E+000
        155  0.00000000E+000
        156  0.00000000E+000
        157  0.00000000E+000
        158  0.00000000E+000
        159  0.00000000E+000
        160  0.00000000E+000
        161  0.00000000E+000
        162  0.00000000E+000
        163  0.00000000E+000
        164  0.00000000E+000
        165  0.00000000E+000
        166  0.00000000E+000
        167  0.00000000E+000
        168  0.00000000E+000
        169  0.00000000E+000
        170  0.00000000E+000
        171  0.00000000E+000
        172  0.00000000E+000
        173  0.00000000E+000
        174  0.00000000E+000
        175  0.00000000E+000
        176  0.00000000E+000
        177  0.00000000E+000
        178  0.00000000E+000
        179  0.00000000E+000
        180  0.00000000E+000
        181  0.00000000E+000
        182  0.00000000E+000
        183  0.00000000E+000
        184  0.00000000E+000
        185  0.00000000E+000
        186  0.00000000E+000
        187  0.00000000E+000
        188  0.00000000E+000
        189  0.00000000E+000
        190  0.00000000E+000
        191  0.00000000E+000
        192  0.00000000E+000
        193  0.00000000E+000
        194  0.00000000E+000
        195  0.00000000E+000
        196  0.00000000E+000
        197  0.00000000E+000
        198  0.00000000E+000
        199  0.00000000E+000
        200  0.00000000E+000
        201  0.00000000E+000
        202  0.00000000E+000
        203  0.00000000E+000
        204  0.00000000E+000
        205  0.00000000E+000
        206  0.00000000E+000
        207  0.00000000E+000
        208  0.00000000E+000
        209  0.00000000E+000
        210  0.00000000E+000
        211  0.00000000E+000
        212  0.00000000E+000
        213  0.00000000E+000
        214  0.00000000E+000
        215  0.00000000E+000
        216  0.00000000E+000
        217  0.00000000E+000
        218  0.00000000E+000
        219  0.00000000E+000
        220  0.00000000E+000
        221  0.00000000E+000
        222  0.00000000E+000
        223  0.00000000E+000
        224  0.00000000E+000
        225  0.00000000E+000
        226  0.00000000E+000
        227  0.00000000E+000
        228  0.00000000E+000
        229  0.00000000E+000
        230  0.00000000E+000
        231  0.00000000E+000
        232  0.00000000E+000
        233  0.00000000E+000
        234  0.00000000E+000
        235  0.00000000E+000
        236  0.00000000E+000
        237  0.00000000E+000
        238  0.00000000E+000
        239  0.00000000E+000
        240  0.00000000E+000
        241  0.00000000E+000
        242  0.00000000E+000
        243  0.00000000E+000
        244  0.00000000E+000
        245  0.00000000E+000
        246  0.00000000E+000
        247  0.00000000E+000
        248  0.00000000E+000
        249  0.00000000E+000
        250  0.00000000E+000
        251  0.00000000E+000
        252  0.00000000E+000
        253  0.00000000E+000
        254  0.00000000E+000
        255  0.00000000E+000
        256  0.00000000E+000
        257  0.00000000E+000
        258  0.00000000E+000
        259  0.00000000E+000
        260  0.00000000E+000
        261  0.00000000E+000
        262  0.00000000E+000
        263  0.00000000E+000
        264  0.00000000E+000
        265  0.00000000E+000
        266  0.00000000E+000
        267  0.00000000E+000
        268  0.00000000E+000
        269  0.00000000E+000
        270  0.00000000E+000
        271  0.00000000E+000
        272  0.00000000E+000
        273  0.00000000E+000
        274  0.00000000E+000
        275  0.00000000E+000
        276  0.00000000E+000
        277  0.00000000E+000
        278  0.00000000E+000
        279  0.00000000E+000
        280  0.00000000E+000
        281  0.00000000E+000
        282  0.00000000E+000
        283  0.00000000E+000
        284  0.00000000E+000
        285  0.00000000E+000
        286  0.00000000E+000
        287  0.00000000E+000
        288  0.00000000E+000
        289  0.00000000E+000
        290  0.00000000E+000
        291  0.00000000E+000
        292  0.00000000E+000
        293  0.00000000E+000
        294  0.00000000E+000
        295  0.00000000E+000
        296  0.00000000E+000
        297  0.00000000E+000
        298  0.00000000E+000
        299  0.00000000E+000
        300  0.00000000E+000
        301  0.00000000E+000
        302  0.00000000E+000
        303  0.00000000E+000
        304  0.00000000E+000
        305  0.00000000E+000
        306  0.00000000E+000
        307  0.00000000E+000
        308  0.00000000E+000
        309  0.00000000E+000
        310  0.00000000E+000
        311  0.00000000E+000
        312  0.00000000E+000
        313  0.00000000E+000
        314  0.00000000E+000
        315  0.00000000E+000
        316  0.00000000E+000
        317  0.00000000E+000
        318  0.00000000E+000
        319  0.00000000E+000
        320  0.00000000E+000
        321  0.00000000E+000
        322  0.00000000E+000
        323  0.00000000E+000
        324  0.00000000E+000
        325  0.00000000E+000
        326  0.00000000E+000
        327  0.00000000E+000
        328  0.00000000E+000
        329  0.00000000E+000
        330  0.00000000E+000
        331  0.00000000E+000
        332  0.00000000E+000
        333  0.00000000E+000
        334  0.00000000E+000
        335  0.00000000E+000
        336  0.00000000E+000
        337  0.00000000E+000
        338  0.00000000E+000
        339  0.00000000E+000
        340  0.00000000E+000
        341  0.00000000E+000
        342  0.00000000E+000
        343  0.00000000E+000
        344  0.00000000E+000
        345  0.00000000E+000
        346  0.00000000E+000
        347  0.00000000E+000
        348  0.00000000E+000
        349  0.00000000E+000
        350  0.00000000E+000
        351  0.00000000E+000
        352  0.00000000E+000
        353  0.00000000E+000
        354  0.00000000E+000
        355  0.00000000E+000
        356  0.00000000E+000
        357  0.00000000E+000
        358  0.00000000E+000
        359  0.00000000E+000
        360  0.00000000E+000
        361  0.00000000E+000
        362  0.00000000E+000
        363  0.00000000E+000
        364  0.00000000E+000
        365  0.00000000E+000
        366  0.00000000E+000
        367  0.00000000E+000
        368  0.00000000E+000
        369  0.00000000E+000
        370  0.00000000E+000
        371  0.00000000E+000
        372  0.00000000E+000
        373  0.00000000E+000
        374  0.00000000E+000
        375  0.00000000E+000
        376  0.00000000E+000
        377  0.00000000E+000
        378  0.00000000E+000
        379  0.00000000E+000
        380  0.00000000E+000
        381  0.00000000E+000
        382  0.00000000E+000
        383  0.00000000E+000
        384  0.00000000E+000
        385  0.00000000E+000
        386  0.00000000E+000
        387  0.00000000E+000
        388  0.00000000E+000
        389  0.00000000E+000
        390  0.00000000E+000
        391  0.00000000E+000
        392  0.00000000E+000
        393  0.00000000E+000
        394  0.00000000E+000
        395  0.00000000E+000
        396  0.00000000E+000
        397  0.00000000E+000
        398  0.00000000E+000
        399  0.00000000E+000
        400  0.00000000E+000
        401  0.00000000E+000
        402  0.00000000E+000
        403  0.00000000E+000
        404  0.00000000E+000
        405  0.00000000E+000
        406  0.00000000E+000
        407  0.00000000E+000
        408  0.00000000E+000
        409  0.00000000E+000
        410  0.00000000E+000
        411  0.00000000E+000
        412  0.00000000E+000
        413  0.00000000E+000
        414  0.00000000E+000
        415  0.00000000E+000
        416  0.00000000E+000
        417  0.00000000E+000
        418  0.00000000E+000
        419  0.00000000E+000
        420  0.00000000E+000
        421  0.00000000E+000
        422  0.00000000E+000
        423  0.00000000E+000
        424  0.00000000E+000
        425  0.00000000E+000
        426  0.00000000E+000
        427  0.00000000E+000
        428  0.00000000E+000
        429  0.00000000E+000
        430  0.00000000E+000
        431  0.00000000E+000
        432  0.00000000E+000
        433  0.00000000E+000
        434  0.00000000E+000
        435  0.00000000E+000
        436  0.00000000E+000
        437  0.00000000E+000
        438  0.00000000E+000
        439  0.00000000E+000
        440  0.00000000E+000
        441  0.00000000E+000
End values

Result TEMPE ALYA  0.30000000E+02 Scalar OnNodes
ComponentNames TEMPE
Values
          1  0.26635145E+003
          2  0.24000000E+003
          3  0.27546595E+003
          4  0.27496117E+003
          5  0.30280016E+003
          6  0.24000000E+003
          7  0.30227770E+003
          8  0.27117664E+003
          9  0.30130750E+003
         10  0.33078344E+003
         11  0.24000000E+003
         12  0.27023682E+003
         13  0.33070535E+003
         14  0.30011288E+003
         15  0.33026973E+003
         16  0.24000000E+003
         17  0.35896250E+003
         18  0.35903272E+003
         19  0.26962304E+003
         20  0.32945194E+003
         21  0.29910144E+003
         22  0.35888389E+003
         23  0.24000000E+003
         24  0.38681102E+003
         25  0.35820964E+003
         26  0.32825087E+003
         27  0.38697370E+003
         28  0.26901308E+003
         29  0.38697154E+003
         30  0.29795608E+003
         31  0.35690610E+003
         32  0.38635111E+003
         33  0.32666959E+003
         34  0.24000000E+003
         35  0.41407110E+003
         36  0.26831595E+003
         37  0.41428938E+003
         38  0.41436388E+003
         39  0.29659099E+003
         40  0.38492120E+003
         41  0.35496016E+003
         42  0.41373885E+003
         43  0.32468591E+003
         44  0.24000000E+003
         45  0.44057841E+003
         46  0.44082548E+003
         47  0.26751636E+003
         48  0.38264811E+003
         49  0.41216484E+003
         50  0.35241287E+003
         51  0.29500201E+003
         52  0.44092676E+003
         53  0.44025872E+003
         54  0.32233423E+003
         55  0.37959006E+003
         56  0.40958750E+003
         57  0.46624137E+003
         58  0.24000000E+003
         59  0.46649487E+003
         60  0.43853238E+003
         61  0.26662715E+003
         62  0.34934270E+003
         63  0.46658369E+003
         64  0.29322482E+003
         65  0.40607266E+003
         66  0.46584599E+003
         67  0.31968471E+003
         68  0.37586079E+003
         69  0.43567876E+003
         70  0.46396949E+003
         71  0.34585962E+003
         72  0.49102867E+003
         73  0.24000000E+003
         74  0.26567378E+003
         75  0.49126999E+003
         76  0.49131539E+003
         77  0.43176807E+003
         78  0.40175772E+003
         79  0.29131472E+003
         80  0.46087659E+003
         81  0.37160766E+003
         82  0.31682816E+003
         83  0.49049127E+003
         84  0.34209313E+003
         85  0.48847657E+003
         86  0.42695483E+003
         87  0.24000000E+003
         88  0.51495989E+003
         89  0.45664113E+003
         90  0.39682120E+003
         91  0.51517417E+003
         92  0.26468774E+003
         93  0.51515328E+003
         94  0.28933689E+003
         95  0.36699797E+003
         96  0.48519095E+003
         97  0.51423533E+003
         98  0.31386642E+003
         99  0.45143007E+003
        100  0.42144183E+003
        101  0.51210369E+003
        102  0.33818339E+003
        103  0.48071171E+003
        104  0.39146394E+003
        105  0.24000000E+003
        106  0.53809634E+003
        107  0.26370324E+003
        108  0.53827237E+003
        109  0.50868059E+003
        110  0.28736108E+003
        111  0.53817017E+003
        112  0.36220930E+003
        113  0.44546413E+003
        114  0.41545740E+003
        115  0.31090645E+003
        116  0.47521431E+003
        117  0.53715996E+003
        118  0.50404671E+003
        119  0.38589743E+003
        120  0.33427525E+003
        121  0.53494100E+003
        122  0.24000000E+003
        123  0.56053200E+003
        124  0.43899237E+003
        125  0.56066195E+003
        126  0.46893141E+003
        127  0.26275526E+003
        128  0.35742321E+003
        129  0.53144279E+003
        130  0.56047073E+003
        131  0.28545825E+003
        132  0.40924147E+003
        133  0.49838238E+003
        134  0.55937788E+003
        135  0.30805623E+003
        136  0.52674906E+003
        137  0.38033660E+003
        138  0.55710825E+003
        139  0.33051384E+003
        140  0.46212576E+003
        141  0.43227638E+003
        142  0.49192633E+003
        143  0.55360222E+003
        144  0.24000000E+003
        145  0.58238534E+003
        146  0.35282043E+003
        147  0.58246436E+003
        148  0.26187795E+003
        149  0.52104141E+003
        150  0.40303704E+003
        151  0.58218279E+003
        152  0.28369766E+003
        153  0.58102371E+003
        154  0.30542095E+003
        155  0.54894592E+003
        156  0.37499436E+003
        157  0.48494798E+003
        158  0.45507322E+003
        159  0.57874511E+003
        160  0.32704009E+003
        161  0.42558061E+003
        162  0.51455898E+003
        163  0.54331859E+003
        164  0.39708409E+003
        165  0.57530071E+003
        166  0.34857585E+003
        167  0.24000000E+003
        168  0.60379197E+003
        169  0.60381780E+003
        170  0.26110285E+003
        171  0.28214352E+003
        172  0.47772973E+003
        173  0.60345005E+003
        174  0.44805212E+003
        175  0.50757091E+003
        176  0.30309833E+003
        177  0.57077783E+003
        178  0.37007609E+003
        179  0.60224636E+003
        180  0.41916556E+003
        181  0.53695424E+003
        182  0.32398481E+003
        183  0.60000317E+003
        184  0.39161343E+003
        185  0.56534963E+003
        186  0.34485155E+003
        187  0.47055592E+003
        188  0.50035853E+003
        189  0.59668866E+003
        190  0.53011511E+003
        191  0.44133610E+003
        192  0.24000000E+003
        193  0.62489817E+003
        194  0.62487098E+003
        195  0.26045670E+003
        196  0.62442599E+003
        197  0.28085053E+003
        198  0.36577169E+003
        199  0.59238948E+003
        200  0.41328120E+003
        201  0.55923978E+003
        202  0.62320297E+003
        203  0.30117193E+003
        204  0.62103959E+003
        205  0.32146011E+003
        206  0.49320429E+003
        207  0.52307426E+003
        208  0.46370540E+003
        209  0.58726899E+003
        210  0.38683800E+003
        211  0.55269746E+003
        212  0.61791815E+003
        213  0.34178631E+003
        214  0.43518713E+003
        215  0.24000000E+003
        216  0.64585458E+003
        217  0.64577714E+003
        218  0.25995838E+003
        219  0.64526837E+003
        220  0.40815771E+003
        221  0.27985783E+003
        222  0.58153562E+003
        223  0.36224350E+003
        224  0.61392225E+003
        225  0.51610474E+003
        226  0.48638435E+003
        227  0.64405354E+003
        228  0.29970199E+003
        229  0.45744457E+003
        230  0.54598092E+003
        231  0.31954697E+003
        232  0.64201157E+003
        233  0.60920179E+003
        234  0.38293952E+003
        235  0.42984606E+003
        236  0.57542015E+003
        237  0.33948027E+003
        238  0.63913719E+003
        239  0.50947249E+003
        240  0.40399115E+003
        241  0.66680913E+003
        242  0.60394572E+003
        243  0.24000000E+003
        244  0.66668740E+003
        245  0.25961515E+003
        246  0.53934710E+003
        247  0.48016187E+003
        248  0.35960827E+003
        249  0.63550820E+003
        250  0.66613311E+003
        251  0.27918106E+003
        252  0.45201799E+003
        253  0.56916046E+003
        254  0.66495502E+003
        255  0.29871309E+003
        256  0.66307046E+003
        257  0.31827835E+003
        258  0.38004808E+003
        259  0.63125775E+003
        260  0.59836202E+003
        261  0.42551776E+003
        262  0.50343013E+003
        263  0.53304507E+003
        264  0.66048382E+003
        265  0.33797350E+003
        266  0.47477808E+003
        267  0.56299190E+003
        268  0.40092136E+003
        269  0.62655191E+003
        270  0.68789765E+003
        271  0.24000000E+003
        272  0.59266396E+003
        273  0.35791147E+003
        274  0.68774191E+003
        275  0.65726439E+003
        276  0.44763352E+003
        277  0.25941813E+003
        278  0.27880276E+003
        279  0.68716573E+003
        280  0.68605275E+003
        281  0.29817859E+003
        282  0.42234796E+003
        283  0.62157275E+003
        284  0.52731037E+003
        285  0.65352602E+003
        286  0.37821288E+003
        287  0.49820879E+003
        288  0.31761726E+003
        289  0.55714119E+003
        290  0.68435329E+003
        291  0.58706132E+003
        292  0.47043793E+003
        293  0.68207803E+003
        294  0.33721751E+003
        295  0.39899960E+003
        296  0.64940980E+003
        297  0.44443878E+003
        298  0.61650628E+003
        299  0.35709255E+003
        300  0.67928570E+003
        301  0.24000000E+003
        302  0.70923102E+003
        303  0.70905687E+003
        304  0.25933787E+003
        305  0.27866196E+003
        306  0.70848775E+003
        307  0.52235788E+003
        308  0.55182154E+003
        309  0.49400475E+003
        310  0.58175473E+003
        311  0.64507029E+003
        312  0.29800257E+003
        313  0.70746630E+003
        314  0.42038869E+003
        315  0.67606969E+003
        316  0.37736157E+003
        317  0.31742971E+003
        318  0.46728698E+003
        319  0.70596845E+003
        320  0.61153451E+003
        321  0.33703874E+003
        322  0.70400815E+003
        323  0.39814309E+003
        324  0.67254562E+003
        325  0.64066532E+003
        326  0.44248554E+003
        327  0.54722647E+003
        328  0.51836987E+003
        329  0.57693141E+003
        330  0.70163305E+003
        331  0.35693911E+003
        332  0.73087903E+003
        333  0.49095759E+003
        334  0.24000000E+003
        335  0.60683022E+003
        336  0.73070606E+003
        337  0.25932418E+003
        338  0.73017469E+003
        339  0.27864763E+003
        340  0.41954899E+003
        341  0.66884074E+003
        342  0.72926499E+003
        343  0.29800144E+003
        344  0.63634883E+003
        345  0.69891691E+003
        346  0.46537581E+003
        347  0.37724591E+003
        348  0.72797055E+003
        349  0.31745220E+003
        350  0.57276003E+003
        351  0.54351971E+003
        352  0.44167785E+003
        353  0.66508548E+003
        354  0.39807304E+003
        355  0.33709186E+003
        356  0.51547620E+003
        357  0.60255304E+003
        358  0.72630706E+003
        359  0.69595145E+003
        360  0.63226602E+003
        361  0.48911590E+003
        362  0.72431274E+003
        363  0.35702698E+003
        364  0.69283859E+003
        365  0.41952686E+003
        366  0.66140723E+003
        367  0.46460735E+003
        368  0.72204495E+003
        369  0.37737011E+003
        370  0.56938238E+003
        371  0.54081796E+003
        372  0.59884521E+003
        373  0.62854956E+003
        374  0.51372255E+003
        375  0.44169957E+003
        376  0.68968378E+003
        377  0.71957518E+003
        378  0.39823268E+003
        379  0.48838557E+003
        380  0.65792564E+003
        381  0.56689933E+003
        382  0.71698374E+003
        383  0.41971835E+003
        384  0.59582496E+003
        385  0.68659061E+003
        386  0.46466188E+003
        387  0.53916297E+003
        388  0.62531591E+003
        389  0.51302179E+003
        390  0.65474903E+003
        391  0.71435466E+003
        392  0.44191638E+003
        393  0.48845494E+003
        394  0.68365652E+003
        395  0.59357562E+003
        396  0.62266018E+003
        397  0.56534746E+003
        398  0.53847790E+003
        399  0.65197088E+003
        400  0.46489425E+003
        401  0.71177128E+003
        402  0.68096925E+003
        403  0.51308211E+003
        404  0.70931246E+003
        405  0.48868991E+003
        406  0.62064809E+003
        407  0.59212754E+003
        408  0.56466240E+003
        409  0.64966580E+003
        410  0.67860359E+003
        411  0.53850178E+003
        412  0.51330399E+003
        413  0.70704926E+003
        414  0.61930312E+003
        415  0.59142951E+003
        416  0.64788378E+003
        417  0.56462288E+003
        418  0.67661793E+003
        419  0.70504202E+003
        420  0.53869330E+003
        421  0.61858653E+003
        422  0.64664185E+003
        423  0.67505025E+003
        424  0.59130527E+003
        425  0.70333747E+003
        426  0.56476712E+003
        427  0.64591211E+003
        428  0.67391311E+003
        429  0.61836775E+003
        430  0.59138847E+003
        431  0.70196587E+003
        432  0.67318791E+003
        433  0.64560569E+003
        434  0.70093829E+003
        435  0.61838274E+003
        436  0.67281989E+003
        437  0.70024486E+003
        438  0.64555543E+003
        439  0.67272013E+003
        440  0.69985615E+003
        441  0.69973352E+003
End values

Result VELOC ALYA  0.30000000E+02 Vector OnNodes
ComponentNames VELOC_X,VELOC_Y,VELOC_Z
Values
          1  0.00000000E+000  0.00000000E+000
          2  0.00000000E+000  0.00000000E+000
          3  0.00000000E+000  0.00000000E+000
          4 -0.59409792E-001 -0.58816995E-001
          5  0.00000000E+000  0.00000000E+000
          6  0.00000000E+000  0.00000000E+000
          7 -0.18304551E+000 -0.91236390E-001
          8 -0.93201293E-001 -0.18329826E+000
          9 -0.28165819E+000 -0.27816040E+000
         10  0.00000000E+000  0.00000000E+000
         11  0.00000000E+000  0.00000000E+000
         12 -0.10426608E+000 -0.33778491E+000
         13 -0.33443614E+000 -0.10100929E+000
         14 -0.31696449E+000 -0.51188297E+000
         15 -0.51394691E+000 -0.30936000E+000
         16  0.00000000E+000  0.00000000E+000
         17  0.00000000E+000  0.00000000E+000
         18 -0.48849005E+000 -0.97058636E-001
         19 -0.10091297E+000 -0.49662661E+000
         20 -0.58290334E+000 -0.57337105E+000
         21 -0.30970248E+000 -0.75700455E+000
         22 -0.75474282E+000 -0.29984842E+000
         23  0.00000000E+000  0.00000000E+000
         24  0.00000000E+000  0.00000000E+000
         25 -0.86253104E+000 -0.56095996E+000
         26 -0.57538883E+000 -0.85440718E+000
         27 -0.62999805E+000 -0.85411054E-001
         28 -0.88742813E-001 -0.64326662E+000
         29 -0.98016892E+000 -0.26621355E+000
         30 -0.27533145E+000 -0.98811515E+000
         31 -0.85887119E+000 -0.84278185E+000
         32 -0.11280731E+001 -0.50253062E+000
         33 -0.51712338E+000 -0.11237611E+001
         34  0.00000000E+000  0.00000000E+000
         35  0.00000000E+000  0.00000000E+000
         36 -0.71527263E-001 -0.76755451E+000
         37 -0.75039022E+000 -0.69740588E-001
         38 -0.11751329E+001 -0.21907684E+000
         39 -0.22460473E+000 -0.11881658E+001
         40 -0.11315643E+001 -0.76089457E+000
         41 -0.77910848E+000 -0.11166196E+001
         42 -0.13607454E+001 -0.41681877E+000
         43 -0.42682403E+000 -0.13609786E+001
         44  0.00000000E+000  0.00000000E+000
         45  0.00000000E+000  0.00000000E+000
         46 -0.84511867E+000 -0.52113947E-001
         47 -0.51740699E-001 -0.86369310E+000
         48 -0.10344501E+001 -0.10150054E+001
         49 -0.13732962E+001 -0.63551975E+000
         50 -0.64959804E+000 -0.13613139E+001
         51 -0.16490594E+000 -0.13464593E+001
         52 -0.13306251E+001 -0.16480215E+000
         53 -0.15484502E+001 -0.31569345E+000
         54 -0.31784061E+000 -0.15523234E+001
         55 -0.86985248E+000 -0.12449694E+001
         56 -0.12634543E+001 -0.85301366E+000
         57  0.00000000E+000  0.00000000E+000
         58  0.00000000E+000  0.00000000E+000
         59 -0.91192178E+000 -0.33614221E-001
         60 -0.15704020E+001 -0.48435763E+000
         61 -0.30994386E-001 -0.92883854E+000
         62 -0.48969114E+000 -0.15619603E+001
         63 -0.14415554E+001 -0.10698395E+000
         64 -0.10123374E+000 -0.14569453E+001
         65 -0.10699394E+001 -0.10521552E+001
         66 -0.16838002E+001 -0.20632916E+000
         67 -0.19955048E+000 -0.16892775E+001
         68 -0.66255659E+000 -0.14362901E+001
         69 -0.14522537E+001 -0.65391508E+000
         70 -0.17140899E+001 -0.31869051E+000
         71 -0.31338492E+000 -0.17087025E+001
         72  0.00000000E+000  0.00000000E+000
         73  0.00000000E+000  0.00000000E+000
         74 -0.10312167E-001 -0.96211823E+000
         75 -0.94975936E+000 -0.14765958E-001
         76 -0.15052494E+001 -0.47569244E-001
         77 -0.12369750E+001 -0.81104345E+000
         78 -0.82207769E+000 -0.12201037E+001
         79 -0.36910337E-001 -0.15168912E+001
         80 -0.15915725E+001 -0.43316158E+000
         81 -0.43088289E+000 -0.15789102E+001
         82 -0.78441234E-001 -0.17672706E+001
         83 -0.17626200E+001 -0.92970800E-001
         84 -0.13068917E+000 -0.17956721E+001
         85 -0.17991380E+001 -0.14564323E+000
         86 -0.95735255E+000 -0.94550111E+000
         87  0.00000000E+000  0.00000000E+000
         88  0.00000000E+000  0.00000000E+000
         89 -0.13620450E+001 -0.54094967E+000
         90 -0.54187009E+000 -0.13475919E+001
         91 -0.95822847E+000  0.41759951E-002
         92  0.96772538E-002 -0.96394391E+000
         93 -0.15205387E+001  0.12330517E-001
         94  0.25894883E-001 -0.15258994E+001
         95 -0.18827606E+000 -0.16663859E+001
         96 -0.16756852E+001 -0.20099228E+000
         97 -0.17829590E+001  0.21697257E-001
         98  0.41022706E-001 -0.17846922E+001
         99 -0.10605740E+001 -0.63506715E+000
        100 -0.63821328E+000 -0.10496039E+001
        101 -0.18229759E+001  0.29970573E-001
        102  0.51212321E-001 -0.18201493E+001
        103 -0.14394568E+001 -0.25514373E+000
        104 -0.24577790E+000 -0.14283170E+001
        105  0.00000000E+000  0.00000000E+000
        106  0.00000000E+000  0.00000000E+000
        107  0.28592395E-001 -0.93555007E+000
        108 -0.93732273E+000  0.23023006E-001
        109 -0.17016365E+001  0.35358018E-001
        110  0.85738228E-001 -0.14852338E+001
        111 -0.14873366E+001  0.71838304E-001
        112  0.55289481E-001 -0.16952452E+001
        113 -0.71383744E+000 -0.70999290E+000
        114 -0.29838896E+000 -0.11178098E+001
        115  0.15565324E+000 -0.17422067E+001
        116 -0.11265798E+001 -0.30475029E+000
        117 -0.17445819E+001  0.13548529E+000
        118 -0.14661282E+001  0.36700800E-001
        119  0.53665786E-001 -0.14584982E+001
        120  0.22691342E+000 -0.17819826E+001
        121 -0.17851667E+001  0.20414601E+000
        122  0.00000000E+000  0.00000000E+000
        123  0.00000000E+000  0.00000000E+000
        124 -0.34224707E+000 -0.76143139E+000
        125 -0.88745004E+000  0.41496414E-001
        126 -0.76455660E+000 -0.34681994E+000
        127  0.46166374E-001 -0.87872807E+000
        128  0.29200070E+000 -0.16645639E+001
        129 -0.16687586E+001  0.26979568E+000
        130 -0.14066092E+001  0.12983799E+000
        131  0.14150563E+000 -0.13974394E+001
        132  0.47491448E-001 -0.11464595E+001
        133 -0.11524264E+001  0.33562721E-001
        134 -0.16488811E+001  0.24583385E+000
        135  0.26282439E+000 -0.16423755E+001
        136 -0.14411687E+001  0.32637572E+000
        137  0.34632996E+000 -0.14366188E+001
        138 -0.16872681E+001  0.37243297E+000
        139  0.39175931E+000 -0.16832891E+001
        140 -0.37451721E+000 -0.37864093E+000
        141  0.38095932E-001 -0.78621035E+000
        142 -0.78782983E+000  0.26239637E-001
        143 -0.15784986E+001  0.49576957E+000
        144  0.00000000E+000  0.00000000E+000
        145  0.00000000E+000  0.00000000E+000
        146  0.51490515E+000 -0.15757790E+001
        147 -0.80966139E+000  0.59091808E-001
        148  0.62106025E-001 -0.79575596E+000
        149 -0.11370543E+001  0.36974593E+000
        150  0.38729953E+000 -0.11336747E+001
        151 -0.12806787E+001  0.18456432E+000
        152  0.19199014E+000 -0.12662641E+001
        153 -0.14991552E+001  0.34906391E+000
        154  0.35971009E+000 -0.14896059E+001
        155 -0.13656899E+001  0.60525875E+000
        156  0.62295829E+000 -0.13633604E+001
        157 -0.39331729E+000  0.15676435E-001
        158  0.26690403E-001 -0.39781410E+000
        159 -0.15330426E+001  0.52884019E+000
        160  0.54075364E+000 -0.15284530E+001
        161  0.41355914E+000 -0.78231943E+000
        162 -0.78252744E+000  0.39751837E+000
        163 -0.10810982E+001  0.69334498E+000
        164  0.70970196E+000 -0.10794068E+001
        165 -0.14345486E+001  0.70485562E+000
        166  0.71653240E+000 -0.14327516E+001
        167  0.00000000E+000  0.00000000E+000
        168  0.00000000E+000  0.00000000E+000
        169 -0.70607232E+000  0.74942632E-001
        170  0.75918393E-001 -0.68955350E+000
        171  0.23538514E+000 -0.10969164E+001
        172  0.14275736E-001  0.33014533E-002
        173 -0.11138204E+001  0.23320523E+000
        174  0.42453717E+000 -0.40239601E+000
        175 -0.39757960E+000  0.40881874E+000
        176  0.44239570E+000 -0.12904504E+001
        177 -0.12428626E+001  0.86261951E+000
        178  0.87356202E+000 -0.12417350E+001
        179 -0.13012109E+001  0.43967150E+000
        180  0.77114551E+000 -0.74905745E+000
        181 -0.74875769E+000  0.75513471E+000
        182  0.66731575E+000 -0.13244365E+001
        183 -0.13289779E+001  0.66482244E+000
        184  0.10023837E+001 -0.98562771E+000
        185 -0.98688237E+000  0.99165208E+000
        186  0.88735791E+000 -0.12420834E+001
        187  0.42020115E+000 -0.91910618E-002
        188  0.16891043E-002  0.40400455E+000
        189 -0.12432603E+001  0.88545429E+000
        190 -0.38692062E+000  0.78800141E+000
        191  0.80491107E+000 -0.39113683E+000
        192  0.00000000E+000  0.00000000E+000
        193  0.00000000E+000  0.00000000E+000
        194 -0.58048293E+000  0.87661514E-001
        195  0.86676369E-001 -0.56412208E+000
        196 -0.91313356E+000  0.27147063E+000
        197  0.26863494E+000 -0.89671493E+000
        198  0.10856601E+001 -0.10774049E+001
        199 -0.10782249E+001  0.10840497E+001
        200  0.10966061E+001 -0.68726310E+000
        201 -0.68780800E+000  0.10848912E+001
        202 -0.10642423E+001  0.50960951E+000
        203  0.50479567E+000 -0.10542841E+001
        204 -0.10850734E+001  0.76829377E+000
        205  0.76182671E+000 -0.10814074E+001
        206  0.40101455E+000  0.38438324E+000
        207 -0.10275785E-001  0.79120846E+000
        208  0.80987466E+000 -0.20103534E-001
        209 -0.85862711E+000  0.12478964E+001
        210  0.12501336E+001 -0.85664786E+000
        211 -0.36152464E+000  0.11381436E+001
        212 -0.10143138E+001  0.10215449E+001
        213  0.10140537E+001 -0.10136787E+001
        214  0.11521837E+001 -0.36371684E+000
        215  0.00000000E+000  0.00000000E+000
        216  0.00000000E+000  0.00000000E+000
        217 -0.43922706E+000  0.95135300E-001
        218  0.92696981E-001 -0.42536042E+000
        219 -0.68966859E+000  0.29308204E+000
        220  0.13724359E+001 -0.59961463E+000
        221  0.28660053E+000 -0.67618056E+000
        222 -0.60225355E+000  0.13682575E+001
        223  0.12423096E+001 -0.87918100E+000
        224 -0.88023473E+000  0.12499612E+001
        225  0.36803975E+000  0.76558412E+000
        226  0.78603421E+000  0.35196025E+000
        227 -0.80193193E+000  0.54751913E+000
        228  0.53735976E+000 -0.79436084E+000
        229  0.11669500E+001 -0.27995561E-001
        230 -0.20744629E-001  0.11496207E+001
        231  0.80996544E+000 -0.81366742E+000
        232 -0.81583613E+000  0.82263209E+000
        233 -0.70288618E+000  0.14394888E+001
        234  0.14327271E+001 -0.69954598E+000
        235  0.14471615E+001 -0.32101588E+000
        236 -0.32216520E+000  0.14396712E+001
        237  0.10775291E+001 -0.76153900E+000
        238 -0.76160842E+000  0.10914575E+001
        239  0.73455432E+000  0.71326534E+000
        240  0.15756748E+001 -0.49098457E+000
        241  0.00000000E+000  0.00000000E+000
        242 -0.49627782E+000  0.15803714E+001
        243  0.00000000E+000  0.00000000E+000
        244 -0.29230165E+000  0.94243499E-001
        245  0.91119775E-001 -0.28235419E+000
        246  0.32306962E+000  0.11195832E+001
        247  0.11403920E+001  0.30919098E+000
        248  0.13199169E+001 -0.65968479E+000
        249 -0.66105761E+000  0.13341026E+001
        250 -0.45975532E+000  0.28917915E+000
        251  0.28109791E+000 -0.45055620E+000
        252  0.14712741E+001 -0.31896833E-001
        253 -0.28696246E-001  0.14594065E+001
        254 -0.53367812E+000  0.53792316E+000
        255  0.52568764E+000 -0.52917842E+000
        256 -0.54141383E+000  0.80568354E+000
        257  0.79097747E+000 -0.54083243E+000
        258  0.15225837E+001 -0.52469361E+000
        259 -0.52922268E+000  0.15362744E+001
        260 -0.27040217E+000  0.16663023E+001
        261  0.16648728E+001 -0.26538191E+000
        262  0.10736408E+001  0.63752946E+000
        263  0.65793336E+000  0.10501145E+001
        264 -0.50433521E+000  0.10666219E+001
        265  0.10508540E+001 -0.50477446E+000
        266  0.14437866E+001  0.25883490E+000
        267  0.26877766E+000  0.14270953E+001
        268  0.16754943E+001 -0.36882056E+000
        269 -0.37622190E+000  0.16880332E+001
        270  0.00000000E+000  0.00000000E+000
        271  0.00000000E+000  0.00000000E+000
        272 -0.33014827E-001  0.16938068E+001
        273  0.12858731E+001 -0.43616073E+000
        274 -0.15481379E+000  0.80610450E-001
        275 -0.43755806E+000  0.13020284E+001
        276  0.16967243E+001 -0.31467801E-001
        277  0.77571665E-001 -0.14915682E+000
        278  0.24014044E+000 -0.24153071E+000
        279 -0.24635457E+000  0.24777881E+000
        280 -0.28577835E+000  0.46062175E+000
        281  0.44957760E+000 -0.28396692E+000
        282  0.17721591E+001 -0.20086238E+000
        283 -0.20898074E+000  0.17828014E+001
        284  0.96965089E+000  0.94503950E+000
        285 -0.35109418E+000  0.14987332E+001
        286  0.14822222E+001 -0.34634502E+000
        287  0.13656914E+001  0.54274148E+000
        288  0.67621780E+000 -0.28926007E+000
        289  0.56024000E+000  0.13445552E+001
        290 -0.28883338E+000  0.68880801E+000
        291  0.20882256E+000  0.16618718E+001
        292  0.16698965E+001  0.20392096E+000
        293 -0.26818341E+000  0.91016754E+000
        294  0.89721004E+000 -0.26883433E+000
        295  0.16305825E+001 -0.24351587E+000
        296 -0.25134439E+000  0.16476567E+001
        297  0.18088615E+001 -0.27079522E-001
        298 -0.32713630E-001  0.18166761E+001
        299  0.10960822E+001 -0.23138451E+000
        300 -0.23238933E+000  0.11093591E+001
        301  0.00000000E+000  0.00000000E+000
        302  0.00000000E+000  0.00000000E+000
        303 -0.48418480E-001  0.48605230E-001
        304  0.46326146E-001 -0.46509637E-001
        305  0.14928328E+000 -0.78355812E-001
        306 -0.79819548E-001  0.15470185E+000
        307  0.12401371E+001  0.81000117E+000
        308  0.83352678E+000  0.12158114E+001
        309  0.15851811E+001  0.43444844E+000
        310  0.44737363E+000  0.15718306E+001
        311 -0.14244486E+000  0.17426878E+001
        312  0.28366750E+000 -0.92434760E-001
        313 -0.92749568E-001  0.29089590E+000
        314  0.17250740E+001 -0.13337411E+000
        315 -0.18682015E+000  0.12760105E+001
        316  0.12615727E+001 -0.18320764E+000
        317  0.42825315E+000 -0.93863653E-001
        318  0.17841382E+001  0.14782349E+000
        319 -0.93425268E-001  0.43574077E+000
        320  0.14782901E+000  0.17880645E+001
        321  0.56789481E+000 -0.86826397E-001
        322 -0.86451097E-001  0.57495867E+000
        323  0.13863963E+001 -0.12869100E+000
        324 -0.13468726E+000  0.14031175E+001
        325 -0.27369394E-001  0.17799550E+001
        326  0.17623945E+001 -0.19804910E-001
        327  0.10728308E+001  0.10473177E+001
        328  0.14456523E+001  0.65270271E+000
        329  0.67294934E+000  0.14274979E+001
        330 -0.74805569E-001  0.69947843E+000
        331  0.69240497E+000 -0.74395661E-001
        332  0.00000000E+000  0.00000000E+000
        333  0.16985620E+001  0.31961913E+000
        334  0.00000000E+000  0.00000000E+000
        335  0.32727861E+000  0.16976317E+001
        336  0.00000000E+000  0.00000000E+000
        337  0.00000000E+000  0.00000000E+000
        338  0.00000000E+000  0.00000000E+000
        339  0.00000000E+000  0.00000000E+000
        340  0.14661594E+001 -0.70769833E-001
        341 -0.77910243E-001  0.14859005E+001
        342  0.00000000E+000  0.00000000E+000
        343  0.00000000E+000  0.00000000E+000
        344  0.91180723E-001  0.17574786E+001
        345 -0.60240116E-001  0.80355026E+000
        346  0.17412219E+001  0.94437877E-001
        347  0.79524299E+000 -0.58699030E-001
        348  0.00000000E+000  0.00000000E+000
        349  0.00000000E+000  0.00000000E+000
        350  0.87263304E+000  0.12355435E+001
        351  0.12571279E+001  0.84836860E+000
        352  0.14985036E+001 -0.11334031E-001
        353 -0.17776730E-001  0.15211180E+001
        354  0.87244320E+000 -0.41162739E-001
        355  0.00000000E+000  0.00000000E+000
        356  0.15548652E+001  0.48331803E+000
        357  0.49864376E+000  0.15485457E+001
        358  0.00000000E+000  0.00000000E+000
        359 -0.43728088E-001  0.88340831E+000
        360  0.21002415E+000  0.16751766E+001
        361  0.16619275E+001  0.20699112E+000
        362  0.00000000E+000  0.00000000E+000
        363  0.00000000E+000  0.00000000E+000
        364 -0.25797441E-001  0.93643111E+000
        365  0.92178667E+000 -0.22698880E-001
        366  0.44551486E-001  0.15067773E+001
        367  0.14825090E+001  0.48384047E-001
        368  0.00000000E+000  0.00000000E+000
        369  0.00000000E+000  0.00000000E+000
        370  0.10289219E+001  0.10060883E+001
        371  0.13584358E+001  0.63169403E+000
        372  0.65229408E+000  0.13469992E+001
        373  0.32480237E+000  0.15351900E+001
        374  0.15266510E+001  0.31502580E+000
        375  0.94218501E+000 -0.38563949E-002
        376 -0.67682245E-002  0.96068619E+000
        377  0.00000000E+000  0.00000000E+000
        378  0.00000000E+000  0.00000000E+000
        379  0.14183841E+001  0.10740241E+000
        380  0.10762264E+000  0.14421783E+001
        381  0.11181998E+001  0.75349543E+000
        382  0.00000000E+000  0.00000000E+000
        383  0.00000000E+000  0.00000000E+000
        384  0.77484675E+000  0.11029858E+001
        385  0.13074636E-001  0.95476084E+000
        386  0.93325555E+000  0.15045040E-001
        387  0.13397879E+001  0.41419839E+000
        388  0.42925766E+000  0.13425108E+001
        389  0.13074842E+001  0.16451796E+000
        390  0.16930941E+000  0.13282551E+001
        391  0.00000000E+000  0.00000000E+000
        392  0.00000000E+000  0.00000000E+000
        393  0.89508706E+000  0.33779452E-001
        394  0.33343138E-001  0.91781527E+000
        395  0.84787339E+000  0.83129819E+000
        396  0.51440440E+000  0.11058984E+001
        397  0.11089410E+001  0.49732265E+000
        398  0.11527188E+001  0.21771302E+000
        399  0.22639611E+000  0.11682018E+001
        400  0.00000000E+000  0.00000000E+000
        401  0.00000000E+000  0.00000000E+000
        402  0.53417419E-001  0.84982700E+000
        403  0.82821638E+000  0.52058173E-001
        404  0.00000000E+000  0.00000000E+000
        405  0.00000000E+000  0.00000000E+000
        406  0.56751176E+000  0.83906474E+000
        407  0.84636162E+000  0.55269189E+000
        408  0.95943291E+000  0.26336596E+000
        409  0.27407640E+000  0.96839507E+000
        410  0.72302790E-001  0.75202482E+000
        411  0.73386213E+000  0.69328121E-001
        412  0.00000000E+000  0.00000000E+000
        413  0.00000000E+000  0.00000000E+000
        414  0.57083142E+000  0.56207339E+000
        415  0.73685757E+000  0.29518201E+000
        416  0.30528389E+000  0.73964025E+000
        417  0.61449581E+000  0.84490087E-001
        418  0.88444636E-001  0.62754042E+000
        419  0.00000000E+000  0.00000000E+000
        420  0.00000000E+000  0.00000000E+000
        421  0.50017512E+000  0.30281652E+000
        422  0.30978882E+000  0.49874955E+000
        423  0.99464191E-001  0.48234236E+000
        424  0.47487605E+000  0.95492986E-001
        425  0.00000000E+000  0.00000000E+000
        426  0.00000000E+000  0.00000000E+000
        427  0.27306687E+000  0.27036300E+000
        428  0.10175657E+000  0.32656262E+000
        429  0.32371387E+000  0.98751835E-001
        430  0.00000000E+000  0.00000000E+000
        431  0.00000000E+000  0.00000000E+000
        432  0.90004486E-001  0.17637091E+000
        433  0.17613200E+000  0.88501458E-001
        434  0.00000000E+000  0.00000000E+000
        435  0.00000000E+000  0.00000000E+000
        436  0.56669867E-001  0.56321766E-001
        437  0.00000000E+000  0.00000000E+000
        438  0.00000000E+000  0.00000000E+000
        439  0.00000000E+000  0.00000000E+000
        440  0.00000000E+000  0.00000000E+000
        441  0.00000000E+000  0.00000000E+000
End values

Result PRESS ALYA  0.30000000E+02 Scalar OnNodes
ComponentNames PRESS
Values
          1  0.00000000E+000
          2  0.17045809E+002
          3  0.25928326E+000
          4  0.16796709E+002
          5  0.19478183E+001
          6  0.33176050E+002
          7  0.17677870E+002
          8  0.32295747E+002
          9  0.32447776E+002
         10  0.54688305E+001
         11  0.47411370E+002
         12  0.46270197E+002
         13  0.20052751E+002
         14  0.45876435E+002
         15  0.33911671E+002
         16  0.59812356E+002
         17  0.10721047E+002
         18  0.23951292E+002
         19  0.58605122E+002
         20  0.46599773E+002
         21  0.57890471E+002
         22  0.36684614E+002
         23  0.70621986E+002
         24  0.17435552E+002
         25  0.48439975E+002
         26  0.58065020E+002
         27  0.29191994E+002
         28  0.69489473E+002
         29  0.40631681E+002
         30  0.68632518E+002
         31  0.59158206E+002
         32  0.51286535E+002
         33  0.68438272E+002
         34  0.80180632E+002
         35  0.25299494E+002
         36  0.79214957E+002
         37  0.35526348E+002
         38  0.45561570E+002
         39  0.78355187E+002
         40  0.61091732E+002
         41  0.68960263E+002
         42  0.54992374E+002
         43  0.77943682E+002
         44  0.88850484E+002
         45  0.34013349E+002
         46  0.42697787E+002
         47  0.88108891E+002
         48  0.70155705E+002
         49  0.63758534E+002
         50  0.78049516E+002
         51  0.87349120E+002
         52  0.51269257E+002
         53  0.59399155E+002
         54  0.86842013E+002
         55  0.78662811E+002
         56  0.71957037E+002
         57  0.43307386E+002
         58  0.96979963E+002
         59  0.50463560E+002
         60  0.67042772E+002
         61  0.96494535E+002
         62  0.86661252E+002
         63  0.57552224E+002
         64  0.95906550E+002
         65  0.79753592E+002
         66  0.64345886E+002
         67  0.95396693E+002
         68  0.86824955E+002
         69  0.74288400E+002
         70  0.70823150E+002
         71  0.95032523E+002
         72  0.52939797E+002
         73  0.10488688E+003
         74  0.10467175E+003
         75  0.58597632E+002
         76  0.64213845E+002
         77  0.81283615E+002
         78  0.87337386E+002
         79  0.10430150E+003
         80  0.77066142E+002
         81  0.94853967E+002
         82  0.10385506E+003
         83  0.69669968E+002
         84  0.10338457E+003
         85  0.74971672E+002
         86  0.88195100E+002
         87  0.11285286E+003
         88  0.62687376E+002
         89  0.83204807E+002
         90  0.94895413E+002
         91  0.66885413E+002
         92  0.11290922E+003
         93  0.71060667E+002
         94  0.11278076E+003
         95  0.10294537E+003
         96  0.80196073E+002
         97  0.75205035E+002
         98  0.11243902E+003
         99  0.89383378E+002
        100  0.95185146E+002
        101  0.79351222E+002
        102  0.11191366E+003
        103  0.85455569E+002
        104  0.10259752E+003
        105  0.12112465E+003
        106  0.72334308E+002
        107  0.12144383E+003
        108  0.75115866E+002
        109  0.83570764E+002
        110  0.12156164E+003
        111  0.77897518E+002
        112  0.11126959E+003
        113  0.95739511E+002
        114  0.10239789E+003
        115  0.12134189E+003
        116  0.90871815E+002
        117  0.80777752E+002
        118  0.87957897E+002
        119  0.11058820E+003
        120  0.12078748E+003
        121  0.83813162E+002
        122  0.12991985E+003
        123  0.81661993E+002
        124  0.10239170E+003
        125  0.83074081E+002
        126  0.96557803E+002
        127  0.13048455E+003
        128  0.11996822E+003
        129  0.87067559E+002
        130  0.84522859E+002
        131  0.13083393E+003
        132  0.10995183E+003
        133  0.92611290E+002
        134  0.86205063E+002
        135  0.13072917E+003
        136  0.90615684E+002
        137  0.11898289E+003
        138  0.88195660E+002
        139  0.13014526E+003
        140  0.10260653E+003
        141  0.10943243E+003
        142  0.97619125E+002
        143  0.90547523E+002
        144  0.13943530E+003
        145  0.90441801E+002
        146  0.12915377E+003
        147  0.90536383E+002
        148  0.14021872E+003
        149  0.94532473E+002
        150  0.11793629E+003
        151  0.90726227E+002
        152  0.14076430E+003
        153  0.91293221E+002
        154  0.14074166E+003
        155  0.93314073E+002
        156  0.12786749E+003
        157  0.10304891E+003
        158  0.10908453E+003
        159  0.92323636E+002
        160  0.14010026E+003
        161  0.11692499E+003
        162  0.98880940E+002
        163  0.96545464E+002
        164  0.12641081E+003
        165  0.93855886E+002
        166  0.13891180E+003
        167  0.14985621E+003
        168  0.98432463E+002
        169  0.97269861E+002
        170  0.15081893E+003
        171  0.15150123E+003
        172  0.10894156E+003
        173  0.96289538E+002
        174  0.11602907E+003
        175  0.10370299E+003
        176  0.15149965E+003
        177  0.95920157E+002
        178  0.13730023E+003
        179  0.95840082E+002
        180  0.12490277E+003
        181  0.10027895E+003
        182  0.15074372E+003
        183  0.96011516E+002
        184  0.13540676E+003
        185  0.98540615E+002
        186  0.14930480E+003
        187  0.11530788E+003
        188  0.10901370E+003
        189  0.96824932E+002
        190  0.10453054E+003
        191  0.12344760E+003
        192  0.16136330E+003
        193  0.10538436E+003
        194  0.10303867E+003
        195  0.16244748E+003
        196  0.10099436E+003
        197  0.16317844E+003
        198  0.14731549E+003
        199  0.98285818E+002
        200  0.13337074E+003
        201  0.10172793E+003
        202  0.99642442E+002
        203  0.16310679E+003
        204  0.99070319E+002
        205  0.16214965E+003
        206  0.11479844E+003
        207  0.10928942E+003
        208  0.12212994E+003
        209  0.10039117E+003
        210  0.14493117E+003
        211  0.10547162E+003
        212  0.99280750E+002
        213  0.16037768E+003
        214  0.13131905E+003
        215  0.17413277E+003
        216  0.11105433E+003
        217  0.10762080E+003
        218  0.17525369E+003
        219  0.10463802E+003
        220  0.14230926E+003
        221  0.17591356E+003
        222  0.10312401E+003
        223  0.15792971E+003
        224  0.10025400E+003
        225  0.11451519E+003
        226  0.12101286E+003
        227  0.10251068E+003
        228  0.17565174E+003
        229  0.12936066E+003
        230  0.10973466E+003
        231  0.17437906E+003
        232  0.10132111E+003
        233  0.10195893E+003
        234  0.15497278E+003
        235  0.13959763E+003
        236  0.10644659E+003
        237  0.17216374E+003
        238  0.10105583E+003
        239  0.12013744E+003
        240  0.15168025E+003
        241  0.11523793E+003
        242  0.10434985E+003
        243  0.18831882E+003
        244  0.11084132E+003
        245  0.18935544E+003
        246  0.11445070E+003
        247  0.12758421E+003
        248  0.16914849E+003
        249  0.10167047E+003
        250  0.10706289E+003
        251  0.18979629E+003
        252  0.13692840E+003
        253  0.11029523E+003
        254  0.10429394E+003
        255  0.18920371E+003
        256  0.10261830E+003
        257  0.18748016E+003
        258  0.16551003E+003
        259  0.10310516E+003
        260  0.10736085E+003
        261  0.14821916E+003
        262  0.12605753E+003
        263  0.11952344E+003
        264  0.10201113E+003
        265  0.18468792E+003
        266  0.13441515E+003
        267  0.11457747E+003
        268  0.16143582E+003
        269  0.10528446E+003
        270  0.11783127E+003
        271  0.20400064E+003
        272  0.11090110E+003
        273  0.18097207E+003
        274  0.11263295E+003
        275  0.10240472E+003
        276  0.14474340E+003
        277  0.20478971E+003
        278  0.20485708E+003
        279  0.10820442E+003
        280  0.10492325E+003
        281  0.20379143E+003
        282  0.15711043E+003
        283  0.10811352E+003
        284  0.12482831E+003
        285  0.10370983E+003
        286  0.17651832E+003
        287  0.13215246E+003
        288  0.20147326E+003
        289  0.11917118E+003
        290  0.10289101E+003
        291  0.11485184E+003
        292  0.14139073E+003
        293  0.10207670E+003
        294  0.19795574E+003
        295  0.17152758E+003
        296  0.10582037E+003
        297  0.15270811E+003
        298  0.11147393E+003
        299  0.19338797E+003
        300  0.10238877E+003
        301  0.22105427E+003
        302  0.11895297E+003
        303  0.11313274E+003
        304  0.22141787E+003
        305  0.22099734E+003
        306  0.10817059E+003
        307  0.13021671E+003
        308  0.12392608E+003
        309  0.13828232E+003
        310  0.11906527E+003
        311  0.10861203E+003
        312  0.21933946E+003
        313  0.10449119E+003
        314  0.16620092E+003
        315  0.10370676E+003
        316  0.18796738E+003
        317  0.21628726E+003
        318  0.14838976E+003
        319  0.10222816E+003
        320  0.11522061E+003
        321  0.21189194E+003
        322  0.10133826E+003
        323  0.18190984E+003
        324  0.10589316E+003
        325  0.11193887E+003
        326  0.16073158E+003
        327  0.12866808E+003
        328  0.13552389E+003
        329  0.12336566E+003
        330  0.10169801E+003
        331  0.20631782E+003
        332  0.11913449E+003
        333  0.14430277E+003
        334  0.23893704E+003
        335  0.11918026E+003
        336  0.11277596E+003
        337  0.23881773E+003
        338  0.10736931E+003
        339  0.23785445E+003
        340  0.17543273E+003
        341  0.10879483E+003
        342  0.10343983E+003
        343  0.23547697E+003
        344  0.11562999E+003
        345  0.10315290E+003
        346  0.15530218E+003
        347  0.19978128E+003
        348  0.10109730E+003
        349  0.23153849E+003
        350  0.12755380E+003
        351  0.13320778E+003
        352  0.16874679E+003
        353  0.11223993E+003
        354  0.19251619E+003
        355  0.22612450E+003
        356  0.14058262E+003
        357  0.12315213E+003
        358  0.10025184E+003
        359  0.10553544E+003
        360  0.11948718E+003
        361  0.15008533E+003
        362  0.10074118E+003
        363  0.21942905E+003
        364  0.10866772E+003
        365  0.18475586E+003
        366  0.11603358E+003
        367  0.16205402E+003
        368  0.10238253E+003
        369  0.21169094E+003
        370  0.13141585E+003
        371  0.13735516E+003
        372  0.12691217E+003
        373  0.12328503E+003
        374  0.14524599E+003
        375  0.17672559E+003
        376  0.11235697E+003
        377  0.10498913E+003
        378  0.20315957E+003
        379  0.15554969E+003
        380  0.11995431E+003
        381  0.13473910E+003
        382  0.10836988E+003
        383  0.19407851E+003
        384  0.13022231E+003
        385  0.11638934E+003
        386  0.16864214E+003
        387  0.14094451E+003
        388  0.12677471E+003
        389  0.14942637E+003
        390  0.12375287E+003
        391  0.11232223E+003
        392  0.18467989E+003
        393  0.16071786E+003
        394  0.12052425E+003
        395  0.13284711E+003
        396  0.12969336E+003
        397  0.13733859E+003
        398  0.14387842E+003
        399  0.12715519E+003
        400  0.17518592E+003
        401  0.11662356E+003
        402  0.12449141E+003
        403  0.15316733E+003
        404  0.12102358E+003
        405  0.16581528E+003
        406  0.13178207E+003
        407  0.13458210E+003
        408  0.13910431E+003
        409  0.12987168E+003
        410  0.12799214E+003
        411  0.14621452E+003
        412  0.15679239E+003
        413  0.12523938E+003
        414  0.13281629E+003
        415  0.13530300E+003
        416  0.13161648E+003
        417  0.14009724E+003
        418  0.13070767E+003
        419  0.12895495E+003
        420  0.14835772E+003
        421  0.13265782E+003
        422  0.13214197E+003
        423  0.13231855E+003
        424  0.13506343E+003
        425  0.13182740E+003
        426  0.14077574E+003
        427  0.13129654E+003
        428  0.13254262E+003
        429  0.13134917E+003
        430  0.13433513E+003
        431  0.13350389E+003
        432  0.13120481E+003
        433  0.12912019E+003
        434  0.13365737E+003
        435  0.12932960E+003
        436  0.12835393E+003
        437  0.13205529E+003
        438  0.12599842E+003
        439  0.12438119E+003
        440  0.12869560E+003
        441  0.12404502E+003
End values

