GiD Post Results File 1.0
 
Result EXNOR ALYA  0.00000000E+00 Vector OnNodes
ComponentNames EXNOR_X,EXNOR_Y,EXNOR_Z
Values
        1 -0.93066938E+000  0.12152190E+000  0.34508975E+000
        2 -0.90694553E+000  0.24114064E+000  0.34539977E+000
        3 -0.92032531E+000  0.22088554E+000  0.32281715E+000
        4 -0.92254928E+000  0.13451464E+000  0.36167476E+000
        5  0.95256266E+000 -0.75818012E-001 -0.29474737E+000
        6 -0.92578869E+000 -0.29175616E+000  0.24040310E+000
        7 -0.93671783E+000  0.13865308E+000  0.32145767E+000
        8  0.51654601E+000 -0.37533448E+000 -0.76961306E+000
        9  0.94932190E+000 -0.13488110E+000 -0.28389261E+000
       10 -0.90685482E+000  0.21197352E+000  0.36425481E+000
       11 -0.92883966E+000  0.16956026E+000  0.32940281E+000
       12 -0.84553921E+000  0.11169487E+000  0.52209932E+000
       13 -0.73440955E+000  0.65739387E+000  0.16874809E+000
       14 -0.82990479E+000  0.19836489E+000  0.52144934E+000
       15  0.58516753E+000 -0.20557052E+000 -0.78442318E+000
       16  0.92111844E+000 -0.29404580E+000 -0.25510369E+000
       17  0.93845066E+000 -0.21275370E+000 -0.27211434E+000
       18  0.90650304E+000 -0.25390936E+000 -0.33731630E+000
       19  0.92410255E+000 -0.17791593E+000 -0.33820172E+000
       20  0.93839790E+000 -0.94460580E-001 -0.33239522E+000
       21  0.77938034E-001  0.38191693E+000 -0.92090451E+000
End values

