GiD Post Results File 1.0
 
Result TEMPE ALYA  0.00000000E+00 Scalar OnNodes
ComponentNames TEMPE
Values
          1  0.00000000E+000
          2  0.00000000E+000
          3  0.00000000E+000
          4  0.00000000E+000
          5  0.00000000E+000
          6  0.00000000E+000
          7  0.00000000E+000
          8  0.00000000E+000
          9  0.00000000E+000
         10  0.00000000E+000
         11  0.00000000E+000
         12  0.00000000E+000
         13  0.00000000E+000
         14  0.00000000E+000
         15  0.00000000E+000
         16  0.00000000E+000
         17  0.00000000E+000
         18  0.00000000E+000
         19  0.00000000E+000
         20  0.00000000E+000
         21  0.00000000E+000
         22  0.00000000E+000
         23  0.00000000E+000
         24  0.00000000E+000
         25  0.00000000E+000
         26  0.00000000E+000
         27  0.00000000E+000
         28  0.00000000E+000
         29  0.00000000E+000
         30  0.00000000E+000
         31  0.00000000E+000
         32  0.00000000E+000
         33  0.00000000E+000
         34  0.00000000E+000
         35  0.00000000E+000
         36  0.00000000E+000
         37  0.00000000E+000
         38  0.00000000E+000
         39  0.00000000E+000
         40  0.00000000E+000
         41  0.00000000E+000
         42  0.00000000E+000
         43  0.00000000E+000
         44  0.00000000E+000
         45  0.00000000E+000
         46  0.00000000E+000
         47  0.00000000E+000
         48  0.00000000E+000
         49  0.00000000E+000
         50  0.00000000E+000
         51  0.00000000E+000
         52  0.00000000E+000
         53  0.00000000E+000
         54  0.00000000E+000
         55  0.00000000E+000
         56  0.00000000E+000
         57  0.00000000E+000
         58  0.00000000E+000
         59  0.00000000E+000
         60  0.00000000E+000
         61  0.00000000E+000
         62  0.00000000E+000
         63  0.00000000E+000
         64  0.00000000E+000
         65  0.00000000E+000
         66  0.00000000E+000
         67  0.00000000E+000
         68  0.00000000E+000
         69  0.00000000E+000
         70  0.00000000E+000
         71  0.00000000E+000
         72  0.00000000E+000
         73  0.00000000E+000
         74  0.00000000E+000
         75  0.00000000E+000
         76  0.00000000E+000
         77  0.00000000E+000
         78  0.00000000E+000
         79  0.00000000E+000
         80  0.00000000E+000
         81  0.00000000E+000
         82  0.00000000E+000
         83  0.00000000E+000
         84  0.00000000E+000
         85  0.00000000E+000
         86  0.00000000E+000
         87  0.00000000E+000
         88  0.00000000E+000
         89  0.00000000E+000
         90  0.00000000E+000
         91  0.00000000E+000
         92  0.00000000E+000
         93  0.00000000E+000
         94  0.00000000E+000
         95  0.00000000E+000
         96  0.00000000E+000
         97  0.00000000E+000
         98  0.00000000E+000
         99  0.00000000E+000
        100  0.00000000E+000
        101  0.00000000E+000
        102  0.00000000E+000
        103  0.00000000E+000
        104  0.00000000E+000
        105  0.00000000E+000
        106  0.00000000E+000
        107  0.00000000E+000
        108  0.00000000E+000
        109  0.00000000E+000
        110  0.00000000E+000
        111  0.00000000E+000
        112  0.00000000E+000
        113  0.00000000E+000
        114  0.00000000E+000
        115  0.00000000E+000
        116  0.00000000E+000
        117  0.00000000E+000
        118  0.00000000E+000
        119  0.00000000E+000
        120  0.00000000E+000
        121  0.00000000E+000
        122  0.00000000E+000
        123  0.00000000E+000
        124  0.00000000E+000
        125  0.00000000E+000
        126  0.00000000E+000
        127  0.00000000E+000
        128  0.00000000E+000
        129  0.00000000E+000
        130  0.00000000E+000
        131  0.00000000E+000
        132  0.00000000E+000
        133  0.00000000E+000
        134  0.00000000E+000
        135  0.00000000E+000
        136  0.00000000E+000
        137  0.00000000E+000
        138  0.00000000E+000
        139  0.00000000E+000
        140  0.00000000E+000
        141  0.00000000E+000
        142  0.00000000E+000
        143  0.00000000E+000
        144  0.00000000E+000
        145  0.00000000E+000
        146  0.00000000E+000
        147  0.00000000E+000
        148  0.00000000E+000
        149  0.00000000E+000
        150  0.00000000E+000
        151  0.00000000E+000
        152  0.00000000E+000
        153  0.00000000E+000
        154  0.00000000E+000
        155  0.00000000E+000
        156  0.00000000E+000
        157  0.00000000E+000
        158  0.00000000E+000
        159  0.00000000E+000
        160  0.00000000E+000
        161  0.00000000E+000
        162  0.00000000E+000
        163  0.00000000E+000
        164  0.00000000E+000
        165  0.00000000E+000
        166  0.00000000E+000
        167  0.00000000E+000
        168  0.00000000E+000
        169  0.00000000E+000
        170  0.00000000E+000
        171  0.00000000E+000
        172  0.00000000E+000
        173  0.00000000E+000
        174  0.00000000E+000
        175  0.00000000E+000
        176  0.00000000E+000
        177  0.00000000E+000
        178  0.00000000E+000
        179  0.00000000E+000
        180  0.00000000E+000
        181  0.00000000E+000
        182  0.00000000E+000
        183  0.00000000E+000
        184  0.00000000E+000
        185  0.00000000E+000
        186  0.00000000E+000
        187  0.00000000E+000
        188  0.00000000E+000
        189  0.00000000E+000
        190  0.00000000E+000
        191  0.00000000E+000
        192  0.00000000E+000
        193  0.00000000E+000
        194  0.00000000E+000
        195  0.00000000E+000
        196  0.00000000E+000
        197  0.00000000E+000
        198  0.00000000E+000
        199  0.00000000E+000
        200  0.00000000E+000
        201  0.00000000E+000
        202  0.00000000E+000
        203  0.00000000E+000
        204  0.00000000E+000
        205  0.00000000E+000
        206  0.00000000E+000
        207  0.00000000E+000
        208  0.00000000E+000
        209  0.00000000E+000
        210  0.00000000E+000
        211  0.00000000E+000
        212  0.00000000E+000
        213  0.00000000E+000
        214  0.00000000E+000
        215  0.00000000E+000
        216  0.00000000E+000
        217  0.00000000E+000
        218  0.00000000E+000
        219  0.00000000E+000
        220  0.00000000E+000
        221  0.00000000E+000
        222  0.00000000E+000
        223  0.00000000E+000
        224  0.00000000E+000
        225  0.00000000E+000
        226  0.00000000E+000
        227  0.00000000E+000
        228  0.00000000E+000
        229  0.00000000E+000
        230  0.00000000E+000
        231  0.00000000E+000
        232  0.00000000E+000
        233  0.00000000E+000
        234  0.00000000E+000
        235  0.00000000E+000
        236  0.00000000E+000
        237  0.00000000E+000
        238  0.00000000E+000
        239  0.00000000E+000
        240  0.00000000E+000
        241  0.00000000E+000
        242  0.00000000E+000
        243  0.00000000E+000
        244  0.00000000E+000
        245  0.00000000E+000
        246  0.00000000E+000
        247  0.00000000E+000
        248  0.00000000E+000
        249  0.00000000E+000
        250  0.00000000E+000
        251  0.00000000E+000
        252  0.00000000E+000
        253  0.00000000E+000
        254  0.00000000E+000
        255  0.00000000E+000
End values

Result TEMPE ALYA  0.10000000E+00 Scalar OnNodes
ComponentNames TEMPE
Values
          1  0.00000000E+000
          2  0.00000000E+000
          3  0.00000000E+000
          4  0.92035816E-002
          5  0.00000000E+000
          6  0.00000000E+000
          7  0.17881245E-001
          8  0.17566334E-001
          9  0.00000000E+000
         10  0.00000000E+000
         11  0.16765485E-001
         12  0.30637143E-001
         13  0.33763510E-001
         14  0.19640682E-001
         15  0.34428531E-001
         16  0.00000000E+000
         17  0.00000000E+000
         18  0.42550637E-001
         19  0.43520837E-001
         20  0.19379042E-001
         21  0.37519972E-001
         22  0.49584938E-001
         23  0.49296953E-001
         24  0.37988724E-001
         25  0.57026898E-001
         26  0.00000000E+000
         27  0.00000000E+000
         28  0.20323915E-001
         29  0.21997856E-001
         30  0.54354059E-001
         31  0.54254545E-001
         32  0.65168100E-001
         33  0.65169936E-001
         34  0.39583365E-001
         35  0.41905573E-001
         36  0.71833395E-001
         37  0.00000000E+000
         38  0.00000000E+000
         39  0.23875164E-001
         40  0.22395588E-001
         41  0.70545988E-001
         42  0.70552969E-001
         43  0.57234772E-001
         44  0.57688815E-001
         45  0.80760919E-001
         46  0.80664414E-001
         47  0.43831441E-001
         48  0.41330741E-001
         49  0.00000000E+000
         50  0.00000000E+000
         51  0.25052312E-001
         52  0.25044094E-001
         53  0.73228358E-001
         54  0.73229926E-001
         55  0.59327899E-001
         56  0.85727217E-001
         57  0.85735922E-001
         58  0.59319459E-001
         59  0.94014216E-001
         60  0.94415794E-001
         61  0.41319398E-001
         62  0.43842140E-001
         63  0.00000000E+000
         64  0.00000000E+000
         65  0.22379874E-001
         66  0.23883335E-001
         67  0.87408777E-001
         68  0.87412737E-001
         69  0.73234463E-001
         70  0.73226594E-001
         71  0.97965042E-001
         72  0.97954158E-001
         73  0.57700573E-001
         74  0.57225997E-001
         75  0.10308103E+000
         76  0.39567323E-001
         77  0.41921286E-001
         78  0.22010143E-001
         79  0.20250291E-001
         80  0.85730142E-001
         81  0.85738937E-001
         82  0.00000000E+000
         83  0.00000000E+000
         84  0.97975412E-001
         85  0.97947154E-001
         86  0.70565395E-001
         87  0.70542997E-001
         88  0.10527639E+000
         89  0.54273878E-001
         90  0.54345383E-001
         91  0.10724018E+000
         92  0.38021147E-001
         93  0.37119780E-001
         94  0.94295449E-001
         95  0.94011247E-001
         96  0.80666163E-001
         97  0.80774842E-001
         98  0.65167520E-001
         99  0.65187764E-001
        100  0.19399336E-001
        101  0.10212064E+000
        102  0.18801600E-001
        103  0.00000000E+000
        104  0.00000000E+000
        105  0.10272243E+000
        106  0.49325890E-001
        107  0.49597987E-001
        108  0.10697516E+000
        109  0.33387248E-001
        110  0.33314231E-001
        111  0.94024593E-001
        112  0.71839685E-001
        113  0.71852321E-001
        114  0.94188294E-001
        115  0.10526835E+000
        116  0.56993178E-001
        117  0.16905714E-001
        118  0.00000000E+000
        119  0.00000000E+000
        120  0.14949271E-001
        121  0.43249644E-001
        122  0.80680402E-001
        123  0.80772211E-001
        124  0.97988320E-001
        125  0.97937369E-001
        126  0.42221129E-001
        127  0.57054081E-001
        128  0.10213185E+000
        129  0.28023199E-001
        130  0.27521314E-001
        131  0.85725945E-001
        132  0.85754162E-001
        133  0.65187044E-001
        134  0.65224558E-001
        135  0.97988472E-001
        136  0.97938517E-001
        137  0.46650032E-001
        138  0.42601197E-001
        139  0.13543538E-001
        140  0.00000000E+000
        141  0.00000000E+000
        142  0.70565441E-001
        143  0.70557551E-001
        144  0.87402724E-001
        145  0.87431817E-001
        146  0.94294768E-001
        147  0.49291483E-001
        148  0.32727798E-001
        149  0.94024136E-001
        150  0.21472555E-001
        151  0.48054440E-001
        152  0.13157166E-001
        153  0.73241578E-001
        154  0.73234697E-001
        155  0.27879246E-001
        156  0.54266797E-001
        157  0.54264239E-001
        158  0.85728511E-001
        159  0.85753587E-001
        160  0.19159167E-001
        161  0.33279958E-001
        162  0.32997625E-001
        163  0.87968397E-002
        164  0.57472754E-001
        165  0.00000000E+000
        166  0.00000000E+000
        167  0.73234202E-001
        168  0.73243300E-001
        169  0.57699339E-001
        170  0.37633573E-001
        171  0.14185583E-001
        172  0.37031190E-001
        173  0.80775074E-001
        174  0.80677594E-001
        175  0.58586577E-001
        176  0.58232209E-001
        177  0.16925762E-001
        178  0.40797690E-001
        179  0.16581281E-001
        180  0.39540249E-001
        181  0.70557747E-001
        182  0.70564561E-001
        183  0.19066498E-001
        184  0.18489623E-001
        185  0.71851467E-001
        186  0.42139859E-001
        187  0.41047520E-001
        188  0.57244616E-001
        189  0.57466923E-001
        190  0.00000000E+000
        191  0.00000000E+000
        192  0.00000000E+000
        193  0.00000000E+000
        194  0.21040152E-001
        195  0.00000000E+000
        196  0.00000000E+000
        197  0.19875286E-001
        198  0.65175045E-001
        199  0.65198836E-001
        200  0.00000000E+000
        201  0.00000000E+000
        202  0.41103604E-001
        203  0.41787958E-001
        204  0.21712130E-001
        205  0.54270834E-001
        206  0.54852627E-001
        207  0.21488947E-001
        208  0.00000000E+000
        209  0.00000000E+000
        210  0.57055112E-001
        211  0.22026344E-001
        212  0.00000000E+000
        213  0.00000000E+000
        214  0.22294451E-001
        215  0.39370663E-001
        216  0.39917406E-001
        217  0.49978732E-001
        218  0.49323536E-001
        219  0.00000000E+000
        220  0.00000000E+000
        221  0.21578451E-001
        222  0.21945199E-001
        223  0.36946796E-001
        224  0.37711987E-001
        225  0.00000000E+000
        226  0.00000000E+000
        227  0.42431810E-001
        228  0.42385540E-001
        229  0.21326755E-001
        230  0.20409388E-001
        231  0.33763823E-001
        232  0.33340643E-001
        233  0.00000000E+000
        234  0.00000000E+000
        235  0.19487811E-001
        236  0.18755723E-001
        237  0.29853157E-001
        238  0.00000000E+000
        239  0.00000000E+000
        240  0.27748780E-001
        241  0.17477081E-001
        242  0.16832258E-001
        243  0.00000000E+000
        244  0.00000000E+000
        245  0.19979838E-001
        246  0.13498820E-001
        247  0.13869507E-001
        248  0.00000000E+000
        249  0.00000000E+000
        250  0.10141275E-001
        251  0.00000000E+000
        252  0.00000000E+000
        253  0.00000000E+000
        254  0.00000000E+000
        255  0.00000000E+000
End values

