GiD Post Results File 1.0
 
Result MASSM ALYA  0.00000000E+00 Scalar OnNodes
ComponentNames MASSM
Values
          1  0.10000000E-001
          2  0.10000000E-001
          3  0.10000000E-001
          4  0.10000000E-001
          5  0.10000000E-001
          6  0.10000000E-001
          7  0.10000000E-001
          8  0.10000000E-001
          9  0.10000000E-001
         10  0.62500000E-002
         11  0.25000000E-002
         12  0.25000000E-002
         13  0.25000000E-002
         14  0.25000000E-002
         15  0.25000000E-002
         16  0.25000000E-002
         17  0.25000000E-002
         18  0.25000000E-002
         19  0.10000000E-001
         20  0.50000000E-002
         21  0.12500000E-002
         22  0.12500000E-001
         23  0.12500000E-001
         24  0.12500000E-001
         25  0.12500000E-001
         26  0.12500000E-001
         27  0.12500000E-001
         28  0.12500000E-001
         29  0.12500000E-001
         30  0.12500000E-001
         31  0.50000000E-002
         32  0.50000000E-002
         33  0.50000000E-002
         34  0.50000000E-002
         35  0.50000000E-002
         36  0.50000000E-002
         37  0.50000000E-002
         38  0.50000000E-002
         39  0.12500000E-001
         40  0.25000000E-002
         41  0.50000000E-002
         42  0.50000000E-002
         43  0.50000000E-002
         44  0.50000000E-002
         45  0.50000000E-002
         46  0.50000000E-002
         47  0.50000000E-002
         48  0.50000000E-002
         49  0.50000000E-002
         50  0.50000000E-002
         51  0.50000000E-002
         52  0.50000000E-002
         53  0.50000000E-002
         54  0.50000000E-002
         55  0.50000000E-002
         56  0.50000000E-002
         57  0.25000000E-002
         58  0.50000000E-002
         59  0.50000000E-002
         60  0.50000000E-002
         61  0.50000000E-002
         62  0.50000000E-002
         63  0.50000000E-002
         64  0.50000000E-002
         65  0.50000000E-002
         66  0.50000000E-002
         67  0.50000000E-002
         68  0.50000000E-002
         69  0.50000000E-002
         70  0.50000000E-002
         71  0.50000000E-002
         72  0.25000000E-002
         73  0.50000000E-002
         74  0.50000000E-002
         75  0.50000000E-002
         76  0.50000000E-002
         77  0.50000000E-002
         78  0.50000000E-002
         79  0.50000000E-002
         80  0.50000000E-002
         81  0.50000000E-002
         82  0.50000000E-002
         83  0.50000000E-002
         84  0.50000000E-002
         85  0.25000000E-002
         86  0.50000000E-002
         87  0.50000000E-002
         88  0.50000000E-002
         89  0.50000000E-002
         90  0.50000000E-002
         91  0.50000000E-002
         92  0.50000000E-002
         93  0.50000000E-002
         94  0.50000000E-002
         95  0.50000000E-002
         96  0.25000000E-002
         97  0.50000000E-002
         98  0.50000000E-002
         99  0.50000000E-002
        100  0.50000000E-002
        101  0.50000000E-002
        102  0.50000000E-002
        103  0.50000000E-002
        104  0.50000000E-002
        105  0.25000000E-002
        106  0.50000000E-002
        107  0.50000000E-002
        108  0.50000000E-002
        109  0.50000000E-002
        110  0.50000000E-002
        111  0.50000000E-002
        112  0.25000000E-002
        113  0.50000000E-002
        114  0.50000000E-002
        115  0.50000000E-002
        116  0.50000000E-002
        117  0.25000000E-002
        118  0.50000000E-002
        119  0.50000000E-002
        120  0.25000000E-002
        121  0.25000000E-002
        122  0.10000000E-001
        123  0.10000000E-001
        124  0.10000000E-001
        125  0.10000000E-001
        126  0.10000000E-001
        127  0.10000000E-001
        128  0.10000000E-001
        129  0.10000000E-001
        130  0.10000000E-001
        131  0.12500000E-001
        132  0.50000000E-002
        133  0.50000000E-002
        134  0.50000000E-002
        135  0.50000000E-002
        136  0.50000000E-002
        137  0.50000000E-002
        138  0.50000000E-002
        139  0.50000000E-002
        140  0.50000000E-002
        141  0.10000000E-001
        142  0.25000000E-002
        143  0.12500000E-001
        144  0.12500000E-001
        145  0.12500000E-001
        146  0.12500000E-001
        147  0.12500000E-001
        148  0.12500000E-001
        149  0.12500000E-001
        150  0.12500000E-001
        151  0.12500000E-001
        152  0.50000000E-002
        153  0.50000000E-002
        154  0.50000000E-002
        155  0.50000000E-002
        156  0.50000000E-002
        157  0.50000000E-002
        158  0.50000000E-002
        159  0.50000000E-002
        160  0.62500000E-002
        161  0.25000000E-002
        162  0.50000000E-002
        163  0.50000000E-002
        164  0.50000000E-002
        165  0.50000000E-002
        166  0.50000000E-002
        167  0.50000000E-002
        168  0.50000000E-002
        169  0.50000000E-002
        170  0.50000000E-002
        171  0.50000000E-002
        172  0.50000000E-002
        173  0.50000000E-002
        174  0.50000000E-002
        175  0.50000000E-002
        176  0.50000000E-002
        177  0.25000000E-002
        178  0.25000000E-002
        179  0.50000000E-002
        180  0.50000000E-002
        181  0.50000000E-002
        182  0.50000000E-002
        183  0.50000000E-002
        184  0.50000000E-002
        185  0.50000000E-002
        186  0.50000000E-002
        187  0.50000000E-002
        188  0.50000000E-002
        189  0.50000000E-002
        190  0.50000000E-002
        191  0.50000000E-002
        192  0.25000000E-002
        193  0.25000000E-002
        194  0.50000000E-002
        195  0.50000000E-002
        196  0.50000000E-002
        197  0.50000000E-002
        198  0.50000000E-002
        199  0.50000000E-002
        200  0.50000000E-002
        201  0.50000000E-002
        202  0.50000000E-002
        203  0.50000000E-002
        204  0.50000000E-002
        205  0.25000000E-002
        206  0.25000000E-002
        207  0.50000000E-002
        208  0.50000000E-002
        209  0.50000000E-002
        210  0.50000000E-002
        211  0.50000000E-002
        212  0.50000000E-002
        213  0.50000000E-002
        214  0.50000000E-002
        215  0.50000000E-002
        216  0.25000000E-002
        217  0.25000000E-002
        218  0.50000000E-002
        219  0.50000000E-002
        220  0.50000000E-002
        221  0.50000000E-002
        222  0.50000000E-002
        223  0.50000000E-002
        224  0.50000000E-002
        225  0.25000000E-002
        226  0.25000000E-002
        227  0.50000000E-002
        228  0.50000000E-002
        229  0.50000000E-002
        230  0.50000000E-002
        231  0.50000000E-002
        232  0.25000000E-002
        233  0.25000000E-002
        234  0.50000000E-002
        235  0.50000000E-002
        236  0.50000000E-002
        237  0.25000000E-002
        238  0.25000000E-002
        239  0.50000000E-002
        240  0.25000000E-002
        241  0.25000000E-002
        242  0.12500000E-002
End values

Result TEMPE ALYA  0.00000000E+00 Scalar OnNodes
ComponentNames TEMPE
Values
          1  0.50000000E+001
          2  0.51000000E+001
          3  0.52000000E+001
          4  0.53000000E+001
          5  0.54000000E+001
          6  0.55000000E+001
          7  0.56000000E+001
          8  0.57000000E+001
          9  0.58000000E+001
         10  0.47000000E+001
         11  0.44000000E+001
         12  0.41000000E+001
         13  0.38000000E+001
         14  0.35000000E+001
         15  0.32000000E+001
         16  0.29000000E+001
         17  0.26000000E+001
         18  0.23000000E+001
         19  0.49000000E+001
         20  0.59000000E+001
         21  0.20000000E+001
         22  0.00000000E+000
         23  0.00000000E+000
         24  0.00000000E+000
         25  0.00000000E+000
         26  0.00000000E+000
         27  0.00000000E+000
         28  0.00000000E+000
         29  0.00000000E+000
         30  0.00000000E+000
         31  0.00000000E+000
         32  0.00000000E+000
         33  0.00000000E+000
         34  0.00000000E+000
         35  0.00000000E+000
         36  0.00000000E+000
         37  0.00000000E+000
         38  0.00000000E+000
         39  0.00000000E+000
         40  0.19000000E+001
         41  0.00000000E+000
         42  0.00000000E+000
         43  0.00000000E+000
         44  0.00000000E+000
         45  0.00000000E+000
         46  0.00000000E+000
         47  0.00000000E+000
         48  0.00000000E+000
         49  0.00000000E+000
         50  0.00000000E+000
         51  0.00000000E+000
         52  0.00000000E+000
         53  0.00000000E+000
         54  0.00000000E+000
         55  0.00000000E+000
         56  0.00000000E+000
         57  0.18000000E+001
         58  0.00000000E+000
         59  0.00000000E+000
         60  0.00000000E+000
         61  0.00000000E+000
         62  0.00000000E+000
         63  0.00000000E+000
         64  0.00000000E+000
         65  0.00000000E+000
         66  0.00000000E+000
         67  0.00000000E+000
         68  0.00000000E+000
         69  0.00000000E+000
         70  0.00000000E+000
         71  0.00000000E+000
         72  0.17000000E+001
         73  0.00000000E+000
         74  0.00000000E+000
         75  0.00000000E+000
         76  0.00000000E+000
         77  0.00000000E+000
         78  0.00000000E+000
         79  0.00000000E+000
         80  0.00000000E+000
         81  0.00000000E+000
         82  0.00000000E+000
         83  0.00000000E+000
         84  0.00000000E+000
         85  0.16000000E+001
         86  0.00000000E+000
         87  0.00000000E+000
         88  0.00000000E+000
         89  0.00000000E+000
         90  0.00000000E+000
         91  0.00000000E+000
         92  0.00000000E+000
         93  0.00000000E+000
         94  0.00000000E+000
         95  0.00000000E+000
         96  0.15000000E+001
         97  0.00000000E+000
         98  0.00000000E+000
         99  0.00000000E+000
        100  0.00000000E+000
        101  0.00000000E+000
        102  0.00000000E+000
        103  0.00000000E+000
        104  0.00000000E+000
        105  0.14000000E+001
        106  0.00000000E+000
        107  0.00000000E+000
        108  0.00000000E+000
        109  0.00000000E+000
        110  0.00000000E+000
        111  0.00000000E+000
        112  0.13000000E+001
        113  0.00000000E+000
        114  0.00000000E+000
        115  0.00000000E+000
        116  0.00000000E+000
        117  0.12000000E+001
        118  0.00000000E+000
        119  0.00000000E+000
        120  0.11000000E+001
        121  0.10000000E+001
        122  0.40000000E+001
        123  0.41000000E+001
        124  0.42000000E+001
        125  0.43000000E+001
        126  0.44000000E+001
        127  0.45000000E+001
        128  0.46000000E+001
        129  0.47000000E+001
        130  0.48000000E+001
        131  0.00000000E+000
        132  0.00000000E+000
        133  0.00000000E+000
        134  0.00000000E+000
        135  0.00000000E+000
        136  0.00000000E+000
        137  0.00000000E+000
        138  0.00000000E+000
        139  0.00000000E+000
        140  0.39000000E+001
        141  0.49000000E+001
        142  0.10000000E+001
        143  0.00000000E+000
        144  0.00000000E+000
        145  0.00000000E+000
        146  0.00000000E+000
        147  0.00000000E+000
        148  0.00000000E+000
        149  0.00000000E+000
        150  0.00000000E+000
        151  0.00000000E+000
        152  0.00000000E+000
        153  0.00000000E+000
        154  0.00000000E+000
        155  0.00000000E+000
        156  0.00000000E+000
        157  0.00000000E+000
        158  0.00000000E+000
        159  0.00000000E+000
        160  0.27000000E+001
        161  0.90000000E+000
        162  0.00000000E+000
        163  0.00000000E+000
        164  0.00000000E+000
        165  0.00000000E+000
        166  0.00000000E+000
        167  0.00000000E+000
        168  0.00000000E+000
        169  0.00000000E+000
        170  0.00000000E+000
        171  0.00000000E+000
        172  0.00000000E+000
        173  0.00000000E+000
        174  0.00000000E+000
        175  0.00000000E+000
        176  0.00000000E+000
        177  0.24000000E+001
        178  0.80000000E+000
        179  0.00000000E+000
        180  0.00000000E+000
        181  0.00000000E+000
        182  0.00000000E+000
        183  0.00000000E+000
        184  0.00000000E+000
        185  0.00000000E+000
        186  0.00000000E+000
        187  0.00000000E+000
        188  0.00000000E+000
        189  0.00000000E+000
        190  0.00000000E+000
        191  0.00000000E+000
        192  0.21000000E+001
        193  0.70000000E+000
        194  0.00000000E+000
        195  0.00000000E+000
        196  0.00000000E+000
        197  0.00000000E+000
        198  0.00000000E+000
        199  0.00000000E+000
        200  0.00000000E+000
        201  0.00000000E+000
        202  0.00000000E+000
        203  0.00000000E+000
        204  0.00000000E+000
        205  0.18000000E+001
        206  0.60000000E+000
        207  0.00000000E+000
        208  0.00000000E+000
        209  0.00000000E+000
        210  0.00000000E+000
        211  0.00000000E+000
        212  0.00000000E+000
        213  0.00000000E+000
        214  0.00000000E+000
        215  0.00000000E+000
        216  0.15000000E+001
        217  0.50000000E+000
        218  0.00000000E+000
        219  0.00000000E+000
        220  0.00000000E+000
        221  0.00000000E+000
        222  0.00000000E+000
        223  0.00000000E+000
        224  0.00000000E+000
        225  0.12000000E+001
        226  0.40000000E+000
        227  0.00000000E+000
        228  0.00000000E+000
        229  0.00000000E+000
        230  0.00000000E+000
        231  0.00000000E+000
        232  0.90000000E+000
        233  0.30000000E+000
        234  0.00000000E+000
        235  0.00000000E+000
        236  0.00000000E+000
        237  0.60000000E+000
        238  0.20000000E+000
        239  0.00000000E+000
        240  0.30000000E+000
        241  0.10000000E+000
        242  0.00000000E+000
End values

Result TEMPE ALYA  0.10000000E+00 Scalar OnNodes
ComponentNames TEMPE
Values
          1  0.50000000E+001
          2  0.51000000E+001
          3  0.52000000E+001
          4  0.53000000E+001
          5  0.54000000E+001
          6  0.55000000E+001
          7  0.56000000E+001
          8  0.57000000E+001
          9  0.58000000E+001
         10  0.47000000E+001
         11  0.44000000E+001
         12  0.41000000E+001
         13  0.38000000E+001
         14  0.35000000E+001
         15  0.32000000E+001
         16  0.29000000E+001
         17  0.26000000E+001
         18  0.23000000E+001
         19  0.49000000E+001
         20  0.59000000E+001
         21  0.20000000E+001
         22  0.46000000E+001
         23  0.45000000E+001
         24  0.44000000E+001
         25  0.43000000E+001
         26  0.42000000E+001
         27  0.41000000E+001
         28  0.40000000E+001
         29  0.39000000E+001
         30  0.38000000E+001
         31  0.43000000E+001
         32  0.40000000E+001
         33  0.37000000E+001
         34  0.34000000E+001
         35  0.31000000E+001
         36  0.28000000E+001
         37  0.25000000E+001
         38  0.22000000E+001
         39  0.37000000E+001
         40  0.19000000E+001
         41  0.42000000E+001
         42  0.41000000E+001
         43  0.40000000E+001
         44  0.39000000E+001
         45  0.38000000E+001
         46  0.37000000E+001
         47  0.36000000E+001
         48  0.35000000E+001
         49  0.39000000E+001
         50  0.36000000E+001
         51  0.33000000E+001
         52  0.30000000E+001
         53  0.27000000E+001
         54  0.24000000E+001
         55  0.21000000E+001
         56  0.34000000E+001
         57  0.18000000E+001
         58  0.38000000E+001
         59  0.37000000E+001
         60  0.36000000E+001
         61  0.35000000E+001
         62  0.34000000E+001
         63  0.33000000E+001
         64  0.32000000E+001
         65  0.35000000E+001
         66  0.32000000E+001
         67  0.29000000E+001
         68  0.26000000E+001
         69  0.23000000E+001
         70  0.20000000E+001
         71  0.31000000E+001
         72  0.17000000E+001
         73  0.34000000E+001
         74  0.33000000E+001
         75  0.32000000E+001
         76  0.31000000E+001
         77  0.30000000E+001
         78  0.29000000E+001
         79  0.31000000E+001
         80  0.28000000E+001
         81  0.25000000E+001
         82  0.22000000E+001
         83  0.19000000E+001
         84  0.28000000E+001
         85  0.16000000E+001
         86  0.30000000E+001
         87  0.29000000E+001
         88  0.28000000E+001
         89  0.27000000E+001
         90  0.26000000E+001
         91  0.27000000E+001
         92  0.24000000E+001
         93  0.21000000E+001
         94  0.18000000E+001
         95  0.25000000E+001
         96  0.15000000E+001
         97  0.26000000E+001
         98  0.25000000E+001
         99  0.24000000E+001
        100  0.23000000E+001
        101  0.23000000E+001
        102  0.20000000E+001
        103  0.17000000E+001
        104  0.22000000E+001
        105  0.14000000E+001
        106  0.22000000E+001
        107  0.21000000E+001
        108  0.20000000E+001
        109  0.19000000E+001
        110  0.16000000E+001
        111  0.19000000E+001
        112  0.13000000E+001
        113  0.18000000E+001
        114  0.17000000E+001
        115  0.15000000E+001
        116  0.16000000E+001
        117  0.12000000E+001
        118  0.14000000E+001
        119  0.13000000E+001
        120  0.11000000E+001
        121  0.10000000E+001
        122  0.40000000E+001
        123  0.41000000E+001
        124  0.42000000E+001
        125  0.43000000E+001
        126  0.44000000E+001
        127  0.45000000E+001
        128  0.46000000E+001
        129  0.47000000E+001
        130  0.48000000E+001
        131  0.37000000E+001
        132  0.34000000E+001
        133  0.31000000E+001
        134  0.28000000E+001
        135  0.25000000E+001
        136  0.22000000E+001
        137  0.19000000E+001
        138  0.16000000E+001
        139  0.13000000E+001
        140  0.39000000E+001
        141  0.49000000E+001
        142  0.10000000E+001
        143  0.36000000E+001
        144  0.35000000E+001
        145  0.34000000E+001
        146  0.33000000E+001
        147  0.32000000E+001
        148  0.31000000E+001
        149  0.30000000E+001
        150  0.29000000E+001
        151  0.28000000E+001
        152  0.33000000E+001
        153  0.30000000E+001
        154  0.27000000E+001
        155  0.24000000E+001
        156  0.21000000E+001
        157  0.18000000E+001
        158  0.15000000E+001
        159  0.12000000E+001
        160  0.27000000E+001
        161  0.90000000E+000
        162  0.32000000E+001
        163  0.31000000E+001
        164  0.30000000E+001
        165  0.29000000E+001
        166  0.28000000E+001
        167  0.27000000E+001
        168  0.26000000E+001
        169  0.25000000E+001
        170  0.29000000E+001
        171  0.26000000E+001
        172  0.23000000E+001
        173  0.20000000E+001
        174  0.17000000E+001
        175  0.14000000E+001
        176  0.11000000E+001
        177  0.24000000E+001
        178  0.80000000E+000
        179  0.28000000E+001
        180  0.27000000E+001
        181  0.26000000E+001
        182  0.25000000E+001
        183  0.24000000E+001
        184  0.23000000E+001
        185  0.22000000E+001
        186  0.25000000E+001
        187  0.22000000E+001
        188  0.19000000E+001
        189  0.16000000E+001
        190  0.13000000E+001
        191  0.10000000E+001
        192  0.21000000E+001
        193  0.70000000E+000
        194  0.24000000E+001
        195  0.23000000E+001
        196  0.22000000E+001
        197  0.21000000E+001
        198  0.20000000E+001
        199  0.19000000E+001
        200  0.21000000E+001
        201  0.18000000E+001
        202  0.15000000E+001
        203  0.12000000E+001
        204  0.90000000E+000
        205  0.18000000E+001
        206  0.60000000E+000
        207  0.20000000E+001
        208  0.19000000E+001
        209  0.18000000E+001
        210  0.17000000E+001
        211  0.16000000E+001
        212  0.17000000E+001
        213  0.14000000E+001
        214  0.11000000E+001
        215  0.80000000E+000
        216  0.15000000E+001
        217  0.50000000E+000
        218  0.16000000E+001
        219  0.15000000E+001
        220  0.14000000E+001
        221  0.13000000E+001
        222  0.13000000E+001
        223  0.10000000E+001
        224  0.70000000E+000
        225  0.12000000E+001
        226  0.40000000E+000
        227  0.12000000E+001
        228  0.11000000E+001
        229  0.10000000E+001
        230  0.90000000E+000
        231  0.60000000E+000
        232  0.90000000E+000
        233  0.30000000E+000
        234  0.80000000E+000
        235  0.70000000E+000
        236  0.50000000E+000
        237  0.60000000E+000
        238  0.20000000E+000
        239  0.40000000E+000
        240  0.30000000E+000
        241  0.10000000E+000
        242  0.00000000E+000
End values

