# ALYA Lagrangian postprocess  
#
# HEADER
# T , Column :   1
# ILAGR , Column :   2
# ITYPE , Column :   3
# EXIST , Column :   4
# COORX , Column :   5
# COORY , Column :   6
# COORZ , Column :   7
# VELOX , Column :   8
# VELOY , Column :   9
# VELOZ , Column :  10
# DTK , Column :  11
# CD , Column :  12
# TEMPK , Column :  13
# MASSK , Column :  14
# DIAMK , Column :  15
# BM , Column :  16
#               T            ILAGR            ITYPE            EXIST            COORX            COORY            COORZ            VELOX            VELOY            VELOZ              DTK               CD            TEMPK            MASSK            DIAMK               BM            
  0.00000000E+000                1                1               -5  0.00000000E+000  0.00000000E+000  0.00000000E+000  0.00000000E+000  0.00000000E+000  0.00000000E+000  1.00000000E-002  0.00000000E+000  2.73150000E+002  3.35546646E-011  4.00000000E-005  0.00000000E+000
  2.00000000E-002                1                1               -1  0.00000000E+000 -6.80672273E-004  0.00000000E+000  0.00000000E+000 -4.25885189E-002  0.00000000E+000  6.94444444E-003  2.67441025E+002  3.02710137E+002  3.07819610E-011  3.89642422E-005  2.48492206E-002
  4.00000000E-002                1                1               -1  0.00000000E+000 -1.50133636E-003  0.00000000E+000  0.00000000E+000 -3.93150853E-002  0.00000000E+000  6.94444444E-003  3.03478334E+002  3.03597549E+002  2.67763167E-011  3.71979073E-005  2.80188615E-002
  6.00000000E-002                1                1               -1  0.00000000E+000 -2.25090310E-003  0.00000000E+000  0.00000000E+000 -3.56181991E-002  0.00000000E+000  5.78703704E-003  3.50954379E+002  3.03617208E+002  2.29502619E-011  3.53344390E-005  2.80977594E-002
  8.00000000E-002                1                1               -1  0.00000000E+000 -2.92682438E-003  0.00000000E+000  0.00000000E+000 -3.20436080E-002  0.00000000E+000  5.17746914E-003  4.10755567E+002  3.03617028E+002  1.93437195E-011  3.33771287E-005  2.80984511E-002
  1.00000000E-001                1                1               -1  0.00000000E+000 -3.52964511E-003  0.00000000E+000  0.00000000E+000 -2.84228028E-002  0.00000000E+000  5.17746914E-003  4.90650928E+002  3.03616489E+002  1.59648782E-011  3.13081563E-005  2.80975831E-002
  1.20000000E-001                1                1               -1  0.00000000E+000 -4.05876502E-003  0.00000000E+000  0.00000000E+000 -2.48310744E-002  0.00000000E+000  4.31455761E-003  5.99781353E+002  3.03615922E+002  1.28258845E-011  2.91048061E-005  2.80967012E-002
  1.40000000E-001                1                1               -1  0.00000000E+000 -4.51503881E-003  0.00000000E+000  0.00000000E+000 -2.12554895E-002  0.00000000E+000  3.59546468E-003  7.56030048E+002  3.03615327E+002  9.94133498E-012  2.67352233E-005  2.80955872E-002
  1.60000000E-001                1                1               -1  0.00000000E+000 -4.89810494E-003  0.00000000E+000  0.00000000E+000 -1.76953811E-002  0.00000000E+000  2.99622056E-003  9.93785113E+002  3.03614711E+002  7.32803070E-012  2.41507886E-005  2.80946112E-002
  1.80000000E-001                1                1               -1  0.00000000E+000 -5.20824312E-003  0.00000000E+000  0.00000000E+000 -1.41516165E-002  0.00000000E+000  2.49685047E-003  1.38770772E+003  3.03614057E+002  5.00943110E-012  2.12747762E-005  2.80934559E-002
  2.00000000E-001                1                1               -1  0.00000000E+000 -5.44515919E-003  0.00000000E+000  0.00000000E+000 -1.06159179E-002  0.00000000E+000  2.08070873E-003  2.13323945E+003  3.03613359E+002  3.01694805E-012  1.79662779E-005  2.80922458E-002
  2.20000000E-001                1                1               -1  0.00000000E+000 -5.60937555E-003  0.00000000E+000  0.00000000E+000 -7.09003787E-003  0.00000000E+000  1.44493661E-003  3.90384792E+003  3.03612592E+002  1.40547414E-012  1.39276045E-005  2.80909484E-002
  2.40000000E-001                1                1               -1  0.00000000E+000 -5.70109445E-003  0.00000000E+000  0.00000000E+000 -3.57729338E-003  0.00000000E+000  6.96825142E-004  1.08801255E+004  3.03611681E+002  2.81431742E-013  8.14816470E-006  2.80894304E-002
  2.51818208E-001                1                1               -3  0.00000000E+000 -5.72021019E-003  0.00000000E+000  0.00000000E+000 -1.35056929E-004  0.00000000E+000  2.18112290E-005  2.04253372E+006  3.73149999E+002  6.56100280E-037  1.08781089E-013  9.81160563E+002
