  FIELD=1
    INCLUDE ./mesh/Fields/VELOC.alya
  END_FIELD

  FIELD=2
    INCLUDE ./mesh/Fields/ENTHA.alya
  END_FIELD

  FIELD=3
    INCLUDE ./mesh/Fields/TEMPE.alya
  END_FIELD

  FIELD=4
    INCLUDE ./mesh/Fields/CON01.alya
  END_FIELD

  FIELD=5
    INCLUDE ./mesh/Fields/CON02.alya
  END_FIELD

  FIELD=6
    INCLUDE ./mesh/Fields/CON03.alya
  END_FIELD

  FIELD=7
    INCLUDE ./mesh/Fields/CON04.alya
  END_FIELD

  FIELD=8
    INCLUDE ./mesh/Fields/CON05.alya
  END_FIELD

  FIELD=9
    INCLUDE ./mesh/Fields/CON06.alya
  END_FIELD

  FIELD=10
    INCLUDE ./mesh/Fields/CON07.alya
  END_FIELD

  FIELD=11
    INCLUDE ./mesh/Fields/CON08.alya
  END_FIELD

  FIELD=12
    INCLUDE ./mesh/Fields/CON09.alya
  END_FIELD

  FIELD=13
    INCLUDE ./mesh/Fields/CON10.alya
  END_FIELD

  FIELD=14
    INCLUDE ./mesh/Fields/CON11.alya
  END_FIELD

  FIELD=15
    INCLUDE ./mesh/Fields/CON12.alya
  END_FIELD

  FIELD=16
    INCLUDE ./mesh/Fields/CON13.alya
  END_FIELD

  FIELD=17
    INCLUDE ./mesh/Fields/CON14.alya
  END_FIELD

  FIELD=18
    INCLUDE ./mesh/Fields/CON15.alya
  END_FIELD

  FIELD=19
    INCLUDE ./mesh/Fields/CON16.alya
  END_FIELD

  FIELD=20
    INCLUDE ./mesh/Fields/CON17.alya
  END_FIELD

  FIELD=21
    INCLUDE ./mesh/Fields/CON18.alya
  END_FIELD

  FIELD=22
    INCLUDE ./mesh/Fields/CON19.alya
  END_FIELD

  FIELD=23
    INCLUDE ./mesh/Fields/CON20.alya
  END_FIELD

  FIELD=24
    INCLUDE ./mesh/Fields/CON21.alya
  END_FIELD

  FIELD=25
    INCLUDE ./mesh/Fields/CON22.alya
  END_FIELD

  FIELD=26
    INCLUDE ./mesh/Fields/CON23.alya
  END_FIELD

  FIELD=27
    INCLUDE ./mesh/Fields/CON24.alya
  END_FIELD

  FIELD=28
    INCLUDE ./mesh/Fields/CON25.alya
  END_FIELD

  FIELD=29
    INCLUDE ./mesh/Fields/CON26.alya
  END_FIELD

  FIELD=30
    INCLUDE ./mesh/Fields/CON27.alya
  END_FIELD

  FIELD=31
    INCLUDE ./mesh/Fields/CON28.alya
  END_FIELD

  FIELD=32
    INCLUDE ./mesh/Fields/CON29.alya
  END_FIELD

  FIELD=33
    INCLUDE ./mesh/Fields/CON30.alya
  END_FIELD

  FIELD=34
    INCLUDE ./mesh/Fields/CON31.alya
  END_FIELD

  FIELD=35
    INCLUDE ./mesh/Fields/CON32.alya
  END_FIELD

  FIELD=36
    INCLUDE ./mesh/Fields/CON33.alya
  END_FIELD

  FIELD=37
    INCLUDE ./mesh/Fields/CON34.alya
  END_FIELD

  FIELD=38
    INCLUDE ./mesh/Fields/CON35.alya
  END_FIELD

  FIELD=39
    INCLUDE ./mesh/Fields/CON36.alya
  END_FIELD

  FIELD=40
    INCLUDE ./mesh/Fields/CON37.alya
  END_FIELD

  FIELD=41
    INCLUDE ./mesh/Fields/CON38.alya
  END_FIELD

  FIELD=42
    INCLUDE ./mesh/Fields/CON39.alya
  END_FIELD

  FIELD=43
    INCLUDE ./mesh/Fields/CON40.alya
  END_FIELD

  FIELD=44
    INCLUDE ./mesh/Fields/CON41.alya
  END_FIELD

  FIELD=45
    INCLUDE ./mesh/Fields/CON42.alya
  END_FIELD

  FIELD=46
    INCLUDE ./mesh/Fields/CON43.alya
  END_FIELD

  FIELD=47
    INCLUDE ./mesh/Fields/CON44.alya
  END_FIELD

  FIELD=48
    INCLUDE ./mesh/Fields/CON45.alya
  END_FIELD

  FIELD=49
    INCLUDE ./mesh/Fields/CON46.alya
  END_FIELD

  FIELD=50
    INCLUDE ./mesh/Fields/CON47.alya
  END_FIELD

  FIELD=51
    INCLUDE ./mesh/Fields/CON48.alya
  END_FIELD

  FIELD=52
    INCLUDE ./mesh/Fields/CON49.alya
  END_FIELD

  FIELD=53
    INCLUDE ./mesh/Fields/CON50.alya
  END_FIELD

  FIELD=54
    INCLUDE ./mesh/Fields/CON51.alya
  END_FIELD

  FIELD=55
    INCLUDE ./mesh/Fields/CON52.alya
  END_FIELD

  FIELD=56
    INCLUDE ./mesh/Fields/CON53.alya
  END_FIELD

