$MeshFormat
2.2 0 8
$EndMeshFormat
$PhysicalNames
4
2 1 "Left"
2 2 "Right"
2 3 "Wall"
3 4 "Fluid"
$EndPhysicalNames
$Nodes
64
1 -0.001570796326794897 -0.001570796326794897 -0.001570796326794897
2 0.001570796326794897 -0.001570796326794897 -0.001570796326794897
3 0.001570796326794897 0.001570796326794897 -0.001570796326794897
4 -0.001570796326794897 0.001570796326794897 -0.001570796326794897
5 -0.001570796326794897 -0.001570796326794897 0.001570796326794897
6 0.001570796326794897 -0.001570796326794897 0.001570796326794897
7 0.001570796326794897 0.001570796326794897 0.001570796326794897
8 -0.001570796326794897 0.001570796326794897 0.001570796326794897
9 -0.0005235987756011776 -0.001570796326794897 -0.001570796326794897
10 0.0005235987755955053 -0.001570796326794897 -0.001570796326794897
11 0.001570796326794897 -0.0005235987756011776 -0.001570796326794897
12 0.001570796326794897 0.0005235987755955053 -0.001570796326794897
13 0.0005235987756011776 0.001570796326794897 -0.001570796326794897
14 -0.0005235987755955053 0.001570796326794897 -0.001570796326794897
15 -0.001570796326794897 0.0005235987756011776 -0.001570796326794897
16 -0.001570796326794897 -0.0005235987755955053 -0.001570796326794897
17 -0.0005235987756011776 -0.001570796326794897 0.001570796326794897
18 0.0005235987755955053 -0.001570796326794897 0.001570796326794897
19 0.001570796326794897 -0.0005235987756011776 0.001570796326794897
20 0.001570796326794897 0.0005235987755955053 0.001570796326794897
21 0.0005235987756011776 0.001570796326794897 0.001570796326794897
22 -0.0005235987755955053 0.001570796326794897 0.001570796326794897
23 -0.001570796326794897 0.0005235987756011776 0.001570796326794897
24 -0.001570796326794897 -0.0005235987755955053 0.001570796326794897
25 -0.001570796326794897 -0.001570796326794897 -0.0005235987756011776
26 -0.001570796326794897 -0.001570796326794897 0.0005235987755955053
27 0.001570796326794897 -0.001570796326794897 -0.0005235987756011776
28 0.001570796326794897 -0.001570796326794897 0.0005235987755955053
29 0.001570796326794897 0.001570796326794897 -0.0005235987756011776
30 0.001570796326794897 0.001570796326794897 0.0005235987755955053
31 -0.001570796326794897 0.001570796326794897 -0.0005235987756011776
32 -0.001570796326794897 0.001570796326794897 0.0005235987755955053
33 -0.000523598775599287 -0.0005235987755973963 -0.001570796326794897
34 -0.000523598775597396 0.0005235987755992867 -0.001570796326794897
35 0.000523598775597396 -0.0005235987755992871 -0.001570796326794897
36 0.000523598775599287 0.0005235987755973961 -0.001570796326794897
37 -0.000523598775599287 -0.0005235987755973963 0.001570796326794897
38 -0.000523598775597396 0.0005235987755992867 0.001570796326794897
39 0.000523598775597396 -0.0005235987755992871 0.001570796326794897
40 0.000523598775599287 0.0005235987755973961 0.001570796326794897
41 -0.0005235987756011778 -0.001570796326794897 -0.0005235987756011776
42 -0.0005235987756011775 -0.001570796326794897 0.0005235987755955053
43 0.0005235987755955051 -0.001570796326794897 -0.0005235987756011775
44 0.0005235987755955053 -0.001570796326794897 0.0005235987755955053
45 0.001570796326794897 -0.0005235987756011778 -0.0005235987756011776
46 0.001570796326794897 -0.0005235987756011775 0.0005235987755955053
47 0.001570796326794897 0.0005235987755955051 -0.0005235987756011775
48 0.001570796326794897 0.0005235987755955053 0.0005235987755955053
49 0.0005235987756011778 0.001570796326794897 -0.0005235987756011776
50 0.0005235987756011775 0.001570796326794897 0.0005235987755955053
51 -0.0005235987755955051 0.001570796326794897 -0.0005235987756011775
52 -0.0005235987755955053 0.001570796326794897 0.0005235987755955053
53 -0.001570796326794897 0.0005235987756011778 -0.0005235987756011776
54 -0.001570796326794897 0.0005235987756011775 0.0005235987755955053
55 -0.001570796326794897 -0.0005235987755955051 -0.0005235987756011775
56 -0.001570796326794897 -0.0005235987755955053 0.0005235987755955053
57 -0.0005235987755992872 -0.0005235987755973968 -0.0005235987756011782
58 -0.000523598775599287 -0.0005235987755973963 0.0005235987755955053
59 -0.000523598775597396 0.0005235987755992866 -0.0005235987756011781
60 -0.0005235987755973959 0.0005235987755992867 0.0005235987755955054
61 0.0005235987755973959 -0.0005235987755992876 -0.0005235987756011779
62 0.000523598775597396 -0.0005235987755992867 0.0005235987755955053
63 0.0005235987755992871 0.0005235987755973961 -0.0005235987756011779
64 0.0005235987755992868 0.0005235987755973964 0.0005235987755955054
$EndNodes
$Elements
81
1 3 2 3 1 1 9 33 16
2 3 2 3 1 16 33 34 15
3 3 2 3 1 15 34 14 4
4 3 2 3 1 9 10 35 33
5 3 2 3 1 33 35 36 34
6 3 2 3 1 34 36 13 14
7 3 2 3 1 10 2 11 35
8 3 2 3 1 35 11 12 36
9 3 2 3 1 36 12 3 13
10 3 2 3 2 5 24 37 17
11 3 2 3 2 24 23 38 37
12 3 2 3 2 23 8 22 38
13 3 2 3 2 17 37 39 18
14 3 2 3 2 37 38 40 39
15 3 2 3 2 38 22 21 40
16 3 2 3 2 18 39 19 6
17 3 2 3 2 39 40 20 19
18 3 2 3 2 40 21 7 20
19 3 2 3 3 1 25 41 9
20 3 2 3 3 25 26 42 41
21 3 2 3 3 26 5 17 42
22 3 2 3 3 9 41 43 10
23 3 2 3 3 41 42 44 43
24 3 2 3 3 42 17 18 44
25 3 2 3 3 10 43 27 2
26 3 2 3 3 43 44 28 27
27 3 2 3 3 44 18 6 28
28 3 2 2 4 2 27 45 11
29 3 2 2 4 27 28 46 45
30 3 2 2 4 28 6 19 46
31 3 2 2 4 11 45 47 12
32 3 2 2 4 45 46 48 47
33 3 2 2 4 46 19 20 48
34 3 2 2 4 12 47 29 3
35 3 2 2 4 47 48 30 29
36 3 2 2 4 48 20 7 30
37 3 2 3 5 3 29 49 13
38 3 2 3 5 29 30 50 49
39 3 2 3 5 30 7 21 50
40 3 2 3 5 13 49 51 14
41 3 2 3 5 49 50 52 51
42 3 2 3 5 50 21 22 52
43 3 2 3 5 14 51 31 4
44 3 2 3 5 51 52 32 31
45 3 2 3 5 52 22 8 32
46 3 2 1 6 4 31 53 15
47 3 2 1 6 31 32 54 53
48 3 2 1 6 32 8 23 54
49 3 2 1 6 15 53 55 16
50 3 2 1 6 53 54 56 55
51 3 2 1 6 54 23 24 56
52 3 2 1 6 16 55 25 1
53 3 2 1 6 55 56 26 25
54 3 2 1 6 56 24 5 26
55 5 2 4 1 1 9 33 16 25 41 57 55
56 5 2 4 1 25 41 57 55 26 42 58 56
57 5 2 4 1 26 42 58 56 5 17 37 24
58 5 2 4 1 16 33 34 15 55 57 59 53
59 5 2 4 1 55 57 59 53 56 58 60 54
60 5 2 4 1 56 58 60 54 24 37 38 23
61 5 2 4 1 15 34 14 4 53 59 51 31
62 5 2 4 1 53 59 51 31 54 60 52 32
63 5 2 4 1 54 60 52 32 23 38 22 8
64 5 2 4 1 9 10 35 33 41 43 61 57
65 5 2 4 1 41 43 61 57 42 44 62 58
66 5 2 4 1 42 44 62 58 17 18 39 37
67 5 2 4 1 33 35 36 34 57 61 63 59
68 5 2 4 1 57 61 63 59 58 62 64 60
69 5 2 4 1 58 62 64 60 37 39 40 38
70 5 2 4 1 34 36 13 14 59 63 49 51
71 5 2 4 1 59 63 49 51 60 64 50 52
72 5 2 4 1 60 64 50 52 38 40 21 22
73 5 2 4 1 10 2 11 35 43 27 45 61
74 5 2 4 1 43 27 45 61 44 28 46 62
75 5 2 4 1 44 28 46 62 18 6 19 39
76 5 2 4 1 35 11 12 36 61 45 47 63
77 5 2 4 1 61 45 47 63 62 46 48 64
78 5 2 4 1 62 46 48 64 39 19 20 40
79 5 2 4 1 36 12 3 13 63 47 29 49
80 5 2 4 1 63 47 29 49 64 48 30 50
81 5 2 4 1 64 48 30 50 40 20 7 21
$EndElements
