{
    "authors": [
        "ambrus.both@bsc.es"
    ],
    "comparisons": [
        {
            "file": "mixedEq_heat_loss_prem_box_Var_vec_hyb.chm.wit-col2.out",
            "method": "absolute",
            "tolerance": "1.0e-6"
        },
        {
            "file": "mixedEq_heat_loss_prem_box_Var_vec_hyb.chm.wit-col3.out",
            "method": "absolute",
            "tolerance": "1.0e-6"
        },
        {
            "file": "mixedEq_heat_loss_prem_box_Var_vec_hyb.chm.wit-col10.out",
            "method": "absolute",
            "tolerance": "1.0e-6"
        },
        {
            "file": "mixedEq_heat_loss_prem_box_Var_vec_hyb.chm.wit-col11.out",
            "method": "absolute",
            "tolerance": "1.0e-6"
        },
        {
            "file": "mixedEq_heat_loss_prem_box_Var_vec_hyb-CMEAN-00000010.post.mpio.txt",
            "method": "absolute",
            "tolerance": "1.0e-7"
        },
        {
            "file": "mixedEq_heat_loss_prem_box_Var_vec_hyb-CVAR-00000010.post.mpio.txt",
            "method": "absolute",
            "tolerance": "1.0e-7"
        },
        {
            "file": "mixedEq_heat_loss_prem_box_Var_vec_hyb-TEMPE-00000010.post.mpio.txt",
            "method": "absolute",
            "tolerance": "1.0e-4"
        },
        {
            "file": "mixedEq_heat_loss_prem_box_Var_vec_hyb-XYR-00000010.post.mpio.txt",
            "method": "absolute",
            "tolerance": "1.0e-3"
        },
        {
            "file": "mixedEq_heat_loss_prem_box_Var_vec_hyb-XYS-00000010.post.mpio.txt",
            "method": "absolute",
            "tolerance": "1.0e-3"
        },
        {
            "file": "mixedEq_heat_loss_prem_box_Var_vec_hyb-VELOC-00000010.post.mpio.txt",
            "method": "absolute",
            "tolerance": "1.0e-7"
        }
    ],
    "description": "Premixed flame with heat loss in square shaped duct, variance model on, with a hybrid mesh.",
    "include": [
		"normal"
	],
	"exclude": [
		"novector"
	],
    "executions": [
        {
            "commands": {
                "postprocess": " [ALYA-PATH]/Utils/user/extractColumnFromFile.sh [NAME].chm.wit 2 3 10 11; echo | [POST] [NAME]"
            },
            "mpi": 1,
            "openmp": 0
        },
        {
            "commands": {
                "postprocess": " [ALYA-PATH]/Utils/user/extractColumnFromFile.sh [NAME].chm.wit 2 3 10 11; echo | [POST] [NAME]"
            },
            "mpi": 5,
            "openmp": 0
        },
        {
            "commands": {
                "postprocess": " [ALYA-PATH]/Utils/user/extractColumnFromFile.sh [NAME].chm.wit 2 3 10 11; echo | [POST] [NAME]"
            },
            "mpi": 5,
            "openmp": 3
        }
    ],
    "modules": [
        "nastin",
        "temper",
        "chemic"
    ],
    "name": "mixedEq_heat_loss_prem_box_Var_vec_hyb",
    "postprocess": "mpio2txt",
    "timeout": "00:02:00"
}
