 0.00000000E+000
 0.00000000E+000
 0.00000000E+000
 0.00000000E+000
 0.00000000E+000
 0.00000000E+000
 0.00000000E+000
 0.00000000E+000
 0.43018837E-002
 0.11365266E-001
 0.11338481E-001
 0.47550447E-002
 0.80660678E-004
 0.00000000E+000
 0.00000000E+000
 0.00000000E+000
 0.00000000E+000
 0.00000000E+000
 0.00000000E+000
 0.00000000E+000
 0.00000000E+000
 0.00000000E+000
 0.00000000E+000
 0.80295923E-004
 0.47526567E-002
 0.11350088E-001
 0.11367955E-001
 0.42977124E-002
 0.00000000E+000
 0.00000000E+000
 0.43018853E-002
 0.11360975E-001
 0.11337401E-001
 0.47503796E-002
 0.80264777E-004
 0.00000000E+000
 0.00000000E+000
 0.00000000E+000
 0.00000000E+000
 0.00000000E+000
 0.00000000E+000
 0.00000000E+000
 0.00000000E+000
 0.00000000E+000
 0.00000000E+000
 0.79967579E-004
 0.47477663E-002
 0.11341526E-001
 0.11364242E-001
 0.43008608E-002
 0.00000000E+000
 0.00000000E+000
 0.00000000E+000
 0.00000000E+000
 0.00000000E+000
 0.00000000E+000
 0.00000000E+000
 0.00000000E+000
 0.00000000E+000
 0.00000000E+000
 0.44083677E-002
 0.44033047E-002
 0.12035244E-001
 0.12048668E-001
 0.12957747E-001
 0.12982418E-001
 0.53459144E-002
 0.53404345E-002
 0.10159103E-003
 0.10145074E-003
 0.00000000E+000
 0.00000000E+000
 0.00000000E+000
 0.00000000E+000
 0.00000000E+000
 0.00000000E+000
 0.00000000E+000
 0.00000000E+000
 0.44094043E-002
 0.44083936E-002
 0.12028224E-001
 0.12036484E-001
 0.12946832E-001
 0.12952745E-001
 0.53349358E-002
 0.53311418E-002
 0.10217299E-003
 0.10189148E-003
 0.00000000E+000
 0.00000000E+000
 0.00000000E+000
 0.00000000E+000
 0.00000000E+000
 0.00000000E+000
 0.00000000E+000
 0.00000000E+000
 0.44092878E-002
 0.44093968E-002
 0.12026094E-001
 0.12022270E-001
 0.12950260E-001
 0.12947995E-001
 0.53466072E-002
 0.53402486E-002
 0.10182436E-003
 0.10192397E-003
 0.00000000E+000
 0.00000000E+000
 0.00000000E+000
 0.00000000E+000
 0.00000000E+000
 0.00000000E+000
 0.00000000E+000
 0.00000000E+000
 0.00000000E+000
 0.00000000E+000
 0.00000000E+000
 0.00000000E+000
 0.00000000E+000
 0.00000000E+000
 0.00000000E+000
 0.00000000E+000
 0.00000000E+000
 0.00000000E+000
 0.00000000E+000
 0.00000000E+000
 0.10160518E-003
 0.10162915E-003
 0.53382876E-002
 0.53332874E-002
 0.12986492E-001
 0.12965387E-001
 0.12055578E-001
 0.12046599E-001
 0.44031223E-002
 0.44073377E-002
 0.00000000E+000
 0.00000000E+000
 0.00000000E+000
 0.00000000E+000
 0.48051996E-002
 0.48104681E-002
 0.48079395E-002
 0.48150380E-002
 0.21757494E-001
 0.21765092E-001
 0.21943533E-001
 0.21896983E-001
 0.35183997E-001
 0.35149557E-001
 0.35262584E-001
 0.35185621E-001
 0.00000000E+000
 0.00000000E+000
 0.00000000E+000
 0.00000000E+000
 0.00000000E+000
 0.00000000E+000
 0.00000000E+000
 0.00000000E+000
 0.00000000E+000
 0.00000000E+000
 0.00000000E+000
 0.00000000E+000
 0.00000000E+000
 0.00000000E+000
 0.00000000E+000
 0.00000000E+000
 0.00000000E+000
 0.00000000E+000
 0.00000000E+000
 0.00000000E+000
 0.00000000E+000
 0.00000000E+000
 0.00000000E+000
 0.00000000E+000
