7.00000000E-005
9.00000000E-005
8.00000000E-005
8.00000000E-005
8.00000000E-005
5.76688522E-005
5.75716024E-005
1.15239179E-004
5.76195897E-005
2.88097948E-005
6.91264469E-005
8.96396587E-005
7.93349183E-005
7.93349183E-005
7.93349183E-005
5.66822271E-005
5.70474209E-005
1.14776325E-004
5.68790088E-005
2.75020139E-005
6.85702278E-005
8.92630460E-005
7.88438040E-005
7.88438040E-005
7.88438040E-005
5.60422517E-005
5.64507863E-005
1.14398503E-004
5.62579185E-005
2.62220312E-005
6.80548802E-005
8.88798299E-005
7.83899160E-005
7.83899160E-005
7.83899160E-005
5.54211306E-005
5.58385028E-005
1.14057461E-004
5.56409383E-005
2.48767188E-005
6.60000000E-005
6.75443927E-005
8.84928381E-005
7.79445105E-005
7.79445105E-005
7.79445105E-005
5.47956340E-005
5.52181945E-005
1.13734070E-004
5.50181203E-005
2.34548839E-005
6.49821740E-005
6.70318039E-005
8.81032046E-005
7.74997668E-005
7.74997668E-005
7.74997668E-005
5.41631964E-005
5.45906950E-005
1.13419443E-004
5.43882852E-005
2.19417995E-005
6.43882001E-005
6.60000000E-005
6.65156295E-005
8.77114235E-005
7.70533959E-005
7.70533959E-005
7.70533959E-005
5.35233242E-005
5.39558907E-005
1.13109096E-004
5.37510907E-005
2.03173152E-005
6.38403610E-005
6.49821740E-005
6.59954938E-005
8.73177043E-005
7.66046978E-005
7.66046978E-005
7.66046978E-005
5.28757227E-005
5.33135369E-005
1.12800672E-004
5.31062630E-005
1.85525700E-005
6.32964741E-005
6.43882001E-005
6.60000000E-005
6.54712441E-005
8.69221259E-005
7.61534359E-005
7.61534359E-005
7.61534359E-005
5.22201025E-005
5.26633597E-005
1.12492905E-004
5.24535203E-005
1.66035964E-005
6.27493944E-005
6.38403610E-005
6.49821740E-005
6.49427692E-005
8.65247080E-005
7.56995081E-005
7.56995081E-005
7.56995081E-005
5.15561582E-005
5.20050664E-005
1.12185107E-004
5.17925639E-005
1.43972295E-005
6.21977691E-005
6.32964741E-005
6.43882001E-005
6.60000000E-005
6.44099631E-005
8.61254443E-005
7.52428501E-005
7.52428501E-005
7.52428501E-005
5.08835644E-005
5.13383453E-005
1.11876904E-004
5.11230757E-005
1.17936632E-005
6.16412567E-005
6.27493944E-005
6.38403610E-005
6.49821740E-005
6.38727171E-005
8.57243168E-005
7.47834073E-005
7.47834073E-005
7.47834073E-005
5.02019743E-005
5.06628644E-005
1.11568089E-004
5.04447168E-005
8.44795449E-006
6.10796866E-005
6.21977691E-005
6.32964741E-005
6.43882001E-005
6.60000000E-005
6.33309183E-005
8.53213025E-005
7.43211269E-005
7.43211269E-005
7.43211269E-005
4.95110171E-005
4.99782693E-005
1.11258544E-004
4.97571252E-005
2.38515889E-006
6.05129120E-005
6.16412567E-005
6.27493944E-005
6.38403610E-005
6.49821740E-005
6.27844488E-005
8.49163757E-005
7.38559553E-005
7.38559553E-005
7.38559553E-005
4.88102959E-005
4.92841810E-005
1.10948206E-004
4.90599134E-005
2.98553114E-007
5.99407847E-005
6.10796866E-005
6.21977691E-005
6.32964741E-005
6.43882001E-005
6.22331860E-005
8.45095096E-005
7.33878375E-005
7.33878375E-005
7.33878375E-005
4.80993848E-005
4.85801935E-005
1.10637034E-004
4.83526663E-005
3.73208726E-008
5.93631497E-005
6.05129120E-005
6.16412567E-005
6.27493944E-005
6.38403610E-005
6.16770013E-005
8.41006761E-005
7.29167167E-005
7.29167167E-005
7.29167167E-005
4.73778263E-005
4.78658709E-005
1.10325005E-004
4.76349379E-005
4.66511248E-009
5.87798451E-005
5.99407847E-005
6.10796866E-005
6.21977691E-005
6.32964741E-005
6.11157607E-005
8.36898465E-005
7.24425344E-005
7.24425344E-005
7.24425344E-005
4.66451275E-005
4.71407446E-005
1.10012102E-004
4.69062481E-005
5.83139066E-010
5.81907006E-005
5.93631497E-005
6.05129120E-005
6.16412567E-005
6.27493944E-005
6.05493237E-005
8.32769914E-005
7.19652302E-005
7.19652302E-005
7.19652302E-005
4.59007560E-005
4.64043094E-005
1.09698312E-004
4.61660793E-005
7.28923833E-011
5.75955373E-005
5.87798451E-005
5.99407847E-005
6.10796866E-005
6.21977691E-005
5.99775433E-005
8.28620805E-005
7.14847416E-005
7.14847416E-005
7.14847416E-005
4.51441361E-005
4.56560193E-005
1.09383626E-004
4.54138715E-005
9.11154791E-012
5.69941668E-005
5.81907006E-005
5.93631497E-005
6.05129120E-005
6.16412567E-005
5.94002654E-005
8.24450827E-005
7.10010040E-005
7.10010040E-005
7.10010040E-005
4.43746428E-005
4.48952831E-005
1.09068033E-004
4.46490179E-005
1.13894349E-012
5.63863910E-005
5.75955373E-005
5.87798451E-005
5.99407847E-005
6.10796866E-005
5.88173285E-005
8.20259663E-005
7.05139506E-005
7.05139506E-005
7.05139506E-005
4.35915963E-005
4.41214587E-005
1.08751526E-004
4.38708589E-005
1.42367936E-013
5.57720007E-005
5.69941668E-005
5.81907006E-005
5.93631497E-005
6.05129120E-005
