9.00000000E-002
8.00000000E-002
7.00000000E-002
6.00000000E-002
5.00000000E-002
4.00000000E-002
3.00000000E-002
2.00000000E-002
1.00000000E-002
0.00000000E+000
9.31688668E-002
8.11677580E-002
7.19622620E-002
6.19622620E-002
5.19622620E-002
4.25293421E-002
3.07671818E-002
2.31934501E-002
1.13702197E-002
5.97947409E-004
9.32622283E-002
8.13167682E-002
7.20997180E-002
6.20997180E-002
5.20997180E-002
4.25437046E-002
3.07723545E-002
2.40329068E-002
1.13787733E-002
5.97947408E-004
9.32651590E-002
8.13361174E-002
7.21097358E-002
6.21097358E-002
5.21097358E-002
4.25437831E-002
3.07723852E-002
2.42657771E-002
1.13788221E-002
5.97947408E-004
0.00000000E+000
9.32652477E-002
8.13386170E-002
7.21104564E-002
6.21104564E-002
5.21104564E-002
4.25437835E-002
3.07723854E-002
2.43317598E-002
1.13788224E-002
5.97947408E-004
0.00000000E+000
9.32652503E-002
8.13389351E-002
7.21105068E-002
6.21105068E-002
5.21105068E-002
4.25437835E-002
3.07723854E-002
2.43505471E-002
1.13788224E-002
5.97947408E-004
0.00000000E+000
0.00000000E+000
9.32652503E-002
8.13389749E-002
7.21105102E-002
6.21105102E-002
5.21105102E-002
4.25437835E-002
3.07723854E-002
2.43558865E-002
1.13788224E-002
5.97947408E-004
0.00000000E+000
0.00000000E+000
9.32652503E-002
8.13389798E-002
7.21105104E-002
6.21105104E-002
5.21105104E-002
4.25437835E-002
3.07723854E-002
2.43573969E-002
1.13788224E-002
5.97947408E-004
0.00000000E+000
0.00000000E+000
0.00000000E+000
9.32652503E-002
8.13389804E-002
7.21105104E-002
6.21105104E-002
5.21105104E-002
4.25437835E-002
3.07723854E-002
2.43578216E-002
1.13788224E-002
5.97947408E-004
0.00000000E+000
0.00000000E+000
0.00000000E+000
9.32652503E-002
8.13389804E-002
7.21105104E-002
6.21105104E-002
5.21105104E-002
4.25437835E-002
3.07723854E-002
2.43579403E-002
1.13788224E-002
5.97947408E-004
0.00000000E+000
0.00000000E+000
0.00000000E+000
0.00000000E+000
9.32652503E-002
8.13389804E-002
7.21105104E-002
6.21105104E-002
5.21105104E-002
4.25437835E-002
3.07723854E-002
2.43579732E-002
1.13788224E-002
5.97947408E-004
0.00000000E+000
0.00000000E+000
0.00000000E+000
0.00000000E+000
9.32652503E-002
8.13389804E-002
7.21105104E-002
6.21105104E-002
5.21105104E-002
4.25437835E-002
3.07723854E-002
2.43579823E-002
1.13788224E-002
5.97947408E-004
0.00000000E+000
0.00000000E+000
0.00000000E+000
0.00000000E+000
0.00000000E+000
9.32652503E-002
8.13389804E-002
7.21105104E-002
6.21105104E-002
5.21105104E-002
4.25437835E-002
3.07723854E-002
2.43579847E-002
1.13788224E-002
5.97947408E-004
0.00000000E+000
0.00000000E+000
0.00000000E+000
0.00000000E+000
0.00000000E+000
9.32652503E-002
8.13389804E-002
7.21105104E-002
6.21105104E-002
5.21105104E-002
4.25437835E-002
3.07723854E-002
2.43579854E-002
1.13788224E-002
5.97947408E-004
0.00000000E+000
0.00000000E+000
0.00000000E+000
0.00000000E+000
0.00000000E+000
9.32652503E-002
8.13389804E-002
7.21105104E-002
6.21105104E-002
5.21105104E-002
4.25437835E-002
3.07723854E-002
2.43579856E-002
1.13788224E-002
5.97947408E-004
0.00000000E+000
0.00000000E+000
0.00000000E+000
0.00000000E+000
0.00000000E+000
9.32652503E-002
8.13389804E-002
7.21105104E-002
6.21105104E-002
5.21105104E-002
4.25437835E-002
3.07723854E-002
2.43579856E-002
1.13788224E-002
5.97947408E-004
0.00000000E+000
0.00000000E+000
0.00000000E+000
0.00000000E+000
0.00000000E+000
9.32652503E-002
8.13389804E-002
7.21105104E-002
6.21105104E-002
5.21105104E-002
4.25437835E-002
3.07723854E-002
2.43579857E-002
1.13788224E-002
5.97947408E-004
0.00000000E+000
0.00000000E+000
0.00000000E+000
0.00000000E+000
0.00000000E+000
9.32652503E-002
8.13389804E-002
7.21105104E-002
6.21105104E-002
5.21105104E-002
4.25437835E-002
3.07723854E-002
2.43579857E-002
1.13788224E-002
5.97947408E-004
0.00000000E+000
0.00000000E+000
0.00000000E+000
0.00000000E+000
0.00000000E+000
9.32652503E-002
8.13389804E-002
7.21105104E-002
6.21105104E-002
5.21105104E-002
4.25437835E-002
3.07723854E-002
2.43579857E-002
1.13788224E-002
5.97947408E-004
0.00000000E+000
0.00000000E+000
0.00000000E+000
0.00000000E+000
0.00000000E+000
9.32652503E-002
8.13389804E-002
7.21105104E-002
6.21105104E-002
5.21105104E-002
4.25437835E-002
3.07723854E-002
2.43579857E-002
1.13788224E-002
5.97947408E-004
0.00000000E+000
0.00000000E+000
0.00000000E+000
0.00000000E+000
0.00000000E+000
9.32652503E-002
8.13389804E-002
7.21105104E-002
6.21105104E-002
5.21105104E-002
4.25437835E-002
3.07723854E-002
2.43579857E-002
1.13788224E-002
5.97947408E-004
0.00000000E+000
0.00000000E+000
0.00000000E+000
0.00000000E+000
0.00000000E+000
