# ALYA Lagrangian postprocess  
#
# HEADER
# T , Column :   1
# ILAGR , Column :   2
# ITYPE , Column :   3
# EXIST , Column :   4
# COORX , Column :   5
# COORY , Column :   6
# COORZ , Column :   7
# VELOX , Column :   8
# VELOY , Column :   9
# VELOZ , Column :  10
# DTK , Column :  11
# CD , Column :  12
# TEMPK , Column :  13
# MASSK , Column :  14
# DIAMK , Column :  15
#               T            ILAGR            ITYPE            EXIST            COORX            COORY            COORZ            VELOX            VELOY            VELOZ              DTK               CD            TEMPK            MASSK            DIAMK            
  0.00000000E+000                1                1               -5  0.00000000E+000  9.00000000E-002  0.00000000E+000  2.00000000E-001  2.00000000E-001  2.00000000E-001  6.00000000E-003  0.00000000E+000  2.93000000E+002  1.78934956E-010  7.00000000E-005
  0.00000000E+000                2                1               -5  1.00000000E-002  8.00000000E-002  0.00000000E+000  5.00000000E-002  5.00000000E-002  5.00000000E-002  6.00000000E-003  0.00000000E+000  2.78000000E+002  3.81750628E-010  9.00000000E-005
  0.00000000E+000                3                1               -5  2.00000000E-002  7.00000000E-002  0.00000000E+000  1.00000000E-001  1.00000000E-001  1.00000000E-001  6.00000000E-003  0.00000000E+000  2.88000000E+002  2.67441281E-010  8.00000000E-005
  0.00000000E+000                4                1               -5  3.00000000E-002  6.00000000E-002  0.00000000E+000  1.00000000E-001  1.00000000E-001  1.00000000E-001  6.00000000E-003  0.00000000E+000  2.88000000E+002  2.67441281E-010  8.00000000E-005
  0.00000000E+000                5                1               -5  4.00000000E-002  5.00000000E-002  0.00000000E+000  1.00000000E-001  1.00000000E-001  1.00000000E-001  6.00000000E-003  0.00000000E+000  2.88000000E+002  2.67441281E-010  8.00000000E-005
  0.00000000E+000                6                1               -5  5.00000000E-002  4.00000000E-002  0.00000000E+000  2.10000000E-001  2.10000000E-001  2.10000000E-001  6.00000000E-003  0.00000000E+000  2.95000000E+002  1.00000000E-010  5.76688522E-005
  0.00000000E+000                7                1               -5  6.00000000E-002  3.00000000E-002  0.00000000E+000  6.00000000E-002  6.00000000E-002  6.00000000E-002  6.00000000E-003  0.00000000E+000  2.75000000E+002  1.00000000E-010  5.75716024E-005
  0.00000000E+000                8                1               -5  7.00000000E-002  2.00000000E-002  0.00000000E+000  1.10000000E-001  1.10000000E-001  1.10000000E-001  6.00000000E-003  0.00000000E+000  2.85000000E+002  8.00000000E-010  1.15239179E-004
  0.00000000E+000                9                1               -5  8.00000000E-002  1.00000000E-002  0.00000000E+000  1.10000000E-001  1.10000000E-001  1.10000000E-001  6.00000000E-003  0.00000000E+000  2.85000000E+002  1.00000000E-010  5.76195897E-005
  0.00000000E+000               10                1               -5  9.00000000E-002  0.00000000E+000  0.00000000E+000  1.10000000E-001  1.10000000E-001  1.10000000E-001  6.00000000E-003  0.00000000E+000  2.85000000E+002  1.25000000E-011  2.88097948E-005
  5.00000000E-002                1                1               -1  3.16886682E-003  9.31688668E-002  3.16886682E-003  6.58970022E-003  6.58970022E-003  6.58970022E-003  6.00000000E-003  4.53584745E+002  2.83226693E+002  1.72749465E-010  6.91264469E-005
  5.00000000E-002                2                1               -1  1.11677580E-002  8.11677580E-002  1.16775802E-003  6.97933383E-003  6.97933383E-003  6.97933383E-003  6.00000000E-003  3.30351537E+002  2.80163238E+002  3.76980199E-010  8.96396587E-005
  5.00000000E-002                3                1               -1  2.19622620E-002  7.19622620E-002  1.96226200E-003  7.73215387E-003  7.73215387E-003  7.73215387E-003  6.00000000E-003  3.39454432E+002  2.83054675E+002  2.61153568E-010  7.93349183E-005
  5.00000000E-002                4                1               -1  3.19622620E-002  6.19622620E-002  1.96226200E-003  7.73215387E-003  7.73215387E-003  7.73215387E-003  6.00000000E-003  3.39454432E+002  2.83054675E+002  2.61153568E-010  7.93349183E-005
  5.00000000E-002                5                1               -1  4.19622620E-002  5.19622620E-002  1.96226200E-003  7.73215387E-003  7.73215387E-003  7.73215387E-003  6.00000000E-003  3.39454432E+002  2.83054675E+002  2.61153568E-010  7.93349183E-005
  5.00000000E-002                6                1               -1  5.25293421E-002  4.25293421E-002  2.52934212E-003  1.44776286E-003  1.44776286E-003  1.44776286E-003  6.00000000E-003  2.46461350E+003  2.82525203E+002  9.52579920E-011  5.66822271E-005
  5.00000000E-002                7                1               -1  6.07671818E-002  3.07671818E-002  7.67181816E-004  5.14287028E-004  5.14287028E-004  5.14287028E-004  6.00000000E-003  6.87161672E+003  2.80693952E+002  9.71557101E-011  5.70474209E-005
  5.00000000E-002                8                1               -1  7.31934501E-002  2.31934501E-002  3.19345015E-003  3.00507951E-002  3.00507951E-002  3.00507951E-002  6.00000000E-003  6.39557233E+001  2.83132667E+002  7.90771923E-010  1.14776325E-004
  5.00000000E-002                9                1               -1  8.13702197E-002  1.13702197E-002  1.37021969E-003  8.56063671E-004  8.56063671E-004  8.56063671E-004  6.00000000E-003  4.14984752E+003  2.81769927E+002  9.62718216E-011  5.68790088E-005
  5.00000000E-002               10                1               -1  9.05979474E-002  5.97947409E-004  5.97947409E-004 -5.66683770E-010 -5.66683770E-010 -5.66683770E-010  6.00000000E-003  1.24646099E+010  2.81429260E+002  1.08836296E-011  2.75020139E-005
  1.00000000E-001                1                1               -1  3.26222834E-003  9.32622283E-002  3.26222834E-003  2.07519179E-004  2.07519179E-004  2.07519179E-004  6.00000000E-003  1.42351041E+004  2.81799134E+002  1.68673448E-010  6.85702278E-005
  1.00000000E-001                2                1               -1  1.13167682E-002  8.13167682E-002  1.31676818E-003  9.03891424E-004  9.03891424E-004  9.03891424E-004  6.00000000E-003  2.52177598E+003  2.80939009E+002  3.72176322E-010  8.92630460E-005
  1.00000000E-001                3                1               -1  2.20997180E-002  7.20997180E-002  2.09971797E-003  5.62335784E-004  5.62335784E-004  5.62335784E-004  6.00000000E-003  4.58919936E+003  2.81901790E+002  2.56407935E-010  7.88438040E-005
  1.00000000E-001                4                1               -1  3.20997180E-002  6.20997180E-002  2.09971797E-003  5.62335784E-004  5.62335784E-004  5.62335784E-004  6.00000000E-003  4.58919936E+003  2.81901790E+002  2.56407935E-010  7.88438040E-005
  1.00000000E-001                5                1               -1  4.20997180E-002  5.20997180E-002  2.09971797E-003  5.62335784E-004  5.62335784E-004  5.62335784E-004  6.00000000E-003  4.58919936E+003  2.81901790E+002  2.56407935E-010  7.88438040E-005
  1.00000000E-001                6                1               -1  5.25437046E-002  4.25437046E-002  2.54370462E-003  8.06876658E-006  8.06876658E-006  8.06876658E-006  6.00000000E-003  4.45254865E+005  2.81547540E+002  9.20903449E-011  5.60422517E-005
  1.00000000E-001                7                1               -1  6.07723545E-002  3.07723545E-002  7.72354517E-004  3.10879116E-006  3.10879116E-006  3.10879116E-006  6.00000000E-003  1.14708596E+006  2.81339431E+002  9.41239250E-011  5.64507863E-005
  1.00000000E-001                8                1               -1  7.40329068E-002  2.40329068E-002  4.03290675E-003  8.20994868E-003  8.20994868E-003  8.20994868E-003  6.00000000E-003  2.23914737E+002  2.82308077E+002  7.83150878E-010  1.14398503E-004
  1.00000000E-001                9                1               -1  8.13787733E-002  1.13787733E-002  1.37877328E-003  4.97998769E-006  4.97998769E-006  4.97998769E-006  6.00000000E-003  7.18622217E+005  2.81464712E+002  9.31595485E-011  5.62579185E-005
  1.00000000E-001               10                1               -1  9.05979474E-002  5.97947408E-004  5.97947408E-004 -7.45063166E-018 -7.45063166E-018 -7.45063166E-018  6.00000000E-003  3.62520560E+016  2.81425333E+002  9.43364816E-012  2.62220312E-005
  1.50000000E-001                1                1               -1  3.26515904E-003  9.32651590E-002  3.26515904E-003  6.35556672E-006  6.35556672E-006  6.35556672E-006  6.00000000E-003  4.67179962E+005  2.81505379E+002  1.64911062E-010  6.80548802E-005
  1.50000000E-001                2                1               -1  1.13361174E-002  8.13361174E-002  1.33611738E-003  1.17236909E-004  1.17236909E-004  1.17236909E-004  6.00000000E-003  1.94590040E+004  2.81235768E+002  3.67376165E-010  8.88798299E-005
  1.50000000E-001                3                1               -1  2.21097358E-002  7.21097358E-002  2.10973585E-003  4.07281154E-005  4.07281154E-005  4.07281154E-005  6.00000000E-003  6.34519600E+004  2.81569406E+002  2.52026139E-010  7.83899160E-005
  1.50000000E-001                4                1               -1  3.21097358E-002  6.21097358E-002  2.10973585E-003  4.07281154E-005  4.07281154E-005  4.07281154E-005  6.00000000E-003  6.34519600E+004  2.81569406E+002  2.52026139E-010  7.83899160E-005
  1.50000000E-001                5                1               -1  4.21097358E-002  5.21097358E-002  2.10973585E-003  4.07281154E-005  4.07281154E-005  4.07281154E-005  6.00000000E-003  6.34519600E+004  2.81569406E+002  2.52026139E-010  7.83899160E-005
  1.50000000E-001                6                1               -1  5.25437831E-002  4.25437831E-002  2.54378314E-003  4.00888362E-008  4.00888362E-008  4.00888362E-008  6.00000000E-003  9.05813700E+007  2.81438733E+002  8.90646511E-011  5.54211306E-005
  1.50000000E-001                7                1               -1  6.07723852E-002  3.07723852E-002  7.72385197E-004  1.67705358E-008  1.67705358E-008  1.67705358E-008  6.00000000E-003  2.14939011E+008  2.81415609E+002  9.10925881E-011  5.58385028E-005
  1.50000000E-001                8                1               -1  7.42657771E-002  2.42657771E-002  4.26577712E-003  2.31525846E-003  2.31525846E-003  2.31525846E-003  6.00000000E-003  7.80471787E+002  2.81898972E+002  7.76247408E-010  1.14057461E-004
  1.50000000E-001                9                1               -1  8.13788221E-002  1.13788221E-002  1.37882211E-003  2.58446084E-008  2.58446084E-008  2.58446084E-008  6.00000000E-003  1.39960760E+008  2.81429722E+002  9.01287904E-011  5.56409383E-005
  1.50000000E-001               10                1               -1  9.05979474E-002  5.97947408E-004  5.97947408E-004 -1.30313028E-024 -1.30313028E-024 -1.30313028E-024  6.00000000E-003  3.88028174E+016  2.81425329E+002  8.05489677E-012  2.48767188E-005
  1.50000000E-001               11                1               -5  0.00000000E+000  0.00000000E+000  0.00000000E+000  6.00000000E-002  0.00000000E+000  0.00000000E+000  6.00000000E-003  0.00000000E+000  3.00000000E+002  1.49706351E-010  6.60000000E-005
  2.00000000E-001                1                1               -1  3.26524771E-003  9.32652477E-002  3.26524771E-003  1.84966910E-007  1.84966910E-007  1.84966910E-007  6.00000000E-003  1.61672056E+007  2.81442279E+002  1.61230330E-010  6.75443927E-005
  2.00000000E-001                2                1               -1  1.13386170E-002  8.13386170E-002  1.33861704E-003  1.50030468E-005  1.50030468E-005  1.50030468E-005  6.00000000E-003  1.52612765E+005  2.81351505E+002  3.62587727E-010  8.84928381E-005
  2.00000000E-001                3                1               -1  2.21104564E-002  7.21104564E-002  2.11045635E-003  2.87517088E-006  2.87517088E-006  2.87517088E-006  6.00000000E-003  9.03136903E+005  2.81468905E+002  2.47760770E-010  7.79445105E-005
  2.00000000E-001                4                1               -1  3.21104564E-002  6.21104564E-002  2.11045635E-003  2.87517088E-006  2.87517088E-006  2.87517088E-006  6.00000000E-003  9.03136903E+005  2.81468905E+002  2.47760770E-010  7.79445105E-005
  2.00000000E-001                5                1               -1  4.21104564E-002  5.21104564E-002  2.11045635E-003  2.87517088E-006  2.87517088E-006  2.87517088E-006  6.00000000E-003  9.03136903E+005  2.81468905E+002  2.47760770E-010  7.79445105E-005
  2.00000000E-001                6                1               -1  5.25437835E-002  4.25437835E-002  2.54378352E-003  1.75439123E-010  1.75439123E-010  1.75439123E-010  6.00000000E-003  2.09290968E+010  2.81426740E+002  8.60831995E-011  5.47956340E-005
  2.00000000E-001                7                1               -1  6.07723854E-002  3.07723854E-002  7.72385359E-004  8.00104111E-011  8.00104111E-011  8.00104111E-011  6.00000000E-003  4.55477328E+010  2.81424276E+002  8.80901620E-011  5.52181945E-005
  2.00000000E-001                8                1               -1  7.43317598E-002  2.43317598E-002  4.33175978E-003  6.58925359E-004  6.58925359E-004  6.58925359E-004  6.00000000E-003  2.72635243E+003  2.81683993E+002  7.69704886E-010  1.13734070E-004
  2.00000000E-001                9                1               -1  8.13788224E-002  1.13788224E-002  1.37882235E-003  1.18395118E-010  1.18395118E-010  1.18395118E-010  6.00000000E-003  3.08902941E+010  2.81425799E+002  8.71360527E-011  5.50181203E-005
  2.00000000E-001               10                1               -1  9.05979474E-002  5.97947408E-004  5.97947408E-004 -1.18135895E-029 -1.18135895E-029 -1.18135895E-029  6.00000000E-003  4.01222947E+016  2.81425329E+002  6.75119337E-012  2.34548839E-005
  2.00000000E-001               11                1               -1  9.23163256E-004  0.00000000E+000  0.00000000E+000  1.53687716E-003  0.00000000E+000  0.00000000E+000  6.00000000E-003  3.53128990E+003  2.84009595E+002  1.43476561E-010  6.49821740E-005
  2.50000000E-001                1                1               -1  3.26525026E-003  9.32652503E-002  3.26525026E-003  5.09631232E-009  5.09631232E-009  5.09631232E-009  6.00000000E-003  5.91169133E+008  2.81428848E+002  1.57587956E-010  6.70318039E-005
  2.50000000E-001                2                1               -1  1.13389351E-002  8.13389351E-002  1.33893513E-003  1.88717598E-006  1.88717598E-006  1.88717598E-006  6.00000000E-003  1.21847081E+006  2.81396735E+002  3.57815309E-010  8.81032046E-005
  2.50000000E-001                3                1               -1  2.21105068E-002  7.21105068E-002  2.11050678E-003  1.97005320E-007  1.97005320E-007  1.97005320E-007  6.00000000E-003  1.32531170E+007  2.81438388E+002  2.43545692E-010  7.74997668E-005
  2.50000000E-001                4                1               -1  3.21105068E-002  6.21105068E-002  2.11050678E-003  1.97005320E-007  1.97005320E-007  1.97005320E-007  6.00000000E-003  1.32531170E+007  2.81438388E+002  2.43545692E-010  7.74997668E-005
  2.50000000E-001                5                1               -1  4.21105068E-002  5.21105068E-002  2.11050678E-003  1.97005320E-007  1.97005320E-007  1.97005320E-007  6.00000000E-003  1.32531170E+007  2.81438388E+002  2.43545692E-010  7.74997668E-005
  2.50000000E-001                6                1               -1  5.25437835E-002  4.25437835E-002  2.54378352E-003  6.71866947E-013  6.71866947E-013  6.71866947E-013  6.00000000E-003  5.52606400E+012  2.81425471E+002  8.31368433E-011  5.41631964E-005
  2.50000000E-001                7                1               -1  6.07723854E-002  3.07723854E-002  7.72385360E-004  3.35517628E-013  3.35517628E-013  3.35517628E-013  6.00000000E-003  1.09784783E+013  2.81425220E+002  8.51209707E-011  5.45906950E-005
  2.50000000E-001                8                1               -1  7.43505471E-002  2.43505471E-002  4.35054706E-003  1.87524117E-004  1.87524117E-004  1.87524117E-004  6.00000000E-003  9.57027051E+003  2.81567715E+002  7.63357019E-010  1.13419443E-004
  2.50000000E-001                9                1               -1  8.13788224E-002  1.13788224E-002  1.37882235E-003  4.75740952E-013  4.75740952E-013  4.75740952E-013  6.00000000E-003  7.77186940E+012  2.81425377E+002  8.41776467E-011  5.43882852E-005
  2.50000000E-001               10                1               -1  9.05979474E-002  5.97947408E-004  5.97947408E-004 -7.11106535E-031 -7.11106535E-031 -7.11106535E-031  6.00000000E-003  4.16179993E+016  2.81425329E+002  5.52710117E-012  2.19417995E-005
  2.50000000E-001               11                1               -1  9.42820988E-004  0.00000000E+000  0.00000000E+000  3.09305496E-005  0.00000000E+000  0.00000000E+000  6.00000000E-003  1.75766061E+005  2.81880535E+002  1.39652889E-010  6.43882001E-005
  2.50000000E-001               12                1               -5  0.00000000E+000  0.00000000E+000  0.00000000E+000  6.00000000E-002  0.00000000E+000  0.00000000E+000  6.00000000E-003  0.00000000E+000  3.00000000E+002  1.49706351E-010  6.60000000E-005
  3.00000000E-001                1                1               -1  3.26525033E-003  9.32652503E-002  3.26525033E-003  1.32676068E-010  1.32676068E-010  1.32676068E-010  6.00000000E-003  2.28811216E+010  2.81426044E+002  1.53975536E-010  6.65156295E-005
  3.00000000E-001                2                1               -1  1.13389749E-002  8.13389749E-002  1.33897490E-003  2.33060851E-007  2.33060851E-007  2.33060851E-007  6.00000000E-003  9.91009392E+006  2.81414332E+002  3.53061501E-010  8.77114235E-005
  3.00000000E-001                3                1               -1  2.21105102E-002  7.21105102E-002  2.11051020E-003  1.30848551E-008  1.30848551E-008  1.30848551E-008  6.00000000E-003  2.00672990E+008  2.81429196E+002  2.39362227E-010  7.70533959E-005
  3.00000000E-001                4                1               -1  3.21105102E-002  6.21105102E-002  2.11051020E-003  1.30848551E-008  1.30848551E-008  1.30848551E-008  6.00000000E-003  2.00672990E+008  2.81429196E+002  2.39362227E-010  7.70533959E-005
  3.00000000E-001                5                1               -1  4.21105102E-002  5.21105102E-002  2.11051020E-003  1.30848551E-008  1.30848551E-008  1.30848551E-008  6.00000000E-003  2.00672990E+008  2.81429196E+002  2.39362227E-010  7.70533959E-005
  3.00000000E-001                6                1               -1  5.25437835E-002  4.25437835E-002  2.54378352E-003  2.23599551E-015  2.23599551E-015  2.23599551E-015  6.00000000E-003  1.56611626E+015  2.81425343E+002  8.02250359E-011  5.35233242E-005
  3.00000000E-001                7                1               -1  6.07723854E-002  3.07723854E-002  7.72385360E-004  1.22852429E-015  1.22852429E-015  1.22852429E-015  6.00000000E-003  2.67940798E+015  2.81425319E+002  8.21858944E-011  5.39558907E-005
  3.00000000E-001                8                1               -1  7.43558865E-002  2.43558865E-002  4.35588654E-003  5.31583464E-005  5.31583464E-005  5.31583464E-005  6.00000000E-003  3.37971682E+004  2.81503929E+002  7.57120000E-010  1.13109096E-004
  3.00000000E-001                9                1               -1  8.13788224E-002  1.13788224E-002  1.37882235E-003  1.66547875E-015  1.66547875E-015  1.66547875E-015  6.00000000E-003  2.04643998E+015  2.81425334E+002  8.12535846E-011  5.37510907E-005
  3.00000000E-001               10                1               -1  9.05979474E-002  5.97947408E-004  5.97947408E-004 -2.38300070E-032 -2.38300070E-032 -2.38300070E-032  6.00000000E-003  4.33372341E+016  2.81425329E+002  4.38813161E-012  2.03173152E-005
  3.00000000E-001               11                1               -1  9.43211455E-004  0.00000000E+000  0.00000000E+000  5.85690372E-007  0.00000000E+000  0.00000000E+000  6.00000000E-003  9.34973829E+006  2.81506476E+002  1.36131255E-010  6.38403610E-005
  3.00000000E-001               12                1               -1  9.23163256E-004  0.00000000E+000  0.00000000E+000  1.53687716E-003  0.00000000E+000  0.00000000E+000  6.00000000E-003  3.53128990E+003  2.84009595E+002  1.43476561E-010  6.49821740E-005
  3.50000000E-001                1                1               -1  3.26525033E-003  9.32652503E-002  3.26525033E-003  3.25756429E-012  3.25756429E-012  3.25756429E-012  6.00000000E-003  9.39101718E+011  2.81425471E+002  1.50391579E-010  6.59954938E-005
  3.50000000E-001                2                1               -1  1.13389798E-002  8.13389798E-002  1.33897978E-003  2.82440057E-008  2.82440057E-008  2.82440057E-008  6.00000000E-003  8.21413611E+007  2.81421133E+002  3.48327747E-010  8.73177043E-005
  3.50000000E-001                3                1               -1  2.21105104E-002  7.21105104E-002  2.11051043E-003  8.41725277E-010  8.41725277E-010  8.41725277E-010  6.00000000E-003  3.13754502E+009  2.81426459E+002  2.35205121E-010  7.66046978E-005
  3.50000000E-001                4                1               -1  3.21105104E-002  6.21105104E-002  2.11051043E-003  8.41725277E-010  8.41725277E-010  8.41725277E-010  6.00000000E-003  3.13754502E+009  2.81426459E+002  2.35205121E-010  7.66046978E-005
  3.50000000E-001                5                1               -1  4.21105104E-002  5.21105104E-002  2.11051043E-003  8.41725277E-010  8.41725277E-010  8.41725277E-010  6.00000000E-003  3.13754502E+009  2.81426459E+002  2.35205121E-010  7.66046978E-005
  3.50000000E-001                6                1               -1  5.25437835E-002  4.25437835E-002  2.54378352E-003  6.41815991E-018  6.41815991E-018  6.41815991E-018  6.00000000E-003  2.23919887E+016  2.81425331E+002  7.73480974E-011  5.28757227E-005
  3.50000000E-001                7                1               -1  6.07723854E-002  3.07723854E-002  7.72385360E-004  3.89983235E-018  3.89983235E-018  3.89983235E-018  6.00000000E-003  2.25849606E+016  2.81425328E+002  7.92853912E-011  5.33135369E-005
  3.50000000E-001                8                1               -1  7.43573969E-002  2.43573969E-002  4.35739692E-003  1.49846022E-005  1.49846022E-005  1.49846022E-005  6.00000000E-003  1.20135875E+005  2.81468721E+002  7.50949995E-010  1.12800672E-004
  3.50000000E-001                9                1               -1  8.13788224E-002  1.13788224E-002  1.37882235E-003  5.04258465E-018  5.04258465E-018  5.04258465E-018  6.00000000E-003  2.24991339E+016  2.81425330E+002  7.83642376E-011  5.31062630E-005
  3.50000000E-001               10                1               -1  9.05979474E-002  5.97947408E-004  5.97947408E-004  2.92617270E-033  2.92617270E-033  2.92617270E-033  6.00000000E-003  4.53484990E+016  2.81425329E+002  3.34112656E-012  1.85525700E-005
  3.50000000E-001               11                1               -1  9.43218738E-004  0.00000000E+000  0.00000000E+000  1.03519366E-008  0.00000000E+000  0.00000000E+000  6.00000000E-003  5.33360808E+008  2.81439503E+002  1.32683738E-010  6.32964741E-005
  3.50000000E-001               12                1               -1  9.42820988E-004  0.00000000E+000  0.00000000E+000  3.09305496E-005  0.00000000E+000  0.00000000E+000  6.00000000E-003  1.75766061E+005  2.81880535E+002  1.39652889E-010  6.43882001E-005
  3.50000000E-001               13                1               -5  0.00000000E+000  0.00000000E+000  0.00000000E+000  6.00000000E-002  0.00000000E+000  0.00000000E+000  6.00000000E-003  0.00000000E+000  3.00000000E+002  1.49706351E-010  6.60000000E-005
  4.00000000E-001                1                1               -1  3.26525033E-003  9.32652503E-002  3.26525033E-003  7.52857861E-014  7.52857861E-014  7.52857861E-014  6.00000000E-003  4.08714045E+013  2.81425357E+002  1.46835972E-010  6.54712441E-005
  4.00000000E-001                2                1               -1  1.13389804E-002  8.13389804E-002  1.33898037E-003  3.35750907E-009  3.35750907E-009  3.35750907E-009  6.00000000E-003  6.94109487E+008  2.81423741E+002  3.43614813E-010  8.69221259E-005
  4.00000000E-001                3                1               -1  2.21105104E-002  7.21105104E-002  2.11051044E-003  5.24010595E-011  5.24010595E-011  5.24010595E-011  6.00000000E-003  5.06936802E+010  2.81425655E+002  2.31072977E-010  7.61534359E-005
  4.00000000E-001                4                1               -1  3.21105104E-002  6.21105104E-002  2.11051044E-003  5.24010595E-011  5.24010595E-011  5.24010595E-011  6.00000000E-003  5.06936802E+010  2.81425655E+002  2.31072977E-010  7.61534359E-005
  4.00000000E-001                5                1               -1  4.21105104E-002  5.21105104E-002  2.11051044E-003  5.24010595E-011  5.24010595E-011  5.24010595E-011  6.00000000E-003  5.06936802E+010  2.81425655E+002  2.31072977E-010  7.61534359E-005
  4.00000000E-001                6                1               -1  5.25437835E-002  4.25437835E-002  2.54378352E-003  1.57594179E-020  1.57594179E-020  1.57594179E-020  6.00000000E-003  2.34924737E+016  2.81425329E+002  7.45064460E-011  5.22201025E-005
  4.00000000E-001                7                1               -1  6.07723854E-002  3.07723854E-002  7.72385360E-004  1.06496199E-020  1.06496199E-020  1.06496199E-020  6.00000000E-003  2.33419427E+016  2.81425329E+002  7.64198838E-011  5.26633597E-005
  4.00000000E-001                8                1               -1  7.43578216E-002  2.43578216E-002  4.35782163E-003  4.19709177E-006  4.19709177E-006  4.19709177E-006  6.00000000E-003  4.29943039E+005  2.81449251E+002  7.44823676E-010  1.12492905E-004
  4.00000000E-001                9                1               -1  8.13788224E-002  1.13788224E-002  1.37882235E-003  1.30995027E-020  1.30995027E-020  1.30995027E-020  6.00000000E-003  2.34129614E+016  2.81425329E+002  7.55100239E-011  5.24535203E-005
  4.00000000E-001               10                1               -1  9.05979474E-002  5.97947408E-004  5.97947408E-004  1.24537700E-033  1.24537700E-033  1.24537700E-033  6.00000000E-003  4.77562106E+016  2.81425329E+002  2.39489894E-012  1.66035964E-005
  4.00000000E-001               11                1               -1  9.43218864E-004  0.00000000E+000  0.00000000E+000  1.70261877E-010  0.00000000E+000  0.00000000E+000  6.00000000E-003  3.27052551E+010  2.81427741E+002  1.29273361E-010  6.27493944E-005
  4.00000000E-001               12                1               -1  9.43211455E-004  0.00000000E+000  0.00000000E+000  5.85690372E-007  0.00000000E+000  0.00000000E+000  6.00000000E-003  9.34973829E+006  2.81506476E+002  1.36131255E-010  6.38403610E-005
  4.00000000E-001               13                1               -1  9.23163256E-004  0.00000000E+000  0.00000000E+000  1.53687716E-003  0.00000000E+000  0.00000000E+000  6.00000000E-003  3.53128990E+003  2.84009595E+002  1.43476561E-010  6.49821740E-005
  4.50000000E-001                1                1               -1  3.26525033E-003  9.32652503E-002  3.26525033E-003  1.63442766E-015  1.63442766E-015  1.63442766E-015  6.00000000E-003  1.73504739E+015  2.81425335E+002  1.43308878E-010  6.49427692E-005
  4.50000000E-001                2                1               -1  1.13389804E-002  8.13389804E-002  1.33898044E-003  3.91367429E-010  3.91367429E-010  3.91367429E-010  6.00000000E-003  5.98182578E+009  2.81424733E+002  3.38923106E-010  8.65247080E-005
  4.50000000E-001                3                1               -1  2.21105104E-002  7.21105104E-002  2.11051044E-003  3.15449227E-012  3.15449227E-012  3.15449227E-012  6.00000000E-003  8.47052016E+011  2.81425422E+002  2.26965501E-010  7.56995081E-005
  4.50000000E-001                4                1               -1  3.21105104E-002  6.21105104E-002  2.11051044E-003  3.15449227E-012  3.15449227E-012  3.15449227E-012  6.00000000E-003  8.47052016E+011  2.81425422E+002  2.26965501E-010  7.56995081E-005
  4.50000000E-001                5                1               -1  4.21105104E-002  5.21105104E-002  2.11051044E-003  3.15449227E-012  3.15449227E-012  3.15449227E-012  6.00000000E-003  8.47052016E+011  2.81425422E+002  2.26965501E-010  7.56995081E-005
  4.50000000E-001                6                1               -1  5.25437835E-002  4.25437835E-002  2.54378352E-003  3.28080634E-023  3.28080634E-023  3.28080634E-023  6.00000000E-003  2.37249571E+016  2.81425329E+002  7.17005240E-011  5.15561582E-005
  4.50000000E-001                7                1               -1  6.07723854E-002  3.07723854E-002  7.72385360E-004  2.48077364E-023  2.48077364E-023  2.48077364E-023  6.00000000E-003  2.35688130E+016  2.81425329E+002  7.35898050E-011  5.20050664E-005
  4.50000000E-001                8                1               -1  7.43579403E-002  2.43579403E-002  4.35794027E-003  1.16767644E-006  1.16767644E-006  1.16767644E-006  6.00000000E-003  1.54938143E+006  2.81438487E+002  7.38728540E-010  1.12185107E-004
  4.50000000E-001                9                1               -1  8.13788224E-002  1.13788224E-002  1.37882235E-003  2.89455284E-023  2.89455284E-023  2.89455284E-023  6.00000000E-003  2.36424751E+016  2.81425329E+002  7.26913807E-011  5.17925639E-005
  4.50000000E-001               10                1               -1  9.05979474E-002  5.97947408E-004  5.97947408E-004  3.28045501E-034  3.28045501E-034  3.28045501E-034  6.00000000E-003  5.07308740E+016  2.81425329E+002  1.56141185E-012  1.43972295E-005
  4.50000000E-001               11                1               -1  9.43218866E-004  0.00000000E+000  0.00000000E+000  2.59879131E-012  0.00000000E+000  0.00000000E+000  6.00000000E-003  2.16114837E+012  2.81425728E+002  1.25894010E-010  6.21977691E-005
  4.50000000E-001               12                1               -1  9.43218738E-004  0.00000000E+000  0.00000000E+000  1.03519366E-008  0.00000000E+000  0.00000000E+000  6.00000000E-003  5.33360808E+008  2.81439503E+002  1.32683738E-010  6.32964741E-005
  4.50000000E-001               13                1               -1  9.42820988E-004  0.00000000E+000  0.00000000E+000  3.09305496E-005  0.00000000E+000  0.00000000E+000  6.00000000E-003  1.75766061E+005  2.81880535E+002  1.39652889E-010  6.43882001E-005
  4.50000000E-001               14                1               -5  0.00000000E+000  0.00000000E+000  0.00000000E+000  6.00000000E-002  0.00000000E+000  0.00000000E+000  6.00000000E-003  0.00000000E+000  3.00000000E+002  1.49706351E-010  6.60000000E-005
  5.00000000E-001                1                1               -1  3.26525033E-003  9.32652503E-002  3.26525033E-003  3.32596705E-017  3.32596705E-017  3.32596705E-017  6.00000000E-003  1.64529807E+016  2.81425330E+002  1.39810516E-010  6.44099631E-005
  5.00000000E-001                2                1               -1  1.13389804E-002  8.13389804E-002  1.33898045E-003  4.47166548E-011  4.47166548E-011  4.47166548E-011  6.00000000E-003  5.25942953E+010  2.81425108E+002  3.34252863E-010  8.61254443E-005
  5.00000000E-001                3                1               -1  2.21105104E-002  7.21105104E-002  2.11051044E-003  1.83475518E-013  1.83475518E-013  1.83475518E-013  6.00000000E-003  1.46391759E+013  2.81425355E+002  2.22882719E-010  7.52428501E-005
  5.00000000E-001                4                1               -1  3.21105104E-002  6.21105104E-002  2.11051044E-003  1.83475518E-013  1.83475518E-013  1.83475518E-013  6.00000000E-003  1.46391759E+013  2.81425355E+002  2.22882719E-010  7.52428501E-005
  5.00000000E-001                5                1               -1  4.21105104E-002  5.21105104E-002  2.11051044E-003  1.83475518E-013  1.83475518E-013  1.83475518E-013  6.00000000E-003  1.46391759E+013  2.81425355E+002  2.22882719E-010  7.52428501E-005
  5.00000000E-001                6                1               -1  5.25437835E-002  4.25437835E-002  2.54378352E-003  5.73449115E-026  5.73449115E-026  5.73449115E-026  6.00000000E-003  2.39627573E+016  2.81425329E+002  6.89307916E-011  5.08835644E-005
  5.00000000E-001                7                1               -1  6.07723854E-002  3.07723854E-002  7.72385360E-004  4.88443317E-026  4.88443317E-026  4.88443317E-026  6.00000000E-003  2.38014599E+016  2.81425329E+002  7.07956032E-011  5.13383453E-005
  5.00000000E-001                8                1               -1  7.43579732E-002  2.43579732E-002  4.35797319E-003  3.22612362E-007  3.22612362E-007  3.22612362E-007  6.00000000E-003  5.62289633E+006  2.81432547E+002  7.32657878E-010  1.11876904E-004
  5.00000000E-001                9                1               -1  8.13788224E-002  1.13788224E-002  1.37882235E-003  5.38924784E-026  5.38924784E-026  5.38924784E-026  6.00000000E-003  2.38775427E+016  2.81425329E+002  6.99087617E-011  5.11230757E-005
  5.00000000E-001               10                1               -1  9.05979474E-002  5.97947408E-004  5.97947408E-004  3.88051438E-035  3.88051438E-035  3.88051438E-035  6.00000000E-003  5.45795343E+016  2.81425329E+002  8.58275758E-013  1.17936632E-005
  5.00000000E-001               11                1               -1  9.43218866E-004  0.00000000E+000  0.00000000E+000  3.67073970E-014  0.00000000E+000  0.00000000E+000  6.00000000E-003  1.53231130E+014  2.81425393E+002  1.22544869E-010  6.16412567E-005
  5.00000000E-001               12                1               -1  9.43218864E-004  0.00000000E+000  0.00000000E+000  1.70261877E-010  0.00000000E+000  0.00000000E+000  6.00000000E-003  3.27052551E+010  2.81427741E+002  1.29273361E-010  6.27493944E-005
  5.00000000E-001               13                1               -1  9.43211455E-004  0.00000000E+000  0.00000000E+000  5.85690372E-007  0.00000000E+000  0.00000000E+000  6.00000000E-003  9.34973829E+006  2.81506476E+002  1.36131255E-010  6.38403610E-005
  5.00000000E-001               14                1               -1  9.23163256E-004  0.00000000E+000  0.00000000E+000  1.53687716E-003  0.00000000E+000  0.00000000E+000  6.00000000E-003  3.53128990E+003  2.84009595E+002  1.43476561E-010  6.49821740E-005
  5.50000000E-001                1                1               -1  3.26525033E-003  9.32652503E-002  3.26525033E-003  6.32975287E-019  6.32975287E-019  6.32975287E-019  6.00000000E-003  1.99882193E+016  2.81425330E+002  1.36341121E-010  6.38727171E-005
  5.50000000E-001                2                1               -1  1.13389804E-002  8.13389804E-002  1.33898045E-003  5.00619006E-012  5.00619006E-012  5.00619006E-012  6.00000000E-003  4.71952138E+011  2.81425248E+002  3.29604242E-010  8.57243168E-005
  5.50000000E-001                3                1               -1  2.21105104E-002  7.21105104E-002  2.11051044E-003  1.03017772E-014  1.03017772E-014  1.03017772E-014  6.00000000E-003  2.58678792E+014  2.81425337E+002  2.18824746E-010  7.47834073E-005
  5.50000000E-001                4                1               -1  3.21105104E-002  6.21105104E-002  2.11051044E-003  1.03017772E-014  1.03017772E-014  1.03017772E-014  6.00000000E-003  2.58678792E+014  2.81425337E+002  2.18824746E-010  7.47834073E-005
  5.50000000E-001                5                1               -1  4.21105104E-002  5.21105104E-002  2.11051044E-003  1.03017772E-014  1.03017772E-014  1.03017772E-014  6.00000000E-003  2.58678792E+014  2.81425337E+002  2.18824746E-010  7.47834073E-005
  5.50000000E-001                6                1               -1  5.25437835E-002  4.25437835E-002  2.54378352E-003  6.90346935E-029  6.90346935E-029  6.90346935E-029  6.00000000E-003  2.42085610E+016  2.81425329E+002  6.61977271E-011  5.02019743E-005
  5.50000000E-001                7                1               -1  6.07723854E-002  3.07723854E-002  7.72385360E-004  6.73758551E-029  6.73758551E-029  6.73758551E-029  6.00000000E-003  2.40418101E+016  2.81425329E+002  6.80377446E-011  5.06628644E-005
  5.50000000E-001                8                1               -1  7.43579823E-002  2.43579823E-002  4.35798226E-003  8.85049987E-008  8.85049987E-008  8.85049987E-008  6.00000000E-003  2.05520092E+007  2.81429277E+002  7.26608099E-010  1.11568089E-004
  5.50000000E-001                9                1               -1  8.13788224E-002  1.13788224E-002  1.37882235E-003  6.97418449E-029  6.97418449E-029  6.97418449E-029  6.00000000E-003  2.41204540E+016  2.81425329E+002  6.71626390E-011  5.04447168E-005
  5.50000000E-001               10                1               -1  9.05979474E-002  5.97947408E-004  5.97947408E-004 -4.18091925E-035 -4.18091925E-035 -4.18091925E-035  6.00000000E-003  5.99459999E+016  2.81425329E+002  3.15453524E-013  8.44795449E-006
  5.50000000E-001               11                1               -1  9.43218866E-004  0.00000000E+000  0.00000000E+000  4.78370323E-016  0.00000000E+000  0.00000000E+000  6.00000000E-003  7.59034727E+015  2.81425339E+002  1.19226030E-010  6.10796866E-005
  5.50000000E-001               12                1               -1  9.43218866E-004  0.00000000E+000  0.00000000E+000  2.59879131E-012  0.00000000E+000  0.00000000E+000  6.00000000E-003  2.16114837E+012  2.81425728E+002  1.25894010E-010  6.21977691E-005
  5.50000000E-001               13                1               -1  9.43218738E-004  0.00000000E+000  0.00000000E+000  1.03519366E-008  0.00000000E+000  0.00000000E+000  6.00000000E-003  5.33360808E+008  2.81439503E+002  1.32683738E-010  6.32964741E-005
  5.50000000E-001               14                1               -1  9.42820988E-004  0.00000000E+000  0.00000000E+000  3.09305496E-005  0.00000000E+000  0.00000000E+000  6.00000000E-003  1.75766061E+005  2.81880535E+002  1.39652889E-010  6.43882001E-005
  5.50000000E-001               15                1               -5  0.00000000E+000  0.00000000E+000  0.00000000E+000  6.00000000E-002  0.00000000E+000  0.00000000E+000  6.00000000E-003  0.00000000E+000  3.00000000E+002  1.49706351E-010  6.60000000E-005
  6.00000000E-001                1                1               -1  3.26525033E-003  9.32652503E-002  3.26525033E-003  1.12392091E-020  1.12392091E-020  1.12392091E-020  6.00000000E-003  2.02043916E+016  2.81425329E+002  1.32900937E-010  6.33309183E-005
  6.00000000E-001                2                1               -1  1.13389804E-002  8.13389804E-002  1.33898045E-003  5.48946781E-013  5.48946781E-013  5.48946781E-013  6.00000000E-003  4.32311529E+012  2.81425299E+002  3.24977370E-010  8.53213025E-005
  6.00000000E-001                3                1               -1  2.21105104E-002  7.21105104E-002  2.11051044E-003  5.57883336E-016  5.57883336E-016  5.57883336E-016  6.00000000E-003  3.82576847E+015  2.81425331E+002  2.14791725E-010  7.43211269E-005
  6.00000000E-001                4                1               -1  3.21105104E-002  6.21105104E-002  2.11051044E-003  5.57883336E-016  5.57883336E-016  5.57883336E-016  6.00000000E-003  3.82576847E+015  2.81425331E+002  2.14791725E-010  7.43211269E-005
  6.00000000E-001                5                1               -1  4.21105104E-002  5.21105104E-002  2.11051044E-003  5.57883336E-016  5.57883336E-016  5.57883336E-016  6.00000000E-003  3.82576847E+015  2.81425331E+002  2.14791725E-010  7.43211269E-005
  6.00000000E-001                6                1               -1  5.25437835E-002  4.25437835E-002  2.54378352E-003  2.58205900E-031  2.58205900E-031  2.58205900E-031  6.00000000E-003  2.44628508E+016  2.81425329E+002  6.35018286E-011  4.95110171E-005
  6.00000000E-001                7                1               -1  6.07723854E-002  3.07723854E-002  7.72385360E-004  2.56940252E-031  2.56940252E-031  2.56940252E-031  6.00000000E-003  2.42903197E+016  2.81425329E+002  6.53167137E-011  4.99782693E-005
  6.00000000E-001                8                1               -1  7.43579847E-002  2.43579847E-002  4.35798474E-003  2.41067792E-008  2.41067792E-008  2.41067792E-008  6.00000000E-003  7.56618341E+007  2.81427482E+002  7.20577293E-010  1.11258544E-004
  6.00000000E-001                9                1               -1  8.13788224E-002  1.13788224E-002  1.37882235E-003  2.64177203E-031  2.64177203E-031  2.64177203E-031  6.00000000E-003  2.43716774E+016  2.81425329E+002  6.44535032E-011  4.97571252E-005
  6.00000000E-001               10                1               -1  9.05979474E-002  5.97947408E-004  5.97947408E-004 -3.44183534E-035 -3.44183534E-035 -3.44183534E-035  6.00000000E-003  6.86156412E+016  2.81425329E+002  7.09957961E-015  2.38515889E-006
  6.00000000E-001               11                1               -1  9.43218866E-004  0.00000000E+000  0.00000000E+000  5.73357695E-018  0.00000000E+000  0.00000000E+000  6.00000000E-003  2.05234727E+016  2.81425331E+002  1.15937744E-010  6.05129120E-005
  6.00000000E-001               12                1               -1  9.43218866E-004  0.00000000E+000  0.00000000E+000  3.67073970E-014  0.00000000E+000  0.00000000E+000  6.00000000E-003  1.53231130E+014  2.81425393E+002  1.22544869E-010  6.16412567E-005
  6.00000000E-001               13                1               -1  9.43218864E-004  0.00000000E+000  0.00000000E+000  1.70261877E-010  0.00000000E+000  0.00000000E+000  6.00000000E-003  3.27052551E+010  2.81427741E+002  1.29273361E-010  6.27493944E-005
  6.00000000E-001               14                1               -1  9.43211455E-004  0.00000000E+000  0.00000000E+000  5.85690372E-007  0.00000000E+000  0.00000000E+000  6.00000000E-003  9.34973829E+006  2.81506476E+002  1.36131255E-010  6.38403610E-005
  6.00000000E-001               15                1               -1  9.23163256E-004  0.00000000E+000  0.00000000E+000  1.53687716E-003  0.00000000E+000  0.00000000E+000  6.00000000E-003  3.53128990E+003  2.84009595E+002  1.43476561E-010  6.49821740E-005
  6.50000000E-001                1                1               -1  3.26525033E-003  9.32652503E-002  3.26525033E-003  1.85725310E-022  1.85725310E-022  1.85725310E-022  6.00000000E-003  2.03461303E+016  2.81425329E+002  1.29490213E-010  6.27844488E-005
  6.50000000E-001                2                1               -1  1.13389804E-002  8.13389804E-002  1.33898045E-003  5.89338165E-014  5.89338165E-014  5.89338165E-014  6.00000000E-003  4.03665799E+013  2.81425319E+002  3.20372358E-010  8.49163757E-005
  6.50000000E-001                3                1               -1  2.21105104E-002  7.21105104E-002  2.11051044E-003  2.91117679E-017  2.91117679E-017  2.91117679E-017  6.00000000E-003  1.49912931E+016  2.81425330E+002  2.10783808E-010  7.38559553E-005
  6.50000000E-001                4                1               -1  3.21105104E-002  6.21105104E-002  2.11051044E-003  2.91117679E-017  2.91117679E-017  2.91117679E-017  6.00000000E-003  1.49912931E+016  2.81425330E+002  2.10783808E-010  7.38559553E-005
  6.50000000E-001                5                1               -1  4.21105104E-002  5.21105104E-002  2.11051044E-003  2.91117679E-017  2.91117679E-017  2.91117679E-017  6.00000000E-003  1.49912931E+016  2.81425330E+002  2.10783808E-010  7.38559553E-005
  6.50000000E-001                6                1               -1  5.25437835E-002  4.25437835E-002  2.54378352E-003  9.48878607E-034  9.48878607E-034  9.48878607E-034  6.00000000E-003  2.47261468E+016  2.81425329E+002  6.08436147E-011  4.88102959E-005
  6.50000000E-001                7                1               -1  6.07723854E-002  3.07723854E-002  7.72385360E-004  9.95063144E-034  9.95063144E-034  9.95063144E-034  6.00000000E-003  2.45474798E+016  2.81425329E+002  6.26330150E-011  4.92841810E-005
  6.50000000E-001                8                1               -1  7.43579854E-002  2.43579854E-002  4.35798541E-003  6.51862987E-009  6.51862987E-009  6.51862987E-009  6.00000000E-003  2.80584221E+008  2.81426499E+002  7.14564457E-010  1.10948206E-004
  6.50000000E-001                9                1               -1  8.13788224E-002  1.13788224E-002  1.37882235E-003  1.00211337E-033  1.00211337E-033  1.00211337E-033  6.00000000E-003  2.46317176E+016  2.81425329E+002  6.17818657E-011  4.90599134E-005
  6.50000000E-001               10                1               -1  9.05979474E-002  5.97947408E-004  5.97947408E-004  3.81015753E-037  3.81015753E-037  3.81015753E-037  6.00000000E-003  9.37998905E+016  2.97458806E+002  1.38663664E-017  2.98553114E-007
  6.50000000E-001               11                1               -1  9.43218866E-004  0.00000000E+000  0.00000000E+000  6.29905375E-020  0.00000000E+000  0.00000000E+000  6.00000000E-003  2.11037904E+016  2.81425330E+002  1.12680290E-010  5.99407847E-005
  6.50000000E-001               12                1               -1  9.43218866E-004  0.00000000E+000  0.00000000E+000  4.78370323E-016  0.00000000E+000  0.00000000E+000  6.00000000E-003  7.59034727E+015  2.81425339E+002  1.19226030E-010  6.10796866E-005
  6.50000000E-001               13                1               -1  9.43218866E-004  0.00000000E+000  0.00000000E+000  2.59879131E-012  0.00000000E+000  0.00000000E+000  6.00000000E-003  2.16114837E+012  2.81425728E+002  1.25894010E-010  6.21977691E-005
  6.50000000E-001               14                1               -1  9.43218738E-004  0.00000000E+000  0.00000000E+000  1.03519366E-008  0.00000000E+000  0.00000000E+000  6.00000000E-003  5.33360808E+008  2.81439503E+002  1.32683738E-010  6.32964741E-005
  6.50000000E-001               15                1               -1  9.42820988E-004  0.00000000E+000  0.00000000E+000  3.09305496E-005  0.00000000E+000  0.00000000E+000  6.00000000E-003  1.75766061E+005  2.81880535E+002  1.39652889E-010  6.43882001E-005
  7.00000000E-001                1                1               -1  3.26525033E-003  9.32652503E-002  3.26525033E-003  2.84863671E-024  2.84863671E-024  2.84863671E-024  6.00000000E-003  2.04896740E+016  2.81425329E+002  1.26109206E-010  6.22331860E-005
  7.00000000E-001                2                1               -1  1.13389804E-002  8.13389804E-002  1.33898045E-003  6.19201098E-015  6.19201098E-015  6.19201098E-015  6.00000000E-003  3.77838527E+014  2.81425325E+002  3.15789315E-010  8.45095096E-005
  7.00000000E-001                3                1               -1  2.21105104E-002  7.21105104E-002  2.11051044E-003  1.46240811E-018  1.46240811E-018  1.46240811E-018  6.00000000E-003  1.77586104E+016  2.81425330E+002  2.06801154E-010  7.33878375E-005
  7.00000000E-001                4                1               -1  3.21105104E-002  6.21105104E-002  2.11051044E-003  1.46240811E-018  1.46240811E-018  1.46240811E-018  6.00000000E-003  1.77586104E+016  2.81425330E+002  2.06801154E-010  7.33878375E-005
  7.00000000E-001                5                1               -1  4.21105104E-002  5.21105104E-002  2.11051044E-003  1.46240811E-018  1.46240811E-018  1.46240811E-018  6.00000000E-003  1.77586104E+016  2.81425330E+002  2.06801154E-010  7.33878375E-005
  7.00000000E-001                6                1               -1  5.25437835E-002  4.25437835E-002  2.54378352E-003  3.05578713E-036  3.05578713E-036  3.05578713E-036  6.00000000E-003  2.49990159E+016  2.81425329E+002  5.82236265E-011  4.80993848E-005
  7.00000000E-001                7                1               -1  6.07723854E-002  3.07723854E-002  7.72385360E-004  3.59332032E-036  3.59332032E-036  3.59332032E-036  6.00000000E-003  2.48138251E+016  2.81425329E+002  5.99871745E-011  4.85801935E-005
  7.00000000E-001                8                1               -1  7.43579856E-002  2.43579856E-002  4.35798559E-003  1.74977425E-009  1.74977425E-009  1.74977425E-009  6.00000000E-003  1.04821193E+009  2.81425963E+002  7.08569077E-010  1.10637034E-004
  7.00000000E-001                9                1               -1  8.13788224E-002  1.13788224E-002  1.37882235E-003  3.45437494E-036  3.45437494E-036  3.45437494E-036  6.00000000E-003  2.49011240E+016  2.81425329E+002  5.91482593E-011  4.83526663E-005
  7.00000000E-001               10                1               -1  9.05979474E-002  5.97947408E-004  5.97947408E-004  5.13869242E-037  5.13869242E-037  5.13869242E-037  6.00000000E-003  1.06066422E+017  2.97991523E+002  2.70827469E-020  3.73208726E-008
  7.00000000E-001               11                1               -1  9.43218866E-004  0.00000000E+000  0.00000000E+000  6.32060334E-022  0.00000000E+000  0.00000000E+000  6.00000000E-003  2.12703892E+016  2.81425329E+002  1.09453964E-010  5.93631497E-005
  7.00000000E-001               12                1               -1  9.43218866E-004  0.00000000E+000  0.00000000E+000  5.73357695E-018  0.00000000E+000  0.00000000E+000  6.00000000E-003  2.05234727E+016  2.81425331E+002  1.15937744E-010  6.05129120E-005
  7.00000000E-001               13                1               -1  9.43218866E-004  0.00000000E+000  0.00000000E+000  3.67073970E-014  0.00000000E+000  0.00000000E+000  6.00000000E-003  1.53231130E+014  2.81425393E+002  1.22544869E-010  6.16412567E-005
  7.00000000E-001               14                1               -1  9.43218864E-004  0.00000000E+000  0.00000000E+000  1.70261877E-010  0.00000000E+000  0.00000000E+000  6.00000000E-003  3.27052551E+010  2.81427741E+002  1.29273361E-010  6.27493944E-005
  7.00000000E-001               15                1               -1  9.43211455E-004  0.00000000E+000  0.00000000E+000  5.85690372E-007  0.00000000E+000  0.00000000E+000  6.00000000E-003  9.34973829E+006  2.81506476E+002  1.36131255E-010  6.38403610E-005
  7.50000000E-001                1                1               -1  3.26525033E-003  9.32652503E-002  3.26525033E-003  4.04400106E-026  4.04400106E-026  4.04400106E-026  6.00000000E-003  2.06365196E+016  2.81425329E+002  1.22758179E-010  6.16770013E-005
  7.50000000E-001                2                1               -1  1.13389804E-002  8.13389804E-002  1.33898045E-003  6.36425847E-016  6.36425847E-016  6.36425847E-016  6.00000000E-003  3.06001905E+015  2.81425328E+002  3.11228348E-010  8.41006761E-005
  7.50000000E-001                3                1               -1  2.21105104E-002  7.21105104E-002  2.11051044E-003  7.06492437E-020  7.06492437E-020  7.06492437E-020  6.00000000E-003  1.80146044E+016  2.81425329E+002  2.02843923E-010  7.29167167E-005
  7.50000000E-001                4                1               -1  3.21105104E-002  6.21105104E-002  2.11051044E-003  7.06492437E-020  7.06492437E-020  7.06492437E-020  6.00000000E-003  1.80146044E+016  2.81425329E+002  2.02843923E-010  7.29167167E-005
  7.50000000E-001                5                1               -1  4.21105104E-002  5.21105104E-002  2.11051044E-003  7.06492437E-020  7.06492437E-020  7.06492437E-020  6.00000000E-003  1.80146044E+016  2.81425329E+002  2.02843923E-010  7.29167167E-005
  7.50000000E-001                6                1               -1  5.25437835E-002  4.25437835E-002  2.54378352E-003  6.97711433E-039  6.97711433E-039  6.97711433E-039  6.00000000E-003  2.52820773E+016  2.81425329E+002  5.56424291E-011  4.73778263E-005
  7.50000000E-001                7                1               -1  6.07723854E-002  3.07723854E-002  7.72385360E-004  1.07830579E-038  1.07830579E-038  1.07830579E-038  6.00000000E-003  2.50899388E+016  2.81425329E+002  5.73797408E-011  4.78658709E-005
  7.50000000E-001                8                1               -1  7.43579856E-002  2.43579856E-002  4.35798564E-003  4.66207715E-010  4.66207715E-010  4.66207715E-010  6.00000000E-003  3.94521410E+009  2.81425672E+002  7.02590899E-010  1.10325005E-004
  7.50000000E-001                9                1               -1  8.13788224E-002  1.13788224E-002  1.37882235E-003  9.32571166E-039  9.32571166E-039  9.32571166E-039  6.00000000E-003  2.51804968E+016  2.81425329E+002  5.65532406E-011  4.76349379E-005
  7.50000000E-001               10                1               -1  9.05979474E-002  5.97947408E-004  5.97947408E-004 -5.93987855E-039 -5.93987855E-039 -5.93987855E-039  6.00000000E-003  1.07829690E+017  2.97999868E+002  5.28959901E-023  4.66511248E-009
  7.50000000E-001               11                1               -1  9.43218866E-004  0.00000000E+000  0.00000000E+000  5.77059144E-024  0.00000000E+000  0.00000000E+000  6.00000000E-003  2.14363619E+016  2.81425329E+002  1.06259067E-010  5.87798451E-005
  7.50000000E-001               12                1               -1  9.43218866E-004  0.00000000E+000  0.00000000E+000  6.29905375E-020  0.00000000E+000  0.00000000E+000  6.00000000E-003  2.11037904E+016  2.81425330E+002  1.12680290E-010  5.99407847E-005
  7.50000000E-001               13                1               -1  9.43218866E-004  0.00000000E+000  0.00000000E+000  4.78370323E-016  0.00000000E+000  0.00000000E+000  6.00000000E-003  7.59034727E+015  2.81425339E+002  1.19226030E-010  6.10796866E-005
  7.50000000E-001               14                1               -1  9.43218866E-004  0.00000000E+000  0.00000000E+000  2.59879131E-012  0.00000000E+000  0.00000000E+000  6.00000000E-003  2.16114837E+012  2.81425728E+002  1.25894010E-010  6.21977691E-005
  7.50000000E-001               15                1               -1  9.43218738E-004  0.00000000E+000  0.00000000E+000  1.03519366E-008  0.00000000E+000  0.00000000E+000  6.00000000E-003  5.33360808E+008  2.81439503E+002  1.32683738E-010  6.32964741E-005
  8.00000000E-001                1                1               -1  3.26525033E-003  9.32652503E-002  3.26525033E-003  5.29784453E-028  5.29784453E-028  5.29784453E-028  6.00000000E-003  2.07868246E+016  2.81425329E+002  1.19437403E-010  6.11157607E-005
  8.00000000E-001                2                1               -1  1.13389804E-002  8.13389804E-002  1.33898045E-003  6.39622079E-017  6.39622079E-017  6.39622079E-017  6.00000000E-003  1.12779530E+016  2.81425329E+002  3.06689566E-010  8.36898465E-005
  8.00000000E-001                3                1               -1  2.21105104E-002  7.21105104E-002  2.11051044E-003  3.27892761E-021  3.27892761E-021  3.27892761E-021  6.00000000E-003  1.81194168E+016  2.81425329E+002  1.98912279E-010  7.24425344E-005
  8.00000000E-001                4                1               -1  3.21105104E-002  6.21105104E-002  2.11051044E-003  3.27892761E-021  3.27892761E-021  3.27892761E-021  6.00000000E-003  1.81194168E+016  2.81425329E+002  1.98912279E-010  7.24425344E-005
  8.00000000E-001                5                1               -1  4.21105104E-002  5.21105104E-002  2.11051044E-003  3.27892761E-021  3.27892761E-021  3.27892761E-021  6.00000000E-003  1.81194168E+016  2.81425329E+002  1.98912279E-010  7.24425344E-005
  8.00000000E-001                6                1               -1  5.25437835E-002  4.25437835E-002  2.54378352E-003  1.66826398E-042  1.66826398E-042  1.66826398E-042  6.00000000E-003  2.55760092E+016  2.81425329E+002  5.31006135E-011  4.66451275E-005
  8.00000000E-001                7                1               -1  6.07723854E-002  3.07723854E-002  7.72385360E-004  1.96921245E-041  1.96921245E-041  1.96921245E-041  6.00000000E-003  2.53764586E+016  2.81425329E+002  5.48112873E-011  4.71407446E-005
  8.00000000E-001                8                1               -1  7.43579857E-002  2.43579857E-002  4.35798566E-003  1.23285376E-010  1.23285376E-010  1.23285376E-010  6.00000000E-003  1.49611262E+010  2.81425514E+002  6.96629812E-010  1.10012102E-004
  8.00000000E-001                9                1               -1  8.13788224E-002  1.13788224E-002  1.37882235E-003  1.13050892E-041  1.13050892E-041  1.13050892E-041  6.00000000E-003  2.54704925E+016  2.81425329E+002  5.39973910E-011  4.69062481E-005
  8.00000000E-001               10                1               -1  9.05979474E-002  5.97947408E-004  5.97947408E-004 -8.02909118E-039 -8.02909118E-039 -8.02909118E-039  6.00000000E-003  1.08054237E+017  2.97999998E+002  1.03312481E-025  5.83139066E-010
  8.00000000E-001               11                1               -1  9.43218866E-004  0.00000000E+000  0.00000000E+000  4.77415370E-026  0.00000000E+000  0.00000000E+000  6.00000000E-003  2.16065632E+016  2.81425329E+002  1.03095912E-010  5.81907006E-005
  8.00000000E-001               12                1               -1  9.43218866E-004  0.00000000E+000  0.00000000E+000  6.32060334E-022  0.00000000E+000  0.00000000E+000  6.00000000E-003  2.12703892E+016  2.81425329E+002  1.09453964E-010  5.93631497E-005
  8.00000000E-001               13                1               -1  9.43218866E-004  0.00000000E+000  0.00000000E+000  5.73357695E-018  0.00000000E+000  0.00000000E+000  6.00000000E-003  2.05234727E+016  2.81425331E+002  1.15937744E-010  6.05129120E-005
  8.00000000E-001               14                1               -1  9.43218866E-004  0.00000000E+000  0.00000000E+000  3.67073970E-014  0.00000000E+000  0.00000000E+000  6.00000000E-003  1.53231130E+014  2.81425393E+002  1.22544869E-010  6.16412567E-005
  8.00000000E-001               15                1               -1  9.43218864E-004  0.00000000E+000  0.00000000E+000  1.70261877E-010  0.00000000E+000  0.00000000E+000  6.00000000E-003  3.27052551E+010  2.81427741E+002  1.29273361E-010  6.27493944E-005
  8.50000000E-001                1                1               -1  3.26525033E-003  9.32652503E-002  3.26525033E-003 -1.16779810E-030 -1.16779810E-030 -1.16779810E-030  6.00000000E-003  2.09407317E+016  2.81425329E+002  1.16147155E-010  6.05493237E-005
  8.50000000E-001                2                1               -1  1.13389804E-002  8.13389804E-002  1.33898045E-003  6.28294865E-018  6.28294865E-018  6.28294865E-018  6.00000000E-003  1.54896820E+016  2.81425329E+002  3.02173077E-010  8.32769914E-005
  8.50000000E-001                3                1               -1  2.21105104E-002  7.21105104E-002  2.11051044E-003  1.46039163E-022  1.46039163E-022  1.46039163E-022  6.00000000E-003  1.82183994E+016  2.81425329E+002  1.95006390E-010  7.19652302E-005
  8.50000000E-001                4                1               -1  3.21105104E-002  6.21105104E-002  2.11051044E-003  1.46039163E-022  1.46039163E-022  1.46039163E-022  6.00000000E-003  1.82183994E+016  2.81425329E+002  1.95006390E-010  7.19652302E-005
  8.50000000E-001                5                1               -1  4.21105104E-002  5.21105104E-002  2.11051044E-003  1.46039163E-022  1.46039163E-022  1.46039163E-022  6.00000000E-003  1.82183994E+016  2.81425329E+002  1.95006390E-010  7.19652302E-005
  8.50000000E-001                6                1               -1  5.25437835E-002  4.25437835E-002  2.54378352E-003 -6.33238733E-044 -6.33238733E-044 -6.33238733E-044  6.00000000E-003  2.58815564E+016  2.81425329E+002  5.05987983E-011  4.59007560E-005
  8.50000000E-001                7                1               -1  6.07723854E-002  3.07723854E-002  7.72385360E-004 -2.29942559E-044 -2.29942559E-044 -2.29942559E-044  6.00000000E-003  2.56740835E+016  2.81425329E+002  5.22824135E-011  4.64043094E-005
  8.50000000E-001                8                1               -1  7.43579857E-002  2.43579857E-002  4.35798566E-003  3.23549563E-011  3.23549563E-011  3.23549563E-011  6.00000000E-003  5.71698297E+010  2.81425428E+002  6.90685779E-010  1.09698312E-004
  8.50000000E-001                9                1               -1  8.13788224E-002  1.13788224E-002  1.37882235E-003 -4.81572205E-044 -4.81572205E-044 -4.81572205E-044  6.00000000E-003  2.57718312E+016  2.81425329E+002  5.14813191E-011  4.61660793E-005
  8.50000000E-001               10                1               -1  9.05979474E-002  5.97947408E-004  5.97947408E-004  9.28105510E-041  9.28105510E-041  9.28105510E-041  6.00000000E-003  1.08082371E+017  2.98000000E+002  2.01782189E-028  7.28923833E-011
  8.50000000E-001               11                1               -1  9.43218866E-004  0.00000000E+000  0.00000000E+000  3.56371576E-028  0.00000000E+000  0.00000000E+000  6.00000000E-003  2.17812338E+016  2.81425329E+002  9.99648200E-011  5.75955373E-005
  8.50000000E-001               12                1               -1  9.43218866E-004  0.00000000E+000  0.00000000E+000  5.77059144E-024  0.00000000E+000  0.00000000E+000  6.00000000E-003  2.14363619E+016  2.81425329E+002  1.06259067E-010  5.87798451E-005
  8.50000000E-001               13                1               -1  9.43218866E-004  0.00000000E+000  0.00000000E+000  6.29905375E-020  0.00000000E+000  0.00000000E+000  6.00000000E-003  2.11037904E+016  2.81425330E+002  1.12680290E-010  5.99407847E-005
  8.50000000E-001               14                1               -1  9.43218866E-004  0.00000000E+000  0.00000000E+000  4.78370323E-016  0.00000000E+000  0.00000000E+000  6.00000000E-003  7.59034727E+015  2.81425339E+002  1.19226030E-010  6.10796866E-005
  8.50000000E-001               15                1               -1  9.43218866E-004  0.00000000E+000  0.00000000E+000  2.59879131E-012  0.00000000E+000  0.00000000E+000  6.00000000E-003  2.16114837E+012  2.81425728E+002  1.25894010E-010  6.21977691E-005
  9.00000000E-001                1                1               -1  3.26525033E-003  9.32652503E-002  3.26525033E-003  1.59749623E-033  1.59749623E-033  1.59749623E-033  6.00000000E-003  2.10983921E+016  2.81425329E+002  1.12887721E-010  5.99775433E-005
  9.00000000E-001                2                1               -1  1.13389804E-002  8.13389804E-002  1.33898045E-003  6.02930037E-019  6.02930037E-019  6.02930037E-019  6.00000000E-003  1.61389785E+016  2.81425329E+002  2.97678992E-010  8.28620805E-005
  9.00000000E-001                3                1               -1  2.21105104E-002  7.21105104E-002  2.11051044E-003  6.23488095E-024  6.23488095E-024  6.23488095E-024  6.00000000E-003  1.83187693E+016  2.81425329E+002  1.91126427E-010  7.14847416E-005
  9.00000000E-001                4                1               -1  3.21105104E-002  6.21105104E-002  2.11051044E-003  6.23488095E-024  6.23488095E-024  6.23488095E-024  6.00000000E-003  1.83187693E+016  2.81425329E+002  1.91126427E-010  7.14847416E-005
  9.00000000E-001                5                1               -1  4.21105104E-002  5.21105104E-002  2.11051044E-003  6.23488095E-024  6.23488095E-024  6.23488095E-024  6.00000000E-003  1.83187693E+016  2.81425329E+002  1.91126427E-010  7.14847416E-005
  9.00000000E-001                6                1               -1  5.25437835E-002  4.25437835E-002  2.54378352E-003 -1.39845376E-046 -1.39845376E-046 -1.39845376E-046  6.00000000E-003  2.61995391E+016  2.81425329E+002  4.81376324E-011  4.51441361E-005
  9.00000000E-001                7                1               -1  6.07723854E-002  3.07723854E-002  7.72385360E-004 -2.65872903E-046 -2.65872903E-046 -2.65872903E-046  6.00000000E-003  2.59835818E+016  2.81425329E+002  4.97937478E-011  4.56560193E-005
  9.00000000E-001                8                1               -1  7.43579857E-002  2.43579857E-002  4.35798566E-003  8.42614837E-012  8.42614837E-012  8.42614837E-012  6.00000000E-003  2.20147366E+011  2.81425382E+002  6.84758803E-010  1.09383626E-004
  9.00000000E-001                9                1               -1  8.13788224E-002  1.13788224E-002  1.37882235E-003 -2.36148048E-046 -2.36148048E-046 -2.36148048E-046  6.00000000E-003  2.60853053E+016  2.81425329E+002  4.90056628E-011  4.54138715E-005
  9.00000000E-001               10                1               -1  9.05979474E-002  5.97947408E-004  5.97947408E-004  1.25454549E-040  1.25454549E-040  1.25454549E-040  6.00000000E-003  1.08085888E+017  2.98000000E+002  3.94105837E-031  9.11154791E-012
  9.00000000E-001               11                1               -1  9.43218866E-004  0.00000000E+000  0.00000000E+000 -7.35838113E-033  0.00000000E+000  0.00000000E+000  6.00000000E-003  2.19605799E+016  2.81425329E+002  9.68661222E-011  5.69941668E-005
  9.00000000E-001               12                1               -1  9.43218866E-004  0.00000000E+000  0.00000000E+000  4.77415370E-026  0.00000000E+000  0.00000000E+000  6.00000000E-003  2.16065632E+016  2.81425329E+002  1.03095912E-010  5.81907006E-005
  9.00000000E-001               13                1               -1  9.43218866E-004  0.00000000E+000  0.00000000E+000  6.32060334E-022  0.00000000E+000  0.00000000E+000  6.00000000E-003  2.12703892E+016  2.81425329E+002  1.09453964E-010  5.93631497E-005
  9.00000000E-001               14                1               -1  9.43218866E-004  0.00000000E+000  0.00000000E+000  5.73357695E-018  0.00000000E+000  0.00000000E+000  6.00000000E-003  2.05234727E+016  2.81425331E+002  1.15937744E-010  6.05129120E-005
  9.00000000E-001               15                1               -1  9.43218866E-004  0.00000000E+000  0.00000000E+000  3.67073970E-014  0.00000000E+000  0.00000000E+000  6.00000000E-003  1.53231130E+014  2.81425393E+002  1.22544869E-010  6.16412567E-005
  9.50000000E-001                1                1               -1  3.26525033E-003  9.32652503E-002  3.26525033E-003 -1.59321417E-036 -1.59321417E-036 -1.59321417E-036  6.00000000E-003  2.12599658E+016  2.81425329E+002  1.09659394E-010  5.94002654E-005
  9.50000000E-001                2                1               -1  1.13389804E-002  8.13389804E-002  1.33898045E-003  5.64971307E-020  5.64971307E-020  5.64971307E-020  6.00000000E-003  1.62663340E+016  2.81425329E+002  2.93207423E-010  8.24450827E-005
  9.50000000E-001                3                1               -1  2.21105104E-002  7.21105104E-002  2.11051044E-003  2.54856459E-025  2.54856459E-025  2.54856459E-025  6.00000000E-003  1.84209158E+016  2.81425329E+002  1.87272564E-010  7.10010040E-005
  9.50000000E-001                4                1               -1  3.21105104E-002  6.21105104E-002  2.11051044E-003  2.54856459E-025  2.54856459E-025  2.54856459E-025  6.00000000E-003  1.84209158E+016  2.81425329E+002  1.87272564E-010  7.10010040E-005
  9.50000000E-001                5                1               -1  4.21105104E-002  5.21105104E-002  2.11051044E-003  2.54856459E-025  2.54856459E-025  2.54856459E-025  6.00000000E-003  1.84209158E+016  2.81425329E+002  1.87272564E-010  7.10010040E-005
  9.50000000E-001                6                1               -1  5.25437835E-002  4.25437835E-002  2.54378352E-003  8.22539945E-049  8.22539945E-049  8.22539945E-049  6.00000000E-003  2.65308627E+016  2.81425329E+002  4.57177973E-011  4.43746428E-005
  9.50000000E-001                7                1               -1  6.07723854E-002  3.07723854E-002  7.72385360E-004 -1.07054137E-049 -1.07054137E-049 -1.07054137E-049  6.00000000E-003  2.63058001E+016  2.81425329E+002  4.73459494E-011  4.48952831E-005
  9.50000000E-001                8                1               -1  7.43579857E-002  2.43579857E-002  4.35798566E-003  2.17739726E-012  2.17739726E-012  2.17739726E-012  6.00000000E-003  8.54340501E+011  2.81425357E+002  6.78848910E-010  1.09068033E-004
  9.50000000E-001                9                1               -1  8.13788224E-002  1.13788224E-002  1.37882235E-003  3.91593060E-049  3.91593060E-049  3.91593060E-049  6.00000000E-003  2.64117888E+016  2.81425329E+002  4.65710918E-011  4.46490179E-005
  9.50000000E-001               10                1               -1  9.05979474E-002  5.97947408E-004  5.97947408E-004 -1.45016486E-042 -1.45016486E-042 -1.45016486E-042  6.00000000E-003  1.08086328E+017  2.98000000E+002  7.69737963E-034  1.13894349E-012
  9.50000000E-001               11                1               -1  9.43218866E-004  0.00000000E+000  0.00000000E+000 -2.11263461E-034  0.00000000E+000  0.00000000E+000  6.00000000E-003  2.21448216E+016  2.81425329E+002  9.38001605E-011  5.63863910E-005
  9.50000000E-001               12                1               -1  9.43218866E-004  0.00000000E+000  0.00000000E+000  3.56371576E-028  0.00000000E+000  0.00000000E+000  6.00000000E-003  2.17812338E+016  2.81425329E+002  9.99648200E-011  5.75955373E-005
  9.50000000E-001               13                1               -1  9.43218866E-004  0.00000000E+000  0.00000000E+000  5.77059144E-024  0.00000000E+000  0.00000000E+000  6.00000000E-003  2.14363619E+016  2.81425329E+002  1.06259067E-010  5.87798451E-005
  9.50000000E-001               14                1               -1  9.43218866E-004  0.00000000E+000  0.00000000E+000  6.29905375E-020  0.00000000E+000  0.00000000E+000  6.00000000E-003  2.11037904E+016  2.81425330E+002  1.12680290E-010  5.99407847E-005
  9.50000000E-001               15                1               -1  9.43218866E-004  0.00000000E+000  0.00000000E+000  4.78370323E-016  0.00000000E+000  0.00000000E+000  6.00000000E-003  7.59034727E+015  2.81425339E+002  1.19226030E-010  6.10796866E-005
  1.00000000E+000                1                1               -1  3.26525033E-003  9.32652503E-002  3.26525033E-003  9.65448462E-040  9.65448462E-040  9.65448462E-040  6.00000000E-003  2.14256231E+016  2.81425329E+002  1.06462478E-010  5.88173285E-005
  1.00000000E+000                2                1               -1  1.13389804E-002  8.13389804E-002  1.33898045E-003  5.16687762E-021  5.16687762E-021  5.16687762E-021  6.00000000E-003  1.63417243E+016  2.81425329E+002  2.88758484E-010  8.20259663E-005
  1.00000000E+000                3                1               -1  2.21105104E-002  7.21105104E-002  2.11051044E-003  9.96178325E-027  9.96178325E-027  9.96178325E-027  6.00000000E-003  1.85249094E+016  2.81425329E+002  1.83444978E-010  7.05139506E-005
  1.00000000E+000                4                1               -1  3.21105104E-002  6.21105104E-002  2.11051044E-003  9.96178325E-027  9.96178325E-027  9.96178325E-027  6.00000000E-003  1.85249094E+016  2.81425329E+002  1.83444978E-010  7.05139506E-005
  1.00000000E+000                5                1               -1  4.21105104E-002  5.21105104E-002  2.11051044E-003  9.96178325E-027  9.96178325E-027  9.96178325E-027  6.00000000E-003  1.85249094E+016  2.81425329E+002  1.83444978E-010  7.05139506E-005
  1.00000000E+000                6                1               -1  5.25437835E-002  4.25437835E-002  2.54378352E-003  1.39167107E-051  1.39167107E-051  1.39167107E-051  6.00000000E-003  2.68765307E+016  2.81425329E+002  4.33400097E-011  4.35915963E-005
  1.00000000E+000                7                1               -1  6.07723854E-002  3.07723854E-002  7.72385360E-004  3.98776804E-051  3.98776804E-051  3.98776804E-051  6.00000000E-003  2.66416744E+016  2.81425329E+002  4.49397108E-011  4.41214587E-005
  1.00000000E+000                8                1               -1  7.43579857E-002  2.43579857E-002  4.35798566E-003  5.58247917E-013  5.58247917E-013  5.58247917E-013  6.00000000E-003  3.34127497E+012  2.81425344E+002  6.72956137E-010  1.08751526E-004
  1.00000000E+000                9                1               -1  8.13788224E-002  1.13788224E-002  1.37882235E-003  3.54160757E-051  3.54160757E-051  3.54160757E-051  6.00000000E-003  2.67522488E+016  2.81425329E+002  4.41783098E-011  4.38708589E-005
  1.00000000E+000               10                1               -1  9.05979474E-002  5.97947408E-004  5.97947408E-004 -1.96022733E-042 -1.96022733E-042 -1.96022733E-042  6.00000000E-003  1.08086383E+017  2.98000000E+002  1.50339446E-036  1.42367936E-013
  1.00000000E+000               11                1               -1  9.43218866E-004  0.00000000E+000  0.00000000E+000 -2.23636790E-037  0.00000000E+000  0.00000000E+000  6.00000000E-003  2.23341935E+016  2.81425329E+002  9.07672880E-011  5.57720007E-005
  1.00000000E+000               12                1               -1  9.43218866E-004  0.00000000E+000  0.00000000E+000 -7.35838113E-033  0.00000000E+000  0.00000000E+000  6.00000000E-003  2.19605799E+016  2.81425329E+002  9.68661222E-011  5.69941668E-005
  1.00000000E+000               13                1               -1  9.43218866E-004  0.00000000E+000  0.00000000E+000  4.77415370E-026  0.00000000E+000  0.00000000E+000  6.00000000E-003  2.16065632E+016  2.81425329E+002  1.03095912E-010  5.81907006E-005
  1.00000000E+000               14                1               -1  9.43218866E-004  0.00000000E+000  0.00000000E+000  6.32060334E-022  0.00000000E+000  0.00000000E+000  6.00000000E-003  2.12703892E+016  2.81425329E+002  1.09453964E-010  5.93631497E-005
  1.00000000E+000               15                1               -1  9.43218866E-004  0.00000000E+000  0.00000000E+000  5.73357695E-018  0.00000000E+000  0.00000000E+000  6.00000000E-003  2.05234727E+016  2.81425331E+002  1.15937744E-010  6.05129120E-005
