-0.45000000E+002
-0.45000000E+002
-0.45000000E+002
-0.45000000E+002
-0.45000000E+002
-0.45000000E+002
-0.45000000E+002
-0.45000000E+002
-0.45000000E+002
-0.45000000E+002
-0.45000000E+002
-0.45000000E+002
-0.45000000E+002
-0.45000000E+002
-0.45000000E+002
-0.45000000E+002
-0.45000000E+002
-0.45000000E+002
-0.45000000E+002
-0.45000000E+002
-0.45000000E+002
-0.45000000E+002
-0.45000000E+002
-0.45000000E+002
-0.45000000E+002
-0.45000000E+002
-0.45000000E+002
-0.45000000E+002
-0.45000000E+002
-0.45000000E+002
-0.45000000E+002
-0.45000000E+002
-0.45000000E+002
-0.45000000E+002
-0.45000000E+002
-0.45000000E+002
-0.45000000E+002
-0.45000000E+002
-0.45000000E+002
-0.45000000E+002
-0.45000000E+002
-0.45000000E+002
-0.45000000E+002
-0.45000000E+002
-0.45000000E+002
-0.45000000E+002
-0.45000000E+002
-0.45000000E+002
-0.45000000E+002
-0.45000000E+002
-0.45000000E+002
-0.45000000E+002
-0.45000000E+002
-0.45000000E+002
-0.45000000E+002
-0.45000000E+002
-0.45000000E+002
-0.45000000E+002
-0.45000000E+002
-0.45000000E+002
-0.45000000E+002
-0.45000000E+002
-0.45000000E+002
-0.45000000E+002
 0.00000000E+000
 0.00000000E+000
 0.00000000E+000
 0.00000000E+000
 0.00000000E+000
 0.00000000E+000
 0.00000000E+000
 0.00000000E+000
 0.00000000E+000
 0.00000000E+000
 0.00000000E+000
 0.00000000E+000
 0.00000000E+000
 0.00000000E+000
 0.00000000E+000
 0.00000000E+000
 0.45000000E+002
 0.45000000E+002
 0.45000000E+002
 0.45000000E+002
 0.00000000E+000
 0.00000000E+000
 0.00000000E+000
 0.00000000E+000
 0.45000000E+002
 0.45000000E+002
 0.45000000E+002
 0.45000000E+002
 0.45000000E+002
 0.45000000E+002
 0.45000000E+002
 0.45000000E+002
 0.45000000E+002
 0.45000000E+002
 0.45000000E+002
 0.45000000E+002
 0.45000000E+002
 0.45000000E+002
 0.45000000E+002
 0.45000000E+002
 0.45000000E+002
 0.45000000E+002
 0.45000000E+002
 0.45000000E+002
 0.00000000E+000
 0.00000000E+000
 0.00000000E+000
 0.00000000E+000
 0.00000000E+000
 0.00000000E+000
 0.00000000E+000
 0.00000000E+000
 0.00000000E+000
 0.00000000E+000
 0.00000000E+000
 0.00000000E+000
 0.45000000E+002
 0.45000000E+002
 0.45000000E+002
 0.45000000E+002
 0.45000000E+002
 0.45000000E+002
 0.45000000E+002
 0.45000000E+002
 0.45000000E+002
 0.45000000E+002
 0.45000000E+002
 0.45000000E+002
 0.45000000E+002
 0.45000000E+002
 0.45000000E+002
 0.45000000E+002
 0.00000000E+000
 0.00000000E+000
 0.00000000E+000
 0.00000000E+000
 0.00000000E+000
 0.00000000E+000
 0.00000000E+000
 0.00000000E+000
 0.00000000E+000
 0.00000000E+000
 0.00000000E+000
 0.00000000E+000
 0.00000000E+000
 0.00000000E+000
 0.00000000E+000
 0.00000000E+000
 0.45000000E+002
 0.45000000E+002
 0.45000000E+002
 0.45000000E+002
 0.45000000E+002
 0.45000000E+002
 0.45000000E+002
 0.45000000E+002
 0.45000000E+002
 0.45000000E+002
 0.45000000E+002
 0.45000000E+002
 0.00000000E+000
 0.00000000E+000
 0.00000000E+000
 0.00000000E+000
 0.00000000E+000
 0.00000000E+000
 0.00000000E+000
 0.00000000E+000
 0.00000000E+000
 0.00000000E+000
 0.00000000E+000
 0.00000000E+000
 0.00000000E+000
 0.00000000E+000
 0.00000000E+000
 0.00000000E+000
 0.45000000E+002
 0.45000000E+002
 0.45000000E+002
 0.45000000E+002
 0.45000000E+002
 0.45000000E+002
 0.45000000E+002
 0.45000000E+002
 0.45000000E+002
 0.45000000E+002
 0.45000000E+002
 0.45000000E+002
