{
    "authors": [
        "jose.lorenzo@bsc.es"
    ],
    "comparisons": [
        {
            "file": "TS-WIRE-MIXED.ensi.MAGNE-000002",
            "method": "absolute",
            "tolerance": 1e-7
        },
        {
            "file": "TS-WIRE-MIXED.ensi.CURNZ-000002",
            "method": "absolute",
            "tolerance": 1e-7
        },
        {
            "file": "TS-WIRE-MIXED.ensi.JOULN-000002",
            "method": "absolute",
            "tolerance": 1e-7
        },
        {
            "file": "TS-WIRE-MIXED.ensi.FORCN-000002",
            "method": "absolute",
            "tolerance": 1e-7
        }
    ],
    "description": "Basic test of magnet",
    "enabled": false,
    "exclude": [
        "special"
    ],
    "executions": [
        {
            "mpi": 8,
            "openmp": 0
        }
    ],
    "modules": [
        "magnet"
    ],
    "name": "TS-WIRE-MIXED",
    "postprocess": "alya2pos"
}  
