GiD Post Results File 1.0
 
GaussPoints GP Elemtype Hexahedra
Number of Gauss Points:   1
Natural Coordinates: Internal
End GaussPoints
Result ANIP1 ALYA  0.00000000E+00 Vector OnGaussPoints GP
ComponentNames ANIP1_X,ANIP1_Y,ANIP1_Z
Values
          1  0.00000000E+000  0.00000000E+000  0.00000000E+000
          2  0.00000000E+000  0.00000000E+000  0.00000000E+000
          3  0.00000000E+000  0.00000000E+000  0.00000000E+000
          4  0.00000000E+000  0.00000000E+000  0.00000000E+000
          5  0.00000000E+000  0.00000000E+000  0.00000000E+000
          6  0.00000000E+000  0.00000000E+000  0.00000000E+000
          7  0.00000000E+000  0.00000000E+000  0.00000000E+000
          8  0.00000000E+000  0.00000000E+000  0.00000000E+000
          9  0.00000000E+000  0.00000000E+000  0.00000000E+000
         10  0.00000000E+000  0.00000000E+000  0.00000000E+000
         11  0.00000000E+000  0.00000000E+000  0.00000000E+000
         12  0.00000000E+000  0.00000000E+000  0.00000000E+000
         13  0.00000000E+000  0.00000000E+000  0.00000000E+000
         14  0.00000000E+000  0.00000000E+000  0.00000000E+000
         15  0.00000000E+000  0.00000000E+000  0.00000000E+000
         16  0.00000000E+000  0.00000000E+000  0.00000000E+000
         17  0.00000000E+000  0.00000000E+000  0.00000000E+000
         18  0.00000000E+000  0.00000000E+000  0.00000000E+000
         19  0.00000000E+000  0.00000000E+000  0.00000000E+000
         20  0.00000000E+000  0.00000000E+000  0.00000000E+000
         21  0.00000000E+000  0.00000000E+000  0.00000000E+000
         22  0.00000000E+000  0.00000000E+000  0.00000000E+000
         23  0.20000000E+001  0.00000000E+000  0.00000000E+000
         24  0.00000000E+000  0.00000000E+000  0.00000000E+000
         25  0.00000000E+000  0.00000000E+000  0.00000000E+000
         26  0.00000000E+000  0.00000000E+000  0.00000000E+000
         27  0.00000000E+000  0.00000000E+000  0.00000000E+000
         28  0.00000000E+000  0.00000000E+000  0.00000000E+000
         29  0.00000000E+000  0.00000000E+000  0.00000000E+000
         30  0.00000000E+000  0.00000000E+000  0.00000000E+000
         31  0.00000000E+000  0.00000000E+000  0.00000000E+000
         32  0.00000000E+000  0.00000000E+000  0.00000000E+000
         33  0.00000000E+000  0.00000000E+000  0.00000000E+000
         34  0.00000000E+000  0.00000000E+000  0.00000000E+000
         35  0.00000000E+000  0.00000000E+000  0.00000000E+000
         36  0.00000000E+000  0.00000000E+000  0.00000000E+000
         37  0.00000000E+000  0.00000000E+000  0.00000000E+000
         38  0.00000000E+000  0.00000000E+000  0.00000000E+000
         39  0.00000000E+000  0.00000000E+000  0.00000000E+000
         40  0.00000000E+000  0.00000000E+000  0.00000000E+000
         41  0.00000000E+000  0.00000000E+000  0.00000000E+000
         42  0.00000000E+000  0.00000000E+000  0.00000000E+000
         43  0.00000000E+000  0.00000000E+000  0.00000000E+000
         44  0.00000000E+000  0.00000000E+000  0.00000000E+000
         45  0.00000000E+000  0.00000000E+000  0.00000000E+000
         46  0.00000000E+000  0.00000000E+000  0.00000000E+000
         47  0.00000000E+000  0.00000000E+000  0.00000000E+000
         48  0.00000000E+000  0.00000000E+000  0.00000000E+000
         49  0.00000000E+000  0.00000000E+000  0.00000000E+000
         50  0.00000000E+000  0.00000000E+000  0.00000000E+000
         51  0.00000000E+000  0.00000000E+000  0.00000000E+000
         52  0.00000000E+000  0.00000000E+000  0.00000000E+000
         53  0.00000000E+000  0.00000000E+000  0.00000000E+000
         54  0.00000000E+000  0.00000000E+000  0.00000000E+000
         55  0.00000000E+000  0.00000000E+000  0.00000000E+000
         56  0.00000000E+000  0.00000000E+000  0.00000000E+000
         57  0.00000000E+000  0.00000000E+000  0.00000000E+000
         58  0.00000000E+000  0.00000000E+000  0.00000000E+000
         59  0.00000000E+000  0.00000000E+000  0.00000000E+000
         60  0.00000000E+000  0.00000000E+000  0.00000000E+000
         61  0.00000000E+000  0.00000000E+000  0.00000000E+000
         62  0.00000000E+000  0.00000000E+000  0.00000000E+000
         63  0.00000000E+000  0.00000000E+000  0.00000000E+000
         64  0.00000000E+000  0.00000000E+000  0.00000000E+000
End values

GaussPoints GP Elemtype Hexahedra
Number of Gauss Points:   1
Natural Coordinates: Internal
End GaussPoints
Result ANIP2 ALYA  0.00000000E+00 Vector OnGaussPoints GP
ComponentNames ANIP2_X,ANIP2_Y,ANIP2_Z
Values
          1  0.00000000E+000  0.00000000E+000  0.00000000E+000
          2  0.00000000E+000  0.00000000E+000  0.00000000E+000
          3  0.00000000E+000  0.00000000E+000  0.00000000E+000
          4  0.00000000E+000  0.00000000E+000  0.00000000E+000
          5  0.00000000E+000  0.00000000E+000  0.00000000E+000
          6  0.00000000E+000  0.00000000E+000  0.00000000E+000
          7  0.00000000E+000  0.00000000E+000  0.00000000E+000
          8  0.00000000E+000  0.00000000E+000  0.00000000E+000
          9  0.00000000E+000  0.00000000E+000  0.00000000E+000
         10  0.00000000E+000  0.00000000E+000  0.00000000E+000
         11  0.00000000E+000  0.00000000E+000  0.00000000E+000
         12  0.00000000E+000  0.00000000E+000  0.00000000E+000
         13  0.00000000E+000  0.00000000E+000  0.00000000E+000
         14  0.00000000E+000  0.00000000E+000  0.00000000E+000
         15  0.00000000E+000  0.00000000E+000  0.00000000E+000
         16  0.00000000E+000  0.00000000E+000  0.00000000E+000
         17  0.00000000E+000  0.00000000E+000  0.00000000E+000
         18  0.00000000E+000  0.00000000E+000  0.00000000E+000
         19  0.00000000E+000  0.00000000E+000  0.00000000E+000
         20  0.00000000E+000  0.00000000E+000  0.00000000E+000
         21  0.00000000E+000  0.00000000E+000  0.00000000E+000
         22  0.00000000E+000  0.00000000E+000  0.00000000E+000
         23  0.00000000E+000  0.20000000E+001  0.00000000E+000
         24  0.00000000E+000  0.00000000E+000  0.00000000E+000
         25  0.00000000E+000  0.00000000E+000  0.00000000E+000
         26  0.00000000E+000  0.00000000E+000  0.00000000E+000
         27  0.00000000E+000  0.00000000E+000  0.00000000E+000
         28  0.00000000E+000  0.00000000E+000  0.00000000E+000
         29  0.00000000E+000  0.00000000E+000  0.00000000E+000
         30  0.00000000E+000  0.00000000E+000  0.00000000E+000
         31  0.00000000E+000  0.00000000E+000  0.00000000E+000
         32  0.00000000E+000  0.00000000E+000  0.00000000E+000
         33  0.00000000E+000  0.00000000E+000  0.00000000E+000
         34  0.00000000E+000  0.00000000E+000  0.00000000E+000
         35  0.00000000E+000  0.00000000E+000  0.00000000E+000
         36  0.00000000E+000  0.00000000E+000  0.00000000E+000
         37  0.00000000E+000  0.00000000E+000  0.00000000E+000
         38  0.00000000E+000  0.00000000E+000  0.00000000E+000
         39  0.00000000E+000  0.00000000E+000  0.00000000E+000
         40  0.00000000E+000  0.00000000E+000  0.00000000E+000
         41  0.00000000E+000  0.00000000E+000  0.00000000E+000
         42  0.00000000E+000  0.00000000E+000  0.00000000E+000
         43  0.00000000E+000  0.00000000E+000  0.00000000E+000
         44  0.00000000E+000  0.00000000E+000  0.00000000E+000
         45  0.00000000E+000  0.00000000E+000  0.00000000E+000
         46  0.00000000E+000  0.00000000E+000  0.00000000E+000
         47  0.00000000E+000  0.00000000E+000  0.00000000E+000
         48  0.00000000E+000  0.00000000E+000  0.00000000E+000
         49  0.00000000E+000  0.00000000E+000  0.00000000E+000
         50  0.00000000E+000  0.00000000E+000  0.00000000E+000
         51  0.00000000E+000  0.00000000E+000  0.00000000E+000
         52  0.00000000E+000  0.00000000E+000  0.00000000E+000
         53  0.00000000E+000  0.00000000E+000  0.00000000E+000
         54  0.00000000E+000  0.00000000E+000  0.00000000E+000
         55  0.00000000E+000  0.00000000E+000  0.00000000E+000
         56  0.00000000E+000  0.00000000E+000  0.00000000E+000
         57  0.00000000E+000  0.00000000E+000  0.00000000E+000
         58  0.00000000E+000  0.00000000E+000  0.00000000E+000
         59  0.00000000E+000  0.00000000E+000  0.00000000E+000
         60  0.00000000E+000  0.00000000E+000  0.00000000E+000
         61  0.00000000E+000  0.00000000E+000  0.00000000E+000
         62  0.00000000E+000  0.00000000E+000  0.00000000E+000
         63  0.00000000E+000  0.00000000E+000  0.00000000E+000
         64  0.00000000E+000  0.00000000E+000  0.00000000E+000
End values

GaussPoints GP Elemtype Hexahedra
Number of Gauss Points:   1
Natural Coordinates: Internal
End GaussPoints
Result ANIP3 ALYA  0.00000000E+00 Vector OnGaussPoints GP
ComponentNames ANIP3_X,ANIP3_Y,ANIP3_Z
Values
          1  0.00000000E+000  0.00000000E+000  0.00000000E+000
          2  0.00000000E+000  0.00000000E+000  0.00000000E+000
          3  0.00000000E+000  0.00000000E+000  0.00000000E+000
          4  0.00000000E+000  0.00000000E+000  0.00000000E+000
          5  0.00000000E+000  0.00000000E+000  0.00000000E+000
          6  0.00000000E+000  0.00000000E+000  0.00000000E+000
          7  0.00000000E+000  0.00000000E+000  0.00000000E+000
          8  0.00000000E+000  0.00000000E+000  0.00000000E+000
          9  0.00000000E+000  0.00000000E+000  0.00000000E+000
         10  0.00000000E+000  0.00000000E+000  0.00000000E+000
         11  0.00000000E+000  0.00000000E+000  0.00000000E+000
         12  0.00000000E+000  0.00000000E+000  0.00000000E+000
         13  0.00000000E+000  0.00000000E+000  0.00000000E+000
         14  0.00000000E+000  0.00000000E+000  0.00000000E+000
         15  0.00000000E+000  0.00000000E+000  0.00000000E+000
         16  0.00000000E+000  0.00000000E+000  0.00000000E+000
         17  0.00000000E+000  0.00000000E+000  0.00000000E+000
         18  0.00000000E+000  0.00000000E+000  0.00000000E+000
         19  0.00000000E+000  0.00000000E+000  0.00000000E+000
         20  0.00000000E+000  0.00000000E+000  0.00000000E+000
         21  0.00000000E+000  0.00000000E+000  0.00000000E+000
         22  0.00000000E+000  0.00000000E+000  0.00000000E+000
         23  0.00000000E+000  0.00000000E+000  0.20000000E+001
         24  0.00000000E+000  0.00000000E+000  0.00000000E+000
         25  0.00000000E+000  0.00000000E+000  0.00000000E+000
         26  0.00000000E+000  0.00000000E+000  0.00000000E+000
         27  0.00000000E+000  0.00000000E+000  0.00000000E+000
         28  0.00000000E+000  0.00000000E+000  0.00000000E+000
         29  0.00000000E+000  0.00000000E+000  0.00000000E+000
         30  0.00000000E+000  0.00000000E+000  0.00000000E+000
         31  0.00000000E+000  0.00000000E+000  0.00000000E+000
         32  0.00000000E+000  0.00000000E+000  0.00000000E+000
         33  0.00000000E+000  0.00000000E+000  0.00000000E+000
         34  0.00000000E+000  0.00000000E+000  0.00000000E+000
         35  0.00000000E+000  0.00000000E+000  0.00000000E+000
         36  0.00000000E+000  0.00000000E+000  0.00000000E+000
         37  0.00000000E+000  0.00000000E+000  0.00000000E+000
         38  0.00000000E+000  0.00000000E+000  0.00000000E+000
         39  0.00000000E+000  0.00000000E+000  0.00000000E+000
         40  0.00000000E+000  0.00000000E+000  0.00000000E+000
         41  0.00000000E+000  0.00000000E+000  0.00000000E+000
         42  0.00000000E+000  0.00000000E+000  0.00000000E+000
         43  0.00000000E+000  0.00000000E+000  0.00000000E+000
         44  0.00000000E+000  0.00000000E+000  0.00000000E+000
         45  0.00000000E+000  0.00000000E+000  0.00000000E+000
         46  0.00000000E+000  0.00000000E+000  0.00000000E+000
         47  0.00000000E+000  0.00000000E+000  0.00000000E+000
         48  0.00000000E+000  0.00000000E+000  0.00000000E+000
         49  0.00000000E+000  0.00000000E+000  0.00000000E+000
         50  0.00000000E+000  0.00000000E+000  0.00000000E+000
         51  0.00000000E+000  0.00000000E+000  0.00000000E+000
         52  0.00000000E+000  0.00000000E+000  0.00000000E+000
         53  0.00000000E+000  0.00000000E+000  0.00000000E+000
         54  0.00000000E+000  0.00000000E+000  0.00000000E+000
         55  0.00000000E+000  0.00000000E+000  0.00000000E+000
         56  0.00000000E+000  0.00000000E+000  0.00000000E+000
         57  0.00000000E+000  0.00000000E+000  0.00000000E+000
         58  0.00000000E+000  0.00000000E+000  0.00000000E+000
         59  0.00000000E+000  0.00000000E+000  0.00000000E+000
         60  0.00000000E+000  0.00000000E+000  0.00000000E+000
         61  0.00000000E+000  0.00000000E+000  0.00000000E+000
         62  0.00000000E+000  0.00000000E+000  0.00000000E+000
         63  0.00000000E+000  0.00000000E+000  0.00000000E+000
         64  0.00000000E+000  0.00000000E+000  0.00000000E+000
End values

