 0.00000000E+000 -0.40000000E+000
 0.00000000E+000 -0.32000000E+000
 0.00000000E+000 -0.40000000E+000
 0.00000000E+000 -0.32000000E+000
 0.00000000E+000 -0.24000000E+000
 0.00000000E+000 -0.40000000E+000
 0.00000000E+000 -0.32000000E+000
 0.00000000E+000 -0.24000000E+000
 0.00000000E+000 -0.24000000E+000
 0.00000000E+000 -0.16000000E+000
 0.00000000E+000 -0.40000000E+000
 0.00000000E+000 -0.32000000E+000
 0.00000000E+000 -0.16000000E+000
 0.00000000E+000 -0.24000000E+000
 0.00000000E+000 -0.16000000E+000
 0.00000000E+000 -0.40000000E+000
 0.00000000E+000 -0.80000000E-001
 0.00000000E+000 -0.32000000E+000
 0.00000000E+000 -0.80000000E-001
 0.00000000E+000 -0.16000000E+000
 0.00000000E+000 -0.24000000E+000
 0.00000000E+000 -0.80000000E-001
 0.00000000E+000  0.00000000E+000
 0.00000000E+000 -0.80000000E-001
 0.00000000E+000 -0.40000000E+000
 0.00000000E+000 -0.16000000E+000
 0.00000000E+000  0.00000000E+000
 0.00000000E+000 -0.32000000E+000
 0.00000000E+000 -0.24000000E+000
 0.00000000E+000  0.00000000E+000
 0.00000000E+000 -0.80000000E-001
 0.00000000E+000 -0.16000000E+000
 0.00000000E+000  0.00000000E+000
 0.00000000E+000 -0.80000000E-001
 0.00000000E+000  0.00000000E+000
 0.00000000E+000  0.00000000E+000
