MESH alefor-space-time_repart_QUA04 dimension 2 Elemtype Quadrilateral Nnode 4
coordinates
1	 0.00000000E+000	 0.10000000E+001
2	 0.00000000E+000	 0.80000000E+000
3	 0.20000000E+000	 0.10000000E+001
4	 0.20000000E+000	 0.80000000E+000
5	 0.00000000E+000	 0.59999999E+000
6	 0.40000000E+000	 0.10000000E+001
7	 0.40000000E+000	 0.80000000E+000
8	 0.20000000E+000	 0.59999999E+000
9	 0.40000000E+000	 0.59999999E+000
10	 0.00000000E+000	 0.40000000E+000
11	 0.59999999E+000	 0.10000000E+001
12	 0.59999999E+000	 0.80000000E+000
13	 0.20000000E+000	 0.40000000E+000
14	 0.59999999E+000	 0.59999999E+000
15	 0.40000000E+000	 0.40000000E+000
16	 0.80000000E+000	 0.10000000E+001
17	 0.00000000E+000	 0.20000000E+000
18	 0.80000000E+000	 0.80000000E+000
19	 0.20000000E+000	 0.20000000E+000
20	 0.59999999E+000	 0.40000000E+000
21	 0.80000000E+000	 0.59999999E+000
22	 0.40000000E+000	 0.20000000E+000
23	 0.00000000E+000	 0.00000000E+000
24	 0.59999999E+000	 0.20000000E+000
25	 0.10000000E+001	 0.10000000E+001
26	 0.80000000E+000	 0.40000000E+000
27	 0.20000000E+000	 0.00000000E+000
28	 0.10000000E+001	 0.80000000E+000
29	 0.10000000E+001	 0.59999999E+000
30	 0.40000000E+000	 0.00000000E+000
31	 0.80000000E+000	 0.20000000E+000
32	 0.10000000E+001	 0.40000000E+000
33	 0.59999999E+000	 0.00000000E+000
34	 0.10000000E+001	 0.20000000E+000
35	 0.80000000E+000	 0.00000000E+000
36	 0.10000000E+001	 0.00000000E+000
end coordinates
elements
1	27	19	17	23	12
2	30	22	19	27	12
3	33	24	22	30	12
4	35	31	24	33	12
5	36	34	31	35	12
6	19	13	10	17	12
7	22	15	13	19	12
8	24	20	15	22	12
9	31	26	20	24	12
10	34	32	26	31	12
11	13	8	5	10	12
12	15	9	8	13	12
13	20	14	9	15	12
14	26	21	14	20	12
15	32	29	21	26	12
16	8	4	2	5	12
17	9	7	4	8	12
18	14	12	7	9	12
19	21	18	12	14	12
20	29	28	18	21	12
21	4	3	1	2	12
22	7	6	3	4	12
23	12	11	6	7	12
24	18	16	11	12	12
25	28	25	16	18	12
end elements

