 0.00000000E+000 -0.50000000E+000
 0.00000000E+000 -0.40000000E+000
 0.00000000E+000 -0.50000000E+000
 0.00000000E+000 -0.40000000E+000
 0.00000000E+000 -0.30000000E+000
 0.00000000E+000 -0.50000000E+000
 0.00000000E+000 -0.40000000E+000
 0.00000000E+000 -0.30000000E+000
 0.00000000E+000 -0.30000000E+000
 0.00000000E+000 -0.20000000E+000
 0.00000000E+000 -0.50000000E+000
 0.00000000E+000 -0.40000000E+000
 0.00000000E+000 -0.20000000E+000
 0.00000000E+000 -0.30000000E+000
 0.00000000E+000 -0.20000000E+000
 0.00000000E+000 -0.50000000E+000
 0.00000000E+000 -0.10000000E+000
 0.00000000E+000 -0.40000000E+000
 0.00000000E+000 -0.10000000E+000
 0.00000000E+000 -0.20000000E+000
 0.00000000E+000 -0.30000000E+000
 0.00000000E+000 -0.10000000E+000
 0.00000000E+000  0.00000000E+000
 0.00000000E+000 -0.10000000E+000
 0.00000000E+000 -0.50000000E+000
 0.00000000E+000 -0.20000000E+000
 0.00000000E+000  0.00000000E+000
 0.00000000E+000 -0.40000000E+000
 0.00000000E+000 -0.30000000E+000
 0.00000000E+000  0.00000000E+000
 0.00000000E+000 -0.10000000E+000
 0.00000000E+000 -0.20000000E+000
 0.00000000E+000  0.00000000E+000
 0.00000000E+000 -0.10000000E+000
 0.00000000E+000  0.00000000E+000
 0.00000000E+000  0.00000000E+000
