{
    "authors": [
        "guillaume.houzeaux@bsc.es"
    ],
    "comparisons": [
        {
            "file": "coupling_outside_node2.post.res",
            "method": "absolute",
            "tolerance": 0
        }
    ],
    "description": "Interpolate with coupling although the node is out of the domain",
    "exclude": [
        "special"
    ],
    "executions": [
        {
            "commands": {
                "alya": "[RUN] [NP] 4 [ALYA] [NAME]1 [SEP] [NP] 4 [ALYA] [NAME]2",
                "postprocess": "[POST] [NAME]1; [POST] [NAME]2"
            },
            "mpi": 8,
            "openmp": 0
        }
    ],
    "modules": [
        "temper"
    ],
    "name": "coupling_outside_node",
    "postprocess": "alya2pos"
}