  NODES_PER_ELEMENT
   1 4
   2 4
   3 4
   4 4
   5 4
   6 4
   7 4
   8 4
   9 4
  END_NODES_PER_ELEMENT
  ELEMENTS
  1 15 13 14 16  
  2 12 10 13 15  
  3 7 4 10 12  
  4 13 9 11 14  
  5 10 8 9 13  
  6 4 3 8 10  
  7 9 1 5 11  
  8 8 2 1 9  
  9 3 6 2 8  
  END_ELEMENTS  
  COORDINATES  
   1   3.333333e-01  1.000000e+00   
   2   6.666667e-01  1.000000e+00   
   3   1.100000e+00  6.666667e-01   
   4   1.000000e+00  3.333333e-01   
   5   0.000000e+00  1.000000e+00   
   6   1.000000e+00  1.000000e+00   
   7   1.000000e+00  0.000000e+00   
   8   6.666667e-01  6.666667e-01   
   9   3.333333e-01  6.666667e-01   
   10   6.666667e-01  3.333333e-01   
   11   0.000000e+00  6.666667e-01   
   12   6.666667e-01  0.000000e+00   
   13   3.333333e-01  3.333333e-01   
   14   0.000000e+00  3.333333e-01   
   15   3.333333e-01  0.000000e+00   
   16   0.000000e+00  0.000000e+00   
  END_COORDINATES
  BOUNDARIES, ELEMENT
1  16 15   1 
2  14 16   1 
3  15 12   2 
4  7 4   3 
5  12 7   3 
6  11 14   4 
7  4 3   6 
8  1 5   7 
9  5 11   7 
10  2 1   8 
11  3 6   9 
12  6 2   9 
  END_BOUNDARIES

  MATERIALS, NUMBER=1, DEFAULT=1
  END_MATERIALS
  CHARACTERISTICS
  END_CHARACTERISTICS
