$-------------------------------------------------------------------
RUN_DATA
  ALYA:                   column 
  POSTPROCESS:            domain
  LIVE_INFORMATION:       Screen
END_RUN_DATA
$-------------------------------------------------------------------
PROBLEM_DATA
  TIME_COUPLING:          Global, Preescribed 
  TIME_INTERVAL=          0.0, 0.2
  TIME_STEP_SIZE:         1.0e-5
  NUMBER_OF_STEPS=        10000
  FRACTURE_PROBLEM:         On
  END_FRACTURE
  PARALL_SERVICE:         On
  END_PARALL
END_PROBLEM_DATA
$-------------------------------------------------------------------
PETSC:                   On
  CONFIGURATION_FILE:    petscconf
END_PETSC
$-------------------------------------------------------------------

