 0.00000000E+000
 0.10000000E+001
 0.10000000E+001
 0.00000000E+000
 0.00000000E+000
 0.10000000E+001
 0.10000000E+001
 0.00000000E+000
 0.95922252E-001
 0.59788155E+000
 0.10000000E+001
 0.99999999E+000
 0.10000000E+001
 0.10000000E+001
 0.10000000E+001
 0.10000000E+001
 0.10000000E+001
 0.99999999E+000
 0.99999999E+000
 0.10000000E+001
 0.10000000E+001
 0.10000000E+001
 0.10000000E+001
 0.10000000E+001
 0.99999999E+000
 0.10000000E+001
 0.59967233E+000
 0.95937283E-001
 0.00000000E+000
 0.00000000E+000
 0.95918984E-001
 0.59825197E+000
 0.10000000E+001
 0.99999999E+000
 0.10000000E+001
 0.10000000E+001
 0.10000000E+001
 0.10000000E+001
 0.10000000E+001
 0.99999999E+000
 0.99999999E+000
 0.10000000E+001
 0.10000000E+001
 0.10000000E+001
 0.10000000E+001
 0.10000000E+001
 0.99999999E+000
 0.10000000E+001
 0.59919381E+000
 0.95930619E-001
 0.00000000E+000
 0.00000000E+000
 0.00000000E+000
 0.00000000E+000
 0.99999999E+000
 0.99999999E+000
 0.99999999E+000
 0.99999999E+000
 0.00000000E+000
 0.00000000E+000
 0.87260930E-001
 0.87263782E-001
 0.53473345E+000
 0.53612685E+000
 0.10000000E+001
 0.10000000E+001
 0.99999993E+000
 0.99999994E+000
 0.99999990E+000
 0.99999990E+000
 0.10000000E+001
 0.10000000E+001
 0.10000000E+001
 0.10000000E+001
 0.99999999E+000
 0.99999999E+000
 0.99999999E+000
 0.99999999E+000
 0.87230152E-001
 0.87227592E-001
 0.53480312E+000
 0.53546108E+000
 0.10000000E+001
 0.10000000E+001
 0.99999993E+000
 0.99999993E+000
 0.99999990E+000
 0.99999991E+000
 0.10000000E+001
 0.10000000E+001
 0.10000000E+001
 0.10000000E+001
 0.99999999E+000
 0.99999999E+000
 0.99999999E+000
 0.99999999E+000
 0.87250530E-001
 0.87235727E-001
 0.53422893E+000
 0.53443892E+000
 0.10000000E+001
 0.10000000E+001
 0.99999993E+000
 0.99999993E+000
 0.99999990E+000
 0.99999989E+000
 0.10000000E+001
 0.10000000E+001
 0.10000000E+001
 0.10000000E+001
 0.99999999E+000
 0.99999999E+000
 0.99999999E+000
 0.99999999E+000
 0.99999999E+000
 0.99999999E+000
 0.99999999E+000
 0.99999999E+000
 0.99999999E+000
 0.99999999E+000
 0.99999999E+000
 0.99999999E+000
 0.10000000E+001
 0.10000000E+001
 0.10000000E+001
 0.10000000E+001
 0.99999991E+000
 0.99999991E+000
 0.99999994E+000
 0.99999993E+000
 0.10000000E+001
 0.10000000E+001
 0.53637051E+000
 0.53581335E+000
 0.87249083E-001
 0.87227418E-001
 0.00000000E+000
 0.00000000E+000
 0.00000000E+000
 0.00000000E+000
 0.77643530E-001
 0.77605131E-001
 0.77651628E-001
 0.77598678E-001
 0.45517290E+000
 0.45510981E+000
 0.45653659E+000
 0.45589425E+000
 0.10000000E+001
 0.10000000E+001
 0.10000000E+001
 0.10000000E+001
 0.99999989E+000
 0.99999989E+000
 0.99999989E+000
 0.99999989E+000
 0.99999673E+000
 0.99999674E+000
 0.99999677E+000
 0.99999680E+000
 0.99999872E+000
 0.99999872E+000
 0.99999873E+000
 0.99999873E+000
 0.99999976E+000
 0.99999975E+000
 0.99999976E+000
 0.99999976E+000
 0.99999996E+000
 0.99999996E+000
 0.99999996E+000
 0.99999996E+000
 0.99999999E+000
 0.99999999E+000
 0.99999999E+000
 0.99999999E+000
