 0.15849277E+000
 0.47121151E+000
 0.46956437E+000
 0.46745835E+000
 0.46476765E+000
 0.46133332E+000
 0.45695530E+000
 0.45138331E+000
 0.44430652E+000
 0.43534279E+000
 0.42402872E+000
 0.40981309E+000
 0.39205818E+000
 0.37005649E+000
 0.34307523E+000
 0.31044712E+000
 0.27173417E+000
 0.22699814E+000
 0.17721004E+000
 0.12480149E+000
 0.74252216E-001
 0.32305428E-001
 0.66393740E-002
 0.10000000E-003
 0.10000000E-003
 0.10000000E-003
 0.15849277E+000
 0.47121151E+000
 0.46956437E+000
 0.46745835E+000
 0.46476765E+000
 0.46133332E+000
 0.45695530E+000
 0.45138331E+000
 0.44430652E+000
 0.43534279E+000
 0.42402872E+000
 0.40981309E+000
 0.39205818E+000
 0.37005649E+000
 0.34307523E+000
 0.31044712E+000
 0.27173417E+000
 0.22699814E+000
 0.17721004E+000
 0.12480149E+000
 0.74252216E-001
 0.32305428E-001
 0.66393740E-002
 0.10000000E-003
 0.10000000E-003
 0.10000000E-003
 0.24203595E+000
 0.21668759E+000
 0.39231668E+000
 0.42815892E+000
 0.44414912E+000
 0.44720521E+000
 0.44600180E+000
 0.44221758E+000
 0.43642377E+000
 0.42864743E+000
 0.41849291E+000
 0.40535253E+000
 0.38856824E+000
 0.36745935E+000
 0.34129618E+000
 0.30935520E+000
 0.27112296E+000
 0.22664518E+000
 0.17693032E+000
 0.12458039E+000
 0.74136193E-001
 0.32278841E-001
 0.66412278E-002
 0.10000000E-003
 0.10000000E-003
 0.10000000E-003
 0.24203595E+000
 0.21668759E+000
 0.39231668E+000
 0.42815892E+000
 0.44414912E+000
 0.44720521E+000
 0.44600180E+000
 0.44221758E+000
 0.43642377E+000
 0.42864743E+000
 0.41849291E+000
 0.40535253E+000
 0.38856824E+000
 0.36745935E+000
 0.34129618E+000
 0.30935520E+000
 0.27112296E+000
 0.22664518E+000
 0.17693032E+000
 0.12458039E+000
 0.74136193E-001
 0.32278841E-001
 0.66412278E-002
 0.10000000E-003
 0.10000000E-003
 0.10000000E-003
 0.23440085E+000
 0.25633240E+000
 0.38146409E+000
 0.41643309E+000
 0.43508338E+000
 0.44116711E+000
 0.44127379E+000
 0.43814115E+000
 0.43264563E+000
 0.42495518E+000
 0.41487142E+000
 0.40206847E+000
 0.38593162E+000
 0.36554838E+000
 0.34007845E+000
 0.30871156E+000
 0.27085426E+000
 0.22653659E+000
 0.17679099E+000
 0.12442233E+000
 0.74042667E-001
 0.32258736E-001
 0.66445151E-002
 0.10000000E-003
 0.10000000E-003
 0.10000000E-003
 0.23440085E+000
 0.25633240E+000
 0.38146409E+000
 0.41643309E+000
 0.43508338E+000
 0.44116711E+000
 0.44127379E+000
 0.43814115E+000
 0.43264563E+000
 0.42495518E+000
 0.41487142E+000
 0.40206847E+000
 0.38593162E+000
 0.36554838E+000
 0.34007845E+000
 0.30871156E+000
 0.27085426E+000
 0.22653659E+000
 0.17679099E+000
 0.12442233E+000
 0.74042667E-001
 0.32258736E-001
 0.66445151E-002
 0.10000000E-003
 0.10000000E-003
 0.10000000E-003
 0.24433436E+000
 0.25432853E+000
 0.37802793E+000
 0.41038281E+000
 0.42804984E+000
 0.43490683E+000
 0.43600312E+000
 0.43358287E+000
 0.42865032E+000
 0.42161512E+000
 0.41235826E+000
 0.40038195E+000
 0.38490038E+000
 0.36500646E+000
 0.33995565E+000
 0.30889482E+000
 0.27114662E+000
 0.22677249E+000
 0.17685024E+000
 0.12436579E+000
 0.73992094E-001
 0.32252480E-001
 0.66504219E-002
 0.10000000E-003
 0.10000000E-003
 0.10000000E-003
 0.24433436E+000
 0.25432853E+000
 0.37802793E+000
 0.41038281E+000
 0.42804984E+000
 0.43490683E+000
 0.43600312E+000
 0.43358287E+000
 0.42865032E+000
 0.42161512E+000
 0.41235826E+000
 0.40038195E+000
 0.38490038E+000
 0.36500646E+000
 0.33995565E+000
 0.30889482E+000
 0.27114662E+000
 0.22677249E+000
 0.17685024E+000
 0.12436579E+000
 0.73992094E-001
 0.32252480E-001
 0.66504219E-002
 0.10000000E-003
 0.10000000E-003
 0.10000000E-003
 0.22358019E+000
 0.24302357E+000
 0.37831844E+000
 0.41194040E+000
 0.42764311E+000
 0.43291458E+000
 0.43338495E+000
 0.43136433E+000
 0.42775979E+000
 0.42212259E+000
 0.41357087E+000
 0.40188466E+000
 0.38677706E+000
 0.36714332E+000
 0.34202045E+000
 0.31064183E+000
 0.27238657E+000
 0.22753036E+000
 0.17717118E+000
 0.12442746E+000
 0.73988861E-001
 0.32261841E-001
 0.66594309E-002
 0.10000000E-003
 0.10000000E-003
 0.10000000E-003
 0.22358019E+000
 0.24302357E+000
 0.37831844E+000
 0.41194040E+000
 0.42764311E+000
 0.43291458E+000
 0.43338495E+000
 0.43136433E+000
 0.42775979E+000
 0.42212259E+000
 0.41357087E+000
 0.40188466E+000
 0.38677706E+000
 0.36714332E+000
 0.34202045E+000
 0.31064183E+000
 0.27238657E+000
 0.22753036E+000
 0.17717118E+000
 0.12442746E+000
 0.73988861E-001
 0.32261841E-001
 0.66594309E-002
 0.10000000E-003
 0.10000000E-003
 0.10000000E-003
 0.26944480E+000
 0.27004986E+000
 0.37148938E+000
 0.40203664E+000
 0.41974187E+000
 0.42712296E+000
 0.42865477E+000
 0.42728977E+000
 0.42479407E+000
 0.42170652E+000
 0.41698918E+000
 0.40882971E+000
 0.39536411E+000
 0.37541316E+000
 0.34879336E+000
 0.31547844E+000
 0.27528873E+000
 0.22910259E+000
 0.17785885E+000
 0.12463459E+000
 0.74038643E-001
 0.32289485E-001
 0.66726669E-002
 0.10000000E-003
 0.10000000E-003
 0.10000000E-003
 0.26944480E+000
 0.27004986E+000
 0.37148938E+000
 0.40203664E+000
 0.41974187E+000
 0.42712296E+000
 0.42865477E+000
 0.42728977E+000
 0.42479407E+000
 0.42170652E+000
 0.41698918E+000
 0.40882971E+000
 0.39536411E+000
 0.37541316E+000
 0.34879336E+000
 0.31547844E+000
 0.27528873E+000
 0.22910259E+000
 0.17785885E+000
 0.12463459E+000
 0.74038643E-001
 0.32289485E-001
 0.66726669E-002
 0.10000000E-003
 0.10000000E-003
 0.10000000E-003
 0.20164098E+000
 0.21017621E+000
 0.35152541E+000
 0.40560673E+000
 0.42760816E+000
 0.43901645E+000
 0.44377202E+000
 0.44501452E+000
 0.44605212E+000
 0.44625475E+000
 0.44274603E+000
 0.43404744E+000
 0.41948101E+000
 0.39706446E+000
 0.36586561E+000
 0.32674875E+000
 0.28139411E+000
 0.23199456E+000
 0.17907157E+000
 0.12501871E+000
 0.74138857E-001
 0.32329404E-001
 0.66870937E-002
 0.10000000E-003
 0.10000000E-003
 0.10000000E-003
 0.20164098E+000
 0.21017621E+000
 0.35152541E+000
 0.40560673E+000
 0.42760816E+000
 0.43901645E+000
 0.44377202E+000
 0.44501452E+000
 0.44605212E+000
 0.44625475E+000
 0.44274603E+000
 0.43404744E+000
 0.41948101E+000
 0.39706446E+000
 0.36586561E+000
 0.32674875E+000
 0.28139411E+000
 0.23199456E+000
 0.17907157E+000
 0.12501871E+000
 0.74138857E-001
 0.32329404E-001
 0.66870937E-002
 0.10000000E-003
 0.10000000E-003
 0.10000000E-003
 0.17814641E+000
 0.23034433E+000
 0.34583559E+000
 0.39133506E+000
 0.41961609E+000
 0.43478408E+000
 0.44037160E+000
 0.44172806E+000
 0.44619171E+000
 0.45889627E+000
 0.47758393E+000
 0.49032401E+000
 0.48286755E+000
 0.45025937E+000
 0.40005976E+000
 0.34351588E+000
 0.28732937E+000
 0.23244561E+000
 0.17727645E+000
 0.12278470E+000
 0.72355662E-001
 0.31271343E-001
 0.63512439E-002
 0.10000000E-003
 0.10244487E-003
 0.10000000E-003
 0.17814641E+000
 0.23034433E+000
 0.34583559E+000
 0.39133506E+000
 0.41961609E+000
 0.43478408E+000
 0.44037160E+000
 0.44172806E+000
 0.44619171E+000
 0.45889627E+000
 0.47758393E+000
 0.49032401E+000
 0.48286755E+000
 0.45025937E+000
 0.40005976E+000
 0.34351588E+000
 0.28732937E+000
 0.23244561E+000
 0.17727645E+000
 0.12278470E+000
 0.72355662E-001
 0.31271343E-001
 0.63512439E-002
 0.10000000E-003
 0.10244487E-003
 0.10000000E-003
 0.46585730E+000
 0.41330690E+000
 0.41694125E+000
 0.43155737E+000
 0.43774771E+000
 0.44534170E+000
 0.45847295E+000
 0.47687594E+000
 0.49836620E+000
 0.51821969E+000
 0.53011256E+000
 0.52639235E+000
 0.49990930E+000
 0.45073263E+000
 0.38839363E+000
 0.32526981E+000
 0.26714977E+000
 0.21257385E+000
 0.15962812E+000
 0.10887842E+000
 0.62710566E-001
 0.25943145E-001
 0.46914249E-002
 0.10000000E-003
 0.11355990E-003
 0.10000000E-003
 0.46585730E+000
 0.41330690E+000
 0.41694125E+000
 0.43155737E+000
 0.43774771E+000
 0.44534170E+000
 0.45847295E+000
 0.47687594E+000
 0.49836620E+000
 0.51821969E+000
 0.53011256E+000
 0.52639235E+000
 0.49990930E+000
 0.45073263E+000
 0.38839363E+000
 0.32526981E+000
 0.26714977E+000
 0.21257385E+000
 0.15962812E+000
 0.10887842E+000
 0.62710566E-001
 0.25943145E-001
 0.46914249E-002
 0.10000000E-003
 0.11355990E-003
 0.10000000E-003
 0.30206507E+000
 0.38801723E+000
 0.48728211E+000
 0.48108746E+000
 0.48674546E+000
 0.48083254E+000
 0.46960311E+000
 0.46341617E+000
 0.46845161E+000
 0.48199760E+000
 0.49118417E+000
 0.48085170E+000
 0.44612542E+000
 0.39510685E+000
 0.33945467E+000
 0.28552601E+000
 0.23414970E+000
 0.18447048E+000
 0.13670683E+000
 0.91640688E-001
 0.51228143E-001
 0.19947771E-001
 0.29388491E-002
 0.10173461E-003
 0.10740115E-003
 0.10000000E-003
 0.30206507E+000
 0.38801723E+000
 0.48728211E+000
 0.48108746E+000
 0.48674546E+000
 0.48083254E+000
 0.46960311E+000
 0.46341617E+000
 0.46845161E+000
 0.48199760E+000
 0.49118417E+000
 0.48085170E+000
 0.44612542E+000
 0.39510685E+000
 0.33945467E+000
 0.28552601E+000
 0.23414970E+000
 0.18447048E+000
 0.13670683E+000
 0.91640688E-001
 0.51228143E-001
 0.19947771E-001
 0.29388491E-002
 0.10173461E-003
 0.10740115E-003
 0.10000000E-003
 0.24002191E+000
 0.28306576E+000
 0.35638469E+000
 0.40858347E+000
 0.42344902E+000
 0.42393089E+000
 0.42776589E+000
 0.43610329E+000
 0.44510893E+000
 0.45151356E+000
 0.45318518E+000
 0.44663208E+000
 0.42682538E+000
 0.39062763E+000
 0.34077563E+000
 0.28496690E+000
 0.22998932E+000
 0.17862848E+000
 0.13130772E+000
 0.87583844E-001
 0.48665998E-001
 0.18671347E-001
 0.25799605E-002
 0.10365371E-003
 0.11077525E-003
 0.10000000E-003
 0.24002191E+000
 0.28306576E+000
 0.35638469E+000
 0.40858347E+000
 0.42344902E+000
 0.42393089E+000
 0.42776589E+000
 0.43610329E+000
 0.44510893E+000
 0.45151356E+000
 0.45318518E+000
 0.44663208E+000
 0.42682538E+000
 0.39062763E+000
 0.34077563E+000
 0.28496690E+000
 0.22998932E+000
 0.17862848E+000
 0.13130772E+000
 0.87583844E-001
 0.48665998E-001
 0.18671347E-001
 0.25799605E-002
 0.10365371E-003
 0.11077525E-003
 0.10000000E-003
 0.57379669E+000
 0.34702043E+000
 0.32681985E+000
 0.32791816E+000
 0.34493257E+000
 0.37843124E+000
 0.39800944E+000
 0.40740759E+000
 0.41871644E+000
 0.43662768E+000
 0.45445551E+000
 0.46323640E+000
 0.45920668E+000
 0.44076521E+000
 0.40511370E+000
 0.35111099E+000
 0.28518563E+000
 0.21827077E+000
 0.15790616E+000
 0.10550249E+000
 0.60524798E-001
 0.24954374E-001
 0.44805455E-002
 0.10000000E-003
 0.14438428E-003
 0.10000000E-003
 0.57379669E+000
 0.34702043E+000
 0.32681985E+000
 0.32791816E+000
 0.34493257E+000
 0.37843124E+000
 0.39800944E+000
 0.40740759E+000
 0.41871644E+000
 0.43662768E+000
 0.45445551E+000
 0.46323640E+000
 0.45920668E+000
 0.44076521E+000
 0.40511370E+000
 0.35111099E+000
 0.28518563E+000
 0.21827077E+000
 0.15790616E+000
 0.10550249E+000
 0.60524798E-001
 0.24954374E-001
 0.44805455E-002
 0.10000000E-003
 0.14438428E-003
 0.10000000E-003
 0.27387164E+000
 0.25118866E+000
 0.33195520E+000
 0.35328579E+000
 0.37048033E+000
 0.38384001E+000
 0.39471090E+000
 0.40221024E+000
 0.41127843E+000
 0.43358953E+000
 0.47327043E+000
 0.51501821E+000
 0.53520271E+000
 0.52114750E+000
 0.47825209E+000
 0.41775551E+000
 0.34615429E+000
 0.26901867E+000
 0.19498187E+000
 0.13055606E+000
 0.76884029E-001
 0.34144497E-001
 0.76483518E-002
 0.10000000E-003
 0.12640131E-003
 0.10000000E-003
 0.27387164E+000
 0.25118866E+000
 0.33195520E+000
 0.35328579E+000
 0.37048033E+000
 0.38384001E+000
 0.39471090E+000
 0.40221024E+000
 0.41127843E+000
 0.43358953E+000
 0.47327043E+000
 0.51501821E+000
 0.53520271E+000
 0.52114750E+000
 0.47825209E+000
 0.41775551E+000
 0.34615429E+000
 0.26901867E+000
 0.19498187E+000
 0.13055606E+000
 0.76884029E-001
 0.34144497E-001
 0.76483518E-002
 0.10000000E-003
 0.12640131E-003
 0.10000000E-003
 0.23964532E+000
 0.26065391E+000
 0.37431367E+000
 0.38362742E+000
 0.39325990E+000
 0.40253394E+000
 0.40524960E+000
 0.40396028E+000
 0.41116015E+000
 0.44642380E+000
 0.51629467E+000
 0.59109605E+000
 0.62712305E+000
 0.60328403E+000
 0.53427857E+000
 0.44898117E+000
 0.36277114E+000
 0.28037895E+000
 0.20423027E+000
 0.13767576E+000
 0.81889681E-001
 0.37141236E-001
 0.87349555E-002
 0.10033337E-003
 0.11394307E-003
 0.10009149E-003
 0.23964532E+000
 0.26065391E+000
 0.37431367E+000
 0.38362742E+000
 0.39325990E+000
 0.40253394E+000
 0.40524960E+000
 0.40396028E+000
 0.41116015E+000
 0.44642380E+000
 0.51629467E+000
 0.59109605E+000
 0.62712305E+000
 0.60328403E+000
 0.53427857E+000
 0.44898117E+000
 0.36277114E+000
 0.28037895E+000
 0.20423027E+000
 0.13767576E+000
 0.81889681E-001
 0.37141236E-001
 0.87349555E-002
 0.10033337E-003
 0.11394307E-003
 0.10009149E-003
 0.20926572E+000
 0.24383815E+000
 0.35283423E+000
 0.38416032E+000
 0.39921368E+000
 0.41125622E+000
 0.42370125E+000
 0.43519678E+000
 0.44285275E+000
 0.45909538E+000
 0.51234779E+000
 0.59256772E+000
 0.64269291E+000
 0.62501665E+000
 0.55169124E+000
 0.45665560E+000
 0.36135067E+000
 0.27602150E+000
 0.20133798E+000
 0.13658972E+000
 0.81623479E-001
 0.37127684E-001
 0.87238202E-002
 0.10035316E-003
 0.10797312E-003
 0.10021242E-003
 0.20926572E+000
 0.24383815E+000
 0.35283423E+000
 0.38416032E+000
 0.39921368E+000
 0.41125622E+000
 0.42370125E+000
 0.43519678E+000
 0.44285275E+000
 0.45909538E+000
 0.51234779E+000
 0.59256772E+000
 0.64269291E+000
 0.62501665E+000
 0.55169124E+000
 0.45665560E+000
 0.36135067E+000
 0.27602150E+000
 0.20133798E+000
 0.13658972E+000
 0.81623479E-001
 0.37127684E-001
 0.87238202E-002
 0.10035316E-003
 0.10797312E-003
 0.10021242E-003
 0.23872909E+000
 0.25325501E+000
 0.37229924E+000
 0.39763490E+000
 0.40540481E+000
 0.40819749E+000
 0.41659956E+000
 0.43406903E+000
 0.44965126E+000
 0.45415581E+000
 0.47458619E+000
 0.54211392E+000
 0.61494155E+000
 0.62520711E+000
 0.56436823E+000
 0.46595275E+000
 0.36216631E+000
 0.27288887E+000
 0.19888557E+000
 0.13546461E+000
 0.81254387E-001
 0.37034339E-001
 0.86851047E-002
 0.10018521E-003
 0.10379124E-003
 0.10047593E-003
 0.23872909E+000
 0.25325501E+000
 0.37229924E+000
 0.39763490E+000
 0.40540481E+000
 0.40819749E+000
 0.41659956E+000
 0.43406903E+000
 0.44965126E+000
 0.45415581E+000
 0.47458619E+000
 0.54211392E+000
 0.61494155E+000
 0.62520711E+000
 0.56436823E+000
 0.46595275E+000
 0.36216631E+000
 0.27288887E+000
 0.19888557E+000
 0.13546461E+000
 0.81254387E-001
 0.37034339E-001
 0.86851047E-002
 0.10018521E-003
 0.10379124E-003
 0.10047593E-003
 0.21797489E+000
 0.23639992E+000
 0.34796647E+000
 0.38833465E+000
 0.40475192E+000
 0.40773728E+000
 0.40730315E+000
 0.41453919E+000
 0.43051632E+000
 0.44012741E+000
 0.44540433E+000
 0.49022363E+000
 0.57520288E+000
 0.61922774E+000
 0.57750597E+000
 0.47674098E+000
 0.36408781E+000
 0.27076745E+000
 0.19678489E+000
 0.13438200E+000
 0.80827643E-001
 0.36883075E-001
 0.86237847E-002
 0.10075044E-003
 0.10193677E-003
 0.10144702E-003
 0.21797489E+000
 0.23639992E+000
 0.34796647E+000
 0.38833465E+000
 0.40475192E+000
 0.40773728E+000
 0.40730315E+000
 0.41453919E+000
 0.43051632E+000
 0.44012741E+000
 0.44540433E+000
 0.49022363E+000
 0.57520288E+000
 0.61922774E+000
 0.57750597E+000
 0.47674098E+000
 0.36408781E+000
 0.27076745E+000
 0.19678489E+000
 0.13438200E+000
 0.80827643E-001
 0.36883075E-001
 0.86237847E-002
 0.10075044E-003
 0.10193677E-003
 0.10144702E-003
 0.24948863E+000
 0.25946260E+000
 0.40419858E+000
 0.41079216E+000
 0.41669894E+000
 0.41630579E+000
 0.40882649E+000
 0.39993798E+000
 0.39916055E+000
 0.40599246E+000
 0.41224807E+000
 0.44267655E+000
 0.53111826E+000
 0.61243787E+000
 0.59777194E+000
 0.49500115E+000
 0.36969318E+000
 0.26961265E+000
 0.19483845E+000
 0.13324353E+000
 0.80333460E-001
 0.36688011E-001
 0.85461490E-002
 0.10052231E-003
 0.10022537E-003
 0.10255763E-003
 0.24948863E+000
 0.25946260E+000
 0.40419858E+000
 0.41079216E+000
 0.41669894E+000
 0.41630579E+000
 0.40882649E+000
 0.39993798E+000
 0.39916055E+000
 0.40599246E+000
 0.41224807E+000
 0.44267655E+000
 0.53111826E+000
 0.61243787E+000
 0.59777194E+000
 0.49500115E+000
 0.36969318E+000
 0.26961265E+000
 0.19483845E+000
 0.13324353E+000
 0.80333460E-001
 0.36688011E-001
 0.85461490E-002
 0.10052231E-003
 0.10022537E-003
 0.10255763E-003
 0.18936579E+000
 0.21860852E+000
 0.34043241E+000
 0.39089931E+000
 0.41789931E+000
 0.42985647E+000
 0.42963776E+000
 0.41998558E+000
 0.40620427E+000
 0.39448706E+000
 0.38626551E+000
 0.39196434E+000
 0.46312643E+000
 0.59061627E+000
 0.62961387E+000
 0.52539782E+000
 0.37969389E+000
 0.26904446E+000
 0.19252035E+000
 0.13169017E+000
 0.79526722E-001
 0.36308389E-001
 0.84148358E-002
 0.10010829E-003
 0.10128825E-003
 0.10505411E-003
 0.18936579E+000
 0.21860852E+000
 0.34043241E+000
 0.39089931E+000
 0.41789931E+000
 0.42985647E+000
 0.42963776E+000
 0.41998558E+000
 0.40620427E+000
 0.39448706E+000
 0.38626551E+000
 0.39196434E+000
 0.46312643E+000
 0.59061627E+000
 0.62961387E+000
 0.52539782E+000
 0.37969389E+000
 0.26904446E+000
 0.19252035E+000
 0.13169017E+000
 0.79526722E-001
 0.36308389E-001
 0.84148358E-002
 0.10010829E-003
 0.10128825E-003
 0.10505411E-003
 0.27580322E+000
 0.27572122E+000
 0.36826429E+000
 0.40694038E+000
 0.42022783E+000
 0.42766303E+000
 0.43221661E+000
 0.43148519E+000
 0.42362085E+000
 0.41468627E+000
 0.42619888E+000
 0.48101588E+000
 0.57476325E+000
 0.64847683E+000
 0.61340619E+000
 0.47965718E+000
 0.34184829E+000
 0.24419981E+000
 0.17635307E+000
 0.12094922E+000
 0.72447592E-001
 0.32243965E-001
 0.69927179E-002
 0.10000000E-003
 0.11261995E-003
 0.10539072E-003
 0.27580322E+000
 0.27572122E+000
 0.36826429E+000
 0.40694038E+000
 0.42022783E+000
 0.42766303E+000
 0.43221661E+000
 0.43148519E+000
 0.42362085E+000
 0.41468627E+000
 0.42619888E+000
 0.48101588E+000
 0.57476325E+000
 0.64847683E+000
 0.61340619E+000
 0.47965718E+000
 0.34184829E+000
 0.24419981E+000
 0.17635307E+000
 0.12094922E+000
 0.72447592E-001
 0.32243965E-001
 0.69927179E-002
 0.10000000E-003
 0.11261995E-003
 0.10539072E-003
 0.26542839E+000
 0.43268286E+000
 0.50300293E+000
 0.45531392E+000
 0.46717878E+000
 0.46650014E+000
 0.46449341E+000
 0.47333123E+000
 0.50095920E+000
 0.54367710E+000
 0.58514321E+000
 0.60839902E+000
 0.60294578E+000
 0.55491536E+000
 0.46216370E+000
 0.35483658E+000
 0.26593922E+000
 0.20069353E+000
 0.14855555E+000
 0.10194202E+000
 0.59645693E-001
 0.25067970E-001
 0.45801040E-002
 0.10000000E-003
 0.12774751E-003
 0.10241589E-003
 0.26542839E+000
 0.43268286E+000
 0.50300293E+000
 0.45531392E+000
 0.46717878E+000
 0.46650014E+000
 0.46449341E+000
 0.47333123E+000
 0.50095920E+000
 0.54367710E+000
 0.58514321E+000
 0.60839902E+000
 0.60294578E+000
 0.55491536E+000
 0.46216370E+000
 0.35483658E+000
 0.26593922E+000
 0.20069353E+000
 0.14855555E+000
 0.10194202E+000
 0.59645693E-001
 0.25067970E-001
 0.45801040E-002
 0.10000000E-003
 0.12774751E-003
 0.10241589E-003
 0.27830615E+000
 0.33219552E+000
 0.45927524E+000
 0.44292332E+000
 0.40444548E+000
 0.40188585E+000
 0.41666148E+000
 0.43829014E+000
 0.46607869E+000
 0.49741068E+000
 0.52278262E+000
 0.52770897E+000
 0.50040434E+000
 0.44029107E+000
 0.36172734E+000
 0.28610469E+000
 0.22483602E+000
 0.17508381E+000
 0.13083081E+000
 0.89396869E-001
 0.51230091E-001
 0.20553421E-001
 0.31662797E-002
 0.10356882E-003
 0.13155170E-003
 0.10677669E-003
 0.27830615E+000
 0.33219552E+000
 0.45927524E+000
 0.44292332E+000
 0.40444548E+000
 0.40188585E+000
 0.41666148E+000
 0.43829014E+000
 0.46607869E+000
 0.49741068E+000
 0.52278262E+000
 0.52770897E+000
 0.50040434E+000
 0.44029107E+000
 0.36172734E+000
 0.28610469E+000
 0.22483602E+000
 0.17508381E+000
 0.13083081E+000
 0.89396869E-001
 0.51230091E-001
 0.20553421E-001
 0.31662797E-002
 0.10356882E-003
 0.13155170E-003
 0.10677669E-003
 0.19543713E+000
 0.25152566E+000
 0.40619509E+000
 0.53794073E+000
 0.57352037E+000
 0.54936632E+000
 0.50730895E+000
 0.47141436E+000
 0.45416347E+000
 0.45636804E+000
 0.46874669E+000
 0.47948950E+000
 0.47751813E+000
 0.45138040E+000
 0.39543394E+000
 0.31998252E+000
 0.24675891E+000
 0.18764531E+000
 0.13972930E+000
 0.96328642E-001
 0.56226987E-001
 0.23265394E-001
 0.39859576E-002
 0.10180881E-003
 0.14053893E-003
 0.10313848E-003
 0.19543713E+000
 0.25152566E+000
 0.40619509E+000
 0.53794073E+000
 0.57352037E+000
 0.54936632E+000
 0.50730895E+000
 0.47141436E+000
 0.45416347E+000
 0.45636804E+000
 0.46874669E+000
 0.47948950E+000
 0.47751813E+000
 0.45138040E+000
 0.39543394E+000
 0.31998252E+000
 0.24675891E+000
 0.18764531E+000
 0.13972930E+000
 0.96328642E-001
 0.56226987E-001
 0.23265394E-001
 0.39859576E-002
 0.10180881E-003
 0.14053893E-003
 0.10313848E-003
 0.39755085E+000
 0.27162433E+000
 0.25573714E+000
 0.28186769E+000
 0.37132552E+000
 0.44658081E+000
 0.48026237E+000
 0.47932536E+000
 0.46272421E+000
 0.45034693E+000
 0.45224807E+000
 0.46328137E+000
 0.47065976E+000
 0.46534593E+000
 0.44113088E+000
 0.39002838E+000
 0.31549762E+000
 0.23755273E+000
 0.17182012E+000
 0.11863397E+000
 0.71997877E-001
 0.32407839E-001
 0.72111021E-002
 0.10000000E-003
 0.12270315E-003
 0.10530229E-003
 0.39755085E+000
 0.27162433E+000
 0.25573714E+000
 0.28186769E+000
 0.37132552E+000
 0.44658081E+000
 0.48026237E+000
 0.47932536E+000
 0.46272421E+000
 0.45034693E+000
 0.45224807E+000
 0.46328137E+000
 0.47065976E+000
 0.46534593E+000
 0.44113088E+000
 0.39002838E+000
 0.31549762E+000
 0.23755273E+000
 0.17182012E+000
 0.11863397E+000
 0.71997877E-001
 0.32407839E-001
 0.72111021E-002
 0.10000000E-003
 0.12270315E-003
 0.10530229E-003
 0.23323230E+000
 0.31464407E+000
 0.60706460E+000
 0.65567725E+000
 0.53296675E+000
 0.43428764E+000
 0.40912919E+000
 0.41772219E+000
 0.42318633E+000
 0.42365360E+000
 0.43410884E+000
 0.46109092E+000
 0.48860480E+000
 0.49224751E+000
 0.46653508E+000
 0.41809179E+000
 0.34897311E+000
 0.26786596E+000
 0.19321012E+000
 0.13275525E+000
 0.81974077E-001
 0.38544288E-001
 0.95448363E-002
 0.10218324E-003
 0.10065076E-003
 0.11309680E-003
 0.23323230E+000
 0.31464407E+000
 0.60706460E+000
 0.65567725E+000
 0.53296675E+000
 0.43428764E+000
 0.40912919E+000
 0.41772219E+000
 0.42318633E+000
 0.42365360E+000
 0.43410884E+000
 0.46109092E+000
 0.48860480E+000
 0.49224751E+000
 0.46653508E+000
 0.41809179E+000
 0.34897311E+000
 0.26786596E+000
 0.19321012E+000
 0.13275525E+000
 0.81974077E-001
 0.38544288E-001
 0.95448363E-002
 0.10218324E-003
 0.10065076E-003
 0.11309680E-003
 0.13346556E+000
 0.42045090E+000
 0.42543660E+000
 0.37591339E+000
 0.38706627E+000
 0.40652032E+000
 0.41525605E+000
 0.41623642E+000
 0.41660182E+000
 0.42294608E+000
 0.44054374E+000
 0.46738270E+000
 0.48880410E+000
 0.48728587E+000
 0.45846765E+000
 0.40894719E+000
 0.34229381E+000
 0.26491012E+000
 0.19242213E+000
 0.13258292E+000
 0.81981431E-001
 0.38627559E-001
 0.95756313E-002
 0.10460874E-003
 0.10130574E-003
 0.10632696E-003
 0.13346556E+000
 0.42045090E+000
 0.42543660E+000
 0.37591339E+000
 0.38706627E+000
 0.40652032E+000
 0.41525605E+000
 0.41623642E+000
 0.41660182E+000
 0.42294608E+000
 0.44054374E+000
 0.46738270E+000
 0.48880410E+000
 0.48728587E+000
 0.45846765E+000
 0.40894719E+000
 0.34229381E+000
 0.26491012E+000
 0.19242213E+000
 0.13258292E+000
 0.81981431E-001
 0.38627559E-001
 0.95756313E-002
 0.10460874E-003
 0.10130574E-003
 0.10632696E-003
