# ALYA Lagrangian postprocess  
#
# HEADER
# T , Column :   1
# ILAGR , Column :   2
# ITYPE , Column :   3
# EXIST , Column :   4
# COORX , Column :   5
# COORY , Column :   6
# COORZ , Column :   7
# VELOX , Column :   8
# VELOY , Column :   9
# VELOZ , Column :  10
# DTK , Column :  11
# CD , Column :  12
# TEMPK , Column :  13
# MASSK , Column :  14
# DIAMK , Column :  15
# DIAM0 , Column :  16
# MASS0 , Column :  17
#               T            ILAGR            ITYPE            EXIST            COORX            COORY            COORZ            VELOX            VELOY            VELOZ              DTK               CD            TEMPK            MASSK            DIAMK            DIAM0            MASS0            
  0.00000000E+000                1                1               -5  0.00000000E+000  0.00000000E+000  0.00000000E+000  0.00000000E+000  0.00000000E+000  0.00000000E+000  1.00000000E-002  0.00000000E+000  2.73150000E+002  3.35546646E-011  4.00000000E-005  4.00000000E-005  3.35546646E-011
  2.00000000E-002                1                1               -1  0.00000000E+000 -6.80570126E-004  0.00000000E+000  0.00000000E+000 -4.25716183E-002  0.00000000E+000  6.94444444E-003  2.67870915E+002  3.03064903E+002  3.07338130E-011  3.89451373E-005  4.00000000E-005  3.35546646E-011
  4.00000000E-002                1                1               -1  0.00000000E+000 -1.50024232E-003  0.00000000E+000  0.00000000E+000 -3.92281621E-002  0.00000000E+000  6.94444444E-003  3.04829791E+002  3.03966782E+002  2.66424634E-011  3.71370352E-005  4.00000000E-005  3.35546646E-011
  6.00000000E-002                1                1               -1  0.00000000E+000 -2.24723318E-003  0.00000000E+000  0.00000000E+000 -3.54471554E-002  0.00000000E+000  5.78703704E-003  3.53865286E+002  3.03986283E+002  2.27398145E-011  3.52272569E-005  4.00000000E-005  3.35546646E-011
  8.00000000E-002                1                1               -1  0.00000000E+000 -2.91890270E-003  0.00000000E+000  0.00000000E+000 -3.17919454E-002  0.00000000E+000  5.17746914E-003  4.16057585E+002  3.03985738E+002  1.90674615E-011  3.32185593E-005  4.00000000E-005  3.35546646E-011
  1.00000000E-001                1                1               -1  0.00000000E+000 -3.51581187E-003  0.00000000E+000  0.00000000E+000 -2.80899517E-002  0.00000000E+000  5.17746914E-003  4.99862157E+002  3.03984832E+002  1.56342645E-011  3.10915436E-005  4.00000000E-005  3.35546646E-011
  1.20000000E-001                1                1               -1  0.00000000E+000 -4.03735304E-003  0.00000000E+000  0.00000000E+000 -2.44194034E-002  0.00000000E+000  4.31455761E-003  6.15559274E+002  3.03983880E+002  1.24533851E-011  2.88212116E-005  4.00000000E-005  3.35546646E-011
  1.40000000E-001                1                1               -1  0.00000000E+000 -4.48441224E-003  0.00000000E+000  0.00000000E+000 -2.07662719E-002  0.00000000E+000  3.59546468E-003  7.83575753E+002  3.03982879E+002  9.54074819E-012  2.63720486E-005  4.00000000E-005  3.35546646E-011
  1.60000000E-001                1                1               -1  0.00000000E+000 -4.85663238E-003  0.00000000E+000  0.00000000E+000 -1.71299046E-002  0.00000000E+000  2.99622056E-003  1.04428295E+003  3.03981840E+002  6.91503938E-012  2.36890641E-005  4.00000000E-005  3.35546646E-011
  1.80000000E-001                1                1               -1  0.00000000E+000 -5.15392390E-003  0.00000000E+000  0.00000000E+000 -1.35085414E-002  0.00000000E+000  2.49685047E-003  1.48922465E+003  3.03980734E+002  4.60129797E-012  2.06812330E-005  4.00000000E-005  3.35546646E-011
  2.00000000E-001                1                1               -1  0.00000000E+000 -5.37674962E-003  0.00000000E+000  0.00000000E+000 -9.89803678E-003  0.00000000E+000  1.73392394E-003  2.37145001E+003  3.03979549E+002  2.63840704E-012  1.71815970E-005  4.00000000E-005  3.35546646E-011
  2.20000000E-001                1                1               -1  0.00000000E+000 -5.52812474E-003  0.00000000E+000  0.00000000E+000 -7.50179651E-003  0.00000000E+000  1.20411385E-003  4.67752822E+003  3.69351041E+002  1.67775354E-012  1.48694183E-005  4.00000000E-005  3.35546646E-011
  2.40000000E-001                1                1               -1  0.00000000E+000 -5.68298735E-003  0.00000000E+000  0.00000000E+000 -7.83966518E-003  0.00000000E+000  1.44493661E-003  4.58045671E+003  3.73146882E+002  1.67773323E-012  1.48754741E-005  4.00000000E-005  3.35546646E-011
  2.60000000E-001                1                1               -1  0.00000000E+000 -5.83979411E-003  0.00000000E+000  0.00000000E+000 -7.84045243E-003  0.00000000E+000  1.44493661E-003  4.57995741E+003  3.73149997E+002  1.67773323E-012  1.48754792E-005  4.00000000E-005  3.35546646E-011
  2.80000000E-001                1                1               -1  0.00000000E+000 -5.99660317E-003  0.00000000E+000  0.00000000E+000 -7.84045307E-003  0.00000000E+000  1.57120308E-003  4.57995700E+003  3.73150000E+002  1.67773323E-012  1.48754792E-005  4.00000000E-005  3.35546646E-011
  3.00000000E-001                1                1               -1  0.00000000E+000 -6.15341224E-003  0.00000000E+000  0.00000000E+000 -7.84045307E-003  0.00000000E+000  1.88211742E-003  4.57995700E+003  3.73150000E+002  1.67773323E-012  1.48754792E-005  4.00000000E-005  3.35546646E-011
