3.35546646E-011
3.07338130E-011
2.66424634E-011
2.27398145E-011
1.90674615E-011
1.56342645E-011
1.24533851E-011
9.54074819E-012
6.91503938E-012
4.60129797E-012
2.63840704E-012
1.67775354E-012
1.67773323E-012
1.67773323E-012
1.67773323E-012
1.67773323E-012
