0.00000000E+000
-4.25716183E-002
-3.92281621E-002
-3.54471554E-002
-3.17919454E-002
-2.80899517E-002
-2.44194034E-002
-2.07662719E-002
-1.71299046E-002
-1.35085414E-002
-9.89803678E-003
-7.50179651E-003
-7.83966518E-003
-7.84045243E-003
-7.84045307E-003
-7.84045307E-003
