 0.65000000E+000  0.00000000E+000
 0.12815164E+001  0.82931488E-001
 0.12815164E+001 -0.82931488E-001
 0.65000000E+000  0.00000000E+000
 0.65000010E+000  0.00000000E+000
 0.64999976E+000  0.00000000E+000
 0.65000046E+000  0.00000000E+000
 0.64999931E+000  0.00000000E+000
 0.65000102E+000  0.00000000E+000
 0.64999907E+000  0.00000000E+000
 0.65000014E+000  0.00000000E+000
 0.65000302E+000  0.00000000E+000
 0.64998971E+000  0.00000000E+000
 0.65002582E+000  0.00000000E+000
 0.64994599E+000  0.00000000E+000
 0.65010194E+000  0.00000000E+000
 0.64982435E+000  0.00000000E+000
 0.65028156E+000  0.00000000E+000
 0.64957870E+000  0.00000000E+000
 0.65058902E+000  0.00000000E+000
 0.64921414E+000  0.00000000E+000
 0.65096409E+000  0.00000000E+000
 0.64872625E+000  0.00000000E+000
 0.65139217E+000  0.00000000E+000
 0.64930839E+000  0.00000000E+000
 0.66535933E+000  0.00000000E+000
 0.73392397E+000  0.00000000E+000
 0.91939637E+000  0.00000000E+000
 0.11290740E+001  0.00000000E+000
 0.13215396E+001  0.00000000E+000
 0.14355421E+001  0.00000000E+000
 0.14976967E+001  0.00000000E+000
 0.15131962E+001  0.00000000E+000
 0.15048873E+001  0.00000000E+000
 0.14893653E+001  0.00000000E+000
 0.14725183E+001  0.00000000E+000
 0.14520508E+001  0.00000000E+000
 0.14310666E+001  0.00000000E+000
 0.14114571E+001  0.00000000E+000
 0.13939321E+001  0.00000000E+000
 0.13789665E+001  0.00000000E+000
 0.13667188E+001  0.00000000E+000
 0.13572188E+001  0.00000000E+000
 0.13500746E+001  0.00000000E+000
 0.13448944E+001  0.00000000E+000
 0.13413914E+001  0.00000000E+000
 0.13391120E+001  0.00000000E+000
 0.13376203E+001  0.00000000E+000
 0.13363055E+001  0.00000000E+000
 0.13388849E+001  0.00000000E+000
 0.13292157E+001  0.00000000E+000
 0.13443373E+001  0.00000000E+000
 0.13334105E+001  0.00000000E+000
 0.13334105E+001  0.00000000E+000
 0.13443373E+001  0.00000000E+000
 0.13292157E+001  0.00000000E+000
 0.13388849E+001  0.00000000E+000
 0.13363055E+001  0.00000000E+000
 0.13376203E+001  0.00000000E+000
 0.13391120E+001  0.00000000E+000
 0.13413914E+001  0.00000000E+000
 0.13448944E+001  0.00000000E+000
 0.13500746E+001  0.00000000E+000
 0.13572188E+001  0.00000000E+000
 0.13667188E+001  0.00000000E+000
 0.13789665E+001  0.00000000E+000
 0.13939321E+001  0.00000000E+000
 0.14114571E+001  0.00000000E+000
 0.14310666E+001  0.00000000E+000
 0.14520508E+001  0.00000000E+000
 0.14725180E+001  0.00000000E+000
 0.14893665E+001  0.00000000E+000
 0.15048825E+001  0.00000000E+000
 0.15132218E+001  0.00000000E+000
 0.14976564E+001  0.00000000E+000
 0.14359399E+001  0.00000000E+000
 0.13216582E+001  0.00000000E+000
 0.11323249E+001  0.00000000E+000
 0.91954797E+000  0.00000000E+000
 0.73841012E+000  0.00000000E+000
 0.66400645E+000  0.00000000E+000
 0.65243892E+000  0.00000000E+000
 0.65026251E+000  0.00000000E+000
 0.64971163E+000  0.00000000E+000
 0.65057202E+000  0.00000000E+000
 0.64942878E+000  0.00000000E+000
 0.65050321E+000  0.00000000E+000
 0.64961631E+000  0.00000000E+000
 0.65026709E+000  0.00000000E+000
 0.64982987E+000  0.00000000E+000
 0.65009995E+000  0.00000000E+000
 0.64994670E+000  0.00000000E+000
 0.65002557E+000  0.00000000E+000
 0.64998978E+000  0.00000000E+000
 0.65000299E+000  0.00000000E+000
 0.65000015E+000  0.00000000E+000
 0.64999907E+000  0.00000000E+000
 0.65000102E+000  0.00000000E+000
 0.64999931E+000  0.00000000E+000
 0.65000046E+000  0.00000000E+000
 0.64999976E+000  0.00000000E+000
 0.65000010E+000  0.00000000E+000
