  PHYSICAL_PROBLEM
$  WALL_LAW: REICHARDT,  VARIABLE, MULTI = 2.0
$  TIME_AVERAGING: PERIOD =    1.000                        
$  WALL_EXCHANGE_LOCATION     
                                                            
   PROPERTIES
     MATERIAL = 1  
       DENSITY= CONSTANT, PARAMETER = 1.0  
       VISCOSITY = CONSTANT, PARAMETER =  0.5000000E-03
       TURBUL=VRMAN PARAM=0.1  UPDP1 = ENDITE , UPDP2=NEVER 
     END_MATERIAL 
   END_PROPERTIES 
  END_PHYSICAL_PROBLEM  
  NUMERICAL_TREATMENT  
    MESH  
    END_MESH  
     ELSEST  
       STRATEGY: BIN  
       NUMBER:   10,10,10  
        DATAF: LINKED_LIST  
     END_ELSEST  
    HESSIAN OFF   
    LAPLACIAN OFF     
  END_NUMERICAL_TREATMENT  
  OUTPUT_&_POST_PROCESS  
    ON_LAST  
    STEPS=1000  
  END_OUTPUT_&_POST_PROCESS  
