0.00000000E+000
6.73150000E+002
6.73142362E+002
6.73133617E+002
6.73123921E+002
6.73113839E+002
6.73103744E+002
6.73093770E+002
6.73083971E+002
6.73074373E+002
6.73064993E+002
6.73055839E+002
6.73046922E+002
6.73038247E+002
6.73029822E+002
6.73021655E+002
6.73013751E+002
6.73006120E+002
6.72998771E+002
6.72991712E+002
6.72984954E+002
