# ALYA Lagrangian postprocess  
#
# HEADER
# T , Column :   1
# ILAGR , Column :   2
# ITYPE , Column :   3
# EXIST , Column :   4
# COORX , Column :   5
# COORY , Column :   6
# COORZ , Column :   7
# VELOX , Column :   8
# VELOY , Column :   9
# VELOZ , Column :  10
# DTK , Column :  11
# CD , Column :  12
# TEMPK , Column :  13
# MASSK , Column :  14
# TEMPF , Column :  15
# YVAPF , Column :  16
#               T            ILAGR            ITYPE            EXIST            COORX            COORY            COORZ            VELOX            VELOY            VELOZ              DTK               CD            TEMPK            MASSK            TEMPF            YVAPF            
  0.00000000E+000                1                1               -5  0.00000000E+000  0.00000000E+000  0.00000000E+000  0.00000000E+000  0.00000000E+000  0.00000000E+000  5.00000000E-003  0.00000000E+000  2.73150000E+002  2.68437317E-010  0.00000000E+000  0.00000000E+000
  5.00000000E-003                1                1               -1  0.00000000E+000 -1.04638310E-004  0.00000000E+000  0.00000000E+000 -4.18553241E-002  0.00000000E+000  5.00000000E-003  2.03159486E+002  3.00237255E+002  2.67487221E-010  6.73150000E+002  0.00000000E+000
  1.00000000E-002                1                1               -1  0.00000000E+000 -3.86687840E-004  0.00000000E+000  0.00000000E+000 -7.09644877E-002  0.00000000E+000  5.00000000E-003  1.30984506E+002  3.21094389E+002  2.62721073E-010  6.73142362E+002  2.25103027E-007
  1.50000000E-002                1                1               -1  0.00000000E+000 -7.90581217E-004  0.00000000E+000  0.00000000E+000 -9.05928631E-002  0.00000000E+000  5.00000000E-003  1.09644068E+002  3.30257552E+002  2.52235971E-010  6.73133617E+002  1.35437704E-006
  2.00000000E-002                1                1               -1  0.00000000E+000 -1.27569719E-003  0.00000000E+000  0.00000000E+000 -1.03453527E-001  0.00000000E+000  5.00000000E-003  9.98956829E+001  3.33329249E+002  2.39059519E-010  6.73123921E+002  3.83915577E-006
  2.50000000E-002                1                1               -1  0.00000000E+000 -1.81253361E-003  0.00000000E+000  0.00000000E+000 -1.11281038E-001  0.00000000E+000  5.00000000E-003  9.54169831E+001  3.34348055E+002  2.25224958E-010  6.73113839E+002  6.96322768E-006
  3.00000000E-002                1                1               -1  0.00000000E+000 -2.37886652E-003  0.00000000E+000  0.00000000E+000 -1.15252126E-001  0.00000000E+000  5.00000000E-003  9.42529253E+001  3.34685652E+002  2.11387322E-010  6.73103744E+002  1.02462101E-005
  3.50000000E-002                1                1               -1  0.00000000E+000 -2.95786316E-003  0.00000000E+000  0.00000000E+000 -1.16346531E-001  0.00000000E+000  5.00000000E-003  9.53889608E+001  3.34795206E+002  1.97766169E-010  6.73093770E+002  1.35342592E-005
  4.00000000E-002                1                1               -1  0.00000000E+000 -3.53713540E-003  0.00000000E+000  0.00000000E+000 -1.15362366E-001  0.00000000E+000  5.00000000E-003  9.82686046E+001  3.34829510E+002  1.84445613E-010  6.73083971E+002  1.67765654E-005
  4.50000000E-002                1                1               -1  0.00000000E+000 -4.10782897E-003  0.00000000E+000  0.00000000E+000 -1.12915066E-001  0.00000000E+000  5.00000000E-003  1.02592336E+002  3.34839607E+002  1.71463546E-010  6.73074373E+002  1.99541773E-005
  5.00000000E-002                1                1               -1  0.00000000E+000 -4.66376794E-003  0.00000000E+000  0.00000000E+000 -1.09460523E-001  0.00000000E+000  5.00000000E-003  1.08217439E+002  3.34842132E+002  1.58840687E-010  6.73064993E+002  2.30588217E-005
  5.50000000E-002                1                1               -1  0.00000000E+000 -5.20073593E-003  0.00000000E+000  0.00000000E+000 -1.05326672E-001  0.00000000E+000  5.00000000E-003  1.15107495E+002  3.34842340E+002  1.46590709E-010  6.73055839E+002  2.60860101E-005
  6.00000000E-002                1                1               -1  0.00000000E+000 -5.71591243E-003  0.00000000E+000  0.00000000E+000 -1.00743927E-001  0.00000000E+000  5.00000000E-003  1.23308373E+002  3.34841842E+002  1.34724068E-010  6.73046922E+002  2.90326526E-005
  6.50000000E-002                1                1               -1  0.00000000E+000 -6.20744935E-003  0.00000000E+000  0.00000000E+000 -9.58708411E-002  0.00000000E+000  5.00000000E-003  1.32939774E+002  3.34841119E+002  1.23249680E-010  6.73038247E+002  3.18961719E-005
  7.00000000E-002                1                1               -1  0.00000000E+000 -6.67416234E-003  0.00000000E+000  0.00000000E+000 -9.08143525E-002  0.00000000E+000  5.00000000E-003  1.44197474E+002  3.34840312E+002  1.12175796E-010  6.73029822E+002  3.46741351E-005
  7.50000000E-002                1                1               -1  0.00000000E+000 -7.11531110E-003  0.00000000E+000  0.00000000E+000 -8.56451525E-002  0.00000000E+000  5.00000000E-003  1.57364759E+002  3.34839465E+002  1.01510549E-010  6.73021655E+002  3.73640745E-005
  8.00000000E-002                1                1               -1  0.00000000E+000 -7.53044658E-003  0.00000000E+000  0.00000000E+000 -8.04090405E-002  0.00000000E+000  5.00000000E-003  1.72833975E+002  3.34838592E+002  9.12623481E-011  6.73013751E+002  3.99633843E-005
  8.50000000E-002                1                1               -1  0.00000000E+000 -7.91930702E-003  0.00000000E+000  0.00000000E+000 -7.51351331E-002  0.00000000E+000  5.00000000E-003  1.91141389E+002  3.34837699E+002  8.14401990E-011  6.73006120E+002  4.24692522E-005
  9.00000000E-002                1                1               -1  0.00000000E+000 -8.28174904E-003  0.00000000E+000  0.00000000E+000 -6.98416772E-002  0.00000000E+000  5.00000000E-003  2.13021665E+002  3.34836787E+002  7.20539853E-011  6.72998771E+002  4.48786063E-005
  9.50000000E-002                1                1               -1  0.00000000E+000 -8.61770345E-003  0.00000000E+000  0.00000000E+000 -6.45400846E-002  0.00000000E+000  5.00000000E-003  2.39493210E+002  3.34835857E+002  6.31147588E-011  6.72991712E+002  4.71880679E-005
  1.00000000E-001                1                1               -1  0.00000000E+000 -8.92714785E-003  0.00000000E+000  0.00000000E+000 -5.92376765E-002  0.00000000E+000  5.00000000E-003  2.71994517E+002  3.34834908E+002  5.46350599E-011  6.72984954E+002  4.93939015E-005
