 0.18444680E-004
 0.37269657E-004
 0.38350830E-004
 0.19860442E-004
 0.23315919E-004
 0.26670989E-004
 0.28174229E-004
 0.29018362E-004
 0.29418537E-004
 0.29552968E-004
 0.29611393E-004
 0.30100816E-004
 0.33028323E-004
 0.37112448E-004
 0.37080941E-004
 0.37216758E-004
 0.37379468E-004
 0.37534373E-004
 0.37682542E-004
 0.37850486E-004
 0.38055210E-004
 0.38331890E-004
 0.35873535E-004
 0.33220449E-004
 0.31443621E-004
 0.30354046E-004
 0.29823641E-004
 0.29642611E-004
 0.29592029E-004
 0.29292547E-004
 0.26245674E-004
 0.20209968E-004
 0.20468626E-004
 0.20434807E-004
 0.20305387E-004
 0.20168929E-004
 0.20013847E-004
 0.19816509E-004
 0.19488707E-004
 0.18811897E-004
 0.23988451E-004
 0.25397616E-004
 0.26108595E-004
 0.26491209E-004
 0.26771177E-004
 0.27007938E-004
 0.27227326E-004
 0.27283010E-004
 0.26846508E-004
 0.26889095E-004
 0.28151858E-004
 0.28961765E-004
 0.29267412E-004
 0.29406300E-004
 0.29483142E-004
 0.29535105E-004
 0.29543126E-004
 0.29451525E-004
 0.28027841E-004
 0.28605401E-004
 0.29208240E-004
 0.29478207E-004
 0.29565261E-004
 0.29589425E-004
 0.29600524E-004
 0.29607648E-004
 0.29605116E-004
 0.28874463E-004
 0.29040844E-004
 0.29348573E-004
 0.29522565E-004
 0.29581568E-004
 0.29610071E-004
 0.29651592E-004
 0.29689695E-004
 0.29677535E-004
 0.29362382E-004
 0.29394747E-004
 0.29497006E-004
 0.29565990E-004
 0.29603172E-004
 0.29665623E-004
 0.29800959E-004
 0.29950767E-004
 0.29943425E-004
 0.29538012E-004
 0.29542849E-004
 0.29569900E-004
 0.29598440E-004
 0.29646956E-004
 0.29783527E-004
 0.30105390E-004
 0.30540083E-004
 0.30650089E-004
 0.29602319E-004
 0.29600505E-004
 0.29622280E-004
 0.29670472E-004
 0.29777873E-004
 0.30018718E-004
 0.30546367E-004
 0.31396275E-004
 0.31884333E-004
 0.29990369E-004
 0.29958262E-004
 0.30076265E-004
 0.30259957E-004
 0.30528215E-004
 0.30923717E-004
 0.31569629E-004
 0.32622368E-004
 0.33549270E-004
 0.32681987E-004
 0.32609965E-004
 0.32914474E-004
 0.33287565E-004
 0.33661792E-004
 0.34046343E-004
 0.34517087E-004
 0.35144169E-004
 0.35896789E-004
