GiD Post Results File 1.0
 
Result VELOC ALYA  0.49158233E+00 Vector OnNodes
ComponentNames VELOC_X,VELOC_Y,VELOC_Z
Values
          1  0.00000000E+000  0.00000000E+000
          2  0.00000000E+000  0.00000000E+000
          3  0.00000000E+000  0.00000000E+000
          4 -0.93885105E-002  0.76697592E-002
          5  0.00000000E+000  0.00000000E+000
          6  0.00000000E+000  0.00000000E+000
          7 -0.21203277E-001  0.83670028E-002
          8 -0.13303923E-001  0.19294812E-001
          9 -0.29424022E-001  0.20700302E-001
         10  0.00000000E+000  0.00000000E+000
         11  0.00000000E+000  0.00000000E+000
         12 -0.30863366E-001  0.65500324E-002
         13 -0.17140787E-001  0.32440725E-001
         14 -0.42581021E-001  0.16015021E-001
         15 -0.37200552E-001  0.34603059E-001
         16  0.00000000E+000  0.00000000E+000
         17  0.00000000E+000  0.00000000E+000
         18 -0.37006031E-001  0.36565508E-002
         19 -0.22536168E-001  0.47666646E-001
         20 -0.53353858E-001  0.26582827E-001
         21 -0.50932831E-001  0.88272279E-002
         22 -0.47953281E-001  0.50397308E-001
         23  0.00000000E+000  0.00000000E+000
         24  0.00000000E+000  0.00000000E+000
         25 -0.63483666E-001  0.14544777E-001
         26 -0.67837688E-001  0.38284867E-001
         27 -0.39137907E-001  0.32025079E-003
         28 -0.30538399E-001  0.66016102E-001
         29 -0.53820433E-001  0.65082591E-003
         30 -0.63321661E-001  0.68535072E-001
         31 -0.79974070E-001  0.20753181E-001
         32 -0.66955392E-001  0.10010899E-002
         33 -0.87570715E-001  0.50965930E-001
         34  0.00000000E+000  0.00000000E+000
         35  0.00000000E+000  0.00000000E+000
         36 -0.37125586E-001 -0.30205971E-002
         37 -0.42483952E-001  0.88694714E-001
         38 -0.51074708E-001 -0.75303085E-002
         39 -0.84488717E-001  0.88550069E-001
         40 -0.84067331E-001  0.13956908E-002
         41 -0.10161382E+000  0.27202414E-001
         42 -0.63636802E-001 -0.12546598E-001
         43 -0.11232998E+000  0.63243753E-001
         44  0.00000000E+000  0.00000000E+000
         45  0.00000000E+000  0.00000000E+000
         46 -0.31104108E-001 -0.59309070E-002
         47 -0.59590511E-001  0.11693353E+000
         48 -0.10621588E+000  0.18447024E-002
         49 -0.80153095E-001 -0.17967798E-001
         50 -0.12692540E+000  0.32871464E-001
         51 -0.42864914E-001 -0.14742285E-001
         52 -0.10938667E+000  0.10713673E+000
         53 -0.53651957E-001 -0.24612297E-001
         54 -0.13572235E+000  0.71099550E-001
         55 -0.10185107E+000 -0.23529247E-001
         56 -0.13144453E+000  0.23215636E-002
         57  0.00000000E+000  0.00000000E+000
         58  0.00000000E+000  0.00000000E+000
         59 -0.21548271E-001 -0.77880145E-002
         60 -0.68166708E-001 -0.35529210E-001
         61 -0.74710872E-001  0.14786777E+000
         62 -0.14699948E+000  0.35393477E-001
         63 -0.29827431E-001 -0.19514944E-001
         64 -0.11381050E+000  0.11268763E+000
         65 -0.12722521E+000 -0.28247384E-001
         66 -0.37614498E-001 -0.32763279E-001
         67 -0.12407140E+000  0.66206044E-001
         68 -0.87983021E-001 -0.47338702E-001
         69 -0.15002463E+000  0.26894117E-002
         70 -0.48388379E-001 -0.47798002E-001
         71 -0.12547112E+000  0.30998227E-001
         72  0.00000000E+000  0.00000000E+000
         73  0.00000000E+000  0.00000000E+000
         74 -0.97357860E-002 -0.71870357E-002
         75  0.33288283E-002  0.14307473E+000
         76 -0.13703056E-001 -0.18393904E-001
         77 -0.11292160E+000 -0.58719557E-001
         78 -0.14712840E+000 -0.29921687E-001
         79  0.44813444E-001  0.76840057E-001
         80 -0.63807088E-001 -0.65064984E-001
         81 -0.12513683E+000  0.25876272E-002
         82 -0.17546236E-001 -0.31069525E-001
         83  0.68763217E-001  0.38565372E-001
         84 -0.22962973E-001 -0.45715607E-001
         85  0.79073420E-001  0.17061903E-001
         86 -0.13641962E+000 -0.65646976E-001
         87  0.00000000E+000  0.00000000E+000
         88  0.00000000E+000  0.00000000E+000
         89 -0.85148493E-001 -0.84245136E-001
         90 -0.12475297E+000 -0.25418662E-001
         91  0.00000000E+000  0.00000000E+000
         92  0.10000000E+001  0.00000000E+000
         93  0.10000000E+001  0.00000000E+000
         94  0.00000000E+000  0.00000000E+000
         95 -0.30985597E-001 -0.63350873E-001
         96  0.82384232E-001  0.16049604E-002
         97  0.00000000E+000  0.00000000E+000
         98  0.10000000E+001  0.00000000E+000
         99 -0.11075428E+000 -0.10238714E+000
        100 -0.12354128E+000 -0.59715972E-001
        101  0.00000000E+000  0.00000000E+000
        102  0.10000000E+001  0.00000000E+000
        103 -0.42924234E-001 -0.85264882E-001
        104  0.80635331E-001 -0.13399209E-001
        105  0.00000000E+000  0.00000000E+000
        106  0.10000000E+001  0.00000000E+000
        107 -0.11619425E+000 -0.10710226E+000
        108 -0.60279459E-001 -0.11336886E+000
        109  0.72323683E-001 -0.33092243E-001
        110  0.10000000E+001  0.00000000E+000
        111  0.00000000E+000  0.00000000E+000
        112 -0.78870205E-001 -0.14788284E+000
        113  0.49338747E-001 -0.67418614E-001
        114  0.00000000E+000  0.00000000E+000
        115  0.10000000E+001  0.00000000E+000
        116 -0.10995391E-001 -0.14621409E+000
        117  0.10000000E+001  0.00000000E+000
        118  0.00000000E+000  0.00000000E+000
        119  0.10000000E+001  0.00000000E+000
        120  0.00000000E+000  0.00000000E+000
        121  0.00000000E+000  0.00000000E+000
End values

Result PRESS ALYA  0.49158233E+00 Scalar OnNodes
ComponentNames PRESS
Values
          1 -0.35839049E+000
          2 -0.36014109E+000
          3 -0.35701612E+000
          4 -0.35868417E+000
          5 -0.36513912E+000
          6 -0.35270394E+000
          7 -0.35414249E+000
          8 -0.36343724E+000
          9 -0.35819293E+000
         10 -0.34590450E+000
         11 -0.37384606E+000
         12 -0.34697809E+000
         13 -0.37171858E+000
         14 -0.34994104E+000
         15 -0.36522369E+000
         16 -0.38707544E+000
         17 -0.33730071E+000
         18 -0.33791116E+000
         19 -0.38428114E+000
         20 -0.35505288E+000
         21 -0.33952032E+000
         22 -0.37581938E+000
         23 -0.32774443E+000
         24 -0.40606374E+000
         25 -0.34227228E+000
         26 -0.36268901E+000
         27 -0.32783846E+000
         28 -0.40223542E+000
         29 -0.32795897E+000
         30 -0.39076107E+000
         31 -0.34635252E+000
         32 -0.32813782E+000
         33 -0.37328087E+000
         34 -0.31817211E+000
         35 -0.43259546E+000
         36 -0.31774337E+000
         37 -0.42708056E+000
         38 -0.31637143E+000
         39 -0.41087950E+000
         40 -0.32839883E+000
         41 -0.35194587E+000
         42 -0.31397286E+000
         43 -0.38710704E+000
         44 -0.30951684E+000
         45 -0.46923438E+000
         46 -0.30860670E+000
         47 -0.46062370E+000
         48 -0.32877168E+000
         49 -0.31040838E+000
         50 -0.35909849E+000
         51 -0.30587017E+000
         52 -0.43656089E+000
         53 -0.30109969E+000
         54 -0.40379619E+000
         55 -0.30555272E+000
         56 -0.32928869E+000
         57 -0.30262031E+000
         58 -0.51985320E+000
         59 -0.30131747E+000
         60 -0.29396182E+000
         61 -0.50426841E+000
         62 -0.36744155E+000
         63 -0.29747768E+000
         64 -0.46630720E+000
         65 -0.29943243E+000
         66 -0.29076987E+000
         67 -0.42139054E+000
         68 -0.28408453E+000
         69 -0.32996534E+000
         70 -0.28064519E+000
         71 -0.37580885E+000
         72 -0.59183862E+000
         73 -0.29814754E+000
         74 -0.29658361E+000
         75 -0.55470122E+000
         76 -0.29202424E+000
         77 -0.27127811E+000
         78 -0.29247666E+000
         79 -0.49333989E+000
         80 -0.26638124E+000
         81 -0.33075423E+000
         82 -0.28404151E+000
         83 -0.43537217E+000
         84 -0.27191016E+000
         85 -0.38212843E+000
         86 -0.25604715E+000
         87 -0.29650699E+000
         88 -0.70122621E+000
         89 -0.24724975E+000
         90 -0.28580223E+000
         91 -0.29485210E+000
         92 -0.58207249E+000
         93 -0.50363426E+000
         94 -0.29004526E+000
         95 -0.25457610E+000
         96 -0.33151054E+000
         97 -0.28161510E+000
         98 -0.44028943E+000
         99 -0.22306552E+000
        100 -0.24047702E+000
        101 -0.26876946E+000
        102 -0.38443834E+000
        103 -0.23065231E+000
        104 -0.28116183E+000
        105 -0.25032189E+000
        106 -0.33205569E+000
        107 -0.19575436E+000
        108 -0.19857951E+000
        109 -0.22879565E+000
        110 -0.28002228E+000
        111 -0.22459061E+000
        112 -0.15760012E+000
        113 -0.17247663E+000
        114 -0.18924949E+000
        115 -0.22536718E+000
        116 -0.11305880E+000
        117 -0.16471810E+000
        118 -0.14112242E+000
        119 -0.93368114E-001
        120 -0.76284354E-001
        121  0.00000000E+000
End values

