$------------------------------------------------------------
PHYSICAL_PROBLEM
$------------------------------------------------------------ 
PROBLEM_DEFINITION       
  TEMPORAL_DERIVATIVES:     On 
  CONVECTIVE_TERM:          On
  VISCOUS_TERM:             LAPLACIAN
END_PROBLEM_DEFINITION  
$------------------------------------------------------------
PROPERTIES
END_PROPERTIES  
$------------------------------------------------------------
END_PHYSICAL_PROBLEM  
$------------------------------------------------------------
NUMERICAL_TREATMENT 
  ELEMENT_LENGTH:           Minimum
  STABILIZATION:            ASGS
  TRACKING:                 Time, CONVECTION, ITERAT=100, TOLER=1.0e-5, RELAX=1.0, ORDER=1, NEWTON
  TIME_INTEGRATION:         Trapezoidal, ORDER: 1, EULER=20
  SAFETY_FACTOR:            10.0
  STEADY_STATE_TOLER:       -1e-12

  VECTORIZED_ASSEMBLY:      ON

  NORM_OF_CONVERGENCE:      LAGGED_ALGEBRAIC_RESIDUAL
  MAXIMUM_NUMBER_OF_IT:     1
  CONVERGENCE_TOLERANCE:    1e-12

  ALGORITHM:                MONOLITHIC
  END_ALGORITHM

$  ALGORITHM:                SCHUR
$    SOLVER:                 ORTHOMIN, MOMENTUM_PRESERVING
$    PRECONDITIONER:         TAU
$    ELEMENT_LENGTH:         Minimum
$    TAU_STRATEGY:           Codina
$  END_ALGORITHM

  MOMENTUM
    ALGEBRAIC_SOLVER     
      SOLVER:                GMRES, KRYLOV=20
      CONVERGENCE:           ITERA=1000, TOLER=1.0e-14, ADAPTIVE, RATIO=0.01
      OUTPUT:                CONVERGENCE
      PRECONDITIONER:        DIAGONAL
    END_ALGEBRAIC_SOLVER        
  END_MOMENTUM
  CONTINUITY 
    ALGEBRAIC_SOLVER
       SOLVER:               CG, COARSE: SPARSE
       CONVERGENCE:          ITERA=1000, TOLER=1.0e-14, ADAPTIVE, RATIO=0.01
       OUTPUT:               CONVERGENCE
       PRECONDITIONER:       DIAGONAL
    END_ALGEBRAIC_SOLVER        
  END_CONTINUITY

END_NUMERICAL_TREATMENT  
$------------------------------------------------------------
OUTPUT_&_POST_PROCESS  
  START_POSTPROCES_AT       STEP  = 0
  POSTPROCESS VELOCITY,     STEPS = 1
  POSTPROCESS PRESSURE,     STEPS = 1
  ELEMENT_SET 
    KINETIC_ENERGY
  END_ELEMENT_SET
  BOUNDARY_SET
    FORCE
    MASS
  END_BOUNDARY_SET
  NODE_SET 
    VELOX
    PRESS
  END_NODE_SET
  WITNESS_POINTS
    VELOX
    VELOY
    VELOZ
    PRESS
  END_WITNESS_POINTS
END_OUTPUT_&_POST_PROCESS   
$------------------------------------------------------------
BOUNDARY_CONDITIONS
  PARAMETERS
    FIX_PRESSURE: Off
  END_PARAMETERS
  CODES, NODES
        1  11  1.0 0.0 
    1 & 3  11  1.0 0.0
        3  01  0.0 0.0
    2 & 3  01  0.0 0.0
  END_CODES
  CODES, BOUNDARIES
     2  2  2.0
  END_CODES
END_BOUNDARY_CONDITIONS  
$------------------------------------------------------------
