GiD Post Results File 1.0
 
Result LPOTY ALYA  0.00000000E+00 Scalar OnNodes
ComponentNames LPOTY
Values
          1  0.10000000E+001
          2  0.10000000E+001
          3  0.10000000E+001
          4  0.00000000E+000
          5  0.10000000E+001
          6  0.10000000E+001
          7  0.10000000E+001
          8  0.10000000E+001
          9  0.00000000E+000
         10  0.10000000E+001
         11  0.10000000E+001
         12  0.10000000E+001
         13  0.10000000E+001
         14  0.10000000E+001
         15  0.10000000E+001
         16  0.00000000E+000
         17  0.10000000E+001
         18  0.10000000E+001
         19  0.10000000E+001
         20  0.10000000E+001
         21  0.00000000E+000
         22  0.10000000E+001
         23  0.10000000E+001
         24  0.10000000E+001
End values

Result TEMPE ALYA  0.00000000E+00 Scalar OnNodes
ComponentNames TEMPE
Values
          1  0.35000000E+001
          2  0.50000000E+001
          3  0.20000000E+001
          4  0.00000000E+000
          5  0.40000000E+001
          6  0.45000000E+001
          7  0.15000000E+001
          8  0.35000000E+001
          9  0.00000000E+000
         10  0.00000000E+000
         11  0.10000000E+001
         12  0.50000000E+000
         13  0.00000000E+000
         14  0.47500000E+001
         15  0.17500000E+001
         16  0.00000000E+000
         17  0.35000000E+001
         18  0.40000000E+001
         19  0.10000000E+001
         20  0.30000000E+001
         21  0.00000000E+000
         22  0.15000000E+001
         23  0.50000000E+000
         24  0.00000000E+000
End values

Result TEMPE ALYA  0.10000000E+00 Scalar OnNodes
ComponentNames TEMPE
Values
          1  0.35000000E+001
          2  0.50000000E+001
          3  0.20000000E+001
          4  0.30000000E+001
          5  0.40000000E+001
          6  0.45000000E+001
          7  0.15000000E+001
          8  0.35000000E+001
          9  0.25000000E+001
         10  0.20000000E+001
         11  0.10000000E+001
         12  0.50000000E+000
         13  0.32500000E+001
         14  0.47500000E+001
         15  0.17500000E+001
         16  0.25000000E+001
         17  0.35000000E+001
         18  0.40000000E+001
         19  0.10000000E+001
         20  0.30000000E+001
         21  0.20000000E+001
         22  0.15000000E+001
         23  0.50000000E+000
         24  0.00000000E+000
End values

