GiD Post Results File 1.0
 
Result VELOC ALYA  0.00000000E+00 Vector OnNodes
ComponentNames VELOC_X,VELOC_Y,VELOC_Z
Values
          1  0.00000000E+000  0.00000000E+000  0.00000000E+000
          2  0.00000000E+000  0.00000000E+000  0.00000000E+000
          3  0.00000000E+000  0.00000000E+000  0.00000000E+000
          4  0.00000000E+000  0.00000000E+000  0.00000000E+000
          5  0.00000000E+000  0.00000000E+000  0.00000000E+000
          6  0.00000000E+000  0.00000000E+000  0.00000000E+000
          7  0.00000000E+000  0.00000000E+000  0.00000000E+000
          8  0.00000000E+000  0.00000000E+000  0.00000000E+000
          9  0.00000000E+000  0.00000000E+000  0.00000000E+000
         10  0.00000000E+000  0.00000000E+000  0.00000000E+000
         11  0.00000000E+000  0.00000000E+000  0.00000000E+000
         12  0.00000000E+000  0.00000000E+000  0.00000000E+000
         13  0.00000000E+000  0.00000000E+000  0.00000000E+000
         14  0.00000000E+000  0.00000000E+000  0.00000000E+000
         15  0.00000000E+000  0.00000000E+000  0.00000000E+000
         16  0.00000000E+000  0.00000000E+000  0.00000000E+000
         17  0.00000000E+000  0.00000000E+000  0.00000000E+000
         18  0.00000000E+000  0.00000000E+000  0.00000000E+000
         19  0.00000000E+000  0.00000000E+000  0.00000000E+000
         20  0.00000000E+000  0.00000000E+000  0.00000000E+000
         21  0.00000000E+000  0.00000000E+000  0.00000000E+000
         22  0.00000000E+000  0.00000000E+000  0.00000000E+000
         23  0.00000000E+000  0.00000000E+000  0.00000000E+000
         24  0.00000000E+000  0.00000000E+000  0.00000000E+000
         25  0.00000000E+000  0.00000000E+000  0.00000000E+000
         26  0.00000000E+000  0.00000000E+000  0.00000000E+000
         27  0.00000000E+000  0.00000000E+000  0.00000000E+000
         28  0.00000000E+000  0.00000000E+000  0.00000000E+000
         29  0.00000000E+000  0.00000000E+000  0.00000000E+000
         30  0.00000000E+000  0.00000000E+000  0.00000000E+000
         31  0.00000000E+000  0.00000000E+000  0.00000000E+000
         32  0.00000000E+000  0.00000000E+000  0.00000000E+000
         33  0.00000000E+000  0.00000000E+000  0.00000000E+000
         34  0.00000000E+000  0.00000000E+000  0.00000000E+000
         35  0.00000000E+000  0.00000000E+000  0.00000000E+000
         36  0.00000000E+000  0.00000000E+000  0.00000000E+000
         37  0.00000000E+000  0.00000000E+000  0.00000000E+000
         38  0.00000000E+000  0.00000000E+000  0.00000000E+000
         39  0.00000000E+000  0.00000000E+000  0.00000000E+000
         40  0.00000000E+000  0.00000000E+000  0.00000000E+000
         41  0.00000000E+000  0.00000000E+000  0.00000000E+000
         42  0.00000000E+000  0.00000000E+000  0.00000000E+000
         43  0.00000000E+000  0.00000000E+000  0.00000000E+000
         44  0.00000000E+000  0.00000000E+000  0.00000000E+000
End values

Result TEMPE ALYA  0.00000000E+00 Scalar OnNodes
ComponentNames TEMPE
Values
          1  0.10000000E+002
          2  0.50000000E+001
          3  0.50000000E+001
          4  0.10000000E+002
          5  0.10000000E+002
          6  0.50000000E+001
          7  0.50000000E+001
          8  0.10000000E+002
          9  0.10000000E+001
         10  0.10000000E+001
         11  0.10000000E+001
         12  0.10000000E+001
         13  0.10000000E+001
         14  0.10000000E+001
         15  0.10000000E+001
         16  0.10000000E+001
         17  0.10000000E+001
         18  0.10000000E+001
         19  0.10000000E+001
         20  0.10000000E+001
         21  0.10000000E+001
         22  0.10000000E+001
         23  0.10000000E+001
         24  0.10000000E+001
         25  0.10000000E+001
         26  0.10000000E+001
         27  0.10000000E+001
         28  0.10000000E+001
         29  0.10000000E+001
         30  0.10000000E+001
         31  0.10000000E+001
         32  0.10000000E+001
         33  0.10000000E+001
         34  0.10000000E+001
         35  0.10000000E+001
         36  0.10000000E+001
         37  0.10000000E+001
         38  0.10000000E+001
         39  0.10000000E+001
         40  0.10000000E+001
         41  0.10000000E+001
         42  0.10000000E+001
         43  0.10000000E+001
         44  0.10000000E+001
End values

Result VELOC ALYA  0.50000000E-03 Vector OnNodes
ComponentNames VELOC_X,VELOC_Y,VELOC_Z
Values
          1  0.00000000E+000  0.00000000E+000  0.00000000E+000
          2  0.00000000E+000  0.00000000E+000  0.00000000E+000
          3  0.00000000E+000  0.00000000E+000  0.00000000E+000
          4  0.00000000E+000  0.00000000E+000  0.00000000E+000
          5  0.00000000E+000  0.00000000E+000  0.00000000E+000
          6  0.00000000E+000  0.00000000E+000  0.00000000E+000
          7  0.00000000E+000  0.00000000E+000  0.00000000E+000
          8  0.00000000E+000  0.00000000E+000  0.00000000E+000
          9  0.00000000E+000  0.00000000E+000  0.00000000E+000
         10  0.00000000E+000  0.00000000E+000  0.00000000E+000
         11  0.00000000E+000  0.00000000E+000  0.00000000E+000
         12  0.00000000E+000  0.00000000E+000  0.00000000E+000
         13  0.00000000E+000  0.00000000E+000  0.00000000E+000
         14  0.00000000E+000  0.00000000E+000  0.00000000E+000
         15  0.00000000E+000  0.00000000E+000  0.00000000E+000
         16  0.00000000E+000  0.00000000E+000  0.00000000E+000
         17  0.00000000E+000  0.00000000E+000  0.00000000E+000
         18  0.00000000E+000  0.00000000E+000  0.00000000E+000
         19  0.00000000E+000  0.00000000E+000  0.00000000E+000
         20  0.00000000E+000  0.00000000E+000  0.00000000E+000
         21  0.00000000E+000  0.00000000E+000  0.00000000E+000
         22  0.00000000E+000  0.00000000E+000  0.00000000E+000
         23  0.00000000E+000  0.00000000E+000  0.00000000E+000
         24  0.00000000E+000  0.00000000E+000  0.00000000E+000
         25  0.00000000E+000  0.00000000E+000  0.00000000E+000
         26  0.00000000E+000  0.00000000E+000  0.00000000E+000
         27  0.00000000E+000  0.00000000E+000  0.00000000E+000
         28  0.00000000E+000  0.00000000E+000  0.00000000E+000
         29  0.00000000E+000  0.00000000E+000  0.00000000E+000
         30  0.00000000E+000  0.00000000E+000  0.00000000E+000
         31  0.00000000E+000  0.00000000E+000  0.00000000E+000
         32  0.00000000E+000  0.00000000E+000  0.00000000E+000
         33  0.00000000E+000  0.00000000E+000  0.00000000E+000
         34  0.00000000E+000  0.00000000E+000  0.00000000E+000
         35  0.00000000E+000  0.00000000E+000  0.00000000E+000
         36  0.00000000E+000  0.00000000E+000  0.00000000E+000
         37  0.00000000E+000  0.00000000E+000  0.00000000E+000
         38  0.00000000E+000  0.00000000E+000  0.00000000E+000
         39  0.00000000E+000  0.00000000E+000  0.00000000E+000
         40  0.00000000E+000  0.00000000E+000  0.00000000E+000
         41  0.00000000E+000  0.00000000E+000  0.00000000E+000
         42  0.00000000E+000  0.00000000E+000  0.00000000E+000
         43  0.00000000E+000  0.00000000E+000  0.00000000E+000
         44  0.00000000E+000  0.00000000E+000  0.00000000E+000
End values

Result TEMPE ALYA  0.50000000E-03 Scalar OnNodes
ComponentNames TEMPE
Values
          1  0.10000000E+002
          2  0.50000000E+001
          3  0.50000000E+001
          4  0.10000000E+002
          5  0.10000000E+002
          6  0.50000000E+001
          7  0.50000000E+001
          8  0.10000000E+002
          9  0.33497814E+001
         10  0.12514410E+001
         11  0.81257318E+000
         12  0.11393109E+001
         13  0.95621018E+000
         14  0.10913077E+001
         15  0.92485501E+000
         16  0.11279301E+001
         17  0.20587921E+001
         18  0.20587921E+001
         19  0.11279301E+001
         20  0.92485501E+000
         21  0.10913077E+001
         22  0.95621018E+000
         23  0.11393109E+001
         24  0.81257318E+000
         25  0.12514410E+001
         26  0.33497814E+001
         27  0.33497814E+001
         28  0.12514410E+001
         29  0.81257318E+000
         30  0.11393109E+001
         31  0.95621018E+000
         32  0.10913077E+001
         33  0.92485501E+000
         34  0.11279301E+001
         35  0.20587921E+001
         36  0.20587921E+001
         37  0.11279301E+001
         38  0.92485501E+000
         39  0.10913077E+001
         40  0.95621018E+000
         41  0.11393109E+001
         42  0.81257318E+000
         43  0.12514410E+001
         44  0.33497814E+001
End values

