GiD Post Results File 1.0
 
Result VELOC ALYA  0.10050000E+03 Vector OnNodes
ComponentNames VELOC_X,VELOC_Y,VELOC_Z
Values
          1  0.17320510E+001  0.99999989E+000
          2  0.17320512E+001  0.99999989E+000
          3  0.17320511E+001  0.99999995E+000
          4  0.17320507E+001  0.99999979E+000
          5  0.17320507E+001  0.99999984E+000
          6  0.17320508E+001  0.99999982E+000
          7  0.17320507E+001  0.99999989E+000
          8  0.17320511E+001  0.99999982E+000
          9  0.17320511E+001  0.10000001E+001
         10  0.17320507E+001  0.99999992E+000
         11  0.17320506E+001  0.99999983E+000
         12  0.17320508E+001  0.99999978E+000
         13  0.17320511E+001  0.99999976E+000
         14  0.17320509E+001  0.10000001E+001
         15  0.17320505E+001  0.99999984E+000
         16  0.17320506E+001  0.99999983E+000
         17  0.17320506E+001  0.99999992E+000
         18  0.17320507E+001  0.99999977E+000
         19  0.17320513E+001  0.99999976E+000
         20  0.17320509E+001  0.10000003E+001
         21  0.17320505E+001  0.99999990E+000
         22  0.17320506E+001  0.10000001E+001
         23  0.17320509E+001  0.99999978E+000
         24  0.17320506E+001  0.99999987E+000
         25  0.17320506E+001  0.99999986E+000
         26  0.17320512E+001  0.99999963E+000
         27  0.17320508E+001  0.10000004E+001
         28  0.17320507E+001  0.99999981E+000
         29  0.17320508E+001  0.99999975E+000
         30  0.17320505E+001  0.10000001E+001
         31  0.17320506E+001  0.99999993E+000
         32  0.17320505E+001  0.99999998E+000
         33  0.17320513E+001  0.99999956E+000
         34  0.17320508E+001  0.10000005E+001
         35  0.17320506E+001  0.10000002E+001
         36  0.17320507E+001  0.99999986E+000
         37  0.17320510E+001  0.99999972E+000
         38  0.17320507E+001  0.99999983E+000
         39  0.17320506E+001  0.99999992E+000
         40  0.17320507E+001  0.99999990E+000
         41  0.17320513E+001  0.99999944E+000
         42  0.17320507E+001  0.10000006E+001
         43  0.17320509E+001  0.99999975E+000
         44  0.17320506E+001  0.10000001E+001
         45  0.17320506E+001  0.10000000E+001
         46  0.17320506E+001  0.99999995E+000
         47  0.17320514E+001  0.99999945E+000
         48  0.17320507E+001  0.10000005E+001
         49  0.17320508E+001  0.99999986E+000
         50  0.17320510E+001  0.99999974E+000
         51  0.17320506E+001  0.10000002E+001
         52  0.17320507E+001  0.99999994E+000
         53  0.17320507E+001  0.99999990E+000
         54  0.17320507E+001  0.99999995E+000
         55  0.17320506E+001  0.10000001E+001
         56  0.17320513E+001  0.99999943E+000
         57  0.17320507E+001  0.10000006E+001
         58  0.17320509E+001  0.99999980E+000
         59  0.17320506E+001  0.10000003E+001
         60  0.17320506E+001  0.10000000E+001
         61  0.17320507E+001  0.99999998E+000
         62  0.17320508E+001  0.99999993E+000
         63  0.17320506E+001  0.10000002E+001
         64  0.17320512E+001  0.99999944E+000
         65  0.17320507E+001  0.10000006E+001
         66  0.17320510E+001  0.99999978E+000
         67  0.17320507E+001  0.99999994E+000
         68  0.17320507E+001  0.99999996E+000
         69  0.17320506E+001  0.10000000E+001
         70  0.17320507E+001  0.99999996E+000
         71  0.17320509E+001  0.99999991E+000
         72  0.17320507E+001  0.10000003E+001
         73  0.17320511E+001  0.99999949E+000
         74  0.17320507E+001  0.10000006E+001
         75  0.17320508E+001  0.99999994E+000
         76  0.17320508E+001  0.99999996E+000
         77  0.17320507E+001  0.99999998E+000
         78  0.17320509E+001  0.99999995E+000
         79  0.17320506E+001  0.10000002E+001
         80  0.17320510E+001  0.99999971E+000
         81  0.17320506E+001  0.10000006E+001
         82  0.17320508E+001  0.99999997E+000
         83  0.17320507E+001  0.10000000E+001
         84  0.17320507E+001  0.10000002E+001
         85  0.17320508E+001  0.99999999E+000
         86  0.17320507E+001  0.99999998E+000
         87  0.17320507E+001  0.10000001E+001
         88  0.17320508E+001  0.10000000E+001
         89  0.17320505E+001  0.10000006E+001
         90  0.17320508E+001  0.99999997E+000
         91  0.17320507E+001  0.99999999E+000
         92  0.17320508E+001  0.99999997E+000
         93  0.17320507E+001  0.10000002E+001
         94  0.17320508E+001  0.99999999E+000
         95  0.17320508E+001  0.10000000E+001
         96  0.17320506E+001  0.10000006E+001
         97  0.17320508E+001  0.99999997E+000
         98  0.17320508E+001  0.99999999E+000
         99  0.17320508E+001  0.10000001E+001
        100  0.17320508E+001  0.99999998E+000
        101  0.17320508E+001  0.99999997E+000
        102  0.17320508E+001  0.99999998E+000
        103  0.17320508E+001  0.10000000E+001
        104  0.17320508E+001  0.10000000E+001
        105  0.17320506E+001  0.10000005E+001
        106  0.17320508E+001  0.99999999E+000
        107  0.17320508E+001  0.99999999E+000
        108  0.17320508E+001  0.10000000E+001
        109  0.17320508E+001  0.10000001E+001
        110  0.17320508E+001  0.99999999E+000
        111  0.17320508E+001  0.10000000E+001
        112  0.17320508E+001  0.99999998E+000
        113  0.17320508E+001  0.10000000E+001
        114  0.17320507E+001  0.10000003E+001
        115  0.17320508E+001  0.99999999E+000
        116  0.17320508E+001  0.10000000E+001
        117  0.17320508E+001  0.99999998E+000
        118  0.17320508E+001  0.10000000E+001
        119  0.17320508E+001  0.10000000E+001
        120  0.17320508E+001  0.99999999E+000
        121  0.17320508E+001  0.10000000E+001
        122  0.17320508E+001  0.99999999E+000
        123  0.17320508E+001  0.10000000E+001
        124  0.17320508E+001  0.99999999E+000
        125  0.17320508E+001  0.99999999E+000
        126  0.17320508E+001  0.10000000E+001
        127  0.17320508E+001  0.10000000E+001
        128  0.17320508E+001  0.10000000E+001
        129  0.17320508E+001  0.99999999E+000
        130  0.17320508E+001  0.99999999E+000
        131  0.17320508E+001  0.99999999E+000
        132  0.17320508E+001  0.10000000E+001
        133  0.17320508E+001  0.99999999E+000
        134  0.17320508E+001  0.10000000E+001
        135  0.17320508E+001  0.10000000E+001
        136  0.17320508E+001  0.10000000E+001
        137  0.17320508E+001  0.10000000E+001
        138  0.17320508E+001  0.10000000E+001
        139  0.17320508E+001  0.10000000E+001
        140  0.17320508E+001  0.10000000E+001
        141  0.17320508E+001  0.10000000E+001
        142  0.17320508E+001  0.10000000E+001
        143  0.17320508E+001  0.10000000E+001
        144  0.17320508E+001  0.99999999E+000
        145  0.17320508E+001  0.10000000E+001
        146  0.17320508E+001  0.10000000E+001
        147  0.17320508E+001  0.10000000E+001
        148  0.17320508E+001  0.10000000E+001
        149  0.17320508E+001  0.10000000E+001
        150  0.17320508E+001  0.99999999E+000
        151  0.17320508E+001  0.10000000E+001
        152  0.17320508E+001  0.10000000E+001
        153  0.17320508E+001  0.10000000E+001
        154  0.17320508E+001  0.10000000E+001
        155  0.17320508E+001  0.10000000E+001
        156  0.17320508E+001  0.10000000E+001
        157  0.17320508E+001  0.10000000E+001
        158  0.17320508E+001  0.10000000E+001
        159  0.17320508E+001  0.10000000E+001
        160  0.17320508E+001  0.10000000E+001
        161  0.17320508E+001  0.10000000E+001
        162  0.17320508E+001  0.10000000E+001
        163  0.17320508E+001  0.10000000E+001
        164  0.17320508E+001  0.10000000E+001
        165  0.17320508E+001  0.10000000E+001
        166  0.17320508E+001  0.10000000E+001
        167  0.17320508E+001  0.10000000E+001
        168  0.17320508E+001  0.10000000E+001
        169  0.17320508E+001  0.10000000E+001
        170  0.17320508E+001  0.10000000E+001
        171  0.17320508E+001  0.10000000E+001
        172  0.17320508E+001  0.10000000E+001
        173  0.17320508E+001  0.10000000E+001
        174  0.17320508E+001  0.10000000E+001
        175  0.17320508E+001  0.10000000E+001
        176  0.17320508E+001  0.10000000E+001
        177  0.17320508E+001  0.10000000E+001
        178  0.17320508E+001  0.10000000E+001
        179  0.17320508E+001  0.10000000E+001
        180  0.17320508E+001  0.10000000E+001
        181  0.17320508E+001  0.10000000E+001
        182  0.17320508E+001  0.10000000E+001
        183  0.17320508E+001  0.10000000E+001
        184  0.17320508E+001  0.10000000E+001
        185  0.17320508E+001  0.10000000E+001
End values

Result FIXNO ALYA  0.10050000E+03 Vector OnNodes
ComponentNames FIXNO_X,FIXNO_Y,FIXNO_Z
Values
          1 -0.80000000E+001 -0.80000000E+001
          2 -0.80000000E+001 -0.80000000E+001
          3 -0.80000000E+001 -0.80000000E+001
          4  0.00000000E+000  0.00000000E+000
          5  0.00000000E+000  0.00000000E+000
          6  0.00000000E+000  0.00000000E+000
          7  0.00000000E+000  0.00000000E+000
          8 -0.80000000E+001 -0.80000000E+001
          9 -0.80000000E+001 -0.80000000E+001
         10  0.00000000E+000  0.00000000E+000
         11  0.00000000E+000  0.00000000E+000
         12  0.00000000E+000  0.00000000E+000
         13 -0.80000000E+001 -0.80000000E+001
         14 -0.80000000E+001 -0.80000000E+001
         15  0.00000000E+000  0.00000000E+000
         16  0.00000000E+000  0.00000000E+000
         17  0.00000000E+000  0.00000000E+000
         18  0.00000000E+000  0.00000000E+000
         19 -0.80000000E+001 -0.80000000E+001
         20 -0.80000000E+001 -0.80000000E+001
         21  0.00000000E+000  0.00000000E+000
         22  0.00000000E+000  0.00000000E+000
         23  0.00000000E+000  0.00000000E+000
         24  0.00000000E+000  0.00000000E+000
         25  0.00000000E+000  0.00000000E+000
         26 -0.80000000E+001 -0.80000000E+001
         27 -0.80000000E+001 -0.80000000E+001
         28  0.00000000E+000  0.00000000E+000
         29  0.00000000E+000  0.00000000E+000
         30  0.00000000E+000  0.00000000E+000
         31  0.00000000E+000  0.00000000E+000
         32  0.00000000E+000  0.00000000E+000
         33 -0.80000000E+001 -0.80000000E+001
         34 -0.80000000E+001 -0.80000000E+001
         35  0.00000000E+000  0.00000000E+000
         36  0.00000000E+000  0.00000000E+000
         37  0.00000000E+000  0.00000000E+000
         38  0.00000000E+000  0.00000000E+000
         39  0.00000000E+000  0.00000000E+000
         40  0.00000000E+000  0.00000000E+000
         41 -0.80000000E+001 -0.80000000E+001
         42 -0.80000000E+001 -0.80000000E+001
         43  0.00000000E+000  0.00000000E+000
         44  0.00000000E+000  0.00000000E+000
         45  0.00000000E+000  0.00000000E+000
         46  0.00000000E+000  0.00000000E+000
         47 -0.80000000E+001 -0.80000000E+001
         48 -0.80000000E+001 -0.80000000E+001
         49  0.00000000E+000  0.00000000E+000
         50  0.00000000E+000  0.00000000E+000
         51  0.00000000E+000  0.00000000E+000
         52  0.00000000E+000  0.00000000E+000
         53  0.00000000E+000  0.00000000E+000
         54  0.00000000E+000  0.00000000E+000
         55  0.00000000E+000  0.00000000E+000
         56 -0.80000000E+001 -0.80000000E+001
         57 -0.80000000E+001 -0.80000000E+001
         58  0.00000000E+000  0.00000000E+000
         59  0.00000000E+000  0.00000000E+000
         60  0.00000000E+000  0.00000000E+000
         61  0.00000000E+000  0.00000000E+000
         62  0.00000000E+000  0.00000000E+000
         63  0.00000000E+000  0.00000000E+000
         64 -0.80000000E+001 -0.80000000E+001
         65 -0.80000000E+001 -0.80000000E+001
         66  0.00000000E+000  0.00000000E+000
         67  0.00000000E+000  0.00000000E+000
         68  0.00000000E+000  0.00000000E+000
         69  0.00000000E+000  0.00000000E+000
         70  0.00000000E+000  0.00000000E+000
         71  0.00000000E+000  0.00000000E+000
         72  0.00000000E+000  0.00000000E+000
         73 -0.80000000E+001 -0.80000000E+001
         74 -0.80000000E+001 -0.80000000E+001
         75  0.00000000E+000  0.00000000E+000
         76  0.00000000E+000  0.00000000E+000
         77  0.00000000E+000  0.00000000E+000
         78  0.00000000E+000  0.00000000E+000
         79  0.00000000E+000  0.00000000E+000
         80 -0.80000000E+001 -0.80000000E+001
         81 -0.80000000E+001 -0.80000000E+001
         82  0.00000000E+000  0.00000000E+000
         83  0.00000000E+000  0.00000000E+000
         84  0.00000000E+000  0.00000000E+000
         85  0.00000000E+000  0.00000000E+000
         86  0.00000000E+000  0.00000000E+000
         87  0.00000000E+000  0.00000000E+000
         88  0.80000000E+001  0.80000000E+001
         89 -0.80000000E+001 -0.80000000E+001
         90  0.00000000E+000  0.00000000E+000
         91  0.00000000E+000  0.00000000E+000
         92  0.00000000E+000  0.00000000E+000
         93  0.00000000E+000  0.00000000E+000
         94  0.00000000E+000  0.00000000E+000
         95  0.80000000E+001  0.80000000E+001
         96 -0.80000000E+001 -0.80000000E+001
         97  0.00000000E+000  0.00000000E+000
         98  0.00000000E+000  0.00000000E+000
         99  0.00000000E+000  0.00000000E+000
        100  0.00000000E+000  0.00000000E+000
        101  0.00000000E+000  0.00000000E+000
        102  0.00000000E+000  0.00000000E+000
        103  0.00000000E+000  0.00000000E+000
        104  0.80000000E+001  0.80000000E+001
        105 -0.80000000E+001 -0.80000000E+001
        106  0.00000000E+000  0.00000000E+000
        107  0.00000000E+000  0.00000000E+000
        108  0.00000000E+000  0.00000000E+000
        109  0.00000000E+000  0.00000000E+000
        110  0.00000000E+000  0.00000000E+000
        111  0.00000000E+000  0.00000000E+000
        112  0.00000000E+000  0.00000000E+000
        113  0.80000000E+001  0.80000000E+001
        114 -0.80000000E+001 -0.80000000E+001
        115  0.00000000E+000  0.00000000E+000
        116  0.00000000E+000  0.00000000E+000
        117  0.00000000E+000  0.00000000E+000
        118  0.80000000E+001  0.80000000E+001
        119  0.80000000E+001  0.80000000E+001
        120  0.00000000E+000  0.00000000E+000
        121  0.00000000E+000  0.00000000E+000
        122  0.00000000E+000  0.00000000E+000
        123  0.00000000E+000  0.00000000E+000
        124  0.00000000E+000  0.00000000E+000
        125  0.00000000E+000  0.00000000E+000
        126  0.80000000E+001  0.80000000E+001
        127  0.80000000E+001  0.80000000E+001
        128  0.00000000E+000  0.00000000E+000
        129  0.00000000E+000  0.00000000E+000
        130  0.00000000E+000  0.00000000E+000
        131  0.00000000E+000  0.00000000E+000
        132  0.00000000E+000  0.00000000E+000
        133  0.00000000E+000  0.00000000E+000
        134  0.80000000E+001  0.80000000E+001
        135  0.80000000E+001  0.80000000E+001
        136  0.00000000E+000  0.00000000E+000
        137  0.00000000E+000  0.00000000E+000
        138  0.00000000E+000  0.00000000E+000
        139  0.00000000E+000  0.00000000E+000
        140  0.80000000E+001  0.80000000E+001
        141  0.80000000E+001  0.80000000E+001
        142  0.00000000E+000  0.00000000E+000
        143  0.00000000E+000  0.00000000E+000
        144  0.00000000E+000  0.00000000E+000
        145  0.00000000E+000  0.00000000E+000
        146  0.00000000E+000  0.00000000E+000
        147  0.00000000E+000  0.00000000E+000
        148  0.80000000E+001  0.80000000E+001
        149  0.80000000E+001  0.80000000E+001
        150  0.00000000E+000  0.00000000E+000
        151  0.00000000E+000  0.00000000E+000
        152  0.00000000E+000  0.00000000E+000
        153  0.00000000E+000  0.00000000E+000
        154  0.00000000E+000  0.00000000E+000
        155  0.80000000E+001  0.80000000E+001
        156  0.80000000E+001  0.80000000E+001
        157  0.00000000E+000  0.00000000E+000
        158  0.00000000E+000  0.00000000E+000
        159  0.80000000E+001  0.80000000E+001
        160  0.80000000E+001  0.80000000E+001
        161  0.00000000E+000  0.00000000E+000
        162  0.00000000E+000  0.00000000E+000
        163  0.00000000E+000  0.00000000E+000
        164  0.00000000E+000  0.00000000E+000
        165  0.00000000E+000  0.00000000E+000
        166  0.80000000E+001  0.80000000E+001
        167  0.80000000E+001  0.80000000E+001
        168  0.00000000E+000  0.00000000E+000
        169  0.00000000E+000  0.00000000E+000
        170  0.00000000E+000  0.00000000E+000
        171  0.00000000E+000  0.00000000E+000
        172  0.00000000E+000  0.00000000E+000
        173  0.80000000E+001  0.80000000E+001
        174  0.80000000E+001  0.80000000E+001
        175  0.80000000E+001  0.80000000E+001
        176  0.80000000E+001  0.80000000E+001
        177  0.80000000E+001  0.80000000E+001
        178  0.80000000E+001  0.80000000E+001
        179  0.80000000E+001  0.80000000E+001
        180  0.80000000E+001  0.80000000E+001
        181  0.80000000E+001  0.80000000E+001
        182  0.80000000E+001  0.80000000E+001
        183  0.80000000E+001  0.80000000E+001
        184  0.80000000E+001  0.80000000E+001
        185  0.80000000E+001  0.80000000E+001
End values

