GiD Post Results File 1.0
 
Result VELOC ALYA  0.00000000E+00 Vector OnNodes
ComponentNames VELOC_X,VELOC_Y,VELOC_Z
Values
        1  0.00000000E+000  0.00000000E+000
        2  0.00000000E+000  0.00000000E+000
        3  0.00000000E+000  0.00000000E+000
        4  0.00000000E+000  0.00000000E+000
        5  0.00000000E+000  0.00000000E+000
        6  0.00000000E+000  0.00000000E+000
        7  0.00000000E+000  0.00000000E+000
        8  0.00000000E+000  0.00000000E+000
        9  0.00000000E+000  0.00000000E+000
       10  0.00000000E+000  0.00000000E+000
       11  0.00000000E+000  0.00000000E+000
       12  0.00000000E+000  0.00000000E+000
       13  0.00000000E+000  0.00000000E+000
       14  0.00000000E+000  0.00000000E+000
       15  0.00000000E+000  0.00000000E+000
       16  0.00000000E+000  0.00000000E+000
       17  0.00000000E+000  0.00000000E+000
       18  0.00000000E+000  0.00000000E+000
       19  0.00000000E+000  0.00000000E+000
       20  0.00000000E+000  0.00000000E+000
       21  0.00000000E+000  0.00000000E+000
       22  0.00000000E+000  0.00000000E+000
       23  0.00000000E+000  0.00000000E+000
       24  0.00000000E+000  0.00000000E+000
       25  0.00000000E+000  0.00000000E+000
       26  0.00000000E+000  0.00000000E+000
       27  0.00000000E+000  0.00000000E+000
       28  0.00000000E+000  0.00000000E+000
       29  0.00000000E+000  0.00000000E+000
       30  0.00000000E+000  0.00000000E+000
       31  0.00000000E+000  0.00000000E+000
       32  0.00000000E+000  0.00000000E+000
       33  0.00000000E+000  0.00000000E+000
       34  0.00000000E+000  0.00000000E+000
       35  0.00000000E+000  0.00000000E+000
       36  0.00000000E+000  0.00000000E+000
       37  0.00000000E+000  0.00000000E+000
       38  0.00000000E+000  0.00000000E+000
       39  0.00000000E+000  0.00000000E+000
       40  0.00000000E+000  0.00000000E+000
       41  0.00000000E+000  0.00000000E+000
       42  0.00000000E+000  0.00000000E+000
       43  0.00000000E+000  0.00000000E+000
       44  0.00000000E+000  0.00000000E+000
       45  0.00000000E+000  0.00000000E+000
       46  0.00000000E+000  0.00000000E+000
       47  0.00000000E+000  0.00000000E+000
       48  0.00000000E+000  0.00000000E+000
       49  0.00000000E+000  0.00000000E+000
       50  0.00000000E+000  0.00000000E+000
       51  0.00000000E+000  0.00000000E+000
       52  0.00000000E+000  0.00000000E+000
       53  0.00000000E+000  0.00000000E+000
       54  0.00000000E+000  0.00000000E+000
       55  0.00000000E+000  0.00000000E+000
       56  0.00000000E+000  0.00000000E+000
       57  0.00000000E+000  0.00000000E+000
       58  0.00000000E+000  0.00000000E+000
       59  0.00000000E+000  0.00000000E+000
       60  0.00000000E+000  0.00000000E+000
       61  0.00000000E+000  0.00000000E+000
       62  0.00000000E+000  0.00000000E+000
       63  0.00000000E+000  0.00000000E+000
       64  0.00000000E+000  0.00000000E+000
       65  0.00000000E+000  0.00000000E+000
       66  0.00000000E+000  0.00000000E+000
       67  0.00000000E+000  0.00000000E+000
       68  0.00000000E+000  0.00000000E+000
       69  0.00000000E+000  0.00000000E+000
       70  0.00000000E+000  0.00000000E+000
       71  0.00000000E+000  0.00000000E+000
       72  0.00000000E+000  0.00000000E+000
       73  0.00000000E+000  0.00000000E+000
       74  0.00000000E+000  0.00000000E+000
       75  0.00000000E+000  0.00000000E+000
       76  0.00000000E+000  0.00000000E+000
       77  0.00000000E+000  0.00000000E+000
       78  0.00000000E+000  0.00000000E+000
       79  0.00000000E+000  0.00000000E+000
       80  0.00000000E+000  0.00000000E+000
       81  0.00000000E+000  0.00000000E+000
       82  0.00000000E+000  0.00000000E+000
       83  0.00000000E+000  0.00000000E+000
       84  0.00000000E+000  0.00000000E+000
       85  0.00000000E+000  0.00000000E+000
       86  0.00000000E+000  0.00000000E+000
       87  0.00000000E+000  0.00000000E+000
       88  0.00000000E+000  0.00000000E+000
       89  0.00000000E+000  0.00000000E+000
       90  0.00000000E+000  0.00000000E+000
       91  0.00000000E+000  0.00000000E+000
       92  0.10000000E+001  0.00000000E+000
       93  0.10000000E+001  0.00000000E+000
       94  0.00000000E+000  0.00000000E+000
       95  0.00000000E+000  0.00000000E+000
       96  0.00000000E+000  0.00000000E+000
       97  0.00000000E+000  0.00000000E+000
       98  0.10000000E+001  0.00000000E+000
       99  0.00000000E+000  0.00000000E+000
      100  0.00000000E+000  0.00000000E+000
      101  0.00000000E+000  0.00000000E+000
      102  0.10000000E+001  0.00000000E+000
      103  0.00000000E+000  0.00000000E+000
      104  0.00000000E+000  0.00000000E+000
      105  0.00000000E+000  0.00000000E+000
      106  0.10000000E+001  0.00000000E+000
      107  0.00000000E+000  0.00000000E+000
      108  0.00000000E+000  0.00000000E+000
      109  0.00000000E+000  0.00000000E+000
      110  0.10000000E+001  0.00000000E+000
      111  0.00000000E+000  0.00000000E+000
      112  0.00000000E+000  0.00000000E+000
      113  0.00000000E+000  0.00000000E+000
      114  0.00000000E+000  0.00000000E+000
      115  0.10000000E+001  0.00000000E+000
      116  0.00000000E+000  0.00000000E+000
      117  0.10000000E+001  0.00000000E+000
      118  0.00000000E+000  0.00000000E+000
      119  0.10000000E+001  0.00000000E+000
      120  0.00000000E+000  0.00000000E+000
      121  0.00000000E+000  0.00000000E+000
End values
Result PRESS ALYA  0.00000000E+00 Scalar OnNodes
ComponentNames PRESS
Values
        1  0.00000000E+000
        2  0.00000000E+000
        3  0.00000000E+000
        4  0.00000000E+000
        5  0.00000000E+000
        6  0.00000000E+000
        7  0.00000000E+000
        8  0.00000000E+000
        9  0.00000000E+000
       10  0.00000000E+000
       11  0.00000000E+000
       12  0.00000000E+000
       13  0.00000000E+000
       14  0.00000000E+000
       15  0.00000000E+000
       16  0.00000000E+000
       17  0.00000000E+000
       18  0.00000000E+000
       19  0.00000000E+000
       20  0.00000000E+000
       21  0.00000000E+000
       22  0.00000000E+000
       23  0.00000000E+000
       24  0.00000000E+000
       25  0.00000000E+000
       26  0.00000000E+000
       27  0.00000000E+000
       28  0.00000000E+000
       29  0.00000000E+000
       30  0.00000000E+000
       31  0.00000000E+000
       32  0.00000000E+000
       33  0.00000000E+000
       34  0.00000000E+000
       35  0.00000000E+000
       36  0.00000000E+000
       37  0.00000000E+000
       38  0.00000000E+000
       39  0.00000000E+000
       40  0.00000000E+000
       41  0.00000000E+000
       42  0.00000000E+000
       43  0.00000000E+000
       44  0.00000000E+000
       45  0.00000000E+000
       46  0.00000000E+000
       47  0.00000000E+000
       48  0.00000000E+000
       49  0.00000000E+000
       50  0.00000000E+000
       51  0.00000000E+000
       52  0.00000000E+000
       53  0.00000000E+000
       54  0.00000000E+000
       55  0.00000000E+000
       56  0.00000000E+000
       57  0.00000000E+000
       58  0.00000000E+000
       59  0.00000000E+000
       60  0.00000000E+000
       61  0.00000000E+000
       62  0.00000000E+000
       63  0.00000000E+000
       64  0.00000000E+000
       65  0.00000000E+000
       66  0.00000000E+000
       67  0.00000000E+000
       68  0.00000000E+000
       69  0.00000000E+000
       70  0.00000000E+000
       71  0.00000000E+000
       72  0.00000000E+000
       73  0.00000000E+000
       74  0.00000000E+000
       75  0.00000000E+000
       76  0.00000000E+000
       77  0.00000000E+000
       78  0.00000000E+000
       79  0.00000000E+000
       80  0.00000000E+000
       81  0.00000000E+000
       82  0.00000000E+000
       83  0.00000000E+000
       84  0.00000000E+000
       85  0.00000000E+000
       86  0.00000000E+000
       87  0.00000000E+000
       88  0.00000000E+000
       89  0.00000000E+000
       90  0.00000000E+000
       91  0.00000000E+000
       92  0.00000000E+000
       93  0.00000000E+000
       94  0.00000000E+000
       95  0.00000000E+000
       96  0.00000000E+000
       97  0.00000000E+000
       98  0.00000000E+000
       99  0.00000000E+000
      100  0.00000000E+000
      101  0.00000000E+000
      102  0.00000000E+000
      103  0.00000000E+000
      104  0.00000000E+000
      105  0.00000000E+000
      106  0.00000000E+000
      107  0.00000000E+000
      108  0.00000000E+000
      109  0.00000000E+000
      110  0.00000000E+000
      111  0.00000000E+000
      112  0.00000000E+000
      113  0.00000000E+000
      114  0.00000000E+000
      115  0.00000000E+000
      116  0.00000000E+000
      117  0.00000000E+000
      118  0.00000000E+000
      119  0.00000000E+000
      120  0.00000000E+000
      121  0.00000000E+000
End values
Result VELOC ALYA  0.64608914E+03 Vector OnNodes
ComponentNames VELOC_X,VELOC_Y,VELOC_Z
Values
        1  0.00000000E+000  0.00000000E+000
        2  0.00000000E+000  0.00000000E+000
        3  0.00000000E+000  0.00000000E+000
        4 -0.10366409E-001  0.96306341E-002
        5  0.00000000E+000  0.00000000E+000
        6  0.00000000E+000  0.00000000E+000
        7 -0.29690143E-001  0.13505663E-001
        8 -0.19224264E-001  0.32567690E-001
        9 -0.53679953E-001  0.43195753E-001
       10  0.00000000E+000  0.00000000E+000
       11  0.00000000E+000  0.00000000E+000
       12 -0.50305860E-001  0.11903290E-001
       13 -0.25375890E-001  0.67045584E-001
       14 -0.89501303E-001  0.38080203E-001
       15 -0.70784732E-001  0.86345250E-001
       16  0.00000000E+000  0.00000000E+000
       17  0.00000000E+000  0.00000000E+000
       18 -0.65693670E-001  0.70204417E-002
       19 -0.28303284E-001  0.10907022E+000
       20 -0.11835478E+000  0.76981575E-001
       21 -0.11696967E+000  0.22610450E-001
       22 -0.78419920E-001  0.13804351E+000
       23  0.00000000E+000  0.00000000E+000
       24  0.00000000E+000  0.00000000E+000
       25 -0.15787826E+000  0.48127616E-001
       26 -0.13139697E+000  0.12548186E+000
       27 -0.71312901E-001  0.12325942E-004
       28 -0.27709422E-001  0.15241053E+000
       29 -0.12844078E+000  0.33668110E-003
       30 -0.73754721E-001  0.18950156E+000
       31 -0.17942709E+000  0.85418515E-001
       32 -0.17961775E+000  0.45286518E-002
       33 -0.12107227E+000  0.17481487E+000
       34  0.00000000E+000  0.00000000E+000
       35  0.00000000E+000  0.00000000E+000
       36 -0.65034163E-001 -0.74803255E-002
       37 -0.25104707E-001  0.18928013E+000
       38 -0.11953286E+000 -0.23537317E-001
       39 -0.57570956E-001  0.22842213E+000
       40 -0.21513244E+000  0.19720483E-001
       41 -0.16609930E+000  0.12931265E+000
       42 -0.17446789E+000 -0.44395997E-001
       43 -0.85509847E-001  0.21053418E+000
       44  0.00000000E+000  0.00000000E+000
       45  0.00000000E+000  0.00000000E+000
       46 -0.48202934E-001 -0.13033358E-001
       47 -0.24581076E-001  0.21166467E+000
       48 -0.20845746E+000  0.51097078E-001
       49 -0.22447943E+000 -0.61899339E-001
       50 -0.11073481E+000  0.16435057E+000
       51 -0.91378549E-001 -0.41662882E-001
       52 -0.36351030E-001  0.24107372E+000
       53 -0.13962083E+000 -0.83819246E-001
       54 -0.33029741E-001  0.21627065E+000
       55 -0.24015093E+000 -0.61581041E-001
       56 -0.13990311E+000  0.88401343E-001
       57  0.00000000E+000  0.00000000E+000
       58  0.00000000E+000  0.00000000E+000
       59 -0.26040489E-001 -0.14166796E-001
       60 -0.19374908E+000 -0.13523815E+000
       61 -0.23511782E-001  0.20733088E+000
       62 -0.23651925E-001  0.17121722E+000
       63 -0.51832560E-001 -0.46446697E-001
       64 -0.62202992E-002  0.21178197E+000
       65 -0.18001655E+000 -0.31318569E-001
       66 -0.83139844E-001 -0.97544957E-001
       67  0.38067071E-001  0.17660113E+000
       68 -0.23381382E+000 -0.18231582E+000
       69 -0.20017552E-001  0.10671543E+000
       70 -0.12435269E+000 -0.16942109E+000
       71  0.90776511E-001  0.13488130E+000
       72  0.00000000E+000  0.00000000E+000
       73  0.00000000E+000  0.00000000E+000
       74 -0.67298813E-002 -0.96618316E-002
       75  0.32216119E-001  0.13200001E+000
       76 -0.14859101E-001 -0.33103615E-001
       77 -0.21734437E+000 -0.19799700E+000
       78 -0.36600749E-001  0.12008009E-001
       79  0.12264168E+000  0.11125538E+000
       80 -0.16856803E+000 -0.25766884E+000
       81  0.13587133E+000  0.87520812E-001
       82 -0.25021518E-001 -0.73341711E-001
       83  0.22313273E+000  0.76533646E-001
       84 -0.40143325E-001 -0.13687722E+000
       85  0.31724060E+000  0.54755607E-001
       86 -0.97971028E-001 -0.15250015E+000
       87  0.00000000E+000  0.00000000E+000
       88  0.00000000E+000  0.00000000E+000
       89 -0.19246890E+000 -0.34154180E+000
       90  0.15710332E+000  0.28168859E-001
       91  0.00000000E+000  0.00000000E+000
       92  0.10000000E+001  0.00000000E+000
       93  0.10000000E+001  0.00000000E+000
       94  0.00000000E+000  0.00000000E+000
       95 -0.60431933E-001 -0.22996479E+000
       96  0.38993714E+000  0.36314859E-001
       97  0.00000000E+000  0.00000000E+000
       98  0.10000000E+001  0.00000000E+000
       99 -0.15884980E+000 -0.37739445E+000
      100  0.13405443E+000 -0.57940173E-001
      101  0.00000000E+000  0.00000000E+000
      102  0.10000000E+001  0.00000000E+000
      103 -0.80508212E-001 -0.35026108E+000
      104  0.43254311E+000  0.15362433E-001
      105  0.00000000E+000  0.00000000E+000
      106  0.10000000E+001  0.00000000E+000
      107 -0.12401018E-001 -0.30261550E+000
      108 -0.89364630E-001 -0.47678895E+000
      109  0.43815881E+000 -0.13323741E-001
      110  0.10000000E+001  0.00000000E+000
      111  0.00000000E+000  0.00000000E+000
      112 -0.65314519E-001 -0.55982416E+000
      113  0.39270830E+000 -0.70091486E-001
      114  0.00000000E+000  0.00000000E+000
      115  0.10000000E+001  0.00000000E+000
      116  0.71576021E-001 -0.50295803E+000
      117  0.10000000E+001  0.00000000E+000
      118  0.00000000E+000  0.00000000E+000
      119  0.10000000E+001  0.00000000E+000
      120  0.00000000E+000  0.00000000E+000
      121  0.00000000E+000  0.00000000E+000
End values
Result PRESS ALYA  0.64608914E+03 Scalar OnNodes
ComponentNames PRESS
Values
        1 -0.66598900E+000
        2 -0.66442656E+000
        3 -0.66686032E+000
        4 -0.66573826E+000
        5 -0.66346206E+000
        6 -0.66755325E+000
        7 -0.66658182E+000
        8 -0.66537709E+000
        9 -0.66659247E+000
       10 -0.66716015E+000
       11 -0.66526915E+000
       12 -0.66655423E+000
       13 -0.66780393E+000
       14 -0.66718362E+000
       15 -0.66973442E+000
       16 -0.67163879E+000
       17 -0.66550232E+000
       18 -0.66549625E+000
       19 -0.67480245E+000
       20 -0.67142325E+000
       21 -0.66693320E+000
       22 -0.67782135E+000
       23 -0.66277525E+000
       24 -0.68398313E+000
       25 -0.67235152E+000
       26 -0.68133147E+000
       27 -0.66337717E+000
       28 -0.68762569E+000
       29 -0.66542814E+000
       30 -0.69161930E+000
       31 -0.68454584E+000
       32 -0.67146531E+000
       33 -0.69722558E+000
       34 -0.65962823E+000
       35 -0.70358188E+000
       36 -0.66058372E+000
       37 -0.70699180E+000
       38 -0.66272672E+000
       39 -0.71002194E+000
       40 -0.68526934E+000
       41 -0.70401371E+000
       42 -0.66831555E+000
       43 -0.71595508E+000
       44 -0.65703181E+000
       45 -0.73425463E+000
       46 -0.65799904E+000
       47 -0.73481608E+000
       48 -0.70889721E+000
       49 -0.68155726E+000
       50 -0.72569759E+000
       51 -0.65973649E+000
       52 -0.73088545E+000
       53 -0.66390738E+000
       54 -0.73183266E+000
       55 -0.70653916E+000
       56 -0.73629191E+000
       57 -0.65578010E+000
       58 -0.79361092E+000
       59 -0.65657174E+000
       60 -0.67406598E+000
       61 -0.78012326E+000
       62 -0.74078457E+000
       63 -0.65783045E+000
       64 -0.75471446E+000
       65 -0.73974701E+000
       66 -0.66042842E+000
       67 -0.74138569E+000
       68 -0.69476125E+000
       69 -0.75429296E+000
       70 -0.66651503E+000
       71 -0.74432509E+000
       72 -0.95538121E+000
       73 -0.65597125E+000
       74 -0.65664321E+000
       75 -0.86729999E+000
       76 -0.65789730E+000
       77 -0.72618614E+000
       78 -0.76393632E+000
       79 -0.78673989E+000
       80 -0.67910633E+000
       81 -0.75640036E+000
       82 -0.65982265E+000
       83 -0.74560902E+000
       84 -0.66293872E+000
       85 -0.73822153E+000
       86 -0.75527590E+000
       87 -0.65686846E+000
       88 -0.11781746E+001
       89 -0.69885687E+000
       90 -0.76608279E+000
       91 -0.65776568E+000
       92 -0.10363342E+001
       93 -0.80005206E+000
       94 -0.65983247E+000
       95 -0.66719481E+000
       96 -0.74669366E+000
       97 -0.66300926E+000
       98 -0.72441471E+000
       99 -0.71624493E+000
      100 -0.75958556E+000
      101 -0.66742192E+000
      102 -0.71312348E+000
      103 -0.66919893E+000
      104 -0.75192569E+000
      105 -0.67196565E+000
      106 -0.72244545E+000
      107 -0.70856817E+000
      108 -0.65555663E+000
      109 -0.73449409E+000
      110 -0.72788584E+000
      111 -0.67078813E+000
      112 -0.59320148E+000
      113 -0.66399563E+000
      114 -0.64635496E+000
      115 -0.70583903E+000
      116 -0.44411865E+000
      117 -0.61067564E+000
      118 -0.55976492E+000
      119 -0.32473043E+000
      120 -0.35139140E+000
      121  0.00000000E+000
End values
