{
    "authors": [
        "guillaume.houzeaux@bsc.es"
    ],
    "comparisons": [
        {
            "file": "partis-inclined.pts.res-col5.out",
            "method": "absolute",
            "tolerance": "1.0e-2"
        },
        {
            "file": "partis-inclined.pts.res-col6.out",
            "method": "absolute",
            "tolerance": "1.0e-2"
        }		
    ],
    "description": "Droplet slipping along two inclined walls. To visualize trajectory, use results.plt in gnuplot",
    "include": [
		"normal"
	],
    "executions": [
        {
            "commands": {
                "postprocess": "[ALYA-PATH]/Utils/user/extractColumnFromFile.sh [NAME].pts.res 5 6 ; echo | [POST] [NAME]"
            },
            "mpi": 1,
            "openmp": 0
        }
    ],
    "modules": [
        "partis"
    ],
    "name": "partis-inclined",
    "postprocess": "alya2pos"
}
