 0.00000000E+000
 0.10000000E+001
 0.10000000E+001
 0.00000000E+000
 0.00000000E+000
 0.10000000E+001
 0.10000000E+001
 0.00000000E+000
 0.10000000E+001
 0.10000000E+001
 0.10000000E+001
 0.10000000E+001
 0.10000000E+001
 0.10000000E+001
 0.10000000E+001
 0.10000000E+001
 0.10000000E+001
 0.10000000E+001
 0.10000000E+001
 0.10000000E+001
 0.10000000E+001
 0.10000000E+001
 0.10000000E+001
 0.10000000E+001
 0.10000000E+001
 0.10000000E+001
 0.10000000E+001
 0.10000000E+001
 0.00000000E+000
 0.00000000E+000
 0.10000000E+001
 0.10000000E+001
 0.10000000E+001
 0.10000000E+001
 0.10000000E+001
 0.10000000E+001
 0.10000000E+001
 0.10000000E+001
 0.10000000E+001
 0.10000000E+001
 0.10000000E+001
 0.10000000E+001
 0.10000000E+001
 0.10000000E+001
 0.10000000E+001
 0.10000000E+001
 0.10000000E+001
 0.10000000E+001
 0.10000000E+001
 0.10000000E+001
 0.00000000E+000
 0.00000000E+000
 0.00000000E+000
 0.00000000E+000
 0.10000000E+001
 0.10000000E+001
 0.10000000E+001
 0.10000000E+001
 0.00000000E+000
 0.00000000E+000
 0.10000000E+001
 0.10000000E+001
 0.10000000E+001
 0.10000000E+001
 0.10000000E+001
 0.10000000E+001
 0.10000000E+001
 0.10000000E+001
 0.10000000E+001
 0.10000000E+001
 0.10000000E+001
 0.10000000E+001
 0.10000000E+001
 0.10000000E+001
 0.10000000E+001
 0.10000000E+001
 0.10000000E+001
 0.10000000E+001
 0.10000000E+001
 0.10000000E+001
 0.10000000E+001
 0.10000000E+001
 0.10000000E+001
 0.10000000E+001
 0.10000000E+001
 0.10000000E+001
 0.10000000E+001
 0.10000000E+001
 0.10000000E+001
 0.10000000E+001
 0.10000000E+001
 0.10000000E+001
 0.10000000E+001
 0.10000000E+001
 0.10000000E+001
 0.10000000E+001
 0.10000000E+001
 0.10000000E+001
 0.10000000E+001
 0.10000000E+001
 0.10000000E+001
 0.10000000E+001
 0.10000000E+001
 0.10000000E+001
 0.10000000E+001
 0.10000000E+001
 0.10000000E+001
 0.10000000E+001
 0.10000000E+001
 0.10000000E+001
 0.10000000E+001
 0.10000000E+001
 0.10000000E+001
 0.10000000E+001
 0.10000000E+001
 0.10000000E+001
 0.10000000E+001
 0.10000000E+001
 0.10000000E+001
 0.10000000E+001
 0.10000000E+001
 0.10000000E+001
 0.10000000E+001
 0.10000000E+001
 0.10000000E+001
 0.10000000E+001
 0.10000000E+001
 0.10000000E+001
 0.10000000E+001
 0.10000000E+001
 0.10000000E+001
 0.10000000E+001
 0.10000000E+001
 0.10000000E+001
 0.10000000E+001
 0.10000000E+001
 0.00000000E+000
 0.00000000E+000
 0.00000000E+000
 0.00000000E+000
 0.10000000E+001
 0.10000000E+001
 0.10000000E+001
 0.10000000E+001
 0.10000000E+001
 0.10000000E+001
 0.10000000E+001
 0.10000000E+001
 0.10000000E+001
 0.10000000E+001
 0.10000000E+001
 0.10000000E+001
 0.10000000E+001
 0.10000000E+001
 0.10000000E+001
 0.10000000E+001
 0.10000000E+001
 0.10000000E+001
 0.10000000E+001
 0.10000000E+001
 0.10000000E+001
 0.10000000E+001
 0.10000000E+001
 0.10000000E+001
 0.10000000E+001
 0.10000000E+001
 0.10000000E+001
 0.10000000E+001
 0.10000000E+001
 0.10000000E+001
 0.10000000E+001
 0.10000000E+001
 0.10000000E+001
 0.10000000E+001
 0.10000000E+001
 0.10000000E+001
