$-------------------------------------------------------------------
DIMENSIONS
  NODAL_POINTS      = 8
  ELEMENTS          = 1
  SPACE_DIMENSIONS  = 3
  TYPES_OF_ELEMENTS = HEX08
  BOUNDARIES        = 6
  MATERIALS         = 1
  FIELDS            = 1
    FIELD = 1, DIMENSIONS=1, ELEMENTS
  END_FIELDS
END_DIMENSIONS
$-------------------------------------------------------------------
STRATEGY
  INTEGRATION_RULE:                OPEN
  DOMAIN_INTEGRATION_POINTS:       0
  TRANSLATION:                     XTRAN=0.0   YTRAN=0.0   ZTRAN=0.0
  SCALE:                           XSCAL=0.194 YSCAL=0.194 ZSCAL=0.194
  EXTRAPOLATE_BOUNDARY_CONDITIONS: ON
  BOUNDARY_ELEMENT:                ON
END_STRATEGY
$-------------------------------------------------------------------
GEOMETRY
  INCLUDE ./sm154_d2T.geo.dat
END_GEOMETRY
$-------------------------------------------------------------------
SETS
  INCLUDE ./sm154_d2T.set.dat
END_SETS
$-------------------------------------------------------------------
BOUNDARY_CONDITIONS
  INCLUDE ./sm154_d2T.fix.dat
END_BOUNDARY_CONDITIONS
$-------------------------------------------------------------------
FIELDS
  INCLUDE ./sm154_d2T.fie.dat
END_FIELDS
$-------------------------------------------------------------------
