{
    "authors": [
        "guillaume.houzeaux@bsc.es"
    ],
    "comparisons": [
        {
            "file": "coupling_wall_exchange_exact.post.res",
            "method": "absolute",
            "tolerance": 0
        }
    ],
    "description": "Test of the wall exchange strategy ",
    "exclude": [
        "special"
    ],
    "executions": [
        {
            "mpi": 1,
            "openmp": 0
        },
        {
            "mpi": 8,
            "openmp": 0
        }
    ],
    "modules": [
        "nastin"
    ],
    "name": "coupling_wall_exchange_exact",
    "postprocess": "alya2pos"
}
