 0.00000000E+000  0.00000000E+000  0.00000000E+000
 0.64012715E+000  0.33204006E+000  0.33272421E+000
 0.62944390E+000 -0.32923625E+000  0.32658985E+000
 0.00000000E+000  0.00000000E+000  0.00000000E+000
 0.00000000E+000  0.00000000E+000  0.00000000E+000
 0.60952578E+000  0.33557531E+000 -0.33634821E+000
 0.61727109E+000 -0.32914735E+000 -0.33263112E+000
 0.00000000E+000  0.00000000E+000  0.00000000E+000
 0.57255844E-001  0.21534326E-002 -0.21534326E-002
 0.12473249E+000  0.12861668E-002 -0.12861668E-002
 0.17683949E+000  0.14118789E-002 -0.14118789E-002
 0.36499429E+000  0.59365089E-003 -0.59365089E-003
 0.51493720E-001 -0.69875052E-003  0.69875052E-003
 0.65270043E+000 -0.13294628E-002  0.13294628E-002
 0.98636347E-002  0.95436142E-003 -0.95436142E-003
 0.79188721E+000  0.24753888E-002 -0.24753888E-002
 0.65463999E+000  0.34098600E-003 -0.34098600E-003
 0.69628912E+000  0.28690874E+000  0.15938032E+000
 0.69535036E+000 -0.29255782E+000  0.15558752E+000
 0.65807143E+000 -0.16496535E-002 -0.16496535E-002
 0.79628120E+000 -0.17190766E-002 -0.17190766E-002
-0.41365912E-002 -0.13289384E-002 -0.13289384E-002
 0.64135143E+000  0.16944811E-002  0.16944811E-002
 0.77082685E-001  0.23483120E-002  0.23483120E-002
 0.34253908E+000  0.53865701E-003  0.53865701E-003
 0.15318966E+000 -0.11059166E-003 -0.11059166E-003
 0.10958441E+000 -0.48241555E-003 -0.48241555E-003
 0.50556113E-001  0.16886610E-002  0.16886610E-002
 0.00000000E+000  0.00000000E+000  0.00000000E+000
 0.00000000E+000  0.00000000E+000  0.00000000E+000
 0.63379360E-001  0.11756963E-002  0.11756963E-002
 0.11674038E+000 -0.58707826E-003 -0.58707826E-003
 0.17495098E+000 -0.42852061E-003 -0.42852061E-003
 0.35336798E+000  0.62378958E-003  0.62378958E-003
 0.71430729E-001  0.11559636E-002  0.11559636E-002
 0.64118945E+000  0.23414748E-002  0.23414748E-002
-0.16810976E-001  0.22459237E-002  0.22459237E-002
 0.79487931E+000  0.57509010E-003  0.57509010E-003
 0.64843197E+000 -0.37844536E-003 -0.37844536E-003
 0.68653543E+000  0.30167882E+000 -0.15823395E+000
 0.69317576E+000 -0.30418402E+000 -0.15498158E+000
 0.62785474E+000  0.67996660E-003 -0.67996660E-003
 0.80345283E+000  0.79841909E-003 -0.79841909E-003
-0.12825768E-001  0.23422614E-002 -0.23422614E-002
 0.64286974E+000  0.10522486E-002 -0.10522486E-002
 0.77081382E-001  0.13628165E-002 -0.13628165E-002
 0.35260438E+000  0.16493231E-003 -0.16493231E-003
 0.17412501E+000 -0.65658379E-003  0.65658379E-003
 0.10608980E+000  0.65970103E-003 -0.65970103E-003
 0.55026070E-001  0.20535229E-002 -0.20535229E-002
 0.00000000E+000  0.00000000E+000  0.00000000E+000
 0.00000000E+000  0.00000000E+000  0.00000000E+000
 0.00000000E+000  0.00000000E+000  0.00000000E+000
 0.00000000E+000  0.00000000E+000  0.00000000E+000
 0.71092409E+000  0.15398789E+000  0.28095953E+000
 0.69453136E+000  0.15536649E+000 -0.30438356E+000
 0.70261153E+000 -0.15112943E+000  0.28725487E+000
 0.69692563E+000 -0.15133800E+000 -0.30938112E+000
 0.00000000E+000  0.00000000E+000  0.00000000E+000
 0.00000000E+000  0.00000000E+000  0.00000000E+000
 0.68288068E-001  0.38963384E-002  0.72334093E-017
 0.63882861E-001  0.36535109E-001 -0.14082295E-017
 0.13050141E+000  0.14920623E-002 -0.33446163E-016
 0.12261941E+000  0.16992666E-001  0.87501067E-018
 0.17342295E+000  0.35605115E-003  0.89484766E-017
 0.16242468E+000  0.76533552E-002  0.00000000E+000
 0.35622667E+000 -0.63090302E-002  0.73373330E-016
 0.34208055E+000 -0.41372155E-002  0.35442840E-016
 0.52405636E-001 -0.99373229E-002 -0.11305890E-016
 0.63563158E-001 -0.66505693E-003 -0.64091856E-017
 0.64542388E+000 -0.71411040E-002  0.33235088E-016
 0.64359156E+000  0.37819950E-002  0.65502480E-016
 0.41529330E-002  0.64560765E-002  0.12111853E-017
-0.17588122E-002 -0.18418143E-001 -0.18968267E-017
 0.77041602E+000 -0.84176517E-001  0.00000000E+000
 0.77420072E+000  0.81697715E-001  0.35659353E-016
 0.48281708E+000  0.13138574E-001 -0.24185357E-016
 0.48963464E+000 -0.20131760E-001  0.48352626E-016
 0.72645052E-001 -0.49852489E-002 -0.77381931E-017
 0.68250801E-001  0.23071945E-001 -0.35144677E-017
 0.12457123E+000 -0.54185554E-002  0.26216440E-016
 0.11850071E+000  0.10153020E-001 -0.61020082E-017
 0.17199369E+000 -0.29381695E-002  0.00000000E+000
 0.17359521E+000  0.35098126E-002  0.93004773E-017
 0.35219760E+000 -0.15327354E-002  0.17899084E-016
 0.35177188E+000  0.28035167E-002  0.18547028E-016
 0.67498649E-001  0.11774826E-003 -0.60632617E-020
 0.68047049E-001  0.16145144E-002 -0.33254753E-018
 0.63836308E+000 -0.15152079E-002 -0.32793480E-016
 0.63991609E+000  0.82891259E-002 -0.34231980E-016
-0.17555585E-001  0.18824925E-001 -0.76895169E-017
-0.13530108E-001 -0.74965668E-002 -0.16287748E-017
 0.77734254E+000 -0.82890076E-001  0.14730724E-015
 0.78125649E+000  0.83356112E-001 -0.17808746E-015
 0.47614796E+000  0.19429241E-001 -0.25518969E-016
 0.46657765E+000 -0.20981704E-001  0.69916208E-016
 0.71720565E-001 -0.11687725E-016 -0.11813393E-001
 0.76662005E-001 -0.12869982E-016  0.18904519E-001
 0.13032917E+000 -0.20784417E-016 -0.42149699E-002
 0.12814378E+000 -0.19795687E-016  0.12978600E-001
 0.17661759E+000  0.18189291E-016 -0.33257421E-002
 0.17211983E+000  0.26053159E-016  0.52041748E-002
 0.36130571E+000 -0.56136808E-016 -0.62570630E-002
 0.34969153E+000  0.36620307E-016  0.23563188E-002
 0.54196063E-001  0.50285025E-017 -0.10738840E-001
 0.62011226E-001  0.80202305E-019 -0.15575250E-002
 0.64778356E+000  0.33356596E-016 -0.66579206E-002
 0.64267660E+000 -0.33312883E-016  0.42580536E-002
-0.24902015E-002  0.63536645E-018  0.18395960E-002
-0.11155823E-001 -0.30481656E-017 -0.24019705E-001
 0.77396603E+000  0.17236635E-016 -0.87846274E-001
 0.77545406E+000 -0.44079128E-016  0.80560579E-001
 0.48642570E+000  0.23675684E-016  0.66612493E-002
 0.48690970E+000 -0.20667892E-016 -0.28513396E-001
 0.83924247E+000  0.28339870E+000  0.27444788E+000
 0.83453641E+000  0.28963518E+000 -0.29831943E+000
 0.83942008E+000 -0.28865208E+000  0.27682055E+000
 0.83848802E+000 -0.29326790E+000 -0.29974564E+000
 0.48555980E+000  0.24405028E-016  0.11615278E-001
 0.46972271E+000  0.36622955E-016 -0.25358815E-001
 0.78051397E+000  0.12947888E-015 -0.86466002E-001
 0.78061945E+000  0.36052163E-016  0.80488114E-001
-0.89361899E-002 -0.56627800E-017  0.15349757E-001
-0.12432799E-001 -0.63835964E-019 -0.13672491E-001
 0.63922442E+000 -0.66480442E-016  0.20997115E-002
 0.64069026E+000  0.30239286E-016  0.76349596E-002
 0.66157913E-001  0.14172874E-016  0.35349713E-002
 0.65690741E-001 -0.22667574E-018 -0.11005081E-002
 0.34185760E+000  0.00000000E+000  0.66996989E-002
 0.34841164E+000  0.00000000E+000  0.25089100E-002
 0.16023487E+000 -0.17090631E-016 -0.57147625E-002
 0.16678819E+000 -0.10996336E-018 -0.10677416E-002
 0.12044358E+000  0.00000000E+000 -0.97454257E-002
 0.11595087E+000 -0.17912124E-016  0.45404095E-002
 0.64609945E-001  0.12289357E-016 -0.22414454E-001
 0.69087844E-001  0.26658742E-017  0.86583453E-002
 0.79012271E-001  0.00000000E+000  0.00000000E+000
 0.79012271E-001  0.00000000E+000  0.00000000E+000
 0.79012271E-001  0.00000000E+000  0.00000000E+000
 0.79012271E-001  0.00000000E+000  0.00000000E+000
 0.15910114E+000 -0.83760223E-002 -0.23897089E-001
 0.16203019E+000 -0.13488149E-001  0.27561602E-001
 0.15585361E+000  0.43760495E-001 -0.30052758E-001
 0.15909023E+000  0.37108216E-001  0.22439724E-001
 0.21119025E+000 -0.27579589E-002 -0.94400293E-002
 0.20710940E+000 -0.65515010E-002  0.14426399E-001
 0.20384316E+000  0.20132632E-001 -0.11881957E-001
 0.20231810E+000  0.16896565E-001  0.10366081E-001
 0.23842990E+000  0.10891506E-002 -0.38755235E-002
 0.23716441E+000 -0.21346290E-002  0.31587764E-002
 0.23086089E+000  0.80215851E-002 -0.50345884E-002
 0.23071277E+000  0.54831412E-002  0.94456422E-003
 0.41968520E+000 -0.22867621E-002 -0.25551322E-002
 0.41472274E+000 -0.13082087E-002  0.12700632E-002
 0.40938620E+000  0.31237176E-003  0.12459694E-002
 0.41124411E+000  0.39238806E-002  0.25238572E-002
 0.11407388E+000 -0.47724764E-002 -0.63572809E-002
 0.11836389E+000  0.53244493E-003 -0.37842573E-003
 0.11853323E+000  0.16654910E-002  0.11447737E-002
 0.12247311E+000  0.52085674E-002  0.63942208E-003
 0.70729535E+000 -0.57394055E-002 -0.52874267E-002
 0.70517019E+000 -0.13858026E-002  0.53753449E-002
 0.70502272E+000  0.50892648E-002 -0.45324658E-003
 0.70661708E+000  0.96324820E-002  0.68823962E-002
 0.52717416E-001  0.83393303E-002  0.60770638E-002
 0.46382816E-001  0.17697469E-001 -0.21025594E-001
 0.51080892E-001 -0.15887072E-001  0.13263494E-001
 0.47351583E-001 -0.80977946E-002 -0.15559561E-001
 0.81640259E+000 -0.87572448E-001 -0.89756351E-001
 0.81643123E+000 -0.85061318E-001  0.83048543E-001
 0.81782930E+000  0.85061543E-001 -0.87808918E-001
 0.81928139E+000  0.86867320E-001  0.84436389E-001
 0.36888360E+000  0.18317155E-001  0.12574907E-001
 0.36657237E+000  0.22368505E-001 -0.32143575E-001
 0.37104302E+000 -0.25984257E-001  0.13967232E-001
 0.36115814E+000 -0.23857713E-001 -0.29499669E-001
