GiD Post Results File 1.0
 
Result VELOC ALYA  0.64737770E-02 Vector OnNodes
ComponentNames VELOC_X,VELOC_Y,VELOC_Z
Values
          1  0.30000000E+001  0.50000000E+001
          2  0.28750000E+001  0.48750000E+001
          3  0.35000000E+001  0.60000000E+001
          4  0.22500000E+001  0.37500000E+001
          5  0.27500000E+001  0.47500000E+001
          6  0.21250000E+001  0.36250000E+001
          7  0.33750000E+001  0.58750000E+001
          8  0.15000000E+001  0.25000000E+001
          9  0.40000000E+001  0.70000000E+001
         10  0.26250000E+001  0.46250000E+001
         11  0.32500000E+001  0.57500000E+001
         12  0.20000000E+001  0.35000000E+001
         13  0.38750000E+001  0.68750000E+001
         14  0.13750000E+001  0.23750000E+001
         15  0.25000000E+001  0.45000000E+001
         16  0.31250000E+001  0.56250000E+001
         17  0.18750000E+001  0.33750000E+001
         18  0.75000000E+000  0.12500000E+001
         19  0.45000000E+001  0.80000000E+001
         20  0.37500000E+001  0.67500000E+001
         21  0.12500000E+001  0.22500000E+001
         22  0.23750000E+001  0.43750000E+001
         23  0.62500000E+000  0.11250000E+001
         24  0.43750000E+001  0.78750000E+001
         25  0.30000000E+001  0.55000000E+001
         26  0.17500000E+001  0.32500000E+001
         27  0.36250000E+001  0.66250000E+001
         28  0.11250000E+001  0.21250000E+001
         29  0.00000000E+000  0.00000000E+000
         30  0.50000000E+001  0.90000000E+001
         31  0.42500000E+001  0.77500000E+001
         32  0.50000000E+000  0.10000000E+001
         33  0.22500000E+001  0.42500000E+001
         34  0.28750000E+001  0.53750000E+001
         35  0.16250000E+001  0.31250000E+001
         36  0.35000000E+001  0.65000000E+001
         37  0.10000000E+001  0.20000000E+001
         38  0.21250000E+001  0.41250000E+001
         39  0.27500000E+001  0.52500000E+001
         40  0.15000000E+001  0.30000000E+001
         41  0.20000000E+001  0.40000000E+001
         42  0.27500000E+001  0.47500000E+001
         43  0.26250000E+001  0.46250000E+001
         44  0.20000000E+001  0.35000000E+001
         45  0.32500000E+001  0.57500000E+001
         46  0.25000000E+001  0.45000000E+001
         47  0.18750000E+001  0.33750000E+001
         48  0.31250000E+001  0.56250000E+001
         49  0.12500000E+001  0.22500000E+001
         50  0.37500000E+001  0.67500000E+001
         51  0.23750000E+001  0.43750000E+001
         52  0.30000000E+001  0.55000000E+001
         53  0.17500000E+001  0.32500000E+001
         54  0.22500000E+001  0.42500000E+001
End values

Result PRESS ALYA  0.64737770E-02 Scalar OnNodes
ComponentNames PRESS
Values
          1  0.70000000E+001
          2  0.68750000E+001
          3  0.85000000E+001
          4  0.52500000E+001
          5  0.67500000E+001
          6  0.51250000E+001
          7  0.83750000E+001
          8  0.35000000E+001
          9  0.10000000E+002
         10  0.66250000E+001
         11  0.82500000E+001
         12  0.50000000E+001
         13  0.98750000E+001
         14  0.33750000E+001
         15  0.65000000E+001
         16  0.81250000E+001
         17  0.48750000E+001
         18  0.17500000E+001
         19  0.11500000E+002
         20  0.97500000E+001
         21  0.32500000E+001
         22  0.63750000E+001
         23  0.16250000E+001
         24  0.11375000E+002
         25  0.80000000E+001
         26  0.47500000E+001
         27  0.96250000E+001
         28  0.31250000E+001
         29  0.00000000E+000
         30  0.13000000E+002
         31  0.11250000E+002
         32  0.15000000E+001
         33  0.62500000E+001
         34  0.78750000E+001
         35  0.46250000E+001
         36  0.95000000E+001
         37  0.30000000E+001
         38  0.61250000E+001
         39  0.77500000E+001
         40  0.45000000E+001
         41  0.60000000E+001
         42  0.67500000E+001
         43  0.66250000E+001
         44  0.50000000E+001
         45  0.82500000E+001
         46  0.65000000E+001
         47  0.48750000E+001
         48  0.81250000E+001
         49  0.32500000E+001
         50  0.97500000E+001
         51  0.63750000E+001
         52  0.80000000E+001
         53  0.47500000E+001
         54  0.62500000E+001
End values

