GiD Post Results File 1.0
 
Result DISPL ALYA  0.00000000E+00 Vector OnNodes
ComponentNames DISPL_X,DISPL_Y,DISPL_Z
Values
          1  0.00000000E+000  0.00000000E+000
          2  0.00000000E+000  0.00000000E+000
          3  0.00000000E+000  0.00000000E+000
          4  0.00000000E+000  0.00000000E+000
          5  0.00000000E+000  0.00000000E+000
          6  0.00000000E+000  0.00000000E+000
          7  0.00000000E+000  0.00000000E+000
          8  0.00000000E+000  0.00000000E+000
          9  0.00000000E+000  0.00000000E+000
         10  0.00000000E+000  0.00000000E+000
         11  0.00000000E+000  0.00000000E+000
         12  0.00000000E+000  0.00000000E+000
         13  0.00000000E+000  0.00000000E+000
         14  0.00000000E+000  0.00000000E+000
         15  0.00000000E+000  0.00000000E+000
         16  0.00000000E+000  0.00000000E+000
         17  0.00000000E+000  0.00000000E+000
         18  0.00000000E+000  0.00000000E+000
         19  0.00000000E+000  0.00000000E+000
         20  0.00000000E+000  0.00000000E+000
         21  0.00000000E+000  0.00000000E+000
         22  0.00000000E+000  0.00000000E+000
         23  0.00000000E+000  0.00000000E+000
         24  0.00000000E+000  0.00000000E+000
         25  0.00000000E+000  0.00000000E+000
         26  0.00000000E+000  0.00000000E+000
         27  0.00000000E+000  0.00000000E+000
         28  0.00000000E+000  0.00000000E+000
         29  0.00000000E+000  0.00000000E+000
         30  0.00000000E+000  0.00000000E+000
         31  0.00000000E+000  0.00000000E+000
         32  0.00000000E+000  0.00000000E+000
         33  0.00000000E+000  0.00000000E+000
         34  0.00000000E+000  0.00000000E+000
         35  0.00000000E+000  0.00000000E+000
         36  0.00000000E+000  0.00000000E+000
         37  0.00000000E+000  0.00000000E+000
         38  0.00000000E+000  0.00000000E+000
         39  0.00000000E+000  0.00000000E+000
         40  0.00000000E+000  0.00000000E+000
         41  0.00000000E+000  0.00000000E+000
         42  0.00000000E+000  0.00000000E+000
         43  0.00000000E+000  0.00000000E+000
         44  0.00000000E+000  0.00000000E+000
         45  0.00000000E+000  0.00000000E+000
         46  0.00000000E+000  0.00000000E+000
         47  0.00000000E+000  0.00000000E+000
         48  0.00000000E+000  0.00000000E+000
         49  0.00000000E+000  0.00000000E+000
         50  0.00000000E+000  0.00000000E+000
         51  0.00000000E+000  0.00000000E+000
         52  0.00000000E+000  0.00000000E+000
         53  0.00000000E+000  0.00000000E+000
         54  0.00000000E+000  0.00000000E+000
         55  0.00000000E+000  0.00000000E+000
         56  0.00000000E+000  0.00000000E+000
         57  0.00000000E+000  0.00000000E+000
         58  0.00000000E+000  0.00000000E+000
         59  0.00000000E+000  0.00000000E+000
         60  0.00000000E+000  0.00000000E+000
         61  0.00000000E+000  0.00000000E+000
         62  0.00000000E+000  0.00000000E+000
         63  0.00000000E+000  0.00000000E+000
         64  0.00000000E+000  0.00000000E+000
         65  0.00000000E+000  0.00000000E+000
         66  0.00000000E+000  0.00000000E+000
         67  0.00000000E+000  0.00000000E+000
         68  0.00000000E+000  0.00000000E+000
         69  0.00000000E+000  0.00000000E+000
         70  0.00000000E+000  0.00000000E+000
         71  0.00000000E+000  0.00000000E+000
         72  0.00000000E+000  0.00000000E+000
         73  0.00000000E+000  0.00000000E+000
         74  0.00000000E+000  0.00000000E+000
         75  0.00000000E+000  0.00000000E+000
         76  0.00000000E+000  0.00000000E+000
         77  0.00000000E+000  0.00000000E+000
         78  0.00000000E+000  0.00000000E+000
         79  0.00000000E+000  0.00000000E+000
         80  0.00000000E+000  0.00000000E+000
         81  0.00000000E+000  0.00000000E+000
         82  0.00000000E+000  0.00000000E+000
         83  0.00000000E+000  0.00000000E+000
         84  0.00000000E+000  0.00000000E+000
         85  0.00000000E+000  0.00000000E+000
         86  0.00000000E+000  0.00000000E+000
         87  0.00000000E+000  0.00000000E+000
         88  0.00000000E+000  0.00000000E+000
         89  0.00000000E+000  0.00000000E+000
         90  0.00000000E+000  0.00000000E+000
         91  0.00000000E+000  0.00000000E+000
         92  0.00000000E+000  0.00000000E+000
         93  0.00000000E+000  0.00000000E+000
         94  0.00000000E+000  0.00000000E+000
         95  0.00000000E+000  0.00000000E+000
         96  0.00000000E+000  0.00000000E+000
         97  0.00000000E+000  0.00000000E+000
         98  0.00000000E+000  0.00000000E+000
         99  0.00000000E+000  0.00000000E+000
        100  0.00000000E+000  0.00000000E+000
        101  0.00000000E+000  0.00000000E+000
        102  0.00000000E+000  0.00000000E+000
        103  0.00000000E+000  0.00000000E+000
        104  0.00000000E+000  0.00000000E+000
        105  0.00000000E+000  0.00000000E+000
End values

Result DISPL ALYA  0.10000000E-02 Vector OnNodes
ComponentNames DISPL_X,DISPL_Y,DISPL_Z
Values
          1  0.00000000E+000  0.00000000E+000
          2  0.00000000E+000  0.00000000E+000
          3  0.53312093E-003  0.95542423E-006
          4  0.53313211E-003 -0.80143263E-006
          5  0.00000000E+000  0.00000000E+000
          6  0.00000000E+000  0.00000000E+000
          7  0.00000000E+000  0.00000000E+000
          8  0.15330704E-003 -0.99081206E-004
          9  0.28585963E-003 -0.14047606E-003
         10  0.40670698E-003 -0.14496219E-003
         11  0.50347179E-003 -0.12659096E-003
         12  0.56985087E-003 -0.95914057E-004
         13  0.60639742E-003 -0.62003876E-004
         14  0.61765316E-003 -0.30786775E-004
         15  0.60898768E-003 -0.66856767E-005
         16  0.58936893E-003  0.78231319E-005
         17  0.56913138E-003  0.13257319E-004
         18  0.55426211E-003  0.12962762E-004
         19  0.54539202E-003  0.10370437E-004
         20  0.54064335E-003  0.76204096E-005
         21  0.53808525E-003  0.53993766E-005
         22  0.53654314E-003  0.38340071E-005
         23  0.53546981E-003  0.27357104E-005
         24  0.53465544E-003  0.20009435E-005
         25  0.53401320E-003  0.14890899E-005
         26  0.53348650E-003  0.11609836E-005
         27  0.53297202E-003  0.62872955E-006
         28  0.53289930E-003  0.72738218E-007
         29  0.53298007E-003 -0.48047554E-006
         30  0.53349172E-003 -0.10015334E-005
         31  0.53402115E-003 -0.13372498E-005
         32  0.53466717E-003 -0.18291979E-005
         33  0.53549163E-003 -0.25767940E-005
         34  0.53657847E-003 -0.36481849E-005
         35  0.53814504E-003 -0.52351456E-005
         36  0.54073652E-003 -0.74154832E-005
         37  0.54552155E-003 -0.10148854E-004
         38  0.55439634E-003 -0.12587351E-004
         39  0.56918648E-003 -0.12685908E-004
         40  0.58922804E-003 -0.69254410E-005
         41  0.60858660E-003  0.77690560E-005
         42  0.61703229E-003  0.31923533E-004
         43  0.60564325E-003  0.62927636E-004
         44  0.56911723E-003  0.96529345E-004
         45  0.50299468E-003  0.12676921E-003
         46  0.40662861E-003  0.14478628E-003
         47  0.28614634E-003  0.14001786E-003
         48  0.15367077E-003  0.98534864E-004
         49  0.12878727E-003  0.23091977E-004
         50  0.27631445E-003  0.47984345E-004
         51  0.40602529E-003  0.58101117E-004
         52  0.50884174E-003  0.55941948E-004
         53  0.57840775E-003  0.46489374E-004
         54  0.61568862E-003  0.33581242E-004
         55  0.62577259E-003  0.20879982E-004
         56  0.61527038E-003  0.10191366E-004
         57  0.59363868E-003  0.24910416E-005
         58  0.57128713E-003 -0.23430178E-005
         59  0.55469506E-003 -0.43447557E-005
         60  0.54487033E-003 -0.45737072E-005
         61  0.53984622E-003 -0.37743022E-005
         62  0.53737148E-003 -0.28827096E-005
         63  0.53601018E-003 -0.20136073E-005
         64  0.53510448E-003 -0.14445668E-005
         65  0.53441307E-003 -0.98039021E-006
         66  0.53386040E-003 -0.72732055E-006
         67  0.53340161E-003 -0.54574565E-006
         68  0.12591995E-003 -0.19301503E-007
         69  0.27055049E-003 -0.10500078E-006
         70  0.40460601E-003 -0.28381201E-007
         71  0.50981824E-003  0.58795943E-007
         72  0.58104343E-003  0.30253514E-006
         73  0.61889327E-003  0.39690221E-006
         74  0.62873515E-003  0.56309964E-006
         75  0.61781553E-003  0.47702644E-006
         76  0.59570787E-003  0.47560339E-006
         77  0.57263663E-003  0.27961078E-006
         78  0.55521794E-003  0.25982300E-006
         79  0.54481214E-003  0.10928806E-006
         80  0.53954267E-003  0.14533608E-006
         81  0.53704543E-003  0.58397210E-007
         82  0.53575263E-003  0.11633041E-006
         83  0.53492601E-003  0.57921987E-007
         84  0.53429842E-003  0.10246286E-006
         85  0.53379171E-003  0.63314678E-007
         86  0.53336663E-003  0.86827667E-007
         87  0.12880675E-003 -0.23197642E-004
         88  0.27639543E-003 -0.48233644E-004
         89  0.40628646E-003 -0.58168131E-004
         90  0.50931121E-003 -0.55799526E-004
         91  0.57899834E-003 -0.45894050E-004
         92  0.61627657E-003 -0.32771424E-004
         93  0.62626261E-003 -0.19777615E-004
         94  0.61560507E-003 -0.92334638E-005
         95  0.59378389E-003 -0.15829146E-005
         96  0.57127679E-003  0.28918482E-005
         97  0.55461121E-003  0.48200777E-005
         98  0.54477711E-003  0.47945520E-005
         99  0.53977314E-003  0.40436163E-005
        100  0.53732061E-003  0.30157229E-005
        101  0.53597832E-003  0.22350898E-005
        102  0.53508331E-003  0.15741691E-005
        103  0.53440147E-003  0.11771510E-005
        104  0.53385198E-003  0.86189131E-006
        105  0.53339671E-003  0.71596447E-006
End values

