# --| ALYA Cardiac Cycle Computations
# --| 
# --|  1. Step increment
# --|  2. Step time
# --|  3. Cavity #1
# --|  4. Cavity #1: cycle
# --|  5. Cavity #1: phase
# --|  6. Cavity #1: volume
# --|  7. Cavity #1: cavity pressure
# --|  8. Cavity #1: outflow windkessel pressure
# --|  9. Cavity #2
# --|  10. Cavity #2: cycle
# --|  11. Cavity #2: phase
# --|  12. Cavity #2: volume
# --|  13. Cavity #2: cavity pressure
# --|  14. Cavity #2: outflow windkessel pressure
# --|  15. Overall calcium integral
# --| 
          1   0.10000000E-003   1   1   0   0.24888805E+000   0.20020000E+000   0.15000000E+003   2   2   0   0.47360887E-001   0.12020000E+000   0.80000000E+002   0.42227156E-002
          2   0.20000000E-003   1   1   0   0.24888809E+000   0.40040000E+000   0.15000000E+003   2   2   0   0.47360896E-001   0.24040000E+000   0.80000000E+002   0.42227156E-002
          3   0.30000000E-003   1   1   0   0.24888820E+000   0.60060000E+000   0.15000000E+003   2   2   0   0.47360915E-001   0.36060000E+000   0.80000000E+002   0.43533949E-002
          4   0.40000000E-003   1   1   0   0.24888841E+000   0.80080000E+000   0.15000000E+003   2   2   0   0.47360950E-001   0.48080000E+000   0.80000000E+002   0.44836390E-002
          5   0.50000000E-003   1   1   0   0.24888874E+000   0.10010000E+001   0.15000000E+003   2   2   0   0.47361002E-001   0.60100000E+000   0.80000000E+002   0.46134489E-002
          6   0.60000000E-003   1   1   0   0.24888920E+000   0.12012000E+001   0.15000000E+003   2   2   0   0.47361070E-001   0.72120000E+000   0.80000000E+002   0.47428257E-002
          7   0.70000000E-003   1   1   0   0.24888982E+000   0.14014000E+001   0.15000000E+003   2   2   0   0.47361155E-001   0.84140000E+000   0.80000000E+002   0.48722533E-002
          8   0.80000000E-003   1   1   0   0.24889061E+000   0.16016000E+001   0.15000000E+003   2   2   0   0.47361254E-001   0.96160000E+000   0.80000000E+002   0.50022365E-002
          9   0.90000000E-003   1   1   0   0.24889159E+000   0.18018000E+001   0.15000000E+003   2   2   0   0.47361368E-001   0.10818000E+001   0.80000000E+002   0.51344797E-002
         10   0.10000000E-002   1   1   0   0.24889276E+000   0.20020000E+001   0.15000000E+003   2   2   0   0.47361493E-001   0.12020000E+001   0.80000000E+002   0.52662803E-002
         11   0.11000000E-002   1   1   0   0.24889412E+000   0.22022000E+001   0.15000000E+003   2   2   0   0.47361628E-001   0.13222000E+001   0.80000000E+002   0.53976394E-002
         12   0.12000000E-002   1   1   0   0.24889566E+000   0.24024000E+001   0.15000000E+003   2   2   0   0.47361771E-001   0.14424000E+001   0.80000000E+002   0.55324393E-002
         13   0.13000000E-002   1   1   0   0.24889739E+000   0.26026000E+001   0.15000000E+003   2   2   0   0.47361922E-001   0.15626000E+001   0.80000000E+002   0.56702160E-002
         14   0.14000000E-002   1   1   0   0.24889929E+000   0.28028000E+001   0.15000000E+003   2   2   0   0.47362077E-001   0.16828000E+001   0.80000000E+002   0.58113311E-002
         15   0.15000000E-002   1   1   0   0.24890136E+000   0.30030000E+001   0.15000000E+003   2   2   0   0.47362237E-001   0.18030000E+001   0.80000000E+002   0.59519722E-002
