{
    "authors": [
        "ambrus.both@bsc.es"
    ],
    "comparisons": [
        {
            "file": "cough_i4.pts.res-col13.out",
            "method": "absolute",
            "tolerance": "1.0e-15"
        },
        {
            "file": "cough_i4.pts.res-col14.out",
            "method": "absolute",
            "tolerance": "1.0e-5"
        },
        {
            "file": "cough_i4.pts.res-col15.out",
            "method": "absolute",
            "tolerance": "1.0e-11"
        },
        {
            "file": "cough_i4.pts.res-col16.out",
            "method": "absolute",
            "tolerance": "1.0e-9"
        },
        {
            "file": "cough_i4.pts.res-col17.out",
            "method": "absolute",
            "tolerance": "1.0e-15"
        },
        {
            "file": "cough_i4.pts.res-col18.out",
            "method": "absolute",
            "tolerance": "1.0e-15"
        }
	],
    "description": "Cough with water droplets limited to a minimum size.",
    "executions": [
        {
            "commands": {
                "postprocess": "[ALYA-PATH]/Utils/user/extractColumnFromFile.sh [NAME].pts.res 13 14 15 16 17 18; echo | [POST] [NAME]"
            },
            "mpi": 3,
            "openmp": 0
        }
    ],
    "include": [
        "i4",
		"normal"
    ],
    "modules": [
        "partis"
    ],
    "name": "cough_i4",
    "postprocess": "mpio2txt"
}
