# ALYA Lagrangian postprocess  
#
# HEADER
# T , Column :   1
# ILAGR , Column :   2
# ITYPE , Column :   3
# EXIST , Column :   4
# COORX , Column :   5
# COORY , Column :   6
# COORZ , Column :   7
# VELOX , Column :   8
# VELOY , Column :   9
# VELOZ , Column :  10
# DTK , Column :  11
# CD , Column :  12
# TEMPK , Column :  13
# MASSK , Column :  14
# DIAMK , Column :  15
#               T            ILAGR            ITYPE            EXIST            COORX            COORY            COORZ            VELOX            VELOY            VELOZ              DTK               CD            TEMPK            MASSK            DIAMK            
  0.00000000E+000                1                1               -5  1.00000000E-001  0.00000000E+000  0.00000000E+000  9.00000000E+000  1.70000000E+001  1.00000000E+001  3.00000000E-004  0.00000000E+000  3.50000000E+002  1.38624802E-005  3.00000000E-003
  3.00000000E-004                1                1               -1  1.02699569E-001  5.09918541E-003  2.99952083E-003  8.99712499E+000  1.69945694E+001  9.99680554E+000  3.00000000E-004  4.40000000E-001  3.49965855E+002  1.38615982E-005  2.99992601E-003
  6.00000000E-004                1                1               -1  1.05397844E-001  1.01959279E-002  5.99760464E-003  8.99137789E+000  1.69837138E+001  9.99041987E+000  3.00000000E-004  4.40000000E-001  3.49931780E+002  1.38607181E-005  2.99985217E-003
  9.00000000E-004                1                1               -1  1.08094396E-001  1.52894153E-002  8.99377373E-003  8.98563664E+000  1.69728692E+001  9.98404072E+000  3.00000000E-004  4.40000000E-001  3.49897778E+002  1.38598398E-005  2.99977849E-003
  1.20000000E-003                1                1               -1  1.10789227E-001  2.03796511E-002  1.19880300E-002  8.97990125E+000  1.69620357E+001  9.97766806E+000  3.00000000E-004  4.40000000E-001  3.49863849E+002  1.38589634E-005  2.99970497E-003
  1.50000000E-003                1                1               -1  1.13482338E-001  2.54666384E-002  1.49803755E-002  8.97417171E+000  1.69512132E+001  9.97130190E+000  3.00000000E-004  4.40000000E-001  3.49829993E+002  1.38580890E-005  2.99963161E-003
  1.80000000E-003                1                1               -1  1.16173731E-001  3.05503807E-002  1.79708122E-002  8.96844801E+000  1.69404018E+001  9.96494223E+000  3.00000000E-004  4.40000000E-001  3.49796211E+002  1.38572164E-005  2.99955840E-003
  2.10000000E-003                1                1               -1  1.18863408E-001  3.56308811E-002  2.09593419E-002  8.96273015E+000  1.69296014E+001  9.95858905E+000  3.00000000E-004  4.40000000E-001  3.49762500E+002  1.38563456E-005  2.99948534E-003
  2.40000000E-003                1                1               -1  1.21551370E-001  4.07081432E-002  2.39459666E-002  8.95701812E+000  1.69188120E+001  9.95224235E+000  3.00000000E-004  4.40000000E-001  3.49728862E+002  1.38554768E-005  2.99941245E-003
  2.70000000E-003                1                1               -1  1.24237619E-001  4.57821700E-002  2.69306882E-002  8.95131192E+000  1.69080336E+001  9.94590214E+000  3.00000000E-004  4.40000000E-001  3.49695295E+002  1.38546098E-005  2.99933970E-003
  3.00000000E-003                1                1               -1  1.26922158E-001  4.92963792E-002  2.99004785E-002  8.94561119E+000 -1.70612945E+001  9.65530034E+000  2.50000000E-004  4.40000000E-001  3.49661790E+002  1.38537443E-005  2.99926709E-003
  3.30000000E-003                1                1               -1  1.29604987E-001  4.41779986E-002  3.27961328E-002  8.93991505E+000 -1.70612432E+001  9.64906179E+000  3.00000000E-004  4.40000000E-001  3.49628366E+002  1.38528810E-005  2.99919466E-003
  3.60000000E-003                1                1               -1  1.32286108E-001  3.90612548E-002  3.56899300E-002  8.93422407E+000 -1.70503823E+001  9.64291938E+000  3.00000000E-004  4.40000000E-001  3.49595007E+002  1.38520193E-005  2.99912236E-003
  3.90000000E-003                1                1               -1  1.34965522E-001  3.39477675E-002  3.85818854E-002  8.92853892E+000 -1.70395325E+001  9.63678326E+000  3.00000000E-004  4.40000000E-001  3.49561719E+002  1.38511595E-005  2.99905021E-003
  4.20000000E-003                1                1               -1  1.37643232E-001  2.88375336E-002  4.14720009E-002  8.92285957E+000 -1.70286939E+001  9.63065341E+000  3.00000000E-004  4.40000000E-001  3.49528501E+002  1.38503015E-005  2.99897822E-003
  4.50000000E-003                1                1               -1  1.40319239E-001  2.37305495E-002  4.43602783E-002  8.91718604E+000 -1.70178663E+001  9.62452983E+000  3.00000000E-004  4.40000000E-001  3.49495354E+002  1.38494453E-005  2.99890638E-003
  4.80000000E-003                1                1               -1  1.42993544E-001  1.86268121E-002  4.72467197E-002  8.91151832E+000 -1.70070498E+001  9.61841252E+000  3.00000000E-004  4.40000000E-001  3.49462276E+002  1.38485909E-005  2.99883469E-003
  5.10000000E-003                1                1               -1  1.45666150E-001  1.35244488E-002  4.96540218E-002  8.90585618E+000 -1.70710115E+001 -9.47888254E+000  3.00000000E-004  4.40000000E-001  3.49429261E+002  1.38477382E-005  2.99876313E-003
  5.40000000E-003                1                1               -1  1.48337059E-001  8.40476838E-003  4.68103505E-002  8.90019915E+000 -1.70601917E+001 -9.47892630E+000  3.00000000E-004  4.40000000E-001  3.49396322E+002  1.38468874E-005  2.99869174E-003
  5.70000000E-003                1                1               -1  1.51006271E-001  3.28833570E-003  4.39675754E-002  8.89454811E+000 -1.70493595E+001 -9.47290780E+000  3.00000000E-004  4.40000000E-001  3.49363450E+002  1.38460383E-005  2.99862049E-003
  6.00000000E-003                1                1               -1  1.53673788E-001 -1.82484902E-003  4.11266049E-002  8.88890285E+000 -1.70385385E+001 -9.46689547E+000  3.00000000E-004  4.40000000E-001  3.49330647E+002  1.38451910E-005  2.99854939E-003
  6.30000000E-003                1                1               -1  1.56339613E-001 -6.93478909E-003  3.82874372E-002  8.88326339E+000 -1.70277286E+001 -9.46088930E+000  3.00000000E-004  4.40000000E-001  3.49297912E+002  1.38443454E-005  2.99847843E-003
  6.60000000E-003                1                1               -1  1.59003747E-001 -1.20414879E-002  3.54500704E-002  8.87762970E+000 -1.70169298E+001 -9.45488929E+000  3.00000000E-004  4.40000000E-001  3.49265246E+002  1.38435016E-005  2.99840763E-003
  6.90000000E-003                1                1               -1  1.61666192E-001 -1.71449486E-002  3.26145027E-002  8.87200179E+000 -1.70061420E+001 -9.44889543E+000  3.00000000E-004  4.40000000E-001  3.49232647E+002  1.38426596E-005  2.99833696E-003
  7.20000000E-003                1                1               -1  1.64326949E-001 -2.22451747E-002  2.97807322E-002  8.86637965E+000 -1.69953653E+001 -9.44290771E+000  3.00000000E-004  4.40000000E-001  3.49200116E+002  1.38418193E-005  2.99826645E-003
  7.50000000E-003                1                1               -1  1.66986021E-001 -2.73421695E-002  2.69487571E-002  8.86076327E+000 -1.69845997E+001 -9.43692614E+000  3.00000000E-004  4.40000000E-001  3.49167652E+002  1.38409808E-005  2.99819607E-003
  7.80000000E-003                1                1               -1  1.69643408E-001 -3.24359362E-002  2.41185756E-002  8.85515266E+000 -1.69738451E+001 -9.43095070E+000  3.00000000E-004  4.40000000E-001  3.49135256E+002  1.38401439E-005  2.99812585E-003
  8.10000000E-003                1                1               -1  1.72299113E-001 -3.75264782E-002  2.12901858E-002  8.84954781E+000 -1.69631015E+001 -9.42498140E+000  3.00000000E-004  4.40000000E-001  3.49102926E+002  1.38393088E-005  2.99805576E-003
  8.40000000E-003                1                1               -1  1.74953138E-001 -4.26137987E-002  1.84635859E-002  8.84394871E+000 -1.69523690E+001 -9.41901823E+000  3.00000000E-004  4.40000000E-001  3.49070662E+002  1.38384754E-005  2.99798582E-003
  8.70000000E-003                1                1               -1  1.77605483E-001 -4.76979012E-002  1.56387739E-002  8.83835536E+000 -1.69416475E+001 -9.41306118E+000  3.00000000E-004  4.40000000E-001  3.49038465E+002  1.38376438E-005  2.99791602E-003
  9.00000000E-003                1                1               -1  1.80256154E-001 -4.97401821E-002  1.28157461E-002  8.83289459E+000 -3.49341442E-012 -9.40724532E+000  1.73611111E-004  4.40000000E-001  3.49007091E+002  1.38368333E-005  2.99784801E-003
  9.30000000E-003                1                1               -1  1.82905514E-001 -4.97401821E-002  9.99411327E-003  8.82950970E+000 -2.98694815E-012 -9.40364033E+000  2.50000000E-004  4.40000000E-001  3.48981647E+002  1.38361761E-005  2.99779285E-003
  9.60000000E-003                1                1               -1  1.85553860E-001 -4.97401821E-002  7.17356158E-003  8.82612691E+000 -2.98580378E-012 -9.40003758E+000  3.00000000E-004  4.40000000E-001  3.48956250E+002  1.38355201E-005  2.99773779E-003
  9.90000000E-003                1                1               -1  1.88201191E-001 -4.97401821E-002  4.35409037E-003  8.82274628E+000 -2.98466014E-012 -9.39643713E+000  3.00000000E-004  4.40000000E-001  3.48930893E+002  1.38348651E-005  2.99768281E-003
  1.02000000E-002                1                1               -1  1.90847508E-001 -4.97401821E-002  1.53569899E-003  8.81936761E+000 -2.98351717E-012 -9.39283876E+000  3.00000000E-004  4.40000000E-001  3.48905575E+002  1.38342111E-005  2.99762792E-003
  1.05000000E-002                1                1               -1  1.93492812E-001 -4.97401821E-002 -1.28161320E-003  8.81599090E+000 -2.98237485E-012 -9.38924248E+000  3.00000000E-004  4.40000000E-001  3.48880296E+002  1.38335581E-005  2.99757312E-003
  1.08000000E-002                1                1               -1  1.96137103E-001 -4.97401821E-002 -4.09784681E-003  8.81261615E+000 -2.98123320E-012 -9.38564829E+000  3.00000000E-004  4.40000000E-001  3.48855057E+002  1.38329061E-005  2.99751840E-003
  1.11000000E-002                1                1               -1  1.98780382E-001 -4.97401821E-002 -6.91300248E-003  8.80924335E+000 -2.98009222E-012 -9.38205619E+000  3.00000000E-004  4.40000000E-001  3.48829857E+002  1.38322552E-005  2.99746376E-003
  1.14000000E-002                1                1               -1  2.01422649E-001 -4.97401821E-002 -9.72708084E-003  8.80587252E+000 -2.97895189E-012 -9.37846617E+000  3.00000000E-004  4.40000000E-001  3.48804696E+002  1.38316052E-005  2.99740921E-003
  1.17000000E-002                1                1               -1  2.04063906E-001 -4.97401821E-002 -1.25400825E-002  8.80250364E+000 -2.97781223E-012 -9.37487823E+000  3.00000000E-004  4.40000000E-001  3.48779574E+002  1.38309563E-005  2.99735474E-003
  1.20000000E-002                1                1               -1  2.06704152E-001 -4.97401821E-002 -1.53520081E-002  8.79913672E+000  2.39192077E-012 -9.37129238E+000  3.00000000E-004  4.40000000E-001  3.48754491E+002  1.38303083E-005  2.99730035E-003
  1.23000000E-002                1                1               -1  2.09343388E-001 -4.97401821E-002 -1.81628582E-002  8.79577176E+000  2.39100605E-012 -9.36770862E+000  3.00000000E-004  4.40000000E-001  3.48729446E+002  1.38296614E-005  2.99724605E-003
  1.26000000E-002                1                1               -1  2.11981615E-001 -4.97401821E-002 -2.09726336E-002  8.79240876E+000  2.39009187E-012 -9.36412694E+000  3.00000000E-004  4.40000000E-001  3.48704440E+002  1.38290154E-005  2.99719183E-003
  1.29000000E-002                1                1               -1  2.14618833E-001 -4.97401821E-002 -2.37813347E-002  8.78904771E+000  2.38917821E-012 -9.36054734E+000  3.00000000E-004  4.40000000E-001  3.48679473E+002  1.38283704E-005  2.99713769E-003
  1.32000000E-002                1                1               -1  2.17255044E-001 -4.97401821E-002 -2.65889623E-002  8.78568862E+000  2.38826509E-012 -9.35696983E+000  3.00000000E-004  4.40000000E-001  3.48654543E+002  1.38277264E-005  2.99708363E-003
  1.35000000E-002                1                1               -1  2.19890247E-001 -4.97401821E-002 -2.93955169E-002  8.78233149E+000  2.38735250E-012 -9.35339440E+000  3.00000000E-004  4.40000000E-001  3.48629652E+002  1.38270834E-005  2.99702966E-003
  1.38000000E-002                1                1               -1  2.22524443E-001 -4.97401821E-002 -3.22009992E-002  8.77897632E+000  2.38644045E-012 -9.34982106E+000  3.00000000E-004  4.40000000E-001  3.48604800E+002  1.38264414E-005  2.99697577E-003
  1.41000000E-002                1                1               -1  2.25157633E-001 -4.97401821E-002 -3.50054099E-002  8.77562310E+000  3.30088073E-012 -9.34624980E+000  3.00000000E-004  4.40000000E-001  3.48579985E+002  1.38258004E-005  2.99692196E-003
  1.44000000E-002                1                1               -1  2.27789817E-001 -4.97401821E-002 -3.78087494E-002  8.77227183E+000  3.52763475E-012 -9.34268062E+000  3.00000000E-004  4.40000000E-001  3.48555208E+002  1.38251603E-005  2.99686823E-003
  1.47000000E-002                1                1               -1  2.30420996E-001 -4.97401821E-002 -4.06110186E-002  8.76892252E+000  3.75647014E-012 -9.33911353E+000  3.00000000E-004  4.40000000E-001  3.48530469E+002  1.38245212E-005  2.99681458E-003
  1.50000000E-002                1                1               -1  2.33051171E-001 -4.97401821E-002 -4.34122179E-002  8.76557517E+000  3.98135702E-012 -9.33554852E+000  3.00000000E-004  4.40000000E-001  3.48505767E+002  1.38238831E-005  2.99676101E-003
  1.53000000E-002                1                1               -1  2.35680342E-001 -4.97401821E-002 -4.62123480E-002  8.76222977E+000  4.20437577E-012 -9.33198559E+000  3.00000000E-004  4.40000000E-001  3.48481104E+002  1.38232459E-005  2.99670753E-003
  1.56000000E-002                1                1               -1  2.38308509E-001 -4.97401821E-002 -4.90114095E-002  8.75888633E+000  4.43296570E-012 -9.32842474E+000  3.00000000E-004  4.40000000E-001  3.48456477E+002  1.38226097E-005  2.99665412E-003
  1.59000000E-002                1                1               -1  2.40935674E-001 -4.97406550E-002 -4.90114096E-002  8.75554484E+000 -3.15220367E-003  9.32486544E+000  3.00000000E-004  4.40000000E-001  3.48431888E+002  1.38219745E-005  2.99660079E-003
  1.62000000E-002                1                1               -1  2.43561836E-001 -4.97416006E-002 -4.62139500E-002  8.75220496E+000 -3.15160245E-003  9.32486544E+000  3.00000000E-004  4.40000000E-001  3.48407336E+002  1.38213402E-005  2.99654755E-003
  1.65000000E-002                1                1               -1  2.46186997E-001 -4.97416006E-002 -4.34170238E-002  8.74886671E+000 -5.23407015E-012  9.32130876E+000  3.00000000E-004  4.40000000E-001  3.48382819E+002  1.38207068E-005  2.99649437E-003
  1.68000000E-002                1                1               -1  2.48811157E-001 -4.97416006E-002 -4.06211644E-002  8.74553040E+000 -5.23207418E-012  9.31775416E+000  3.00000000E-004  4.40000000E-001  3.48358339E+002  1.38200744E-005  2.99644128E-003
  1.71000000E-002                1                1               -1  2.51434316E-001 -4.97416006E-002 -3.78263710E-002  8.74219605E+000 -5.23007939E-012  9.31420164E+000  3.00000000E-004  4.40000000E-001  3.48333896E+002  1.38194429E-005  2.99638827E-003
  1.74000000E-002                1                1               -1  2.54056475E-001 -4.97416006E-002 -3.50326431E-002  8.73886366E+000 -5.22808576E-012  9.31065121E+000  3.00000000E-004  4.40000000E-001  3.48309490E+002  1.38188123E-005  2.99633533E-003
  1.77000000E-002                1                1               -1  2.56677634E-001 -4.97416006E-002 -3.22399800E-002  8.73553321E+000 -5.22609330E-012  9.30710285E+000  3.00000000E-004  4.40000000E-001  3.48285120E+002  1.38181827E-005  2.99628248E-003
  1.80000000E-002                1                1               -1  2.59297795E-001 -4.97416006E-002 -2.94483811E-002  8.73220472E+000 -5.22410200E-012  9.30355658E+000  3.00000000E-004  4.40000000E-001  3.48260787E+002  1.38175541E-005  2.99622970E-003
  1.83000000E-002                1                1               -1  2.61916957E-001 -4.97416006E-002 -2.66578457E-002  8.72887819E+000  4.42935363E-012  9.30001238E+000  3.00000000E-004  4.40000000E-001  3.48236491E+002  1.38169264E-005  2.99617700E-003
  1.86000000E-002                1                1               -1  2.64535122E-001 -4.97416006E-002 -2.38683733E-002  8.72555360E+000  5.04655344E-012  9.29647027E+000  3.00000000E-004  4.40000000E-001  3.48212231E+002  1.38162996E-005  2.99612438E-003
  1.89000000E-002                1                1               -1  2.67152290E-001 -4.97416006E-002 -2.10799633E-002  8.72223097E+000  5.67126054E-012  9.29293023E+000  3.00000000E-004  4.40000000E-001  3.48188007E+002  1.38156737E-005  2.99607183E-003
  1.92000000E-002                1                1               -1  2.69768461E-001 -4.97416006E-002 -1.82926149E-002  8.71891028E+000  6.28598767E-012  9.28939228E+000  3.00000000E-004  4.40000000E-001  3.48163819E+002  1.38150488E-005  2.99601937E-003
  1.95000000E-002                1                1               -1  2.72383636E-001 -4.97416006E-002 -1.55063276E-002  8.71559155E+000  6.90718214E-012  9.28585640E+000  3.00000000E-004  4.40000000E-001  3.48139668E+002  1.38144248E-005  2.99596698E-003
  1.98000000E-002                1                1               -1  2.74997816E-001 -4.97416006E-002 -1.27211007E-002  8.71227477E+000  7.52556364E-012  9.28232260E+000  3.00000000E-004  4.40000000E-001  3.48115552E+002  1.38138017E-005  2.99591467E-003
  2.01000000E-002                1                1               -1  2.77611001E-001 -4.97416006E-002 -9.93693372E-003  8.70895994E+000  8.14539788E-012  9.27879088E+000  3.00000000E-004  4.40000000E-001  3.48091472E+002  1.38131795E-005  2.99586243E-003
  2.04000000E-002                1                1               -1  2.80223192E-001 -4.97416006E-002 -7.15382590E-003  8.70564706E+000  8.14229938E-012  9.27526123E+000  3.00000000E-004  4.40000000E-001  3.48067428E+002  1.38125583E-005  2.99581027E-003
  2.07000000E-002                1                1               -1  2.82834390E-001 -4.97416006E-002 -4.37177667E-003  8.70233613E+000  8.13920270E-012  9.27173367E+000  3.00000000E-004  4.40000000E-001  3.48043420E+002  1.38119380E-005  2.99575819E-003
  2.10000000E-002                1                1               -1  2.85444594E-001 -4.97416006E-002 -1.59078539E-003  8.69902714E+000  8.13610784E-012  9.26820817E+000  3.00000000E-004  4.40000000E-001  3.48019447E+002  1.38113186E-005  2.99570618E-003
  2.13000000E-002                1                1               -1  2.88053806E-001 -4.97416006E-002  1.18914855E-003  8.69572011E+000  8.13301481E-012  9.26468476E+000  3.00000000E-004  4.40000000E-001  3.47995510E+002  1.38107001E-005  2.99565425E-003
  2.16000000E-002                1                1               -1  2.90662027E-001 -4.97416006E-002  3.96802578E-003  8.69241502E+000  8.12992359E-012  9.26116342E+000  3.00000000E-004  4.40000000E-001  3.47971608E+002  1.38100825E-005  2.99560240E-003
  2.19000000E-002                1                1               -1  2.93269256E-001 -4.97416006E-002  6.74584691E-003  8.68911188E+000  8.12683420E-012  9.25764415E+000  3.00000000E-004  4.40000000E-001  3.47947741E+002  1.38094658E-005  2.99555062E-003
  2.22000000E-002                1                1               -1  2.95875494E-001 -4.97416006E-002  9.52261258E-003  8.68581069E+000  8.12374663E-012  9.25412696E+000  3.00000000E-004  4.40000000E-001  3.47923910E+002  1.38088500E-005  2.99549891E-003
  2.25000000E-002                1                1               -1  2.98480742E-001 -4.97416006E-002  1.22983234E-002  8.68251145E+000  8.12066088E-012  9.25061185E+000  3.00000000E-004  4.40000000E-001  3.47900113E+002  1.38082351E-005  2.99544728E-003
  2.28000000E-002                1                1               -4  3.00000000E-001 -4.97416006E-002  1.39169867E-002  8.68251145E+000  8.12066088E-012  9.25061185E+000  3.00000000E-004  4.40000000E-001  3.47900113E+002  1.38082351E-005  2.99544728E-003
