{
    "authors": [
        "ambrus.both@bsc.es"
    ],
    "comparisons": [
        {
            "file": "fin_rate_autoig_gri_no_nsi.tem.wit-col2.out",
            "method": "absolute",
            "tolerance": "1.0e1"
        },
        {
            "file": "fin_rate_autoig_gri_no_nsi.chm.wit-col5.out",
            "method": "absolute",
            "tolerance": "1.0e-3"
        }
    ],
    "description": "Autoigniting box with finite rate chemistry.",
    "enabled": true,
    "executions": [
        {
            "commands": {
                "postprocess": "[ALYA-PATH]/Utils/user/extractColumnFromFile.sh [NAME].tem.wit 2; [ALYA-PATH]/Utils/user/extractColumnFromFile.sh [NAME].chm.wit 5"
            },
            "mpi": 1,
            "openmp": 0
        }
    ],
    "include": [
        "cantera"
    ],
    "modules": [
        "temper",
        "chemic"
    ],
    "name": "fin_rate_autoig_gri_no_nsi",
    "postprocess": "mpio2txt"
}
