# ALYA Lagrangian postprocess  
#
# HEADER
# T , Column :   1
# ILAGR , Column :   2
# ITYPE , Column :   3
# EXIST , Column :   4
# COORX , Column :   5
# COORY , Column :   6
# COORZ , Column :   7
# VELOX , Column :   8
# VELOY , Column :   9
# VELOZ , Column :  10
# DTK , Column :  11
# CD , Column :  12
# TINJE , Column :  13
# TEMPK , Column :  14
# MASSK , Column :  15
# DIAMK , Column :  16
# TEMPF , Column :  17
# YVAPF , Column :  18
#               T            ILAGR            ITYPE            EXIST            COORX            COORY            COORZ            VELOX            VELOY            VELOZ              DTK               CD            TINJE            TEMPK            MASSK            DIAMK            TEMPF            YVAPF            
  5.00000000E-001               12                1               -1  2.02856789E-001  1.52361589E-001  1.59657507E-001  1.33800843E+000  9.92632966E-001  1.04016574E+000  6.00000000E-003  4.78383077E-001  3.50000000E-001  2.87958896E+002  1.12455779E-004  5.99339518E-003  2.98000000E+002  0.00000000E+000
  5.00000000E-001               14                1               -1  1.33414389E-001  1.05879039E-001  9.72423914E-002  1.32733618E+000  1.03388019E+000  9.49545662E-001  6.00000000E-003  4.43040923E-001  4.00000000E-001  2.87981089E+002  2.26414617E-004  7.56800298E-003  2.98000000E+002  0.00000000E+000
  5.00000000E-001               15                1               -1  6.65227290E-002 -7.39836442E-002 -1.99119050E-002  1.32644171E+000 -1.42142167E+000 -3.82560411E-001  6.00000000E-003  4.57403612E-001  4.50000000E-001  2.87988554E+002  1.59969820E-004  6.74051017E-003  2.98000000E+002  0.00000000E+000
  5.00000000E-001               16                1               -1  6.08866477E-002  6.32858324E-002 -1.96382373E-002  1.20576152E+000  1.20351532E+000 -3.73463042E-001  6.00000000E-003  6.74550894E-001  4.50000000E-001  2.87954023E+002  1.01178620E-005  2.68560246E-003  2.98000000E+002  0.00000000E+000
  5.00000000E-001                6                1               -1  4.49460313E-001 -3.92170436E-001  3.09888358E-001  1.47244856E+000 -1.27760929E+000  1.00955148E+000  6.00000000E-003  4.40000000E-001  2.00000000E-001  2.87940909E+002  2.34688737E-004  7.65906473E-003  2.98000000E+002  0.00000000E+000
  5.00000000E-001                8                1               -1  3.30685676E-001 -1.23894175E-001 -3.70393777E-001  1.29183939E+000 -4.80341976E-001 -1.43602941E+000  6.00000000E-003  5.10886783E-001  2.50000000E-001  2.87906286E+002  6.24198516E-005  4.92551096E-003  2.98000000E+002  0.00000000E+000
  5.00000000E-001                9                1               -1  3.70492005E-001  4.15589745E-001  3.40270387E-002  1.45765029E+000  1.62404665E+000  1.32971275E-001  6.00000000E-003  4.43214414E-001  2.50000000E-001  2.87939242E+002  1.55624918E-004  6.67889539E-003  2.98000000E+002  0.00000000E+000
  5.00000000E-001               10                1               -1  2.54159157E-001 -1.97184160E-001 -2.10207795E-001  1.25724977E+000 -9.65845262E-001 -1.02963749E+000  6.00000000E-003  4.52954642E-001  3.00000000E-001  2.87960038E+002  2.00090968E-004  7.26253423E-003  2.98000000E+002  0.00000000E+000
  5.00000000E-001               11                1               -1  3.34085555E-001 -3.30626246E-002  3.83983226E-001  1.63862206E+000 -1.60952724E-001  1.86927525E+000  6.00000000E-003  4.56196775E-001  3.00000000E-001  2.87928309E+002  8.22800773E-005  5.40060925E-003  2.98000000E+002  0.00000000E+000
  5.00000000E-001               13                1               -1  2.31543579E-001 -2.34425868E-001 -7.60943296E-002  1.52886540E+000 -1.53124949E+000 -4.97041576E-001  6.00000000E-003  4.40000000E-001  3.50000000E-001  2.87965448E+002  1.74629908E-004  6.94041498E-003  2.98000000E+002  0.00000000E+000
  5.00000000E-001                1                1               -1  7.89869967E-001 -1.51363528E-001  9.11902395E-001  1.52868082E+000 -2.92011914E-001  1.75925051E+000  6.00000000E-003  4.40000000E-001  0.00000000E+000  2.87890403E+002  2.03405613E-004  7.30237454E-003  2.98000000E+002  0.00000000E+000
  5.00000000E-001                2                1               -1  6.90844249E-001 -2.71809254E-001  7.29767978E-001  1.49548459E+000 -5.86254821E-001  1.57400820E+000  6.00000000E-003  4.40000000E-001  5.00000000E-002  2.87913479E+002  2.51934165E-004  7.84223166E-003  2.98000000E+002  0.00000000E+000
  5.00000000E-001                3                1               -1  6.12619292E-001  5.60322795E-002 -7.21460531E-001  1.30540631E+000  1.18908373E-001 -1.53104066E+000  6.00000000E-003  5.04141984E-001  5.00000000E-002  2.87836302E+002  6.70608137E-005  5.04464646E-003  2.98000000E+002  0.00000000E+000
  5.00000000E-001                4                1               -1  6.15301097E-001 -3.11346602E-001  6.40878281E-001  1.49968604E+000 -7.55759551E-001  1.55566137E+000  6.00000000E-003  4.40000000E-001  1.00000000E-001  2.87913787E+002  2.04964499E-004  7.32099660E-003  2.98000000E+002  0.00000000E+000
  5.00000000E-001                5                1               -1  5.84036970E-001 -1.90718184E-001 -6.58042347E-001  1.62105966E+000 -5.27087722E-001 -1.81863121E+000  6.00000000E-003  4.40000000E-001  1.50000000E-001  2.87896907E+002  1.20649825E-004  6.13553256E-003  2.98000000E+002  0.00000000E+000
  5.00000000E-001                7                1               -1  4.91596940E-001  1.17301492E-001 -5.33792420E-001  1.60753064E+000  3.81623778E-001 -1.73661798E+000  6.00000000E-003  4.40000000E-001  2.00000000E-001  2.87937393E+002  2.26797037E-004  7.57223330E-003  2.98000000E+002  0.00000000E+000
  1.00000000E+000               27                1               -1  4.38113898E-001  1.35161085E-001 -4.95212232E-001  1.41361448E+000  4.33618110E-001 -1.58871906E+000  6.00000000E-003  5.05317432E-001  7.00000000E-001  2.87872327E+002  5.27028805E-005  4.65536685E-003  2.98000000E+002  0.00000000E+000
  1.00000000E+000               35                1               -1  2.94034286E-001 -1.74470674E-001  2.91971745E-001  1.43129778E+000 -8.42077737E-001  1.40919331E+000  6.00000000E-003  5.34153767E-001  8.00000000E-001  2.87891303E+002  3.30193006E-005  3.98350882E-003  2.98000000E+002  0.00000000E+000
  1.00000000E+000               37                1               -1  1.73250415E-001 -1.08266537E-001 -1.39093072E-001  1.14447743E+000 -7.04956593E-001 -9.05677610E-001  6.00000000E-003  5.08492421E-001  8.50000000E-001  2.87963526E+002  1.20264844E-004  6.12903438E-003  2.98000000E+002  0.00000000E+000
  1.00000000E+000               39                1               -1  1.32917073E-001  4.21785586E-003  1.59379895E-001  1.32091407E+000  4.11374533E-002  1.55445876E+000  6.00000000E-003  4.53243676E-001  9.00000000E-001  2.87976675E+002  1.58323079E-004  6.71729447E-003  2.98000000E+002  0.00000000E+000
  1.00000000E+000               36                1               -1  2.68717585E-001  2.01195396E-001  2.01496123E-001  1.32684381E+000  9.84220247E-001  9.85691367E-001  6.00000000E-003  4.67530215E-001  8.00000000E-001  2.87952428E+002  1.45178165E-004  6.52598168E-003  2.98000000E+002  0.00000000E+000
  1.00000000E+000               40                1               -1  1.61175776E-001 -1.76383282E-001  2.31988715E-002  1.60218179E+000 -1.72638996E+000  2.27064031E-001  6.00000000E-003  4.40000000E-001  9.00000000E-001  2.87980681E+002  2.59285312E-004  7.91782255E-003  2.98000000E+002  0.00000000E+000
  1.00000000E+000               41                1               -1  6.65079213E-002  6.00052275E-002 -2.82405916E-002  1.31834832E+000  1.14607082E+000 -5.39381641E-001  6.00000000E-003  6.38549608E-001  9.50000000E-001  2.87959608E+002  1.34188981E-005  2.95065182E-003  2.98000000E+002  0.00000000E+000
  1.00000000E+000               30                1               -1  3.55064538E-001  5.12210086E-002  3.58330437E-001  1.39040833E+000  1.99165924E-001  1.39331916E+000  6.00000000E-003  4.98358741E-001  7.50000000E-001  2.87916847E+002  7.81105636E-005  5.30779360E-003  2.98000000E+002  0.00000000E+000
  1.00000000E+000               28                1               -1  4.03302091E-001  4.51884081E-001 -5.54227132E-003  1.24957879E+000  1.39141888E+000 -1.70654849E-002  6.00000000E-003  6.79371258E-001  7.00000000E-001  2.87672540E+002  7.74458886E-006  2.45660054E-003  2.98000000E+002  0.00000000E+000
  1.00000000E+000               42                1               -1  7.11084072E-002  6.57670736E-002  4.78482847E-002  1.41397181E+000  1.26304783E+000  9.18919889E-001  6.00000000E-003  5.25402712E-001  9.50000000E-001  2.87976360E+002  4.18070637E-005  4.30952616E-003  2.98000000E+002  0.00000000E+000
  1.00000000E+000               43                1               -1  7.73095274E-002 -6.32573710E-002 -4.82797432E-002  1.53587161E+000 -1.21707457E+000 -9.28904359E-001  6.00000000E-003  5.38060038E-001  9.50000000E-001  2.87972266E+002  3.15422064E-005  3.92322761E-003  2.98000000E+002  0.00000000E+000
  1.00000000E+000               29                1               -1  4.13896053E-001  4.34108538E-001  9.80437288E-002  1.35762049E+000  1.41531160E+000  3.19649153E-001  6.00000000E-003  4.40965774E-001  7.00000000E-001  2.87941117E+002  2.16501336E-004  7.45587341E-003  2.98000000E+002  0.00000000E+000
  1.00000000E+000               31                1               -1  3.78544996E-001 -2.62271647E-001 -2.65563186E-001  1.48634054E+000 -1.02299542E+000 -1.03583413E+000  6.00000000E-003  4.68530324E-001  7.50000000E-001  2.87929733E+002  1.12683374E-004  5.99742087E-003  2.98000000E+002  0.00000000E+000
  1.00000000E+000               32                1               -1  4.05090087E-001 -4.31214875E-001 -3.78397506E-002  1.55265938E+000 -1.64258510E+000 -1.44139301E-001  6.00000000E-003  5.56814493E-001  7.50000000E-001  2.87824413E+002  2.09207821E-005  3.42136963E-003  2.98000000E+002  0.00000000E+000
  1.00000000E+000               33                1               -1  3.02850467E-001  9.45613909E-002  3.49139385E-001  1.15516352E+000  3.57712507E-001  1.32074543E+000  6.00000000E-003  6.52105082E-001  7.50000000E-001  2.87788373E+002  1.21065090E-005  2.85109926E-003  2.98000000E+002  0.00000000E+000
  1.00000000E+000               34                1               -1  3.81999389E-001  1.69563813E-001  3.94326105E-001  1.47708460E+000  6.51363396E-001  1.51476654E+000  6.00000000E-003  5.30520750E-001  7.50000000E-001  2.87863558E+002  3.32418021E-005  3.99242704E-003  2.98000000E+002  0.00000000E+000
  1.00000000E+000               38                1               -1  2.33571305E-001  2.40806638E-001 -5.53372695E-002  1.53802597E+000  1.56876214E+000 -3.60500915E-001  6.00000000E-003  4.65192232E-001  8.50000000E-001  2.87953254E+002  9.77173544E-005  5.71920960E-003  2.98000000E+002  0.00000000E+000
  1.00000000E+000               44                1               -1  7.39149473E-002  1.74752440E-002 -8.37035114E-002  1.45928449E+000  3.33646515E-001 -1.59811129E+000  6.00000000E-003  6.40223476E-001  9.50000000E-001  2.87941416E+002  7.65060002E-006  2.44667814E-003  2.98000000E+002  0.00000000E+000
  1.00000000E+000               45                1               -1  8.23272701E-002  7.91976696E-003 -8.75756636E-002  1.63794287E+000  1.52892824E-001 -1.69066724E+000  6.00000000E-003  4.82096723E-001  9.50000000E-001  2.87979572E+002  6.08425240E-005  4.88369829E-003  2.98000000E+002  0.00000000E+000
  1.00000000E+000               46                1               -1  7.76279950E-002  5.94072355E-002 -7.16859159E-002  1.53459669E+000  1.13751092E+000 -1.37261920E+000  6.00000000E-003  5.97674323E-001  9.50000000E-001  2.87949141E+002  1.05992281E-005  2.72753317E-003  2.98000000E+002  0.00000000E+000
  1.00000000E+000               47                1               -1  5.80169782E-002  1.43338520E-003  6.84754820E-002  1.15447319E+000  2.73366571E-002  1.30592305E+000  6.00000000E-003  5.61669607E-001  9.50000000E-001  2.87978495E+002  4.28466754E-005  4.34495639E-003  2.98000000E+002  0.00000000E+000
  1.00000000E+000               21                1               -1  6.55570027E-001 -4.59608652E-001  4.90382659E-001  1.40601498E+000 -9.81961854E-001  1.04771105E+000  6.00000000E-003  4.83496336E-001  5.50000000E-001  2.87864324E+002  9.59054730E-005  5.68359724E-003  2.98000000E+002  0.00000000E+000
  1.00000000E+000               10                1               -1  8.66515432E-001 -6.67608908E-001 -7.11703194E-001  1.19309477E+000 -9.16560067E-001 -9.77097098E-001  6.00000000E-003  4.61376318E-001  3.00000000E-001  2.87862905E+002  2.00035953E-004  7.26180860E-003  2.98000000E+002  0.00000000E+000
  1.00000000E+000               14                1               -1  7.80589158E-001  6.09972258E-001  5.60216279E-001  1.26225899E+000  9.83190673E-001  9.02990936E-001  6.00000000E-003  4.50907522E-001  4.00000000E-001  2.87888685E+002  2.26355541E-004  7.56728528E-003  2.98000000E+002  0.00000000E+000
  1.00000000E+000               17                1               -1  7.70786269E-001  1.36564502E-001  8.68488442E-001  1.49387814E+000  2.63817126E-001  1.67775755E+000  6.00000000E-003  4.40000000E-001  5.00000000E-001  2.87893207E+002  2.06794503E-004  7.34270748E-003  2.98000000E+002  0.00000000E+000
  1.00000000E+000               15                1               -1  7.10247570E-001 -7.63802451E-001 -2.05569245E-001  1.24970815E+000 -1.33919359E+000 -3.60429605E-001  6.00000000E-003  4.67114054E-001  4.50000000E-001  2.87876933E+002  1.59919390E-004  6.73973785E-003  2.98000000E+002  0.00000000E+000
  1.00000000E+000               16                1               -1  6.09792435E-001  6.11169071E-001 -1.89651977E-001  1.00010049E+000  9.98237413E-001 -3.09763220E-001  6.00000000E-003  7.26082944E-001  4.50000000E-001  2.87531160E+002  1.01055275E-005  2.68441425E-003  2.98000000E+002  0.00000000E+000
  1.00000000E+000               24                1               -1  5.35213702E-001 -4.40260903E-001  3.57915853E-001  1.47467691E+000 -1.20737429E+000  9.81550707E-001  6.00000000E-003  5.02255832E-001  6.50000000E-001  2.87858370E+002  5.75076429E-005  4.79273923E-003  2.98000000E+002  0.00000000E+000
  1.00000000E+000               20                1               -1  7.39980847E-001  5.33886737E-002 -7.80429219E-001  1.59896573E+000  1.14972219E-001 -1.68065009E+000  6.00000000E-003  4.40000000E-001  5.50000000E-001  2.87907611E+002  2.28340488E-004  7.58935270E-003  2.98000000E+002  0.00000000E+000
  1.00000000E+000               12                1               -1  8.49050378E-001  6.31755474E-001  6.62007430E-001  1.24845852E+000  9.26198266E-001  9.70549776E-001  6.00000000E-003  4.90331428E-001  3.50000000E-001  2.87826574E+002  1.12413574E-004  5.99257791E-003  2.98000000E+002  0.00000000E+000
  1.00000000E+000               13                1               -1  9.72644849E-001 -9.76682801E-001 -3.17029957E-001  1.43726754E+000 -1.43950879E+000 -4.67262666E-001  6.00000000E-003  4.44427544E-001  3.50000000E-001  2.87853752E+002  1.74574683E-004  6.93961740E-003  2.98000000E+002  0.00000000E+000
  1.00000000E+000               18                1               -1  6.23869413E-001  4.11137822E-001 -5.94178630E-001  1.19726653E+000  7.85842908E-001 -1.13570447E+000  6.00000000E-003  5.14168791E-001  5.00000000E-001  2.87837195E+002  7.63902294E-005  5.26850141E-003  2.98000000E+002  0.00000000E+000
  1.00000000E+000               19                1               -1  6.84443657E-001 -1.05250345E-001 -7.21799688E-001  1.27728217E+000 -1.95694367E-001 -1.34205862E+000  6.00000000E-003  5.82420230E-001  5.00000000E-001  2.87712230E+002  2.61435181E-005  3.68517312E-003  2.98000000E+002  0.00000000E+000
  1.00000000E+000               22                1               -1  5.51338571E-001 -2.68373160E-001 -5.24295105E-001  1.34743600E+000 -6.52905705E-001 -1.27551975E+000  6.00000000E-003  4.49367549E-001  6.00000000E-001  2.87916307E+002  1.89973623E-004  7.13797765E-003  2.98000000E+002  0.00000000E+000
  1.00000000E+000               23                1               -1  5.10176722E-001  4.33859186E-001 -4.21549156E-001  1.23719742E+000  1.04695870E+000 -1.01725299E+000  6.00000000E-003  4.91916915E-001  6.00000000E-001  2.87882230E+002  9.61844846E-005  5.68911220E-003  2.98000000E+002  0.00000000E+000
  1.00000000E+000               25                1               -1  5.13831276E-001 -3.81664336E-002  4.96711480E-001  1.42723848E+000 -1.05495793E-001  1.37295961E+000  6.00000000E-003  4.90298781E-001  6.50000000E-001  2.87890910E+002  8.88154913E-005  5.53995265E-003  2.98000000E+002  0.00000000E+000
  1.00000000E+000               26                1               -1  4.82701864E-001  2.07826690E-001 -4.71572748E-001  1.34934800E+000  5.77946114E-001 -1.31139863E+000  6.00000000E-003  4.60658164E-001  6.50000000E-001  2.87918214E+002  1.53543794E-004  6.64897820E-003  2.98000000E+002  0.00000000E+000
