2.98000000E+002
2.98000000E+002
2.98000000E+002
2.98000000E+002
2.98000000E+002
2.98000000E+002
2.98000000E+002
2.98000000E+002
2.98000000E+002
2.98000000E+002
2.98000000E+002
2.98000000E+002
2.98000000E+002
2.98000000E+002
2.98000000E+002
2.98000000E+002
2.98000000E+002
2.98000000E+002
2.98000000E+002
2.98000000E+002
2.98000000E+002
2.98000000E+002
2.98000000E+002
2.98000000E+002
2.98000000E+002
2.98000000E+002
2.98000000E+002
2.98000000E+002
2.98000000E+002
2.98000000E+002
2.98000000E+002
2.98000000E+002
2.98000000E+002
2.98000000E+002
2.98000000E+002
2.98000000E+002
2.98000000E+002
2.98000000E+002
2.98000000E+002
2.98000000E+002
2.98000000E+002
2.98000000E+002
2.98000000E+002
2.98000000E+002
2.98000000E+002
2.98000000E+002
2.98000000E+002
2.98000000E+002
2.98000000E+002
2.98000000E+002
2.98000000E+002
2.98000000E+002
2.98000000E+002
