0.00000000E+000
0.00000000E+000
0.00000000E+000
0.00000000E+000
0.00000000E+000
0.00000000E+000
0.00000000E+000
0.00000000E+000
0.00000000E+000
0.00000000E+000
0.00000000E+000
0.00000000E+000
0.00000000E+000
0.00000000E+000
0.00000000E+000
0.00000000E+000
0.00000000E+000
0.00000000E+000
0.00000000E+000
0.00000000E+000
0.00000000E+000
0.00000000E+000
0.00000000E+000
0.00000000E+000
0.00000000E+000
0.00000000E+000
0.00000000E+000
0.00000000E+000
0.00000000E+000
0.00000000E+000
0.00000000E+000
0.00000000E+000
0.00000000E+000
0.00000000E+000
0.00000000E+000
0.00000000E+000
0.00000000E+000
0.00000000E+000
0.00000000E+000
0.00000000E+000
0.00000000E+000
0.00000000E+000
0.00000000E+000
0.00000000E+000
0.00000000E+000
0.00000000E+000
0.00000000E+000
0.00000000E+000
0.00000000E+000
0.00000000E+000
0.00000000E+000
0.00000000E+000
0.00000000E+000
0.00000000E+000
0.00000000E+000
0.00000000E+000
0.00000000E+000
0.00000000E+000
0.00000000E+000
0.00000000E+000
0.00000000E+000
0.00000000E+000
0.00000000E+000
0.00000000E+000
0.00000000E+000
0.00000000E+000
0.00000000E+000
0.00000000E+000
0.00000000E+000
0.00000000E+000
0.00000000E+000
0.00000000E+000
0.00000000E+000
0.00000000E+000
0.00000000E+000
0.00000000E+000
0.00000000E+000
0.00000000E+000
0.00000000E+000
