# ALYA Lagrangian postprocess  
#
# HEADER
# T , Column :   1
# ILAGR , Column :   2
# ITYPE , Column :   3
# EXIST , Column :   4
# COORX , Column :   5
# COORY , Column :   6
# COORZ , Column :   7
# VELOX , Column :   8
# VELOY , Column :   9
# VELOZ , Column :  10
# DTK , Column :  11
# CD , Column :  12
# TINJE , Column :  13
# TEMPK , Column :  14
# MASSK , Column :  15
# DIAMK , Column :  16
# TEMPF , Column :  17
# YVAPF , Column :  18
#               T            ILAGR            ITYPE            EXIST            COORX            COORY            COORZ            VELOX            VELOY            VELOZ              DTK               CD            TINJE            TEMPK            MASSK            DIAMK            TEMPF            YVAPF            
  0.00000000E+000                1                1               -5  0.00000000E+000 -4.80859875E-004  2.89698105E-003  9.76231265E-001 -1.86481806E-001  1.12347544E+000  6.00000000E-003  0.00000000E+000  0.00000000E+000  2.88000000E+002  2.03468511E-004  7.30319519E-003  0.00000000E+000  0.00000000E+000
  5.00000000E-002                2                1               -5  0.00000000E+000 -1.77449785E-003  2.06294085E-003  1.01861757E+000 -7.18045322E-001  8.34762932E-001  6.00000000E-003  0.00000000E+000  5.00000000E-002  2.88000000E+002  2.51995588E-004  7.84292661E-003  0.00000000E+000  0.00000000E+000
  5.00000000E-002                3                1               -5  0.00000000E+000 -9.86823017E-004  2.64947505E-003  9.97465599E-001 -3.91023098E-001  1.04983966E+000  6.00000000E-003  0.00000000E+000  5.00000000E-002  2.88000000E+002  6.70918792E-005  5.04549552E-003  0.00000000E+000  0.00000000E+000
  1.00000000E-001                4                1               -5  0.00000000E+000  2.29298659E-004 -2.95240411E-003  9.71517031E-001  8.84946768E-002 -1.13943993E+000  6.00000000E-003  0.00000000E+000  1.00000000E-001  2.88000000E+002  2.05014292E-004  7.32164304E-003  0.00000000E+000  0.00000000E+000
  1.50000000E-001                5                1               -5  0.00000000E+000 -2.00800454E-003  2.06270343E-003  9.87412400E-001 -7.87641303E-001  8.09096984E-001  6.00000000E-003  0.00000000E+000  1.50000000E-001  2.88000000E+002  1.20684907E-004  6.13618096E-003  0.00000000E+000  0.00000000E+000
  2.00000000E-001                6                1               -5  0.00000000E+000 -2.37770314E-003 -1.39394073E-003  1.01157591E+000 -9.55479391E-001 -5.60154722E-001  6.00000000E-003  0.00000000E+000  2.00000000E-001  2.88000000E+002  2.34727756E-004  7.65952765E-003  0.00000000E+000  0.00000000E+000
  2.00000000E-001                7                1               -5  0.00000000E+000 -1.26858064E-003  2.61125631E-003  9.82681983E-001 -4.95217848E-001  1.01936029E+000  6.00000000E-003  0.00000000E+000  2.00000000E-001  2.88000000E+002  2.26836996E-004  7.57271830E-003  0.00000000E+000  0.00000000E+000
  2.50000000E-001                8                1               -5  0.00000000E+000  1.89780885E-003  2.17215091E-003  9.86297134E-001  7.43576154E-001  8.51065490E-001  6.00000000E-003  0.00000000E+000  2.50000000E-001  2.88000000E+002  6.24363416E-005  4.92598391E-003  0.00000000E+000  0.00000000E+000
  2.50000000E-001                9                1               -5  0.00000000E+000 -8.18500006E-004 -2.82410232E-003  9.75521726E-001 -3.17190994E-001 -1.09441639E+000  6.00000000E-003  0.00000000E+000  2.50000000E-001  2.88000000E+002  1.55651525E-004  6.67931049E-003  0.00000000E+000  0.00000000E+000
  3.00000000E-001               10                1               -5  0.00000000E+000 -1.07497351E-003  2.34840753E-003  1.04696252E+000 -4.47089132E-001  9.76719401E-001  6.00000000E-003  0.00000000E+000  3.00000000E-001  2.88000000E+002  2.00113442E-004  7.26283080E-003  0.00000000E+000  0.00000000E+000
  3.00000000E-001               11                1               -5  0.00000000E+000 -2.18420156E-003  1.72592978E-003  1.00606628E+000 -8.72940256E-001  6.89786883E-001  6.00000000E-003  0.00000000E+000  3.00000000E-001  2.88000000E+002  8.22966862E-005  5.40100553E-003  0.00000000E+000  0.00000000E+000
  3.50000000E-001               12                1               -5  0.00000000E+000  5.97600498E-004 -2.71944211E-003  1.00596196E+000  2.38812869E-001 -1.08674235E+000  6.00000000E-003  0.00000000E+000  3.50000000E-001  2.88000000E+002  1.12468772E-004  5.99364693E-003  0.00000000E+000  0.00000000E+000
  3.50000000E-001               13                1               -5  0.00000000E+000 -2.73593068E-003  4.31963374E-004  1.00885113E+000 -1.09647160E+000  1.73116803E-001  6.00000000E-003  0.00000000E+000  3.50000000E-001  2.88000000E+002  1.74646862E-004  6.94065997E-003  0.00000000E+000  0.00000000E+000
  4.00000000E-001               14                1               -5  0.00000000E+000  1.23626512E-003  2.38031008E-003  1.02650426E+000  5.04124249E-001  9.70642954E-001  6.00000000E-003  0.00000000E+000  4.00000000E-001  2.88000000E+002  2.26426638E-004  7.56814908E-003  0.00000000E+000  0.00000000E+000
  4.50000000E-001               15                1               -5  0.00000000E+000 -9.36002055E-004 -2.79826987E-003  9.73544519E-001 -3.61991050E-001 -1.08220772E+000  6.00000000E-003  0.00000000E+000  4.50000000E-001  2.88000000E+002  1.59974958E-004  6.74058890E-003  0.00000000E+000  0.00000000E+000
  4.50000000E-001               16                1               -5  0.00000000E+000  2.80465820E-003  2.29635631E-004  1.00007548E+000  1.11423792E+000  9.12299144E-002  6.00000000E-003  0.00000000E+000  4.50000000E-001  2.88000000E+002  1.01191701E-005  2.68572868E-003  0.00000000E+000  0.00000000E+000
  5.00000000E-001                1                1               -1  4.77396584E-001 -9.16741871E-002  5.52298905E-001  9.33616249E-001 -1.78341394E-001  1.07443283E+000  6.00000000E-003  4.98794129E-001  0.00000000E+000  2.87912226E+002  2.03418198E-004  7.30253868E-003  2.98000000E+002  0.00000000E+000
  5.00000000E-001                2                1               -1  4.50129407E-001 -3.19080348E-001  3.70946567E-001  9.82077506E-001 -6.92287446E-001  8.04818137E-001  6.00000000E-003  4.84770809E-001  5.00000000E-002  2.87929095E+002  2.51945294E-004  7.84235754E-003  2.98000000E+002  0.00000000E+000
  5.00000000E-001                3                1               -1  4.34348794E-001 -1.71258771E-001  4.59804680E-001  9.33683055E-001 -3.66019280E-001  9.82708079E-001  6.00000000E-003  5.75779796E-001  5.00000000E-002  2.87860250E+002  6.70653930E-005  5.04477156E-003  2.98000000E+002  0.00000000E+000
  5.00000000E-001                4                1               -1  3.81790078E-001  3.50062387E-002 -4.50733395E-001  9.37508072E-001  8.53968291E-002 -1.09955265E+000  6.00000000E-003  4.96736234E-001  1.00000000E-001  2.87929813E+002  2.04973791E-004  7.32111720E-003  2.98000000E+002  0.00000000E+000
  5.00000000E-001                5                1               -1  3.38875775E-001 -2.72323181E-001  2.79741379E-001  9.49103270E-001 -7.57082792E-001  7.77706046E-001  6.00000000E-003  5.30383810E-001  1.50000000E-001  2.87919188E+002  1.20657441E-004  6.13567328E-003  2.98000000E+002  0.00000000E+000
  5.00000000E-001                6                1               -1  2.99714938E-001 -2.85472075E-001 -1.67359477E-001  9.86445650E-001 -9.31742720E-001 -5.46238977E-001  6.00000000E-003  4.86921209E-001  2.00000000E-001  2.87950738E+002  2.34695245E-004  7.65914193E-003  2.98000000E+002  0.00000000E+000
  5.00000000E-001                7                1               -1  2.91097930E-001 -1.47965979E-001  3.04574329E-001  9.57896495E-001 -4.82727321E-001  9.93649692E-001  6.00000000E-003  4.88984112E-001  2.00000000E-001  2.87949862E+002  2.26805018E-004  7.57233015E-003  2.98000000E+002  0.00000000E+000
  5.00000000E-001                8                1               -1  2.41976985E-001  1.84325912E-001  2.10971562E-001  9.49456447E-001  7.15801708E-001  8.19276046E-001  6.00000000E-003  5.74947260E-001  2.50000000E-001  2.87918485E+002  6.24220079E-005  4.92557279E-003  2.98000000E+002  0.00000000E+000
  5.00000000E-001                9                1               -1  2.40860820E-001 -7.91344214E-002 -2.73040564E-001  9.51241492E-001 -3.09296274E-001 -1.06717693E+000  6.00000000E-003  5.11577620E-001  2.50000000E-001  2.87949165E+002  1.55629276E-004  6.67896336E-003  2.98000000E+002  0.00000000E+000
  5.00000000E-001               10                1               -1  2.07545658E-001 -8.97041328E-002  1.95969351E-001  1.02830850E+000 -4.39123220E-001  9.59316920E-001  6.00000000E-003  4.95041855E-001  3.00000000E-001  2.87964219E+002  2.00093324E-004  7.26256532E-003  2.98000000E+002  0.00000000E+000
  5.00000000E-001               11                1               -1  1.98567690E-001 -1.74476756E-001  1.37869433E-001  9.79407755E-001 -8.49809273E-001  6.71509058E-001  6.00000000E-003  5.53301867E-001  3.00000000E-001  2.87943317E+002  8.22835653E-005  5.40069245E-003  2.98000000E+002  0.00000000E+000
  5.00000000E-001               12                1               -1  1.49610054E-001  3.61146554E-002 -1.64343428E-001  9.88578728E-001  2.34686132E-001 -1.06796322E+000  6.00000000E-003  5.30673936E-001  3.50000000E-001  2.87963756E+002  1.12457318E-004  5.99342501E-003  2.98000000E+002  0.00000000E+000
  5.00000000E-001               13                1               -1  1.50271373E-001 -1.66058634E-001  2.62182255E-002  9.94541318E-001 -1.08091896E+000  1.70661269E-001  6.00000000E-003  5.02541329E-001  3.50000000E-001  2.87971153E+002  1.74632712E-004  6.94045549E-003  2.98000000E+002  0.00000000E+000
  5.00000000E-001               14                1               -1  1.02232835E-001  5.14436076E-002  9.90497390E-002  1.01792193E+000  4.99909401E-001  9.62527670E-001  6.00000000E-003  4.86107820E-001  4.00000000E-001  2.87983161E+002  2.26415935E-004  7.56801900E-003  2.98000000E+002  0.00000000E+000
  5.00000000E-001               15                1               -1  4.85678318E-002 -1.89948788E-002 -5.67870516E-002  9.68914241E-001 -3.60269384E-001 -1.07706063E+000  6.00000000E-003  5.06148737E-001  4.50000000E-001  2.87989897E+002  1.59970423E-004  6.74051942E-003  2.98000000E+002  0.00000000E+000
  5.00000000E-001               16                1               -1  4.96066945E-002  5.80741469E-002  4.75490857E-003  9.83320956E-001  1.09557081E+000  8.97015164E-002  6.00000000E-003  7.20833947E-001  4.50000000E-001  2.87957080E+002  1.01179492E-005  2.68561087E-003  2.98000000E+002  0.00000000E+000
  5.00000000E-001               17                1               -5  0.00000000E+000 -4.80859875E-004  2.89698105E-003  9.76231265E-001 -1.86481806E-001  1.12347544E+000  6.00000000E-003  0.00000000E+000  5.00000000E-001  2.88000000E+002  2.03468511E-004  7.30319519E-003  0.00000000E+000  0.00000000E+000
  5.50000000E-001               18                1               -5  0.00000000E+000 -1.77449785E-003  2.06294085E-003  1.01861757E+000 -7.18045322E-001  8.34762932E-001  6.00000000E-003  0.00000000E+000  5.50000000E-001  2.88000000E+002  2.51995588E-004  7.84292661E-003  0.00000000E+000  0.00000000E+000
  5.50000000E-001               19                1               -5  0.00000000E+000 -9.86823017E-004  2.64947505E-003  9.97465599E-001 -3.91023098E-001  1.04983966E+000  6.00000000E-003  0.00000000E+000  5.50000000E-001  2.88000000E+002  6.70918792E-005  5.04549552E-003  0.00000000E+000  0.00000000E+000
  6.00000000E-001               20                1               -5  0.00000000E+000  2.29298659E-004 -2.95240411E-003  9.71517031E-001  8.84946768E-002 -1.13943993E+000  6.00000000E-003  0.00000000E+000  6.00000000E-001  2.88000000E+002  2.05014292E-004  7.32164304E-003  0.00000000E+000  0.00000000E+000
  6.50000000E-001               21                1               -5  0.00000000E+000 -2.00800454E-003  2.06270343E-003  9.87412400E-001 -7.87641303E-001  8.09096984E-001  6.00000000E-003  0.00000000E+000  6.50000000E-001  2.88000000E+002  1.20684907E-004  6.13618096E-003  0.00000000E+000  0.00000000E+000
  7.00000000E-001               22                1               -5  0.00000000E+000 -2.37770314E-003 -1.39394073E-003  1.01157591E+000 -9.55479391E-001 -5.60154722E-001  6.00000000E-003  0.00000000E+000  7.00000000E-001  2.88000000E+002  2.34727756E-004  7.65952765E-003  0.00000000E+000  0.00000000E+000
  7.00000000E-001               23                1               -5  0.00000000E+000 -1.26858064E-003  2.61125631E-003  9.82681983E-001 -4.95217848E-001  1.01936029E+000  6.00000000E-003  0.00000000E+000  7.00000000E-001  2.88000000E+002  2.26836996E-004  7.57271830E-003  0.00000000E+000  0.00000000E+000
  7.50000000E-001               24                1               -5  0.00000000E+000  1.89780885E-003  2.17215091E-003  9.86297134E-001  7.43576154E-001  8.51065490E-001  6.00000000E-003  0.00000000E+000  7.50000000E-001  2.88000000E+002  6.24363416E-005  4.92598391E-003  0.00000000E+000  0.00000000E+000
  7.50000000E-001               25                1               -5  0.00000000E+000 -8.18500006E-004 -2.82410232E-003  9.75521726E-001 -3.17190994E-001 -1.09441639E+000  6.00000000E-003  0.00000000E+000  7.50000000E-001  2.88000000E+002  1.55651525E-004  6.67931049E-003  0.00000000E+000  0.00000000E+000
  8.00000000E-001               26                1               -5  0.00000000E+000 -1.07497351E-003  2.34840753E-003  1.04696252E+000 -4.47089132E-001  9.76719401E-001  6.00000000E-003  0.00000000E+000  8.00000000E-001  2.88000000E+002  2.00113442E-004  7.26283080E-003  0.00000000E+000  0.00000000E+000
  8.00000000E-001               27                1               -5  0.00000000E+000 -2.18420156E-003  1.72592978E-003  1.00606628E+000 -8.72940256E-001  6.89786883E-001  6.00000000E-003  0.00000000E+000  8.00000000E-001  2.88000000E+002  8.22966862E-005  5.40100553E-003  0.00000000E+000  0.00000000E+000
  8.50000000E-001               28                1               -5  0.00000000E+000  5.97600498E-004 -2.71944211E-003  1.00596196E+000  2.38812869E-001 -1.08674235E+000  6.00000000E-003  0.00000000E+000  8.50000000E-001  2.88000000E+002  1.12468772E-004  5.99364693E-003  0.00000000E+000  0.00000000E+000
  8.50000000E-001               29                1               -5  0.00000000E+000 -2.73593068E-003  4.31963374E-004  1.00885113E+000 -1.09647160E+000  1.73116803E-001  6.00000000E-003  0.00000000E+000  8.50000000E-001  2.88000000E+002  1.74646862E-004  6.94065997E-003  0.00000000E+000  0.00000000E+000
  9.00000000E-001               30                1               -5  0.00000000E+000  1.23626512E-003  2.38031008E-003  1.02650426E+000  5.04124249E-001  9.70642954E-001  6.00000000E-003  0.00000000E+000  9.00000000E-001  2.88000000E+002  2.26426638E-004  7.56814908E-003  0.00000000E+000  0.00000000E+000
  9.50000000E-001               31                1               -5  0.00000000E+000 -9.36002055E-004 -2.79826987E-003  9.73544519E-001 -3.61991050E-001 -1.08220772E+000  6.00000000E-003  0.00000000E+000  9.50000000E-001  2.88000000E+002  1.59974958E-004  6.74058890E-003  0.00000000E+000  0.00000000E+000
  9.50000000E-001               32                1               -5  0.00000000E+000  2.80465820E-003  2.29635631E-004  1.00007548E+000  1.11423792E+000  9.12299144E-002  6.00000000E-003  0.00000000E+000  9.50000000E-001  2.88000000E+002  1.01191701E-005  2.68572868E-003  0.00000000E+000  0.00000000E+000
  1.00000000E+000               18                1               -1  4.50129407E-001 -3.19080348E-001  3.70946567E-001  9.82077506E-001 -6.92287446E-001  8.04818137E-001  6.00000000E-003  4.84770809E-001  5.50000000E-001  2.87929095E+002  2.51945294E-004  7.84235754E-003  2.98000000E+002  0.00000000E+000
  1.00000000E+000               20                1               -1  3.81790078E-001  3.50062387E-002 -4.50733395E-001  9.37508072E-001  8.53968291E-002 -1.09955265E+000  6.00000000E-003  4.96736234E-001  6.00000000E-001  2.87929813E+002  2.04973791E-004  7.32111720E-003  2.98000000E+002  0.00000000E+000
  1.00000000E+000               21                1               -1  3.38875775E-001 -2.72323181E-001  2.79741379E-001  9.49103270E-001 -7.57082792E-001  7.77706046E-001  6.00000000E-003  5.30383810E-001  6.50000000E-001  2.87919188E+002  1.20657441E-004  6.13567328E-003  2.98000000E+002  0.00000000E+000
  1.00000000E+000               22                1               -1  2.99714938E-001 -2.85472075E-001 -1.67359477E-001  9.86445650E-001 -9.31742720E-001 -5.46238977E-001  6.00000000E-003  4.86921209E-001  7.00000000E-001  2.87950738E+002  2.34695245E-004  7.65914193E-003  2.98000000E+002  0.00000000E+000
  1.00000000E+000               23                1               -1  2.91097930E-001 -1.47965979E-001  3.04574329E-001  9.57896495E-001 -4.82727321E-001  9.93649692E-001  6.00000000E-003  4.88984112E-001  7.00000000E-001  2.87949862E+002  2.26805018E-004  7.57233015E-003  2.98000000E+002  0.00000000E+000
  1.00000000E+000               24                1               -1  2.41976985E-001  1.84325912E-001  2.10971562E-001  9.49456447E-001  7.15801708E-001  8.19276046E-001  6.00000000E-003  5.74947260E-001  7.50000000E-001  2.87918485E+002  6.24220079E-005  4.92557279E-003  2.98000000E+002  0.00000000E+000
  1.00000000E+000               25                1               -1  2.40860820E-001 -7.91344214E-002 -2.73040564E-001  9.51241492E-001 -3.09296274E-001 -1.06717693E+000  6.00000000E-003  5.11577620E-001  7.50000000E-001  2.87949165E+002  1.55629276E-004  6.67896336E-003  2.98000000E+002  0.00000000E+000
  1.00000000E+000               26                1               -1  2.07545658E-001 -8.97041328E-002  1.95969351E-001  1.02830850E+000 -4.39123220E-001  9.59316920E-001  6.00000000E-003  4.95041855E-001  8.00000000E-001  2.87964219E+002  2.00093324E-004  7.26256532E-003  2.98000000E+002  0.00000000E+000
  1.00000000E+000               27                1               -1  1.98567690E-001 -1.74476756E-001  1.37869433E-001  9.79407755E-001 -8.49809273E-001  6.71509058E-001  6.00000000E-003  5.53301867E-001  8.00000000E-001  2.87943317E+002  8.22835653E-005  5.40069245E-003  2.98000000E+002  0.00000000E+000
  1.00000000E+000               28                1               -1  1.49610054E-001  3.61146554E-002 -1.64343428E-001  9.88578728E-001  2.34686132E-001 -1.06796322E+000  6.00000000E-003  5.30673936E-001  8.50000000E-001  2.87963756E+002  1.12457318E-004  5.99342501E-003  2.98000000E+002  0.00000000E+000
  1.00000000E+000               29                1               -1  1.50271373E-001 -1.66058634E-001  2.62182255E-002  9.94541318E-001 -1.08091896E+000  1.70661269E-001  6.00000000E-003  5.02541329E-001  8.50000000E-001  2.87971153E+002  1.74632712E-004  6.94045549E-003  2.98000000E+002  0.00000000E+000
  1.00000000E+000               30                1               -1  1.02232835E-001  5.14436076E-002  9.90497390E-002  1.01792193E+000  4.99909401E-001  9.62527670E-001  6.00000000E-003  4.86107820E-001  9.00000000E-001  2.87983161E+002  2.26415935E-004  7.56801900E-003  2.98000000E+002  0.00000000E+000
  1.00000000E+000               31                1               -1  4.85678318E-002 -1.89948788E-002 -5.67870516E-002  9.68914241E-001 -3.60269384E-001 -1.07706063E+000  6.00000000E-003  5.06148737E-001  9.50000000E-001  2.87989897E+002  1.59970423E-004  6.74051942E-003  2.98000000E+002  0.00000000E+000
  1.00000000E+000               32                1               -1  4.96066945E-002  5.80741469E-002  4.75490857E-003  9.83320956E-001  1.09557081E+000  8.97015164E-002  6.00000000E-003  7.20833947E-001  9.50000000E-001  2.87957080E+002  1.01179492E-005  2.68561087E-003  2.98000000E+002  0.00000000E+000
  1.00000000E+000               17                1               -1  4.77396584E-001 -9.16741871E-002  5.52298905E-001  9.33616249E-001 -1.78341394E-001  1.07443283E+000  6.00000000E-003  4.98794129E-001  5.00000000E-001  2.87912226E+002  2.03418198E-004  7.30253868E-003  2.98000000E+002  0.00000000E+000
  1.00000000E+000               19                1               -1  4.34348794E-001 -1.71258771E-001  4.59804680E-001  9.33683055E-001 -3.66019280E-001  9.82708079E-001  6.00000000E-003  5.75779796E-001  5.50000000E-001  2.87860250E+002  6.70653930E-005  5.04477156E-003  2.98000000E+002  0.00000000E+000
  1.00000000E+000               15                1               -1  5.21086866E-001 -1.94690657E-001 -5.82046798E-001  9.21800912E-001 -3.42751332E-001 -1.02468870E+000  6.00000000E-003  5.15327493E-001  4.50000000E-001  2.87890999E+002  1.59925779E-004  6.73983565E-003  2.98000000E+002  0.00000000E+000
  1.00000000E+000                2                1               -1  9.31465165E-001 -6.58384222E-001  7.65403975E-001  9.43683170E-001 -6.65222458E-001  7.73353760E-001  6.00000000E-003  4.91717279E-001  5.00000000E-002  2.87852597E+002  2.51890617E-004  7.84173920E-003  2.98000000E+002  0.00000000E+000
  1.00000000E+000                3                1               -1  8.84922284E-001 -3.47891070E-001  9.34036495E-001  8.69831870E-001 -3.40988554E-001  9.15504251E-001  6.00000000E-003  5.91196168E-001  5.00000000E-002  2.87713136E+002  6.70370866E-005  5.04399865E-003  2.98000000E+002  0.00000000E+000
  1.00000000E+000                4                1               -1  8.40389236E-001  7.67796539E-002 -9.88599614E-001  8.97367059E-001  8.17404177E-002 -1.05247343E+000  6.00000000E-003  5.04597566E-001  1.00000000E-001  2.87844733E+002  2.04924299E-004  7.32047497E-003  2.98000000E+002  0.00000000E+000
  1.00000000E+000                5                1               -1  8.00461728E-001 -6.40522083E-001  6.57970174E-001  8.98007860E-001 -7.16324893E-001  7.35837885E-001  6.00000000E-003  5.41197990E-001  1.50000000E-001  2.87807944E+002  1.20619252E-004  6.13496787E-003  2.98000000E+002  0.00000000E+000
  1.00000000E+000                6                1               -1  7.82808751E-001 -7.41776123E-001 -4.34870079E-001  9.46382560E-001 -8.93901312E-001 -5.24054256E-001  6.00000000E-003  4.94184871E-001  2.00000000E-001  2.87870721E+002  2.34642082E-004  7.65851148E-003  2.98000000E+002  0.00000000E+000
  1.00000000E+000                7                1               -1  7.60062653E-001 -3.84298491E-001  7.91043019E-001  9.18415442E-001 -4.62831035E-001  9.52695021E-001  6.00000000E-003  4.96397337E-001  2.00000000E-001  2.87868455E+002  2.26752741E-004  7.57169593E-003  2.98000000E+002  0.00000000E+000
  1.00000000E+000                8                1               -1  6.99341905E-001  5.29136453E-001  6.05626972E-001  8.81370873E-001  6.64471529E-001  7.60525716E-001  6.00000000E-003  5.91124260E-001  2.50000000E-001  2.87762551E+002  6.23942457E-005  4.92477720E-003  2.98000000E+002  0.00000000E+000
  1.00000000E+000                9                1               -1  7.04766754E-001 -2.29973486E-001 -7.93486439E-001  9.05008665E-001 -2.94263665E-001 -1.01530934E+000  6.00000000E-003  5.20872957E-001  2.50000000E-001  2.87850420E+002  1.55585722E-004  6.67828420E-003  2.98000000E+002  0.00000000E+000
  1.00000000E+000               10                1               -1  7.10317650E-001 -3.04405126E-001  6.65009215E-001  9.83327603E-001 -4.19914826E-001  9.17353897E-001  6.00000000E-003  5.03044652E-001  3.00000000E-001  2.87876914E+002  2.00043924E-004  7.26191370E-003  2.98000000E+002  0.00000000E+000
  1.00000000E+000               11                1               -1  6.72305432E-001 -5.85527950E-001  4.62677138E-001  9.16667338E-001 -7.95370876E-001  6.28492492E-001  6.00000000E-003  5.66981628E-001  3.00000000E-001  2.87806708E+002  8.22516240E-005  5.39993084E-003  2.98000000E+002  0.00000000E+000
  1.00000000E+000               12                1               -1  6.29777836E-001  1.50105293E-001 -6.83069467E-001  9.32966116E-001  2.21483836E-001 -1.00788482E+000  6.00000000E-003  5.42002342E-001  3.50000000E-001  2.87846458E+002  1.12419955E-004  5.99270143E-003  2.98000000E+002  0.00000000E+000
  1.00000000E+000               13                1               -1  6.35823493E-001 -6.93781801E-001  1.09537983E-001  9.48267321E-001 -1.03062599E+000  1.62720745E-001  6.00000000E-003  5.11231469E-001  3.50000000E-001  2.87877282E+002  1.74586373E-004  6.93978618E-003  2.98000000E+002  0.00000000E+000
  1.00000000E+000               14                1               -1  6.00462302E-001  2.96127985E-001  5.70166071E-001  9.75488664E-001  4.79070092E-001  9.22403574E-001  6.00000000E-003  4.93553716E-001  4.00000000E-001  2.87900610E+002  2.26363199E-004  7.56737828E-003  2.98000000E+002  0.00000000E+000
  1.00000000E+000               16                1               -1  5.01105042E-001  5.61112760E-001  4.59419555E-002  8.29593835E-001  9.24295149E-001  7.56780627E-002  6.00000000E-003  7.71797652E-001  4.50000000E-001  2.87559524E+002  1.01063734E-005  2.68449561E-003  2.98000000E+002  0.00000000E+000
