0.00000000E+000
0.00000000E+000
0.00000000E+000
0.00000000E+000
0.00000000E+000
0.00000000E+000
0.00000000E+000
0.00000000E+000
0.00000000E+000
0.00000000E+000
0.00000000E+000
0.00000000E+000
0.00000000E+000
0.00000000E+000
0.00000000E+000
0.00000000E+000
2.98000000E+002
2.98000000E+002
2.98000000E+002
2.98000000E+002
2.98000000E+002
2.98000000E+002
2.98000000E+002
2.98000000E+002
2.98000000E+002
2.98000000E+002
2.98000000E+002
2.98000000E+002
2.98000000E+002
2.98000000E+002
2.98000000E+002
2.98000000E+002
0.00000000E+000
0.00000000E+000
0.00000000E+000
0.00000000E+000
0.00000000E+000
0.00000000E+000
0.00000000E+000
0.00000000E+000
0.00000000E+000
0.00000000E+000
0.00000000E+000
0.00000000E+000
0.00000000E+000
0.00000000E+000
0.00000000E+000
0.00000000E+000
2.98000000E+002
2.98000000E+002
2.98000000E+002
2.98000000E+002
2.98000000E+002
2.98000000E+002
2.98000000E+002
2.98000000E+002
2.98000000E+002
2.98000000E+002
2.98000000E+002
2.98000000E+002
2.98000000E+002
2.98000000E+002
2.98000000E+002
2.98000000E+002
2.98000000E+002
2.98000000E+002
2.98000000E+002
2.98000000E+002
2.98000000E+002
2.98000000E+002
2.98000000E+002
2.98000000E+002
2.98000000E+002
2.98000000E+002
2.98000000E+002
2.98000000E+002
2.98000000E+002
2.98000000E+002
2.98000000E+002
