$-------------------------------------------------------------
  PHYSICAL_PROBLEM
    PROPERTIES
    END_PROPERTIES

    COUPLING
        SOLIDZ EXMEDI
    END_COUPLING

    FIBERS LONGITUDINAL       FIELD=1
    CELL_TYPE:                FIELD=2

  END_PHYSICAL_PROBLEM
$-------------------------------------------------------------
  NUMERICAL_TREATMENT 
     MESH
       DIVISION=0
       EXTENDED_GRAPH = OFF
     END_MESH
  ELSEST
        STRATEGY: BIN
        NUMBER:   10,10
        DATAF: LINKED_LIST
  END_ELSEST
END_NUMERICAL_TREATMENT
$-------------------------------------------------------------
OUTPUT_&_POST_PROCESS
  ON_LAST_MESH
$  POSTPROCESS CODNO
  POSTPROCESS LBSET ONLY_ONCE
  POSTPROCESS LESET ONLY_ONCE
  POSTPROCESS LNSET ONLY_ONCE
END_OUTPUT_&_POST_PROCESS
$-------------------------------------------------------------
