 0.10000000E-001  0.00000000E+000  0.00000000E+000
 0.98968676E-002  0.30795617E-004  0.25272231E-004
 0.98866091E-002 -0.36490790E-004  0.40387531E-004
 0.10000000E-001  0.00000000E+000  0.00000000E+000
 0.10000000E-001  0.00000000E+000  0.00000000E+000
 0.98968669E-002  0.30794754E-004 -0.25271045E-004
 0.98866101E-002 -0.36490528E-004 -0.40387399E-004
 0.10000000E-001  0.00000000E+000  0.00000000E+000
 0.99616755E-002  0.75094877E-006 -0.75094877E-006
 0.98584533E-002  0.20644797E-005 -0.20644797E-005
 0.98932674E-002 -0.72054485E-005 -0.17354574E-004
 0.98888285E-002  0.10152307E-004 -0.10665510E-004
 0.98565679E-002  0.15899136E-005  0.15899136E-005
 0.99633386E-002  0.61730358E-006  0.61730358E-006
 0.10000000E-001  0.00000000E+000  0.00000000E+000
 0.10000000E-001  0.00000000E+000  0.00000000E+000
 0.99616756E-002  0.74940862E-006  0.74940862E-006
 0.98584528E-002  0.20626936E-005  0.20626936E-005
 0.98932680E-002 -0.72052391E-005  0.17355174E-004
 0.98888286E-002  0.10152387E-004  0.10665924E-004
 0.98565690E-002  0.15895924E-005 -0.15895924E-005
 0.99633397E-002  0.61655550E-006 -0.61655550E-006
 0.10000000E-001  0.00000000E+000  0.00000000E+000
 0.10000000E-001  0.00000000E+000  0.00000000E+000
 0.10000000E-001  0.00000000E+000  0.00000000E+000
 0.10000000E-001  0.00000000E+000  0.00000000E+000
 0.99096946E-002 -0.29477247E-004 -0.16151545E-004
 0.99096931E-002 -0.29478050E-004  0.16150942E-004
 0.98767079E-002  0.17827051E-005 -0.36452701E-005
 0.98767079E-002  0.17828308E-005  0.36451967E-005
 0.10000000E-001  0.00000000E+000  0.00000000E+000
 0.10000000E-001  0.00000000E+000  0.00000000E+000
 0.99765782E-002  0.29398094E-004  0.12992702E-017
 0.99771755E-002 -0.24790316E-004 -0.43376612E-018
 0.98271248E-002  0.23308773E-004  0.42618360E-018
 0.98263634E-002 -0.16711312E-004  0.85230116E-018
 0.99765779E-002  0.29397572E-004  0.86405528E-018
 0.99771739E-002 -0.24789522E-004 -0.43484109E-018
 0.98271268E-002  0.23307710E-004 -0.42820531E-018
 0.98263638E-002 -0.16711302E-004 -0.42615060E-018
 0.99739110E-002 -0.43141903E-018  0.26065252E-004
 0.99739117E-002 -0.22607746E-020 -0.26064957E-004
 0.98233734E-002 -0.42468694E-018  0.15379592E-004
 0.98233726E-002  0.85270864E-018 -0.15377422E-004
 0.10149316E-001 -0.10038311E-003 -0.56756565E-004
 0.10149316E-001 -0.10038288E-003  0.56756254E-004
 0.10123861E-001  0.16191497E-004 -0.50908284E-004
 0.10123859E-001  0.16191599E-004  0.50908077E-004
 0.98287418E-002  0.00000000E+000  0.23219041E-004
 0.98287429E-002 -0.42726078E-018 -0.23220024E-004
 0.99792195E-002 -0.43398188E-018  0.27721452E-004
 0.99792181E-002 -0.86676149E-018 -0.27723178E-004
 0.10000000E-001  0.00000000E+000  0.00000000E+000
 0.10000000E-001  0.00000000E+000  0.00000000E+000
 0.10000000E-001  0.00000000E+000  0.00000000E+000
 0.10000000E-001  0.00000000E+000  0.00000000E+000
 0.10031524E-001  0.67883931E-004  0.64651144E-004
 0.10031523E-001  0.67885104E-004 -0.64653035E-004
 0.10033469E-001 -0.62211511E-004  0.65043299E-004
 0.10033470E-001 -0.62212260E-004 -0.65042477E-004
 0.10211059E-001  0.16203659E-004  0.29592201E-004
 0.10211059E-001  0.16203842E-004 -0.29592367E-004
 0.10207042E-001 -0.44077456E-004  0.32924531E-004
 0.10207040E-001 -0.44078271E-004 -0.32923222E-004
