 0.00000000E+000  0.00000000E+000  0.00000000E+000
 0.00000000E+000  0.00000000E+000  0.00000000E+000
 0.00000000E+000  0.00000000E+000  0.00000000E+000
 0.00000000E+000  0.00000000E+000  0.00000000E+000
 0.00000000E+000  0.00000000E+000  0.00000000E+000
 0.00000000E+000  0.00000000E+000  0.00000000E+000
 0.00000000E+000  0.00000000E+000  0.00000000E+000
 0.00000000E+000  0.00000000E+000  0.00000000E+000
 0.00000000E+000  0.00000000E+000  0.00000000E+000
 0.00000000E+000  0.00000000E+000  0.00000000E+000
 0.00000000E+000  0.00000000E+000  0.00000000E+000
 0.00000000E+000  0.00000000E+000  0.00000000E+000
 0.00000000E+000  0.00000000E+000  0.00000000E+000
 0.00000000E+000  0.00000000E+000  0.00000000E+000
 0.00000000E+000  0.00000000E+000  0.00000000E+000
 0.00000000E+000  0.00000000E+000  0.00000000E+000
 0.00000000E+000  0.00000000E+000  0.00000000E+000
 0.00000000E+000  0.00000000E+000  0.00000000E+000
 0.00000000E+000  0.00000000E+000  0.00000000E+000
 0.00000000E+000  0.00000000E+000  0.00000000E+000
 0.00000000E+000  0.00000000E+000  0.00000000E+000
 0.00000000E+000  0.00000000E+000  0.00000000E+000
 0.00000000E+000  0.00000000E+000  0.00000000E+000
 0.00000000E+000  0.00000000E+000  0.00000000E+000
 0.00000000E+000  0.00000000E+000  0.00000000E+000
 0.00000000E+000  0.00000000E+000  0.00000000E+000
 0.00000000E+000  0.00000000E+000  0.00000000E+000
 0.00000000E+000  0.00000000E+000  0.00000000E+000
 0.00000000E+000  0.00000000E+000  0.00000000E+000
 0.00000000E+000  0.00000000E+000  0.00000000E+000
 0.00000000E+000  0.00000000E+000  0.00000000E+000
 0.00000000E+000  0.00000000E+000  0.00000000E+000
 0.00000000E+000  0.00000000E+000  0.00000000E+000
 0.00000000E+000  0.00000000E+000  0.00000000E+000
 0.00000000E+000  0.00000000E+000  0.00000000E+000
 0.00000000E+000  0.00000000E+000  0.00000000E+000
 0.00000000E+000  0.00000000E+000  0.00000000E+000
 0.00000000E+000  0.00000000E+000  0.00000000E+000
 0.00000000E+000  0.00000000E+000  0.00000000E+000
 0.00000000E+000  0.00000000E+000  0.00000000E+000
 0.00000000E+000  0.00000000E+000  0.00000000E+000
 0.00000000E+000  0.00000000E+000  0.00000000E+000
 0.00000000E+000  0.00000000E+000  0.00000000E+000
 0.00000000E+000  0.00000000E+000  0.00000000E+000
 0.82518527E-003 -0.74354005E-003 -0.33118641E-012
 0.82518527E-003 -0.74354005E-003 -0.33118641E-012
 0.68950407E-003 -0.62128337E-003 -0.27673104E-012
 0.68950407E-003 -0.62128337E-003 -0.27673104E-012
 0.00000000E+000  0.00000000E+000  0.00000000E+000
 0.00000000E+000  0.00000000E+000  0.00000000E+000
 0.00000000E+000  0.00000000E+000  0.00000000E+000
 0.00000000E+000  0.00000000E+000  0.00000000E+000
 0.00000000E+000  0.00000000E+000  0.00000000E+000
 0.00000000E+000  0.00000000E+000  0.00000000E+000
 0.00000000E+000  0.00000000E+000  0.00000000E+000
 0.00000000E+000  0.00000000E+000  0.00000000E+000
 0.00000000E+000  0.00000000E+000  0.00000000E+000
 0.00000000E+000  0.00000000E+000  0.00000000E+000
 0.00000000E+000  0.00000000E+000  0.00000000E+000
 0.00000000E+000  0.00000000E+000  0.00000000E+000
 0.27382290E-003 -0.24673040E-003 -0.10989825E-012
 0.27382290E-003 -0.24673040E-003 -0.10989825E-012
 0.22879953E-003 -0.20616172E-003 -0.91828222E-013
 0.22879953E-003 -0.20616172E-003 -0.91828222E-013
