0.00000000E+000
-8.98898296E-005
-3.20516821E-004
-6.42811622E-004
-1.04028778E-003
-1.50149564E-003
-2.01724344E-003
-2.57962848E-003
-3.18159371E-003
-3.81667411E-003
-4.47884594E-003
-5.16247815E-003
-5.86239313E-003
-6.57399691E-003
-7.29339597E-003
-8.01743686E-003
-8.74366162E-003
-9.47021030E-003
-1.01957060E-002
-1.09191459E-002
-1.16398079E-002
