 0.43831007E-002
 0.53181155E-010
 0.53173255E-010
 0.43834326E-002
 0.27575780E+000
 0.27574568E+000
 0.27574567E+000
 0.27575780E+000
 0.43859533E-002
 0.43869161E-002
 0.43868726E-002
 0.43833800E-002
 0.43665355E-002
 0.43511318E-002
 0.43510594E-002
 0.43462937E-002
 0.34771344E-002
 0.48922799E-003
 0.47675476E-010
 0.47636720E-010
 0.47628616E-010
 0.47628799E-010
 0.47628781E-010
 0.47628396E-010
 0.47635729E-010
 0.47672022E-010
 0.48906985E-003
 0.34761966E-002
 0.43453842E-002
 0.43504386E-002
 0.43507717E-002
 0.43663582E-002
 0.43833084E-002
 0.43868537E-002
 0.43869466E-002
 0.43861121E-002
 0.94033221E-002
 0.23625897E-001
 0.49889267E-001
 0.89415440E-001
 0.13789313E+000
 0.18636109E+000
 0.22586266E+000
 0.25211435E+000
 0.26634163E+000
 0.27263020E+000
 0.27489668E+000
 0.27556273E+000
 0.27572223E+000
 0.27575335E+000
 0.27575779E+000
 0.27575779E+000
 0.27575779E+000
 0.27575780E+000
 0.27575782E+000
 0.27575784E+000
 0.27575782E+000
 0.27575594E+000
 0.27574693E+000
 0.27574383E+000
 0.27574624E+000
 0.27574627E+000
 0.27574628E+000
 0.27574628E+000
 0.27574628E+000
 0.27574628E+000
 0.27574627E+000
 0.27574624E+000
 0.27574382E+000
 0.27574694E+000
 0.27575594E+000
 0.27575782E+000
 0.27575784E+000
 0.27575782E+000
 0.27575780E+000
 0.27575779E+000
 0.27575779E+000
 0.27575779E+000
 0.27575335E+000
 0.27572223E+000
 0.27556273E+000
 0.27489668E+000
 0.27263019E+000
 0.26634161E+000
 0.25211430E+000
 0.22586258E+000
 0.18636097E+000
 0.13789297E+000
 0.89415240E-001
 0.49888975E-001
 0.23625375E-001
 0.94027606E-002
 0.16149468E-009
 0.42758925E-009
 0.92616964E-009
 0.17614909E-008
 0.27724359E-008
 0.82987624E-008
 0.33280691E-002
 0.41146183E-001
 0.15018618E+000
 0.23359874E+000
 0.26418053E+000
 0.27313286E+000
 0.27526966E+000
 0.27568512E+000
 0.16141919E-009
 0.42675971E-009
 0.92144144E-009
 0.17470249E-008
 0.27428402E-008
 0.82606152E-008
 0.33420161E-002
 0.41261175E-001
 0.15027797E+000
 0.23361625E+000
 0.26418141E+000
 0.27313350E+000
 0.27526987E+000
 0.27568516E+000
 0.27569582E+000
 0.27537356E+000
 0.27371328E+000
 0.26677683E+000
 0.24312723E+000
 0.17879229E+000
 0.85111613E-001
 0.34830120E-001
 0.21776115E-001
 0.15808889E-001
 0.10192426E-001
 0.56600903E-002
 0.26713865E-002
 0.10581841E-002
 0.27572685E+000
 0.27563894E+000
 0.27520342E+000
 0.27340047E+000
 0.26731986E+000
 0.25081638E+000
 0.21966733E+000
 0.18422996E+000
 0.14979213E+000
 0.11095828E+000
 0.71951063E-001
 0.40105294E-001
 0.18955334E-001
 0.75153448E-002
 0.27574920E+000
 0.27571537E+000
 0.27554744E+000
 0.27484918E+000
 0.27249186E+000
 0.26601449E+000
 0.25161427E+000
 0.22563320E+000
 0.18653552E+000
 0.13820460E+000
 0.89670437E-001
 0.50028570E-001
 0.23662872E-001
 0.93877964E-002
 0.27575341E+000
 0.27572242E+000
 0.27556273E+000
 0.27489422E+000
 0.27262023E+000
 0.26632920E+000
 0.25214075E+000
 0.22598138E+000
 0.18656456E+000
 0.13811553E+000
 0.89585026E-001
 0.49977616E-001
 0.23645845E-001
 0.93896479E-002
 0.27575346E+000
 0.27572269E+000
 0.27556420E+000
 0.27490054E+000
 0.27263894E+000
 0.26636085E+000
 0.25215347E+000
 0.22592843E+000
 0.18644267E+000
 0.13796642E+000
 0.89455688E-001
 0.49895013E-001
 0.23609008E-001
 0.93810277E-002
 0.27575341E+000
 0.27572251E+000
 0.27556369E+000
 0.27489946E+000
 0.27263671E+000
 0.26635473E+000
 0.25213564E+000
 0.22589070E+000
 0.18638865E+000
 0.13791219E+000
 0.89418429E-001
 0.49880938E-001
 0.23611466E-001
 0.93911209E-002
 0.27575336E+000
 0.27572225E+000
 0.27556276E+000
 0.27489669E+000
 0.27262998E+000
 0.26634129E+000
 0.25211411E+000
 0.22586394E+000
 0.18636418E+000
 0.13789833E+000
 0.89418941E-001
 0.49892683E-001
 0.23626710E-001
 0.94054327E-002
 0.27575334E+000
 0.27572221E+000
 0.27556262E+000
 0.27489634E+000
 0.27262920E+000
 0.26633974E+000
 0.25211137E+000
 0.22585985E+000
 0.18635937E+000
 0.13789430E+000
 0.89417359E-001
 0.49894083E-001
 0.23629649E-001
 0.94084594E-002
 0.27575335E+000
 0.27572222E+000
 0.27556267E+000
 0.27489654E+000
 0.27262975E+000
 0.26634084E+000
 0.25211296E+000
 0.22586125E+000
 0.18635984E+000
 0.13789350E+000
 0.89416091E-001
 0.49893014E-001
 0.23629203E-001
 0.94084418E-002
 0.27575335E+000
 0.27572223E+000
 0.27556270E+000
 0.27489664E+000
 0.27263006E+000
 0.26634143E+000
 0.25211395E+000
 0.22586230E+000
 0.18636075E+000
 0.13789353E+000
 0.89415999E-001
 0.49891709E-001
 0.23628119E-001
 0.94070163E-002
 0.27568569E+000
 0.27527320E+000
 0.27315132E+000
 0.26424811E+000
 0.23380375E+000
 0.15059849E+000
 0.41480484E-001
 0.33665732E-002
 0.82582645E-008
 0.27335874E-008
 0.17409589E-008
 0.91956545E-009
 0.42596106E-009
 0.15976133E-009
 0.27568591E+000
 0.27527488E+000
 0.27315931E+000
 0.26427438E+000
 0.23387191E+000
 0.15073343E+000
 0.41597500E-001
 0.33803632E-002
 0.82425048E-008
 0.27304109E-008
 0.17395440E-008
 0.91872539E-009
 0.42560099E-009
 0.15963363E-009
 0.27568600E+000
 0.27527565E+000
 0.27316289E+000
 0.26428532E+000
 0.23389892E+000
 0.15077892E+000
 0.41621810E-001
 0.33830441E-002
 0.82314761E-008
 0.27289637E-008
 0.17388853E-008
 0.91833870E-009
 0.42544927E-009
 0.15959617E-009
 0.27568604E+000
 0.27527594E+000
 0.27316428E+000
 0.26428935E+000
 0.23390864E+000
 0.15079770E+000
 0.41633813E-001
 0.33844067E-002
 0.82274978E-008
 0.27284003E-008
 0.17386335E-008
 0.91819150E-009
 0.42539599E-009
 0.15958906E-009
 0.27568604E+000
 0.27527594E+000
 0.27316425E+000
 0.26428912E+000
 0.23390728E+000
 0.15079266E+000
 0.41626821E-001
 0.33835753E-002
 0.82264521E-008
 0.27283645E-008
 0.17386398E-008
 0.91819564E-009
 0.42539719E-009
 0.15958924E-009
 0.27568600E+000
 0.27527564E+000
 0.27316280E+000
 0.26428452E+000
 0.23389427E+000
 0.15076205E+000
 0.41599297E-001
 0.33803684E-002
 0.82285350E-008
 0.27288896E-008
 0.17389187E-008
 0.91835867E-009
 0.42545593E-009
 0.15959753E-009
 0.27568590E+000
 0.27527484E+000
 0.27315909E+000
 0.26427283E+000
 0.23386332E+000
 0.15070311E+000
 0.41557877E-001
 0.33756229E-002
 0.82385739E-008
 0.27304310E-008
 0.17396442E-008
 0.91878031E-009
 0.42561975E-009
 0.15963826E-009
 0.27568568E+000
 0.27527309E+000
 0.27315067E+000
 0.26424461E+000
 0.23378678E+000
 0.15054253E+000
 0.41410177E-001
 0.33581156E-002
 0.82541065E-008
 0.27339524E-008
 0.17412187E-008
 0.91970157E-009
 0.42600755E-009
 0.15977478E-009
 0.27575335E+000
 0.27572222E+000
 0.27556270E+000
 0.27489664E+000
 0.27263007E+000
 0.26634146E+000
 0.25211402E+000
 0.22586241E+000
 0.18636088E+000
 0.13789370E+000
 0.89416206E-001
 0.49891969E-001
 0.23628455E-001
 0.94073010E-002
 0.27575335E+000
 0.27572222E+000
 0.27556267E+000
 0.27489655E+000
 0.27262978E+000
 0.26634091E+000
 0.25211308E+000
 0.22586141E+000
 0.18636000E+000
 0.13789363E+000
 0.89416206E-001
 0.49893125E-001
 0.23629307E-001
 0.94085039E-002
 0.27575334E+000
 0.27572221E+000
 0.27556263E+000
 0.27489637E+000
 0.27262928E+000
 0.26633990E+000
 0.25211160E+000
 0.22586006E+000
 0.18635944E+000
 0.13789419E+000
 0.89417142E-001
 0.49893875E-001
 0.23629528E-001
 0.94084113E-002
 0.27575336E+000
 0.27572226E+000
 0.27556278E+000
 0.27489676E+000
 0.27263015E+000
 0.26634161E+000
 0.25211451E+000
 0.22586415E+000
 0.18636389E+000
 0.13789752E+000
 0.89417893E-001
 0.49891806E-001
 0.23626212E-001
 0.94052434E-002
 0.27575342E+000
 0.27572252E+000
 0.27556374E+000
 0.27489961E+000
 0.27263711E+000
 0.26635544E+000
 0.25213639E+000
 0.22589074E+000
 0.18638723E+000
 0.13790943E+000
 0.89415299E-001
 0.49878516E-001
 0.23610153E-001
 0.93906413E-002
 0.27575346E+000
 0.27572270E+000
 0.27556428E+000
 0.27490087E+000
 0.27263983E+000
 0.26636244E+000
 0.25215491E+000
 0.22592776E+000
 0.18643828E+000
 0.13795904E+000
 0.89448032E-001
 0.49889473E-001
 0.23606155E-001
 0.93800283E-002
 0.27575341E+000
 0.27572245E+000
 0.27556289E+000
 0.27489489E+000
 0.27262208E+000
 0.26633235E+000
 0.25214328E+000
 0.22597959E+000
 0.18655515E+000
 0.13810005E+000
 0.89569520E-001
 0.49966884E-001
 0.23640555E-001
 0.93878721E-002
 0.27574921E+000
 0.27571542E+000
 0.27554774E+000
 0.27485040E+000
 0.27249453E+000
 0.26600945E+000
 0.25157911E+000
 0.22559159E+000
 0.18650147E+000
 0.13817091E+000
 0.89641689E-001
 0.50010361E-001
 0.23654420E-001
 0.93850928E-002
 0.27572686E+000
 0.27563907E+000
 0.27520412E+000
 0.27340301E+000
 0.26732559E+000
 0.25079710E+000
 0.21953658E+000
 0.18407139E+000
 0.14968109E+000
 0.11088390E+000
 0.71903795E-001
 0.40080946E-001
 0.18945513E-001
 0.75124337E-002
 0.27569586E+000
 0.27537376E+000
 0.27371335E+000
 0.26677255E+000
 0.24313255E+000
 0.17886883E+000
 0.85181861E-001
 0.34800131E-001
 0.21719228E-001
 0.15768811E-001
 0.10170638E-001
 0.56514084E-002
 0.26689247E-002
 0.10576289E-002
