 0.83268195E-033
 0.98125365E-022
 0.98839563E-022
 0.83292993E-033
 0.80540768E-033
-0.85267834E-027
-0.87129382E-027
 0.80518542E-033
 0.65312933E-033
 0.20999865E-031
 0.37916569E-029
 0.26707408E-027
 0.38946265E-026
 0.33672112E-025
 0.28410975E-024
 0.16780759E-022
 0.19438541E-020
 0.29252232E-020
 0.18481211E-022
-0.78062245E-024
-0.50150080E-023
-0.40633652E-024
-0.30642809E-024
-0.47965402E-023
-0.26388781E-023
 0.19272656E-022
 0.29238812E-020
 0.19498868E-020
 0.16739358E-022
 0.27919453E-024
 0.32877092E-025
 0.38262111E-026
 0.26739650E-027
 0.38020010E-029
 0.20913562E-031
 0.65274363E-033
 0.86090896E-033
 0.87080010E-033
 0.90050106E-033
 0.97245399E-033
 0.10718518E-032
 0.11537001E-032
 0.11567377E-032
 0.10762921E-032
 0.96769576E-033
 0.88532743E-033
 0.84542691E-033
 0.83023428E-033
 0.83028867E-033
 0.83072234E-033
 0.56533923E-033
 0.52690166E-033
-0.97163808E-032
-0.62274648E-030
-0.71702419E-029
-0.40574502E-028
-0.13466549E-027
-0.30086595E-027
-0.52480276E-027
-0.90313178E-027
 0.00000000E+000
 0.00000000E+000
 0.00000000E+000
 0.00000000E+000
 0.00000000E+000
 0.00000000E+000
 0.00000000E+000
 0.00000000E+000
-0.91756246E-027
-0.53370941E-027
-0.30721232E-027
-0.13708290E-027
-0.41068451E-028
-0.72326519E-029
-0.62409820E-030
-0.94110952E-032
 0.52659996E-033
 0.56519865E-033
 0.83076539E-033
 0.83034443E-033
 0.83026884E-033
 0.84556577E-033
 0.88589102E-033
 0.96922980E-033
 0.10792901E-032
 0.11609906E-032
 0.11581291E-032
 0.10752701E-032
 0.97440090E-033
 0.90134498E-033
 0.87111205E-033
 0.86099505E-033
 0.52250971E-020
 0.72379657E-018
 0.29111831E-015
 0.70266797E-013
 0.11450498E-010
 0.10246645E-008
 0.14023946E-007
-0.16244037E-008
-0.36740111E-011
-0.95892605E-014
-0.15995974E-015
-0.28505148E-018
-0.14840345E-020
-0.62808863E-024
 0.52928060E-020
 0.73989750E-018
 0.28967846E-015
 0.70978593E-013
 0.11317032E-010
 0.97189928E-009
 0.13127817E-007
-0.13829331E-008
-0.35801323E-011
-0.10234770E-013
-0.15618771E-015
-0.29897682E-018
-0.14653909E-020
-0.64166675E-024
-0.12100016E-023
-0.16367154E-020
-0.50804621E-018
-0.17466761E-015
-0.12737545E-013
-0.32188764E-011
-0.58994159E-009
 0.11010140E-007
 0.22451896E-008
 0.55572004E-010
 0.20329728E-012
 0.87290182E-015
 0.26142183E-017
 0.61106008E-019
-0.10482214E-023
-0.95065814E-021
-0.38218925E-018
-0.68281752E-016
-0.76638109E-014
-0.25319155E-012
-0.31921736E-010
 0.72440904E-010
 0.10703108E-009
 0.71001735E-011
 0.74832227E-013
 0.37246200E-015
 0.14640928E-017
 0.32733985E-019
-0.46042152E-024
-0.32840873E-021
-0.97423526E-019
-0.13960776E-016
-0.34063224E-015
-0.54996025E-013
-0.77832056E-013
 0.44381251E-013
 0.24473845E-012
 0.15161684E-012
 0.90354277E-014
 0.73863125E-016
 0.28673455E-018
 0.80738764E-021
-0.13474615E-024
-0.60656688E-022
-0.11481859E-019
-0.27315185E-018
-0.44994466E-016
-0.19497616E-015
-0.22254107E-015
 0.35884159E-015
 0.95688365E-015
 0.59942168E-015
 0.13495992E-015
 0.59726864E-017
 0.37736176E-019
 0.11048119E-021
-0.23598464E-025
-0.57584862E-023
-0.17032336E-021
-0.20454540E-019
-0.14475463E-018
-0.30972434E-018
 0.22102387E-018
 0.20202925E-017
 0.31050160E-017
 0.19947941E-017
 0.60798952E-018
 0.79064977E-019
 0.26176333E-020
 0.13278333E-022
-0.20856956E-026
-0.83367197E-025
-0.62852493E-023
-0.58323141E-022
-0.15041129E-021
 0.35182725E-021
 0.29768339E-020
 0.72993890E-020
 0.86382110E-020
 0.55427714E-020
 0.19994734E-020
 0.38840101E-021
 0.34900247E-022
 0.89646475E-024
-0.32187847E-028
-0.15256485E-026
-0.14799736E-025
-0.17668618E-025
 0.47201790E-024
 0.33108772E-023
 0.10622935E-022
 0.19208704E-022
 0.20409478E-022
 0.13283926E-022
 0.53853394E-023
 0.13322426E-023
 0.18794848E-024
 0.12609173E-025
-0.30149983E-030
-0.19512067E-029
 0.21956373E-028
 0.40225347E-027
 0.27480536E-026
 0.10708544E-025
 0.26131249E-025
 0.40950366E-025
 0.41478875E-025
 0.27697931E-025
 0.12324890E-025
 0.36210692E-026
 0.67743312E-027
 0.71541997E-028
 0.86992524E-033
 0.18697450E-031
 0.24153576E-030
 0.17388991E-029
 0.79589743E-029
 0.24428527E-028
 0.51314919E-028
 0.74004712E-028
 0.73339759E-028
 0.50485070E-028
 0.24300371E-028
 0.81524050E-029
 0.18643319E-029
 0.26046561E-030
 0.57686417E-033
 0.67886069E-033
 0.14426350E-032
 0.51776141E-032
 0.17636135E-031
 0.45672827E-031
 0.86299091E-031
 0.11766256E-030
 0.11548972E-030
 0.82135345E-031
 0.42554151E-031
 0.16271418E-031
 0.47497783E-032
 0.12913685E-032
-0.12846241E-024
-0.60029050E-021
-0.96569169E-019
-0.46480320E-016
-0.48857840E-014
-0.23884395E-012
-0.15027669E-008
 0.11207622E-007
 0.92078131E-009
 0.84057050E-011
 0.46123534E-013
 0.14144911E-015
 0.41957901E-018
 0.29287184E-020
-0.15808794E-025
-0.27593574E-021
-0.45637491E-019
-0.23132565E-016
-0.42136596E-014
-0.21965705E-012
-0.13541725E-008
 0.12133249E-007
 0.92211736E-009
 0.80219756E-011
 0.42149026E-013
 0.11825982E-015
 0.33034174E-018
 0.16612206E-020
 0.75537007E-025
-0.12884838E-021
 0.10961911E-019
-0.85819724E-017
-0.24722172E-014
 0.23695290E-012
-0.14317440E-008
 0.92777349E-008
 0.81396919E-009
 0.76560169E-011
 0.39948001E-013
 0.10429683E-015
 0.24235057E-018
 0.80319542E-021
 0.12816480E-024
-0.77065902E-022
 0.66149781E-019
-0.41311322E-017
-0.46274922E-015
 0.23544095E-012
-0.14240679E-008
 0.78288678E-008
 0.73050347E-009
 0.77897746E-011
 0.42036959E-013
 0.10592576E-015
 0.20688175E-018
 0.27176262E-021
 0.12371370E-024
-0.74008551E-022
 0.60877922E-019
-0.37259844E-017
-0.50676447E-015
 0.17248953E-012
-0.13746407E-008
 0.79001673E-008
 0.73087520E-009
 0.78687166E-011
 0.42622846E-013
 0.11140405E-015
 0.22905567E-018
 0.27097104E-021
 0.71607495E-025
-0.12287253E-021
 0.78843913E-020
-0.82984092E-017
-0.20601546E-014
 0.11763971E-012
-0.13994436E-008
 0.94869850E-008
 0.82072829E-009
 0.77764885E-011
 0.40628859E-013
 0.10996628E-015
 0.26817613E-018
 0.82071225E-021
-0.13333932E-025
-0.26484029E-021
-0.39743529E-019
-0.22189509E-016
-0.34976123E-014
-0.24635013E-012
-0.13867518E-008
 0.11898454E-007
 0.92067811E-009
 0.80441407E-011
 0.41475488E-013
 0.11511996E-015
 0.32073718E-018
 0.18802239E-020
-0.11464944E-024
-0.58739942E-021
-0.83295577E-019
-0.45091513E-016
-0.39825982E-014
-0.24841634E-012
-0.16455024E-008
 0.11690352E-007
 0.97232178E-009
 0.86072512E-011
 0.46090768E-013
 0.13811969E-015
 0.39932479E-018
 0.29219480E-020
 0.57698157E-033
 0.67972656E-033
 0.14449244E-032
 0.51735521E-032
 0.17581763E-031
 0.45457877E-031
 0.85794343E-031
 0.11687081E-030
 0.11462641E-030
 0.81471266E-031
 0.42189898E-031
 0.16130974E-031
 0.47131222E-032
 0.12854895E-032
 0.89168165E-033
 0.19004830E-031
 0.24362084E-030
 0.17470812E-029
 0.79791055E-029
 0.24459538E-028
 0.51339841E-028
 0.73997561E-028
 0.73292149E-028
 0.50426210E-028
 0.24261241E-028
 0.81366776E-029
 0.18602522E-029
 0.25963116E-030
-0.30766385E-030
-0.19964626E-029
 0.21978933E-028
 0.40479406E-027
 0.27685095E-026
 0.10795948E-025
 0.26356996E-025
 0.41310895E-025
 0.41833790E-025
 0.27921097E-025
 0.12416796E-025
 0.36456138E-026
 0.68148993E-027
 0.71869254E-028
-0.33548213E-028
-0.15831335E-026
-0.15447953E-025
-0.20340334E-025
 0.47423779E-024
 0.33722162E-023
 0.10866439E-022
 0.19679105E-022
 0.20902240E-022
 0.13588797E-022
 0.55004931E-023
 0.13582220E-023
 0.19118019E-024
 0.12778485E-025
-0.20779514E-026
-0.88627833E-025
-0.66149759E-023
-0.61557585E-022
-0.15949923E-021
 0.37261048E-021
 0.31633718E-020
 0.77483295E-020
 0.91231276E-020
 0.58222699E-020
 0.20889652E-020
 0.40329899E-021
 0.35911492E-022
 0.89791837E-024
-0.23301760E-025
-0.57137065E-023
-0.18790807E-021
-0.21888644E-019
-0.15426648E-018
-0.31637315E-018
 0.32840385E-018
 0.23772583E-017
 0.34949414E-017
 0.21940487E-017
 0.65699926E-018
 0.83609100E-019
 0.26042566E-020
 0.12928134E-022
-0.13240977E-024
-0.59642559E-022
-0.11376156E-019
-0.31947266E-018
-0.49262325E-016
-0.20769977E-015
-0.18460981E-015
 0.57511729E-015
 0.11890474E-014
 0.69981152E-015
 0.15055562E-015
 0.58866457E-017
 0.36152452E-019
 0.10641242E-021
-0.45117207E-024
-0.32267407E-021
-0.96102695E-019
-0.13946825E-016
-0.42317172E-015
-0.61712440E-013
-0.70220794E-013
 0.11472315E-012
 0.33254933E-012
 0.18492024E-012
 0.88542242E-014
 0.69801576E-016
 0.27269569E-018
 0.78723584E-021
-0.10275197E-023
-0.93665082E-021
-0.37750871E-018
-0.68143736E-016
-0.77931294E-014
-0.31657612E-012
-0.34274070E-010
 0.12313298E-009
 0.13958235E-009
 0.69594132E-011
 0.69433225E-013
 0.34967801E-015
 0.14176107E-017
 0.32794713E-019
-0.11986255E-023
-0.16112855E-020
-0.51136704E-018
-0.17186305E-015
-0.13632205E-013
-0.33582985E-011
-0.73330433E-009
 0.11328893E-007
 0.23712043E-008
 0.49469468E-010
 0.18940219E-012
 0.81982095E-015
 0.25631444E-017
 0.61146433E-019
