 0.18600000E-028
 0.22668059E-020
 0.22853177E-020
 0.18600000E-028
 0.18599999E-028
 0.18600000E-028
 0.18599999E-028
 0.18599999E-028
 0.18600000E-028
 0.18600000E-028
 0.18600000E-028
 0.18600000E-028
 0.18600004E-028
 0.21018398E-028
 0.12835141E-027
 0.36802152E-024
 0.19144296E-019
 0.73020183E-019
 0.40627711E-021
 0.24723478E-021
 0.13575026E-021
 0.72504626E-022
 0.70751123E-022
 0.12789835E-021
 0.22955909E-021
 0.40635348E-021
 0.73362795E-019
 0.19233577E-019
 0.36867051E-024
 0.12567182E-027
 0.20822781E-028
 0.18600004E-028
 0.18600000E-028
 0.18600000E-028
 0.18600000E-028
 0.18600000E-028
 0.18600000E-028
 0.18599999E-028
 0.18599999E-028
 0.18599999E-028
 0.18599999E-028
 0.18599999E-028
 0.18599999E-028
 0.18599999E-028
 0.18599999E-028
 0.18599999E-028
 0.18599999E-028
 0.18599999E-028
 0.18599999E-028
 0.18599999E-028
 0.18599999E-028
 0.18599999E-028
 0.18599999E-028
 0.18599999E-028
 0.18600000E-028
 0.18600000E-028
 0.18600000E-028
 0.18600000E-028
 0.18600000E-028
 0.18600000E-028
 0.18599999E-028
-0.11317521E-028
-0.26714813E-027
-0.52774414E-027
-0.50058087E-027
-0.23894084E-027
-0.14542553E-028
 0.18600000E-028
 0.18600000E-028
 0.18600000E-028
 0.18599999E-028
 0.18600000E-028
 0.18600000E-028
 0.18600000E-028
 0.18599999E-028
 0.18599999E-028
 0.18599999E-028
 0.18599999E-028
 0.18599999E-028
 0.18599999E-028
 0.18599999E-028
 0.18599999E-028
 0.18599999E-028
 0.18599999E-028
 0.18599999E-028
 0.18599999E-028
 0.18599999E-028
 0.18599999E-028
 0.18599999E-028
 0.18599999E-028
 0.18599999E-028
 0.18600000E-028
 0.23097901E-018
 0.16364654E-015
 0.61407040E-013
 0.13073921E-010
 0.86259575E-008
 0.13967998E-005
 0.21591391E-004
 0.57066747E-006
 0.46111632E-008
 0.18599999E-028
 0.18599999E-028
 0.18600000E-028
 0.18599999E-028
 0.18600000E-028
 0.23297219E-018
 0.15983616E-015
 0.59970537E-013
 0.12372131E-010
 0.83827116E-008
 0.13305643E-005
 0.20489532E-004
 0.32855601E-006
 0.90207115E-008
 0.18600000E-028
 0.18600000E-028
 0.18600000E-028
 0.18600000E-028
 0.18600000E-028
 0.18600000E-028
 0.18600000E-028
 0.18600000E-028
 0.18600000E-028
 0.18599999E-028
-0.17016128E-007
 0.14723431E-005
 0.24104163E-004
 0.38562436E-005
 0.50275072E-007
 0.66865964E-010
 0.32622909E-012
 0.17908918E-014
 0.54723692E-017
 0.18599999E-028
 0.18600000E-028
 0.18600000E-028
 0.18600000E-028
-0.69510609E-015
-0.64238054E-008
 0.48530830E-006
 0.38656127E-005
 0.85737808E-006
 0.11981055E-007
 0.15399851E-010
 0.76579458E-013
 0.45070992E-015
 0.14419433E-017
 0.18600000E-028
 0.18599999E-028
 0.18599999E-028
-0.94206110E-019
-0.18651273E-015
-0.69510609E-015
 0.66860428E-012
 0.14301785E-010
 0.23595250E-010
 0.34172916E-011
 0.15801313E-013
 0.79079600E-017
 0.83610399E-020
 0.18641686E-022
 0.18600000E-028
 0.18599999E-028
-0.24237904E-024
-0.27080356E-019
-0.75617888E-019
 0.18600000E-028
 0.74337605E-017
 0.20308500E-015
 0.65426270E-015
 0.31081367E-015
 0.26783227E-016
 0.70042780E-019
 0.36026295E-022
 0.56232351E-025
 0.18600000E-028
 0.15950306E-028
-0.78424590E-025
-0.21414379E-024
 0.18599999E-028
 0.18599999E-028
 0.39584816E-021
 0.75466715E-020
 0.19665341E-019
 0.10946990E-019
 0.17403934E-020
 0.79854725E-022
 0.97611578E-024
 0.36876379E-026
 0.18599884E-028
 0.17435480E-028
 0.15293336E-028
 0.18600000E-028
 0.18600078E-028
 0.51268958E-027
 0.33722707E-024
 0.23827971E-023
 0.44954536E-023
 0.35246494E-023
 0.12377222E-023
 0.19736498E-024
 0.12727112E-025
 0.22099062E-027
 0.18599947E-028
 0.18599847E-028
 0.18599999E-028
 0.18600000E-028
 0.18600032E-028
 0.26409211E-027
 0.25542228E-026
 0.84020838E-026
 0.12791498E-025
 0.98314438E-026
 0.38339251E-026
 0.76446133E-027
 0.79457248E-028
 0.19083019E-028
 0.18599999E-028
 0.18600000E-028
 0.18600000E-028
 0.18600000E-028
 0.18600000E-028
 0.18598356E-028
 0.20030342E-028
 0.27414698E-028
 0.36025751E-028
 0.29219174E-028
 0.20703282E-028
 0.18630049E-028
 0.18599571E-028
 0.18600000E-028
 0.18599999E-028
 0.18600000E-028
 0.18600000E-028
 0.18599999E-028
 0.18599996E-028
 0.18599152E-028
 0.18595363E-028
 0.18594668E-028
 0.18597526E-028
 0.18599351E-028
 0.18599869E-028
 0.18599978E-028
 0.18599998E-028
 0.18600000E-028
 0.18599999E-028
 0.18599999E-028
 0.18599999E-028
 0.18599999E-028
 0.18599998E-028
 0.18599991E-028
 0.18599985E-028
 0.18599988E-028
 0.18599995E-028
 0.18599998E-028
 0.18599999E-028
 0.18599999E-028
 0.18599999E-028
 0.18600000E-028
 0.18600000E-028
 0.18600000E-028
 0.18599999E-028
 0.18599999E-028
-0.36425770E-010
 0.48098377E-008
 0.89931447E-006
 0.19385428E-004
 0.12236194E-005
 0.63748191E-008
 0.61474233E-011
 0.31968883E-013
 0.69500928E-016
 0.99464415E-019
-0.26263919E-028
 0.18599999E-028
-0.11430939E-017
-0.29009889E-017
-0.32734096E-010
 0.48069037E-008
 0.87370411E-006
 0.19029684E-004
 0.11967321E-005
 0.61569831E-008
 0.54791628E-011
 0.26435093E-013
 0.49431757E-016
 0.69380052E-019
-0.27644142E-024
-0.10220415E-020
-0.34156803E-017
-0.85965838E-017
-0.39126507E-010
 0.37096062E-009
 0.96754649E-006
 0.15684851E-004
 0.99003635E-006
 0.54883760E-008
 0.52042141E-011
 0.24794160E-013
 0.43249799E-016
 0.53319056E-019
-0.47101810E-024
-0.53962697E-020
-0.30311765E-017
-0.75375552E-017
-0.39135357E-010
-0.12212963E-009
 0.83051052E-006
 0.13103638E-004
 0.83440453E-006
 0.49310623E-008
 0.51953756E-011
 0.25074535E-013
 0.42520147E-016
 0.46849403E-019
-0.42135063E-024
-0.49463864E-020
-0.24691489E-017
-0.61301056E-017
-0.33214010E-010
-0.10367126E-009
 0.82673857E-006
 0.13250770E-004
 0.84297257E-006
 0.49561584E-008
 0.52411025E-011
 0.25311765E-013
 0.43764347E-016
 0.49365945E-019
-0.21938279E-024
-0.80027602E-021
-0.21994401E-017
-0.55332157E-017
-0.28544562E-010
 0.19128123E-009
 0.98803527E-006
 0.15915269E-004
 0.10036994E-005
 0.55469644E-008
 0.52851721E-011
 0.25087046E-013
 0.44693570E-016
 0.56469739E-019
-0.19910225E-028
 0.47909197E-028
-0.67463422E-018
-0.17104886E-017
-0.24050099E-010
 0.23609644E-008
 0.99995519E-006
 0.19034828E-004
 0.11970549E-005
 0.62511732E-008
 0.55533183E-011
 0.26351475E-013
 0.48892005E-016
 0.68296575E-019
 0.18600000E-028
 0.18600000E-028
 0.18600000E-028
 0.18599999E-028
-0.31195868E-010
 0.57877217E-009
 0.11220422E-005
 0.20132209E-004
 0.12702642E-005
 0.67077106E-008
 0.62792721E-011
 0.31984938E-013
 0.68587162E-016
 0.95831600E-019
 0.18599999E-028
 0.18599999E-028
 0.18599999E-028
 0.18599999E-028
 0.18599998E-028
 0.18599991E-028
 0.18599984E-028
 0.18599987E-028
 0.18599995E-028
 0.18599998E-028
 0.18599999E-028
 0.18599999E-028
 0.18599999E-028
 0.18599999E-028
 0.18599999E-028
 0.18600000E-028
 0.18600000E-028
 0.18599999E-028
 0.18599996E-028
 0.18598870E-028
 0.18594619E-028
 0.18594092E-028
 0.18597315E-028
 0.18599304E-028
 0.18599861E-028
 0.18599976E-028
 0.18599998E-028
 0.18600000E-028
 0.18599999E-028
 0.18600000E-028
 0.18600000E-028
 0.18600000E-028
 0.18600000E-028
 0.18597795E-028
 0.19744250E-028
 0.27480620E-028
 0.36966230E-028
 0.29852646E-028
 0.20859648E-028
 0.18641150E-028
 0.18599533E-028
 0.18600000E-028
 0.18599963E-028
 0.18599892E-028
 0.18599999E-028
 0.18600000E-028
 0.18656514E-028
 0.29307338E-027
 0.27303031E-026
 0.86487648E-026
 0.13589965E-025
 0.10484274E-025
 0.40737174E-026
 0.80812603E-027
 0.83072722E-028
 0.19118224E-028
 0.18599916E-028
 0.17969468E-028
 0.16745523E-028
 0.18600000E-028
 0.18810820E-028
 0.34845068E-026
 0.44680161E-024
 0.26546660E-023
 0.51075850E-023
 0.39811794E-023
 0.13774938E-023
 0.21608120E-024
 0.13601953E-025
 0.22073140E-027
 0.18600000E-028
 0.17005322E-028
-0.30654643E-025
-0.89246564E-025
 0.18600000E-028
 0.54717499E-026
 0.67699340E-021
 0.11069566E-019
 0.25284951E-019
 0.13341340E-019
 0.20462656E-020
 0.89760097E-022
 0.96337562E-024
 0.35577301E-026
 0.18600000E-028
 0.18600000E-028
-0.10836355E-024
-0.43588503E-020
-0.16266292E-019
 0.18599999E-028
 0.13700643E-016
 0.32389739E-015
 0.88591183E-015
 0.39572731E-015
 0.32648016E-016
 0.68818964E-019
 0.34050752E-022
 0.53835581E-025
 0.18600000E-028
 0.18600000E-028
 0.18599999E-028
-0.16266292E-019
-0.60706629E-019
 0.18600000E-028
 0.86763689E-012
 0.18116805E-010
 0.29223201E-010
 0.41351576E-011
 0.15616083E-013
 0.71922753E-017
 0.77985256E-020
 0.18081729E-022
 0.18600000E-028
 0.18599999E-028
 0.18600000E-028
 0.18600000E-028
 0.18600000E-028
-0.31433668E-008
 0.50513453E-006
 0.39742826E-005
 0.88633652E-006
 0.12600353E-007
 0.14093992E-010
 0.71737452E-013
 0.42483039E-015
 0.14169252E-017
 0.18600000E-028
 0.18599999E-028
 0.18599999E-028
 0.18600000E-028
 0.18600000E-028
-0.43456644E-008
 0.15127332E-005
 0.24397306E-004
 0.39616819E-005
 0.52714908E-007
 0.61294249E-010
 0.30635722E-012
 0.16894107E-014
 0.53798594E-017
