 0.15907676E-006
 0.26282994E-002
 0.26279099E-002
 0.15908669E-006
 0.59169426E-010
 0.86851809E-008
 0.86886486E-008
 0.59155595E-010
 0.15916217E-006
 0.15919101E-006
 0.15918970E-006
 0.15908363E-006
 0.15857184E-006
 0.15810303E-006
 0.20151476E-006
 0.69101792E-005
 0.57496787E-003
 0.27472868E-002
 0.23561064E-002
 0.23541956E-002
 0.23537961E-002
 0.23538051E-002
 0.23538042E-002
 0.23537853E-002
 0.23541468E-002
 0.23559361E-002
 0.27467479E-002
 0.57491105E-003
 0.69235406E-005
 0.20102018E-006
 0.15809228E-006
 0.15856654E-006
 0.15908149E-006
 0.15918913E-006
 0.15919192E-006
 0.15916692E-006
 0.29766189E-006
 0.61754571E-006
 0.10536541E-005
 0.14743521E-005
 0.16852133E-005
 0.15682619E-005
 0.11845209E-005
 0.72556974E-006
 0.36038252E-006
 0.14320637E-006
 0.42164014E-007
 0.95971166E-008
 0.17980635E-008
 0.27655612E-009
 0.59278331E-010
 0.59315226E-010
 0.59314622E-010
 0.59102390E-010
 0.58352573E-010
 0.12483938E-009
 0.12827315E-007
 0.11625426E-005
 0.22575104E-005
 0.31644530E-007
 0.83170079E-008
 0.83000299E-008
 0.82935808E-008
 0.82916262E-008
 0.82916380E-008
 0.82936849E-008
 0.83004954E-008
 0.83184922E-008
 0.44697437E-007
 0.22842438E-005
 0.11629910E-005
 0.12874138E-007
 0.12591064E-009
 0.58370601E-010
 0.59107139E-010
 0.59316508E-010
 0.59314442E-010
 0.59271720E-010
 0.27652268E-009
 0.17980097E-008
 0.95970648E-008
 0.42163999E-007
 0.14320656E-006
 0.36038311E-006
 0.72557069E-006
 0.11845219E-005
 0.15682626E-005
 0.16852131E-005
 0.14743505E-005
 0.10536497E-005
 0.61753466E-006
 0.29764678E-006
 0.79420391E-002
 0.20764539E-001
 0.43917151E-001
 0.78687057E-001
 0.12117785E+000
 0.16122551E+000
 0.16673523E+000
 0.76191918E-001
 0.49205720E-002
 0.27434409E-003
 0.25477083E-004
 0.40775367E-005
 0.46900192E-006
 0.49754478E-007
 0.79407330E-002
 0.20760775E-001
 0.43910692E-001
 0.78681252E-001
 0.12118221E+000
 0.16124642E+000
 0.16671158E+000
 0.76138090E-001
 0.48993318E-002
 0.24762899E-003
 0.13479038E-004
 0.22436493E-005
 0.31871554E-006
 0.48119422E-007
 0.10000831E-004
 0.73222562E-004
 0.38322278E-003
 0.16880888E-002
 0.61682553E-002
 0.20374756E-001
 0.77521115E-001
 0.13533008E+000
 0.12669845E+000
 0.94869577E-001
 0.61628722E-001
 0.34409910E-001
 0.16275434E-001
 0.63963355E-002
 0.12485618E-004
 0.51103959E-004
 0.21865086E-003
 0.90711049E-003
 0.32376282E-002
 0.96463768E-002
 0.20936302E-001
 0.27360756E-001
 0.24184115E-001
 0.17984893E-001
 0.11721461E-001
 0.65702366E-002
 0.31207178E-002
 0.12402303E-002
 0.26174427E-005
 0.42362245E-005
 0.81508279E-005
 0.21338725E-004
 0.59426601E-004
 0.16619468E-003
 0.33380778E-003
 0.29931718E-003
 0.17863278E-003
 0.12356066E-003
 0.92675521E-004
 0.60856412E-004
 0.32967701E-004
 0.14077880E-004
 0.24875654E-007
 0.48451789E-007
 0.11390485E-006
 0.34946733E-006
 0.10529814E-005
 0.23721014E-005
 0.34662313E-005
 0.37392362E-005
 0.33974389E-005
 0.28172881E-005
 0.22154649E-005
 0.15245300E-005
 0.87122618E-006
 0.40093871E-006
 0.41518037E-009
 0.21017047E-008
 0.10380361E-007
 0.44612715E-007
 0.14884649E-006
 0.36946280E-006
 0.73479460E-006
 0.11902851E-005
 0.15707912E-005
 0.16859845E-005
 0.14746677E-005
 0.10537049E-005
 0.61718288E-006
 0.29704969E-006
 0.27412111E-009
 0.17862480E-008
 0.95548495E-008
 0.42039493E-007
 0.14294631E-006
 0.35996944E-006
 0.72508757E-006
 0.11841226E-005
 0.15680795E-005
 0.16852146E-005
 0.14743595E-005
 0.10535264E-005
 0.61724653E-006
 0.29732978E-006
 0.27633031E-009
 0.17971294E-008
 0.95956795E-008
 0.42163303E-007
 0.14321541E-006
 0.36039315E-006
 0.72557648E-006
 0.11845048E-005
 0.15682453E-005
 0.16852180E-005
 0.14743793E-005
 0.10537007E-005
 0.61756218E-006
 0.29771919E-006
 0.27688649E-009
 0.17993076E-008
 0.96024517E-008
 0.42180492E-007
 0.14324749E-006
 0.36044188E-006
 0.72563800E-006
 0.11845619E-005
 0.15682760E-005
 0.16852162E-005
 0.14743698E-005
 0.10537231E-005
 0.61762371E-006
 0.29780157E-006
 0.27684296E-009
 0.17988663E-008
 0.95999970E-008
 0.42170911E-007
 0.14322493E-006
 0.36040712E-006
 0.72560159E-006
 0.11845410E-005
 0.15682714E-005
 0.16852143E-005
 0.14743595E-005
 0.10537084E-005
 0.61761517E-006
 0.29780130E-006
 0.27674365E-009
 0.17984676E-008
 0.95983995E-008
 0.42166047E-007
 0.14321221E-006
 0.36038873E-006
 0.72557881E-006
 0.11845259E-005
 0.15682647E-005
 0.16852139E-005
 0.14743580E-005
 0.10536894E-005
 0.61759271E-006
 0.29776256E-006
 0.47771132E-007
 0.31654690E-006
 0.16991470E-005
 0.75003984E-005
 0.24008798E-003
 0.48945231E-002
 0.76076344E-001
 0.16663945E+000
 0.16113166E+000
 0.12105253E+000
 0.78564504E-001
 0.43834175E-001
 0.20722620E-001
 0.78591535E-002
 0.47631327E-007
 0.31545342E-006
 0.16939382E-005
 0.74832823E-005
 0.23478722E-003
 0.48721351E-002
 0.76031927E-001
 0.16660710E+000
 0.16110238E+000
 0.12099934E+000
 0.78513174E-001
 0.43799886E-001
 0.20705421E-001
 0.78529170E-002
 0.47569637E-007
 0.31495259E-006
 0.16916058E-005
 0.74761494E-005
 0.23576258E-003
 0.48739771E-002
 0.76029647E-001
 0.16659908E+000
 0.16108504E+000
 0.12097164E+000
 0.78488202E-001
 0.43783892E-001
 0.20698180E-001
 0.78510902E-002
 0.47547007E-007
 0.31475926E-006
 0.16907043E-005
 0.74735286E-005
 0.23593693E-003
 0.48740690E-002
 0.76027334E-001
 0.16659529E+000
 0.16107832E+000
 0.12096081E+000
 0.78478430E-001
 0.43777756E-001
 0.20695640E-001
 0.78507446E-002
 0.47547130E-007
 0.31476045E-006
 0.16907186E-005
 0.74736794E-005
 0.23608537E-003
 0.48751445E-002
 0.76031059E-001
 0.16659701E+000
 0.16107811E+000
 0.12096077E+000
 0.78478615E-001
 0.43777918E-001
 0.20695697E-001
 0.78507532E-002
 0.47570447E-007
 0.31495937E-006
 0.16916650E-005
 0.74766718E-005
 0.23625807E-003
 0.48774584E-002
 0.76041372E-001
 0.16660470E+000
 0.16108493E+000
 0.12097226E+000
 0.78489349E-001
 0.43784695E-001
 0.20698498E-001
 0.78511562E-002
 0.47634442E-007
 0.31547608E-006
 0.16940848E-005
 0.74842916E-005
 0.23578879E-003
 0.48789874E-002
 0.76052146E-001
 0.16661727E+000
 0.16110367E+000
 0.12100264E+000
 0.78516822E-001
 0.43802106E-001
 0.20706315E-001
 0.78531426E-002
 0.47782737E-007
 0.31671243E-006
 0.17008190E-005
 0.75063815E-005
 0.24174577E-003
 0.49063498E-002
 0.76110710E-001
 0.16665807E+000
 0.16113714E+000
 0.12106281E+000
 0.78574035E-001
 0.43839622E-001
 0.20724836E-001
 0.78598103E-002
 0.27676132E-009
 0.17985021E-008
 0.95984243E-008
 0.42165960E-007
 0.14321177E-006
 0.36038773E-006
 0.72557736E-006
 0.11845244E-005
 0.15682639E-005
 0.16852141E-005
 0.14743597E-005
 0.10536931E-005
 0.61759971E-006
 0.29777017E-006
 0.27684399E-009
 0.17988543E-008
 0.95998851E-008
 0.42170398E-007
 0.14322359E-006
 0.36040477E-006
 0.72559875E-006
 0.11845387E-005
 0.15682704E-005
 0.16852144E-005
 0.14743604E-005
 0.10537100E-005
 0.61761730E-006
 0.29780294E-006
 0.27687510E-009
 0.17992279E-008
 0.96020589E-008
 0.42179065E-007
 0.14324426E-006
 0.36043690E-006
 0.72563284E-006
 0.11845587E-005
 0.15682754E-005
 0.16852160E-005
 0.14743680E-005
 0.10537202E-005
 0.61762131E-006
 0.29780032E-006
 0.27630236E-009
 0.17969374E-008
 0.95947507E-008
 0.42160009E-007
 0.14320825E-006
 0.36038285E-006
 0.72556721E-006
 0.11845013E-005
 0.15682464E-005
 0.16852167E-005
 0.14743708E-005
 0.10536886E-005
 0.61755229E-006
 0.29771425E-006
 0.27404279E-009
 0.17857707E-008
 0.95525648E-008
 0.42031535E-007
 0.14292977E-006
 0.35994674E-006
 0.72506968E-006
 0.11841205E-005
 0.15680866E-005
 0.16852109E-005
 0.14743344E-005
 0.10534931E-005
 0.61722051E-006
 0.29731729E-006
 0.41279353E-009
 0.20933823E-008
 0.10344916E-007
 0.44481175E-007
 0.14852004E-006
 0.36896228E-006
 0.73426035E-006
 0.11899402E-005
 0.15706276E-005
 0.16858548E-005
 0.14745948E-005
 0.10536289E-005
 0.61712650E-006
 0.29702371E-006
 0.24816419E-007
 0.48166285E-007
 0.11221579E-006
 0.34224594E-006
 0.10327793E-005
 0.23485716E-005
 0.34777676E-005
 0.37641878E-005
 0.34025125E-005
 0.28125994E-005
 0.22090791E-005
 0.15190745E-005
 0.86808330E-006
 0.39972608E-006
 0.26162925E-005
 0.42296031E-005
 0.81198470E-005
 0.21252650E-004
 0.59660119E-004
 0.17259370E-003
 0.35929024E-003
 0.32598834E-003
 0.19207835E-003
 0.12924595E-003
 0.94918535E-004
 0.61581906E-004
 0.33164485E-004
 0.14126104E-004
 0.12452163E-004
 0.51049693E-004
 0.21839710E-003
 0.90634089E-003
 0.32364043E-002
 0.96631998E-002
 0.21025961E-001
 0.27464963E-001
 0.24238972E-001
 0.18006115E-001
 0.11728029E-001
 0.65712837E-002
 0.31205625E-002
 0.12401116E-002
 0.99764610E-005
 0.72881977E-004
 0.37956849E-003
 0.16651948E-002
 0.61184473E-002
 0.20347925E-001
 0.77490644E-001
 0.13534269E+000
 0.12675673E+000
 0.94899126E-001
 0.61634551E-001
 0.34406400E-001
 0.16271695E-001
 0.63948416E-002
