{
    "authors": [
        "guillaume.houzeaux@bsc.es"
    ],
    "comparisons": [
        {
            "file": "tri03qua04_on_the_fly.post.res",
            "method": "absolute",
            "tolerance": 1e-07
        }
    ],
    "description": "Test of stable assembly when computing turbulent viscosity on the fly",
    "exclude": [
        "special"
    ],
    "executions": [
        {
            "mpi": 3,
            "openmp": 0
        }
    ],
    "modules": [
        "nastin"
    ],
    "name": "tri03qua04_on_the_fly",
    "postprocess": "alya2pos"
}
