 0.00000000E+000  0.00000000E+000
 0.00000000E+000  0.00000000E+000
 0.00000000E+000  0.00000000E+000
-0.10366408E-001  0.96306341E-002
 0.00000000E+000  0.00000000E+000
 0.00000000E+000  0.00000000E+000
-0.29690142E-001  0.13505663E-001
-0.19224264E-001  0.32567690E-001
-0.53679953E-001  0.43195752E-001
 0.00000000E+000  0.00000000E+000
 0.00000000E+000  0.00000000E+000
-0.50305860E-001  0.11903290E-001
-0.25375890E-001  0.67045584E-001
-0.89501302E-001  0.38080202E-001
-0.70784732E-001  0.86345249E-001
 0.00000000E+000  0.00000000E+000
 0.00000000E+000  0.00000000E+000
-0.65693669E-001  0.70204416E-002
-0.28303284E-001  0.10907021E+000
-0.11835477E+000  0.76981575E-001
-0.11696967E+000  0.22610449E-001
-0.78419919E-001  0.13804350E+000
 0.00000000E+000  0.00000000E+000
 0.00000000E+000  0.00000000E+000
-0.15787826E+000  0.48127615E-001
-0.13139696E+000  0.12548185E+000
-0.71312900E-001  0.12325941E-004
-0.27709422E-001  0.15241052E+000
-0.12844077E+000  0.33668110E-003
-0.73754721E-001  0.18950156E+000
-0.17942708E+000  0.85418515E-001
-0.17961775E+000  0.45286517E-002
-0.12107226E+000  0.17481486E+000
 0.00000000E+000  0.00000000E+000
 0.00000000E+000  0.00000000E+000
-0.65034162E-001 -0.74803254E-002
-0.25104707E-001  0.18928013E+000
-0.11953285E+000 -0.23537317E-001
-0.57570955E-001  0.22842212E+000
-0.21513244E+000  0.19720482E-001
-0.16609930E+000  0.12931264E+000
-0.17446789E+000 -0.44395997E-001
-0.85509847E-001  0.21053418E+000
 0.00000000E+000  0.00000000E+000
 0.00000000E+000  0.00000000E+000
-0.48202934E-001 -0.13033357E-001
-0.24581076E-001  0.21166467E+000
-0.20845745E+000  0.51097078E-001
-0.22447943E+000 -0.61899338E-001
-0.11073480E+000  0.16435056E+000
-0.91378548E-001 -0.41662881E-001
-0.36351030E-001  0.24107371E+000
-0.13962083E+000 -0.83819245E-001
-0.33029741E-001  0.21627064E+000
-0.24015092E+000 -0.61581041E-001
-0.13990311E+000  0.88401343E-001
 0.00000000E+000  0.00000000E+000
 0.00000000E+000  0.00000000E+000
-0.26040488E-001 -0.14166796E-001
-0.19374908E+000 -0.13523814E+000
-0.23511782E-001  0.20733087E+000
-0.23651925E-001  0.17121721E+000
-0.51832559E-001 -0.46446697E-001
-0.62202991E-002  0.21178196E+000
-0.18001654E+000 -0.31318569E-001
-0.83139844E-001 -0.97544957E-001
 0.38067071E-001  0.17660112E+000
-0.23381381E+000 -0.18231581E+000
-0.20017552E-001  0.10671543E+000
-0.12435268E+000 -0.16942108E+000
 0.90776511E-001  0.13488129E+000
 0.00000000E+000  0.00000000E+000
 0.00000000E+000  0.00000000E+000
-0.67298812E-002 -0.96618315E-002
 0.32216119E-001  0.13200000E+000
-0.14859101E-001 -0.33103614E-001
-0.21734436E+000 -0.19799700E+000
-0.36600749E-001  0.12008008E-001
 0.12264167E+000  0.11125538E+000
-0.16856803E+000 -0.25766884E+000
 0.13587132E+000  0.87520812E-001
-0.25021517E-001 -0.73341710E-001
 0.22313272E+000  0.76533645E-001
-0.40143324E-001 -0.13687721E+000
 0.31724060E+000  0.54755607E-001
-0.97971028E-001 -0.15250015E+000
 0.00000000E+000  0.00000000E+000
 0.00000000E+000  0.00000000E+000
-0.19246890E+000 -0.34154179E+000
 0.15710332E+000  0.28168858E-001
 0.00000000E+000  0.00000000E+000
 0.10000000E+001  0.00000000E+000
 0.10000000E+001  0.00000000E+000
 0.00000000E+000  0.00000000E+000
-0.60431932E-001 -0.22996478E+000
 0.38993714E+000  0.36314859E-001
 0.00000000E+000  0.00000000E+000
 0.10000000E+001  0.00000000E+000
-0.15884979E+000 -0.37739444E+000
 0.13405442E+000 -0.57940173E-001
 0.00000000E+000  0.00000000E+000
 0.10000000E+001  0.00000000E+000
-0.80508211E-001 -0.35026107E+000
 0.43254311E+000  0.15362432E-001
 0.00000000E+000  0.00000000E+000
 0.10000000E+001  0.00000000E+000
-0.12401017E-001 -0.30261550E+000
-0.89364630E-001 -0.47678894E+000
 0.43815881E+000 -0.13323740E-001
 0.10000000E+001  0.00000000E+000
 0.00000000E+000  0.00000000E+000
-0.65314518E-001 -0.55982415E+000
 0.39270830E+000 -0.70091485E-001
 0.00000000E+000  0.00000000E+000
 0.10000000E+001  0.00000000E+000
 0.71576020E-001 -0.50295803E+000
 0.10000000E+001  0.00000000E+000
 0.00000000E+000  0.00000000E+000
 0.10000000E+001  0.00000000E+000
 0.00000000E+000  0.00000000E+000
 0.00000000E+000  0.00000000E+000
