{
    "authors": [
        "guillaume.houzeaux@bsc.es",
        "gerard.guillamet@bsc.es"
    ],
    "comparisons": [
        {
            "file": "fluid-node.nsi.set",
            "method": "power",
            "tolerance": 6
        },
        {
            "file": "structure-node.sld.set",
            "method": "power",
            "tolerance": 6
        },
        {
            "file": "fluid.nsi.wit",
            "method": "absolute",
            "tolerance": 1e-6
        },
        {
            "file": "structure.sld.wit",
            "method": "power",
            "tolerance": 6
        }
    ],
    "description": "3D test for Fluid-Structure-Interaction",
    "exclude": [
        "special"
    ],
    "executions": [
        {
            "commands": {
                "alya": "[RUN] [NP] 5 [ALYA] fluid [SEP] [NP] 5 [ALYA] structure",
                "postprocess": "echo | [POST] fluid; echo | [POST] structure"
            },
            "mpi": 10,
            "openmp": 0
        }
    ],
    "include": [
        "i4"
    ],
    "modules": [
        "nastin",
        "solidz",
        "alefor"
    ],
    "name": "cylinder-fsi",
    "postprocess": "alya2pos",
    "timeout": "00:05:00"
}
