$-------------------------------------------------------------------
PHYSICAL_PROBLEM
END_PHYSICAL_PROBLEM
$-------------------------------------------------------------------
NUMERICAL_TREATMENT
  DEFORMATION:          BOUNDARY, STEPS= 1
  ALGEBRAIC_SOLVER:
    SOLVER:             DEFLATED_CG, COARSE: SPARSE
    CONVERGENCE:        ITERA=1000, TOLER=1.0E-8
    PRECONDITIONER:     DIAGONAL
    OUTPUT:             CONVERGENCE
    OPTION:             FIXITY
  END_ALGEBRAIC_SOLVER
END_NUMERICAL_TREATMENT
$-------------------------------------------------------------------
OUTPUT_&_POST_PROCESS
  START_POSTPROCESS_AT: STEP= 0
  POSTPROCESS INITI
  POSTPROCESS DISPM
  POSTPROCESS VELOM
END_OUTPUT_&_POST_PROCESS
$-------------------------------------------------------------------
BOUNDARY_CONDITIONS
  CODES, NODES
        2  111  0.0   0.0  0.0  $ input
    1 & 2  111  0.0   0.0  0.0
        3  111  0.0   0.0  0.0  $ output
    1 & 3  111  0.0   0.0  0.0
        1  000  0.0   0.0  0.0  $ contact
  END_CODES
END_BOUNDARY_CONDITIONS
$-------------------------------------------------------------------
