$MeshFormat
2.2 0 8
$EndMeshFormat
$PhysicalNames
7
1 1 "INFLOW"
1 2 "OUTFLOW"
1 3 "LEFT"
1 4 "RIGHT"
1 5 "TOPL"
1 6 "TOPR"
2 7 "Surf"
$EndPhysicalNames
$Nodes
190
1 0 0 0
2 -1 0 0
3 -1 1 0
4 1 1 0
5 1 0 0
6 0 1 0
7 -0.1111111111109082 0 0
8 -0.2222222222217143 0 0
9 -0.333333333332501 0 0
10 -0.4444444444432878 0 0
11 -0.5555555555543833 0 0
12 -0.6666666666657874 0 0
13 -0.7777777777771916 0 0
14 -0.8888888888885959 0 0
15 -1 0.1111111111109082 0
16 -1 0.2222222222217143 0
17 -1 0.333333333332501 0
18 -1 0.4444444444432878 0
19 -1 0.5555555555543833 0
20 -1 0.6666666666657874 0
21 -1 0.7777777777771916 0
22 -1 0.8888888888885959 0
23 -0.8888888888884262 1 0
24 -0.777777777777932 1 0
25 -0.6666666666675918 1 0
26 -0.5555555555572513 1 0
27 -0.4444444444462943 1 0
28 -0.3333333333347207 1 0
29 -0.2222222222231471 1 0
30 -0.1111111111115736 1 0
31 1 0.8888888888884262 0
32 1 0.777777777777932 0
33 1 0.6666666666675918 0
34 1 0.5555555555572513 0
35 1 0.4444444444462943 0
36 1 0.3333333333347207 0
37 1 0.2222222222231471 0
38 1 0.1111111111115736 0
39 0.8888888888884262 0 0
40 0.777777777777932 0 0
41 0.6666666666675918 0 0
42 0.5555555555572513 0 0
43 0.4444444444462943 0 0
44 0.3333333333347207 0 0
45 0.2222222222231471 0 0
46 0.1111111111115736 0 0
47 0.1111111111109082 1 0
48 0.2222222222217143 1 0
49 0.333333333332501 1 0
50 0.4444444444432878 1 0
51 0.5555555555543833 1 0
52 0.6666666666657874 1 0
53 0.7777777777771916 1 0
54 0.8888888888885959 1 0
55 0 0.8888888888884262 0
56 0 0.777777777777932 0
57 0 0.6666666666675918 0
58 0 0.5555555555572513 0
59 0 0.4444444444462943 0
60 0 0.3333333333347207 0
61 0 0.2222222222231471 0
62 0 0.1111111111115736 0
63 -0.888888888888577 0.1111111111109821 0
64 -0.7777777777772739 0.1111111111110561 0
65 -0.666666666665988 0.11111111111113 0
66 -0.5555555555547018 0.1111111111112039 0
67 -0.4444444444436219 0.1111111111112778 0
68 -0.3333333333327476 0.1111111111113518 0
69 -0.2222222222218735 0.1111111111114257 0
70 -0.1111111111109822 0.1111111111114996 0
71 -0.8888888888885581 0.2222222222218735 0
72 -0.777777777777356 0.2222222222220326 0
73 -0.6666666666661885 0.2222222222221919 0
74 -0.5555555555550207 0.2222222222223511 0
75 -0.4444444444439559 0.2222222222225103 0
76 -0.3333333333329943 0.2222222222226695 0
77 -0.2222222222220327 0.2222222222228287 0
78 -0.1111111111110561 0.2222222222229879 0
79 -0.8888888888885391 0.3333333333327477 0
80 -0.7777777777774384 0.3333333333329943 0
81 -0.666666666666389 0.3333333333332409 0
82 -0.5555555555553393 0.3333333333334876 0
83 -0.44444444444429 0.3333333333337342 0
84 -0.333333333333241 0.3333333333339807 0
85 -0.2222222222221919 0.3333333333342274 0
86 -0.11111111111113 0.3333333333344741 0
87 -0.8888888888885205 0.4444444444436219 0
88 -0.7777777777775208 0.444444444443956 0
89 -0.6666666666665895 0.44444444444429 0
90 -0.5555555555556579 0.4444444444446241 0
91 -0.4444444444446241 0.4444444444449582 0
92 -0.3333333333334876 0.4444444444452921 0
93 -0.2222222222223511 0.4444444444456261 0
94 -0.1111111111112039 0.4444444444459603 0
95 -0.8888888888885015 0.5555555555547019 0
96 -0.7777777777776029 0.5555555555550206 0
97 -0.6666666666667898 0.5555555555553392 0
98 -0.5555555555559768 0.5555555555556581 0
99 -0.4444444444449581 0.5555555555559767 0
100 -0.3333333333337342 0.5555555555562953 0
101 -0.2222222222225103 0.555555555556614 0
102 -0.1111111111112779 0.5555555555569326 0
103 -0.8888888888884827 0.666666666665988 0
104 -0.7777777777776851 0.6666666666661885 0
105 -0.6666666666669905 0.666666666666389 0
106 -0.5555555555562952 0.6666666666665892 0
107 -0.4444444444452922 0.6666666666667898 0
108 -0.3333333333339809 0.6666666666669903 0
109 -0.2222222222226695 0.6666666666671908 0
110 -0.1111111111113518 0.6666666666673913 0
111 -0.888888888888464 0.777777777777274 0
112 -0.7777777777777675 0.7777777777773563 0
113 -0.6666666666671908 0.7777777777774384 0
114 -0.5555555555566141 0.7777777777775207 0
115 -0.4444444444456261 0.777777777777603 0
116 -0.3333333333342274 0.7777777777776852 0
117 -0.2222222222228287 0.7777777777777674 0
118 -0.1111111111114257 0.7777777777778497 0
119 -0.8888888888884451 0.8888888888885772 0
120 -0.7777777777778498 0.8888888888885583 0
121 -0.6666666666673913 0.8888888888885393 0
122 -0.5555555555569327 0.8888888888885206 0
123 -0.4444444444459602 0.8888888888885015 0
124 -0.333333333334474 0.8888888888884826 0
125 -0.2222222222229879 0.888888888888464 0
126 -0.1111111111114996 0.8888888888884451 0
127 0.1111111111109822 0.8888888888884262 0
128 0.2222222222218735 0.8888888888884264 0
129 0.3333333333327476 0.8888888888884264 0
130 0.444444444443622 0.8888888888884262 0
131 0.5555555555547018 0.8888888888884262 0
132 0.666666666665988 0.888888888888426 0
133 0.7777777777772739 0.8888888888884262 0
134 0.888888888888577 0.8888888888884262 0
135 0.1111111111110561 0.7777777777779318 0
136 0.2222222222220327 0.7777777777779322 0
137 0.3333333333329943 0.777777777777932 0
138 0.4444444444439559 0.777777777777932 0
139 0.5555555555550207 0.777777777777932 0
140 0.6666666666661885 0.777777777777932 0
141 0.777777777777356 0.777777777777932 0
142 0.8888888888885581 0.777777777777932 0
143 0.11111111111113 0.6666666666675918 0
144 0.2222222222221919 0.6666666666675918 0
145 0.333333333333241 0.6666666666675918 0
146 0.44444444444429 0.6666666666675918 0
147 0.5555555555553393 0.6666666666675918 0
148 0.666666666666389 0.6666666666675918 0
149 0.7777777777774384 0.6666666666675918 0
150 0.8888888888885392 0.6666666666675918 0
151 0.1111111111112039 0.5555555555572513 0
152 0.2222222222223511 0.5555555555572513 0
153 0.3333333333334876 0.5555555555572513 0
154 0.4444444444446241 0.5555555555572513 0
155 0.5555555555556579 0.5555555555572513 0
156 0.6666666666665895 0.5555555555572513 0
157 0.7777777777775208 0.5555555555572513 0
158 0.8888888888885206 0.5555555555572513 0
159 0.1111111111112779 0.4444444444462944 0
160 0.2222222222225103 0.4444444444462942 0
161 0.3333333333337342 0.4444444444462943 0
162 0.4444444444449581 0.4444444444462943 0
163 0.5555555555559768 0.4444444444462943 0
164 0.6666666666667898 0.4444444444462943 0
165 0.7777777777776029 0.4444444444462943 0
166 0.8888888888885015 0.4444444444462943 0
167 0.1111111111113518 0.3333333333347207 0
168 0.2222222222226695 0.3333333333347207 0
169 0.3333333333339809 0.3333333333347207 0
170 0.4444444444452922 0.3333333333347207 0
171 0.5555555555562952 0.3333333333347207 0
172 0.6666666666669905 0.3333333333347207 0
173 0.7777777777776851 0.3333333333347207 0
174 0.8888888888884828 0.3333333333347207 0
175 0.1111111111114257 0.2222222222231472 0
176 0.2222222222228287 0.2222222222231471 0
177 0.3333333333342274 0.2222222222231471 0
178 0.4444444444456261 0.2222222222231471 0
179 0.5555555555566141 0.2222222222231471 0
180 0.6666666666671908 0.2222222222231471 0
181 0.7777777777777675 0.2222222222231471 0
182 0.888888888888464 0.2222222222231471 0
183 0.1111111111114996 0.1111111111115736 0
184 0.2222222222229879 0.1111111111115735 0
185 0.333333333334474 0.1111111111115736 0
186 0.4444444444459603 0.1111111111115736 0
187 0.5555555555569327 0.1111111111115736 0
188 0.6666666666673913 0.1111111111115736 0
189 0.7777777777778498 0.1111111111115736 0
190 0.8888888888884451 0.1111111111115736 0
$EndNodes
$Elements
216
1 1 2 1 1 1 7
2 1 2 1 1 7 8
3 1 2 1 1 8 9
4 1 2 1 1 9 10
5 1 2 1 1 10 11
6 1 2 1 1 11 12
7 1 2 1 1 12 13
8 1 2 1 1 13 14
9 1 2 1 1 14 2
10 1 2 3 2 2 15
11 1 2 3 2 15 16
12 1 2 3 2 16 17
13 1 2 3 2 17 18
14 1 2 3 2 18 19
15 1 2 3 2 19 20
16 1 2 3 2 20 21
17 1 2 3 2 21 22
18 1 2 3 2 22 3
19 1 2 5 3 3 23
20 1 2 5 3 23 24
21 1 2 5 3 24 25
22 1 2 5 3 25 26
23 1 2 5 3 26 27
24 1 2 5 3 27 28
25 1 2 5 3 28 29
26 1 2 5 3 29 30
27 1 2 5 3 30 6
28 1 2 4 4 4 31
29 1 2 4 4 31 32
30 1 2 4 4 32 33
31 1 2 4 4 33 34
32 1 2 4 4 34 35
33 1 2 4 4 35 36
34 1 2 4 4 36 37
35 1 2 4 4 37 38
36 1 2 4 4 38 5
37 1 2 2 5 5 39
38 1 2 2 5 39 40
39 1 2 2 5 40 41
40 1 2 2 5 41 42
41 1 2 2 5 42 43
42 1 2 2 5 43 44
43 1 2 2 5 44 45
44 1 2 2 5 45 46
45 1 2 2 5 46 1
46 1 2 6 6 6 47
47 1 2 6 6 47 48
48 1 2 6 6 48 49
49 1 2 6 6 49 50
50 1 2 6 6 50 51
51 1 2 6 6 51 52
52 1 2 6 6 52 53
53 1 2 6 6 53 54
54 1 2 6 6 54 4
55 3 2 7 9 2 15 63 14
56 3 2 7 9 14 63 64 13
57 3 2 7 9 13 64 65 12
58 3 2 7 9 12 65 66 11
59 3 2 7 9 11 66 67 10
60 3 2 7 9 10 67 68 9
61 3 2 7 9 9 68 69 8
62 3 2 7 9 8 69 70 7
63 3 2 7 9 7 70 62 1
64 3 2 7 9 15 16 71 63
65 3 2 7 9 63 71 72 64
66 3 2 7 9 64 72 73 65
67 3 2 7 9 65 73 74 66
68 3 2 7 9 66 74 75 67
69 3 2 7 9 67 75 76 68
70 3 2 7 9 68 76 77 69
71 3 2 7 9 69 77 78 70
72 3 2 7 9 70 78 61 62
73 3 2 7 9 16 17 79 71
74 3 2 7 9 71 79 80 72
75 3 2 7 9 72 80 81 73
76 3 2 7 9 73 81 82 74
77 3 2 7 9 74 82 83 75
78 3 2 7 9 75 83 84 76
79 3 2 7 9 76 84 85 77
80 3 2 7 9 77 85 86 78
81 3 2 7 9 78 86 60 61
82 3 2 7 9 17 18 87 79
83 3 2 7 9 79 87 88 80
84 3 2 7 9 80 88 89 81
85 3 2 7 9 81 89 90 82
86 3 2 7 9 82 90 91 83
87 3 2 7 9 83 91 92 84
88 3 2 7 9 84 92 93 85
89 3 2 7 9 85 93 94 86
90 3 2 7 9 86 94 59 60
91 3 2 7 9 18 19 95 87
92 3 2 7 9 87 95 96 88
93 3 2 7 9 88 96 97 89
94 3 2 7 9 89 97 98 90
95 3 2 7 9 90 98 99 91
96 3 2 7 9 91 99 100 92
97 3 2 7 9 92 100 101 93
98 3 2 7 9 93 101 102 94
99 3 2 7 9 94 102 58 59
100 3 2 7 9 19 20 103 95
101 3 2 7 9 95 103 104 96
102 3 2 7 9 96 104 105 97
103 3 2 7 9 97 105 106 98
104 3 2 7 9 98 106 107 99
105 3 2 7 9 99 107 108 100
106 3 2 7 9 100 108 109 101
107 3 2 7 9 101 109 110 102
108 3 2 7 9 102 110 57 58
109 3 2 7 9 20 21 111 103
110 3 2 7 9 103 111 112 104
111 3 2 7 9 104 112 113 105
112 3 2 7 9 105 113 114 106
113 3 2 7 9 106 114 115 107
114 3 2 7 9 107 115 116 108
115 3 2 7 9 108 116 117 109
116 3 2 7 9 109 117 118 110
117 3 2 7 9 110 118 56 57
118 3 2 7 9 21 22 119 111
119 3 2 7 9 111 119 120 112
120 3 2 7 9 112 120 121 113
121 3 2 7 9 113 121 122 114
122 3 2 7 9 114 122 123 115
123 3 2 7 9 115 123 124 116
124 3 2 7 9 116 124 125 117
125 3 2 7 9 117 125 126 118
126 3 2 7 9 118 126 55 56
127 3 2 7 9 22 3 23 119
128 3 2 7 9 119 23 24 120
129 3 2 7 9 120 24 25 121
130 3 2 7 9 121 25 26 122
131 3 2 7 9 122 26 27 123
132 3 2 7 9 123 27 28 124
133 3 2 7 9 124 28 29 125
134 3 2 7 9 125 29 30 126
135 3 2 7 9 126 30 6 55
136 3 2 7 11 6 55 127 47
137 3 2 7 11 47 127 128 48
138 3 2 7 11 48 128 129 49
139 3 2 7 11 49 129 130 50
140 3 2 7 11 50 130 131 51
141 3 2 7 11 51 131 132 52
142 3 2 7 11 52 132 133 53
143 3 2 7 11 53 133 134 54
144 3 2 7 11 54 134 31 4
145 3 2 7 11 55 56 135 127
146 3 2 7 11 127 135 136 128
147 3 2 7 11 128 136 137 129
148 3 2 7 11 129 137 138 130
149 3 2 7 11 130 138 139 131
150 3 2 7 11 131 139 140 132
151 3 2 7 11 132 140 141 133
152 3 2 7 11 133 141 142 134
153 3 2 7 11 134 142 32 31
154 3 2 7 11 56 57 143 135
155 3 2 7 11 135 143 144 136
156 3 2 7 11 136 144 145 137
157 3 2 7 11 137 145 146 138
158 3 2 7 11 138 146 147 139
159 3 2 7 11 139 147 148 140
160 3 2 7 11 140 148 149 141
161 3 2 7 11 141 149 150 142
162 3 2 7 11 142 150 33 32
163 3 2 7 11 57 58 151 143
164 3 2 7 11 143 151 152 144
165 3 2 7 11 144 152 153 145
166 3 2 7 11 145 153 154 146
167 3 2 7 11 146 154 155 147
168 3 2 7 11 147 155 156 148
169 3 2 7 11 148 156 157 149
170 3 2 7 11 149 157 158 150
171 3 2 7 11 150 158 34 33
172 3 2 7 11 58 59 159 151
173 3 2 7 11 151 159 160 152
174 3 2 7 11 152 160 161 153
175 3 2 7 11 153 161 162 154
176 3 2 7 11 154 162 163 155
177 3 2 7 11 155 163 164 156
178 3 2 7 11 156 164 165 157
179 3 2 7 11 157 165 166 158
180 3 2 7 11 158 166 35 34
181 3 2 7 11 59 60 167 159
182 3 2 7 11 159 167 168 160
183 3 2 7 11 160 168 169 161
184 3 2 7 11 161 169 170 162
185 3 2 7 11 162 170 171 163
186 3 2 7 11 163 171 172 164
187 3 2 7 11 164 172 173 165
188 3 2 7 11 165 173 174 166
189 3 2 7 11 166 174 36 35
190 3 2 7 11 60 61 175 167
191 3 2 7 11 167 175 176 168
192 3 2 7 11 168 176 177 169
193 3 2 7 11 169 177 178 170
194 3 2 7 11 170 178 179 171
195 3 2 7 11 171 179 180 172
196 3 2 7 11 172 180 181 173
197 3 2 7 11 173 181 182 174
198 3 2 7 11 174 182 37 36
199 3 2 7 11 61 62 183 175
200 3 2 7 11 175 183 184 176
201 3 2 7 11 176 184 185 177
202 3 2 7 11 177 185 186 178
203 3 2 7 11 178 186 187 179
204 3 2 7 11 179 187 188 180
205 3 2 7 11 180 188 189 181
206 3 2 7 11 181 189 190 182
207 3 2 7 11 182 190 38 37
208 3 2 7 11 62 1 46 183
209 3 2 7 11 183 46 45 184
210 3 2 7 11 184 45 44 185
211 3 2 7 11 185 44 43 186
212 3 2 7 11 186 43 42 187
213 3 2 7 11 187 42 41 188
214 3 2 7 11 188 41 40 189
215 3 2 7 11 189 40 39 190
216 3 2 7 11 190 39 5 38
$EndElements
