{
    "authors": [
        "ezequiel.goldberg@bsc.es",
        "fusion@bsc.es"
    ],
    "comparisons": [
        {
            "file": "slab2d_20cm_LiPb_8g.ensi.CURRE-000001",
            "method": "absolute",
            "tolerance": 1.0e-1
        },
        {
            "file": "slab2d_20cm_LiPb_8g.ensi.FLUX-000001",
            "method": "absolute",
            "tolerance": 1.0e-1
        },
        {
            "file": "slab2d_20cm_LiPb_8g.ensi.HEAT-000001",
            "method": "absolute",
            "tolerance": 1.0e-10
        },
        {
            "file": "slab2d_20cm_LiPb_8g.ensi.RA001-000001",
            "method": "absolute",
            "tolerance": 1.0e-5
        },
        {
            "file": "slab2d_20cm_LiPb_8g.ensi.RA002-000001",
            "method": "absolute",
            "tolerance": 1.0e-3
        },
        {
            "file": "slab2d_20cm_LiPb_8g.ensi.RA003-000001",
            "method": "absolute",
            "tolerance": 1.0e-2
        },
        {
            "file": "slab2d_20cm_LiPb_8g.ensi.RA004-000001",
            "method": "absolute",
            "tolerance": 1.0e-2
        },
        {
            "file": "slab2d_20cm_LiPb_8g.ensi.RA005-000001",
            "method": "absolute",
            "tolerance": 1.0e-2
        },
        {
            "file": "slab2d_20cm_LiPb_8g.ensi.RA006-000001",
            "method": "absolute",
            "tolerance": 1.0e-3
        },
        {
            "file": "slab2d_20cm_LiPb_8g.ensi.RA007-000001",
            "method": "absolute",
            "tolerance": 1.0e-2
        },
        {
            "file": "slab2d_20cm_LiPb_8g.ensi.RA008-000001",
            "method": "absolute",
            "tolerance": 1.0e-2
        }
    ],
    "description": "Test of slab2D (20cm thick) of LiPb (Li6+Li7+Pb206+Pb207+Pb208) with 8 energy groups for neutro",
    "enabled": true,
    "exclude": [
        "special"
    ],
    "executions": [
        {
            "mpi": 8,
            "openmp": 0
        }
    ],
    "modules": [
        "neutro"
    ],
    "name": "slab2d_20cm_LiPb_8g",
    "postprocess": "alya2pos",
    "timeout": "00:05:00"
}

