GiD Post Results File 1.0
 
Result MASSM ALYA  0.00000000E+00 Scalar OnNodes
ComponentNames MASSM
Values
          1  0.11111111E-002
          2  0.44444444E-002
          3  0.44444444E-002
          4  0.17777778E-001
          5  0.22222222E-002
          6  0.22222222E-002
          7  0.88888889E-002
          8  0.88888889E-002
          9  0.44444444E-002
         10  0.44444444E-002
         11  0.44444444E-002
         12  0.17777778E-001
         13  0.17777778E-001
         14  0.88888889E-002
         15  0.88888889E-002
         16  0.22222222E-002
         17  0.22222222E-002
         18  0.88888889E-002
         19  0.88888889E-002
         20  0.17777778E-001
         21  0.44444444E-002
         22  0.44444444E-002
         23  0.44444444E-002
         24  0.88888889E-002
         25  0.44444444E-002
         26  0.88888889E-002
         27  0.17777778E-001
         28  0.17777778E-001
         29  0.88888889E-002
         30  0.88888889E-002
         31  0.44444444E-002
         32  0.17777778E-001
         33  0.17777778E-001
         34  0.22222222E-002
         35  0.22222222E-002
         36  0.88888889E-002
         37  0.88888889E-002
         38  0.44444444E-002
         39  0.44444444E-002
         40  0.88888889E-002
         41  0.88888889E-002
         42  0.88888889E-002
         43  0.88888889E-002
         44  0.44444444E-002
         45  0.44444444E-002
         46  0.17777778E-001
         47  0.17777778E-001
         48  0.17777778E-001
         49  0.44444444E-002
         50  0.44444444E-002
         51  0.88888889E-002
         52  0.88888889E-002
         53  0.17777778E-001
         54  0.17777778E-001
         55  0.88888889E-002
         56  0.88888889E-002
         57  0.22222222E-002
         58  0.22222222E-002
         59  0.88888889E-002
         60  0.88888889E-002
         61  0.88888889E-002
         62  0.88888889E-002
         63  0.44444444E-002
         64  0.44444444E-002
         65  0.44444444E-002
         66  0.88888889E-002
         67  0.88888889E-002
         68  0.17777778E-001
         69  0.17777778E-001
         70  0.44444444E-002
         71  0.44444444E-002
         72  0.44444444E-002
         73  0.44444444E-002
         74  0.17777778E-001
         75  0.17777778E-001
         76  0.88888889E-002
         77  0.88888889E-002
         78  0.88888889E-002
         79  0.88888889E-002
         80  0.88888889E-002
         81  0.88888889E-002
         82  0.17777778E-001
         83  0.17777778E-001
         84  0.88888889E-002
         85  0.88888889E-002
         86  0.17777778E-001
         87  0.11111111E-002
         88  0.44444444E-002
         89  0.11111111E-002
         90  0.44444444E-002
         91  0.44444444E-002
         92  0.44444444E-002
         93  0.22222222E-002
         94  0.22222222E-002
         95  0.17777778E-001
         96  0.17777778E-001
         97  0.44444444E-002
         98  0.44444444E-002
         99  0.88888889E-002
        100  0.88888889E-002
        101  0.22222222E-002
        102  0.22222222E-002
        103  0.88888889E-002
        104  0.88888889E-002
        105  0.44444444E-002
        106  0.44444444E-002
        107  0.44444444E-002
        108  0.17777778E-001
        109  0.17777778E-001
        110  0.22222222E-002
        111  0.22222222E-002
        112  0.88888889E-002
        113  0.88888889E-002
        114  0.44444444E-002
        115  0.44444444E-002
        116  0.17777778E-001
        117  0.22222222E-002
        118  0.22222222E-002
        119  0.44444444E-002
        120  0.44444444E-002
        121  0.11111111E-002
End values

Result TEMPE ALYA  0.00000000E+00 Scalar OnNodes
ComponentNames TEMPE
Values
          1  0.30000000E+001
          2  0.24300000E+001
          3  0.35200000E+001
          4  0.00000000E+000
          5  0.40800000E+001
          6  0.19200000E+001
          7  0.00000000E+000
          8  0.00000000E+000
          9  0.00000000E+000
         10  0.14700000E+001
         11  0.46800000E+001
         12  0.00000000E+000
         13  0.00000000E+000
         14  0.00000000E+000
         15  0.00000000E+000
         16  0.53200000E+001
         17  0.10800000E+001
         18  0.00000000E+000
         19  0.00000000E+000
         20  0.00000000E+000
         21  0.00000000E+000
         22  0.00000000E+000
         23  0.60000000E+001
         24  0.00000000E+000
         25  0.75000000E+000
         26  0.00000000E+000
         27  0.00000000E+000
         28  0.00000000E+000
         29  0.00000000E+000
         30  0.00000000E+000
         31  0.00000000E+000
         32  0.00000000E+000
         33  0.00000000E+000
         34  0.67200000E+001
         35  0.48000000E+000
         36  0.00000000E+000
         37  0.00000000E+000
         38  0.00000000E+000
         39  0.00000000E+000
         40  0.00000000E+000
         41  0.00000000E+000
         42  0.00000000E+000
         43  0.00000000E+000
         44  0.74800000E+001
         45  0.27000000E+000
         46  0.00000000E+000
         47  0.00000000E+000
         48  0.00000000E+000
         49  0.00000000E+000
         50  0.00000000E+000
         51  0.00000000E+000
         52  0.00000000E+000
         53  0.00000000E+000
         54  0.00000000E+000
         55  0.00000000E+000
         56  0.00000000E+000
         57  0.82800000E+001
         58  0.12000000E+000
         59  0.00000000E+000
         60  0.00000000E+000
         61  0.00000000E+000
         62  0.00000000E+000
         63  0.00000000E+000
         64  0.00000000E+000
         65  0.00000000E+000
         66  0.00000000E+000
         67  0.00000000E+000
         68  0.00000000E+000
         69  0.00000000E+000
         70  0.00000000E+000
         71  0.00000000E+000
         72  0.30000000E-001
         73  0.91200000E+001
         74  0.00000000E+000
         75  0.00000000E+000
         76  0.00000000E+000
         77  0.00000000E+000
         78  0.00000000E+000
         79  0.00000000E+000
         80  0.00000000E+000
         81  0.00000000E+000
         82  0.00000000E+000
         83  0.00000000E+000
         84  0.00000000E+000
         85  0.00000000E+000
         86  0.00000000E+000
         87  0.00000000E+000
         88  0.00000000E+000
         89  0.10000000E+002
         90  0.00000000E+000
         91  0.89300000E+001
         92  0.20000000E-001
         93  0.79200000E+001
         94  0.80000000E-001
         95  0.00000000E+000
         96  0.00000000E+000
         97  0.69700000E+001
         98  0.18000000E+000
         99  0.00000000E+000
        100  0.00000000E+000
        101  0.60800000E+001
        102  0.32000000E+000
        103  0.00000000E+000
        104  0.00000000E+000
        105  0.52500000E+001
        106  0.50000000E+000
        107  0.00000000E+000
        108  0.00000000E+000
        109  0.00000000E+000
        110  0.72000000E+000
        111  0.44800000E+001
        112  0.00000000E+000
        113  0.00000000E+000
        114  0.98000000E+000
        115  0.37700000E+001
        116  0.00000000E+000
        117  0.31200000E+001
        118  0.12800000E+001
        119  0.16200000E+001
        120  0.25300000E+001
        121  0.20000000E+001
End values

Result ERROR ALYA  0.00000000E+00 Scalar OnNodes
ComponentNames ERROR
Values
          1  0.00000000E+000
          2  0.00000000E+000
          3  0.00000000E+000
          4 -0.29000000E+001
          5  0.00000000E+000
          6  0.00000000E+000
          7 -0.34100000E+001
          8 -0.23400000E+001
          9 -0.28000000E+001
         10  0.00000000E+000
         11  0.00000000E+000
         12 -0.39600000E+001
         13 -0.18400000E+001
         14 -0.33000000E+001
         15 -0.22500000E+001
         16  0.00000000E+000
         17  0.00000000E+000
         18 -0.45500000E+001
         19 -0.14000000E+001
         20 -0.27000000E+001
         21 -0.38400000E+001
         22 -0.17600000E+001
         23  0.00000000E+000
         24 -0.31900000E+001
         25  0.00000000E+000
         26 -0.21600000E+001
         27 -0.51800000E+001
         28 -0.10200000E+001
         29 -0.44200000E+001
         30 -0.13300000E+001
         31 -0.26000000E+001
         32 -0.16800000E+001
         33 -0.37200000E+001
         34  0.00000000E+000
         35  0.00000000E+000
         36 -0.58500000E+001
         37 -0.70000000E+000
         38 -0.50400000E+001
         39 -0.96000000E+000
         40 -0.30800000E+001
         41 -0.20700000E+001
         42 -0.42900000E+001
         43 -0.12600000E+001
         44  0.00000000E+000
         45  0.00000000E+000
         46 -0.65600000E+001
         47 -0.44000000E+000
         48 -0.25000000E+001
         49 -0.36000000E+001
         50 -0.16000000E+001
         51 -0.57000000E+001
         52 -0.65000000E+000
         53 -0.49000000E+001
         54 -0.90000000E+000
         55 -0.19800000E+001
         56 -0.29700000E+001
         57  0.00000000E+000
         58  0.00000000E+000
         59 -0.73100000E+001
         60 -0.24000000E+000
         61 -0.11900000E+001
         62 -0.41600000E+001
         63 -0.64000000E+001
         64 -0.40000000E+000
         65 -0.24000000E+001
         66 -0.55500000E+001
         67 -0.60000000E+000
         68 -0.15200000E+001
         69 -0.34800000E+001
         70 -0.47600000E+001
         71 -0.84000000E+000
         72  0.00000000E+000
         73  0.00000000E+000
         74 -0.81000000E+001
         75 -0.10000000E+000
         76 -0.71400000E+001
         77 -0.21000000E+000
         78 -0.18900000E+001
         79 -0.28600000E+001
         80 -0.11200000E+001
         81 -0.40300000E+001
         82 -0.62400000E+001
         83 -0.36000000E+000
         84 -0.54000000E+001
         85 -0.55000000E+000
         86 -0.23000000E+001
         87  0.00000000E+000
         88 -0.14400000E+001
         89  0.00000000E+000
         90 -0.33600000E+001
         91  0.00000000E+000
         92  0.00000000E+000
         93  0.00000000E+000
         94  0.00000000E+000
         95 -0.78000000E+000
         96 -0.46200000E+001
         97  0.00000000E+000
         98  0.00000000E+000
         99 -0.27500000E+001
        100 -0.18000000E+001
        101  0.00000000E+000
        102  0.00000000E+000
        103 -0.10500000E+001
        104 -0.39000000E+001
        105  0.00000000E+000
        106  0.00000000E+000
        107 -0.22000000E+001
        108 -0.32400000E+001
        109 -0.13600000E+001
        110  0.00000000E+000
        111  0.00000000E+000
        112 -0.17100000E+001
        113 -0.26400000E+001
        114  0.00000000E+000
        115  0.00000000E+000
        116 -0.21000000E+001
        117  0.00000000E+000
        118  0.00000000E+000
        119  0.00000000E+000
        120  0.00000000E+000
        121  0.00000000E+000
End values

Result TEMPE ALYA  0.10000000E+00 Scalar OnNodes
ComponentNames TEMPE
Values
          1  0.30000000E+001
          2  0.24300000E+001
          3  0.35200000E+001
          4  0.29000000E+001
          5  0.40800000E+001
          6  0.19200000E+001
          7  0.34100000E+001
          8  0.23400000E+001
          9  0.28000000E+001
         10  0.14700000E+001
         11  0.46800000E+001
         12  0.39600000E+001
         13  0.18400000E+001
         14  0.33000000E+001
         15  0.22500000E+001
         16  0.53200000E+001
         17  0.10800000E+001
         18  0.45500000E+001
         19  0.14000000E+001
         20  0.27000000E+001
         21  0.38400000E+001
         22  0.17600000E+001
         23  0.60000000E+001
         24  0.31900000E+001
         25  0.75000000E+000
         26  0.21600000E+001
         27  0.51800000E+001
         28  0.10200000E+001
         29  0.44200000E+001
         30  0.13300000E+001
         31  0.26000000E+001
         32  0.16800000E+001
         33  0.37200000E+001
         34  0.67200000E+001
         35  0.48000000E+000
         36  0.58500000E+001
         37  0.70000000E+000
         38  0.50400000E+001
         39  0.96000000E+000
         40  0.30800000E+001
         41  0.20700000E+001
         42  0.42900000E+001
         43  0.12600000E+001
         44  0.74800000E+001
         45  0.27000000E+000
         46  0.65600000E+001
         47  0.44000000E+000
         48  0.25000000E+001
         49  0.36000000E+001
         50  0.16000000E+001
         51  0.57000000E+001
         52  0.65000000E+000
         53  0.49000000E+001
         54  0.90000000E+000
         55  0.19800000E+001
         56  0.29700000E+001
         57  0.82800000E+001
         58  0.12000000E+000
         59  0.73100000E+001
         60  0.24000000E+000
         61  0.11900000E+001
         62  0.41600000E+001
         63  0.64000000E+001
         64  0.40000000E+000
         65  0.24000000E+001
         66  0.55500000E+001
         67  0.60000000E+000
         68  0.15200000E+001
         69  0.34800000E+001
         70  0.47600000E+001
         71  0.84000000E+000
         72  0.30000000E-001
         73  0.91200000E+001
         74  0.81000000E+001
         75  0.10000000E+000
         76  0.71400000E+001
         77  0.21000000E+000
         78  0.18900000E+001
         79  0.28600000E+001
         80  0.11200000E+001
         81  0.40300000E+001
         82  0.62400000E+001
         83  0.36000000E+000
         84  0.54000000E+001
         85  0.55000000E+000
         86  0.23000000E+001
         87  0.00000000E+000
         88  0.14400000E+001
         89  0.10000000E+002
         90  0.33600000E+001
         91  0.89300000E+001
         92  0.20000000E-001
         93  0.79200000E+001
         94  0.80000000E-001
         95  0.78000000E+000
         96  0.46200000E+001
         97  0.69700000E+001
         98  0.18000000E+000
         99  0.27500000E+001
        100  0.18000000E+001
        101  0.60800000E+001
        102  0.32000000E+000
        103  0.10500000E+001
        104  0.39000000E+001
        105  0.52500000E+001
        106  0.50000000E+000
        107  0.22000000E+001
        108  0.32400000E+001
        109  0.13600000E+001
        110  0.72000000E+000
        111  0.44800000E+001
        112  0.17100000E+001
        113  0.26400000E+001
        114  0.98000000E+000
        115  0.37700000E+001
        116  0.21000000E+001
        117  0.31200000E+001
        118  0.12800000E+001
        119  0.16200000E+001
        120  0.25300000E+001
        121  0.20000000E+001
End values

Result ERROR ALYA  0.10000000E+00 Scalar OnNodes
ComponentNames ERROR
Values
          1  0.00000000E+000
          2  0.00000000E+000
          3  0.00000000E+000
          4 -0.79491969E-013
          5  0.00000000E+000
          6  0.00000000E+000
          7 -0.16253665E-012
          8 -0.13455903E-012
          9 -0.27844393E-012
         10  0.00000000E+000
         11  0.00000000E+000
         12 -0.22826185E-012
         13 -0.17719159E-012
         14 -0.42632564E-012
         15 -0.37037040E-012
         16  0.00000000E+000
         17  0.00000000E+000
         18 -0.27622349E-012
         19 -0.19961810E-012
         20 -0.55422333E-012
         21 -0.49649174E-012
         22 -0.41122661E-012
         23  0.00000000E+000
         24 -0.65414341E-012
         25  0.00000000E+000
         26 -0.64082073E-012
         27 -0.29309888E-012
         28 -0.19206858E-012
         29 -0.50803806E-012
         30 -0.42299497E-012
         31 -0.76694207E-012
         32 -0.65236705E-012
         33 -0.65947248E-012
         34  0.00000000E+000
         35  0.00000000E+000
         36 -0.28688163E-012
         37 -0.18274271E-012
         38 -0.48405724E-012
         39 -0.41755488E-012
         40 -0.76738615E-012
         41 -0.80335738E-012
         42 -0.64481753E-012
         43 -0.65680794E-012
         44  0.00000000E+000
         45  0.00000000E+000
         46 -0.24247271E-012
         47 -0.14971357E-012
         48 -0.82556184E-012
         49 -0.76738615E-012
         50 -0.80691009E-012
         51 -0.42632564E-012
         52 -0.35516035E-012
         53 -0.58086869E-012
         54 -0.53079763E-012
         55 -0.84510177E-012
         56 -0.81712415E-012
         57  0.00000000E+000
         58  0.00000000E+000
         59 -0.17763568E-012
         60 -0.10214052E-012
         61 -0.67790218E-012
         62 -0.68745010E-012
         63 -0.31707970E-012
         64 -0.21194158E-012
         65 -0.86153307E-012
         66 -0.44231285E-012
         67 -0.35593750E-012
         68 -0.70943251E-012
         69 -0.74296125E-012
         70 -0.53557159E-012
         71 -0.43798298E-012
         72  0.00000000E+000
         73  0.00000000E+000
         74 -0.92370556E-013
         75 -0.51375570E-013
         76 -0.17497115E-012
         77 -0.10563772E-012
         78 -0.74962259E-012
         79 -0.77893247E-012
         80 -0.47561954E-012
         81 -0.59863225E-012
         82 -0.24780178E-012
         83 -0.15509816E-012
         84 -0.31086245E-012
         85 -0.20028423E-012
         86 -0.68078876E-012
         87  0.00000000E+000
         88 -0.50470739E-012
         89  0.00000000E+000
         90 -0.62083672E-012
         91  0.00000000E+000
         92  0.00000000E+000
         93  0.00000000E+000
         94  0.00000000E+000
         95 -0.21960211E-012
         96 -0.34905412E-012
         97  0.00000000E+000
         98  0.00000000E+000
         99 -0.55333516E-012
        100 -0.48561155E-012
        101  0.00000000E+000
        102  0.00000000E+000
        103 -0.24469315E-012
        104 -0.36148862E-012
        105  0.00000000E+000
        106  0.00000000E+000
        107 -0.38280490E-012
        108 -0.30819791E-012
        109 -0.22826185E-012
        110  0.00000000E+000
        111  0.00000000E+000
        112 -0.18562929E-012
        113 -0.23048230E-012
        114  0.00000000E+000
        115  0.00000000E+000
        116 -0.11235457E-012
        117  0.00000000E+000
        118  0.00000000E+000
        119  0.00000000E+000
        120  0.00000000E+000
        121  0.00000000E+000
End values

