0.00000000E+000
1.35704190E-008
3.45277350E-008
6.89638720E-008
1.21210540E-007
1.94206210E-007
2.87418950E-007
3.96872010E-007
5.18622610E-007
6.53085940E-007
8.07016640E-007
9.93780190E-007
1.23493700E-006
1.56640370E-006
2.05508140E-006
2.84514200E-006
4.31474330E-006
7.82675470E-006
2.31353570E-005
1.09829030E-002
8.79112600E-003
