1.50001000E+003
1.49998000E+003
1.49996000E+003
1.49996000E+003
1.50001000E+003
1.50017000E+003
1.50052000E+003
1.50114000E+003
1.50214000E+003
1.50358000E+003
1.50558000E+003
1.50824000E+003
1.51179000E+003
1.51656000E+003
1.52314000E+003
1.53266000E+003
1.54755000E+003
1.57462000E+003
1.64529000E+003
2.27613000E+003
