$MeshFormat
2.2 0 8
$EndMeshFormat
$PhysicalNames
4
2 1 "Left"
2 2 "Right"
2 3 "Wall"
3 4 "Fluid"
$EndPhysicalNames
$Nodes
27
1 -0.5 -0.5 -0.5
2 0.5 -0.5 -0.5
3 0.5 0.5 -0.5
4 -0.5 0.5 -0.5
5 -0.5 -0.5 0.5
6 0.5 -0.5 0.5
7 0.5 0.5 0.5
8 -0.5 0.5 0.5
9 -1.375122238300719e-12 -0.5 -0.5
10 0.5 -1.375122238300719e-12 -0.5
11 1.375122238300719e-12 0.5 -0.5
12 -0.5 1.375122238300719e-12 -0.5
13 -1.375122238300719e-12 -0.5 0.5
14 0.5 -1.375122238300719e-12 0.5
15 1.375122238300719e-12 0.5 0.5
16 -0.5 1.375122238300719e-12 0.5
17 -0.5 -0.5 -1.375122238300719e-12
18 0.5 -0.5 -1.375122238300719e-12
19 0.5 0.5 -1.375122238300719e-12
20 -0.5 0.5 -1.375122238300719e-12
21 -3.782089480442652e-24 0 -0.5
22 -3.782089480442652e-24 0 0.5
23 -1.375122238300719e-12 -0.5 -1.375122238300719e-12
24 0.5 -1.375122238300719e-12 -1.375122238300719e-12
25 1.375122238300719e-12 0.5 -1.375122238300719e-12
26 -0.5 1.375122238300719e-12 -1.375122238300719e-12
27 0 0 -1.375122238300719e-12
$EndNodes
$Elements
32
1 3 2 3 1 1 9 21 12
2 3 2 3 1 12 21 11 4
3 3 2 3 1 9 2 10 21
4 3 2 3 1 21 10 3 11
5 3 2 3 2 5 16 22 13
6 3 2 3 2 16 8 15 22
7 3 2 3 2 13 22 14 6
8 3 2 3 2 22 15 7 14
9 3 2 3 3 1 17 23 9
10 3 2 3 3 17 5 13 23
11 3 2 3 3 9 23 18 2
12 3 2 3 3 23 13 6 18
13 3 2 2 4 2 18 24 10
14 3 2 2 4 18 6 14 24
15 3 2 2 4 10 24 19 3
16 3 2 2 4 24 14 7 19
17 3 2 3 5 3 19 25 11
18 3 2 3 5 19 7 15 25
19 3 2 3 5 11 25 20 4
20 3 2 3 5 25 15 8 20
21 3 2 1 6 4 20 26 12
22 3 2 1 6 20 8 16 26
23 3 2 1 6 12 26 17 1
24 3 2 1 6 26 16 5 17
25 5 2 4 1 1 9 21 12 17 23 27 26
26 5 2 4 1 17 23 27 26 5 13 22 16
27 5 2 4 1 12 21 11 4 26 27 25 20
28 5 2 4 1 26 27 25 20 16 22 15 8
29 5 2 4 1 9 2 10 21 23 18 24 27
30 5 2 4 1 23 18 24 27 13 6 14 22
31 5 2 4 1 21 10 3 11 27 24 19 25
32 5 2 4 1 27 24 19 25 22 14 7 15
$EndElements
