{
    "authors": [
        "guillaume.houzeaux@bsc.es"
    ],
    "comparisons": [
        {
            "file": "neumann_press_lev.post.res",
            "method": "absolute",
            "tolerance": "1e-12"
        }
    ],
    "description": "Impose the traction on a uniform flow so that pressure is 2 everywhere and level pressure",
    "exclude": [
        "special"
    ],
    "executions": [
        {
            "mpi": 3,
            "openmp": 0
        }
    ],
    "modules": [
        "nastin"
    ],
    "name": "neumann_press_lev",
    "postprocess": "alya2pos"
}
