GiD Post Results File 1.0
 
Result VELOC ALYA  0.00000000E+00 Vector OnNodes
ComponentNames VELOC_X,VELOC_Y,VELOC_Z
Values
          1  0.30000000E+000  0.00000000E+000
          2  0.30000000E+000  0.00000000E+000
          3  0.00000000E+000  0.00000000E+000
          4  0.00000000E+000  0.00000000E+000
          5  0.30000000E+000  0.00000000E+000
          6  0.00000000E+000  0.00000000E+000
          7  0.00000000E+000  0.00000000E+000
          8  0.00000000E+000  0.00000000E+000
          9  0.00000000E+000  0.00000000E+000
         10  0.30000000E+000  0.00000000E+000
         11  0.00000000E+000  0.00000000E+000
         12  0.00000000E+000  0.00000000E+000
         13  0.00000000E+000  0.00000000E+000
         14  0.00000000E+000  0.00000000E+000
         15  0.00000000E+000  0.00000000E+000
         16  0.00000000E+000  0.00000000E+000
         17  0.30000000E+000  0.00000000E+000
         18  0.00000000E+000  0.00000000E+000
         19  0.00000000E+000  0.00000000E+000
         20  0.00000000E+000  0.00000000E+000
         21  0.00000000E+000  0.00000000E+000
         22  0.00000000E+000  0.00000000E+000
         23  0.30000000E+000  0.00000000E+000
         24  0.00000000E+000  0.00000000E+000
         25  0.00000000E+000  0.00000000E+000
         26  0.00000000E+000  0.00000000E+000
         27  0.00000000E+000  0.00000000E+000
         28  0.00000000E+000  0.00000000E+000
         29  0.00000000E+000  0.00000000E+000
         30  0.00000000E+000  0.00000000E+000
         31  0.00000000E+000  0.00000000E+000
         32  0.00000000E+000  0.00000000E+000
         33  0.00000000E+000  0.00000000E+000
         34  0.00000000E+000  0.00000000E+000
         35  0.00000000E+000  0.00000000E+000
         36  0.00000000E+000  0.00000000E+000
End values

Result PRESS ALYA  0.00000000E+00 Scalar OnNodes
ComponentNames PRESS
Values
          1  0.00000000E+000
          2  0.00000000E+000
          3  0.00000000E+000
          4  0.00000000E+000
          5  0.00000000E+000
          6  0.00000000E+000
          7  0.00000000E+000
          8  0.00000000E+000
          9  0.00000000E+000
         10  0.00000000E+000
         11  0.00000000E+000
         12  0.00000000E+000
         13  0.00000000E+000
         14  0.00000000E+000
         15  0.00000000E+000
         16  0.00000000E+000
         17  0.00000000E+000
         18  0.00000000E+000
         19  0.00000000E+000
         20  0.00000000E+000
         21  0.00000000E+000
         22  0.00000000E+000
         23  0.00000000E+000
         24  0.00000000E+000
         25  0.00000000E+000
         26  0.00000000E+000
         27  0.00000000E+000
         28  0.00000000E+000
         29  0.00000000E+000
         30  0.00000000E+000
         31  0.00000000E+000
         32  0.00000000E+000
         33  0.00000000E+000
         34  0.00000000E+000
         35  0.00000000E+000
         36  0.00000000E+000
End values

Result VELOC ALYA  0.23176850E+03 Vector OnNodes
ComponentNames VELOC_X,VELOC_Y,VELOC_Z
Values
          1  0.30000000E+000  0.00000000E+000
          2  0.30000000E+000  0.00000000E+000
          3  0.29999999E+000  0.00000000E+000
          4  0.29999999E+000 -0.51564260E-010
          5  0.30000000E+000  0.00000000E+000
          6  0.29999998E+000  0.00000000E+000
          7  0.29999998E+000 -0.14524233E-009
          8  0.29999999E+000 -0.18529979E-010
          9  0.29999998E+000 -0.10822992E-009
         10  0.30000000E+000  0.00000000E+000
         11  0.29999997E+000  0.00000000E+000
         12  0.29999997E+000 -0.28361624E-009
         13  0.29999999E+000  0.18529845E-010
         14  0.29999997E+000 -0.12986261E-009
         15  0.29999998E+000  0.10822962E-009
         16  0.29999996E+000  0.00000000E+000
         17  0.30000000E+000  0.00000000E+000
         18  0.29999996E+000 -0.50819416E-009
         19  0.29999999E+000  0.51564217E-010
         20  0.29999997E+000  0.12986220E-009
         21  0.29999996E+000 -0.45660894E-009
         22  0.29999998E+000  0.14524214E-009
         23  0.30000000E+000  0.00000000E+000
         24  0.29999997E+000  0.28361596E-009
         25  0.29999995E+000  0.00000000E+000
         26  0.29999996E+000  0.45660843E-009
         27  0.29999999E+000  0.00000000E+000
         28  0.29999994E+000 -0.14800264E-008
         29  0.29999994E+000 -0.68802073E-009
         30  0.29999998E+000  0.00000000E+000
         31  0.29999996E+000  0.50819385E-009
         32  0.29999994E+000  0.68802026E-009
         33  0.29999997E+000  0.00000000E+000
         34  0.29999994E+000  0.14800261E-008
         35  0.29999996E+000  0.00000000E+000
         36  0.29999995E+000  0.00000000E+000
End values

Result PRESS ALYA  0.23176850E+03 Scalar OnNodes
ComponentNames PRESS
Values
          1 -0.48033847E-007
          2 -0.48077057E-007
          3 -0.47096407E-007
          4 -0.47130072E-007
          5 -0.48146193E-007
          6 -0.43770441E-007
          7 -0.43807919E-007
          8 -0.47186788E-007
          9 -0.43922243E-007
         10 -0.48146193E-007
         11 -0.40223867E-007
         12 -0.40803550E-007
         13 -0.47186788E-007
         14 -0.41193986E-007
         15 -0.43922243E-007
         16 -0.45722555E-007
         17 -0.48077057E-007
         18 -0.46048896E-007
         19 -0.47130072E-007
         20 -0.41193986E-007
         21 -0.53623728E-007
         22 -0.43807919E-007
         23 -0.48033847E-007
         24 -0.40803551E-007
         25 -0.36556288E-007
         26 -0.53623728E-007
         27 -0.47096407E-007
         28 -0.47866372E-007
         29 -0.53902015E-007
         30 -0.43770441E-007
         31 -0.46048897E-007
         32 -0.53902015E-007
         33 -0.40223868E-007
         34 -0.47866371E-007
         35 -0.45722556E-007
         36 -0.36556288E-007
End values

