$-------------------------------------------------------------------
DIMENSIONS
  NODAL_POINTS      = 2411
  ELEMENTS          = 8793
  SPACE_DIMENSIONS  = 3
  TYPES_OF_ELEMENTS = TET04
  BOUNDARIES        = 3352
  MATERIALS         = 1
END_DIMENSIONS
$-------------------------------------------------------------------
STRATEGY
  INTEGRATION_RULE:                OPEN
  DOMAIN_INTEGRATION_POINTS:       0
  SCALE:                           XSCAL=1.0 YSCAL=1.0 ZSCAL=1.0
  TRANSLATION:                     XTRAN=0.0 YTRAN=0.0 ZTRAN=0.1
  EXTRAPOLATE_BOUNDARY_CONDITIONS: ON
  BOUNDARY_ELEMENT:                OFF
  GROUPS=                          1000, SEQUENTIAL_FRONTAL
END_STRATEGY
$-------------------------------------------------------------------
GEOMETRY
  INCLUDE ./block.geo.dat
END_GEOMETRY
$-------------------------------------------------------------------
SETS
END_SETS
$-------------------------------------------------------------------
BOUNDARY_CONDITIONS
  INCLUDE ./block.fix.dat
END_BOUNDARY_CONDITIONS
$-------------------------------------------------------------------
