GiD Post Results File 1.0
 
Result TEMPE ALYA  0.00000000E+00 Scalar OnNodes
ComponentNames TEMPE
Values
          1  0.27000000E+002
          2  0.50000000E+001
          3  0.10000000E+001
          4  0.30000000E+001
          5  0.10000000E+001
          6  0.30000000E+001
          7  0.27000000E+002
          8  0.50000000E+001
          9  0.17888889E+002
         10  0.10555556E+002
         11  0.10000000E+001
         12 -0.33333333E+000
         13 -0.11111111E+000
         14  0.55555556E+000
         15  0.83333333E+001
         16  0.16333333E+002
         17  0.14777778E+002
         18  0.77777778E+000
         19  0.61111111E+001
         20  0.11111111E+000
         21  0.61111111E+001
         22  0.11111111E+000
         23  0.14777778E+002
         24  0.77777778E+000
         25 -0.11111111E+000
         26  0.55555556E+000
         27  0.83333333E+001
         28  0.16333333E+002
         29  0.17888889E+002
         30  0.10555556E+002
         31  0.10000000E+001
         32 -0.33333333E+000
         33  0.94444444E+001
         34  0.43333333E+001
         35  0.77777778E+000
         36  0.36666667E+001
         37  0.83333333E+001
         38  0.36666667E+001
         39 -0.11111111E+000
         40  0.16666667E+001
         41  0.23333333E+001
         42  0.33333333E+000
         43  0.23333333E+001
         44  0.72222222E+001
         45  0.23333333E+001
         46  0.33333333E+000
         47  0.23333333E+001
         48  0.72222222E+001
         49  0.83333333E+001
         50  0.36666667E+001
         51 -0.11111111E+000
         52  0.16666667E+001
         53  0.77777778E+000
         54  0.36666667E+001
         55  0.94444444E+001
         56  0.43333333E+001
         57  0.00000000E+000
         58  0.00000000E+000
         59  0.00000000E+000
         60  0.00000000E+000
         61  0.00000000E+000
         62  0.00000000E+000
         63  0.00000000E+000
         64  0.00000000E+000
End values

Result ERROR ALYA  0.00000000E+00 Scalar OnNodes
ComponentNames ERROR
Values
          1  0.00000000E+000
          2  0.00000000E+000
          3  0.00000000E+000
          4  0.00000000E+000
          5  0.00000000E+000
          6  0.00000000E+000
          7  0.00000000E+000
          8  0.00000000E+000
          9  0.00000000E+000
         10  0.00000000E+000
         11  0.00000000E+000
         12  0.00000000E+000
         13  0.00000000E+000
         14  0.00000000E+000
         15  0.00000000E+000
         16  0.00000000E+000
         17  0.00000000E+000
         18  0.00000000E+000
         19  0.00000000E+000
         20  0.00000000E+000
         21  0.00000000E+000
         22  0.00000000E+000
         23  0.00000000E+000
         24  0.00000000E+000
         25  0.00000000E+000
         26  0.00000000E+000
         27  0.00000000E+000
         28  0.00000000E+000
         29  0.00000000E+000
         30  0.00000000E+000
         31  0.00000000E+000
         32  0.00000000E+000
         33  0.00000000E+000
         34  0.00000000E+000
         35  0.00000000E+000
         36  0.00000000E+000
         37  0.00000000E+000
         38  0.00000000E+000
         39  0.00000000E+000
         40  0.00000000E+000
         41  0.00000000E+000
         42  0.00000000E+000
         43  0.00000000E+000
         44  0.00000000E+000
         45  0.00000000E+000
         46  0.00000000E+000
         47  0.00000000E+000
         48  0.00000000E+000
         49  0.00000000E+000
         50  0.00000000E+000
         51  0.00000000E+000
         52  0.00000000E+000
         53  0.00000000E+000
         54  0.00000000E+000
         55  0.00000000E+000
         56  0.00000000E+000
         57 -0.30000000E+001
         58 -0.55555556E+000
         59 -0.11111111E+000
         60 -0.33333333E+000
         61 -0.11111111E+000
         62 -0.33333333E+000
         63 -0.30000000E+001
         64 -0.55555556E+000
End values

Result TEMPE ALYA  0.10000000E+00 Scalar OnNodes
ComponentNames TEMPE
Values
          1  0.27000000E+002
          2  0.50000000E+001
          3  0.10000000E+001
          4  0.30000000E+001
          5  0.10000000E+001
          6  0.30000000E+001
          7  0.27000000E+002
          8  0.50000000E+001
          9  0.17888889E+002
         10  0.10555556E+002
         11  0.10000000E+001
         12 -0.33333333E+000
         13 -0.11111111E+000
         14  0.55555556E+000
         15  0.83333333E+001
         16  0.16333333E+002
         17  0.14777778E+002
         18  0.77777778E+000
         19  0.61111111E+001
         20  0.11111111E+000
         21  0.61111111E+001
         22  0.11111111E+000
         23  0.14777778E+002
         24  0.77777778E+000
         25 -0.11111111E+000
         26  0.55555556E+000
         27  0.83333333E+001
         28  0.16333333E+002
         29  0.17888889E+002
         30  0.10555556E+002
         31  0.10000000E+001
         32 -0.33333333E+000
         33  0.94444444E+001
         34  0.43333333E+001
         35  0.77777778E+000
         36  0.36666667E+001
         37  0.83333333E+001
         38  0.36666667E+001
         39 -0.11111111E+000
         40  0.16666667E+001
         41  0.23333333E+001
         42  0.33333333E+000
         43  0.23333333E+001
         44  0.72222222E+001
         45  0.23333333E+001
         46  0.33333333E+000
         47  0.23333333E+001
         48  0.72222222E+001
         49  0.83333333E+001
         50  0.36666667E+001
         51 -0.11111111E+000
         52  0.16666667E+001
         53  0.77777778E+000
         54  0.36666667E+001
         55  0.94444444E+001
         56  0.43333333E+001
         57  0.30000000E+001
         58  0.55555556E+000
         59  0.11111111E+000
         60  0.33333333E+000
         61  0.11111111E+000
         62  0.33333333E+000
         63  0.30000000E+001
         64  0.55555556E+000
End values

Result ERROR ALYA  0.10000000E+00 Scalar OnNodes
ComponentNames ERROR
Values
          1  0.00000000E+000
          2  0.00000000E+000
          3  0.00000000E+000
          4  0.00000000E+000
          5  0.00000000E+000
          6  0.00000000E+000
          7  0.00000000E+000
          8  0.00000000E+000
          9  0.00000000E+000
         10  0.00000000E+000
         11  0.00000000E+000
         12  0.00000000E+000
         13  0.00000000E+000
         14  0.00000000E+000
         15  0.00000000E+000
         16  0.00000000E+000
         17  0.00000000E+000
         18  0.00000000E+000
         19  0.00000000E+000
         20  0.00000000E+000
         21  0.00000000E+000
         22  0.00000000E+000
         23  0.00000000E+000
         24  0.00000000E+000
         25  0.00000000E+000
         26  0.00000000E+000
         27  0.00000000E+000
         28  0.00000000E+000
         29  0.00000000E+000
         30  0.00000000E+000
         31  0.00000000E+000
         32  0.00000000E+000
         33  0.00000000E+000
         34  0.00000000E+000
         35  0.00000000E+000
         36  0.00000000E+000
         37  0.00000000E+000
         38  0.00000000E+000
         39  0.00000000E+000
         40  0.00000000E+000
         41  0.00000000E+000
         42  0.00000000E+000
         43  0.00000000E+000
         44  0.00000000E+000
         45  0.00000000E+000
         46  0.00000000E+000
         47  0.00000000E+000
         48  0.00000000E+000
         49  0.00000000E+000
         50  0.00000000E+000
         51  0.00000000E+000
         52  0.00000000E+000
         53  0.00000000E+000
         54  0.00000000E+000
         55  0.00000000E+000
         56  0.00000000E+000
         57  0.84376950E-014
         58  0.41078252E-014
         59  0.37053693E-014
         60  0.37192471E-014
         61  0.24702462E-014
         62  0.24980018E-014
         63  0.57731597E-014
         64  0.31086245E-014
End values

