  CODES, NODES, CLASS = 3
         1  1  0.0
       1&3  1  0.0
         2  1  0.0
       2&3  1  0.0
  END_CODES

  CODES, NODES, CLASS = 4
         1  1  0.0
       1&3  1  0.0
         2  1  0.0
       2&3  1  0.0
  END_CODES

  CODES, NODES, CLASS = 5
         1  1  0.0
       1&3  1  0.0
         2  1  0.0
       2&3  1  0.0
  END_CODES

  CODES, NODES, CLASS = 6
         1  1  0.0
       1&3  1  0.0
         2  1  0.0
       2&3  1  0.0
  END_CODES

  CODES, NODES, CLASS = 7
         1  1  0.0
       1&3  1  0.0
         2  1  0.0
       2&3  1  0.0
  END_CODES

  CODES, NODES, CLASS = 8
         1  1  0.0
       1&3  1  0.0
         2  1  0.0
       2&3  1  0.0
  END_CODES

  CODES, NODES, CLASS = 9
         1  1  0.0
       1&3  1  0.0
         2  1  0.0
       2&3  1  0.0
  END_CODES

  CODES, NODES, CLASS = 10
         1  1  0.0
       1&3  1  0.0
         2  1  0.0
       2&3  1  0.0
  END_CODES

  CODES, NODES, CLASS = 11
         1  1  0.0
       1&3  1  0.0
         2  1  0.0
       2&3  1  0.0
  END_CODES

  CODES, NODES, CLASS = 12
         1  1  0.0
       1&3  1  0.0
         2  1  0.0
       2&3  1  0.0
  END_CODES

  CODES, NODES, CLASS = 13
         1  1  0.0
       1&3  1  0.0
         2  1  0.0
       2&3  1  0.0
  END_CODES

  CODES, NODES, CLASS = 14
         1  1  0.0
       1&3  1  0.0
         2  1  0.0
       2&3  1  0.0
  END_CODES

  CODES, NODES, CLASS = 15
         1  1  0.0
       1&3  1  0.0
         2  1  0.0
       2&3  1  0.0
  END_CODES

  CODES, NODES, CLASS = 16
         1  1  0.0
       1&3  1  0.0
         2  1  0.0
       2&3  1  0.0
  END_CODES

  CODES, NODES, CLASS = 17
         1  1  0.0
       1&3  1  0.0
         2  1  0.0
       2&3  1  0.0
  END_CODES

  CODES, NODES, CLASS = 18
         1  1  0.0
       1&3  1  0.0
         2  1  0.0
       2&3  1  0.0
  END_CODES

  CODES, NODES, CLASS = 19
         1  1  0.0
       1&3  1  0.0
         2  1  0.0
       2&3  1  0.0
  END_CODES

  CODES, NODES, CLASS = 20
         1  1  0.0
       1&3  1  0.0
         2  1  0.0
       2&3  1  0.0
  END_CODES

  CODES, NODES, CLASS = 21
         1  1  0.0
       1&3  1  0.0
         2  1  0.0
       2&3  1  0.0
  END_CODES

  CODES, NODES, CLASS = 22
         1  1  0.0
       1&3  1  0.0
         2  1  0.0
       2&3  1  0.0
  END_CODES

  CODES, NODES, CLASS = 23
         1  1  0.0
       1&3  1  0.0
         2  1  0.0
       2&3  1  0.0
  END_CODES

  CODES, NODES, CLASS = 24
         1  1  0.0
       1&3  1  0.0
         2  1  0.0
       2&3  1  0.0
  END_CODES

  CODES, NODES, CLASS = 25
         1  1  0.0
       1&3  1  0.0
         2  1  0.0
       2&3  1  0.0
  END_CODES

  CODES, NODES, CLASS = 26
         1  1  0.0
       1&3  1  0.0
         2  1  0.0
       2&3  1  0.0
  END_CODES

  CODES, NODES, CLASS = 27
         1  1  0.0
       1&3  1  0.0
         2  1  0.0
       2&3  1  0.0
  END_CODES

  CODES, NODES, CLASS = 28
         1  1  0.0
       1&3  1  0.0
         2  1  0.0
       2&3  1  0.0
  END_CODES

  CODES, NODES, CLASS = 29
         1  1  0.0
       1&3  1  0.0
         2  1  0.0
       2&3  1  0.0
  END_CODES

  CODES, NODES, CLASS = 30
         1  1  0.0
       1&3  1  0.0
         2  1  0.0
       2&3  1  0.0
  END_CODES

  CODES, NODES, CLASS = 31
         1  1  0.0
       1&3  1  0.0
         2  1  0.0
       2&3  1  0.0
  END_CODES

  CODES, NODES, CLASS = 32
         1  1  0.0
       1&3  1  0.0
         2  1  0.0
       2&3  1  0.0
  END_CODES

