 0.37616776E+006
 0.38911714E+006
 0.38911716E+006
 0.37616776E+006
 0.37616776E+006
 0.38911714E+006
 0.38911716E+006
 0.37616776E+006
 0.38911090E+006
 0.38911706E+006
 0.38911707E+006
 0.38911708E+006
 0.38911709E+006
 0.38911093E+006
 0.37616776E+006
 0.37616776E+006
 0.38911090E+006
 0.38911706E+006
 0.38911707E+006
 0.38911708E+006
 0.38911709E+006
 0.38911093E+006
 0.37616776E+006
 0.37616776E+006
 0.37616776E+006
 0.37616776E+006
 0.38911706E+006
 0.38911706E+006
 0.38911709E+006
 0.38911709E+006
 0.37616776E+006
 0.37616776E+006
 0.38911095E+006
 0.38911095E+006
 0.38911711E+006
 0.38911711E+006
 0.38911095E+006
 0.38911095E+006
 0.38911711E+006
 0.38911711E+006
 0.38911094E+006
 0.38911094E+006
 0.38911710E+006
 0.38911710E+006
 0.38911712E+006
 0.38911712E+006
 0.38911711E+006
 0.38911711E+006
 0.38911712E+006
 0.38911712E+006
 0.38911096E+006
 0.38911096E+006
 0.37616776E+006
 0.37616776E+006
 0.37616776E+006
 0.37616776E+006
 0.38814756E+006
 0.38814756E+006
 0.38831008E+006
 0.38831008E+006
 0.38815089E+006
 0.38815089E+006
 0.38831389E+006
 0.38831389E+006
