 0.10000000E-002
 0.10000090E-002
 0.10000079E-002
 0.10000000E-002
 0.10000000E-002
 0.10000090E-002
 0.10000079E-002
 0.10000000E-002
 0.10000135E-002
 0.10000135E-002
 0.10000130E-002
 0.10000124E-002
 0.10000118E-002
 0.10000118E-002
 0.10000000E-002
 0.10000000E-002
 0.10000135E-002
 0.10000135E-002
 0.10000130E-002
 0.10000124E-002
 0.10000118E-002
 0.10000118E-002
 0.10000000E-002
 0.10000000E-002
 0.10000000E-002
 0.10000000E-002
 0.10000135E-002
 0.10000135E-002
 0.10000118E-002
 0.10000118E-002
 0.10000000E-002
 0.10000000E-002
 0.10000104E-002
 0.10000107E-002
 0.10000104E-002
 0.10000107E-002
 0.10000104E-002
 0.10000107E-002
 0.10000104E-002
 0.10000107E-002
 0.10000112E-002
 0.10000112E-002
 0.10000113E-002
 0.10000113E-002
 0.10000104E-002
 0.10000104E-002
 0.10000107E-002
 0.10000107E-002
 0.10000098E-002
 0.10000098E-002
 0.10000098E-002
 0.10000098E-002
 0.10000000E-002
 0.10000000E-002
 0.10000000E-002
 0.10000000E-002
 0.10584600E-002
 0.10584600E-002
 0.10484422E-002
 0.10484422E-002
 0.10586315E-002
 0.10586315E-002
 0.10485843E-002
 0.10485843E-002
