# ALYA Lagrangian postprocess  
#
# HEADER
# T , Column :   1
# ILAGR , Column :   2
# ITYPE , Column :   3
# EXIST , Column :   4
# COORX , Column :   5
# COORY , Column :   6
# COORZ , Column :   7
# VELOX , Column :   8
# VELOY , Column :   9
# VELOZ , Column :  10
# DTK , Column :  11
# CD , Column :  12
# TEMPK , Column :  13
# MASSK , Column :  14
# TEMPF , Column :  15
# YVAPF , Column :  16
#               T            ILAGR            ITYPE            EXIST            COORX            COORY            COORZ            VELOX            VELOY            VELOZ              DTK               CD            TEMPK            MASSK            TEMPF            YVAPF            
  0.00000000E+000                1                1               -5  0.00000000E+000  0.00000000E+000  0.00000000E+000  0.00000000E+000  0.00000000E+000  0.00000000E+000  5.00000000E-003  0.00000000E+000  2.73150000E+002  2.68437317E-010  0.00000000E+000  0.00000000E+000
  5.00000000E-003                1                1               -1  0.00000000E+000 -1.04525506E-004  0.00000000E+000  0.00000000E+000 -4.18102025E-002  0.00000000E+000  5.00000000E-003  2.06936727E+002  3.01492874E+002  2.67538202E-010  6.85181042E+002  9.90000000E-004
  1.00000000E-002                1                1               -1  0.00000000E+000 -3.86065480E-004  0.00000000E+000  0.00000000E+000 -7.08057870E-002  0.00000000E+000  5.00000000E-003  1.33886112E+002  3.22845497E+002  2.62424480E-010  6.85172877E+002  9.90216426E-004
  1.50000000E-002                1                1               -1  0.00000000E+000 -7.88849276E-004  0.00000000E+000  0.00000000E+000 -9.03077313E-002  0.00000000E+000  5.00000000E-003  1.12270830E+002  3.31619692E+002  2.51151214E-010  6.85163481E+002  9.91447402E-004
  2.00000000E-002                1                1               -1  0.00000000E+000 -1.27221657E-003  0.00000000E+000  0.00000000E+000 -1.03039186E-001  0.00000000E+000  5.00000000E-003  1.02350555E+002  3.34397756E+002  2.37267418E-010  6.85153006E+002  9.94161617E-004
  2.50000000E-002                1                1               -1  0.00000000E+000 -1.80656053E-003  0.00000000E+000  0.00000000E+000 -1.10698401E-001  0.00000000E+000  5.00000000E-003  9.79039647E+001  3.35283134E+002  2.22828842E-010  6.85142140E+002  9.97505946E-004
  3.00000000E-002                1                1               -1  0.00000000E+000 -2.36945120E-003  0.00000000E+000  0.00000000E+000 -1.14457864E-001  0.00000000E+000  5.00000000E-003  9.69295979E+001  3.35565321E+002  2.08449291E-010  6.85131285E+002  1.00098694E-003
  3.50000000E-002                1                1               -1  0.00000000E+000 -2.94387983E-003  0.00000000E+000  0.00000000E+000 -1.15313590E-001  0.00000000E+000  5.00000000E-003  9.83784114E+001  3.35653169E+002  1.94329723E-010  6.85120576E+002  1.00445825E-003
  4.00000000E-002                1                1               -1  0.00000000E+000 -3.51735639E-003  0.00000000E+000  0.00000000E+000 -1.14077032E-001  0.00000000E+000  5.00000000E-003  1.01684157E+002  3.35679411E+002  1.80547432E-010  6.85110069E+002  1.00787271E-003
  4.50000000E-002                1                1               -1  0.00000000E+000 -4.08098002E-003  0.00000000E+000  0.00000000E+000 -1.11372420E-001  0.00000000E+000  5.00000000E-003  1.06552677E+002  3.35686658E+002  1.67138384E-010  6.85099790E+002  1.01121272E-003
  5.00000000E-002                1                1               -1  0.00000000E+000 -4.62856360E-003  0.00000000E+000  0.00000000E+000 -1.07661014E-001  0.00000000E+000  5.00000000E-003  1.12858088E+002  3.35688219E+002  1.54123269E-010  6.85089755E+002  1.01447027E-003
  5.50000000E-002                1                1               -1  0.00000000E+000 -5.15590044E-003  0.00000000E+000  0.00000000E+000 -1.03273720E-001  0.00000000E+000  5.00000000E-003  1.20590509E+002  3.35688114E+002  1.41516421E-010  6.85079976E+002  1.01764076E-003
  6.00000000E-002                1                1               -1  0.00000000E+000 -5.66019074E-003  0.00000000E+000  0.00000000E+000 -9.84423980E-002  0.00000000E+000  5.00000000E-003  1.29833406E+002  3.35687517E+002  1.29329231E-010  6.85070463E+002  1.02072083E-003
  6.50000000E-002                1                1               -1  0.00000000E+000 -6.13961192E-003  0.00000000E+000  0.00000000E+000 -9.33260771E-002  0.00000000E+000  5.00000000E-003  1.40758433E+002  3.35686762E+002  1.17571699E-010  6.85061224E+002  1.02370753E-003
  7.00000000E-002                1                1               -1  0.00000000E+000 -6.59300608E-003  0.00000000E+000  0.00000000E+000 -8.80315843E-002  0.00000000E+000  5.00000000E-003  1.53633128E+002  3.35685944E+002  1.06253301E-010  6.85052267E+002  1.02659804E-003
  7.50000000E-002                1                1               -1  0.00000000E+000 -7.01965800E-003  0.00000000E+000  0.00000000E+000 -8.26291840E-002  0.00000000E+000  5.00000000E-003  1.68840850E+002  3.35685094E+002  9.53835650E-011  6.85043600E+002  1.02938947E-003
  8.00000000E-002                1                1               -1  0.00000000E+000 -7.41914130E-003  0.00000000E+000  0.00000000E+000 -7.71641360E-002  0.00000000E+000  5.00000000E-003  1.86915545E+002  3.35684219E+002  8.49725128E-011  6.85035232E+002  1.03207873E-003
  8.50000000E-002                1                1               -1  0.00000000E+000 -7.79121426E-003  0.00000000E+000  0.00000000E+000 -7.16650495E-002  0.00000000E+000  5.00000000E-003  2.08597599E+002  3.35683326E+002  7.50310339E-011  6.85027173E+002  1.03466247E-003
  9.00000000E-002                1                1               -1  0.00000000E+000 -8.13575138E-003  0.00000000E+000  0.00000000E+000 -6.61497974E-002  0.00000000E+000  5.00000000E-003  2.34922581E+002  3.35682414E+002  6.55712453E-011  6.85019433E+002  1.03713703E-003
  9.50000000E-002                1                1               -1  0.00000000E+000 -8.45269991E-003  0.00000000E+000  0.00000000E+000 -6.06296159E-002  0.00000000E+000  5.00000000E-003  2.67364410E+002  3.35681484E+002  5.66068763E-011  6.85012023E+002  1.03949833E-003
  1.00000000E-001                1                1               -1  0.00000000E+000 -8.74205369E-003  0.00000000E+000  0.00000000E+000 -5.51118953E-002  0.00000000E+000  5.00000000E-003  3.08073123E+002  3.35680534E+002  4.81537247E-011  6.85004956E+002  1.04174185E-003
