$MeshFormat
2.2 0 8
$EndMeshFormat
$PhysicalNames
5
1 1 "Fuel"
1 2 "Oxidizer"
1 3 "Wall"
1 4 "Outlet"
2 5 "Surf"
$EndPhysicalNames
$Nodes
512
1 -0.03 -0.005 0
2 -0.0075 -0.005 0
3 0.0075 -0.005 0
4 0.03 -0.005 0
5 0.03 0.01 0
6 0.0075 0.01 0
7 -0.0075 0.01 0
8 -0.03 0.01 0
9 -0.02795454545455044 -0.005 0
10 -0.02590909090910224 -0.005 0
11 -0.02386363636365189 -0.005 0
12 -0.02181818181820449 -0.005 0
13 -0.01977272727274965 -0.005 0
14 -0.01772727272729602 -0.005 0
15 -0.01568181818184076 -0.005 0
16 -0.01363636363638249 -0.005 0
17 -0.0115909090909208 -0.005 0
18 -0.009545454545460401 -0.005 0
19 -0.00583333333333691 -0.005 0
20 -0.004166666666675176 -0.005 0
21 -0.002500000000013553 -0.005 0
22 -0.0008333333333520408 -0.005 0
23 0.0008333333333151519 -0.005 0
24 0.002499999999986222 -0.005 0
25 0.004166666666657257 -0.005 0
26 0.005833333333328364 -0.005 0
27 0.009545454545449125 -0.005 0
28 0.0115909090908985 -0.005 0
29 0.0136363636363471 -0.005 0
30 0.01568181818179665 -0.005 0
31 0.01772727272725092 -0.005 0
32 0.01977272727270411 -0.005 0
33 0.02181818181815879 -0.005 0
34 0.02386363636361881 -0.005 0
35 0.02590909090908007 -0.005 0
36 0.02795454545454003 -0.005 0
37 0.03 -0.004000000000002136 0
38 0.03 -0.00300000000000403 0
39 0.03 -0.002000000000007273 0
40 0.03 -0.001000000000010431 0
41 0.03 -1.367309043764919e-14 0
42 0.03 0.0009999999999830526 0
43 0.03 0.001999999999979722 0
44 0.03 0.002999999999979881 0
45 0.03 0.003999999999982851 0
46 0.03 0.004999999999985142 0
47 0.03 0.005999999999988115 0
48 0.03 0.006999999999990405 0
49 0.03 0.007999999999992746 0
50 0.03 0.008999999999995675 0
51 0.02795454545455044 0.01 0
52 0.02590909090910224 0.01 0
53 0.02386363636365189 0.01 0
54 0.02181818181820449 0.01 0
55 0.01977272727274965 0.01 0
56 0.01772727272729602 0.01 0
57 0.01568181818184076 0.01 0
58 0.01363636363638249 0.01 0
59 0.0115909090909208 0.01 0
60 0.009545454545460401 0.01 0
61 0.00583333333333691 0.01 0
62 0.004166666666675176 0.01 0
63 0.002500000000013553 0.01 0
64 0.0008333333333520408 0.01 0
65 -0.0008333333333151519 0.01 0
66 -0.002499999999986222 0.01 0
67 -0.004166666666657257 0.01 0
68 -0.005833333333328364 0.01 0
69 -0.009545454545449125 0.01 0
70 -0.0115909090908985 0.01 0
71 -0.0136363636363471 0.01 0
72 -0.01568181818179665 0.01 0
73 -0.01772727272725092 0.01 0
74 -0.01977272727270411 0.01 0
75 -0.02181818181815879 0.01 0
76 -0.02386363636361881 0.01 0
77 -0.02590909090908007 0.01 0
78 -0.02795454545454003 0.01 0
79 -0.03 0.00900000000000228 0
80 -0.03 0.008000000000004902 0
81 -0.03 0.007000000000007794 0
82 -0.03 0.006000000000010506 0
83 -0.03 0.005000000000013553 0
84 -0.03 0.004000000000016634 0
85 -0.03 0.003000000000019772 0
86 -0.03 0.002000000000019424 0
87 -0.03 0.001000000000016262 0
88 -0.03 1.377890856968378e-14 0
89 -0.03 -0.0009999999999893844 0
90 -0.03 -0.001999999999991868 0
91 -0.03 -0.002999999999994713 0
92 -0.03 -0.003999999999997356 0
93 -0.0075 -0.004000000000002136 0
94 -0.0075 -0.00300000000000403 0
95 -0.0075 -0.002000000000007273 0
96 -0.0075 -0.001000000000010431 0
97 -0.0075 -1.367309043764919e-14 0
98 -0.0075 0.0009999999999830526 0
99 -0.0075 0.001999999999979722 0
100 -0.0075 0.002999999999979881 0
101 -0.0075 0.003999999999982851 0
102 -0.0075 0.004999999999985142 0
103 -0.0075 0.005999999999988115 0
104 -0.0075 0.006999999999990405 0
105 -0.0075 0.007999999999992746 0
106 -0.0075 0.008999999999995675 0
107 0.0075 -0.004000000000002136 0
108 0.0075 -0.00300000000000403 0
109 0.0075 -0.002000000000007273 0
110 0.0075 -0.001000000000010431 0
111 0.0075 -1.367309043764919e-14 0
112 0.0075 0.0009999999999830526 0
113 0.0075 0.001999999999979722 0
114 0.0075 0.002999999999979881 0
115 0.0075 0.003999999999982851 0
116 0.0075 0.004999999999985142 0
117 0.0075 0.005999999999988115 0
118 0.0075 0.006999999999990405 0
119 0.0075 0.007999999999992746 0
120 0.0075 0.008999999999995675 0
121 -0.009545454545449875 0.00899999999999627 0
122 -0.009545454545450631 0.007999999999993852 0
123 -0.009545454545451379 0.006999999999991985 0
124 -0.009545454545452133 0.00599999999999015 0
125 -0.009545454545452886 0.004999999999987725 0
126 -0.009545454545453635 0.003999999999985923 0
127 -0.009545454545454388 0.002999999999983506 0
128 -0.009545454545455138 0.00199999999998333 0
129 -0.009545454545455891 0.0009999999999860711 0
130 -0.009545454545456643 -1.117769071745656e-14 0
131 -0.009545454545457393 -0.001000000000008518 0
132 -0.009545454545458146 -0.002000000000005873 0
133 -0.009545454545458895 -0.003000000000003183 0
134 -0.009545454545459651 -0.004000000000001703 0
135 -0.01159090909089998 0.008999999999996873 0
136 -0.01159090909090147 0.007999999999994957 0
137 -0.01159090909090296 0.006999999999993565 0
138 -0.01159090909090444 0.005999999999992185 0
139 -0.01159090909090593 0.004999999999990306 0
140 -0.01159090909090742 0.003999999999988995 0
141 -0.0115909090909089 0.002999999999987134 0
142 -0.01159090909091039 0.00199999999998694 0
143 -0.01159090909091188 0.000999999999989089 0
144 -0.01159090909091337 -8.681857316394925e-15 0
145 -0.01159090909091485 -0.001000000000006605 0
146 -0.01159090909091634 -0.002000000000004472 0
147 -0.01159090909091782 -0.003000000000002335 0
148 -0.01159090909091931 -0.004000000000001267 0
149 -0.01363636363634945 0.008999999999997479 0
150 -0.01363636363635182 0.007999999999996061 0
151 -0.01363636363635418 0.006999999999995146 0
152 -0.01363636363635654 0.005999999999994222 0
153 -0.01363636363635889 0.004999999999992892 0
154 -0.01363636363636126 0.003999999999992065 0
155 -0.01363636363636362 0.002999999999990761 0
156 -0.01363636363636598 0.00199999999999055 0
157 -0.01363636363636834 0.0009999999999921088 0
158 -0.01363636363637069 -6.186023915333294e-15 0
159 -0.01363636363637305 -0.001000000000004691 0
160 -0.01363636363637541 -0.002000000000003071 0
161 -0.01363636363637778 -0.003000000000001489 0
162 -0.01363636363638013 -0.004000000000000832 0
163 -0.01568181818179959 0.008999999999998076 0
164 -0.01568181818180253 0.007999999999997166 0
165 -0.01568181818180547 0.006999999999996727 0
166 -0.01568181818180841 0.005999999999996257 0
167 -0.01568181818181135 0.004999999999995472 0
168 -0.0156818181818143 0.003999999999995136 0
169 -0.01568181818181724 0.002999999999994386 0
170 -0.01568181818182018 0.001999999999994158 0
171 -0.01568181818182312 0.0009999999999951278 0
172 -0.01568181818182605 -3.691057876009651e-15 0
173 -0.015681818181829 -0.001000000000002778 0
174 -0.01568181818183194 -0.002000000000001671 0
175 -0.01568181818183488 -0.003000000000000641 0
176 -0.01568181818183783 -0.004000000000000398 0
177 -0.01772727272725393 0.008999999999998677 0
178 -0.01772727272725693 0.007999999999998276 0
179 -0.01772727272725994 0.006999999999998308 0
180 -0.01772727272726295 0.005999999999998293 0
181 -0.01772727272726596 0.004999999999998056 0
182 -0.01772727272726896 0.003999999999998208 0
183 -0.01772727272727197 0.002999999999998014 0
184 -0.01772727272727498 0.001999999999997768 0
185 -0.01772727272727798 0.0009999999999981473 0
186 -0.01772727272728099 -1.194573953644529e-15 0
187 -0.01772727272728399 -0.001000000000000864 0
188 -0.017727272727287 -0.002000000000000272 0
189 -0.01772727272729002 -0.002999999999999794 0
190 -0.01772727272729302 -0.003999999999999964 0
191 -0.01977272727270715 0.008999999999999278 0
192 -0.01977272727271018 0.007999999999999377 0
193 -0.01977272727271322 0.006999999999999888 0
194 -0.01977272727271626 0.006000000000000329 0
195 -0.0197727272727193 0.005000000000000638 0
196 -0.01977272727272233 0.004000000000001278 0
197 -0.01977272727272536 0.00300000000000164 0
198 -0.0197727272727284 0.002000000000001376 0
199 -0.01977272727273143 0.001000000000001167 0
200 -0.01977272727273447 1.300608926113611e-15 0
201 -0.0197727272727375 -0.0009999999999989509 0
202 -0.01977272727274054 -0.00199999999999887 0
203 -0.01977272727274358 -0.002999999999998948 0
204 -0.01977272727274661 -0.003999999999999528 0
205 -0.02181818181816184 0.00899999999999988 0
206 -0.02181818181816488 0.008000000000000481 0
207 -0.02181818181816792 0.00700000000000147 0
208 -0.02181818181817097 0.006000000000002364 0
209 -0.02181818181817401 0.005000000000003222 0
210 -0.02181818181817707 0.004000000000004351 0
211 -0.02181818181818011 0.003000000000005267 0
212 -0.02181818181818316 0.002000000000004987 0
213 -0.02181818181818621 0.001000000000004185 0
214 -0.02181818181818925 3.796442327175242e-15 0
215 -0.0218181818181923 -0.0009999999999970378 0
216 -0.02181818181819535 -0.00199999999999747 0
217 -0.0218181818181984 -0.002999999999998101 0
218 -0.02181818181820144 -0.003999999999999094 0
219 -0.02386363636362102 0.009000000000000476 0
220 -0.02386363636362322 0.008000000000001589 0
221 -0.02386363636362543 0.007000000000003051 0
222 -0.02386363636362763 0.006000000000004399 0
223 -0.02386363636362983 0.005000000000005804 0
224 -0.02386363636363203 0.004000000000007421 0
225 -0.02386363636363424 0.003000000000008892 0
226 -0.02386363636363644 0.002000000000008596 0
227 -0.02386363636363865 0.001000000000007204 0
228 -0.02386363636364086 6.291733627150631e-15 0
229 -0.02386363636364306 -0.0009999999999951244 0
230 -0.02386363636364527 -0.00199999999999607 0
231 -0.02386363636364748 -0.002999999999997255 0
232 -0.02386363636364968 -0.00399999999999866 0
233 -0.02590909090908154 0.00900000000000108 0
234 -0.02590909090908302 0.008000000000002696 0
235 -0.0259090909090845 0.007000000000004631 0
236 -0.02590909090908598 0.006000000000006434 0
237 -0.02590909090908746 0.005000000000008385 0
238 -0.02590909090908894 0.004000000000010492 0
239 -0.02590909090909041 0.00300000000001252 0
240 -0.02590909090909189 0.002000000000012205 0
241 -0.02590909090909337 0.001000000000010224 0
242 -0.02590909090909484 8.787133347343268e-15 0
243 -0.02590909090909633 -0.0009999999999932116 0
244 -0.02590909090909781 -0.001999999999994669 0
245 -0.02590909090909928 -0.002999999999996407 0
246 -0.02590909090910076 -0.003999999999998225 0
247 -0.02795454545454073 0.009000000000001675 0
248 -0.02795454545454143 0.008000000000003797 0
249 -0.02795454545454212 0.007000000000006213 0
250 -0.02795454545454281 0.006000000000008471 0
251 -0.0279545454545435 0.00500000000001097 0
252 -0.02795454545454419 0.004000000000013561 0
253 -0.02795454545454489 0.003000000000016147 0
254 -0.02795454545454559 0.002000000000015814 0
255 -0.02795454545454628 0.001000000000013242 0
256 -0.02795454545454697 1.128258727764453e-14 0
257 -0.02795454545454766 -0.0009999999999912982 0
258 -0.02795454545454836 -0.001999999999993268 0
259 -0.02795454545454906 -0.002999999999995561 0
260 -0.02795454545454975 -0.00399999999999779 0
261 0.005833333333336342 0.008999999999995676 0
262 0.005833333333335771 0.007999999999992747 0
263 0.0058333333333352 0.006999999999990407 0
264 0.005833333333334631 0.005999999999988113 0
265 0.005833333333334061 0.004999999999985141 0
266 0.005833333333333492 0.003999999999982852 0
267 0.005833333333332922 0.002999999999979882 0
268 0.005833333333332353 0.001999999999979722 0
269 0.005833333333331784 0.0009999999999830531 0
270 0.005833333333331214 -1.367309043764919e-14 0
271 0.005833333333330644 -0.001000000000010431 0
272 0.005833333333330075 -0.002000000000007272 0
273 0.005833333333329503 -0.003000000000004029 0
274 0.005833333333328933 -0.004000000000002137 0
275 0.004166666666673982 0.008999999999995675 0
276 0.004166666666672788 0.007999999999992746 0
277 0.004166666666671592 0.006999999999990405 0
278 0.004166666666670399 0.005999999999988113 0
279 0.004166666666669204 0.004999999999985141 0
280 0.004166666666668008 0.003999999999982852 0
281 0.004166666666666815 0.002999999999979882 0
282 0.00416666666666562 0.001999999999979722 0
283 0.004166666666664424 0.0009999999999830531 0
284 0.004166666666663229 -1.367352411851819e-14 0
285 0.004166666666662036 -0.001000000000010431 0
286 0.004166666666660841 -0.002000000000007273 0
287 0.004166666666659646 -0.003000000000004029 0
288 0.004166666666658452 -0.004000000000002137 0
289 0.002500000000011731 0.008999999999995675 0
290 0.002500000000009909 0.007999999999992744 0
291 0.002500000000008086 0.006999999999990405 0
292 0.002500000000006265 0.005999999999988113 0
293 0.002500000000004443 0.004999999999985141 0
294 0.00250000000000262 0.003999999999982852 0
295 0.002500000000000798 0.002999999999979882 0
296 0.002499999999998977 0.001999999999979722 0
297 0.002499999999997155 0.0009999999999830531 0
298 0.002499999999995332 -1.367309043764919e-14 0
299 0.00249999999999351 -0.001000000000010431 0
300 0.002499999999991688 -0.002000000000007272 0
301 0.002499999999989865 -0.003000000000004029 0
302 0.002499999999988045 -0.004000000000002137 0
303 0.000833333333349582 0.008999999999995675 0
304 0.0008333333333471227 0.007999999999992744 0
305 0.0008333333333446629 0.006999999999990406 0
306 0.0008333333333422042 0.005999999999988113 0
307 0.000833333333339745 0.004999999999985141 0
308 0.0008333333333372854 0.003999999999982853 0
309 0.0008333333333348264 0.002999999999979882 0
310 0.000833333333332367 0.001999999999979722 0
311 0.0008333333333299079 0.0009999999999830529 0
312 0.0008333333333274484 -1.36728735972147e-14 0
313 0.0008333333333249899 -0.00100000000001043 0
314 0.0008333333333225301 -0.002000000000007273 0
315 0.0008333333333200702 -0.003000000000004029 0
316 0.0008333333333176115 -0.004000000000002138 0
317 -0.0008333333333176115 0.008999999999995675 0
318 -0.0008333333333200705 0.007999999999992744 0
319 -0.0008333333333225296 0.006999999999990406 0
320 -0.0008333333333249893 0.005999999999988114 0
321 -0.000833333333327448 0.004999999999985141 0
322 -0.0008333333333299074 0.003999999999982852 0
323 -0.0008333333333323673 0.002999999999979882 0
324 -0.0008333333333348267 0.001999999999979722 0
325 -0.0008333333333372852 0.0009999999999830529 0
326 -0.000833333333339745 -1.367330727808369e-14 0
327 -0.000833333333342204 -0.001000000000010431 0
328 -0.0008333333333446634 -0.002000000000007272 0
329 -0.0008333333333471224 -0.003000000000004029 0
330 -0.0008333333333495818 -0.004000000000002138 0
331 -0.002499999999988044 0.008999999999995675 0
332 -0.002499999999989866 0.007999999999992746 0
333 -0.002499999999991687 0.006999999999990406 0
334 -0.00249999999999351 0.005999999999988118 0
335 -0.002499999999995331 0.004999999999985141 0
336 -0.002499999999997154 0.003999999999982852 0
337 -0.002499999999998977 0.002999999999979882 0
338 -0.002500000000000798 0.001999999999979722 0
339 -0.002500000000002621 0.0009999999999830526 0
340 -0.002500000000004443 -1.36728735972147e-14 0
341 -0.002500000000006265 -0.001000000000010431 0
342 -0.002500000000008087 -0.002000000000007273 0
343 -0.002500000000009908 -0.003000000000004029 0
344 -0.002500000000011729 -0.004000000000002137 0
345 -0.004166666666658454 0.008999999999995676 0
346 -0.004166666666659647 0.007999999999992744 0
347 -0.004166666666660841 0.006999999999990406 0
348 -0.004166666666662035 0.005999999999988114 0
349 -0.004166666666663229 0.004999999999985142 0
350 -0.004166666666664424 0.003999999999982853 0
351 -0.00416666666666562 0.002999999999979882 0
352 -0.004166666666666814 0.001999999999979722 0
353 -0.004166666666668009 0.0009999999999830526 0
354 -0.004166666666669203 -1.367352411851819e-14 0
355 -0.004166666666670398 -0.001000000000010431 0
356 -0.004166666666671593 -0.002000000000007272 0
357 -0.004166666666672788 -0.003000000000004029 0
358 -0.004166666666673983 -0.004000000000002138 0
359 -0.005833333333328933 0.008999999999995675 0
360 -0.005833333333329503 0.007999999999992744 0
361 -0.005833333333330072 0.006999999999990406 0
362 -0.005833333333330644 0.005999999999988114 0
363 -0.005833333333331213 0.004999999999985141 0
364 -0.005833333333331782 0.003999999999982852 0
365 -0.005833333333332353 0.002999999999979882 0
366 -0.005833333333332922 0.001999999999979722 0
367 -0.005833333333333492 0.0009999999999830529 0
368 -0.00583333333333406 -1.367319885786644e-14 0
369 -0.005833333333334631 -0.001000000000010431 0
370 -0.005833333333335201 -0.002000000000007272 0
371 -0.00583333333333577 -0.003000000000004029 0
372 -0.00583333333333634 -0.004000000000002137 0
373 0.02795454545454975 0.008999999999995673 0
374 0.02795454545454905 0.007999999999992744 0
375 0.02795454545454836 0.006999999999990409 0
376 0.02795454545454767 0.005999999999988116 0
377 0.02795454545454697 0.004999999999985142 0
378 0.02795454545454627 0.003999999999982852 0
379 0.02795454545454559 0.002999999999979882 0
380 0.02795454545454489 0.001999999999979722 0
381 0.02795454545454419 0.0009999999999830526 0
382 0.0279545454545435 -1.367309043764919e-14 0
383 0.02795454545454281 -0.001000000000010431 0
384 0.02795454545454212 -0.002000000000007273 0
385 0.02795454545454142 -0.003000000000004029 0
386 0.02795454545454073 -0.004000000000002137 0
387 0.02590909090910076 0.008999999999995675 0
388 0.02590909090909929 0.007999999999992744 0
389 0.02590909090909781 0.006999999999990405 0
390 0.02590909090909633 0.005999999999988114 0
391 0.02590909090909486 0.004999999999985143 0
392 0.02590909090909337 0.003999999999982853 0
393 0.02590909090909189 0.002999999999979882 0
394 0.02590909090909041 0.001999999999979722 0
395 0.02590909090908894 0.0009999999999830526 0
396 0.02590909090908746 -1.367309043764919e-14 0
397 0.02590909090908598 -0.00100000000001043 0
398 0.0259090909090845 -0.002000000000007272 0
399 0.02590909090908302 -0.003000000000004029 0
400 0.02590909090908155 -0.004000000000002137 0
401 0.02386363636364968 0.008999999999995675 0
402 0.02386363636364748 0.007999999999992747 0
403 0.02386363636364527 0.006999999999990406 0
404 0.02386363636364307 0.005999999999988114 0
405 0.02386363636364086 0.004999999999985141 0
406 0.02386363636363865 0.003999999999982852 0
407 0.02386363636363645 0.002999999999979883 0
408 0.02386363636363425 0.001999999999979722 0
409 0.02386363636363204 0.0009999999999830526 0
410 0.02386363636362984 -1.367352411851819e-14 0
411 0.02386363636362763 -0.001000000000010431 0
412 0.02386363636362543 -0.002000000000007272 0
413 0.02386363636362323 -0.00300000000000403 0
414 0.02386363636362102 -0.004000000000002136 0
415 0.02181818181820145 0.008999999999995676 0
416 0.0218181818181984 0.007999999999992746 0
417 0.02181818181819535 0.006999999999990405 0
418 0.0218181818181923 0.005999999999988113 0
419 0.02181818181818925 0.004999999999985141 0
420 0.02181818181818621 0.003999999999982854 0
421 0.02181818181818316 0.002999999999979882 0
422 0.02181818181818011 0.001999999999979722 0
423 0.02181818181817707 0.0009999999999830529 0
424 0.02181818181817402 -1.367309043764919e-14 0
425 0.02181818181817097 -0.001000000000010431 0
426 0.02181818181816792 -0.002000000000007273 0
427 0.02181818181816488 -0.003000000000004029 0
428 0.02181818181816184 -0.004000000000002137 0
429 0.01977272727274662 0.008999999999995675 0
430 0.01977272727274358 0.007999999999992746 0
431 0.01977272727274054 0.006999999999990406 0
432 0.01977272727273751 0.005999999999988114 0
433 0.01977272727273447 0.004999999999985141 0
434 0.01977272727273143 0.003999999999982852 0
435 0.0197727272727284 0.002999999999979882 0
436 0.01977272727272536 0.001999999999979722 0
437 0.01977272727272233 0.0009999999999830526 0
438 0.01977272727271929 -1.36728735972147e-14 0
439 0.01977272727271626 -0.001000000000010431 0
440 0.01977272727271322 -0.002000000000007272 0
441 0.01977272727271018 -0.003000000000004029 0
442 0.01977272727270715 -0.004000000000002137 0
443 0.01772727272729301 0.008999999999995675 0
444 0.01772727272729001 0.007999999999992746 0
445 0.017727272727287 0.006999999999990406 0
446 0.01772727272728399 0.005999999999988114 0
447 0.01772727272728099 0.004999999999985141 0
448 0.01772727272727798 0.003999999999982852 0
449 0.01772727272727498 0.002999999999979882 0
450 0.01772727272727197 0.001999999999979722 0
451 0.01772727272726896 0.0009999999999830524 0
452 0.01772727272726596 -1.36728735972147e-14 0
453 0.01772727272726295 -0.00100000000001043 0
454 0.01772727272725994 -0.002000000000007272 0
455 0.01772727272725694 -0.003000000000004029 0
456 0.01772727272725393 -0.004000000000002137 0
457 0.01568181818183782 0.008999999999995675 0
458 0.01568181818183488 0.007999999999992744 0
459 0.01568181818183195 0.006999999999990406 0
460 0.015681818181829 0.005999999999988113 0
461 0.01568181818182606 0.004999999999985141 0
462 0.01568181818182312 0.003999999999982853 0
463 0.01568181818182018 0.002999999999979882 0
464 0.01568181818181724 0.001999999999979722 0
465 0.0156818181818143 0.0009999999999830535 0
466 0.01568181818181136 -1.367309043764919e-14 0
467 0.01568181818180842 -0.00100000000001043 0
468 0.01568181818180547 -0.002000000000007273 0
469 0.01568181818180253 -0.003000000000004029 0
470 0.01568181818179959 -0.004000000000002137 0
471 0.01363636363638013 0.008999999999995676 0
472 0.01363636363637778 0.007999999999992746 0
473 0.01363636363637542 0.006999999999990406 0
474 0.01363636363637305 0.005999999999988117 0
475 0.01363636363637069 0.004999999999985141 0
476 0.01363636363636833 0.003999999999982852 0
477 0.01363636363636597 0.002999999999979883 0
478 0.01363636363636361 0.001999999999979722 0
479 0.01363636363636125 0.0009999999999830526 0
480 0.01363636363635889 -1.367330727808369e-14 0
481 0.01363636363635654 -0.001000000000010431 0
482 0.01363636363635418 -0.002000000000007273 0
483 0.01363636363635181 -0.003000000000004029 0
484 0.01363636363634945 -0.004000000000002138 0
485 0.01159090909091932 0.008999999999995676 0
486 0.01159090909091783 0.007999999999992747 0
487 0.01159090909091634 0.006999999999990405 0
488 0.01159090909091485 0.005999999999988114 0
489 0.01159090909091337 0.004999999999985141 0
490 0.01159090909091188 0.003999999999982853 0
491 0.01159090909091039 0.002999999999979883 0
492 0.0115909090909089 0.001999999999979722 0
493 0.01159090909090742 0.0009999999999830526 0
494 0.01159090909090593 -1.36726567567802e-14 0
495 0.01159090909090444 -0.001000000000010431 0
496 0.01159090909090296 -0.002000000000007272 0
497 0.01159090909090147 -0.003000000000004029 0
498 0.01159090909089998 -0.004000000000002138 0
499 0.009545454545459648 0.008999999999995675 0
500 0.009545454545458895 0.007999999999992746 0
501 0.009545454545458142 0.006999999999990405 0
502 0.009545454545457395 0.005999999999988114 0
503 0.009545454545456638 0.004999999999985141 0
504 0.009545454545455891 0.003999999999982853 0
505 0.009545454545455138 0.002999999999979882 0
506 0.009545454545454385 0.001999999999979722 0
507 0.009545454545453635 0.0009999999999830535 0
508 0.009545454545452883 -1.367336148819231e-14 0
509 0.009545454545452133 -0.001000000000010431 0
510 0.00954545454545138 -0.002000000000007272 0
511 0.009545454545450631 -0.003000000000004029 0
512 0.009545454545449875 -0.004000000000002137 0
$EndNodes
$Elements
557
1 1 2 3 1 1 9
2 1 2 3 1 9 10
3 1 2 3 1 10 11
4 1 2 3 1 11 12
5 1 2 3 1 12 13
6 1 2 3 1 13 14
7 1 2 3 1 14 15
8 1 2 3 1 15 16
9 1 2 3 1 16 17
10 1 2 3 1 17 18
11 1 2 3 1 18 2
12 1 2 1 2 2 19
13 1 2 1 2 19 20
14 1 2 1 2 20 21
15 1 2 1 2 21 22
16 1 2 1 2 22 23
17 1 2 1 2 23 24
18 1 2 1 2 24 25
19 1 2 1 2 25 26
20 1 2 1 2 26 3
21 1 2 3 3 3 27
22 1 2 3 3 27 28
23 1 2 3 3 28 29
24 1 2 3 3 29 30
25 1 2 3 3 30 31
26 1 2 3 3 31 32
27 1 2 3 3 32 33
28 1 2 3 3 33 34
29 1 2 3 3 34 35
30 1 2 3 3 35 36
31 1 2 3 3 36 4
32 1 2 4 4 4 37
33 1 2 4 4 37 38
34 1 2 4 4 38 39
35 1 2 4 4 39 40
36 1 2 4 4 40 41
37 1 2 4 4 41 42
38 1 2 4 4 42 43
39 1 2 4 4 43 44
40 1 2 4 4 44 45
41 1 2 4 4 45 46
42 1 2 4 4 46 47
43 1 2 4 4 47 48
44 1 2 4 4 48 49
45 1 2 4 4 49 50
46 1 2 4 4 50 5
47 1 2 3 5 5 51
48 1 2 3 5 51 52
49 1 2 3 5 52 53
50 1 2 3 5 53 54
51 1 2 3 5 54 55
52 1 2 3 5 55 56
53 1 2 3 5 56 57
54 1 2 3 5 57 58
55 1 2 3 5 58 59
56 1 2 3 5 59 60
57 1 2 3 5 60 6
58 1 2 2 6 6 61
59 1 2 2 6 61 62
60 1 2 2 6 62 63
61 1 2 2 6 63 64
62 1 2 2 6 64 65
63 1 2 2 6 65 66
64 1 2 2 6 66 67
65 1 2 2 6 67 68
66 1 2 2 6 68 7
67 1 2 3 7 7 69
68 1 2 3 7 69 70
69 1 2 3 7 70 71
70 1 2 3 7 71 72
71 1 2 3 7 72 73
72 1 2 3 7 73 74
73 1 2 3 7 74 75
74 1 2 3 7 75 76
75 1 2 3 7 76 77
76 1 2 3 7 77 78
77 1 2 3 7 78 8
78 1 2 4 8 8 79
79 1 2 4 8 79 80
80 1 2 4 8 80 81
81 1 2 4 8 81 82
82 1 2 4 8 82 83
83 1 2 4 8 83 84
84 1 2 4 8 84 85
85 1 2 4 8 85 86
86 1 2 4 8 86 87
87 1 2 4 8 87 88
88 1 2 4 8 88 89
89 1 2 4 8 89 90
90 1 2 4 8 90 91
91 1 2 4 8 91 92
92 1 2 4 8 92 1
93 3 2 5 51 7 69 121 106
94 3 2 5 51 106 121 122 105
95 3 2 5 51 105 122 123 104
96 3 2 5 51 104 123 124 103
97 3 2 5 51 103 124 125 102
98 3 2 5 51 102 125 126 101
99 3 2 5 51 101 126 127 100
100 3 2 5 51 100 127 128 99
101 3 2 5 51 99 128 129 98
102 3 2 5 51 98 129 130 97
103 3 2 5 51 97 130 131 96
104 3 2 5 51 96 131 132 95
105 3 2 5 51 95 132 133 94
106 3 2 5 51 94 133 134 93
107 3 2 5 51 93 134 18 2
108 3 2 5 51 69 70 135 121
109 3 2 5 51 121 135 136 122
110 3 2 5 51 122 136 137 123
111 3 2 5 51 123 137 138 124
112 3 2 5 51 124 138 139 125
113 3 2 5 51 125 139 140 126
114 3 2 5 51 126 140 141 127
115 3 2 5 51 127 141 142 128
116 3 2 5 51 128 142 143 129
117 3 2 5 51 129 143 144 130
118 3 2 5 51 130 144 145 131
119 3 2 5 51 131 145 146 132
120 3 2 5 51 132 146 147 133
121 3 2 5 51 133 147 148 134
122 3 2 5 51 134 148 17 18
123 3 2 5 51 70 71 149 135
124 3 2 5 51 135 149 150 136
125 3 2 5 51 136 150 151 137
126 3 2 5 51 137 151 152 138
127 3 2 5 51 138 152 153 139
128 3 2 5 51 139 153 154 140
129 3 2 5 51 140 154 155 141
130 3 2 5 51 141 155 156 142
131 3 2 5 51 142 156 157 143
132 3 2 5 51 143 157 158 144
133 3 2 5 51 144 158 159 145
134 3 2 5 51 145 159 160 146
135 3 2 5 51 146 160 161 147
136 3 2 5 51 147 161 162 148
137 3 2 5 51 148 162 16 17
138 3 2 5 51 71 72 163 149
139 3 2 5 51 149 163 164 150
140 3 2 5 51 150 164 165 151
141 3 2 5 51 151 165 166 152
142 3 2 5 51 152 166 167 153
143 3 2 5 51 153 167 168 154
144 3 2 5 51 154 168 169 155
145 3 2 5 51 155 169 170 156
146 3 2 5 51 156 170 171 157
147 3 2 5 51 157 171 172 158
148 3 2 5 51 158 172 173 159
149 3 2 5 51 159 173 174 160
150 3 2 5 51 160 174 175 161
151 3 2 5 51 161 175 176 162
152 3 2 5 51 162 176 15 16
153 3 2 5 51 72 73 177 163
154 3 2 5 51 163 177 178 164
155 3 2 5 51 164 178 179 165
156 3 2 5 51 165 179 180 166
157 3 2 5 51 166 180 181 167
158 3 2 5 51 167 181 182 168
159 3 2 5 51 168 182 183 169
160 3 2 5 51 169 183 184 170
161 3 2 5 51 170 184 185 171
162 3 2 5 51 171 185 186 172
163 3 2 5 51 172 186 187 173
164 3 2 5 51 173 187 188 174
165 3 2 5 51 174 188 189 175
166 3 2 5 51 175 189 190 176
167 3 2 5 51 176 190 14 15
168 3 2 5 51 73 74 191 177
169 3 2 5 51 177 191 192 178
170 3 2 5 51 178 192 193 179
171 3 2 5 51 179 193 194 180
172 3 2 5 51 180 194 195 181
173 3 2 5 51 181 195 196 182
174 3 2 5 51 182 196 197 183
175 3 2 5 51 183 197 198 184
176 3 2 5 51 184 198 199 185
177 3 2 5 51 185 199 200 186
178 3 2 5 51 186 200 201 187
179 3 2 5 51 187 201 202 188
180 3 2 5 51 188 202 203 189
181 3 2 5 51 189 203 204 190
182 3 2 5 51 190 204 13 14
183 3 2 5 51 74 75 205 191
184 3 2 5 51 191 205 206 192
185 3 2 5 51 192 206 207 193
186 3 2 5 51 193 207 208 194
187 3 2 5 51 194 208 209 195
188 3 2 5 51 195 209 210 196
189 3 2 5 51 196 210 211 197
190 3 2 5 51 197 211 212 198
191 3 2 5 51 198 212 213 199
192 3 2 5 51 199 213 214 200
193 3 2 5 51 200 214 215 201
194 3 2 5 51 201 215 216 202
195 3 2 5 51 202 216 217 203
196 3 2 5 51 203 217 218 204
197 3 2 5 51 204 218 12 13
198 3 2 5 51 75 76 219 205
199 3 2 5 51 205 219 220 206
200 3 2 5 51 206 220 221 207
201 3 2 5 51 207 221 222 208
202 3 2 5 51 208 222 223 209
203 3 2 5 51 209 223 224 210
204 3 2 5 51 210 224 225 211
205 3 2 5 51 211 225 226 212
206 3 2 5 51 212 226 227 213
207 3 2 5 51 213 227 228 214
208 3 2 5 51 214 228 229 215
209 3 2 5 51 215 229 230 216
210 3 2 5 51 216 230 231 217
211 3 2 5 51 217 231 232 218
212 3 2 5 51 218 232 11 12
213 3 2 5 51 76 77 233 219
214 3 2 5 51 219 233 234 220
215 3 2 5 51 220 234 235 221
216 3 2 5 51 221 235 236 222
217 3 2 5 51 222 236 237 223
218 3 2 5 51 223 237 238 224
219 3 2 5 51 224 238 239 225
220 3 2 5 51 225 239 240 226
221 3 2 5 51 226 240 241 227
222 3 2 5 51 227 241 242 228
223 3 2 5 51 228 242 243 229
224 3 2 5 51 229 243 244 230
225 3 2 5 51 230 244 245 231
226 3 2 5 51 231 245 246 232
227 3 2 5 51 232 246 10 11
228 3 2 5 51 77 78 247 233
229 3 2 5 51 233 247 248 234
230 3 2 5 51 234 248 249 235
231 3 2 5 51 235 249 250 236
232 3 2 5 51 236 250 251 237
233 3 2 5 51 237 251 252 238
234 3 2 5 51 238 252 253 239
235 3 2 5 51 239 253 254 240
236 3 2 5 51 240 254 255 241
237 3 2 5 51 241 255 256 242
238 3 2 5 51 242 256 257 243
239 3 2 5 51 243 257 258 244
240 3 2 5 51 244 258 259 245
241 3 2 5 51 245 259 260 246
242 3 2 5 51 246 260 9 10
243 3 2 5 51 78 8 79 247
244 3 2 5 51 247 79 80 248
245 3 2 5 51 248 80 81 249
246 3 2 5 51 249 81 82 250
247 3 2 5 51 250 82 83 251
248 3 2 5 51 251 83 84 252
249 3 2 5 51 252 84 85 253
250 3 2 5 51 253 85 86 254
251 3 2 5 51 254 86 87 255
252 3 2 5 51 255 87 88 256
253 3 2 5 51 256 88 89 257
254 3 2 5 51 257 89 90 258
255 3 2 5 51 258 90 91 259
256 3 2 5 51 259 91 92 260
257 3 2 5 51 260 92 1 9
258 3 2 5 52 6 61 261 120
259 3 2 5 52 120 261 262 119
260 3 2 5 52 119 262 263 118
261 3 2 5 52 118 263 264 117
262 3 2 5 52 117 264 265 116
263 3 2 5 52 116 265 266 115
264 3 2 5 52 115 266 267 114
265 3 2 5 52 114 267 268 113
266 3 2 5 52 113 268 269 112
267 3 2 5 52 112 269 270 111
268 3 2 5 52 111 270 271 110
269 3 2 5 52 110 271 272 109
270 3 2 5 52 109 272 273 108
271 3 2 5 52 108 273 274 107
272 3 2 5 52 107 274 26 3
273 3 2 5 52 61 62 275 261
274 3 2 5 52 261 275 276 262
275 3 2 5 52 262 276 277 263
276 3 2 5 52 263 277 278 264
277 3 2 5 52 264 278 279 265
278 3 2 5 52 265 279 280 266
279 3 2 5 52 266 280 281 267
280 3 2 5 52 267 281 282 268
281 3 2 5 52 268 282 283 269
282 3 2 5 52 269 283 284 270
283 3 2 5 52 270 284 285 271
284 3 2 5 52 271 285 286 272
285 3 2 5 52 272 286 287 273
286 3 2 5 52 273 287 288 274
287 3 2 5 52 274 288 25 26
288 3 2 5 52 62 63 289 275
289 3 2 5 52 275 289 290 276
290 3 2 5 52 276 290 291 277
291 3 2 5 52 277 291 292 278
292 3 2 5 52 278 292 293 279
293 3 2 5 52 279 293 294 280
294 3 2 5 52 280 294 295 281
295 3 2 5 52 281 295 296 282
296 3 2 5 52 282 296 297 283
297 3 2 5 52 283 297 298 284
298 3 2 5 52 284 298 299 285
299 3 2 5 52 285 299 300 286
300 3 2 5 52 286 300 301 287
301 3 2 5 52 287 301 302 288
302 3 2 5 52 288 302 24 25
303 3 2 5 52 63 64 303 289
304 3 2 5 52 289 303 304 290
305 3 2 5 52 290 304 305 291
306 3 2 5 52 291 305 306 292
307 3 2 5 52 292 306 307 293
308 3 2 5 52 293 307 308 294
309 3 2 5 52 294 308 309 295
310 3 2 5 52 295 309 310 296
311 3 2 5 52 296 310 311 297
312 3 2 5 52 297 311 312 298
313 3 2 5 52 298 312 313 299
314 3 2 5 52 299 313 314 300
315 3 2 5 52 300 314 315 301
316 3 2 5 52 301 315 316 302
317 3 2 5 52 302 316 23 24
318 3 2 5 52 64 65 317 303
319 3 2 5 52 303 317 318 304
320 3 2 5 52 304 318 319 305
321 3 2 5 52 305 319 320 306
322 3 2 5 52 306 320 321 307
323 3 2 5 52 307 321 322 308
324 3 2 5 52 308 322 323 309
325 3 2 5 52 309 323 324 310
326 3 2 5 52 310 324 325 311
327 3 2 5 52 311 325 326 312
328 3 2 5 52 312 326 327 313
329 3 2 5 52 313 327 328 314
330 3 2 5 52 314 328 329 315
331 3 2 5 52 315 329 330 316
332 3 2 5 52 316 330 22 23
333 3 2 5 52 65 66 331 317
334 3 2 5 52 317 331 332 318
335 3 2 5 52 318 332 333 319
336 3 2 5 52 319 333 334 320
337 3 2 5 52 320 334 335 321
338 3 2 5 52 321 335 336 322
339 3 2 5 52 322 336 337 323
340 3 2 5 52 323 337 338 324
341 3 2 5 52 324 338 339 325
342 3 2 5 52 325 339 340 326
343 3 2 5 52 326 340 341 327
344 3 2 5 52 327 341 342 328
345 3 2 5 52 328 342 343 329
346 3 2 5 52 329 343 344 330
347 3 2 5 52 330 344 21 22
348 3 2 5 52 66 67 345 331
349 3 2 5 52 331 345 346 332
350 3 2 5 52 332 346 347 333
351 3 2 5 52 333 347 348 334
352 3 2 5 52 334 348 349 335
353 3 2 5 52 335 349 350 336
354 3 2 5 52 336 350 351 337
355 3 2 5 52 337 351 352 338
356 3 2 5 52 338 352 353 339
357 3 2 5 52 339 353 354 340
358 3 2 5 52 340 354 355 341
359 3 2 5 52 341 355 356 342
360 3 2 5 52 342 356 357 343
361 3 2 5 52 343 357 358 344
362 3 2 5 52 344 358 20 21
363 3 2 5 52 67 68 359 345
364 3 2 5 52 345 359 360 346
365 3 2 5 52 346 360 361 347
366 3 2 5 52 347 361 362 348
367 3 2 5 52 348 362 363 349
368 3 2 5 52 349 363 364 350
369 3 2 5 52 350 364 365 351
370 3 2 5 52 351 365 366 352
371 3 2 5 52 352 366 367 353
372 3 2 5 52 353 367 368 354
373 3 2 5 52 354 368 369 355
374 3 2 5 52 355 369 370 356
375 3 2 5 52 356 370 371 357
376 3 2 5 52 357 371 372 358
377 3 2 5 52 358 372 19 20
378 3 2 5 52 68 7 106 359
379 3 2 5 52 359 106 105 360
380 3 2 5 52 360 105 104 361
381 3 2 5 52 361 104 103 362
382 3 2 5 52 362 103 102 363
383 3 2 5 52 363 102 101 364
384 3 2 5 52 364 101 100 365
385 3 2 5 52 365 100 99 366
386 3 2 5 52 366 99 98 367
387 3 2 5 52 367 98 97 368
388 3 2 5 52 368 97 96 369
389 3 2 5 52 369 96 95 370
390 3 2 5 52 370 95 94 371
391 3 2 5 52 371 94 93 372
392 3 2 5 52 372 93 2 19
393 3 2 5 53 5 51 373 50
394 3 2 5 53 50 373 374 49
395 3 2 5 53 49 374 375 48
396 3 2 5 53 48 375 376 47
397 3 2 5 53 47 376 377 46
398 3 2 5 53 46 377 378 45
399 3 2 5 53 45 378 379 44
400 3 2 5 53 44 379 380 43
401 3 2 5 53 43 380 381 42
402 3 2 5 53 42 381 382 41
403 3 2 5 53 41 382 383 40
404 3 2 5 53 40 383 384 39
405 3 2 5 53 39 384 385 38
406 3 2 5 53 38 385 386 37
407 3 2 5 53 37 386 36 4
408 3 2 5 53 51 52 387 373
409 3 2 5 53 373 387 388 374
410 3 2 5 53 374 388 389 375
411 3 2 5 53 375 389 390 376
412 3 2 5 53 376 390 391 377
413 3 2 5 53 377 391 392 378
414 3 2 5 53 378 392 393 379
415 3 2 5 53 379 393 394 380
416 3 2 5 53 380 394 395 381
417 3 2 5 53 381 395 396 382
418 3 2 5 53 382 396 397 383
419 3 2 5 53 383 397 398 384
420 3 2 5 53 384 398 399 385
421 3 2 5 53 385 399 400 386
422 3 2 5 53 386 400 35 36
423 3 2 5 53 52 53 401 387
424 3 2 5 53 387 401 402 388
425 3 2 5 53 388 402 403 389
426 3 2 5 53 389 403 404 390
427 3 2 5 53 390 404 405 391
428 3 2 5 53 391 405 406 392
429 3 2 5 53 392 406 407 393
430 3 2 5 53 393 407 408 394
431 3 2 5 53 394 408 409 395
432 3 2 5 53 395 409 410 396
433 3 2 5 53 396 410 411 397
434 3 2 5 53 397 411 412 398
435 3 2 5 53 398 412 413 399
436 3 2 5 53 399 413 414 400
437 3 2 5 53 400 414 34 35
438 3 2 5 53 53 54 415 401
439 3 2 5 53 401 415 416 402
440 3 2 5 53 402 416 417 403
441 3 2 5 53 403 417 418 404
442 3 2 5 53 404 418 419 405
443 3 2 5 53 405 419 420 406
444 3 2 5 53 406 420 421 407
445 3 2 5 53 407 421 422 408
446 3 2 5 53 408 422 423 409
447 3 2 5 53 409 423 424 410
448 3 2 5 53 410 424 425 411
449 3 2 5 53 411 425 426 412
450 3 2 5 53 412 426 427 413
451 3 2 5 53 413 427 428 414
452 3 2 5 53 414 428 33 34
453 3 2 5 53 54 55 429 415
454 3 2 5 53 415 429 430 416
455 3 2 5 53 416 430 431 417
456 3 2 5 53 417 431 432 418
457 3 2 5 53 418 432 433 419
458 3 2 5 53 419 433 434 420
459 3 2 5 53 420 434 435 421
460 3 2 5 53 421 435 436 422
461 3 2 5 53 422 436 437 423
462 3 2 5 53 423 437 438 424
463 3 2 5 53 424 438 439 425
464 3 2 5 53 425 439 440 426
465 3 2 5 53 426 440 441 427
466 3 2 5 53 427 441 442 428
467 3 2 5 53 428 442 32 33
468 3 2 5 53 55 56 443 429
469 3 2 5 53 429 443 444 430
470 3 2 5 53 430 444 445 431
471 3 2 5 53 431 445 446 432
472 3 2 5 53 432 446 447 433
473 3 2 5 53 433 447 448 434
474 3 2 5 53 434 448 449 435
475 3 2 5 53 435 449 450 436
476 3 2 5 53 436 450 451 437
477 3 2 5 53 437 451 452 438
478 3 2 5 53 438 452 453 439
479 3 2 5 53 439 453 454 440
480 3 2 5 53 440 454 455 441
481 3 2 5 53 441 455 456 442
482 3 2 5 53 442 456 31 32
483 3 2 5 53 56 57 457 443
484 3 2 5 53 443 457 458 444
485 3 2 5 53 444 458 459 445
486 3 2 5 53 445 459 460 446
487 3 2 5 53 446 460 461 447
488 3 2 5 53 447 461 462 448
489 3 2 5 53 448 462 463 449
490 3 2 5 53 449 463 464 450
491 3 2 5 53 450 464 465 451
492 3 2 5 53 451 465 466 452
493 3 2 5 53 452 466 467 453
494 3 2 5 53 453 467 468 454
495 3 2 5 53 454 468 469 455
496 3 2 5 53 455 469 470 456
497 3 2 5 53 456 470 30 31
498 3 2 5 53 57 58 471 457
499 3 2 5 53 457 471 472 458
500 3 2 5 53 458 472 473 459
501 3 2 5 53 459 473 474 460
502 3 2 5 53 460 474 475 461
503 3 2 5 53 461 475 476 462
504 3 2 5 53 462 476 477 463
505 3 2 5 53 463 477 478 464
506 3 2 5 53 464 478 479 465
507 3 2 5 53 465 479 480 466
508 3 2 5 53 466 480 481 467
509 3 2 5 53 467 481 482 468
510 3 2 5 53 468 482 483 469
511 3 2 5 53 469 483 484 470
512 3 2 5 53 470 484 29 30
513 3 2 5 53 58 59 485 471
514 3 2 5 53 471 485 486 472
515 3 2 5 53 472 486 487 473
516 3 2 5 53 473 487 488 474
517 3 2 5 53 474 488 489 475
518 3 2 5 53 475 489 490 476
519 3 2 5 53 476 490 491 477
520 3 2 5 53 477 491 492 478
521 3 2 5 53 478 492 493 479
522 3 2 5 53 479 493 494 480
523 3 2 5 53 480 494 495 481
524 3 2 5 53 481 495 496 482
525 3 2 5 53 482 496 497 483
526 3 2 5 53 483 497 498 484
527 3 2 5 53 484 498 28 29
528 3 2 5 53 59 60 499 485
529 3 2 5 53 485 499 500 486
530 3 2 5 53 486 500 501 487
531 3 2 5 53 487 501 502 488
532 3 2 5 53 488 502 503 489
533 3 2 5 53 489 503 504 490
534 3 2 5 53 490 504 505 491
535 3 2 5 53 491 505 506 492
536 3 2 5 53 492 506 507 493
537 3 2 5 53 493 507 508 494
538 3 2 5 53 494 508 509 495
539 3 2 5 53 495 509 510 496
540 3 2 5 53 496 510 511 497
541 3 2 5 53 497 511 512 498
542 3 2 5 53 498 512 27 28
543 3 2 5 53 60 6 120 499
544 3 2 5 53 499 120 119 500
545 3 2 5 53 500 119 118 501
546 3 2 5 53 501 118 117 502
547 3 2 5 53 502 117 116 503
548 3 2 5 53 503 116 115 504
549 3 2 5 53 504 115 114 505
550 3 2 5 53 505 114 113 506
551 3 2 5 53 506 113 112 507
552 3 2 5 53 507 112 111 508
553 3 2 5 53 508 111 110 509
554 3 2 5 53 509 110 109 510
555 3 2 5 53 510 109 108 511
556 3 2 5 53 511 108 107 512
557 3 2 5 53 512 107 3 27
$EndElements
