# --| ALYA Eulerian Droplet Data                
# --| Columns displayed:                        
# --| 1. Id number                              
# --| 2. Cluster Volume                         
# --| 3. Spherical droplet Volume (*)           
# --| 4. Compactness_2 (*)                      
# --| 5. Spherical droplet Diameter (*)         
# --| 6. Centroid_x (*)                         
# --| 7. Centroid_y (*)                         
# --| 8. Centroid_z (*)                         
# --| (*) it takes into account the fluid concentration (level set function) 
 
# Time step =        0   Global Iteration =        0   Inner Iteration =        0   Current time = 0.00000E+00   Total number of droplets =        8
#           1                 2                 3                 4                 5                 6                 7                 8
            1   0.56687723E-001   0.49324299E-001   0.27083996E+000   0.25060257E+000  -0.29164312E+000  -0.64884313E+000
            2   0.69795923E-001   0.63589851E-001   0.97992004E+000   0.28454369E+000   0.50237337E+000  -0.75293500E+000
            3   0.15960864E+000   0.15058246E+000   0.94971550E+000   0.43786703E+000   0.30192117E+000   0.30184428E+000
            4   0.80003112E-001   0.74296669E-001   0.74097799E+000   0.30756700E+000  -0.80838830E+000  -0.80284756E+000
            5   0.10370653E+000   0.94109301E-001   0.64201384E+000   0.34615558E+000   0.28532960E+000  -0.27245496E+000
            6   0.42709095E-001   0.32970789E-001   0.11736716E+000   0.20488951E+000   0.49172098E+000   0.72471524E+000
            7   0.28414399E+000   0.27317347E+000   0.99552121E+000   0.58975865E+000  -0.40005030E+000   0.40086405E+000
            8   0.11896041E+000   0.10968346E+000   0.55025966E+000   0.37370218E+000  -0.60027970E+000  -0.20162511E+000
  
# Time step =        1   Global Iteration =        1   Inner Iteration =        1   Current time = 0.30000E-03   Total number of droplets =        8
#           1                 2                 3                 4                 5                 6                 7                 8
            1   0.56687723E-001   0.49324299E-001   0.27083996E+000   0.25060257E+000  -0.29164312E+000  -0.64884313E+000
            2   0.69795923E-001   0.63589851E-001   0.97992004E+000   0.28454369E+000   0.50237337E+000  -0.75293500E+000
            3   0.15960864E+000   0.15058246E+000   0.94971550E+000   0.43786703E+000   0.30192117E+000   0.30184428E+000
            4   0.80003112E-001   0.74296669E-001   0.74097799E+000   0.30756700E+000  -0.80838830E+000  -0.80284756E+000
            5   0.10370653E+000   0.94109301E-001   0.64201384E+000   0.34615558E+000   0.28532960E+000  -0.27245496E+000
            6   0.42709095E-001   0.32970789E-001   0.11736716E+000   0.20488951E+000   0.49172098E+000   0.72471524E+000
            7   0.28414399E+000   0.27317347E+000   0.99552121E+000   0.58975865E+000  -0.40005030E+000   0.40086405E+000
            8   0.11896041E+000   0.10968346E+000   0.55025966E+000   0.37370218E+000  -0.60027970E+000  -0.20162511E+000
  
