 0.00000000E+000
-0.80971025E-008
-0.51782035E-008
 0.00000000E+000
 0.00000000E+000
-0.80971897E-008
-0.51782326E-008
 0.00000000E+000
 0.46178424E-008
-0.21198742E-007
-0.66527281E-007
-0.57515217E-007
-0.19908476E-007
 0.43188442E-008
 0.00000000E+000
 0.00000000E+000
 0.46178431E-008
-0.21198733E-007
-0.66527454E-007
-0.57515313E-007
-0.19908479E-007
 0.43188541E-008
 0.00000000E+000
 0.00000000E+000
 0.00000000E+000
 0.00000000E+000
-0.67489815E-007
-0.67489885E-007
-0.56388541E-007
-0.56388581E-007
 0.00000000E+000
 0.00000000E+000
 0.46922919E-008
 0.46702269E-008
-0.88812098E-007
-0.84285124E-007
 0.46922909E-008
 0.46702324E-008
-0.88812076E-007
-0.84285118E-007
 0.48170821E-008
 0.48170755E-008
-0.89523382E-007
-0.89523353E-007
 0.11280457E-003
 0.11280457E-003
 0.98055445E-004
 0.98055445E-004
-0.83589902E-007
-0.83589900E-007
 0.45407750E-008
 0.45407941E-008
 0.00000000E+000
 0.00000000E+000
 0.00000000E+000
 0.00000000E+000
 0.12714874E-006
 0.12714872E-006
 0.12732140E-006
 0.12732140E-006
 0.65287325E-004
 0.65287325E-004
 0.58633079E-004
 0.58633079E-004
