 0.10000000E-001  0.00000000E+000  0.00000000E+000
 0.97399158E-002  0.79224902E-004  0.71685251E-004
 0.97251517E-002 -0.81201999E-004  0.87441750E-004
 0.10000000E-001  0.00000000E+000  0.00000000E+000
 0.10000000E-001  0.00000000E+000  0.00000000E+000
 0.97399211E-002  0.79224417E-004 -0.71684610E-004
 0.97251575E-002 -0.81202025E-004 -0.87443126E-004
 0.10000000E-001  0.00000000E+000  0.00000000E+000
 0.99093299E-002  0.14056679E-005 -0.14056679E-005
 0.96576128E-002  0.35913037E-005 -0.35913037E-005
 0.97086432E-002 -0.73994811E-005 -0.11762665E-004
 0.97095554E-002  0.85006672E-005 -0.89982896E-005
 0.96544598E-002  0.31329677E-005  0.31329677E-005
 0.99127137E-002  0.12591871E-005  0.12591871E-005
 0.10000000E-001  0.00000000E+000  0.00000000E+000
 0.10000000E-001  0.00000000E+000  0.00000000E+000
 0.99093338E-002  0.13977501E-005  0.13977501E-005
 0.96576173E-002  0.35841397E-005  0.35841397E-005
 0.97086489E-002 -0.73981530E-005  0.11758038E-004
 0.97095612E-002  0.84996011E-005  0.89966673E-005
 0.96544617E-002  0.31368642E-005 -0.31368642E-005
 0.99127192E-002  0.12634781E-005 -0.12634781E-005
 0.10000000E-001  0.00000000E+000  0.00000000E+000
 0.10000000E-001  0.00000000E+000  0.00000000E+000
 0.10000000E-001  0.00000000E+000  0.00000000E+000
 0.10000000E-001  0.00000000E+000  0.00000000E+000
 0.97300900E-002 -0.26251513E-004 -0.14948277E-004
 0.97300856E-002 -0.26248540E-004  0.14947881E-004
 0.96917343E-002 -0.29072897E-005 -0.28973826E-005
 0.96917322E-002 -0.29088558E-005  0.28980330E-005
 0.10000000E-001  0.00000000E+000  0.00000000E+000
 0.10000000E-001  0.00000000E+000  0.00000000E+000
 0.99478449E-002  0.65166910E-004  0.12970831E-017
 0.99475272E-002 -0.60052475E-004 -0.43400958E-018
 0.95945330E-002  0.57653684E-004  0.41609654E-018
 0.95919341E-002 -0.49034655E-004  0.83196766E-018
 0.99478459E-002  0.65168407E-004  0.86001186E-018
 0.99475228E-002 -0.60049019E-004 -0.43661345E-018
 0.95945406E-002  0.57651407E-004 -0.42109733E-018
 0.95919394E-002 -0.49032027E-004 -0.41598406E-018
 0.99432677E-002 -0.42856167E-018  0.61308236E-004
 0.99432717E-002 -0.53177489E-020 -0.61309471E-004
 0.95912059E-002 -0.41179772E-018  0.47898444E-004
 0.95912005E-002  0.83398130E-018 -0.47898477E-004
 0.10214425E-001 -0.17400206E-003 -0.12467535E-003
 0.10214423E-001 -0.17400132E-003  0.12467760E-003
 0.10182886E-001  0.70729311E-004 -0.11405031E-003
 0.10182880E-001  0.70727866E-004  0.11405109E-003
 0.95942899E-002  0.00000000E+000  0.57427341E-004
 0.95942879E-002 -0.41857655E-018 -0.57430274E-004
 0.99514463E-002 -0.43432853E-018  0.63487806E-004
 0.99514441E-002 -0.86590353E-018 -0.63487722E-004
 0.10000000E-001  0.00000000E+000  0.00000000E+000
 0.10000000E-001  0.00000000E+000  0.00000000E+000
 0.10000000E-001  0.00000000E+000  0.00000000E+000
 0.10000000E-001  0.00000000E+000  0.00000000E+000
 0.10079513E-001  0.15846793E-003  0.15540443E-003
 0.10079513E-001  0.15847032E-003 -0.15540098E-003
 0.10081540E-001 -0.15253838E-003  0.15518634E-003
 0.10081544E-001 -0.15254701E-003 -0.15518550E-003
 0.10448446E-001  0.49438703E-004  0.73848866E-004
 0.10448437E-001  0.49439483E-004 -0.73852909E-004
 0.10440559E-001 -0.10211034E-003  0.79933712E-004
 0.10440554E-001 -0.10211121E-003 -0.79934573E-004
