 0.38911729E+006
 0.38911735E+006
 0.38911730E+006
 0.38911729E+006
 0.38911729E+006
 0.38911735E+006
 0.38911730E+006
 0.38911729E+006
 0.38911721E+006
 0.38911765E+006
 0.38911819E+006
 0.38911804E+006
 0.38911763E+006
 0.38911722E+006
 0.38911729E+006
 0.38911729E+006
 0.38911721E+006
 0.38911765E+006
 0.38911819E+006
 0.38911804E+006
 0.38911763E+006
 0.38911722E+006
 0.38911729E+006
 0.38911729E+006
 0.38911729E+006
 0.38911729E+006
 0.38911820E+006
 0.38911820E+006
 0.38911802E+006
 0.38911802E+006
 0.38911729E+006
 0.38911729E+006
 0.38911722E+006
 0.38911722E+006
 0.38911880E+006
 0.38911873E+006
 0.38911722E+006
 0.38911722E+006
 0.38911880E+006
 0.38911873E+006
 0.38911721E+006
 0.38911721E+006
 0.38911881E+006
 0.38911881E+006
 0.38728935E+006
 0.38728935E+006
 0.38752836E+006
 0.38752836E+006
 0.38911871E+006
 0.38911871E+006
 0.38911722E+006
 0.38911722E+006
 0.38911729E+006
 0.38911729E+006
 0.38911729E+006
 0.38911729E+006
 0.38911291E+006
 0.38911291E+006
 0.38911292E+006
 0.38911292E+006
 0.38802685E+006
 0.38802685E+006
 0.38813480E+006
 0.38813480E+006
