 0.00000000E+000
 0.00000000E+000
 0.00000000E+000
 0.00000000E+000
 0.00000000E+000
 0.00000000E+000
 0.00000000E+000
 0.00000000E+000
 0.00000000E+000
 0.00000000E+000
 0.00000000E+000
 0.00000000E+000
 0.00000000E+000
 0.00000000E+000
 0.00000000E+000
 0.00000000E+000
 0.00000000E+000
 0.00000000E+000
 0.00000000E+000
 0.00000000E+000
 0.00000000E+000
 0.00000000E+000
 0.00000000E+000
 0.00000000E+000
 0.00000000E+000
 0.00000000E+000
 0.00000000E+000
 0.00000000E+000
 0.00000000E+000
 0.00000000E+000
 0.00000000E+000
 0.00000000E+000
 0.00000000E+000
 0.00000000E+000
 0.00000000E+000
 0.00000000E+000
 0.00000000E+000
 0.00000000E+000
 0.00000000E+000
 0.00000000E+000
 0.00000000E+000
 0.00000000E+000
 0.00000000E+000
 0.00000000E+000
-0.10341966E+005
-0.10341966E+005
-0.89126636E+004
-0.89126636E+004
 0.00000000E+000
 0.00000000E+000
 0.00000000E+000
 0.00000000E+000
 0.00000000E+000
 0.00000000E+000
 0.00000000E+000
 0.00000000E+000
 0.00000000E+000
 0.00000000E+000
 0.00000000E+000
 0.00000000E+000
-0.44539032E+004
-0.44539031E+004
-0.38383551E+004
-0.38383551E+004
