0.00000000E+000
-8.95163113E-005
-3.18013730E-004
-6.32105427E-004
-1.00748162E-003
-1.42500183E-003
-1.86996596E-003
-2.33040088E-003
-2.79625931E-003
-3.25902703E-003
-3.71158281E-003
-4.14824794E-003
-4.56484881E-003
-4.95859556E-003
-5.32777844E-003
-5.67142533E-003
-5.98902374E-003
-6.28033033E-003
-6.54525322E-003
-6.78378507E-003
-6.99596873E-003
