GiD Post Results File 1.0
 
Result TEMPE ALYA  0.00000000E+00 Scalar OnNodes
ComponentNames TEMPE
Values
          1  0.10000000E+002
          2  0.00000000E+000
          3  0.00000000E+000
          4  0.00000000E+000
          5  0.00000000E+000
          6  0.00000000E+000
          7  0.00000000E+000
          8  0.00000000E+000
          9  0.00000000E+000
         10  0.00000000E+000
         11  0.10000000E+002
         12  0.50000000E+001
         13  0.00000000E+000
         14  0.00000000E+000
         15  0.00000000E+000
         16  0.00000000E+000
         17  0.00000000E+000
         18  0.00000000E+000
         19  0.00000000E+000
         20  0.00000000E+000
         21  0.00000000E+000
         22  0.50000000E+001
End values

Result TEMPE ALYA  0.10000000E+00 Scalar OnNodes
ComponentNames TEMPE
Values
          1  0.10000000E+002
          2  0.10142634E+002
          3  0.10290488E+002
          4  0.10449423E+002
          5  0.10626654E+002
          6  0.10831639E+002
          7  0.10077232E+002
          8  0.93812621E+001
          9  0.87687120E+001
         10  0.68564124E+001
         11  0.10000000E+002
         12  0.50000000E+001
         13  0.10057366E+002
         14  0.10109512E+002
         15  0.10150577E+002
         16  0.10173346E+002
         17  0.10168361E+002
         18  0.91227680E+001
         19  0.80187379E+001
         20  0.68312880E+001
         21  0.59435876E+001
         22  0.50000000E+001
End values

