GiD Post Results File 1.0
 
Result FIE01 ALYA  0.00000000E+00 Vector OnNodes
ComponentNames FIE01_X,FIE01_Y,FIE01_Z
Values
          1  0.10000000E+001 -0.10000000E+001
          2  0.20000000E+001 -0.20000000E+001
          3  0.30000000E+001 -0.30000000E+001
          4  0.40000000E+001 -0.40000000E+001
          5  0.50000000E+001 -0.50000000E+001
          6  0.60000000E+001 -0.60000000E+001
          7  0.70000000E+001 -0.70000000E+001
          8  0.80000000E+001 -0.80000000E+001
          9  0.90000000E+001 -0.90000000E+001
         10  0.10000000E+002 -0.10000000E+002
         11  0.11000000E+002 -0.11000000E+002
         12  0.12000000E+002 -0.12000000E+002
         13  0.13000000E+002 -0.13000000E+002
         14  0.14000000E+002 -0.14000000E+002
         15  0.15000000E+002 -0.15000000E+002
         16  0.16000000E+002 -0.16000000E+002
         17  0.17000000E+002 -0.17000000E+002
         18  0.18000000E+002 -0.18000000E+002
         19  0.19000000E+002 -0.19000000E+002
         20  0.20000000E+002 -0.20000000E+002
         21  0.21000000E+002 -0.21000000E+002
         22  0.22000000E+002 -0.22000000E+002
         23  0.23000000E+002 -0.23000000E+002
         24  0.24000000E+002 -0.24000000E+002
         25  0.25000000E+002 -0.25000000E+002
         26  0.26000000E+002 -0.26000000E+002
         27  0.27000000E+002 -0.27000000E+002
         28  0.28000000E+002 -0.28000000E+002
         29  0.29000000E+002 -0.29000000E+002
         30  0.30000000E+002 -0.30000000E+002
         31  0.31000000E+002 -0.31000000E+002
         32  0.32000000E+002 -0.32000000E+002
         33  0.33000000E+002 -0.33000000E+002
         34  0.34000000E+002 -0.34000000E+002
         35  0.35000000E+002 -0.35000000E+002
         36  0.36000000E+002 -0.36000000E+002
         37  0.37000000E+002 -0.37000000E+002
         38  0.38000000E+002 -0.38000000E+002
         39  0.39000000E+002 -0.39000000E+002
         40  0.40000000E+002 -0.40000000E+002
         41  0.41000000E+002 -0.41000000E+002
         42  0.42000000E+002 -0.42000000E+002
         43  0.43000000E+002 -0.43000000E+002
         44  0.44000000E+002 -0.44000000E+002
         45  0.45000000E+002 -0.45000000E+002
         46  0.46000000E+002 -0.46000000E+002
         47  0.47000000E+002 -0.47000000E+002
         48  0.48000000E+002 -0.48000000E+002
         49  0.49000000E+002 -0.49000000E+002
         50  0.50000000E+002 -0.50000000E+002
         51  0.51000000E+002 -0.51000000E+002
         52  0.52000000E+002 -0.52000000E+002
         53  0.53000000E+002 -0.53000000E+002
         54  0.54000000E+002 -0.54000000E+002
         55  0.55000000E+002 -0.55000000E+002
         56  0.56000000E+002 -0.56000000E+002
         57  0.57000000E+002 -0.57000000E+002
         58  0.58000000E+002 -0.58000000E+002
         59  0.59000000E+002 -0.59000000E+002
         60  0.60000000E+002 -0.60000000E+002
         61  0.61000000E+002 -0.61000000E+002
         62  0.62000000E+002 -0.62000000E+002
         63  0.63000000E+002 -0.63000000E+002
         64  0.64000000E+002 -0.64000000E+002
         65  0.65000000E+002 -0.65000000E+002
         66  0.66000000E+002 -0.66000000E+002
         67  0.67000000E+002 -0.67000000E+002
         68  0.68000000E+002 -0.68000000E+002
         69  0.69000000E+002 -0.69000000E+002
         70  0.70000000E+002 -0.70000000E+002
         71  0.71000000E+002 -0.71000000E+002
         72  0.72000000E+002 -0.72000000E+002
         73  0.73000000E+002 -0.73000000E+002
         74  0.74000000E+002 -0.74000000E+002
         75  0.75000000E+002 -0.75000000E+002
         76  0.76000000E+002 -0.76000000E+002
         77  0.77000000E+002 -0.77000000E+002
         78  0.78000000E+002 -0.78000000E+002
         79  0.79000000E+002 -0.79000000E+002
         80  0.80000000E+002 -0.80000000E+002
         81  0.81000000E+002 -0.81000000E+002
         82  0.82000000E+002 -0.82000000E+002
         83  0.83000000E+002 -0.83000000E+002
         84  0.84000000E+002 -0.84000000E+002
         85  0.85000000E+002 -0.85000000E+002
         86  0.86000000E+002 -0.86000000E+002
         87  0.87000000E+002 -0.87000000E+002
         88  0.88000000E+002 -0.88000000E+002
         89  0.89000000E+002 -0.89000000E+002
         90  0.90000000E+002 -0.90000000E+002
         91  0.91000000E+002 -0.91000000E+002
         92  0.92000000E+002 -0.92000000E+002
         93  0.93000000E+002 -0.93000000E+002
         94  0.94000000E+002 -0.94000000E+002
         95  0.95000000E+002 -0.95000000E+002
         96  0.96000000E+002 -0.96000000E+002
         97  0.97000000E+002 -0.97000000E+002
         98  0.98000000E+002 -0.98000000E+002
         99  0.99000000E+002 -0.99000000E+002
        100  0.10000000E+003 -0.10000000E+003
        101  0.10100000E+003 -0.10100000E+003
        102  0.10200000E+003 -0.10200000E+003
        103  0.10300000E+003 -0.10300000E+003
        104  0.10400000E+003 -0.10400000E+003
        105  0.10500000E+003 -0.10500000E+003
        106  0.10600000E+003 -0.10600000E+003
        107  0.10700000E+003 -0.10700000E+003
        108  0.10800000E+003 -0.10800000E+003
        109  0.10900000E+003 -0.10900000E+003
        110  0.11000000E+003 -0.11000000E+003
        111  0.11100000E+003 -0.11100000E+003
        112  0.11200000E+003 -0.11200000E+003
        113  0.11300000E+003 -0.11300000E+003
        114  0.11400000E+003 -0.11400000E+003
        115  0.11500000E+003 -0.11500000E+003
        116  0.11600000E+003 -0.11600000E+003
        117  0.11700000E+003 -0.11700000E+003
        118  0.11800000E+003 -0.11800000E+003
        119  0.11900000E+003 -0.11900000E+003
        120  0.12000000E+003 -0.12000000E+003
        121  0.12100000E+003 -0.12100000E+003
End values

GaussPoints GP Elemtype Triangle
Number of Gauss Points:   1
Natural Coordinates: Internal
End GaussPoints
Result FIE02 ALYA  0.00000000E+00 Vector OnGaussPoints GP
ComponentNames FIE02_X,FIE02_Y,FIE02_Z
Values
          1  0.10000000E+001 -0.10000000E+001
          2  0.20000000E+001 -0.20000000E+001
          3  0.30000000E+001 -0.30000000E+001
          4  0.40000000E+001 -0.40000000E+001
          5  0.50000000E+001 -0.50000000E+001
          6  0.60000000E+001 -0.60000000E+001
          7  0.70000000E+001 -0.70000000E+001
          8  0.80000000E+001 -0.80000000E+001
          9  0.90000000E+001 -0.90000000E+001
         10  0.10000000E+002 -0.10000000E+002
         11  0.11000000E+002 -0.11000000E+002
         12  0.12000000E+002 -0.12000000E+002
         13  0.13000000E+002 -0.13000000E+002
         14  0.14000000E+002 -0.14000000E+002
         15  0.15000000E+002 -0.15000000E+002
         16  0.16000000E+002 -0.16000000E+002
         17  0.17000000E+002 -0.17000000E+002
         18  0.18000000E+002 -0.18000000E+002
         19  0.19000000E+002 -0.19000000E+002
         20  0.20000000E+002 -0.20000000E+002
         21  0.21000000E+002 -0.21000000E+002
         22  0.22000000E+002 -0.22000000E+002
         23  0.23000000E+002 -0.23000000E+002
         24  0.24000000E+002 -0.24000000E+002
         25  0.25000000E+002 -0.25000000E+002
         26  0.26000000E+002 -0.26000000E+002
         27  0.27000000E+002 -0.27000000E+002
         28  0.28000000E+002 -0.28000000E+002
         29  0.29000000E+002 -0.29000000E+002
         30  0.30000000E+002 -0.30000000E+002
         31  0.31000000E+002 -0.31000000E+002
         32  0.32000000E+002 -0.32000000E+002
         33  0.33000000E+002 -0.33000000E+002
         34  0.34000000E+002 -0.34000000E+002
         35  0.35000000E+002 -0.35000000E+002
         36  0.36000000E+002 -0.36000000E+002
         37  0.37000000E+002 -0.37000000E+002
         38  0.38000000E+002 -0.38000000E+002
         39  0.39000000E+002 -0.39000000E+002
         40  0.40000000E+002 -0.40000000E+002
         41  0.41000000E+002 -0.41000000E+002
         42  0.42000000E+002 -0.42000000E+002
         43  0.43000000E+002 -0.43000000E+002
         44  0.44000000E+002 -0.44000000E+002
         45  0.45000000E+002 -0.45000000E+002
         46  0.46000000E+002 -0.46000000E+002
         47  0.47000000E+002 -0.47000000E+002
         48  0.48000000E+002 -0.48000000E+002
         49  0.49000000E+002 -0.49000000E+002
         50  0.50000000E+002 -0.50000000E+002
         51  0.51000000E+002 -0.51000000E+002
         52  0.52000000E+002 -0.52000000E+002
         53  0.53000000E+002 -0.53000000E+002
         54  0.54000000E+002 -0.54000000E+002
         55  0.55000000E+002 -0.55000000E+002
         56  0.56000000E+002 -0.56000000E+002
         57  0.57000000E+002 -0.57000000E+002
         58  0.58000000E+002 -0.58000000E+002
         59  0.59000000E+002 -0.59000000E+002
         60  0.60000000E+002 -0.60000000E+002
         61  0.61000000E+002 -0.61000000E+002
         62  0.62000000E+002 -0.62000000E+002
         63  0.63000000E+002 -0.63000000E+002
         64  0.64000000E+002 -0.64000000E+002
         65  0.65000000E+002 -0.65000000E+002
         66  0.66000000E+002 -0.66000000E+002
         67  0.67000000E+002 -0.67000000E+002
         68  0.68000000E+002 -0.68000000E+002
         69  0.69000000E+002 -0.69000000E+002
         70  0.70000000E+002 -0.70000000E+002
         71  0.71000000E+002 -0.71000000E+002
         72  0.72000000E+002 -0.72000000E+002
         73  0.73000000E+002 -0.73000000E+002
         74  0.74000000E+002 -0.74000000E+002
         75  0.75000000E+002 -0.75000000E+002
         76  0.76000000E+002 -0.76000000E+002
         77  0.77000000E+002 -0.77000000E+002
         78  0.78000000E+002 -0.78000000E+002
         79  0.79000000E+002 -0.79000000E+002
         80  0.80000000E+002 -0.80000000E+002
         81  0.81000000E+002 -0.81000000E+002
         82  0.82000000E+002 -0.82000000E+002
         83  0.83000000E+002 -0.83000000E+002
         84  0.84000000E+002 -0.84000000E+002
         85  0.85000000E+002 -0.85000000E+002
         86  0.86000000E+002 -0.86000000E+002
         87  0.87000000E+002 -0.87000000E+002
         88  0.88000000E+002 -0.88000000E+002
         89  0.89000000E+002 -0.89000000E+002
         90  0.90000000E+002 -0.90000000E+002
         91  0.91000000E+002 -0.91000000E+002
         92  0.92000000E+002 -0.92000000E+002
         93  0.93000000E+002 -0.93000000E+002
         94  0.94000000E+002 -0.94000000E+002
         95  0.95000000E+002 -0.95000000E+002
         96  0.96000000E+002 -0.96000000E+002
         97  0.97000000E+002 -0.97000000E+002
         98  0.98000000E+002 -0.98000000E+002
         99  0.99000000E+002 -0.99000000E+002
        100  0.10000000E+003 -0.10000000E+003
        101  0.10100000E+003 -0.10100000E+003
        102  0.10200000E+003 -0.10200000E+003
        103  0.10300000E+003 -0.10300000E+003
        104  0.10400000E+003 -0.10400000E+003
        105  0.10500000E+003 -0.10500000E+003
        106  0.10600000E+003 -0.10600000E+003
        107  0.10700000E+003 -0.10700000E+003
        108  0.10800000E+003 -0.10800000E+003
        109  0.10900000E+003 -0.10900000E+003
        110  0.11000000E+003 -0.11000000E+003
        111  0.11100000E+003 -0.11100000E+003
        112  0.11200000E+003 -0.11200000E+003
        113  0.11300000E+003 -0.11300000E+003
        114  0.11400000E+003 -0.11400000E+003
        115  0.11500000E+003 -0.11500000E+003
        116  0.11600000E+003 -0.11600000E+003
        117  0.11700000E+003 -0.11700000E+003
        118  0.11800000E+003 -0.11800000E+003
        119  0.11900000E+003 -0.11900000E+003
        120  0.12000000E+003 -0.12000000E+003
        121  0.12100000E+003 -0.12100000E+003
        122  0.12200000E+003 -0.12200000E+003
        123  0.12300000E+003 -0.12300000E+003
        124  0.12400000E+003 -0.12400000E+003
        125  0.12500000E+003 -0.12500000E+003
        126  0.12600000E+003 -0.12600000E+003
        127  0.12700000E+003 -0.12700000E+003
        128  0.12800000E+003 -0.12800000E+003
        129  0.12900000E+003 -0.12900000E+003
        130  0.13000000E+003 -0.13000000E+003
        131  0.13100000E+003 -0.13100000E+003
        132  0.13200000E+003 -0.13200000E+003
        133  0.13300000E+003 -0.13300000E+003
        134  0.13400000E+003 -0.13400000E+003
        135  0.13500000E+003 -0.13500000E+003
        136  0.13600000E+003 -0.13600000E+003
        137  0.13700000E+003 -0.13700000E+003
        138  0.13800000E+003 -0.13800000E+003
        139  0.13900000E+003 -0.13900000E+003
        140  0.14000000E+003 -0.14000000E+003
        141  0.14100000E+003 -0.14100000E+003
        142  0.14200000E+003 -0.14200000E+003
        143  0.14300000E+003 -0.14300000E+003
        144  0.14400000E+003 -0.14400000E+003
        145  0.14500000E+003 -0.14500000E+003
        146  0.14600000E+003 -0.14600000E+003
        147  0.14700000E+003 -0.14700000E+003
        148  0.14800000E+003 -0.14800000E+003
        149  0.14900000E+003 -0.14900000E+003
        150  0.15000000E+003 -0.15000000E+003
        151  0.15100000E+003 -0.15100000E+003
        152  0.15200000E+003 -0.15200000E+003
        153  0.15300000E+003 -0.15300000E+003
        154  0.15400000E+003 -0.15400000E+003
        155  0.15500000E+003 -0.15500000E+003
        156  0.15600000E+003 -0.15600000E+003
        157  0.15700000E+003 -0.15700000E+003
        158  0.15800000E+003 -0.15800000E+003
        159  0.15900000E+003 -0.15900000E+003
        160  0.16000000E+003 -0.16000000E+003
        161  0.16100000E+003 -0.16100000E+003
        162  0.16200000E+003 -0.16200000E+003
        163  0.16300000E+003 -0.16300000E+003
        164  0.16400000E+003 -0.16400000E+003
        165  0.16500000E+003 -0.16500000E+003
        166  0.16600000E+003 -0.16600000E+003
        167  0.16700000E+003 -0.16700000E+003
        168  0.16800000E+003 -0.16800000E+003
        169  0.16900000E+003 -0.16900000E+003
        170  0.17000000E+003 -0.17000000E+003
        171  0.17100000E+003 -0.17100000E+003
        172  0.17200000E+003 -0.17200000E+003
        173  0.17300000E+003 -0.17300000E+003
        174  0.17400000E+003 -0.17400000E+003
        175  0.17500000E+003 -0.17500000E+003
        176  0.17600000E+003 -0.17600000E+003
        177  0.17700000E+003 -0.17700000E+003
        178  0.17800000E+003 -0.17800000E+003
        179  0.17900000E+003 -0.17900000E+003
        180  0.18000000E+003 -0.18000000E+003
        181  0.18100000E+003 -0.18100000E+003
        182  0.18200000E+003 -0.18200000E+003
        183  0.18300000E+003 -0.18300000E+003
        184  0.18400000E+003 -0.18400000E+003
        185  0.18500000E+003 -0.18500000E+003
        186  0.18600000E+003 -0.18600000E+003
        187  0.18700000E+003 -0.18700000E+003
        188  0.18800000E+003 -0.18800000E+003
        189  0.18900000E+003 -0.18900000E+003
        190  0.19000000E+003 -0.19000000E+003
        191  0.19100000E+003 -0.19100000E+003
        192  0.19200000E+003 -0.19200000E+003
        193  0.19300000E+003 -0.19300000E+003
        194  0.19400000E+003 -0.19400000E+003
        195  0.19500000E+003 -0.19500000E+003
        196  0.19600000E+003 -0.19600000E+003
        197  0.19700000E+003 -0.19700000E+003
        198  0.19800000E+003 -0.19800000E+003
        199  0.19900000E+003 -0.19900000E+003
        200  0.20000000E+003 -0.20000000E+003
End values

GaussPoints GP Elemtype Triangle
Number of Gauss Points:   1
Natural Coordinates: Internal
End GaussPoints
Result FIE03 ALYA  0.00000000E+00 Vector OnGaussPoints GP
ComponentNames FIE03_X,FIE03_Y,FIE03_Z
Values
          1  0.10000000E+001 -0.10000000E+001
          2  0.20000000E+001 -0.20000000E+001
          3  0.30000000E+001 -0.30000000E+001
          4  0.40000000E+001 -0.40000000E+001
          5  0.50000000E+001 -0.50000000E+001
          6  0.60000000E+001 -0.60000000E+001
          7  0.70000000E+001 -0.70000000E+001
          8  0.80000000E+001 -0.80000000E+001
          9  0.90000000E+001 -0.90000000E+001
         10  0.10000000E+002 -0.10000000E+002
         11  0.11000000E+002 -0.11000000E+002
         12  0.12000000E+002 -0.12000000E+002
         13  0.13000000E+002 -0.13000000E+002
         14  0.14000000E+002 -0.14000000E+002
         15  0.15000000E+002 -0.15000000E+002
         16  0.16000000E+002 -0.16000000E+002
         17  0.17000000E+002 -0.17000000E+002
         18  0.18000000E+002 -0.18000000E+002
         19  0.19000000E+002 -0.19000000E+002
         20  0.20000000E+002 -0.20000000E+002
         21  0.21000000E+002 -0.21000000E+002
         22  0.22000000E+002 -0.22000000E+002
         23  0.23000000E+002 -0.23000000E+002
         24  0.24000000E+002 -0.24000000E+002
         25  0.25000000E+002 -0.25000000E+002
         26  0.26000000E+002 -0.26000000E+002
         27  0.27000000E+002 -0.27000000E+002
         28  0.28000000E+002 -0.28000000E+002
         29  0.29000000E+002 -0.29000000E+002
         30  0.30000000E+002 -0.30000000E+002
         31  0.31000000E+002 -0.31000000E+002
         32  0.32000000E+002 -0.32000000E+002
         33  0.33000000E+002 -0.33000000E+002
         34  0.34000000E+002 -0.34000000E+002
         35  0.35000000E+002 -0.35000000E+002
         36  0.36000000E+002 -0.36000000E+002
         37  0.37000000E+002 -0.37000000E+002
         38  0.38000000E+002 -0.38000000E+002
         39  0.39000000E+002 -0.39000000E+002
         40  0.40000000E+002 -0.40000000E+002
End values

