0.60635373E+000
0.35446665E+000
0.60635373E+000
0.12791622E+001
0.60635400E+000
0.35460585E+000
0.60635400E+000
0.12797083E+001
0.53074505E+000
0.29673665E+000
0.53549713E+000
0.11926381E+001
0.47480235E+000
0.22901069E+000
0.46168524E+000
0.10063125E+001
0.43478716E+000
0.16387333E+000
0.42152958E+000
0.84824824E+000
0.42711752E+000
0.13442482E+000
0.44506842E+000
0.77733504E+000
0.42247645E+000
0.13552585E+000
0.51122329E+000
0.76501042E+000
0.41636927E+000
0.14089479E+000
0.58602312E+000
0.76401706E+000
0.41809010E+000
0.13970339E+000
0.65819390E+000
0.75183410E+000
0.42767647E+000
0.13360544E+000
0.70327507E+000
0.73543705E+000
0.43830831E+000
0.13010418E+000
0.71102465E+000
0.72724027E+000
0.44157632E+000
0.13127192E+000
0.70293008E+000
0.72768282E+000
0.43877877E+000
0.13261282E+000
0.69649698E+000
0.72713210E+000
0.43809883E+000
0.13090060E+000
0.69278490E+000
0.71982548E+000
0.44195150E+000
0.12750860E+000
0.69031395E+000
0.70969183E+000
0.44568672E+000
0.12560049E+000
0.68921413E+000
0.70365608E+000
0.44534259E+000
0.12588887E+000
0.68952975E+000
0.70245586E+000
0.44281549E+000
0.12630591E+000
0.69040052E+000
0.70121603E+000
0.44193132E+000
0.12546781E+000
0.69125496E+000
0.69743829E+000
0.44279661E+000
0.12426344E+000
0.69201155E+000
0.69343525E+000
0.44289493E+000
0.12393710E+000
0.69301848E+000
0.69167644E+000
0.44136967E+000
0.12429768E+000
0.69439693E+000
0.69136260E+000
0.43976985E+000
0.12439442E+000
0.69584766E+000
0.69050187E+000
0.43915024E+000
0.12403899E+000
0.69723798E+000
0.68895304E+000
0.43888681E+000
0.12381976E+000
0.69858978E+000
0.68791875E+000
0.43811286E+000
0.12396676E+000
0.70007718E+000
0.68777615E+000
0.43707123E+000
0.12419370E+000
0.70158803E+000
0.68779841E+000
0.43635790E+000
0.12422891E+000
0.70305185E+000
0.68752208E+000
0.43599114E+000
0.12419931E+000
0.70441449E+000
0.68721144E+000
0.43560752E+000
0.12427778E+000
0.70574272E+000
0.68719344E+000
0.43510005E+000
0.12442469E+000
0.70703549E+000
0.68734461E+000
