0.82333461E-011
0.20311065E+003
-0.82460634E-011
-0.80499549E+002
0.80824563E-011
0.20224223E+003
-0.81332579E-011
-0.80296967E+002
0.21426111E+002
0.22738007E+003
0.44882942E+001
-0.34109402E+002
0.28865954E+002
0.30000379E+003
0.12879503E+002
-0.18455921E+002
0.41451616E+002
0.38669777E+003
0.37601091E+002
-0.15765501E+002
0.43183947E+002
0.42239788E+003
0.49591718E+002
-0.15543773E+002
0.43515114E+002
0.41405545E+003
0.44298366E+002
-0.13171594E+002
0.38922307E+002
0.39781787E+003
0.30954144E+002
-0.84543110E+001
0.33861451E+002
0.39244588E+003
0.18249534E+002
-0.50081657E+001
0.31609687E+002
0.39894696E+003
0.81049498E+001
-0.30264764E+001
0.31045357E+002
0.40423820E+003
0.27114282E+001
-0.19866861E+001
0.30409109E+002
0.40240330E+003
0.14364751E+001
-0.13778582E+001
0.29346236E+002
0.39879744E+003
0.15614436E+001
-0.64762200E+000
0.28555396E+002
0.39896013E+003
0.17616878E+001
0.12240641E+000
0.28345576E+002
0.40217625E+003
0.15637027E+001
0.58519580E+000
0.28263160E+002
0.40399996E+003
0.10908654E+001
0.74731301E+000
0.27937463E+002
0.40269436E+003
0.70765625E+000
0.86578666E+000
0.27582059E+002
0.40075927E+003
0.51581087E+000
0.11197052E+001
0.27533739E+002
0.40058347E+003
0.34229438E+000
0.13942218E+001
0.27720651E+002
0.40132533E+003
0.64965674E-001
0.15405941E+001
0.27884774E+002
0.40108656E+003
-0.22572380E+000
0.15962049E+001
0.27931133E+002
0.39974829E+003
-0.42086780E+000
0.16733319E+001
0.28001268E+002
0.39870599E+003
-0.54825471E+000
0.17909698E+001
0.28197561E+002
0.39847844E+003
-0.69157994E+000
0.18816995E+001
0.28421274E+002
0.39823289E+003
-0.86307046E+000
0.19212021E+001
0.28585753E+002
0.39750263E+003
-0.10094252E+001
0.19472496E+001
0.28710565E+002
0.39662550E+003
-0.11177954E+001
0.19895034E+001
0.28852888E+002
0.39608621E+003
-0.12150249E+001
0.20314376E+001
0.29013544E+002
0.39573753E+003
-0.13221639E+001
0.20562676E+001
0.29145144E+002
0.39528148E+003
-0.14256453E+001
0.20692469E+001
0.29242088E+002
0.39473312E+003
-0.15119957E+001
0.20835516E+001
