GiD Post Results File 1.0
 
Result GROUP ALYA  0.00000000E+00 Scalar OnNodes
ComponentNames GROUP
Values
          1  0.10000000E+001
          2  0.10000000E+001
          3  0.10000000E+001
          4  0.10000000E+001
          5  0.10000000E+001
          6  0.20000000E+001
          7  0.20000000E+001
          8  0.10000000E+001
          9  0.20000000E+001
         10  0.20000000E+001
         11  0.30000000E+001
         12  0.20000000E+001
         13  0.30000000E+001
         14  0.20000000E+001
         15  0.30000000E+001
         16  0.30000000E+001
         17  0.40000000E+001
         18  0.40000000E+001
         19  0.30000000E+001
         20  0.50000000E+001
         21  0.40000000E+001
         22  0.30000000E+001
         23  0.40000000E+001
         24  0.60000000E+001
         25  0.50000000E+001
         26  0.50000000E+001
         27  0.40000000E+001
         28  0.60000000E+001
         29  0.40000000E+001
         30  0.60000000E+001
         31  0.50000000E+001
         32  0.50000000E+001
         33  0.70000000E+001
         34  0.80000000E+001
         35  0.60000000E+001
         36  0.80000000E+001
         37  0.60000000E+001
         38  0.80000000E+001
         39  0.60000000E+001
         40  0.50000000E+001
         41  0.70000000E+001
         42  0.90000000E+001
         43  0.70000000E+001
         44  0.80000000E+001
         45  0.10000000E+002
         46  0.80000000E+001
         47  0.10000000E+002
         48  0.70000000E+001
         49  0.90000000E+001
         50  0.70000000E+001
         51  0.80000000E+001
         52  0.10000000E+002
         53  0.90000000E+001
         54  0.11000000E+002
         55  0.90000000E+001
         56  0.70000000E+001
         57  0.13000000E+002
         58  0.10000000E+002
         59  0.13000000E+002
         60  0.90000000E+001
         61  0.10000000E+002
         62  0.11000000E+002
         63  0.13000000E+002
         64  0.10000000E+002
         65  0.12000000E+002
         66  0.14000000E+002
         67  0.11000000E+002
         68  0.90000000E+001
         69  0.11000000E+002
         70  0.14000000E+002
         71  0.11000000E+002
         72  0.15000000E+002
         73  0.13000000E+002
         74  0.13000000E+002
         75  0.15000000E+002
         76  0.13000000E+002
         77  0.12000000E+002
         78  0.12000000E+002
         79  0.15000000E+002
         80  0.14000000E+002
         81  0.11000000E+002
         82  0.14000000E+002
         83  0.16000000E+002
         84  0.14000000E+002
         85  0.16000000E+002
         86  0.12000000E+002
         87  0.19000000E+002
         88  0.15000000E+002
         89  0.12000000E+002
         90  0.17000000E+002
         91  0.19000000E+002
         92  0.15000000E+002
         93  0.15000000E+002
         94  0.19000000E+002
         95  0.14000000E+002
         96  0.16000000E+002
         97  0.19000000E+002
         98  0.16000000E+002
         99  0.12000000E+002
        100  0.17000000E+002
        101  0.19000000E+002
        102  0.16000000E+002
        103  0.18000000E+002
        104  0.17000000E+002
        105  0.19000000E+002
        106  0.16000000E+002
        107  0.17000000E+002
        108  0.18000000E+002
        109  0.17000000E+002
        110  0.20000000E+002
        111  0.18000000E+002
        112  0.18000000E+002
        113  0.17000000E+002
        114  0.18000000E+002
        115  0.20000000E+002
        116  0.20000000E+002
        117  0.20000000E+002
        118  0.18000000E+002
        119  0.20000000E+002
        120  0.18000000E+002
        121  0.20000000E+002
End values

GaussPoints GP Elemtype Triangle
Number of Gauss Points:   1
Natural Coordinates: Internal
End GaussPoints
Result FIE01 ALYA  0.00000000E+00 Vector OnGaussPoints GP
ComponentNames FIE01_X,FIE01_Y,FIE01_Z
Values
          1  0.10000000E+001 -0.10000000E+001
          2  0.20000000E+001 -0.20000000E+001
          3  0.30000000E+001 -0.30000000E+001
          4  0.40000000E+001 -0.40000000E+001
          5  0.50000000E+001 -0.50000000E+001
          6  0.60000000E+001 -0.60000000E+001
          7  0.70000000E+001 -0.70000000E+001
          8  0.80000000E+001 -0.80000000E+001
          9  0.90000000E+001 -0.90000000E+001
         10  0.10000000E+002 -0.10000000E+002
         11  0.11000000E+002 -0.11000000E+002
         12  0.12000000E+002 -0.12000000E+002
         13  0.13000000E+002 -0.13000000E+002
         14  0.14000000E+002 -0.14000000E+002
         15  0.15000000E+002 -0.15000000E+002
         16  0.16000000E+002 -0.16000000E+002
         17  0.17000000E+002 -0.17000000E+002
         18  0.18000000E+002 -0.18000000E+002
         19  0.19000000E+002 -0.19000000E+002
         20  0.20000000E+002 -0.20000000E+002
         21  0.21000000E+002 -0.21000000E+002
         22  0.22000000E+002 -0.22000000E+002
         23  0.23000000E+002 -0.23000000E+002
         24  0.24000000E+002 -0.24000000E+002
         25  0.25000000E+002 -0.25000000E+002
         26  0.26000000E+002 -0.26000000E+002
         27  0.27000000E+002 -0.27000000E+002
         28  0.28000000E+002 -0.28000000E+002
         29  0.29000000E+002 -0.29000000E+002
         30  0.30000000E+002 -0.30000000E+002
         31  0.31000000E+002 -0.31000000E+002
         32  0.32000000E+002 -0.32000000E+002
         33  0.33000000E+002 -0.33000000E+002
         34  0.34000000E+002 -0.34000000E+002
         35  0.35000000E+002 -0.35000000E+002
         36  0.36000000E+002 -0.36000000E+002
         37  0.37000000E+002 -0.37000000E+002
         38  0.38000000E+002 -0.38000000E+002
         39  0.39000000E+002 -0.39000000E+002
         40  0.40000000E+002 -0.40000000E+002
         41  0.41000000E+002 -0.41000000E+002
         42  0.42000000E+002 -0.42000000E+002
         43  0.43000000E+002 -0.43000000E+002
         44  0.44000000E+002 -0.44000000E+002
         45  0.45000000E+002 -0.45000000E+002
         46  0.46000000E+002 -0.46000000E+002
         47  0.47000000E+002 -0.47000000E+002
         48  0.48000000E+002 -0.48000000E+002
         49  0.49000000E+002 -0.49000000E+002
         50  0.50000000E+002 -0.50000000E+002
         51  0.51000000E+002 -0.51000000E+002
         52  0.52000000E+002 -0.52000000E+002
         53  0.53000000E+002 -0.53000000E+002
         54  0.54000000E+002 -0.54000000E+002
         55  0.55000000E+002 -0.55000000E+002
         56  0.56000000E+002 -0.56000000E+002
         57  0.57000000E+002 -0.57000000E+002
         58  0.58000000E+002 -0.58000000E+002
         59  0.59000000E+002 -0.59000000E+002
         60  0.60000000E+002 -0.60000000E+002
         61  0.61000000E+002 -0.61000000E+002
         62  0.62000000E+002 -0.62000000E+002
         63  0.63000000E+002 -0.63000000E+002
         64  0.64000000E+002 -0.64000000E+002
         65  0.65000000E+002 -0.65000000E+002
         66  0.66000000E+002 -0.66000000E+002
         67  0.67000000E+002 -0.67000000E+002
         68  0.68000000E+002 -0.68000000E+002
         69  0.69000000E+002 -0.69000000E+002
         70  0.70000000E+002 -0.70000000E+002
         71  0.71000000E+002 -0.71000000E+002
         72  0.72000000E+002 -0.72000000E+002
         73  0.73000000E+002 -0.73000000E+002
         74  0.74000000E+002 -0.74000000E+002
         75  0.75000000E+002 -0.75000000E+002
         76  0.76000000E+002 -0.76000000E+002
         77  0.77000000E+002 -0.77000000E+002
         78  0.78000000E+002 -0.78000000E+002
         79  0.79000000E+002 -0.79000000E+002
         80  0.80000000E+002 -0.80000000E+002
         81  0.81000000E+002 -0.81000000E+002
         82  0.82000000E+002 -0.82000000E+002
         83  0.83000000E+002 -0.83000000E+002
         84  0.84000000E+002 -0.84000000E+002
         85  0.85000000E+002 -0.85000000E+002
         86  0.86000000E+002 -0.86000000E+002
         87  0.87000000E+002 -0.87000000E+002
         88  0.88000000E+002 -0.88000000E+002
         89  0.89000000E+002 -0.89000000E+002
         90  0.90000000E+002 -0.90000000E+002
         91  0.91000000E+002 -0.91000000E+002
         92  0.92000000E+002 -0.92000000E+002
         93  0.93000000E+002 -0.93000000E+002
         94  0.94000000E+002 -0.94000000E+002
         95  0.95000000E+002 -0.95000000E+002
         96  0.96000000E+002 -0.96000000E+002
         97  0.97000000E+002 -0.97000000E+002
         98  0.98000000E+002 -0.98000000E+002
         99  0.99000000E+002 -0.99000000E+002
        100  0.10000000E+003 -0.10000000E+003
        101  0.10100000E+003 -0.10100000E+003
        102  0.10200000E+003 -0.10200000E+003
        103  0.10300000E+003 -0.10300000E+003
        104  0.10400000E+003 -0.10400000E+003
        105  0.10500000E+003 -0.10500000E+003
        106  0.10600000E+003 -0.10600000E+003
        107  0.10700000E+003 -0.10700000E+003
        108  0.10800000E+003 -0.10800000E+003
        109  0.10900000E+003 -0.10900000E+003
        110  0.11000000E+003 -0.11000000E+003
        111  0.11100000E+003 -0.11100000E+003
        112  0.11200000E+003 -0.11200000E+003
        113  0.11300000E+003 -0.11300000E+003
        114  0.11400000E+003 -0.11400000E+003
        115  0.11500000E+003 -0.11500000E+003
        116  0.11600000E+003 -0.11600000E+003
        117  0.11700000E+003 -0.11700000E+003
        118  0.11800000E+003 -0.11800000E+003
        119  0.11900000E+003 -0.11900000E+003
        120  0.12000000E+003 -0.12000000E+003
        121  0.12100000E+003 -0.12100000E+003
        122  0.12200000E+003 -0.12200000E+003
        123  0.12300000E+003 -0.12300000E+003
        124  0.12400000E+003 -0.12400000E+003
        125  0.12500000E+003 -0.12500000E+003
        126  0.12600000E+003 -0.12600000E+003
        127  0.12700000E+003 -0.12700000E+003
        128  0.12800000E+003 -0.12800000E+003
        129  0.12900000E+003 -0.12900000E+003
        130  0.13000000E+003 -0.13000000E+003
        131  0.13100000E+003 -0.13100000E+003
        132  0.13200000E+003 -0.13200000E+003
        133  0.13300000E+003 -0.13300000E+003
        134  0.13400000E+003 -0.13400000E+003
        135  0.13500000E+003 -0.13500000E+003
        136  0.13600000E+003 -0.13600000E+003
        137  0.13700000E+003 -0.13700000E+003
        138  0.13800000E+003 -0.13800000E+003
        139  0.13900000E+003 -0.13900000E+003
        140  0.14000000E+003 -0.14000000E+003
        141  0.14100000E+003 -0.14100000E+003
        142  0.14200000E+003 -0.14200000E+003
        143  0.14300000E+003 -0.14300000E+003
        144  0.14400000E+003 -0.14400000E+003
        145  0.14500000E+003 -0.14500000E+003
        146  0.14600000E+003 -0.14600000E+003
        147  0.14700000E+003 -0.14700000E+003
        148  0.14800000E+003 -0.14800000E+003
        149  0.14900000E+003 -0.14900000E+003
        150  0.15000000E+003 -0.15000000E+003
        151  0.15100000E+003 -0.15100000E+003
        152  0.15200000E+003 -0.15200000E+003
        153  0.15300000E+003 -0.15300000E+003
        154  0.15400000E+003 -0.15400000E+003
        155  0.15500000E+003 -0.15500000E+003
        156  0.15600000E+003 -0.15600000E+003
        157  0.15700000E+003 -0.15700000E+003
        158  0.15800000E+003 -0.15800000E+003
        159  0.15900000E+003 -0.15900000E+003
        160  0.16000000E+003 -0.16000000E+003
        161  0.16100000E+003 -0.16100000E+003
        162  0.16200000E+003 -0.16200000E+003
        163  0.16300000E+003 -0.16300000E+003
        164  0.16400000E+003 -0.16400000E+003
        165  0.16500000E+003 -0.16500000E+003
        166  0.16600000E+003 -0.16600000E+003
        167  0.16700000E+003 -0.16700000E+003
        168  0.16800000E+003 -0.16800000E+003
        169  0.16900000E+003 -0.16900000E+003
        170  0.17000000E+003 -0.17000000E+003
        171  0.17100000E+003 -0.17100000E+003
        172  0.17200000E+003 -0.17200000E+003
        173  0.17300000E+003 -0.17300000E+003
        174  0.17400000E+003 -0.17400000E+003
        175  0.17500000E+003 -0.17500000E+003
        176  0.17600000E+003 -0.17600000E+003
        177  0.17700000E+003 -0.17700000E+003
        178  0.17800000E+003 -0.17800000E+003
        179  0.17900000E+003 -0.17900000E+003
        180  0.18000000E+003 -0.18000000E+003
        181  0.18100000E+003 -0.18100000E+003
        182  0.18200000E+003 -0.18200000E+003
        183  0.18300000E+003 -0.18300000E+003
        184  0.18400000E+003 -0.18400000E+003
        185  0.18500000E+003 -0.18500000E+003
        186  0.18600000E+003 -0.18600000E+003
        187  0.18700000E+003 -0.18700000E+003
        188  0.18800000E+003 -0.18800000E+003
        189  0.18900000E+003 -0.18900000E+003
        190  0.19000000E+003 -0.19000000E+003
        191  0.19100000E+003 -0.19100000E+003
        192  0.19200000E+003 -0.19200000E+003
        193  0.19300000E+003 -0.19300000E+003
        194  0.19400000E+003 -0.19400000E+003
        195  0.19500000E+003 -0.19500000E+003
        196  0.19600000E+003 -0.19600000E+003
        197  0.19700000E+003 -0.19700000E+003
        198  0.19800000E+003 -0.19800000E+003
        199  0.19900000E+003 -0.19900000E+003
        200  0.20000000E+003 -0.20000000E+003
End values

Result FIE02 ALYA  0.00000000E+00 Scalar OnNodes
ComponentNames FIE02
Values
          1  0.10000000E+001
          2  0.20000000E+001
          3  0.30000000E+001
          4  0.40000000E+001
          5  0.50000000E+001
          6  0.60000000E+001
          7  0.70000000E+001
          8  0.80000000E+001
          9  0.90000000E+001
         10  0.10000000E+002
         11  0.11000000E+002
         12  0.12000000E+002
         13  0.13000000E+002
         14  0.14000000E+002
         15  0.15000000E+002
         16  0.16000000E+002
         17  0.17000000E+002
         18  0.18000000E+002
         19  0.19000000E+002
         20  0.20000000E+002
         21  0.21000000E+002
         22  0.22000000E+002
         23  0.23000000E+002
         24  0.24000000E+002
         25  0.25000000E+002
         26  0.26000000E+002
         27  0.27000000E+002
         28  0.28000000E+002
         29  0.29000000E+002
         30  0.30000000E+002
         31  0.31000000E+002
         32  0.32000000E+002
         33  0.33000000E+002
         34  0.34000000E+002
         35  0.35000000E+002
         36  0.36000000E+002
         37  0.37000000E+002
         38  0.38000000E+002
         39  0.39000000E+002
         40  0.40000000E+002
         41  0.41000000E+002
         42  0.42000000E+002
         43  0.43000000E+002
         44  0.44000000E+002
         45  0.45000000E+002
         46  0.46000000E+002
         47  0.47000000E+002
         48  0.48000000E+002
         49  0.49000000E+002
         50  0.50000000E+002
         51  0.51000000E+002
         52  0.52000000E+002
         53  0.53000000E+002
         54  0.54000000E+002
         55  0.55000000E+002
         56  0.56000000E+002
         57  0.57000000E+002
         58  0.58000000E+002
         59  0.59000000E+002
         60  0.60000000E+002
         61  0.61000000E+002
         62  0.62000000E+002
         63  0.63000000E+002
         64  0.64000000E+002
         65  0.65000000E+002
         66  0.66000000E+002
         67  0.67000000E+002
         68  0.68000000E+002
         69  0.69000000E+002
         70  0.70000000E+002
         71  0.71000000E+002
         72  0.72000000E+002
         73  0.73000000E+002
         74  0.74000000E+002
         75  0.75000000E+002
         76  0.76000000E+002
         77  0.77000000E+002
         78  0.78000000E+002
         79  0.79000000E+002
         80  0.80000000E+002
         81  0.81000000E+002
         82  0.82000000E+002
         83  0.83000000E+002
         84  0.84000000E+002
         85  0.85000000E+002
         86  0.86000000E+002
         87  0.87000000E+002
         88  0.88000000E+002
         89  0.89000000E+002
         90  0.90000000E+002
         91  0.91000000E+002
         92  0.92000000E+002
         93  0.93000000E+002
         94  0.94000000E+002
         95  0.95000000E+002
         96  0.96000000E+002
         97  0.97000000E+002
         98  0.98000000E+002
         99  0.99000000E+002
        100  0.10000000E+003
        101  0.10100000E+003
        102  0.10200000E+003
        103  0.10300000E+003
        104  0.10400000E+003
        105  0.10500000E+003
        106  0.10600000E+003
        107  0.10700000E+003
        108  0.10800000E+003
        109  0.10900000E+003
        110  0.11000000E+003
        111  0.11100000E+003
        112  0.11200000E+003
        113  0.11300000E+003
        114  0.11400000E+003
        115  0.11500000E+003
        116  0.11600000E+003
        117  0.11700000E+003
        118  0.11800000E+003
        119  0.11900000E+003
        120  0.12000000E+003
        121  0.12100000E+003
End values

Result VELOC ALYA  0.00000000E+00 Vector OnNodes
ComponentNames VELOC_X,VELOC_Y,VELOC_Z
Values
          1  0.00000000E+000  0.00000000E+000
          2  0.00000000E+000  0.00000000E+000
          3  0.00000000E+000  0.00000000E+000
          4  0.00000000E+000  0.00000000E+000
          5  0.00000000E+000  0.00000000E+000
          6  0.00000000E+000  0.00000000E+000
          7  0.00000000E+000  0.00000000E+000
          8  0.00000000E+000  0.00000000E+000
          9  0.00000000E+000  0.00000000E+000
         10  0.00000000E+000  0.00000000E+000
         11  0.00000000E+000  0.00000000E+000
         12  0.00000000E+000  0.00000000E+000
         13  0.00000000E+000  0.00000000E+000
         14  0.00000000E+000  0.00000000E+000
         15  0.00000000E+000  0.00000000E+000
         16  0.00000000E+000  0.00000000E+000
         17  0.00000000E+000  0.00000000E+000
         18  0.00000000E+000  0.00000000E+000
         19  0.00000000E+000  0.00000000E+000
         20  0.00000000E+000  0.00000000E+000
         21  0.00000000E+000  0.00000000E+000
         22  0.00000000E+000  0.00000000E+000
         23  0.00000000E+000  0.00000000E+000
         24  0.00000000E+000  0.00000000E+000
         25  0.00000000E+000  0.00000000E+000
         26  0.00000000E+000  0.00000000E+000
         27  0.00000000E+000  0.00000000E+000
         28  0.00000000E+000  0.00000000E+000
         29  0.00000000E+000  0.00000000E+000
         30  0.00000000E+000  0.00000000E+000
         31  0.00000000E+000  0.00000000E+000
         32  0.00000000E+000  0.00000000E+000
         33  0.00000000E+000  0.00000000E+000
         34  0.00000000E+000  0.00000000E+000
         35  0.00000000E+000  0.00000000E+000
         36  0.00000000E+000  0.00000000E+000
         37  0.00000000E+000  0.00000000E+000
         38  0.00000000E+000  0.00000000E+000
         39  0.00000000E+000  0.00000000E+000
         40  0.00000000E+000  0.00000000E+000
         41  0.00000000E+000  0.00000000E+000
         42  0.00000000E+000  0.00000000E+000
         43  0.00000000E+000  0.00000000E+000
         44  0.00000000E+000  0.00000000E+000
         45  0.00000000E+000  0.00000000E+000
         46  0.00000000E+000  0.00000000E+000
         47  0.00000000E+000  0.00000000E+000
         48  0.00000000E+000  0.00000000E+000
         49  0.00000000E+000  0.00000000E+000
         50  0.00000000E+000  0.00000000E+000
         51  0.00000000E+000  0.00000000E+000
         52  0.00000000E+000  0.00000000E+000
         53  0.00000000E+000  0.00000000E+000
         54  0.00000000E+000  0.00000000E+000
         55  0.00000000E+000  0.00000000E+000
         56  0.00000000E+000  0.00000000E+000
         57  0.00000000E+000  0.00000000E+000
         58  0.00000000E+000  0.00000000E+000
         59  0.00000000E+000  0.00000000E+000
         60  0.00000000E+000  0.00000000E+000
         61  0.00000000E+000  0.00000000E+000
         62  0.00000000E+000  0.00000000E+000
         63  0.00000000E+000  0.00000000E+000
         64  0.00000000E+000  0.00000000E+000
         65  0.00000000E+000  0.00000000E+000
         66  0.00000000E+000  0.00000000E+000
         67  0.00000000E+000  0.00000000E+000
         68  0.00000000E+000  0.00000000E+000
         69  0.00000000E+000  0.00000000E+000
         70  0.00000000E+000  0.00000000E+000
         71  0.00000000E+000  0.00000000E+000
         72  0.00000000E+000  0.00000000E+000
         73  0.00000000E+000  0.00000000E+000
         74  0.00000000E+000  0.00000000E+000
         75  0.00000000E+000  0.00000000E+000
         76  0.00000000E+000  0.00000000E+000
         77  0.00000000E+000  0.00000000E+000
         78  0.00000000E+000  0.00000000E+000
         79  0.00000000E+000  0.00000000E+000
         80  0.00000000E+000  0.00000000E+000
         81  0.00000000E+000  0.00000000E+000
         82  0.00000000E+000  0.00000000E+000
         83  0.00000000E+000  0.00000000E+000
         84  0.00000000E+000  0.00000000E+000
         85  0.00000000E+000  0.00000000E+000
         86  0.00000000E+000  0.00000000E+000
         87  0.00000000E+000  0.00000000E+000
         88  0.00000000E+000  0.00000000E+000
         89  0.00000000E+000  0.00000000E+000
         90  0.00000000E+000  0.00000000E+000
         91  0.00000000E+000  0.00000000E+000
         92  0.10000000E+001  0.00000000E+000
         93  0.10000000E+001  0.00000000E+000
         94  0.00000000E+000  0.00000000E+000
         95  0.00000000E+000  0.00000000E+000
         96  0.00000000E+000  0.00000000E+000
         97  0.00000000E+000  0.00000000E+000
         98  0.10000000E+001  0.00000000E+000
         99  0.00000000E+000  0.00000000E+000
        100  0.00000000E+000  0.00000000E+000
        101  0.00000000E+000  0.00000000E+000
        102  0.10000000E+001  0.00000000E+000
        103  0.00000000E+000  0.00000000E+000
        104  0.00000000E+000  0.00000000E+000
        105  0.00000000E+000  0.00000000E+000
        106  0.10000000E+001  0.00000000E+000
        107  0.00000000E+000  0.00000000E+000
        108  0.00000000E+000  0.00000000E+000
        109  0.00000000E+000  0.00000000E+000
        110  0.10000000E+001  0.00000000E+000
        111  0.00000000E+000  0.00000000E+000
        112  0.00000000E+000  0.00000000E+000
        113  0.00000000E+000  0.00000000E+000
        114  0.00000000E+000  0.00000000E+000
        115  0.10000000E+001  0.00000000E+000
        116  0.00000000E+000  0.00000000E+000
        117  0.10000000E+001  0.00000000E+000
        118  0.00000000E+000  0.00000000E+000
        119  0.10000000E+001  0.00000000E+000
        120  0.00000000E+000  0.00000000E+000
        121  0.00000000E+000  0.00000000E+000
End values

Result PRESS ALYA  0.00000000E+00 Scalar OnNodes
ComponentNames PRESS
Values
          1  0.00000000E+000
          2  0.00000000E+000
          3  0.00000000E+000
          4  0.00000000E+000
          5  0.00000000E+000
          6  0.00000000E+000
          7  0.00000000E+000
          8  0.00000000E+000
          9  0.00000000E+000
         10  0.00000000E+000
         11  0.00000000E+000
         12  0.00000000E+000
         13  0.00000000E+000
         14  0.00000000E+000
         15  0.00000000E+000
         16  0.00000000E+000
         17  0.00000000E+000
         18  0.00000000E+000
         19  0.00000000E+000
         20  0.00000000E+000
         21  0.00000000E+000
         22  0.00000000E+000
         23  0.00000000E+000
         24  0.00000000E+000
         25  0.00000000E+000
         26  0.00000000E+000
         27  0.00000000E+000
         28  0.00000000E+000
         29  0.00000000E+000
         30  0.00000000E+000
         31  0.00000000E+000
         32  0.00000000E+000
         33  0.00000000E+000
         34  0.00000000E+000
         35  0.00000000E+000
         36  0.00000000E+000
         37  0.00000000E+000
         38  0.00000000E+000
         39  0.00000000E+000
         40  0.00000000E+000
         41  0.00000000E+000
         42  0.00000000E+000
         43  0.00000000E+000
         44  0.00000000E+000
         45  0.00000000E+000
         46  0.00000000E+000
         47  0.00000000E+000
         48  0.00000000E+000
         49  0.00000000E+000
         50  0.00000000E+000
         51  0.00000000E+000
         52  0.00000000E+000
         53  0.00000000E+000
         54  0.00000000E+000
         55  0.00000000E+000
         56  0.00000000E+000
         57  0.00000000E+000
         58  0.00000000E+000
         59  0.00000000E+000
         60  0.00000000E+000
         61  0.00000000E+000
         62  0.00000000E+000
         63  0.00000000E+000
         64  0.00000000E+000
         65  0.00000000E+000
         66  0.00000000E+000
         67  0.00000000E+000
         68  0.00000000E+000
         69  0.00000000E+000
         70  0.00000000E+000
         71  0.00000000E+000
         72  0.00000000E+000
         73  0.00000000E+000
         74  0.00000000E+000
         75  0.00000000E+000
         76  0.00000000E+000
         77  0.00000000E+000
         78  0.00000000E+000
         79  0.00000000E+000
         80  0.00000000E+000
         81  0.00000000E+000
         82  0.00000000E+000
         83  0.00000000E+000
         84  0.00000000E+000
         85  0.00000000E+000
         86  0.00000000E+000
         87  0.00000000E+000
         88  0.00000000E+000
         89  0.00000000E+000
         90  0.00000000E+000
         91  0.00000000E+000
         92  0.00000000E+000
         93  0.00000000E+000
         94  0.00000000E+000
         95  0.00000000E+000
         96  0.00000000E+000
         97  0.00000000E+000
         98  0.00000000E+000
         99  0.00000000E+000
        100  0.00000000E+000
        101  0.00000000E+000
        102  0.00000000E+000
        103  0.00000000E+000
        104  0.00000000E+000
        105  0.00000000E+000
        106  0.00000000E+000
        107  0.00000000E+000
        108  0.00000000E+000
        109  0.00000000E+000
        110  0.00000000E+000
        111  0.00000000E+000
        112  0.00000000E+000
        113  0.00000000E+000
        114  0.00000000E+000
        115  0.00000000E+000
        116  0.00000000E+000
        117  0.00000000E+000
        118  0.00000000E+000
        119  0.00000000E+000
        120  0.00000000E+000
        121  0.00000000E+000
End values

Result RESID ALYA  0.00000000E+00 Scalar OnNodes
ComponentNames RESID
Values
          1  0.00000000E+000
          2  0.00000000E+000
          3  0.00000000E+000
          4  0.00000000E+000
          5  0.00000000E+000
          6  0.00000000E+000
          7  0.00000000E+000
          8  0.00000000E+000
          9  0.00000000E+000
         10  0.00000000E+000
         11  0.00000000E+000
         12  0.00000000E+000
         13  0.00000000E+000
         14  0.00000000E+000
         15  0.00000000E+000
         16  0.00000000E+000
         17  0.00000000E+000
         18  0.00000000E+000
         19  0.00000000E+000
         20  0.00000000E+000
         21  0.00000000E+000
         22  0.00000000E+000
         23  0.00000000E+000
         24  0.00000000E+000
         25  0.00000000E+000
         26  0.00000000E+000
         27  0.00000000E+000
         28  0.00000000E+000
         29  0.00000000E+000
         30  0.00000000E+000
         31  0.00000000E+000
         32  0.00000000E+000
         33  0.00000000E+000
         34  0.00000000E+000
         35  0.00000000E+000
         36  0.00000000E+000
         37  0.00000000E+000
         38  0.00000000E+000
         39  0.00000000E+000
         40  0.00000000E+000
         41  0.00000000E+000
         42  0.00000000E+000
         43  0.00000000E+000
         44  0.00000000E+000
         45  0.00000000E+000
         46  0.00000000E+000
         47  0.00000000E+000
         48  0.00000000E+000
         49  0.00000000E+000
         50  0.00000000E+000
         51  0.00000000E+000
         52  0.00000000E+000
         53  0.00000000E+000
         54  0.00000000E+000
         55  0.00000000E+000
         56  0.00000000E+000
         57  0.00000000E+000
         58  0.00000000E+000
         59  0.00000000E+000
         60  0.00000000E+000
         61  0.00000000E+000
         62  0.00000000E+000
         63  0.00000000E+000
         64  0.00000000E+000
         65  0.00000000E+000
         66  0.00000000E+000
         67  0.00000000E+000
         68  0.00000000E+000
         69  0.00000000E+000
         70  0.00000000E+000
         71  0.00000000E+000
         72  0.00000000E+000
         73  0.00000000E+000
         74  0.00000000E+000
         75  0.00000000E+000
         76  0.00000000E+000
         77  0.00000000E+000
         78  0.00000000E+000
         79  0.00000000E+000
         80  0.00000000E+000
         81  0.00000000E+000
         82  0.00000000E+000
         83  0.00000000E+000
         84  0.00000000E+000
         85  0.00000000E+000
         86  0.00000000E+000
         87  0.00000000E+000
         88  0.00000000E+000
         89  0.00000000E+000
         90  0.00000000E+000
         91  0.00000000E+000
         92  0.10000000E+001
         93  0.10000000E+001
         94  0.00000000E+000
         95  0.00000000E+000
         96  0.00000000E+000
         97  0.00000000E+000
         98  0.10000000E+001
         99  0.00000000E+000
        100  0.00000000E+000
        101  0.00000000E+000
        102  0.10000000E+001
        103  0.00000000E+000
        104  0.00000000E+000
        105  0.00000000E+000
        106  0.10000000E+001
        107  0.00000000E+000
        108  0.00000000E+000
        109  0.00000000E+000
        110  0.10000000E+001
        111  0.00000000E+000
        112  0.00000000E+000
        113  0.00000000E+000
        114  0.00000000E+000
        115  0.10000000E+001
        116  0.00000000E+000
        117  0.10000000E+001
        118  0.00000000E+000
        119  0.10000000E+001
        120  0.00000000E+000
        121  0.00000000E+000
End values

Result VELOC ALYA  0.37235376E+01 Vector OnNodes
ComponentNames VELOC_X,VELOC_Y,VELOC_Z
Values
          1  0.00000000E+000  0.00000000E+000
          2  0.00000000E+000  0.00000000E+000
          3  0.00000000E+000  0.00000000E+000
          4 -0.15009870E-001  0.50478116E-002
          5  0.00000000E+000  0.00000000E+000
          6  0.00000000E+000  0.00000000E+000
          7 -0.32349131E-001  0.68810438E-002
          8 -0.23464812E-001  0.18096086E-001
          9 -0.52500196E-001  0.23300386E-001
         10  0.00000000E+000  0.00000000E+000
         11  0.00000000E+000  0.00000000E+000
         12 -0.47726518E-001  0.61558511E-002
         13 -0.31184209E-001  0.35761209E-001
         14 -0.78164523E-001  0.20320059E-001
         15 -0.69219499E-001  0.45609260E-001
         16  0.00000000E+000  0.00000000E+000
         17  0.00000000E+000  0.00000000E+000
         18 -0.58187913E-001  0.40658419E-002
         19 -0.39112817E-001  0.57538710E-001
         20 -0.10292447E+000  0.39090320E-001
         21 -0.95581172E-001  0.12714508E-001
         22 -0.85207969E-001  0.72040827E-001
         23  0.00000000E+000  0.00000000E+000
         24  0.00000000E+000  0.00000000E+000
         25 -0.12608793E+000  0.23989008E-001
         26 -0.12552394E+000  0.61137879E-001
         27 -0.62301781E-001  0.10142628E-002
         28 -0.46100088E-001  0.82812197E-001
         29 -0.10231861E+000  0.23986737E-002
         30 -0.97685133E-001  0.10045211E+000
         31 -0.15338252E+000  0.37198333E-001
         32 -0.13541652E+000  0.40920708E-002
         33 -0.14086282E+000  0.84304746E-001
         34  0.00000000E+000  0.00000000E+000
         35  0.00000000E+000  0.00000000E+000
         36 -0.58966349E-001 -0.24285229E-002
         37 -0.49083794E-001  0.10889853E+000
         38 -0.97395769E-001 -0.83606868E-002
         39 -0.99687687E-001  0.12595851E+000
         40 -0.16558350E+000  0.64118101E-002
         41 -0.17073734E+000  0.51607009E-001
         42 -0.12953863E+000 -0.16446564E-001
         43 -0.13827160E+000  0.10341200E+000
         44  0.00000000E+000  0.00000000E+000
         45  0.00000000E+000  0.00000000E+000
         46 -0.48419989E-001 -0.43745265E-002
         47 -0.41876880E-001  0.12951138E+000
         48 -0.18559495E+000  0.10322521E-001
         49 -0.15998312E+000 -0.25848164E-001
         50 -0.16394788E+000  0.64436003E-001
         51 -0.80883475E-001 -0.16416068E-001
         52 -0.77938776E-001  0.13949141E+000
         53 -0.10825525E+000 -0.33097276E-001
         54 -0.10030234E+000  0.11026088E+000
         55 -0.18317611E+000 -0.34731203E-001
         56 -0.17838851E+000  0.17137808E-001
         57  0.00000000E+000  0.00000000E+000
         58  0.00000000E+000  0.00000000E+000
         59 -0.32423991E-001 -0.50065513E-002
         60 -0.13550359E+000 -0.53704911E-001
         61 -0.50420002E-002  0.12959153E+000
         62 -0.11271831E+000  0.69486596E-001
         63 -0.54727607E-001 -0.20236542E-001
         64  0.98472478E-003  0.12504138E+000
         65 -0.18283324E+000 -0.37689905E-001
         66 -0.73959721E-001 -0.42063245E-001
         67  0.14321962E-001  0.93675166E-001
         68 -0.15996982E+000 -0.76676405E-001
         69 -0.11995166E+000  0.24444383E-001
         70 -0.93813041E-001 -0.70232750E-001
         71  0.27050485E-001  0.58944392E-001
         72  0.00000000E+000  0.00000000E+000
         73  0.00000000E+000  0.00000000E+000
         74 -0.14295862E-001 -0.42862033E-002
         75  0.13159712E+000  0.74063771E-001
         76 -0.24222659E-001 -0.17281949E-001
         77 -0.17004455E+000 -0.95718435E-001
         78 -0.12627472E+000 -0.26758836E-001
         79  0.22819073E+000  0.60695849E-001
         80 -0.11386102E+000 -0.10425170E+000
         81  0.35316661E-001  0.25645467E-001
         82 -0.32784597E-001 -0.36698285E-001
         83  0.29542020E+000  0.42130893E-001
         84 -0.41449856E-001 -0.63027385E-001
         85  0.33957851E+000  0.26359009E-001
         86 -0.13725209E+000 -0.97959505E-001
         87  0.00000000E+000  0.00000000E+000
         88  0.00000000E+000  0.00000000E+000
         89 -0.12916697E+000 -0.14236291E+000
         90  0.35623057E-001 -0.90238806E-002
         91  0.00000000E+000  0.00000000E+000
         92  0.10000000E+001  0.00000000E+000
         93  0.10000000E+001  0.00000000E+000
         94  0.00000000E+000  0.00000000E+000
         95 -0.49868089E-001 -0.98783368E-001
         96  0.36693350E+000  0.13374507E-001
         97  0.00000000E+000  0.00000000E+000
         98  0.10000000E+001  0.00000000E+000
         99 -0.12315463E+000 -0.17618314E+000
        100  0.20928095E-001 -0.55333984E-001
        101  0.00000000E+000  0.00000000E+000
        102  0.10000000E+001  0.00000000E+000
        103 -0.56436639E-001 -0.14831749E+000
        104  0.38168281E+000  0.17296236E-002
        105  0.00000000E+000  0.00000000E+000
        106  0.10000000E+001  0.00000000E+000
        107 -0.40638287E-001 -0.17854361E+000
        108 -0.54307109E-001 -0.21654493E+000
        109  0.38476370E+000 -0.11861316E-001
        110  0.10000000E+001  0.00000000E+000
        111  0.00000000E+000  0.00000000E+000
        112 -0.22259146E-001 -0.30427004E+000
        113  0.36759048E+000 -0.40426167E-001
        114  0.00000000E+000  0.00000000E+000
        115  0.10000000E+001  0.00000000E+000
        116  0.12607644E+000 -0.38129860E+000
        117  0.10000000E+001  0.00000000E+000
        118  0.00000000E+000  0.00000000E+000
        119  0.10000000E+001  0.00000000E+000
        120  0.00000000E+000  0.00000000E+000
        121  0.00000000E+000  0.00000000E+000
End values

Result PRESS ALYA  0.37235376E+01 Scalar OnNodes
ComponentNames PRESS
Values
          1 -0.14604479E+000
          2 -0.14704665E+000
          3 -0.14546800E+000
          4 -0.14644586E+000
          5 -0.14967062E+000
          6 -0.14325537E+000
          7 -0.14411677E+000
          8 -0.14898165E+000
          9 -0.14632096E+000
         10 -0.13959461E+000
         11 -0.15409277E+000
         12 -0.14025276E+000
         13 -0.15325010E+000
         14 -0.14192490E+000
         15 -0.15001517E+000
         16 -0.16062020E+000
         17 -0.13484010E+000
         18 -0.13523067E+000
         19 -0.15951782E+000
         20 -0.14471217E+000
         21 -0.13622518E+000
         22 -0.15539330E+000
         23 -0.12946509E+000
         24 -0.16970521E+000
         25 -0.13788315E+000
         26 -0.14874448E+000
         27 -0.12955411E+000
         28 -0.16815010E+000
         29 -0.12978599E+000
         30 -0.16267120E+000
         31 -0.14028970E+000
         32 -0.13019620E+000
         33 -0.15412226E+000
         34 -0.12401813E+000
         35 -0.18198843E+000
         36 -0.12380125E+000
         37 -0.17959718E+000
         38 -0.12325663E+000
         39 -0.17199827E+000
         40 -0.13082853E+000
         41 -0.14350350E+000
         42 -0.12238795E+000
         43 -0.16081651E+000
         44 -0.11905877E+000
         45 -0.19847108E+000
         46 -0.11855617E+000
         47 -0.19436305E+000
         48 -0.13174330E+000
         49 -0.12119602E+000
         50 -0.14747367E+000
         51 -0.11728858E+000
         52 -0.18327916E+000
         53 -0.11521243E+000
         54 -0.16848383E+000
         55 -0.11973085E+000
         56 -0.13299118E+000
         57 -0.11508010E+000
         58 -0.22116013E+000
         59 -0.11434032E+000
         60 -0.11226517E+000
         61 -0.21291385E+000
         62 -0.15191123E+000
         63 -0.11247610E+000
         64 -0.19575204E+000
         65 -0.11814763E+000
         66 -0.10938839E+000
         67 -0.17615508E+000
         68 -0.10842260E+000
         69 -0.13451522E+000
         70 -0.10492224E+000
         71 -0.15612677E+000
         72 -0.25478886E+000
         73 -0.11249045E+000
         74 -0.11157553E+000
         75 -0.23498965E+000
         76 -0.10930759E+000
         77 -0.10382851E+000
         78 -0.11676868E+000
         79 -0.20685675E+000
         80 -0.98910768E-001
         81 -0.13605459E+000
         82 -0.10553089E+000
         83 -0.18173564E+000
         84 -0.99993089E-001
         85 -0.15890575E+000
         86 -0.99022508E-001
         87 -0.11151451E+000
         88 -0.28948029E+000
         89 -0.91298463E-001
         90 -0.11585112E+000
         91 -0.11053858E+000
         92 -0.28155655E+000
         93 -0.21589061E+000
         94 -0.10812925E+000
         95 -0.92361420E-001
         96 -0.13714279E+000
         97 -0.10412741E+000
         98 -0.18330794E+000
         99 -0.82422715E-001
        100 -0.95243440E-001
        101 -0.98257284E-001
        102 -0.15888505E+000
        103 -0.82271381E-001
        104 -0.11559375E+000
        105 -0.90139707E-001
        106 -0.13669674E+000
        107 -0.73671264E-001
        108 -0.69441929E-001
        109 -0.93449190E-001
        110 -0.11484259E+000
        111 -0.79320928E-001
        112 -0.53920942E-001
        113 -0.69271458E-001
        114 -0.65297093E-001
        115 -0.92031637E-001
        116 -0.36935682E-001
        117 -0.65626869E-001
        118 -0.47539339E-001
        119 -0.26041220E-001
        120 -0.25570961E-001
        121  0.00000000E+000
End values

Result RESID ALYA  0.37235376E+01 Scalar OnNodes
ComponentNames RESID
Values
          1  0.00000000E+000
          2  0.00000000E+000
          3  0.00000000E+000
          4  0.15835927E-001
          5  0.00000000E+000
          6  0.00000000E+000
          7  0.33072875E-001
          8  0.29632174E-001
          9  0.57438476E-001
         10  0.00000000E+000
         11  0.00000000E+000
         12  0.48121877E-001
         13  0.47448066E-001
         14  0.80762599E-001
         15  0.82894775E-001
         16  0.00000000E+000
         17  0.00000000E+000
         18  0.58329789E-001
         19  0.69573814E-001
         20  0.11009768E+000
         21  0.96423126E-001
         22  0.11158082E+000
         23  0.00000000E+000
         24  0.00000000E+000
         25  0.12834967E+000
         26  0.13962127E+000
         27  0.62310036E-001
         28  0.94779102E-001
         29  0.10234673E+000
         30  0.14011785E+000
         31  0.15782875E+000
         32  0.13547833E+000
         33  0.16416341E+000
         34  0.00000000E+000
         35  0.00000000E+000
         36  0.59016337E-001
         37  0.11944919E+000
         38  0.97753961E-001
         39  0.16063369E+000
         40  0.16570759E+000
         41  0.17836626E+000
         42  0.13057851E+000
         43  0.17266464E+000
         44  0.00000000E+000
         45  0.00000000E+000
         46  0.48617197E-001
         47  0.13611345E+000
         48  0.18588179E+000
         49  0.16205778E+000
         50  0.17615591E+000
         51  0.82532562E-001
         52  0.15978832E+000
         53  0.11320172E+000
         54  0.14905710E+000
         55  0.18643965E+000
         56  0.17920984E+000
         57  0.00000000E+000
         58  0.00000000E+000
         59  0.32808242E-001
         60  0.14575816E+000
         61  0.12968957E+000
         62  0.13241527E+000
         63  0.58349195E-001
         64  0.12504526E+000
         65  0.18667759E+000
         66  0.85084410E-001
         67  0.94763682E-001
         68  0.17739677E+000
         69  0.12241703E+000
         70  0.11719013E+000
         71  0.64854993E-001
         72  0.00000000E+000
         73  0.00000000E+000
         74  0.14924584E-001
         75  0.15100743E+000
         76  0.29755722E-001
         77  0.19513372E+000
         78  0.12907882E+000
         79  0.23612496E+000
         80  0.15437859E+000
         81  0.43645808E-001
         82  0.49209693E-001
         83  0.29840930E+000
         84  0.75435680E-001
         85  0.34060000E+000
         86  0.16862444E+000
         87  0.00000000E+000
         88  0.00000000E+000
         89  0.19222723E+000
         90  0.36748233E-001
         91  0.00000000E+000
         92  0.00000000E+000
         93  0.00000000E+000
         94  0.00000000E+000
         95  0.11065704E+000
         96  0.36717717E+000
         97  0.00000000E+000
         98  0.00000000E+000
         99  0.21495944E+000
        100  0.59159403E-001
        101  0.00000000E+000
        102  0.00000000E+000
        103  0.15869207E+000
        104  0.38168673E+000
        105  0.00000000E+000
        106  0.00000000E+000
        107  0.18311005E+000
        108  0.22325091E+000
        109  0.38494648E+000
        110  0.00000000E+000
        111  0.00000000E+000
        112  0.30508314E+000
        113  0.36980676E+000
        114  0.00000000E+000
        115  0.00000000E+000
        116  0.40160166E+000
        117  0.00000000E+000
        118  0.00000000E+000
        119  0.00000000E+000
        120  0.00000000E+000
        121  0.00000000E+000
End values

