{
    "authors": [
        "guillaume.houzeaux@bsc.es"
    ],
    "comparisons": [
        {
            "file": "exansitri06.post.res",
            "method": "absolute",
            "tolerance": "1.0e-12"
        }
    ],
    "description": "Only tests the nastin module equations, it tests the finite element errors with a 1E-6 tolerance",
    "exclude": [
        "special"
    ],
    "executions": [
        {
            "mpi": 5,
            "openmp": 0
        },
        {
            "mpi": 3,
            "openmp": 3
        }
    ],
    "modules": [
        "nastin"
    ],
    "name": "exansitri06",
    "postprocess": "alya2pos"
}