  NODES_PER_ELEMENT
   1 27
   2 27
   3 27
   4 27
   5 27
   6 27
   7 27
   8 27
   9 27
   10 27
   11 27
   12 27
   13 27
   14 27
   15 27
   16 27
   17 27
   18 27
   19 27
   20 27
   21 27
   22 27
   23 27
   24 27
   25 27
   26 27
   27 27
   28 27
   29 27
   30 27
   31 27
   32 27
   33 27
   34 27
   35 27
   36 27
   37 27
   38 27
   39 27
   40 27
   41 27
   42 27
   43 27
   44 27
   45 27
   46 27
   47 27
   48 27
   49 27
   50 27
   51 27
   52 27
   53 27
   54 27
   55 27
   56 27
   57 27
   58 27
   59 27
   60 27
   61 27
   62 27
   63 27
   64 27
  END_NODES_PER_ELEMENT
  ELEMENTS
  1 447 409 584 606 603 583 677 690 419 500 594 533 528 501 630 653 591 631 681 656 512 509 573 644 600 641 578  
  2 516 447 606 652 648 603 690 707 482 533 622 595 587 528 653 680 618 656 699 683 558 556 600 667 637 663 615  
  3 616 516 652 697 695 648 707 725 563 595 675 660 659 587 680 711 676 683 717 716 626 627 637 702 693 705 670  
  4 696 616 697 724 723 695 725 729 661 660 712 715 714 659 711 726 713 716 728 727 694 692 693 720 722 721 710  
  5 295 261 409 447 495 466 583 603 277 326 419 360 393 355 501 528 477 529 591 550 340 373 429 509 463 544 443  
  6 386 295 447 516 561 495 603 648 329 360 482 459 473 393 528 587 530 550 618 607 404 427 463 556 536 569 492  
  7 514 386 516 616 650 561 648 695 451 459 563 564 586 473 587 659 609 607 676 674 510 545 536 627 624 643 577  
  8 651 514 616 696 709 650 695 723 596 564 661 672 682 586 659 714 686 674 713 719 628 635 624 692 706 701 668  
  9 211 179 261 295 407 379 466 495 199 214 277 238 298 267 355 393 388 412 477 457 228 282 307 373 337 430 314  
  10 296 211 295 386 498 407 495 561 239 238 329 328 387 298 393 473 458 457 530 523 290 332 337 427 421 486 377  
  11 445 296 386 514 605 498 561 650 354 328 451 475 517 387 473 586 548 523 609 621 403 462 421 545 554 567 490  
  12 604 445 514 651 691 605 650 709 534 475 596 619 657 517 586 682 654 621 686 698 557 598 554 635 666 664 613  
  13 184 159 179 211 382 342 379 407 169 168 199 198 274 235 267 298 350 358 388 389 178 251 249 282 284 366 258  
  14 266 184 211 296 469 382 407 498 223 198 239 276 346 274 298 387 411 389 458 479 229 304 284 332 364 425 312  
  15 405 266 296 445 581 469 498 605 322 276 354 417 499 346 387 517 521 479 548 593 334 424 364 462 505 542 441  
  16 582 405 445 604 678 581 605 691 504 417 534 588 629 499 517 657 633 593 654 684 513 565 505 598 638 639 574  
  17 294 265 471 493 447 409 584 606 270 351 474 397 353 324 524 547 419 500 594 533 368 333 435 538 461 512 442  
  18 378 294 493 559 516 447 606 652 327 397 522 480 454 353 547 611 482 533 622 595 433 402 461 571 541 558 491  
  19 515 378 559 649 616 516 652 697 455 480 610 592 562 454 611 671 563 595 675 660 539 507 541 636 625 626 576  
  20 647 515 649 708 696 616 697 724 597 592 688 685 673 562 671 718 661 660 712 715 645 623 625 703 704 694 669  
  21 163 136 265 294 295 261 409 447 140 194 270 221 219 192 324 353 277 326 419 360 201 200 248 333 285 340 256  
  22 230 163 294 378 386 295 447 516 196 221 327 300 299 219 353 454 329 360 482 459 253 243 285 402 367 404 313  
  23 380 230 378 515 514 386 516 616 297 300 455 456 448 299 454 562 451 459 563 564 369 363 367 507 506 510 439  
  24 560 380 515 647 651 514 616 696 483 456 597 608 612 448 562 673 596 564 661 672 546 535 506 623 640 628 575  
  25 90 76 136 163 211 179 261 295 81 93 140 126 141 118 192 219 199 214 277 238 102 128 147 200 176 228 154  
  26 158 90 163 230 296 211 295 386 123 126 196 188 217 141 219 299 239 238 329 328 151 171 176 243 250 290 207  
  27 292 158 230 380 445 296 386 514 215 188 297 321 345 217 299 448 354 328 451 475 247 280 250 363 399 403 311  
  28 494 292 380 560 604 445 514 651 398 321 483 519 551 345 448 612 534 475 596 619 437 460 399 535 570 557 488  
  29 78 53 76 90 184 159 179 211 55 58 81 84 122 97 118 141 169 168 199 198 65 109 105 128 132 178 112  
  30 134 78 90 158 266 184 211 296 99 84 123 138 190 122 141 217 223 198 239 276 111 146 132 171 202 229 153  
  31 262 134 158 292 405 266 296 445 191 138 215 269 319 190 217 345 322 276 354 417 203 241 202 280 331 334 255  
  32 467 262 292 494 582 405 445 604 361 269 398 481 527 319 345 551 504 417 534 588 374 423 331 460 543 513 438  
  33 210 182 383 410 294 265 471 493 193 275 390 301 237 216 413 452 270 351 474 397 283 226 306 431 339 368 315  
  34 293 210 410 496 378 294 493 559 236 301 453 395 320 237 452 518 327 397 522 480 338 281 339 484 422 433 376  
  35 446 293 496 602 515 378 559 649 362 395 552 525 472 320 518 617 455 480 610 592 464 401 422 566 555 539 487  
  36 601 446 602 689 647 515 649 708 531 525 658 655 620 472 617 700 597 592 688 685 599 553 555 662 665 645 614  
  37 88 75 182 210 163 136 265 294 80 117 193 137 119 98 216 237 140 194 270 221 130 108 149 226 174 201 155  
  38 162 88 210 293 230 163 294 378 125 137 236 220 185 119 237 320 196 221 327 300 175 145 174 281 242 253 208  
  39 291 162 293 446 380 230 378 515 222 220 362 357 318 185 320 472 297 300 455 456 289 240 242 401 400 369 309  
  40 497 291 446 601 560 380 515 647 396 357 531 549 532 318 472 620 483 456 597 608 465 420 400 553 568 546 489  
  41 39 23 75 88 90 76 136 163 28 42 80 57 63 41 98 119 81 93 140 126 46 47 68 108 87 102 71  
  42 89 39 88 162 158 90 163 230 62 57 125 124 116 63 119 185 123 126 196 188 86 85 87 145 144 151 113  
  43 209 89 162 291 292 158 230 380 142 124 222 233 231 116 185 318 215 188 297 321 177 170 144 240 279 247 206  
  44 408 209 291 497 494 292 380 560 302 233 396 450 449 231 318 532 398 321 483 519 341 330 279 420 485 437 375  
  45 21 11 23 39 78 53 76 90 12 16 28 24 40 27 41 63 55 58 81 84 18 34 32 47 50 65 36  
  46 77 21 39 89 134 78 90 158 45 24 62 82 91 40 63 116 99 84 123 138 51 64 50 85 100 111 70  
  47 180 77 89 209 262 134 158 292 127 82 142 186 212 91 116 231 191 138 215 269 133 143 100 170 224 203 152  
  48 381 180 209 408 467 262 292 494 278 186 302 391 415 212 231 449 361 269 398 481 288 303 224 330 434 374 310  
  49 183 161 343 384 210 182 383 410 166 234 349 271 197 164 356 392 193 275 390 301 244 172 245 371 287 283 259  
  50 263 183 384 468 293 210 410 496 213 271 416 347 273 197 392 476 236 301 453 395 305 227 287 432 365 338 316  
  51 406 263 468 585 446 293 496 602 323 347 520 502 418 273 476 589 362 395 552 525 426 335 365 540 508 464 440  
  52 580 406 585 679 601 446 602 689 503 502 632 634 590 418 589 687 531 525 658 655 572 511 508 646 642 599 579  
  53 73 54 161 183 88 75 182 210 59 94 166 120 83 56 164 197 80 117 193 137 107 66 104 172 131 130 115  
  54 135 73 183 263 162 88 210 293 95 120 213 195 139 83 197 273 125 137 236 220 148 110 131 227 204 175 157  
  55 264 135 263 406 291 162 293 446 187 195 323 325 272 139 273 418 222 220 362 357 252 205 204 335 336 289 257  
  56 470 264 406 580 497 291 446 601 359 325 503 526 478 272 418 590 396 357 531 549 428 372 336 511 537 465 444  
  57 22 9 54 73 39 23 75 88 15 26 59 43 29 14 56 83 28 42 80 57 30 19 33 66 48 46 37  
  58 74 22 73 135 89 39 88 162 44 43 95 92 79 29 83 139 62 57 125 124 67 49 48 110 103 86 72  
  59 181 74 135 264 209 89 162 291 121 92 187 218 189 79 139 272 142 124 222 233 150 129 103 205 225 177 156  
  60 385 181 264 470 408 209 291 497 268 218 359 414 394 189 272 478 302 233 396 450 308 286 225 372 436 341 317  
  61 10 1 9 22 21 11 23 39 2 4 15 13 17 3 14 29 12 16 28 24 5 7 6 19 20 18 8  
  62 52 10 22 74 77 21 39 89 25 13 44 60 61 17 29 79 45 24 62 82 31 35 20 49 69 51 38  
  63 160 52 74 181 180 77 89 209 96 60 121 167 165 61 79 189 127 82 142 186 106 101 69 129 173 133 114  
  64 344 160 181 385 381 180 209 408 232 167 268 348 352 165 189 394 278 186 302 391 246 254 173 286 370 288 260  
  END_ELEMENTS  
  COORDINATES  
   1   0.000000e+00  1.000000e+00  1.000000e+00   
   2   1.250000e-01  1.000000e+00  1.000000e+00   
   3   0.000000e+00  8.750000e-01  1.000000e+00   
   4   0.000000e+00  1.000000e+00  8.750000e-01   
   5   1.250000e-01  1.000000e+00  8.750000e-01   
   6   0.000000e+00  8.750000e-01  8.750000e-01   
   7   1.250000e-01  8.750000e-01  1.000000e+00   
   8   1.250000e-01  8.750000e-01  8.750000e-01   
   9   0.000000e+00  1.000000e+00  7.500000e-01   
   10   2.500000e-01  1.000000e+00  1.000000e+00   
   11   0.000000e+00  7.500000e-01  1.000000e+00   
   12   1.250000e-01  7.500000e-01  1.000000e+00   
   13   2.500000e-01  1.000000e+00  8.750000e-01   
   14   0.000000e+00  8.750000e-01  7.500000e-01   
   15   1.250000e-01  1.000000e+00  7.500000e-01   
   16   0.000000e+00  7.500000e-01  8.750000e-01   
   17   2.500000e-01  8.750000e-01  1.000000e+00   
   18   1.250000e-01  7.500000e-01  8.750000e-01   
   19   1.250000e-01  8.750000e-01  7.500000e-01   
   20   2.500000e-01  8.750000e-01  8.750000e-01   
   21   2.500000e-01  7.500000e-01  1.000000e+00   
   22   2.500000e-01  1.000000e+00  7.500000e-01   
   23   0.000000e+00  7.500000e-01  7.500000e-01   
   24   2.500000e-01  7.500000e-01  8.750000e-01   
   25   3.750000e-01  1.000000e+00  1.000000e+00   
   26   0.000000e+00  1.000000e+00  6.250000e-01   
   27   0.000000e+00  6.250000e-01  1.000000e+00   
   28   1.250000e-01  7.500000e-01  7.500000e-01   
   29   2.500000e-01  8.750000e-01  7.500000e-01   
   30   1.250000e-01  1.000000e+00  6.250000e-01   
   31   3.750000e-01  1.000000e+00  8.750000e-01   
   32   0.000000e+00  6.250000e-01  8.750000e-01   
   33   0.000000e+00  8.750000e-01  6.250000e-01   
   34   1.250000e-01  6.250000e-01  1.000000e+00   
   35   3.750000e-01  8.750000e-01  1.000000e+00   
   36   1.250000e-01  6.250000e-01  8.750000e-01   
   37   1.250000e-01  8.750000e-01  6.250000e-01   
   38   3.750000e-01  8.750000e-01  8.750000e-01   
   39   2.500000e-01  7.500000e-01  7.500000e-01   
   40   2.500000e-01  6.250000e-01  1.000000e+00   
   41   0.000000e+00  6.250000e-01  7.500000e-01   
   42   0.000000e+00  7.500000e-01  6.250000e-01   
   43   2.500000e-01  1.000000e+00  6.250000e-01   
   44   3.750000e-01  1.000000e+00  7.500000e-01   
   45   3.750000e-01  7.500000e-01  1.000000e+00   
   46   1.250000e-01  7.500000e-01  6.250000e-01   
   47   1.250000e-01  6.250000e-01  7.500000e-01   
   48   2.500000e-01  8.750000e-01  6.250000e-01   
   49   3.750000e-01  8.750000e-01  7.500000e-01   
   50   2.500000e-01  6.250000e-01  8.750000e-01   
   51   3.750000e-01  7.500000e-01  8.750000e-01   
   52   5.000000e-01  1.000000e+00  1.000000e+00   
   53   0.000000e+00  5.000000e-01  1.000000e+00   
   54   0.000000e+00  1.000000e+00  5.000000e-01   
   55   1.250000e-01  5.000000e-01  1.000000e+00   
   56   0.000000e+00  8.750000e-01  5.000000e-01   
   57   2.500000e-01  7.500000e-01  6.250000e-01   
   58   0.000000e+00  5.000000e-01  8.750000e-01   
   59   1.250000e-01  1.000000e+00  5.000000e-01   
   60   5.000000e-01  1.000000e+00  8.750000e-01   
   61   5.000000e-01  8.750000e-01  1.000000e+00   
   62   3.750000e-01  7.500000e-01  7.500000e-01   
   63   2.500000e-01  6.250000e-01  7.500000e-01   
   64   3.750000e-01  6.250000e-01  1.000000e+00   
   65   1.250000e-01  5.000000e-01  8.750000e-01   
   66   1.250000e-01  8.750000e-01  5.000000e-01   
   67   3.750000e-01  1.000000e+00  6.250000e-01   
   68   0.000000e+00  6.250000e-01  6.250000e-01   
   69   5.000000e-01  8.750000e-01  8.750000e-01   
   70   3.750000e-01  6.250000e-01  8.750000e-01   
   71   1.250000e-01  6.250000e-01  6.250000e-01   
   72   3.750000e-01  8.750000e-01  6.250000e-01   
   73   2.500000e-01  1.000000e+00  5.000000e-01   
   74   5.000000e-01  1.000000e+00  7.500000e-01   
   75   0.000000e+00  7.500000e-01  5.000000e-01   
   76   0.000000e+00  5.000000e-01  7.500000e-01   
   77   5.000000e-01  7.500000e-01  1.000000e+00   
   78   2.500000e-01  5.000000e-01  1.000000e+00   
   79   5.000000e-01  8.750000e-01  7.500000e-01   
   80   1.250000e-01  7.500000e-01  5.000000e-01   
   81   1.250000e-01  5.000000e-01  7.500000e-01   
   82   5.000000e-01  7.500000e-01  8.750000e-01   
   83   2.500000e-01  8.750000e-01  5.000000e-01   
   84   2.500000e-01  5.000000e-01  8.750000e-01   
   85   3.750000e-01  6.250000e-01  7.500000e-01   
   86   3.750000e-01  7.500000e-01  6.250000e-01   
   87   2.500000e-01  6.250000e-01  6.250000e-01   
   88   2.500000e-01  7.500000e-01  5.000000e-01   
   89   5.000000e-01  7.500000e-01  7.500000e-01   
   90   2.500000e-01  5.000000e-01  7.500000e-01   
   91   5.000000e-01  6.250000e-01  1.000000e+00   
   92   5.000000e-01  1.000000e+00  6.250000e-01   
   93   0.000000e+00  5.000000e-01  6.250000e-01   
   94   0.000000e+00  1.000000e+00  3.750000e-01   
   95   3.750000e-01  1.000000e+00  5.000000e-01   
   96   6.250000e-01  1.000000e+00  1.000000e+00   
   97   0.000000e+00  3.750000e-01  1.000000e+00   
   98   0.000000e+00  6.250000e-01  5.000000e-01   
   99   3.750000e-01  5.000000e-01  1.000000e+00   
   100   5.000000e-01  6.250000e-01  8.750000e-01   
   101   6.250000e-01  8.750000e-01  1.000000e+00   
   102   1.250000e-01  5.000000e-01  6.250000e-01   
   103   5.000000e-01  8.750000e-01  6.250000e-01   
   104   0.000000e+00  8.750000e-01  3.750000e-01   
   105   0.000000e+00  3.750000e-01  8.750000e-01   
   106   6.250000e-01  1.000000e+00  8.750000e-01   
   107   1.250000e-01  1.000000e+00  3.750000e-01   
   108   1.250000e-01  6.250000e-01  5.000000e-01   
   109   1.250000e-01  3.750000e-01  1.000000e+00   
   110   3.750000e-01  8.750000e-01  5.000000e-01   
   111   3.750000e-01  5.000000e-01  8.750000e-01   
   112   1.250000e-01  3.750000e-01  8.750000e-01   
   113   3.750000e-01  6.250000e-01  6.250000e-01   
   114   6.250000e-01  8.750000e-01  8.750000e-01   
   115   1.250000e-01  8.750000e-01  3.750000e-01   
   116   5.000000e-01  6.250000e-01  7.500000e-01   
   117   0.000000e+00  7.500000e-01  3.750000e-01   
   118   0.000000e+00  3.750000e-01  7.500000e-01   
   119   2.500000e-01  6.250000e-01  5.000000e-01   
   120   2.500000e-01  1.000000e+00  3.750000e-01   
   121   6.250000e-01  1.000000e+00  7.500000e-01   
   122   2.500000e-01  3.750000e-01  1.000000e+00   
   123   3.750000e-01  5.000000e-01  7.500000e-01   
   124   5.000000e-01  7.500000e-01  6.250000e-01   
   125   3.750000e-01  7.500000e-01  5.000000e-01   
   126   2.500000e-01  5.000000e-01  6.250000e-01   
   127   6.250000e-01  7.500000e-01  1.000000e+00   
   128   1.250000e-01  3.750000e-01  7.500000e-01   
   129   6.250000e-01  8.750000e-01  7.500000e-01   
   130   1.250000e-01  7.500000e-01  3.750000e-01   
   131   2.500000e-01  8.750000e-01  3.750000e-01   
   132   2.500000e-01  3.750000e-01  8.750000e-01   
   133   6.250000e-01  7.500000e-01  8.750000e-01   
   134   5.000000e-01  5.000000e-01  1.000000e+00   
   135   5.000000e-01  1.000000e+00  5.000000e-01   
   136   0.000000e+00  5.000000e-01  5.000000e-01   
   137   2.500000e-01  7.500000e-01  3.750000e-01   
   138   5.000000e-01  5.000000e-01  8.750000e-01   
   139   5.000000e-01  8.750000e-01  5.000000e-01   
   140   1.250000e-01  5.000000e-01  5.000000e-01   
   141   2.500000e-01  3.750000e-01  7.500000e-01   
   142   6.250000e-01  7.500000e-01  7.500000e-01   
   143   6.250000e-01  6.250000e-01  1.000000e+00   
   144   5.000000e-01  6.250000e-01  6.250000e-01   
   145   3.750000e-01  6.250000e-01  5.000000e-01   
   146   3.750000e-01  3.750000e-01  1.000000e+00   
   147   0.000000e+00  3.750000e-01  6.250000e-01   
   148   3.750000e-01  1.000000e+00  3.750000e-01   
   149   0.000000e+00  6.250000e-01  3.750000e-01   
   150   6.250000e-01  1.000000e+00  6.250000e-01   
   151   3.750000e-01  5.000000e-01  6.250000e-01   
   152   6.250000e-01  6.250000e-01  8.750000e-01   
   153   3.750000e-01  3.750000e-01  8.750000e-01   
   154   1.250000e-01  3.750000e-01  6.250000e-01   
   155   1.250000e-01  6.250000e-01  3.750000e-01   
   156   6.250000e-01  8.750000e-01  6.250000e-01   
   157   3.750000e-01  8.750000e-01  3.750000e-01   
   158   5.000000e-01  5.000000e-01  7.500000e-01   
   159   0.000000e+00  2.500000e-01  1.000000e+00   
   160   7.500000e-01  1.000000e+00  1.000000e+00   
   161   0.000000e+00  1.000000e+00  2.500000e-01   
   162   5.000000e-01  7.500000e-01  5.000000e-01   
   163   2.500000e-01  5.000000e-01  5.000000e-01   
   164   0.000000e+00  8.750000e-01  2.500000e-01   
   165   7.500000e-01  8.750000e-01  1.000000e+00   
   166   1.250000e-01  1.000000e+00  2.500000e-01   
   167   7.500000e-01  1.000000e+00  8.750000e-01   
   168   0.000000e+00  2.500000e-01  8.750000e-01   
   169   1.250000e-01  2.500000e-01  1.000000e+00   
   170   6.250000e-01  6.250000e-01  7.500000e-01   
   171   3.750000e-01  3.750000e-01  7.500000e-01   
   172   1.250000e-01  8.750000e-01  2.500000e-01   
   173   7.500000e-01  8.750000e-01  8.750000e-01   
   174   2.500000e-01  6.250000e-01  3.750000e-01   
   175   3.750000e-01  7.500000e-01  3.750000e-01   
   176   2.500000e-01  3.750000e-01  6.250000e-01   
   177   6.250000e-01  7.500000e-01  6.250000e-01   
   178   1.250000e-01  2.500000e-01  8.750000e-01   
   179   0.000000e+00  2.500000e-01  7.500000e-01   
   180   7.500000e-01  7.500000e-01  1.000000e+00   
   181   7.500000e-01  1.000000e+00  7.500000e-01   
   182   0.000000e+00  7.500000e-01  2.500000e-01   
   183   2.500000e-01  1.000000e+00  2.500000e-01   
   184   2.500000e-01  2.500000e-01  1.000000e+00   
   185   5.000000e-01  6.250000e-01  5.000000e-01   
   186   7.500000e-01  7.500000e-01  8.750000e-01   
   187   6.250000e-01  1.000000e+00  5.000000e-01   
   188   5.000000e-01  5.000000e-01  6.250000e-01   
   189   7.500000e-01  8.750000e-01  7.500000e-01   
   190   5.000000e-01  3.750000e-01  1.000000e+00   
   191   6.250000e-01  5.000000e-01  1.000000e+00   
   192   0.000000e+00  3.750000e-01  5.000000e-01   
   193   1.250000e-01  7.500000e-01  2.500000e-01   
   194   0.000000e+00  5.000000e-01  3.750000e-01   
   195   5.000000e-01  1.000000e+00  3.750000e-01   
   196   3.750000e-01  5.000000e-01  5.000000e-01   
   197   2.500000e-01  8.750000e-01  2.500000e-01   
   198   2.500000e-01  2.500000e-01  8.750000e-01   
   199   1.250000e-01  2.500000e-01  7.500000e-01   
   200   1.250000e-01  3.750000e-01  5.000000e-01   
   201   1.250000e-01  5.000000e-01  3.750000e-01   
   202   5.000000e-01  3.750000e-01  8.750000e-01   
   203   6.250000e-01  5.000000e-01  8.750000e-01   
   204   5.000000e-01  8.750000e-01  3.750000e-01   
   205   6.250000e-01  8.750000e-01  5.000000e-01   
   206   6.250000e-01  6.250000e-01  6.250000e-01   
   207   3.750000e-01  3.750000e-01  6.250000e-01   
   208   3.750000e-01  6.250000e-01  3.750000e-01   
   209   7.500000e-01  7.500000e-01  7.500000e-01   
   210   2.500000e-01  7.500000e-01  2.500000e-01   
   211   2.500000e-01  2.500000e-01  7.500000e-01   
   212   7.500000e-01  6.250000e-01  1.000000e+00   
   213   3.750000e-01  1.000000e+00  2.500000e-01   
   214   0.000000e+00  2.500000e-01  6.250000e-01   
   215   6.250000e-01  5.000000e-01  7.500000e-01   
   216   0.000000e+00  6.250000e-01  2.500000e-01   
   217   5.000000e-01  3.750000e-01  7.500000e-01   
   218   7.500000e-01  1.000000e+00  6.250000e-01   
   219   2.500000e-01  3.750000e-01  5.000000e-01   
   220   5.000000e-01  7.500000e-01  3.750000e-01   
   221   2.500000e-01  5.000000e-01  3.750000e-01   
   222   6.250000e-01  7.500000e-01  5.000000e-01   
   223   3.750000e-01  2.500000e-01  1.000000e+00   
   224   7.500000e-01  6.250000e-01  8.750000e-01   
   225   7.500000e-01  8.750000e-01  6.250000e-01   
   226   1.250000e-01  6.250000e-01  2.500000e-01   
   227   3.750000e-01  8.750000e-01  2.500000e-01   
   228   1.250000e-01  2.500000e-01  6.250000e-01   
   229   3.750000e-01  2.500000e-01  8.750000e-01   
   230   5.000000e-01  5.000000e-01  5.000000e-01   
   231   7.500000e-01  6.250000e-01  7.500000e-01   
   232   8.750000e-01  1.000000e+00  1.000000e+00   
   233   7.500000e-01  7.500000e-01  6.250000e-01   
   234   0.000000e+00  1.000000e+00  1.250000e-01   
   235   0.000000e+00  1.250000e-01  1.000000e+00   
   236   3.750000e-01  7.500000e-01  2.500000e-01   
   237   2.500000e-01  6.250000e-01  2.500000e-01   
   238   2.500000e-01  2.500000e-01  6.250000e-01   
   239   3.750000e-01  2.500000e-01  7.500000e-01   
   240   6.250000e-01  6.250000e-01  5.000000e-01   
   241   6.250000e-01  3.750000e-01  1.000000e+00   
   242   5.000000e-01  6.250000e-01  3.750000e-01   
   243   3.750000e-01  3.750000e-01  5.000000e-01   
   244   1.250000e-01  1.000000e+00  1.250000e-01   
   245   0.000000e+00  8.750000e-01  1.250000e-01   
   246   8.750000e-01  1.000000e+00  8.750000e-01   
   247   6.250000e-01  5.000000e-01  6.250000e-01   
   248   0.000000e+00  3.750000e-01  3.750000e-01   
   249   0.000000e+00  1.250000e-01  8.750000e-01   
   250   5.000000e-01  3.750000e-01  6.250000e-01   
   251   1.250000e-01  1.250000e-01  1.000000e+00   
   252   6.250000e-01  1.000000e+00  3.750000e-01   
   253   3.750000e-01  5.000000e-01  3.750000e-01   
   254   8.750000e-01  8.750000e-01  1.000000e+00   
   255   6.250000e-01  3.750000e-01  8.750000e-01   
   256   1.250000e-01  3.750000e-01  3.750000e-01   
   257   6.250000e-01  8.750000e-01  3.750000e-01   
   258   1.250000e-01  1.250000e-01  8.750000e-01   
   259   1.250000e-01  8.750000e-01  1.250000e-01   
   260   8.750000e-01  8.750000e-01  8.750000e-01   
   261   0.000000e+00  2.500000e-01  5.000000e-01   
   262   7.500000e-01  5.000000e-01  1.000000e+00   
   263   5.000000e-01  1.000000e+00  2.500000e-01   
   264   7.500000e-01  1.000000e+00  5.000000e-01   
   265   0.000000e+00  5.000000e-01  2.500000e-01   
   266   5.000000e-01  2.500000e-01  1.000000e+00   
   267   0.000000e+00  1.250000e-01  7.500000e-01   
   268   8.750000e-01  1.000000e+00  7.500000e-01   
   269   7.500000e-01  5.000000e-01  8.750000e-01   
   270   1.250000e-01  5.000000e-01  2.500000e-01   
   271   2.500000e-01  1.000000e+00  1.250000e-01   
   272   7.500000e-01  8.750000e-01  5.000000e-01   
   273   5.000000e-01  8.750000e-01  2.500000e-01   
   274   2.500000e-01  1.250000e-01  1.000000e+00   
   275   0.000000e+00  7.500000e-01  1.250000e-01   
   276   5.000000e-01  2.500000e-01  8.750000e-01   
   277   1.250000e-01  2.500000e-01  5.000000e-01   
   278   8.750000e-01  7.500000e-01  1.000000e+00   
   279   7.500000e-01  6.250000e-01  6.250000e-01   
   280   6.250000e-01  3.750000e-01  7.500000e-01   
   281   3.750000e-01  6.250000e-01  2.500000e-01   
   282   1.250000e-01  1.250000e-01  7.500000e-01   
   283   1.250000e-01  7.500000e-01  1.250000e-01   
   284   2.500000e-01  1.250000e-01  8.750000e-01   
   285   2.500000e-01  3.750000e-01  3.750000e-01   
   286   8.750000e-01  8.750000e-01  7.500000e-01   
   287   2.500000e-01  8.750000e-01  1.250000e-01   
   288   8.750000e-01  7.500000e-01  8.750000e-01   
   289   6.250000e-01  7.500000e-01  3.750000e-01   
   290   3.750000e-01  2.500000e-01  6.250000e-01   
   291   7.500000e-01  7.500000e-01  5.000000e-01   
   292   7.500000e-01  5.000000e-01  7.500000e-01   
   293   5.000000e-01  7.500000e-01  2.500000e-01   
   294   2.500000e-01  5.000000e-01  2.500000e-01   
   295   2.500000e-01  2.500000e-01  5.000000e-01   
   296   5.000000e-01  2.500000e-01  7.500000e-01   
   297   6.250000e-01  5.000000e-01  5.000000e-01   
   298   2.500000e-01  1.250000e-01  7.500000e-01   
   299   5.000000e-01  3.750000e-01  5.000000e-01   
   300   5.000000e-01  5.000000e-01  3.750000e-01   
   301   2.500000e-01  7.500000e-01  1.250000e-01   
   302   8.750000e-01  7.500000e-01  7.500000e-01   
   303   8.750000e-01  6.250000e-01  1.000000e+00   
   304   3.750000e-01  1.250000e-01  1.000000e+00   
   305   3.750000e-01  1.000000e+00  1.250000e-01   
   306   0.000000e+00  6.250000e-01  1.250000e-01   
   307   0.000000e+00  1.250000e-01  6.250000e-01   
   308   8.750000e-01  1.000000e+00  6.250000e-01   
   309   6.250000e-01  6.250000e-01  3.750000e-01   
   310   8.750000e-01  6.250000e-01  8.750000e-01   
   311   6.250000e-01  3.750000e-01  6.250000e-01   
   312   3.750000e-01  1.250000e-01  8.750000e-01   
   313   3.750000e-01  3.750000e-01  3.750000e-01   
   314   1.250000e-01  1.250000e-01  6.250000e-01   
   315   1.250000e-01  6.250000e-01  1.250000e-01   
   316   3.750000e-01  8.750000e-01  1.250000e-01   
   317   8.750000e-01  8.750000e-01  6.250000e-01   
   318   7.500000e-01  6.250000e-01  5.000000e-01   
   319   7.500000e-01  3.750000e-01  1.000000e+00   
   320   5.000000e-01  6.250000e-01  2.500000e-01   
   321   7.500000e-01  5.000000e-01  6.250000e-01   
   322   6.250000e-01  2.500000e-01  1.000000e+00   
   323   6.250000e-01  1.000000e+00  2.500000e-01   
   324   0.000000e+00  3.750000e-01  2.500000e-01   
   325   7.500000e-01  1.000000e+00  3.750000e-01   
   326   0.000000e+00  2.500000e-01  3.750000e-01   
   327   3.750000e-01  5.000000e-01  2.500000e-01   
   328   5.000000e-01  2.500000e-01  6.250000e-01   
   329   3.750000e-01  2.500000e-01  5.000000e-01   
   330   8.750000e-01  6.250000e-01  7.500000e-01   
   331   7.500000e-01  3.750000e-01  8.750000e-01   
   332   3.750000e-01  1.250000e-01  7.500000e-01   
   333   1.250000e-01  3.750000e-01  2.500000e-01   
   334   6.250000e-01  2.500000e-01  8.750000e-01   
   335   6.250000e-01  8.750000e-01  2.500000e-01   
   336   7.500000e-01  8.750000e-01  3.750000e-01   
   337   2.500000e-01  1.250000e-01  6.250000e-01   
   338   3.750000e-01  7.500000e-01  1.250000e-01   
   339   2.500000e-01  6.250000e-01  1.250000e-01   
   340   1.250000e-01  2.500000e-01  3.750000e-01   
   341   8.750000e-01  7.500000e-01  6.250000e-01   
   342   0.000000e+00  0.000000e+00  1.000000e+00   
   343   0.000000e+00  1.000000e+00  0.000000e+00   
   344   1.000000e+00  1.000000e+00  1.000000e+00   
   345   7.500000e-01  3.750000e-01  7.500000e-01   
   346   5.000000e-01  1.250000e-01  1.000000e+00   
   347   5.000000e-01  1.000000e+00  1.250000e-01   
   348   1.000000e+00  1.000000e+00  8.750000e-01   
   349   1.250000e-01  1.000000e+00  0.000000e+00   
   350   1.250000e-01  0.000000e+00  1.000000e+00   
   351   0.000000e+00  5.000000e-01  1.250000e-01   
   352   1.000000e+00  8.750000e-01  1.000000e+00   
   353   2.500000e-01  3.750000e-01  2.500000e-01   
   354   6.250000e-01  2.500000e-01  7.500000e-01   
   355   0.000000e+00  1.250000e-01  5.000000e-01   
   356   0.000000e+00  8.750000e-01  0.000000e+00   
   357   7.500000e-01  7.500000e-01  3.750000e-01   
   358   0.000000e+00  0.000000e+00  8.750000e-01   
   359   8.750000e-01  1.000000e+00  5.000000e-01   
   360   2.500000e-01  2.500000e-01  3.750000e-01   
   361   8.750000e-01  5.000000e-01  1.000000e+00   
   362   6.250000e-01  7.500000e-01  2.500000e-01   
   363   6.250000e-01  3.750000e-01  5.000000e-01   
   364   5.000000e-01  1.250000e-01  8.750000e-01   
   365   5.000000e-01  8.750000e-01  1.250000e-01   
   366   1.250000e-01  0.000000e+00  8.750000e-01   
   367   5.000000e-01  3.750000e-01  3.750000e-01   
   368   1.250000e-01  5.000000e-01  1.250000e-01   
   369   6.250000e-01  5.000000e-01  3.750000e-01   
   370   1.000000e+00  8.750000e-01  8.750000e-01   
   371   1.250000e-01  8.750000e-01  0.000000e+00   
   372   8.750000e-01  8.750000e-01  5.000000e-01   
   373   1.250000e-01  1.250000e-01  5.000000e-01   
   374   8.750000e-01  5.000000e-01  8.750000e-01   
   375   8.750000e-01  6.250000e-01  6.250000e-01   
   376   3.750000e-01  6.250000e-01  1.250000e-01   
   377   3.750000e-01  1.250000e-01  6.250000e-01   
   378   5.000000e-01  5.000000e-01  2.500000e-01   
   379   0.000000e+00  0.000000e+00  7.500000e-01   
   380   7.500000e-01  5.000000e-01  5.000000e-01   
   381   1.000000e+00  7.500000e-01  1.000000e+00   
   382   2.500000e-01  0.000000e+00  1.000000e+00   
   383   0.000000e+00  7.500000e-01  0.000000e+00   
   384   2.500000e-01  1.000000e+00  0.000000e+00   
   385   1.000000e+00  1.000000e+00  7.500000e-01   
   386   5.000000e-01  2.500000e-01  5.000000e-01   
   387   5.000000e-01  1.250000e-01  7.500000e-01   
   388   1.250000e-01  0.000000e+00  7.500000e-01   
   389   2.500000e-01  0.000000e+00  8.750000e-01   
   390   1.250000e-01  7.500000e-01  0.000000e+00   
   391   1.000000e+00  7.500000e-01  8.750000e-01   
   392   2.500000e-01  8.750000e-01  0.000000e+00   
   393   2.500000e-01  1.250000e-01  5.000000e-01   
   394   1.000000e+00  8.750000e-01  7.500000e-01   
   395   5.000000e-01  7.500000e-01  1.250000e-01   
   396   8.750000e-01  7.500000e-01  5.000000e-01   
   397   2.500000e-01  5.000000e-01  1.250000e-01   
   398   8.750000e-01  5.000000e-01  7.500000e-01   
   399   7.500000e-01  3.750000e-01  6.250000e-01   
   400   7.500000e-01  6.250000e-01  3.750000e-01   
   401   6.250000e-01  6.250000e-01  2.500000e-01   
   402   3.750000e-01  3.750000e-01  2.500000e-01   
   403   6.250000e-01  2.500000e-01  6.250000e-01   
   404   3.750000e-01  2.500000e-01  3.750000e-01   
   405   7.500000e-01  2.500000e-01  1.000000e+00   
   406   7.500000e-01  1.000000e+00  2.500000e-01   
   407   2.500000e-01  0.000000e+00  7.500000e-01   
   408   1.000000e+00  7.500000e-01  7.500000e-01   
   409   0.000000e+00  2.500000e-01  2.500000e-01   
   410   2.500000e-01  7.500000e-01  0.000000e+00   
   411   3.750000e-01  0.000000e+00  1.000000e+00   
   412   0.000000e+00  0.000000e+00  6.250000e-01   
   413   0.000000e+00  6.250000e-01  0.000000e+00   
   414   1.000000e+00  1.000000e+00  6.250000e-01   
   415   1.000000e+00  6.250000e-01  1.000000e+00   
   416   3.750000e-01  1.000000e+00  0.000000e+00   
   417   7.500000e-01  2.500000e-01  8.750000e-01   
   418   7.500000e-01  8.750000e-01  2.500000e-01   
   419   1.250000e-01  2.500000e-01  2.500000e-01   
   420   8.750000e-01  6.250000e-01  5.000000e-01   
   421   5.000000e-01  1.250000e-01  6.250000e-01   
   422   5.000000e-01  6.250000e-01  1.250000e-01   
   423   8.750000e-01  3.750000e-01  1.000000e+00   
   424   6.250000e-01  1.250000e-01  1.000000e+00   
   425   3.750000e-01  0.000000e+00  8.750000e-01   
   426   6.250000e-01  1.000000e+00  1.250000e-01   
   427   3.750000e-01  1.250000e-01  5.000000e-01   
   428   8.750000e-01  1.000000e+00  3.750000e-01   
   429   0.000000e+00  1.250000e-01  3.750000e-01   
   430   1.250000e-01  0.000000e+00  6.250000e-01   
   431   1.250000e-01  6.250000e-01  0.000000e+00   
   432   3.750000e-01  8.750000e-01  0.000000e+00   
   433   3.750000e-01  5.000000e-01  1.250000e-01   
   434   1.000000e+00  6.250000e-01  8.750000e-01   
   435   0.000000e+00  3.750000e-01  1.250000e-01   
   436   1.000000e+00  8.750000e-01  6.250000e-01   
   437   8.750000e-01  5.000000e-01  6.250000e-01   
   438   8.750000e-01  3.750000e-01  8.750000e-01   
   439   6.250000e-01  3.750000e-01  3.750000e-01   
   440   6.250000e-01  8.750000e-01  1.250000e-01   
   441   6.250000e-01  1.250000e-01  8.750000e-01   
   442   1.250000e-01  3.750000e-01  1.250000e-01   
   443   1.250000e-01  1.250000e-01  3.750000e-01   
   444   8.750000e-01  8.750000e-01  3.750000e-01   
   445   7.500000e-01  2.500000e-01  7.500000e-01   
   446   7.500000e-01  7.500000e-01  2.500000e-01   
   447   2.500000e-01  2.500000e-01  2.500000e-01   
   448   7.500000e-01  3.750000e-01  5.000000e-01   
   449   1.000000e+00  6.250000e-01  7.500000e-01   
   450   1.000000e+00  7.500000e-01  6.250000e-01   
   451   6.250000e-01  2.500000e-01  5.000000e-01   
   452   2.500000e-01  6.250000e-01  0.000000e+00   
   453   3.750000e-01  7.500000e-01  0.000000e+00   
   454   5.000000e-01  3.750000e-01  2.500000e-01   
   455   6.250000e-01  5.000000e-01  2.500000e-01   
   456   7.500000e-01  5.000000e-01  3.750000e-01   
   457   2.500000e-01  0.000000e+00  6.250000e-01   
   458   3.750000e-01  0.000000e+00  7.500000e-01   
   459   5.000000e-01  2.500000e-01  3.750000e-01   
   460   8.750000e-01  3.750000e-01  7.500000e-01   
   461   2.500000e-01  3.750000e-01  1.250000e-01   
   462   6.250000e-01  1.250000e-01  7.500000e-01   
   463   2.500000e-01  1.250000e-01  3.750000e-01   
   464   6.250000e-01  7.500000e-01  1.250000e-01   
   465   8.750000e-01  7.500000e-01  3.750000e-01   
   466   0.000000e+00  0.000000e+00  5.000000e-01   
   467   1.000000e+00  5.000000e-01  1.000000e+00   
   468   5.000000e-01  1.000000e+00  0.000000e+00   
   469   5.000000e-01  0.000000e+00  1.000000e+00   
   470   1.000000e+00  1.000000e+00  5.000000e-01   
   471   0.000000e+00  5.000000e-01  0.000000e+00   
   472   7.500000e-01  6.250000e-01  2.500000e-01   
   473   5.000000e-01  1.250000e-01  5.000000e-01   
   474   1.250000e-01  5.000000e-01  0.000000e+00   
   475   7.500000e-01  2.500000e-01  6.250000e-01   
   476   5.000000e-01  8.750000e-01  0.000000e+00   
   477   1.250000e-01  0.000000e+00  5.000000e-01   
   478   1.000000e+00  8.750000e-01  5.000000e-01   
   479   5.000000e-01  0.000000e+00  8.750000e-01   
   480   5.000000e-01  5.000000e-01  1.250000e-01   
   481   1.000000e+00  5.000000e-01  8.750000e-01   
   482   3.750000e-01  2.500000e-01  2.500000e-01   
   483   8.750000e-01  5.000000e-01  5.000000e-01   
   484   3.750000e-01  6.250000e-01  0.000000e+00   
   485   1.000000e+00  6.250000e-01  6.250000e-01   
   486   3.750000e-01  0.000000e+00  6.250000e-01   
   487   6.250000e-01  6.250000e-01  1.250000e-01   
   488   8.750000e-01  3.750000e-01  6.250000e-01   
   489   8.750000e-01  6.250000e-01  3.750000e-01   
   490   6.250000e-01  1.250000e-01  6.250000e-01   
   491   3.750000e-01  3.750000e-01  1.250000e-01   
   492   3.750000e-01  1.250000e-01  3.750000e-01   
   493   2.500000e-01  5.000000e-01  0.000000e+00   
   494   1.000000e+00  5.000000e-01  7.500000e-01   
   495   2.500000e-01  0.000000e+00  5.000000e-01   
   496   5.000000e-01  7.500000e-01  0.000000e+00   
   497   1.000000e+00  7.500000e-01  5.000000e-01   
   498   5.000000e-01  0.000000e+00  7.500000e-01   
   499   7.500000e-01  1.250000e-01  1.000000e+00   
   500   0.000000e+00  2.500000e-01  1.250000e-01   
   501   0.000000e+00  1.250000e-01  2.500000e-01   
   502   7.500000e-01  1.000000e+00  1.250000e-01   
   503   8.750000e-01  1.000000e+00  2.500000e-01   
   504   8.750000e-01  2.500000e-01  1.000000e+00   
   505   7.500000e-01  1.250000e-01  8.750000e-01   
   506   7.500000e-01  3.750000e-01  3.750000e-01   
   507   6.250000e-01  3.750000e-01  2.500000e-01   
   508   7.500000e-01  8.750000e-01  1.250000e-01   
   509   1.250000e-01  1.250000e-01  2.500000e-01   
   510   6.250000e-01  2.500000e-01  3.750000e-01   
   511   8.750000e-01  8.750000e-01  2.500000e-01   
   512   1.250000e-01  2.500000e-01  1.250000e-01   
   513   8.750000e-01  2.500000e-01  8.750000e-01   
   514   7.500000e-01  2.500000e-01  5.000000e-01   
   515   7.500000e-01  5.000000e-01  2.500000e-01   
   516   5.000000e-01  2.500000e-01  2.500000e-01   
   517   7.500000e-01  1.250000e-01  7.500000e-01   
   518   5.000000e-01  6.250000e-01  0.000000e+00   
   519   1.000000e+00  5.000000e-01  6.250000e-01   
   520   6.250000e-01  1.000000e+00  0.000000e+00   
   521   6.250000e-01  0.000000e+00  1.000000e+00   
   522   3.750000e-01  5.000000e-01  0.000000e+00   
   523   5.000000e-01  0.000000e+00  6.250000e-01   
   524   0.000000e+00  3.750000e-01  0.000000e+00   
   525   7.500000e-01  7.500000e-01  1.250000e-01   
   526   1.000000e+00  1.000000e+00  3.750000e-01   
   527   1.000000e+00  3.750000e-01  1.000000e+00   
   528   2.500000e-01  1.250000e-01  2.500000e-01   
   529   0.000000e+00  0.000000e+00  3.750000e-01   
   530   3.750000e-01  0.000000e+00  5.000000e-01   
   531   8.750000e-01  7.500000e-01  2.500000e-01   
   532   1.000000e+00  6.250000e-01  5.000000e-01   
   533   2.500000e-01  2.500000e-01  1.250000e-01   
   534   8.750000e-01  2.500000e-01  7.500000e-01   
   535   8.750000e-01  3.750000e-01  5.000000e-01   
   536   5.000000e-01  1.250000e-01  3.750000e-01   
   537   1.000000e+00  8.750000e-01  3.750000e-01   
   538   1.250000e-01  3.750000e-01  0.000000e+00   
   539   6.250000e-01  5.000000e-01  1.250000e-01   
   540   6.250000e-01  8.750000e-01  0.000000e+00   
   541   5.000000e-01  3.750000e-01  1.250000e-01   
   542   6.250000e-01  0.000000e+00  8.750000e-01   
   543   1.000000e+00  3.750000e-01  8.750000e-01   
   544   1.250000e-01  0.000000e+00  3.750000e-01   
   545   6.250000e-01  1.250000e-01  5.000000e-01   
   546   8.750000e-01  5.000000e-01  3.750000e-01   
   547   2.500000e-01  3.750000e-01  0.000000e+00   
   548   6.250000e-01  0.000000e+00  7.500000e-01   
   549   1.000000e+00  7.500000e-01  3.750000e-01   
   550   2.500000e-01  0.000000e+00  3.750000e-01   
   551   1.000000e+00  3.750000e-01  7.500000e-01   
   552   6.250000e-01  7.500000e-01  0.000000e+00   
   553   8.750000e-01  6.250000e-01  2.500000e-01   
   554   7.500000e-01  1.250000e-01  6.250000e-01   
   555   7.500000e-01  6.250000e-01  1.250000e-01   
   556   3.750000e-01  1.250000e-01  2.500000e-01   
   557   8.750000e-01  2.500000e-01  6.250000e-01   
   558   3.750000e-01  2.500000e-01  1.250000e-01   
   559   5.000000e-01  5.000000e-01  0.000000e+00   
   560   1.000000e+00  5.000000e-01  5.000000e-01   
   561   5.000000e-01  0.000000e+00  5.000000e-01   
   562   7.500000e-01  3.750000e-01  2.500000e-01   
   563   6.250000e-01  2.500000e-01  2.500000e-01   
   564   7.500000e-01  2.500000e-01  3.750000e-01   
   565   8.750000e-01  1.250000e-01  1.000000e+00   
   566   6.250000e-01  6.250000e-01  0.000000e+00   
   567   6.250000e-01  0.000000e+00  6.250000e-01   
   568   1.000000e+00  6.250000e-01  3.750000e-01   
   569   3.750000e-01  0.000000e+00  3.750000e-01   
   570   1.000000e+00  3.750000e-01  6.250000e-01   
   571   3.750000e-01  3.750000e-01  0.000000e+00   
   572   8.750000e-01  1.000000e+00  1.250000e-01   
   573   0.000000e+00  1.250000e-01  1.250000e-01   
   574   8.750000e-01  1.250000e-01  8.750000e-01   
   575   8.750000e-01  3.750000e-01  3.750000e-01   
   576   6.250000e-01  3.750000e-01  1.250000e-01   
   577   6.250000e-01  1.250000e-01  3.750000e-01   
   578   1.250000e-01  1.250000e-01  1.250000e-01   
   579   8.750000e-01  8.750000e-01  1.250000e-01   
   580   1.000000e+00  1.000000e+00  2.500000e-01   
   581   7.500000e-01  0.000000e+00  1.000000e+00   
   582   1.000000e+00  2.500000e-01  1.000000e+00   
   583   0.000000e+00  0.000000e+00  2.500000e-01   
   584   0.000000e+00  2.500000e-01  0.000000e+00   
   585   7.500000e-01  1.000000e+00  0.000000e+00   
   586   7.500000e-01  1.250000e-01  5.000000e-01   
   587   5.000000e-01  1.250000e-01  2.500000e-01   
   588   1.000000e+00  2.500000e-01  8.750000e-01   
   589   7.500000e-01  8.750000e-01  0.000000e+00   
   590   1.000000e+00  8.750000e-01  2.500000e-01   
   591   1.250000e-01  0.000000e+00  2.500000e-01   
   592   7.500000e-01  5.000000e-01  1.250000e-01   
   593   7.500000e-01  0.000000e+00  8.750000e-01   
   594   1.250000e-01  2.500000e-01  0.000000e+00   
   595   5.000000e-01  2.500000e-01  1.250000e-01   
   596   8.750000e-01  2.500000e-01  5.000000e-01   
   597   8.750000e-01  5.000000e-01  2.500000e-01   
   598   8.750000e-01  1.250000e-01  7.500000e-01   
   599   8.750000e-01  7.500000e-01  1.250000e-01   
   600   2.500000e-01  1.250000e-01  1.250000e-01   
   601   1.000000e+00  7.500000e-01  2.500000e-01   
   602   7.500000e-01  7.500000e-01  0.000000e+00   
   603   2.500000e-01  0.000000e+00  2.500000e-01   
   604   1.000000e+00  2.500000e-01  7.500000e-01   
   605   7.500000e-01  0.000000e+00  7.500000e-01   
   606   2.500000e-01  2.500000e-01  0.000000e+00   
   607   5.000000e-01  0.000000e+00  3.750000e-01   
   608   1.000000e+00  5.000000e-01  3.750000e-01   
   609   6.250000e-01  0.000000e+00  5.000000e-01   
   610   6.250000e-01  5.000000e-01  0.000000e+00   
   611   5.000000e-01  3.750000e-01  0.000000e+00   
   612   1.000000e+00  3.750000e-01  5.000000e-01   
   613   8.750000e-01  1.250000e-01  6.250000e-01   
   614   8.750000e-01  6.250000e-01  1.250000e-01   
   615   3.750000e-01  1.250000e-01  1.250000e-01   
   616   7.500000e-01  2.500000e-01  2.500000e-01   
   617   7.500000e-01  6.250000e-01  0.000000e+00   
   618   3.750000e-01  0.000000e+00  2.500000e-01   
   619   1.000000e+00  2.500000e-01  6.250000e-01   
   620   1.000000e+00  6.250000e-01  2.500000e-01   
   621   7.500000e-01  0.000000e+00  6.250000e-01   
   622   3.750000e-01  2.500000e-01  0.000000e+00   
   623   8.750000e-01  3.750000e-01  2.500000e-01   
   624   7.500000e-01  1.250000e-01  3.750000e-01   
   625   7.500000e-01  3.750000e-01  1.250000e-01   
   626   6.250000e-01  2.500000e-01  1.250000e-01   
   627   6.250000e-01  1.250000e-01  2.500000e-01   
   628   8.750000e-01  2.500000e-01  3.750000e-01   
   629   1.000000e+00  1.250000e-01  1.000000e+00   
   630   0.000000e+00  1.250000e-01  0.000000e+00   
   631   0.000000e+00  0.000000e+00  1.250000e-01   
   632   8.750000e-01  1.000000e+00  0.000000e+00   
   633   8.750000e-01  0.000000e+00  1.000000e+00   
   634   1.000000e+00  1.000000e+00  1.250000e-01   
   635   8.750000e-01  1.250000e-01  5.000000e-01   
   636   6.250000e-01  3.750000e-01  0.000000e+00   
   637   5.000000e-01  1.250000e-01  1.250000e-01   
   638   1.000000e+00  1.250000e-01  8.750000e-01   
   639   8.750000e-01  0.000000e+00  8.750000e-01   
   640   1.000000e+00  3.750000e-01  3.750000e-01   
   641   1.250000e-01  0.000000e+00  1.250000e-01   
   642   1.000000e+00  8.750000e-01  1.250000e-01   
   643   6.250000e-01  0.000000e+00  3.750000e-01   
   644   1.250000e-01  1.250000e-01  0.000000e+00   
   645   8.750000e-01  5.000000e-01  1.250000e-01   
   646   8.750000e-01  8.750000e-01  0.000000e+00   
   647   1.000000e+00  5.000000e-01  2.500000e-01   
   648   5.000000e-01  0.000000e+00  2.500000e-01   
   649   7.500000e-01  5.000000e-01  0.000000e+00   
   650   7.500000e-01  0.000000e+00  5.000000e-01   
   651   1.000000e+00  2.500000e-01  5.000000e-01   
   652   5.000000e-01  2.500000e-01  0.000000e+00   
   653   2.500000e-01  1.250000e-01  0.000000e+00   
   654   8.750000e-01  0.000000e+00  7.500000e-01   
   655   1.000000e+00  7.500000e-01  1.250000e-01   
   656   2.500000e-01  0.000000e+00  1.250000e-01   
   657   1.000000e+00  1.250000e-01  7.500000e-01   
   658   8.750000e-01  7.500000e-01  0.000000e+00   
   659   7.500000e-01  1.250000e-01  2.500000e-01   
   660   7.500000e-01  2.500000e-01  1.250000e-01   
   661   8.750000e-01  2.500000e-01  2.500000e-01   
   662   8.750000e-01  6.250000e-01  0.000000e+00   
   663   3.750000e-01  0.000000e+00  1.250000e-01   
   664   8.750000e-01  0.000000e+00  6.250000e-01   
   665   1.000000e+00  6.250000e-01  1.250000e-01   
   666   1.000000e+00  1.250000e-01  6.250000e-01   
   667   3.750000e-01  1.250000e-01  0.000000e+00   
   668   8.750000e-01  1.250000e-01  3.750000e-01   
   669   8.750000e-01  3.750000e-01  1.250000e-01   
   670   6.250000e-01  1.250000e-01  1.250000e-01   
   671   7.500000e-01  3.750000e-01  0.000000e+00   
   672   1.000000e+00  2.500000e-01  3.750000e-01   
   673   1.000000e+00  3.750000e-01  2.500000e-01   
   674   7.500000e-01  0.000000e+00  3.750000e-01   
   675   6.250000e-01  2.500000e-01  0.000000e+00   
   676   6.250000e-01  0.000000e+00  2.500000e-01   
   677   0.000000e+00  0.000000e+00  0.000000e+00   
   678   1.000000e+00  0.000000e+00  1.000000e+00   
   679   1.000000e+00  1.000000e+00  0.000000e+00   
   680   5.000000e-01  1.250000e-01  0.000000e+00   
   681   1.250000e-01  0.000000e+00  0.000000e+00   
   682   1.000000e+00  1.250000e-01  5.000000e-01   
   683   5.000000e-01  0.000000e+00  1.250000e-01   
   684   1.000000e+00  0.000000e+00  8.750000e-01   
   685   1.000000e+00  5.000000e-01  1.250000e-01   
   686   8.750000e-01  0.000000e+00  5.000000e-01   
   687   1.000000e+00  8.750000e-01  0.000000e+00   
   688   8.750000e-01  5.000000e-01  0.000000e+00   
   689   1.000000e+00  7.500000e-01  0.000000e+00   
   690   2.500000e-01  0.000000e+00  0.000000e+00   
   691   1.000000e+00  0.000000e+00  7.500000e-01   
   692   8.750000e-01  1.250000e-01  2.500000e-01   
   693   7.500000e-01  1.250000e-01  1.250000e-01   
   694   8.750000e-01  2.500000e-01  1.250000e-01   
   695   7.500000e-01  0.000000e+00  2.500000e-01   
   696   1.000000e+00  2.500000e-01  2.500000e-01   
   697   7.500000e-01  2.500000e-01  0.000000e+00   
   698   1.000000e+00  0.000000e+00  6.250000e-01   
   699   3.750000e-01  0.000000e+00  0.000000e+00   
   700   1.000000e+00  6.250000e-01  0.000000e+00   
   701   8.750000e-01  0.000000e+00  3.750000e-01   
   702   6.250000e-01  1.250000e-01  0.000000e+00   
   703   8.750000e-01  3.750000e-01  0.000000e+00   
   704   1.000000e+00  3.750000e-01  1.250000e-01   
   705   6.250000e-01  0.000000e+00  1.250000e-01   
   706   1.000000e+00  1.250000e-01  3.750000e-01   
   707   5.000000e-01  0.000000e+00  0.000000e+00   
   708   1.000000e+00  5.000000e-01  0.000000e+00   
   709   1.000000e+00  0.000000e+00  5.000000e-01   
   710   8.750000e-01  1.250000e-01  1.250000e-01   
   711   7.500000e-01  1.250000e-01  0.000000e+00   
   712   8.750000e-01  2.500000e-01  0.000000e+00   
   713   8.750000e-01  0.000000e+00  2.500000e-01   
   714   1.000000e+00  1.250000e-01  2.500000e-01   
   715   1.000000e+00  2.500000e-01  1.250000e-01   
   716   7.500000e-01  0.000000e+00  1.250000e-01   
   717   6.250000e-01  0.000000e+00  0.000000e+00   
   718   1.000000e+00  3.750000e-01  0.000000e+00   
   719   1.000000e+00  0.000000e+00  3.750000e-01   
   720   8.750000e-01  1.250000e-01  0.000000e+00   
   721   8.750000e-01  0.000000e+00  1.250000e-01   
   722   1.000000e+00  1.250000e-01  1.250000e-01   
   723   1.000000e+00  0.000000e+00  2.500000e-01   
   724   1.000000e+00  2.500000e-01  0.000000e+00   
   725   7.500000e-01  0.000000e+00  0.000000e+00   
   726   1.000000e+00  1.250000e-01  0.000000e+00   
   727   1.000000e+00  0.000000e+00  1.250000e-01   
   728   8.750000e-01  0.000000e+00  0.000000e+00   
   729   1.000000e+00  0.000000e+00  0.000000e+00   
  END_COORDINATES
  BOUNDARIES, ELEMENT
1  584 677 690 606 630 681 653 594 644   1 
2  409 583 677 584 501 631 630 500 573   1 
3  603 690 677 583 656 681 631 591 641   1 
4  648 707 690 603 683 699 656 618 663   2 
5  606 690 707 652 653 699 680 622 667   2 
6  652 707 725 697 680 717 711 675 702   3 
7  695 725 707 648 716 717 683 676 705   3 
8  697 725 729 724 711 728 726 712 720   4 
9  723 729 725 695 727 728 716 713 721   4 
10  696 724 729 723 715 726 727 714 722   4 
11  495 603 583 466 550 591 529 477 544   5 
12  261 466 583 409 355 529 501 326 429   5 
13  561 648 603 495 607 618 550 530 569   6 
14  650 695 648 561 674 676 607 609 643   7 
15  651 696 723 709 672 714 719 682 706   8 
16  709 723 695 650 719 713 674 686 701   8 
17  179 379 466 261 267 412 355 214 307   9 
18  407 495 466 379 457 477 412 388 430   9 
19  498 561 495 407 523 530 457 458 486   10 
20  605 650 561 498 621 609 523 548 567   11 
21  691 709 650 605 698 686 621 654 664   12 
22  604 651 709 691 619 682 698 657 666   12 
23  382 407 379 342 389 388 358 350 366   13 
24  184 382 342 159 274 350 235 169 251   13 
25  159 342 379 179 235 358 267 168 249   13 
26  266 469 382 184 346 411 274 223 304   14 
27  469 498 407 382 479 458 389 411 425   14 
28  581 605 498 469 593 548 479 521 542   15 
29  405 581 469 266 499 521 346 322 424   15 
30  582 678 581 405 629 633 499 504 565   16 
31  678 691 605 581 684 654 593 633 639   16 
32  582 604 691 678 588 657 684 629 638   16 
33  265 409 584 471 324 500 524 351 435   17 
34  471 584 606 493 524 594 547 474 538   17 
35  493 606 652 559 547 622 611 522 571   18 
36  559 652 697 649 611 675 671 610 636   19 
37  647 708 724 696 685 718 715 673 704   20 
38  649 697 724 708 671 712 718 688 703   20 
39  136 261 409 265 192 326 324 194 248   21 
40  560 647 696 651 608 673 672 612 640   24 
41  76 179 261 136 118 214 192 93 147   25 
42  494 560 651 604 519 612 619 551 570   28 
43  78 184 159 53 122 169 97 55 109   29 
44  53 159 179 76 97 168 118 58 105   29 
45  134 266 184 78 190 223 122 99 146   30 
46  262 405 266 134 319 322 190 191 241   31 
47  467 494 604 582 481 551 588 527 543   32 
48  467 582 405 262 527 504 319 361 423   32 
49  383 471 493 410 413 474 452 390 431   33 
50  182 265 471 383 216 351 413 275 306   33 
51  410 493 559 496 452 522 518 453 484   34 
52  496 559 649 602 518 610 617 552 566   35 
53  602 649 708 689 617 688 700 658 662   36 
54  601 689 708 647 655 700 685 620 665   36 
55  75 136 265 182 98 194 216 117 149   37 
56  497 601 647 560 549 620 608 532 568   40 
57  23 76 136 75 41 93 98 42 68   41 
58  408 497 560 494 450 532 519 449 485   44 
59  11 53 76 23 27 58 41 16 32   45 
60  21 78 53 11 40 55 27 12 34   45 
61  77 134 78 21 91 99 40 45 64   46 
62  180 262 134 77 212 191 91 127 143   47 
63  381 408 494 467 391 449 481 415 434   48 
64  381 467 262 180 415 361 212 278 303   48 
65  343 383 410 384 356 390 392 349 371   49 
66  183 161 343 384 166 234 349 271 244   49 
67  161 182 383 343 164 275 356 234 245   49 
68  384 410 496 468 392 453 476 416 432   50 
69  263 183 384 468 213 271 416 347 305   50 
70  468 496 602 585 476 552 589 520 540   51 
71  406 263 468 585 323 347 520 502 426   51 
72  585 602 689 679 589 658 687 632 646   52 
73  580 679 689 601 634 687 655 590 642   52 
74  580 406 585 679 503 502 632 634 572   52 
75  73 54 161 183 59 94 166 120 107   53 
76  54 75 182 161 56 117 164 94 104   53 
77  135 73 183 263 95 120 213 195 148   54 
78  264 135 263 406 187 195 323 325 252   55 
79  470 580 601 497 526 590 549 478 537   56 
80  470 264 406 580 359 325 503 526 428   56 
81  22 9 54 73 15 26 59 43 30   57 
82  9 23 75 54 14 42 56 26 33   57 
83  74 22 73 135 44 43 95 92 67   58 
84  181 74 135 264 121 92 187 218 150   59 
85  385 181 264 470 268 218 359 414 308   60 
86  385 470 497 408 414 478 450 394 436   60 
87  10 21 11 1 17 12 3 2 7   61 
88  1 11 23 9 3 16 14 4 6   61 
89  10 1 9 22 2 4 15 13 5   61 
90  52 77 21 10 61 45 17 25 35   62 
91  52 10 22 74 25 13 44 60 31   62 
92  160 180 77 52 165 127 61 96 101   63 
93  160 52 74 181 96 60 121 167 106   63 
94  344 381 180 160 352 278 165 232 254   64 
95  344 385 408 381 348 394 391 352 370   64 
96  344 160 181 385 232 167 268 348 246   64 
  END_BOUNDARIES

  MATERIALS, NUMBER=1, DEFAULT=1
  END_MATERIALS
  CHARACTERISTICS
  END_CHARACTERISTICS
