 0.28008600E-001
 0.28003187E-001
 0.28003187E-001
 0.28008600E-001
 0.28008600E-001
 0.28008600E-001
 0.28008600E-001
 0.28008600E-001
 0.28008600E-001
 0.28008600E-001
 0.28008600E-001
 0.28008600E-001
 0.28008600E-001
 0.28008600E-001
 0.28008600E-001
 0.28008600E-001
 0.28008600E-001
 0.28008600E-001
 0.28008600E-001
 0.28008600E-001
 0.28008600E-001
 0.28008600E-001
 0.28008599E-001
 0.28008587E-001
 0.28008432E-001
 0.28006949E-001
 0.27998486E-001
 0.27972182E-001
 0.27925950E-001
 0.27867400E-001
 0.27803704E-001
 0.27739288E-001
 0.27678972E-001
 0.27637415E-001
 0.27640392E-001
 0.27692324E-001
 0.27760248E-001
 0.27819912E-001
 0.27867651E-001
 0.27904845E-001
 0.27933267E-001
 0.27954549E-001
 0.27970136E-001
 0.27981282E-001
 0.27989053E-001
 0.27994327E-001
 0.27997802E-001
 0.28000027E-001
 0.28001410E-001
 0.28002246E-001
 0.28002734E-001
 0.28003008E-001
 0.28003145E-001
 0.28003145E-001
 0.28003008E-001
 0.28002734E-001
 0.28002246E-001
 0.28001410E-001
 0.28000027E-001
 0.27997802E-001
 0.27994327E-001
 0.27989053E-001
 0.27981282E-001
 0.27970136E-001
 0.27954549E-001
 0.27933267E-001
 0.27904845E-001
 0.27867651E-001
 0.27819912E-001
 0.27760248E-001
 0.27692324E-001
 0.27640392E-001
 0.27637415E-001
 0.27678972E-001
 0.27739288E-001
 0.27803705E-001
 0.27867400E-001
 0.27925957E-001
 0.27972204E-001
 0.27998468E-001
 0.28006951E-001
 0.28008432E-001
 0.28008587E-001
 0.28008599E-001
 0.28008600E-001
 0.28008600E-001
 0.28008600E-001
 0.28008600E-001
 0.28008600E-001
 0.28008600E-001
 0.28008600E-001
 0.28008600E-001
 0.28008600E-001
 0.28008600E-001
 0.28008600E-001
 0.28008600E-001
 0.28008600E-001
 0.28008600E-001
 0.28008600E-001
 0.28008600E-001
 0.28008600E-001
 0.28008600E-001
