 0.65000000E+000  0.00000000E+000
 0.13502712E+001 -0.18164539E-003
 0.13502712E+001  0.18164543E-003
 0.65000000E+000  0.00000000E+000
 0.64999867E+000  0.00000000E+000
 0.65000304E+000  0.00000000E+000
 0.64999447E+000  0.00000000E+000
 0.65000937E+000  0.00000000E+000
 0.64998503E+000  0.00000000E+000
 0.65002320E+000  0.00000000E+000
 0.64996563E+000  0.00000000E+000
 0.65004944E+000  0.00000000E+000
 0.64993173E+000  0.00000000E+000
 0.65009139E+000  0.00000000E+000
 0.64988239E+000  0.00000000E+000
 0.65014642E+000  0.00000000E+000
 0.64982415E+000  0.00000000E+000
 0.65020353E+000  0.00000000E+000
 0.64976749E+000  0.00000000E+000
 0.65024795E+000  0.00000000E+000
 0.64970518E+000  0.00000000E+000
 0.65025541E+000  0.00000000E+000
 0.64960469E+000  0.00000000E+000
 0.65021392E+000  0.00000000E+000
 0.65112699E+000  0.00000000E+000
 0.66399368E+000  0.00000000E+000
 0.73217667E+000  0.00000000E+000
 0.89412313E+000  0.00000000E+000
 0.10827319E+001  0.00000000E+000
 0.12592248E+001  0.00000000E+000
 0.13759349E+001  0.00000000E+000
 0.14487810E+001  0.00000000E+000
 0.14802405E+001  0.00000000E+000
 0.14877588E+001  0.00000000E+000
 0.14825694E+001  0.00000000E+000
 0.14742005E+001  0.00000000E+000
 0.14616003E+001  0.00000000E+000
 0.14459220E+001  0.00000000E+000
 0.14299496E+001  0.00000000E+000
 0.14146887E+001  0.00000000E+000
 0.14008467E+001  0.00000000E+000
 0.13888331E+001  0.00000000E+000
 0.13787256E+001  0.00000000E+000
 0.13706781E+001  0.00000000E+000
 0.13644331E+001  0.00000000E+000
 0.13596995E+001  0.00000000E+000
 0.13563802E+001  0.00000000E+000
 0.13541024E+001  0.00000000E+000
 0.13525962E+001  0.00000000E+000
 0.13516316E+001  0.00000000E+000
 0.13510282E+001  0.00000000E+000
 0.13506665E+001  0.00000000E+000
 0.13503908E+001  0.00000000E+000
 0.13503908E+001  0.00000000E+000
 0.13506665E+001  0.00000000E+000
 0.13510282E+001  0.00000000E+000
 0.13516316E+001  0.00000000E+000
 0.13525962E+001  0.00000000E+000
 0.13541024E+001  0.00000000E+000
 0.13563802E+001  0.00000000E+000
 0.13596995E+001  0.00000000E+000
 0.13644331E+001  0.00000000E+000
 0.13706781E+001  0.00000000E+000
 0.13787256E+001  0.00000000E+000
 0.13888331E+001  0.00000000E+000
 0.14008467E+001  0.00000000E+000
 0.14146887E+001  0.00000000E+000
 0.14299496E+001  0.00000000E+000
 0.14459219E+001  0.00000000E+000
 0.14616009E+001  0.00000000E+000
 0.14741987E+001  0.00000000E+000
 0.14825761E+001  0.00000000E+000
 0.14877430E+001  0.00000000E+000
 0.14803131E+001  0.00000000E+000
 0.14487000E+001  0.00000000E+000
 0.13765293E+001  0.00000000E+000
 0.12590945E+001  0.00000000E+000
 0.10851790E+001  0.00000000E+000
 0.89322062E+000  0.00000000E+000
 0.73409377E+000  0.00000000E+000
 0.66364402E+000  0.00000000E+000
 0.65310766E+000  0.00000000E+000
 0.64946461E+000  0.00000000E+000
 0.65060189E+000  0.00000000E+000
 0.64982161E+000  0.00000000E+000
 0.65004975E+000  0.00000000E+000
 0.65008995E+000  0.00000000E+000
 0.64986146E+000  0.00000000E+000
 0.65016065E+000  0.00000000E+000
 0.64984557E+000  0.00000000E+000
 0.65013699E+000  0.00000000E+000
 0.64988660E+000  0.00000000E+000
 0.65008962E+000  0.00000000E+000
 0.64993245E+000  0.00000000E+000
 0.65004915E+000  0.00000000E+000
 0.64996575E+000  0.00000000E+000
 0.65002315E+000  0.00000000E+000
 0.64998504E+000  0.00000000E+000
 0.65000937E+000  0.00000000E+000
 0.64999447E+000  0.00000000E+000
 0.65000304E+000  0.00000000E+000
 0.64999867E+000  0.00000000E+000
