 0.10555900E+004
 0.13988366E+004
 0.13988366E+004
 0.10555900E+004
 0.10555900E+004
 0.10555900E+004
 0.10555900E+004
 0.10555900E+004
 0.10555900E+004
 0.10555900E+004
 0.10555900E+004
 0.10555900E+004
 0.10555900E+004
 0.10555900E+004
 0.10555900E+004
 0.10555900E+004
 0.10555900E+004
 0.10555900E+004
 0.10555900E+004
 0.10555900E+004
 0.10555900E+004
 0.10555900E+004
 0.10555904E+004
 0.10555977E+004
 0.10557037E+004
 0.10568320E+004
 0.10643770E+004
 0.10927159E+004
 0.11497065E+004
 0.12203519E+004
 0.12796942E+004
 0.13192094E+004
 0.13459920E+004
 0.13633387E+004
 0.13741516E+004
 0.13812949E+004
 0.13863730E+004
 0.13900567E+004
 0.13927308E+004
 0.13946646E+004
 0.13960477E+004
 0.13970198E+004
 0.13976862E+004
 0.13981338E+004
 0.13984213E+004
 0.13985988E+004
 0.13987049E+004
 0.13987662E+004
 0.13988005E+004
 0.13988191E+004
 0.13988288E+004
 0.13988337E+004
 0.13988359E+004
 0.13988359E+004
 0.13988337E+004
 0.13988288E+004
 0.13988191E+004
 0.13988005E+004
 0.13987662E+004
 0.13987049E+004
 0.13985988E+004
 0.13984213E+004
 0.13981338E+004
 0.13976862E+004
 0.13970198E+004
 0.13960477E+004
 0.13946646E+004
 0.13927308E+004
 0.13900567E+004
 0.13863730E+004
 0.13812949E+004
 0.13741516E+004
 0.13633387E+004
 0.13459920E+004
 0.13192094E+004
 0.12796941E+004
 0.12203514E+004
 0.11496906E+004
 0.10926617E+004
 0.10643977E+004
 0.10568329E+004
 0.10557027E+004
 0.10555979E+004
 0.10555904E+004
 0.10555900E+004
 0.10555900E+004
 0.10555900E+004
 0.10555900E+004
 0.10555900E+004
 0.10555900E+004
 0.10555900E+004
 0.10555900E+004
 0.10555900E+004
 0.10555900E+004
 0.10555900E+004
 0.10555900E+004
 0.10555900E+004
 0.10555900E+004
 0.10555900E+004
 0.10555900E+004
 0.10555900E+004
 0.10555900E+004
