 0.37860936E-013
 0.17347658E-003
 0.17347658E-003
 0.37860936E-013
 0.24040711E-013
 0.59518058E-014
 0.93150422E-015
 0.96557071E-016
 0.69670379E-017
 0.36554508E-018
 0.14463174E-019
 0.44430759E-021
 0.10925538E-022
 0.20264581E-024
 0.55122242E-026
 0.93089014E-026
 0.13748709E-022
 0.54812860E-020
 0.87367970E-017
 0.37329469E-014
 0.32704288E-011
 0.11446472E-008
 0.46302364E-006
 0.96308229E-004
 0.15191891E-001
 0.11785421E+001
 0.28648701E+002
 0.18544427E+003
 0.59635465E+003
 0.12151830E+004
 0.18500050E+004
 0.23071214E+004
 0.23595854E+004
 0.18719819E+004
 0.11817951E+004
 0.71716356E+003
 0.46529889E+003
 0.30154511E+003
 0.18873947E+003
 0.11363021E+003
 0.65670393E+002
 0.36321222E+002
 0.19159643E+002
 0.96122211E+001
 0.45737024E+001
 0.20561165E+001
 0.87154607E+000
 0.34857315E+000
 0.13157425E+000
 0.46791286E-001
 0.15525548E-001
 0.46033510E-002
 0.10141379E-002
 0.10141379E-002
 0.46033510E-002
 0.15525548E-001
 0.46791286E-001
 0.13157425E+000
 0.34857315E+000
 0.87154607E+000
 0.20561165E+001
 0.45737024E+001
 0.96122211E+001
 0.19159643E+002
 0.36321222E+002
 0.65670393E+002
 0.11363021E+003
 0.18873947E+003
 0.30154511E+003
 0.46529889E+003
 0.71716356E+003
 0.11817951E+004
 0.18719822E+004
 0.23595862E+004
 0.23071264E+004
 0.18500220E+004
 0.12151586E+004
 0.59664736E+003
 0.18546044E+003
 0.28496973E+002
 0.11996773E+001
 0.14537528E-001
 0.10473554E-003
 0.40171372E-006
 0.14289155E-008
 0.23564054E-011
 0.58925293E-014
 0.48344541E-017
 0.11007704E-019
 0.66420046E-023
 0.62986325E-026
 0.53444750E-026
 0.20266805E-024
 0.10925533E-022
 0.44430759E-021
 0.14463174E-019
 0.36554508E-018
 0.69670379E-017
 0.96557071E-016
 0.93150422E-015
 0.59518058E-014
 0.24040711E-013
