 0.10555900E+004
 0.13988278E+004
 0.13988278E+004
 0.10555900E+004
 0.10555900E+004
 0.10555900E+004
 0.10555900E+004
 0.10555900E+004
 0.10555900E+004
 0.10555900E+004
 0.10555900E+004
 0.10555900E+004
 0.10555900E+004
 0.10555900E+004
 0.10555900E+004
 0.10555900E+004
 0.10555900E+004
 0.10555900E+004
 0.10555900E+004
 0.10555900E+004
 0.10555900E+004
 0.10555900E+004
 0.10555906E+004
 0.10555998E+004
 0.10557195E+004
 0.10568835E+004
 0.10640452E+004
 0.10895091E+004
 0.11402344E+004
 0.12053872E+004
 0.12650381E+004
 0.13068713E+004
 0.13360659E+004
 0.13559981E+004
 0.13687996E+004
 0.13770495E+004
 0.13828328E+004
 0.13871081E+004
 0.13903040E+004
 0.13926938E+004
 0.13944769E+004
 0.13957966E+004
 0.13967603E+004
 0.13974511E+004
 0.13979371E+004
 0.13982700E+004
 0.13984891E+004
 0.13986291E+004
 0.13987162E+004
 0.13987687E+004
 0.13987994E+004
 0.13988166E+004
 0.13988252E+004
 0.13988252E+004
 0.13988166E+004
 0.13987994E+004
 0.13987687E+004
 0.13987162E+004
 0.13986291E+004
 0.13984891E+004
 0.13982700E+004
 0.13979371E+004
 0.13974511E+004
 0.13967603E+004
 0.13957966E+004
 0.13944769E+004
 0.13926938E+004
 0.13903040E+004
 0.13871081E+004
 0.13828328E+004
 0.13770495E+004
 0.13687996E+004
 0.13559981E+004
 0.13360659E+004
 0.13068713E+004
 0.12650379E+004
 0.12053869E+004
 0.11402274E+004
 0.10894865E+004
 0.10640608E+004
 0.10568825E+004
 0.10557189E+004
 0.10556000E+004
 0.10555906E+004
 0.10555900E+004
 0.10555900E+004
 0.10555900E+004
 0.10555900E+004
 0.10555900E+004
 0.10555900E+004
 0.10555900E+004
 0.10555900E+004
 0.10555900E+004
 0.10555900E+004
 0.10555900E+004
 0.10555900E+004
 0.10555900E+004
 0.10555900E+004
 0.10555900E+004
 0.10555900E+004
 0.10555900E+004
 0.10555900E+004
