$------------------------------------------------------------------------
PHYSICAL_PROBLEM
$
  PROBLEM_DEFINITION
    TEMPORAL_DERIVATIVES:   On  
    CONVECTIVE_TERM:        Off
    CONDUCTION_TERM:        On
   $SOURCE_TERMS:           FIELD=1
  END_PROBLEM_DEFINITION
$
END_PHYSICAL_PROBLEM
$------------------------------------------------------------------------
NUMERICAL_TREATMENT
  STABILIZATION:           ASGS
  TAU_STRATEGY:            Codina
  ELEMENT_LENGTH:          Minimum
 $SHOCK_CAPTURING=         Anisotropic, VALUE: 0.9
  TIME_INTEGRATION:        Trapezoidal, ORDER: 1, EULER=5
  SAFETY_FACTOR:           1e3  EXPON 1.02 1e5             $  b) ... 
  STEADY_STATE_TOLERANCE= -1e-8  
  NORM_OF_CONVERGENCE:     L2   
  MAXIMUM_NUMBER_OF_ITER=  10  
  RELAXATION_FACTOR=       1.0 
  CONVERGENCE_TOLERANCE=   1e-6  
  $
  ALGEBRAIC_SOLVER
    SOLVER:                GMRES, KRYLOV=90
    CONVERGENCE:           ITERA=1000, TOLER=1.0e-10
    OUTPUT:                CONVERGENCE
    PRECONDITIONER:        DIAGONAL
    OPTION:                FIXITY
  END_ALGEBRAIC_SOLVER
  $
END_NUMERICAL_TREATMENT
$------------------------------------------------------------------------
OUTPUT_&_POST_PROCESS
  POSTPROCESS INITIAL
  POSTPROCESS TEMPER
  POSTPROCESS GRATE
 $POSTPROCESS HEATN
 $POSTPROCESS BVNAT
$
 WITNESS_POINTS
   TEMPE
  $FLUXX
  $FLUXY
  $FLUXZ
 END_WITNESS_POINTS
$
$  BOUNDARY_SET
$    MEAN_TEMPERATURE
$    MEAN_HEAT
$  END_BOUNDARY_SET
$
END_OUTPUT_&_POST_PROCESS
$------------------------------------------------------------------------
$
BOUNDARY_CONDITIONS
 $
 PARAMETERS
   INITIAL, CONSTANT = 373.0
 END_PARAMETERS
 $
 $INITIAL: VALUE = 1 
 $
 CODES, NODES
   INCLUDE Interior01.tem.codes 
 END_CODES
 $
 CODES, BOUNDARIES
   2  2  0.0  0.0  0.0  $ NEUMANN  
 END_CODES_BOUNDARIES
 $
END_BOUNDARY_CONDITIONS
$-----------------------------------------------------------------------

