0.00000000E+000
-4.20526904E-002
-3.90502768E-002
-3.54549814E-002
-3.18594409E-002
-2.82708285E-002
-2.46909842E-002
-2.11218632E-002
-1.75653571E-002
-1.40229627E-002
-1.04957709E-002
-6.98646806E-003
-3.50323644E-003
