# ALYA Lagrangian postprocess  
#
# HEADER
# T , Column :   1
# ILAGR , Column :   2
# ITYPE , Column :   3
# EXIST , Column :   4
# COORX , Column :   5
# COORY , Column :   6
# COORZ , Column :   7
# VELOX , Column :   8
# VELOY , Column :   9
# VELOZ , Column :  10
# DTK , Column :  11
# CD , Column :  12
# TEMPK , Column :  13
# MASSK , Column :  14
# DIAMK , Column :  15
#               T            ILAGR            ITYPE            EXIST            COORX            COORY            COORZ            VELOX            VELOY            VELOZ              DTK               CD            TEMPK            MASSK            DIAMK            
  0.00000000E+000                1                1               -5  0.00000000E+000  0.00000000E+000  0.00000000E+000  0.00000000E+000  0.00000000E+000  0.00000000E+000  1.00000000E-003  0.00000000E+000  2.73150000E+002  3.35546646E-011  4.00000000E-005
  2.00000000E-002                1                1               -1  0.00000000E+000 -6.76582703E-004  0.00000000E+000  0.00000000E+000 -4.20526904E-002  0.00000000E+000  1.00000000E-003  2.72588142E+002  3.03445029E+002  3.06844195E-011  3.89255718E-005
  4.00000000E-002                1                1               -1  0.00000000E+000 -1.48565585E-003  0.00000000E+000  0.00000000E+000 -3.90502768E-002  0.00000000E+000  1.00000000E-003  3.06191920E+002  3.03868611E+002  2.66599457E-011  3.71448331E-005
  6.00000000E-002                1                1               -1  0.00000000E+000 -2.22480847E-003  0.00000000E+000  0.00000000E+000 -3.54549814E-002  0.00000000E+000  1.00000000E-003  3.53405089E+002  3.03883230E+002  2.28320659E-011  3.52745073E-005
  8.00000000E-002                1                1               -1  0.00000000E+000 -2.89148489E-003  0.00000000E+000  0.00000000E+000 -3.18594409E-002  0.00000000E+000  1.00000000E-003  4.14247448E+002  3.03898003E+002  1.92262370E-011  3.33102495E-005
  1.00000000E-001                1                1               -1  0.00000000E+000 -3.48570072E-003  0.00000000E+000  0.00000000E+000 -2.82708285E-002  0.00000000E+000  1.00000000E-003  4.94813107E+002  3.03915780E+002  1.58516894E-011  3.12348188E-005
  1.20000000E-001                1                1               -1  0.00000000E+000 -4.00751224E-003  0.00000000E+000  0.00000000E+000 -2.46909842E-002  0.00000000E+000  1.00000000E-003  6.05320932E+002  3.03937698E+002  1.27194940E-011  2.90249354E-005
  1.40000000E-001                1                1               -1  0.00000000E+000 -4.45699950E-003  0.00000000E+000  0.00000000E+000 -2.11218632E-002  0.00000000E+000  1.00000000E-003  7.63949992E+002  3.03965586E+002  9.84337669E-012  2.66479472E-005
  1.60000000E-001                1                1               -1  0.00000000E+000 -4.83427305E-003  0.00000000E+000  0.00000000E+000 -1.75653571E-002  0.00000000E+000  1.00000000E-003  1.00598619E+003  3.04002637E+002  7.24091113E-012  2.40555278E-005
  1.80000000E-001                1                1               -1  0.00000000E+000 -5.13948427E-003  0.00000000E+000  0.00000000E+000 -1.40229627E-002  0.00000000E+000  1.00000000E-003  1.40863337E+003  3.04055068E+002  4.93562161E-012  2.11705978E-005
  2.00000000E-001                1                1               -1  0.00000000E+000 -5.37284278E-003  0.00000000E+000  0.00000000E+000 -1.04957709E-002  0.00000000E+000  1.00000000E-003  2.17321021E+003  3.04137176E+002  2.96114903E-012  1.78556536E-005
  2.20000000E-001                1                1               -1  0.00000000E+000 -5.53465294E-003  0.00000000E+000  0.00000000E+000 -6.98646806E-003  0.00000000E+000  1.00000000E-003  3.99873267E+003  3.04292859E+002  1.37117627E-012  1.38142112E-005
  2.40000000E-001                1                1               -6  0.00000000E+000 -5.62467941E-003  0.00000000E+000  0.00000000E+000 -3.50323644E-003  0.00000000E+000  6.44290123E-004  1.12632348E+004  3.04707159E+002  0.00000000E+000  0.00000000E+000
