4.00000000E-005
3.89255718E-005
3.71448331E-005
3.52745073E-005
3.33102495E-005
3.12348188E-005
2.90249354E-005
2.66479472E-005
2.40555278E-005
2.11705978E-005
1.78556536E-005
1.38142112E-005
0.00000000E+000
