{
    "authors": [
        "guillaume.houzeaux@bsc.es"
    ],
    "comparisons": [
        {
            "file": "hex27.post.msh",
            "method": "absolute",
            "tolerance": "1e-12"
        }
    ],
    "description": "Divide HEX27 elements using two levels of MM",
    "exclude": [
        "special"
    ],
    "executions": [
        {
            "mpi": 1,
            "openmp": 0
        }
    ],
    "modules": [
        "temper"
    ],
    "name": "hex27",
    "postprocess": "alya2pos"
}
