-0.70710678E+000 -0.00000000E+000 -0.70710678E+000
-0.70710678E+000 -0.00000000E+000 -0.70710678E+000
-0.70710678E+000 -0.00000000E+000 -0.70710678E+000
-0.70710678E+000 -0.00000000E+000 -0.70710678E+000
-0.70710678E+000 -0.00000000E+000 -0.70710678E+000
-0.70710678E+000 -0.00000000E+000 -0.70710678E+000
-0.70710678E+000 -0.00000000E+000 -0.70710678E+000
-0.70710678E+000 -0.00000000E+000 -0.70710678E+000
-0.70710678E+000 -0.00000000E+000 -0.70710678E+000
-0.70710678E+000 -0.00000000E+000 -0.70710678E+000
-0.70710678E+000 -0.00000000E+000 -0.70710678E+000
-0.70710678E+000 -0.00000000E+000 -0.70710678E+000
-0.70710678E+000 -0.00000000E+000 -0.70710678E+000
-0.70710678E+000 -0.00000000E+000 -0.70710678E+000
-0.70710678E+000 -0.00000000E+000 -0.70710678E+000
-0.70710678E+000 -0.00000000E+000 -0.70710678E+000
-0.70710678E+000 -0.00000000E+000 -0.70710678E+000
-0.70710678E+000 -0.00000000E+000 -0.70710678E+000
-0.70710678E+000 -0.00000000E+000 -0.70710678E+000
-0.70710678E+000 -0.00000000E+000 -0.70710678E+000
-0.70710678E+000 -0.00000000E+000 -0.70710678E+000
-0.70710678E+000 -0.00000000E+000 -0.70710678E+000
-0.70710678E+000 -0.00000000E+000 -0.70710678E+000
-0.70710678E+000 -0.00000000E+000 -0.70710678E+000
-0.70710678E+000 -0.00000000E+000 -0.70710678E+000
-0.70710678E+000 -0.00000000E+000 -0.70710678E+000
-0.70710678E+000 -0.00000000E+000 -0.70710678E+000
-0.70710678E+000 -0.00000000E+000 -0.70710678E+000
-0.70710678E+000 -0.00000000E+000 -0.70710678E+000
-0.70710678E+000 -0.00000000E+000 -0.70710678E+000
-0.70710678E+000 -0.00000000E+000 -0.70710678E+000
-0.70710678E+000 -0.00000000E+000 -0.70710678E+000
-0.70710678E+000 -0.00000000E+000 -0.70710678E+000
-0.70710678E+000 -0.00000000E+000 -0.70710678E+000
-0.70710678E+000 -0.00000000E+000 -0.70710678E+000
-0.70710678E+000 -0.00000000E+000 -0.70710678E+000
-0.70710678E+000 -0.00000000E+000 -0.70710678E+000
-0.70710678E+000 -0.00000000E+000 -0.70710678E+000
-0.70710678E+000 -0.00000000E+000 -0.70710678E+000
-0.70710678E+000 -0.00000000E+000 -0.70710678E+000
-0.70710678E+000 -0.00000000E+000 -0.70710678E+000
-0.70710678E+000 -0.00000000E+000 -0.70710678E+000
-0.70710678E+000 -0.00000000E+000 -0.70710678E+000
-0.70710678E+000 -0.00000000E+000 -0.70710678E+000
-0.70710678E+000 -0.00000000E+000 -0.70710678E+000
-0.70710678E+000 -0.00000000E+000 -0.70710678E+000
-0.70710678E+000 -0.00000000E+000 -0.70710678E+000
-0.70710678E+000 -0.00000000E+000 -0.70710678E+000
-0.70266064E+000  0.79170840E-001 -0.70710678E+000
-0.70266064E+000  0.79170840E-001 -0.70710678E+000
-0.70266064E+000  0.79170840E-001 -0.70710678E+000
-0.70266064E+000  0.79170840E-001 -0.70710678E+000
-0.70266064E+000  0.79170840E-001 -0.70710678E+000
-0.70266064E+000  0.79170840E-001 -0.70710678E+000
-0.70266064E+000  0.79170840E-001 -0.70710678E+000
-0.70266064E+000  0.79170840E-001 -0.70710678E+000
-0.66742630E+000  0.23354256E+000 -0.70710678E+000
-0.66742630E+000  0.23354256E+000 -0.70710678E+000
-0.66742630E+000  0.23354256E+000 -0.70710678E+000
-0.66742630E+000  0.23354256E+000 -0.70710678E+000
-0.66742630E+000  0.23354256E+000 -0.70710678E+000
-0.66742630E+000  0.23354256E+000 -0.70710678E+000
-0.66742630E+000  0.23354256E+000 -0.70710678E+000
-0.66742630E+000  0.23354256E+000 -0.70710678E+000
-0.59872442E+000  0.37620348E+000 -0.70710678E+000
-0.59872442E+000  0.37620348E+000 -0.70710678E+000
-0.59872442E+000  0.37620348E+000 -0.70710678E+000
-0.59872442E+000  0.37620348E+000 -0.70710678E+000
-0.59872442E+000  0.37620348E+000 -0.70710678E+000
-0.59872442E+000  0.37620348E+000 -0.70710678E+000
-0.59872442E+000  0.37620348E+000 -0.70710678E+000
-0.59872442E+000  0.37620348E+000 -0.70710678E+000
-0.50000000E+000  0.49999999E+000 -0.70710678E+000
-0.50000000E+000  0.49999999E+000 -0.70710678E+000
-0.50000000E+000  0.49999999E+000 -0.70710678E+000
-0.50000000E+000  0.49999999E+000 -0.70710678E+000
-0.50000000E+000  0.49999999E+000 -0.70710678E+000
-0.50000000E+000  0.49999999E+000 -0.70710678E+000
-0.50000000E+000  0.49999999E+000 -0.70710678E+000
-0.50000000E+000  0.49999999E+000 -0.70710678E+000
-0.37620348E+000  0.59872442E+000 -0.70710678E+000
-0.37620348E+000  0.59872442E+000 -0.70710678E+000
-0.37620348E+000  0.59872442E+000 -0.70710678E+000
-0.37620348E+000  0.59872442E+000 -0.70710678E+000
-0.37620348E+000  0.59872442E+000 -0.70710678E+000
-0.37620348E+000  0.59872442E+000 -0.70710678E+000
-0.37620348E+000  0.59872442E+000 -0.70710678E+000
-0.37620348E+000  0.59872442E+000 -0.70710678E+000
-0.23354256E+000  0.66742630E+000 -0.70710678E+000
-0.23354256E+000  0.66742630E+000 -0.70710678E+000
-0.23354256E+000  0.66742630E+000 -0.70710678E+000
-0.23354256E+000  0.66742630E+000 -0.70710678E+000
-0.23354256E+000  0.66742630E+000 -0.70710678E+000
-0.23354256E+000  0.66742630E+000 -0.70710678E+000
-0.23354256E+000  0.66742630E+000 -0.70710678E+000
-0.23354256E+000  0.66742630E+000 -0.70710678E+000
-0.79170840E-001  0.70266064E+000 -0.70710678E+000
-0.79170840E-001  0.70266064E+000 -0.70710678E+000
-0.79170840E-001  0.70266064E+000 -0.70710678E+000
-0.79170840E-001  0.70266064E+000 -0.70710678E+000
-0.79170840E-001  0.70266064E+000 -0.70710678E+000
-0.79170840E-001  0.70266064E+000 -0.70710678E+000
-0.79170840E-001  0.70266064E+000 -0.70710678E+000
-0.79170840E-001  0.70266064E+000 -0.70710678E+000
 0.00000000E+000  0.70710678E+000 -0.70710678E+000
 0.00000000E+000  0.70710678E+000 -0.70710678E+000
 0.00000000E+000  0.70710678E+000 -0.70710678E+000
 0.00000000E+000  0.70710678E+000 -0.70710678E+000
 0.00000000E+000  0.70710678E+000 -0.70710678E+000
 0.00000000E+000  0.70710678E+000 -0.70710678E+000
 0.00000000E+000  0.70710678E+000 -0.70710678E+000
 0.00000000E+000  0.70710678E+000 -0.70710678E+000
 0.00000000E+000  0.70710678E+000 -0.70710678E+000
 0.00000000E+000  0.70710678E+000 -0.70710678E+000
 0.00000000E+000  0.70710678E+000 -0.70710678E+000
 0.00000000E+000  0.70710678E+000 -0.70710678E+000
 0.00000000E+000  0.70710678E+000 -0.70710678E+000
 0.00000000E+000  0.70710678E+000 -0.70710678E+000
 0.00000000E+000  0.70710678E+000 -0.70710678E+000
 0.00000000E+000  0.70710678E+000 -0.70710678E+000
 0.00000000E+000  0.70710678E+000 -0.70710678E+000
 0.00000000E+000  0.70710678E+000 -0.70710678E+000
 0.00000000E+000  0.70710678E+000 -0.70710678E+000
 0.00000000E+000  0.70710678E+000 -0.70710678E+000
 0.00000000E+000  0.70710678E+000 -0.70710678E+000
 0.00000000E+000  0.70710678E+000 -0.70710678E+000
 0.00000000E+000  0.70710678E+000 -0.70710678E+000
 0.00000000E+000  0.70710678E+000 -0.70710678E+000
 0.00000000E+000  0.70710678E+000 -0.70710678E+000
 0.00000000E+000  0.70710678E+000 -0.70710678E+000
 0.00000000E+000  0.70710678E+000 -0.70710678E+000
 0.00000000E+000  0.70710678E+000 -0.70710678E+000
 0.00000000E+000  0.70710678E+000 -0.70710678E+000
 0.00000000E+000  0.70710678E+000 -0.70710678E+000
 0.00000000E+000  0.70710678E+000 -0.70710678E+000
 0.00000000E+000  0.70710678E+000 -0.70710678E+000
 0.00000000E+000  0.70710678E+000 -0.70710678E+000
 0.00000000E+000  0.70710678E+000 -0.70710678E+000
 0.00000000E+000  0.70710678E+000 -0.70710678E+000
 0.00000000E+000  0.70710678E+000 -0.70710678E+000
 0.00000000E+000  0.70710678E+000 -0.70710678E+000
 0.00000000E+000  0.70710678E+000 -0.70710678E+000
 0.00000000E+000  0.70710678E+000 -0.70710678E+000
 0.00000000E+000  0.70710678E+000 -0.70710678E+000
 0.00000000E+000  0.70710678E+000 -0.70710678E+000
 0.00000000E+000  0.70710678E+000 -0.70710678E+000
 0.00000000E+000  0.70710678E+000 -0.70710678E+000
 0.00000000E+000  0.70710678E+000 -0.70710678E+000
 0.00000000E+000  0.70710678E+000 -0.70710678E+000
 0.00000000E+000  0.70710678E+000 -0.70710678E+000
 0.00000000E+000  0.70710678E+000 -0.70710678E+000
 0.00000000E+000  0.70710678E+000 -0.70710678E+000
 0.00000000E+000  0.70710678E+000 -0.70710678E+000
 0.00000000E+000  0.70710678E+000 -0.70710678E+000
 0.00000000E+000  0.70710678E+000 -0.70710678E+000
 0.00000000E+000  0.70710678E+000 -0.70710678E+000
 0.00000000E+000  0.70710678E+000 -0.70710678E+000
 0.00000000E+000  0.70710678E+000 -0.70710678E+000
 0.00000000E+000  0.70710678E+000 -0.70710678E+000
 0.00000000E+000  0.70710678E+000 -0.70710678E+000
 0.00000000E+000  0.70710678E+000 -0.70710678E+000
 0.00000000E+000  0.70710678E+000 -0.70710678E+000
 0.00000000E+000  0.70710678E+000 -0.70710678E+000
 0.00000000E+000  0.70710678E+000 -0.70710678E+000
 0.00000000E+000  0.70710678E+000 -0.70710678E+000
 0.00000000E+000  0.70710678E+000 -0.70710678E+000
 0.00000000E+000  0.70710678E+000 -0.70710678E+000
 0.00000000E+000  0.70710678E+000 -0.70710678E+000
 0.00000000E+000  0.70710678E+000 -0.70710678E+000
 0.00000000E+000  0.70710678E+000 -0.70710678E+000
 0.00000000E+000  0.70710678E+000 -0.70710678E+000
 0.00000000E+000  0.70710678E+000 -0.70710678E+000
 0.00000000E+000  0.70710678E+000 -0.70710678E+000
 0.00000000E+000  0.70710678E+000 -0.70710678E+000
 0.00000000E+000  0.70710678E+000 -0.70710678E+000
 0.00000000E+000  0.70710678E+000 -0.70710678E+000
 0.00000000E+000  0.70710678E+000 -0.70710678E+000
 0.00000000E+000  0.70710678E+000 -0.70710678E+000
 0.00000000E+000  0.70710678E+000 -0.70710678E+000
 0.00000000E+000  0.70710678E+000 -0.70710678E+000
 0.00000000E+000  0.70710678E+000 -0.70710678E+000
 0.00000000E+000  0.70710678E+000 -0.70710678E+000
 0.00000000E+000  0.70710678E+000 -0.70710678E+000
 0.00000000E+000  0.70710678E+000 -0.70710678E+000
 0.79170840E-001  0.70266064E+000 -0.70710678E+000
 0.79170840E-001  0.70266064E+000 -0.70710678E+000
 0.79170840E-001  0.70266064E+000 -0.70710678E+000
 0.79170840E-001  0.70266064E+000 -0.70710678E+000
 0.79170840E-001  0.70266064E+000 -0.70710678E+000
 0.79170840E-001  0.70266064E+000 -0.70710678E+000
 0.79170840E-001  0.70266064E+000 -0.70710678E+000
 0.79170840E-001  0.70266064E+000 -0.70710678E+000
 0.23354256E+000  0.66742630E+000 -0.70710678E+000
 0.23354256E+000  0.66742630E+000 -0.70710678E+000
 0.23354256E+000  0.66742630E+000 -0.70710678E+000
 0.23354256E+000  0.66742630E+000 -0.70710678E+000
 0.23354256E+000  0.66742630E+000 -0.70710678E+000
 0.23354256E+000  0.66742630E+000 -0.70710678E+000
 0.23354256E+000  0.66742630E+000 -0.70710678E+000
 0.23354256E+000  0.66742630E+000 -0.70710678E+000
 0.37620348E+000  0.59872442E+000 -0.70710678E+000
 0.37620348E+000  0.59872442E+000 -0.70710678E+000
 0.37620348E+000  0.59872442E+000 -0.70710678E+000
 0.37620348E+000  0.59872442E+000 -0.70710678E+000
 0.37620348E+000  0.59872442E+000 -0.70710678E+000
 0.37620348E+000  0.59872442E+000 -0.70710678E+000
 0.37620348E+000  0.59872442E+000 -0.70710678E+000
 0.37620348E+000  0.59872442E+000 -0.70710678E+000
 0.49999999E+000  0.50000000E+000 -0.70710678E+000
 0.49999999E+000  0.50000000E+000 -0.70710678E+000
 0.49999999E+000  0.50000000E+000 -0.70710678E+000
 0.49999999E+000  0.50000000E+000 -0.70710678E+000
 0.49999999E+000  0.50000000E+000 -0.70710678E+000
 0.49999999E+000  0.50000000E+000 -0.70710678E+000
 0.49999999E+000  0.50000000E+000 -0.70710678E+000
 0.49999999E+000  0.50000000E+000 -0.70710678E+000
 0.59872442E+000  0.37620348E+000 -0.70710678E+000
 0.59872442E+000  0.37620348E+000 -0.70710678E+000
 0.59872442E+000  0.37620348E+000 -0.70710678E+000
 0.59872442E+000  0.37620348E+000 -0.70710678E+000
 0.59872442E+000  0.37620348E+000 -0.70710678E+000
 0.59872442E+000  0.37620348E+000 -0.70710678E+000
 0.59872442E+000  0.37620348E+000 -0.70710678E+000
 0.59872442E+000  0.37620348E+000 -0.70710678E+000
 0.66742630E+000  0.23354256E+000 -0.70710678E+000
 0.66742630E+000  0.23354256E+000 -0.70710678E+000
 0.66742630E+000  0.23354256E+000 -0.70710678E+000
 0.66742630E+000  0.23354256E+000 -0.70710678E+000
 0.66742630E+000  0.23354256E+000 -0.70710678E+000
 0.66742630E+000  0.23354256E+000 -0.70710678E+000
 0.66742630E+000  0.23354256E+000 -0.70710678E+000
 0.66742630E+000  0.23354256E+000 -0.70710678E+000
 0.70266064E+000  0.79170840E-001 -0.70710678E+000
 0.70266064E+000  0.79170840E-001 -0.70710678E+000
 0.70266064E+000  0.79170840E-001 -0.70710678E+000
 0.70266064E+000  0.79170840E-001 -0.70710678E+000
 0.70266064E+000  0.79170840E-001 -0.70710678E+000
 0.70266064E+000  0.79170840E-001 -0.70710678E+000
 0.70266064E+000  0.79170840E-001 -0.70710678E+000
 0.70266064E+000  0.79170840E-001 -0.70710678E+000
 0.70710678E+000  0.00000000E+000 -0.70710678E+000
 0.70710678E+000  0.00000000E+000 -0.70710678E+000
 0.70710678E+000  0.00000000E+000 -0.70710678E+000
 0.70710678E+000  0.00000000E+000 -0.70710678E+000
 0.70710678E+000  0.00000000E+000 -0.70710678E+000
 0.70710678E+000  0.00000000E+000 -0.70710678E+000
 0.70710678E+000  0.00000000E+000 -0.70710678E+000
 0.70710678E+000  0.00000000E+000 -0.70710678E+000
 0.70710678E+000  0.00000000E+000 -0.70710678E+000
 0.70710678E+000  0.00000000E+000 -0.70710678E+000
 0.70710678E+000  0.00000000E+000 -0.70710678E+000
 0.70710678E+000  0.00000000E+000 -0.70710678E+000
 0.70710678E+000  0.00000000E+000 -0.70710678E+000
 0.70710678E+000  0.00000000E+000 -0.70710678E+000
 0.70710678E+000  0.00000000E+000 -0.70710678E+000
 0.70710678E+000  0.00000000E+000 -0.70710678E+000
 0.70710678E+000  0.00000000E+000 -0.70710678E+000
 0.70710678E+000  0.00000000E+000 -0.70710678E+000
 0.70710678E+000  0.00000000E+000 -0.70710678E+000
 0.70710678E+000  0.00000000E+000 -0.70710678E+000
 0.70710678E+000  0.00000000E+000 -0.70710678E+000
 0.70710678E+000  0.00000000E+000 -0.70710678E+000
 0.70710678E+000  0.00000000E+000 -0.70710678E+000
 0.70710678E+000  0.00000000E+000 -0.70710678E+000
 0.70710678E+000  0.00000000E+000 -0.70710678E+000
 0.70710678E+000  0.00000000E+000 -0.70710678E+000
 0.70710678E+000  0.00000000E+000 -0.70710678E+000
 0.70710678E+000  0.00000000E+000 -0.70710678E+000
 0.70710678E+000  0.00000000E+000 -0.70710678E+000
 0.70710678E+000  0.00000000E+000 -0.70710678E+000
 0.70710678E+000  0.00000000E+000 -0.70710678E+000
 0.70710678E+000  0.00000000E+000 -0.70710678E+000
 0.70710678E+000  0.00000000E+000 -0.70710678E+000
 0.70710678E+000  0.00000000E+000 -0.70710678E+000
 0.70710678E+000  0.00000000E+000 -0.70710678E+000
 0.70710678E+000  0.00000000E+000 -0.70710678E+000
 0.70710678E+000  0.00000000E+000 -0.70710678E+000
 0.70710678E+000  0.00000000E+000 -0.70710678E+000
 0.70710678E+000  0.00000000E+000 -0.70710678E+000
 0.70710678E+000  0.00000000E+000 -0.70710678E+000
 0.70710678E+000  0.00000000E+000 -0.70710678E+000
 0.70710678E+000  0.00000000E+000 -0.70710678E+000
 0.70710678E+000  0.00000000E+000 -0.70710678E+000
 0.70710678E+000  0.00000000E+000 -0.70710678E+000
 0.70710678E+000  0.00000000E+000 -0.70710678E+000
 0.70710678E+000  0.00000000E+000 -0.70710678E+000
 0.70710678E+000  0.00000000E+000 -0.70710678E+000
 0.70710678E+000  0.00000000E+000 -0.70710678E+000
-0.70710678E+000  0.00000000E+000  0.70710678E+000
-0.70710678E+000  0.00000000E+000  0.70710678E+000
-0.70710678E+000  0.00000000E+000  0.70710678E+000
-0.70710678E+000  0.00000000E+000  0.70710678E+000
-0.70710678E+000  0.00000000E+000  0.70710678E+000
-0.70710678E+000  0.00000000E+000  0.70710678E+000
-0.70710678E+000  0.00000000E+000  0.70710678E+000
-0.70710678E+000  0.00000000E+000  0.70710678E+000
-0.70710678E+000  0.00000000E+000  0.70710678E+000
-0.70710678E+000  0.00000000E+000  0.70710678E+000
-0.70710678E+000  0.00000000E+000  0.70710678E+000
-0.70710678E+000  0.00000000E+000  0.70710678E+000
-0.70710678E+000  0.00000000E+000  0.70710678E+000
-0.70710678E+000  0.00000000E+000  0.70710678E+000
-0.70710678E+000  0.00000000E+000  0.70710678E+000
-0.70710678E+000  0.00000000E+000  0.70710678E+000
-0.70710678E+000  0.00000000E+000  0.70710678E+000
-0.70710678E+000  0.00000000E+000  0.70710678E+000
-0.70710678E+000  0.00000000E+000  0.70710678E+000
-0.70710678E+000  0.00000000E+000  0.70710678E+000
-0.70710678E+000  0.00000000E+000  0.70710678E+000
-0.70710678E+000  0.00000000E+000  0.70710678E+000
-0.70710678E+000  0.00000000E+000  0.70710678E+000
-0.70710678E+000  0.00000000E+000  0.70710678E+000
-0.70710678E+000  0.00000000E+000  0.70710678E+000
-0.70710678E+000  0.00000000E+000  0.70710678E+000
-0.70710678E+000  0.00000000E+000  0.70710678E+000
-0.70710678E+000  0.00000000E+000  0.70710678E+000
-0.70710678E+000  0.00000000E+000  0.70710678E+000
-0.70710678E+000  0.00000000E+000  0.70710678E+000
-0.70710678E+000  0.00000000E+000  0.70710678E+000
-0.70710678E+000  0.00000000E+000  0.70710678E+000
-0.70710678E+000  0.00000000E+000  0.70710678E+000
-0.70710678E+000  0.00000000E+000  0.70710678E+000
-0.70710678E+000  0.00000000E+000  0.70710678E+000
-0.70710678E+000  0.00000000E+000  0.70710678E+000
-0.70710678E+000  0.00000000E+000  0.70710678E+000
-0.70710678E+000  0.00000000E+000  0.70710678E+000
-0.70710678E+000  0.00000000E+000  0.70710678E+000
-0.70710678E+000  0.00000000E+000  0.70710678E+000
-0.70710678E+000  0.00000000E+000  0.70710678E+000
-0.70710678E+000  0.00000000E+000  0.70710678E+000
-0.70710678E+000  0.00000000E+000  0.70710678E+000
-0.70710678E+000  0.00000000E+000  0.70710678E+000
-0.70710678E+000  0.00000000E+000  0.70710678E+000
-0.70710678E+000  0.00000000E+000  0.70710678E+000
-0.70710678E+000  0.00000000E+000  0.70710678E+000
-0.70710678E+000  0.00000000E+000  0.70710678E+000
-0.70266064E+000  0.79170840E-001  0.70710678E+000
-0.70266064E+000  0.79170840E-001  0.70710678E+000
-0.70266064E+000  0.79170840E-001  0.70710678E+000
-0.70266064E+000  0.79170840E-001  0.70710678E+000
-0.70266064E+000  0.79170840E-001  0.70710678E+000
-0.70266064E+000  0.79170840E-001  0.70710678E+000
-0.70266064E+000  0.79170840E-001  0.70710678E+000
-0.70266064E+000  0.79170840E-001  0.70710678E+000
-0.66742630E+000  0.23354256E+000  0.70710678E+000
-0.66742630E+000  0.23354256E+000  0.70710678E+000
-0.66742630E+000  0.23354256E+000  0.70710678E+000
-0.66742630E+000  0.23354256E+000  0.70710678E+000
-0.66742630E+000  0.23354256E+000  0.70710678E+000
-0.66742630E+000  0.23354256E+000  0.70710678E+000
-0.66742630E+000  0.23354256E+000  0.70710678E+000
-0.66742630E+000  0.23354256E+000  0.70710678E+000
-0.59872442E+000  0.37620348E+000  0.70710678E+000
-0.59872442E+000  0.37620348E+000  0.70710678E+000
-0.59872442E+000  0.37620348E+000  0.70710678E+000
-0.59872442E+000  0.37620348E+000  0.70710678E+000
-0.59872442E+000  0.37620348E+000  0.70710678E+000
-0.59872442E+000  0.37620348E+000  0.70710678E+000
-0.59872442E+000  0.37620348E+000  0.70710678E+000
-0.59872442E+000  0.37620348E+000  0.70710678E+000
-0.50000000E+000  0.49999999E+000  0.70710678E+000
-0.50000000E+000  0.49999999E+000  0.70710678E+000
-0.50000000E+000  0.49999999E+000  0.70710678E+000
-0.50000000E+000  0.49999999E+000  0.70710678E+000
-0.50000000E+000  0.49999999E+000  0.70710678E+000
-0.50000000E+000  0.49999999E+000  0.70710678E+000
-0.50000000E+000  0.49999999E+000  0.70710678E+000
-0.50000000E+000  0.49999999E+000  0.70710678E+000
-0.37620348E+000  0.59872442E+000  0.70710678E+000
-0.37620348E+000  0.59872442E+000  0.70710678E+000
-0.37620348E+000  0.59872442E+000  0.70710678E+000
-0.37620348E+000  0.59872442E+000  0.70710678E+000
-0.37620348E+000  0.59872442E+000  0.70710678E+000
-0.37620348E+000  0.59872442E+000  0.70710678E+000
-0.37620348E+000  0.59872442E+000  0.70710678E+000
-0.37620348E+000  0.59872442E+000  0.70710678E+000
-0.23354256E+000  0.66742630E+000  0.70710678E+000
-0.23354256E+000  0.66742630E+000  0.70710678E+000
-0.23354256E+000  0.66742630E+000  0.70710678E+000
-0.23354256E+000  0.66742630E+000  0.70710678E+000
-0.23354256E+000  0.66742630E+000  0.70710678E+000
-0.23354256E+000  0.66742630E+000  0.70710678E+000
-0.23354256E+000  0.66742630E+000  0.70710678E+000
-0.23354256E+000  0.66742630E+000  0.70710678E+000
-0.79170840E-001  0.70266064E+000  0.70710678E+000
-0.79170840E-001  0.70266064E+000  0.70710678E+000
-0.79170840E-001  0.70266064E+000  0.70710678E+000
-0.79170840E-001  0.70266064E+000  0.70710678E+000
-0.79170840E-001  0.70266064E+000  0.70710678E+000
-0.79170840E-001  0.70266064E+000  0.70710678E+000
-0.79170840E-001  0.70266064E+000  0.70710678E+000
-0.79170840E-001  0.70266064E+000  0.70710678E+000
 0.00000000E+000  0.70710678E+000  0.70710678E+000
 0.00000000E+000  0.70710678E+000  0.70710678E+000
 0.00000000E+000  0.70710678E+000  0.70710678E+000
 0.00000000E+000  0.70710678E+000  0.70710678E+000
 0.00000000E+000  0.70710678E+000  0.70710678E+000
 0.00000000E+000  0.70710678E+000  0.70710678E+000
 0.00000000E+000  0.70710678E+000  0.70710678E+000
 0.00000000E+000  0.70710678E+000  0.70710678E+000
 0.00000000E+000  0.70710678E+000  0.70710678E+000
 0.00000000E+000  0.70710678E+000  0.70710678E+000
 0.00000000E+000  0.70710678E+000  0.70710678E+000
 0.00000000E+000  0.70710678E+000  0.70710678E+000
 0.00000000E+000  0.70710678E+000  0.70710678E+000
 0.00000000E+000  0.70710678E+000  0.70710678E+000
 0.00000000E+000  0.70710678E+000  0.70710678E+000
 0.00000000E+000  0.70710678E+000  0.70710678E+000
 0.00000000E+000  0.70710678E+000  0.70710678E+000
 0.00000000E+000  0.70710678E+000  0.70710678E+000
 0.00000000E+000  0.70710678E+000  0.70710678E+000
 0.00000000E+000  0.70710678E+000  0.70710678E+000
 0.00000000E+000  0.70710678E+000  0.70710678E+000
 0.00000000E+000  0.70710678E+000  0.70710678E+000
 0.00000000E+000  0.70710678E+000  0.70710678E+000
 0.00000000E+000  0.70710678E+000  0.70710678E+000
 0.00000000E+000  0.70710678E+000  0.70710678E+000
 0.00000000E+000  0.70710678E+000  0.70710678E+000
 0.00000000E+000  0.70710678E+000  0.70710678E+000
 0.00000000E+000  0.70710678E+000  0.70710678E+000
 0.00000000E+000  0.70710678E+000  0.70710678E+000
 0.00000000E+000  0.70710678E+000  0.70710678E+000
 0.00000000E+000  0.70710678E+000  0.70710678E+000
 0.00000000E+000  0.70710678E+000  0.70710678E+000
 0.00000000E+000  0.70710678E+000  0.70710678E+000
 0.00000000E+000  0.70710678E+000  0.70710678E+000
 0.00000000E+000  0.70710678E+000  0.70710678E+000
 0.00000000E+000  0.70710678E+000  0.70710678E+000
 0.00000000E+000  0.70710678E+000  0.70710678E+000
 0.00000000E+000  0.70710678E+000  0.70710678E+000
 0.00000000E+000  0.70710678E+000  0.70710678E+000
 0.00000000E+000  0.70710678E+000  0.70710678E+000
 0.00000000E+000  0.70710678E+000  0.70710678E+000
 0.00000000E+000  0.70710678E+000  0.70710678E+000
 0.00000000E+000  0.70710678E+000  0.70710678E+000
 0.00000000E+000  0.70710678E+000  0.70710678E+000
 0.00000000E+000  0.70710678E+000  0.70710678E+000
 0.00000000E+000  0.70710678E+000  0.70710678E+000
 0.00000000E+000  0.70710678E+000  0.70710678E+000
 0.00000000E+000  0.70710678E+000  0.70710678E+000
 0.00000000E+000  0.70710678E+000  0.70710678E+000
 0.00000000E+000  0.70710678E+000  0.70710678E+000
 0.00000000E+000  0.70710678E+000  0.70710678E+000
 0.00000000E+000  0.70710678E+000  0.70710678E+000
 0.00000000E+000  0.70710678E+000  0.70710678E+000
 0.00000000E+000  0.70710678E+000  0.70710678E+000
 0.00000000E+000  0.70710678E+000  0.70710678E+000
 0.00000000E+000  0.70710678E+000  0.70710678E+000
 0.00000000E+000  0.70710678E+000  0.70710678E+000
 0.00000000E+000  0.70710678E+000  0.70710678E+000
 0.00000000E+000  0.70710678E+000  0.70710678E+000
 0.00000000E+000  0.70710678E+000  0.70710678E+000
 0.00000000E+000  0.70710678E+000  0.70710678E+000
 0.00000000E+000  0.70710678E+000  0.70710678E+000
 0.00000000E+000  0.70710678E+000  0.70710678E+000
 0.00000000E+000  0.70710678E+000  0.70710678E+000
 0.00000000E+000  0.70710678E+000  0.70710678E+000
 0.00000000E+000  0.70710678E+000  0.70710678E+000
 0.00000000E+000  0.70710678E+000  0.70710678E+000
 0.00000000E+000  0.70710678E+000  0.70710678E+000
 0.00000000E+000  0.70710678E+000  0.70710678E+000
 0.00000000E+000  0.70710678E+000  0.70710678E+000
 0.00000000E+000  0.70710678E+000  0.70710678E+000
 0.00000000E+000  0.70710678E+000  0.70710678E+000
 0.00000000E+000  0.70710678E+000  0.70710678E+000
 0.00000000E+000  0.70710678E+000  0.70710678E+000
 0.00000000E+000  0.70710678E+000  0.70710678E+000
 0.00000000E+000  0.70710678E+000  0.70710678E+000
 0.00000000E+000  0.70710678E+000  0.70710678E+000
 0.00000000E+000  0.70710678E+000  0.70710678E+000
 0.00000000E+000  0.70710678E+000  0.70710678E+000
 0.00000000E+000  0.70710678E+000  0.70710678E+000
 0.79170840E-001  0.70266064E+000  0.70710678E+000
 0.79170840E-001  0.70266064E+000  0.70710678E+000
 0.79170840E-001  0.70266064E+000  0.70710678E+000
 0.79170840E-001  0.70266064E+000  0.70710678E+000
 0.79170840E-001  0.70266064E+000  0.70710678E+000
 0.79170840E-001  0.70266064E+000  0.70710678E+000
 0.79170840E-001  0.70266064E+000  0.70710678E+000
 0.79170840E-001  0.70266064E+000  0.70710678E+000
 0.23354256E+000  0.66742630E+000  0.70710678E+000
 0.23354256E+000  0.66742630E+000  0.70710678E+000
 0.23354256E+000  0.66742630E+000  0.70710678E+000
 0.23354256E+000  0.66742630E+000  0.70710678E+000
 0.23354256E+000  0.66742630E+000  0.70710678E+000
 0.23354256E+000  0.66742630E+000  0.70710678E+000
 0.23354256E+000  0.66742630E+000  0.70710678E+000
 0.23354256E+000  0.66742630E+000  0.70710678E+000
 0.37620348E+000  0.59872442E+000  0.70710678E+000
 0.37620348E+000  0.59872442E+000  0.70710678E+000
 0.37620348E+000  0.59872442E+000  0.70710678E+000
 0.37620348E+000  0.59872442E+000  0.70710678E+000
 0.37620348E+000  0.59872442E+000  0.70710678E+000
 0.37620348E+000  0.59872442E+000  0.70710678E+000
 0.37620348E+000  0.59872442E+000  0.70710678E+000
 0.37620348E+000  0.59872442E+000  0.70710678E+000
 0.49999999E+000  0.50000000E+000  0.70710678E+000
 0.49999999E+000  0.50000000E+000  0.70710678E+000
 0.49999999E+000  0.50000000E+000  0.70710678E+000
 0.49999999E+000  0.50000000E+000  0.70710678E+000
 0.49999999E+000  0.50000000E+000  0.70710678E+000
 0.49999999E+000  0.50000000E+000  0.70710678E+000
 0.49999999E+000  0.50000000E+000  0.70710678E+000
 0.49999999E+000  0.50000000E+000  0.70710678E+000
 0.59872442E+000  0.37620348E+000  0.70710678E+000
 0.59872442E+000  0.37620348E+000  0.70710678E+000
 0.59872442E+000  0.37620348E+000  0.70710678E+000
 0.59872442E+000  0.37620348E+000  0.70710678E+000
 0.59872442E+000  0.37620348E+000  0.70710678E+000
 0.59872442E+000  0.37620348E+000  0.70710678E+000
 0.59872442E+000  0.37620348E+000  0.70710678E+000
 0.59872442E+000  0.37620348E+000  0.70710678E+000
 0.66742630E+000  0.23354256E+000  0.70710678E+000
 0.66742630E+000  0.23354256E+000  0.70710678E+000
 0.66742630E+000  0.23354256E+000  0.70710678E+000
 0.66742630E+000  0.23354256E+000  0.70710678E+000
 0.66742630E+000  0.23354256E+000  0.70710678E+000
 0.66742630E+000  0.23354256E+000  0.70710678E+000
 0.66742630E+000  0.23354256E+000  0.70710678E+000
 0.66742630E+000  0.23354256E+000  0.70710678E+000
 0.70266064E+000  0.79170840E-001  0.70710678E+000
 0.70266064E+000  0.79170840E-001  0.70710678E+000
 0.70266064E+000  0.79170840E-001  0.70710678E+000
 0.70266064E+000  0.79170840E-001  0.70710678E+000
 0.70266064E+000  0.79170840E-001  0.70710678E+000
 0.70266064E+000  0.79170840E-001  0.70710678E+000
 0.70266064E+000  0.79170840E-001  0.70710678E+000
 0.70266064E+000  0.79170840E-001  0.70710678E+000
 0.70710678E+000 -0.00000000E+000  0.70710678E+000
 0.70710678E+000 -0.00000000E+000  0.70710678E+000
 0.70710678E+000 -0.00000000E+000  0.70710678E+000
 0.70710678E+000 -0.00000000E+000  0.70710678E+000
 0.70710678E+000 -0.00000000E+000  0.70710678E+000
 0.70710678E+000 -0.00000000E+000  0.70710678E+000
 0.70710678E+000 -0.00000000E+000  0.70710678E+000
 0.70710678E+000 -0.00000000E+000  0.70710678E+000
 0.70710678E+000 -0.00000000E+000  0.70710678E+000
 0.70710678E+000 -0.00000000E+000  0.70710678E+000
 0.70710678E+000 -0.00000000E+000  0.70710678E+000
 0.70710678E+000 -0.00000000E+000  0.70710678E+000
 0.70710678E+000 -0.00000000E+000  0.70710678E+000
 0.70710678E+000 -0.00000000E+000  0.70710678E+000
 0.70710678E+000 -0.00000000E+000  0.70710678E+000
 0.70710678E+000 -0.00000000E+000  0.70710678E+000
 0.70710678E+000 -0.00000000E+000  0.70710678E+000
 0.70710678E+000 -0.00000000E+000  0.70710678E+000
 0.70710678E+000 -0.00000000E+000  0.70710678E+000
 0.70710678E+000 -0.00000000E+000  0.70710678E+000
 0.70710678E+000 -0.00000000E+000  0.70710678E+000
 0.70710678E+000 -0.00000000E+000  0.70710678E+000
 0.70710678E+000 -0.00000000E+000  0.70710678E+000
 0.70710678E+000 -0.00000000E+000  0.70710678E+000
 0.70710678E+000 -0.00000000E+000  0.70710678E+000
 0.70710678E+000 -0.00000000E+000  0.70710678E+000
 0.70710678E+000 -0.00000000E+000  0.70710678E+000
 0.70710678E+000 -0.00000000E+000  0.70710678E+000
 0.70710678E+000 -0.00000000E+000  0.70710678E+000
 0.70710678E+000 -0.00000000E+000  0.70710678E+000
 0.70710678E+000 -0.00000000E+000  0.70710678E+000
 0.70710678E+000 -0.00000000E+000  0.70710678E+000
 0.70710678E+000 -0.00000000E+000  0.70710678E+000
 0.70710678E+000 -0.00000000E+000  0.70710678E+000
 0.70710678E+000 -0.00000000E+000  0.70710678E+000
 0.70710678E+000 -0.00000000E+000  0.70710678E+000
 0.70710678E+000 -0.00000000E+000  0.70710678E+000
 0.70710678E+000 -0.00000000E+000  0.70710678E+000
 0.70710678E+000 -0.00000000E+000  0.70710678E+000
 0.70710678E+000 -0.00000000E+000  0.70710678E+000
 0.70710678E+000 -0.00000000E+000  0.70710678E+000
 0.70710678E+000 -0.00000000E+000  0.70710678E+000
 0.70710678E+000 -0.00000000E+000  0.70710678E+000
 0.70710678E+000 -0.00000000E+000  0.70710678E+000
 0.70710678E+000 -0.00000000E+000  0.70710678E+000
 0.70710678E+000 -0.00000000E+000  0.70710678E+000
 0.70710678E+000 -0.00000000E+000  0.70710678E+000
 0.70710678E+000 -0.00000000E+000  0.70710678E+000
-0.61232339E-016 -0.00000000E+000 -0.10000000E+001
-0.61232339E-016 -0.00000000E+000 -0.10000000E+001
-0.61232339E-016 -0.00000000E+000 -0.10000000E+001
-0.61232339E-016 -0.00000000E+000 -0.10000000E+001
-0.61232339E-016 -0.00000000E+000 -0.10000000E+001
-0.61232339E-016 -0.00000000E+000 -0.10000000E+001
-0.61232339E-016 -0.00000000E+000 -0.10000000E+001
-0.61232339E-016 -0.00000000E+000 -0.10000000E+001
-0.61232339E-016 -0.00000000E+000 -0.10000000E+001
-0.61232339E-016 -0.00000000E+000 -0.10000000E+001
-0.61232339E-016 -0.00000000E+000 -0.10000000E+001
-0.61232339E-016 -0.00000000E+000 -0.10000000E+001
-0.61232339E-016 -0.00000000E+000 -0.10000000E+001
-0.61232339E-016 -0.00000000E+000 -0.10000000E+001
-0.61232339E-016 -0.00000000E+000 -0.10000000E+001
-0.61232339E-016 -0.00000000E+000 -0.10000000E+001
-0.61232339E-016 -0.00000000E+000 -0.10000000E+001
-0.61232339E-016 -0.00000000E+000 -0.10000000E+001
-0.61232339E-016 -0.00000000E+000 -0.10000000E+001
-0.61232339E-016 -0.00000000E+000 -0.10000000E+001
-0.61232339E-016 -0.00000000E+000 -0.10000000E+001
-0.61232339E-016 -0.00000000E+000 -0.10000000E+001
-0.61232339E-016 -0.00000000E+000 -0.10000000E+001
-0.61232339E-016 -0.00000000E+000 -0.10000000E+001
-0.61232339E-016 -0.00000000E+000 -0.10000000E+001
-0.61232339E-016 -0.00000000E+000 -0.10000000E+001
-0.61232339E-016 -0.00000000E+000 -0.10000000E+001
-0.61232339E-016 -0.00000000E+000 -0.10000000E+001
-0.61232339E-016 -0.00000000E+000 -0.10000000E+001
-0.61232339E-016 -0.00000000E+000 -0.10000000E+001
-0.61232339E-016 -0.00000000E+000 -0.10000000E+001
-0.61232339E-016 -0.00000000E+000 -0.10000000E+001
-0.61232339E-016 -0.00000000E+000 -0.10000000E+001
-0.61232339E-016 -0.00000000E+000 -0.10000000E+001
-0.61232339E-016 -0.00000000E+000 -0.10000000E+001
-0.61232339E-016 -0.00000000E+000 -0.10000000E+001
-0.61232339E-016 -0.00000000E+000 -0.10000000E+001
-0.61232339E-016 -0.00000000E+000 -0.10000000E+001
-0.61232339E-016 -0.00000000E+000 -0.10000000E+001
-0.61232339E-016 -0.00000000E+000 -0.10000000E+001
-0.61232339E-016 -0.00000000E+000 -0.10000000E+001
-0.61232339E-016 -0.00000000E+000 -0.10000000E+001
-0.61232339E-016 -0.00000000E+000 -0.10000000E+001
-0.61232339E-016 -0.00000000E+000 -0.10000000E+001
-0.61232339E-016 -0.00000000E+000 -0.10000000E+001
-0.61232339E-016 -0.00000000E+000 -0.10000000E+001
-0.61232339E-016 -0.00000000E+000 -0.10000000E+001
-0.61232339E-016 -0.00000000E+000 -0.10000000E+001
-0.60847323E-016  0.68558468E-017 -0.10000000E+001
-0.60847323E-016  0.68558468E-017 -0.10000000E+001
-0.60847323E-016  0.68558468E-017 -0.10000000E+001
-0.60847323E-016  0.68558468E-017 -0.10000000E+001
-0.60847323E-016  0.68558468E-017 -0.10000000E+001
-0.60847323E-016  0.68558468E-017 -0.10000000E+001
-0.60847323E-016  0.68558468E-017 -0.10000000E+001
-0.60847323E-016  0.68558468E-017 -0.10000000E+001
-0.57796184E-016  0.20223759E-016 -0.10000000E+001
 0.50180376E-017  0.19973649E-015 -0.10000000E+001
-0.57796184E-016  0.20223759E-016 -0.10000000E+001
-0.57796184E-016  0.20223759E-016 -0.10000000E+001
-0.57796184E-016  0.20223759E-016 -0.10000000E+001
 0.50180376E-017  0.19973649E-015 -0.10000000E+001
-0.57796184E-016  0.20223759E-016 -0.10000000E+001
 0.50180376E-017  0.19973649E-015 -0.10000000E+001
 0.62221209E-016  0.21411593E-015 -0.10000000E+001
 0.62221209E-016  0.21411593E-015 -0.10000000E+001
 0.15299039E-015  0.35857425E-015 -0.10000000E+001
-0.51846904E-016  0.32577568E-016 -0.10000000E+001
 0.62221209E-016  0.21411593E-015 -0.10000000E+001
-0.51846904E-016  0.32577568E-016 -0.10000000E+001
 0.62221209E-016  0.21411593E-015 -0.10000000E+001
 0.15299039E-015  0.35857425E-015 -0.10000000E+001
-0.24479018E-015 -0.15819457E-015 -0.10000000E+001
-0.24479018E-015 -0.15819457E-015 -0.10000000E+001
-0.24479018E-015 -0.15819457E-015 -0.10000000E+001
-0.24479018E-015 -0.15819457E-015 -0.10000000E+001
-0.43297802E-016  0.43297802E-016 -0.10000000E+001
-0.43297802E-016  0.43297802E-016 -0.10000000E+001
-0.43297802E-016  0.43297802E-016 -0.10000000E+001
-0.43297802E-016  0.43297802E-016 -0.10000000E+001
 0.14896079E-015  0.16591501E-015 -0.10000000E+001
 0.11188075E-015  0.14261608E-015 -0.10000000E+001
-0.32577568E-016  0.51846904E-016 -0.10000000E+001
-0.32577568E-016  0.51846904E-016 -0.10000000E+001
-0.32577568E-016  0.51846904E-016 -0.99999999E+000
-0.25119597E-015 -0.85520142E-016 -0.10000000E+001
-0.32577568E-016  0.51846904E-016 -0.10000000E+001
 0.14896079E-015  0.16591501E-015 -0.10000000E+001
 0.15928897E-015  0.12061040E-015 -0.10000000E+001
-0.20223759E-016  0.57796184E-016 -0.10000000E+001
-0.74108049E-016  0.38941256E-016 -0.99999999E+000
-0.20223759E-016  0.57796184E-016 -0.10000000E+001
-0.20223759E-016  0.57796184E-016 -0.10000000E+001
-0.20223759E-016  0.57796184E-016 -0.10000000E+001
 0.33880170E-015  0.18342463E-015 -0.10000000E+001
-0.20223759E-016  0.57796184E-016 -0.10000000E+001
-0.68558468E-017  0.60847323E-016 -0.99999999E+000
-0.68558468E-017  0.60847323E-016 -0.10000000E+001
-0.68558468E-017  0.60847323E-016 -0.99999999E+000
-0.68558468E-017  0.60847323E-016 -0.99999999E+000
-0.68558468E-017  0.60847323E-016 -0.99999999E+000
-0.68558468E-017  0.60847323E-016 -0.10000000E+001
-0.68558468E-017  0.60847323E-016 -0.10000000E+001
-0.68558468E-017  0.60847323E-016 -0.10000000E+001
 0.00000000E+000  0.61232339E-016 -0.10000000E+001
 0.00000000E+000  0.61232339E-016 -0.10000000E+001
 0.00000000E+000  0.61232339E-016 -0.10000000E+001
 0.00000000E+000  0.61232339E-016 -0.10000000E+001
 0.00000000E+000  0.61232339E-016 -0.10000000E+001
 0.00000000E+000  0.61232339E-016 -0.10000000E+001
 0.00000000E+000  0.61232339E-016 -0.10000000E+001
 0.00000000E+000  0.61232339E-016 -0.10000000E+001
 0.00000000E+000  0.61232339E-016 -0.10000000E+001
 0.00000000E+000  0.61232339E-016 -0.10000000E+001
 0.00000000E+000  0.61232339E-016 -0.10000000E+001
 0.00000000E+000  0.61232339E-016 -0.10000000E+001
 0.00000000E+000  0.61232339E-016 -0.10000000E+001
 0.00000000E+000  0.61232339E-016 -0.10000000E+001
 0.00000000E+000  0.61232339E-016 -0.10000000E+001
 0.00000000E+000  0.61232339E-016 -0.10000000E+001
 0.00000000E+000  0.61232339E-016 -0.10000000E+001
 0.00000000E+000  0.61232339E-016 -0.10000000E+001
 0.00000000E+000  0.61232339E-016 -0.10000000E+001
 0.00000000E+000  0.61232339E-016 -0.10000000E+001
 0.00000000E+000  0.61232339E-016 -0.10000000E+001
 0.00000000E+000  0.61232339E-016 -0.10000000E+001
 0.00000000E+000  0.61232339E-016 -0.10000000E+001
 0.00000000E+000  0.61232339E-016 -0.10000000E+001
 0.00000000E+000  0.61232339E-016 -0.10000000E+001
 0.00000000E+000  0.61232339E-016 -0.10000000E+001
 0.00000000E+000  0.61232339E-016 -0.10000000E+001
 0.00000000E+000  0.61232339E-016 -0.10000000E+001
 0.00000000E+000  0.61232339E-016 -0.10000000E+001
 0.00000000E+000  0.61232339E-016 -0.10000000E+001
 0.00000000E+000  0.61232339E-016 -0.10000000E+001
 0.00000000E+000  0.61232339E-016 -0.10000000E+001
 0.00000000E+000  0.61232339E-016 -0.10000000E+001
 0.00000000E+000  0.61232339E-016 -0.10000000E+001
 0.00000000E+000  0.61232339E-016 -0.10000000E+001
 0.00000000E+000  0.61232339E-016 -0.10000000E+001
 0.00000000E+000  0.61232339E-016 -0.10000000E+001
 0.00000000E+000  0.61232339E-016 -0.10000000E+001
 0.00000000E+000  0.61232339E-016 -0.10000000E+001
 0.00000000E+000  0.61232339E-016 -0.10000000E+001
 0.00000000E+000  0.61232339E-016 -0.10000000E+001
 0.00000000E+000  0.61232339E-016 -0.10000000E+001
 0.00000000E+000  0.61232339E-016 -0.10000000E+001
 0.00000000E+000  0.61232339E-016 -0.10000000E+001
 0.00000000E+000  0.61232339E-016 -0.10000000E+001
 0.00000000E+000  0.61232339E-016 -0.10000000E+001
 0.00000000E+000  0.61232339E-016 -0.10000000E+001
 0.00000000E+000  0.61232339E-016 -0.10000000E+001
 0.00000000E+000  0.61232339E-016 -0.10000000E+001
 0.00000000E+000  0.61232339E-016 -0.10000000E+001
 0.00000000E+000  0.61232339E-016 -0.10000000E+001
 0.00000000E+000  0.61232339E-016 -0.10000000E+001
 0.00000000E+000  0.61232339E-016 -0.10000000E+001
 0.00000000E+000  0.61232339E-016 -0.10000000E+001
 0.00000000E+000  0.61232339E-016 -0.10000000E+001
 0.00000000E+000  0.61232339E-016 -0.10000000E+001
 0.00000000E+000  0.61232339E-016 -0.10000000E+001
 0.00000000E+000  0.61232339E-016 -0.10000000E+001
 0.00000000E+000  0.61232339E-016 -0.10000000E+001
 0.00000000E+000  0.61232339E-016 -0.10000000E+001
 0.00000000E+000  0.61232339E-016 -0.10000000E+001
 0.00000000E+000  0.61232339E-016 -0.10000000E+001
 0.00000000E+000  0.61232339E-016 -0.10000000E+001
 0.00000000E+000  0.61232339E-016 -0.10000000E+001
 0.00000000E+000  0.61232339E-016 -0.10000000E+001
 0.00000000E+000  0.61232339E-016 -0.10000000E+001
 0.00000000E+000  0.61232339E-016 -0.10000000E+001
 0.00000000E+000  0.61232339E-016 -0.10000000E+001
 0.00000000E+000  0.61232339E-016 -0.10000000E+001
 0.00000000E+000  0.61232339E-016 -0.10000000E+001
 0.00000000E+000  0.61232339E-016 -0.10000000E+001
 0.00000000E+000  0.61232339E-016 -0.10000000E+001
 0.00000000E+000  0.61232339E-016 -0.10000000E+001
 0.00000000E+000  0.61232339E-016 -0.10000000E+001
 0.00000000E+000  0.61232339E-016 -0.10000000E+001
 0.00000000E+000  0.61232339E-016 -0.10000000E+001
 0.00000000E+000  0.61232339E-016 -0.10000000E+001
 0.00000000E+000  0.61232339E-016 -0.10000000E+001
 0.00000000E+000  0.61232339E-016 -0.10000000E+001
 0.00000000E+000  0.61232339E-016 -0.10000000E+001
-0.71052452E-015  0.14167667E-015 -0.10000000E+001
-0.71052452E-015  0.14167667E-015 -0.10000000E+001
-0.71052452E-015  0.14167667E-015 -0.10000000E+001
-0.71052452E-015  0.14167667E-015 -0.10000000E+001
-0.71052452E-015  0.14167667E-015 -0.10000000E+001
 0.68558468E-017  0.60847323E-016 -0.10000000E+001
 0.68558468E-017  0.60847323E-016 -0.10000000E+001
 0.68558468E-017  0.60847323E-016 -0.10000000E+001
 0.20223759E-016  0.57796184E-016 -0.10000000E+001
 0.20223759E-016  0.57796184E-016 -0.10000000E+001
-0.19898313E-014  0.76114489E-015 -0.10000000E+001
 0.20223759E-016  0.57796184E-016 -0.10000000E+001
-0.19898313E-014  0.76114489E-015 -0.10000000E+001
 0.20223759E-016  0.57796184E-016 -0.10000000E+001
-0.19898313E-014  0.76114489E-015 -0.10000000E+001
 0.20223759E-016  0.57796184E-016 -0.10000000E+001
 0.32577568E-016  0.51846904E-016 -0.10000000E+001
 0.32577568E-016  0.51846904E-016 -0.10000000E+001
 0.32577568E-016  0.51846904E-016 -0.99999999E+000
 0.32577568E-016  0.51846904E-016 -0.99999999E+000
 0.32577568E-016  0.51846904E-016 -0.99999999E+000
 0.32577568E-016  0.51846904E-016 -0.99999999E+000
 0.32577568E-016  0.51846904E-016 -0.99999999E+000
 0.32577568E-016  0.51846904E-016 -0.99999999E+000
 0.44628256E-015 -0.35968696E-015 -0.10000000E+001
-0.15819457E-015  0.24479018E-015 -0.10000000E+001
 0.24479018E-015 -0.15819457E-015 -0.10000000E+001
 0.43297802E-016  0.43297802E-016 -0.10000000E+001
 0.24479018E-015 -0.15819457E-015 -0.10000000E+001
 0.24479018E-015 -0.15819457E-015 -0.10000000E+001
 0.24479018E-015 -0.15819457E-015 -0.10000000E+001
 0.24479018E-015 -0.15819457E-015 -0.10000000E+001
 0.51846904E-016  0.32577568E-016 -0.10000000E+001
-0.17628932E-015  0.39565429E-015 -0.10000000E+001
 0.51846904E-016  0.32577568E-016 -0.10000000E+001
 0.51846904E-016  0.32577568E-016 -0.10000000E+001
 0.51846904E-016  0.32577568E-016 -0.10000000E+001
 0.51846904E-016  0.32577568E-016 -0.10000000E+001
 0.51846904E-016  0.32577568E-016 -0.10000000E+001
 0.51846904E-016  0.32577568E-016 -0.10000000E+001
 0.13836890E-016  0.14585220E-015 -0.10000000E+001
 0.57796184E-016  0.20223759E-016 -0.10000000E+001
 0.57796184E-016  0.20223759E-016 -0.10000000E+001
 0.57796184E-016  0.20223759E-016 -0.10000000E+001
 0.57796184E-016  0.20223759E-016 -0.10000000E+001
 0.57796184E-016  0.20223759E-016 -0.10000000E+001
 0.57796184E-016  0.20223759E-016 -0.10000000E+001
 0.57796184E-016  0.20223759E-016 -0.10000000E+001
 0.60847323E-016  0.68558468E-017 -0.10000000E+001
 0.60847323E-016  0.68558468E-017 -0.10000000E+001
 0.60847323E-016  0.68558468E-017 -0.10000000E+001
 0.60847323E-016  0.68558468E-017 -0.10000000E+001
 0.60847323E-016  0.68558468E-017 -0.10000000E+001
 0.60847323E-016  0.68558468E-017 -0.10000000E+001
 0.60847323E-016  0.68558468E-017 -0.10000000E+001
 0.60847323E-016  0.68558468E-017 -0.10000000E+001
 0.61232339E-016  0.00000000E+000 -0.10000000E+001
 0.61232339E-016  0.00000000E+000 -0.10000000E+001
 0.61232339E-016  0.00000000E+000 -0.10000000E+001
 0.61232339E-016  0.00000000E+000 -0.10000000E+001
 0.61232339E-016  0.00000000E+000 -0.10000000E+001
 0.61232339E-016  0.00000000E+000 -0.10000000E+001
 0.61232339E-016  0.00000000E+000 -0.10000000E+001
 0.61232339E-016  0.00000000E+000 -0.10000000E+001
 0.61232339E-016  0.00000000E+000 -0.10000000E+001
 0.61232339E-016  0.00000000E+000 -0.10000000E+001
 0.61232339E-016  0.00000000E+000 -0.10000000E+001
 0.61232339E-016  0.00000000E+000 -0.10000000E+001
 0.61232339E-016  0.00000000E+000 -0.10000000E+001
 0.61232339E-016  0.00000000E+000 -0.10000000E+001
 0.61232339E-016  0.00000000E+000 -0.10000000E+001
 0.61232339E-016  0.00000000E+000 -0.10000000E+001
 0.61232339E-016  0.00000000E+000 -0.10000000E+001
 0.61232339E-016  0.00000000E+000 -0.10000000E+001
 0.61232339E-016  0.00000000E+000 -0.10000000E+001
 0.61232339E-016  0.00000000E+000 -0.10000000E+001
 0.61232339E-016  0.00000000E+000 -0.10000000E+001
 0.61232339E-016  0.00000000E+000 -0.10000000E+001
 0.61232339E-016  0.00000000E+000 -0.10000000E+001
 0.61232339E-016  0.00000000E+000 -0.10000000E+001
 0.61232339E-016  0.00000000E+000 -0.10000000E+001
 0.61232339E-016  0.00000000E+000 -0.10000000E+001
 0.61232339E-016  0.00000000E+000 -0.10000000E+001
 0.61232339E-016  0.00000000E+000 -0.10000000E+001
 0.61232339E-016  0.00000000E+000 -0.10000000E+001
 0.61232339E-016  0.00000000E+000 -0.10000000E+001
 0.61232339E-016  0.00000000E+000 -0.10000000E+001
 0.61232339E-016  0.00000000E+000 -0.10000000E+001
 0.61232339E-016  0.00000000E+000 -0.10000000E+001
 0.61232339E-016  0.00000000E+000 -0.10000000E+001
 0.61232339E-016  0.00000000E+000 -0.10000000E+001
 0.61232339E-016  0.00000000E+000 -0.10000000E+001
 0.61232339E-016  0.00000000E+000 -0.10000000E+001
 0.61232339E-016  0.00000000E+000 -0.10000000E+001
 0.61232339E-016  0.00000000E+000 -0.10000000E+001
 0.61232339E-016  0.00000000E+000 -0.10000000E+001
 0.61232339E-016  0.00000000E+000 -0.10000000E+001
 0.61232339E-016  0.00000000E+000 -0.10000000E+001
 0.61232339E-016  0.00000000E+000 -0.10000000E+001
 0.61232339E-016  0.00000000E+000 -0.10000000E+001
 0.61232339E-016  0.00000000E+000 -0.10000000E+001
 0.61232339E-016  0.00000000E+000 -0.10000000E+001
 0.61232339E-016  0.00000000E+000 -0.10000000E+001
 0.61232339E-016  0.00000000E+000 -0.10000000E+001
