# 
# ALYA alya-sets output file 
# 
#    Adding 1 sets 
#    Set List: 1 
# 
# Time  , Column : 1 
# SIZES , Column  : 2  
# DIBOX , Column  : 3  
# FRBOX , Column  : 4  
# START 
  0.00000000E+000         0.037636     0     0     0    
  0.28498259E-005         0.037636     5.0701327e-08     0.0013915101     0    
  0.56996518E-005         0.037636     4.0387526e-07     0.011080004     0    
  0.85494778E-005         0.037636     1.3572356e-06     0.037206195     0    
  0.11399304E-004         0.037636     3.2033316e-06     0.08772285     0    
  0.14249130E-004         0.037636     6.2295781e-06     0.17038285     0    
  0.17098956E-004         0.037636     1.0718285e-05     0.29273677     0    
  0.19948781E-004         0.037636     1.6946687e-05     0.46214061     0    
  0.22798607E-004         0.037636     2.5186974e-05     0.68577274     0    
  0.25648433E-004         0.037636     3.570632e-05     0.97065801     0    
  0.28498259E-004         0.037636     4.8766912e-05     1.3236959     0    
  0.31348085E-004         0.037636     6.4625984e-05     1.7516891     0    
  0.34197911E-004         0.037636     8.3535842e-05     2.2613688     0    
  0.37047737E-004         0.037636     0.00010574389     2.8594135     0    
  0.39897563E-004         0.037636     0.00013149268     3.5524597     0    
  0.42747389E-004         0.037636     0.00016101992     4.3471025     0    
  0.45597215E-004         0.037636     0.0001945585     5.2498879     0    
  0.48447041E-004         0.037636     0.00023233654     6.2672973     0    
  0.51296867E-004         0.037636     0.00027457742     7.405728     0    
  0.54146692E-004         0.037636     0.0003214998     8.6714728     0    
  0.56996518E-004         0.037636     0.00037331764     10.070702     0    
  0.59846344E-004         0.037636     0.00043024026     11.609451     0    
  0.62696170E-004         0.037636     0.00049247233     13.293619     0    
  0.65545996E-004         0.037636     0.00056021395     15.128969     0    
  0.68395822E-004         0.037636     0.00063366061     17.12115     0    
  0.71245648E-004         0.037636     0.0007130033     19.275712     0    
  0.74095474E-004         0.037636     0.00079842849     21.598139     0    
  0.76945300E-004         0.037636     0.00089011816     24.093877     0    
  0.79795126E-004         0.037636     0.00098824984     26.76836     0    
  0.82644952E-004         0.037636     0.0010929967     29.627034     0    
  0.85494778E-004         0.037636     0.0012045273     32.675373     0    
  0.88344604E-004         0.037636     0.0013230062     35.918884     0    
  0.91194429E-004         0.037636     0.0014485934     39.363103     0    
  0.94044255E-004         0.037636     0.0015814445     43.013586     0    
  0.96894081E-004         0.037636     0.0017217111     46.875893     0    
  0.99743907E-004         0.037636     0.0018695404     50.955567     0    
  0.10259373E-003         0.037636     0.0020250754     55.258114     0    
  0.10544356E-003         0.037636     0.0021884549     59.788992     0    
  0.10829338E-003         0.037636     0.0023598136     64.553601     0    
  0.11114321E-003         0.037636     0.002539282     69.557284     0    
  0.11399304E-003         0.037636     0.0027269866     74.805338     0    
  0.11684286E-003         0.037636     0.0029230498     80.303029     0    
  0.11969269E-003         0.037636     0.00312759     86.055617     0    
  0.12254251E-003         0.037636     0.0033407215     92.068383     0    
  0.12539234E-003         0.037636     0.0035625548     98.346654     0    
  0.12824217E-003         0.037636     0.0037931962     104.89583     0    
  0.13109199E-003         0.037636     0.0040327483     109.60611     0    
  0.13394182E-003         0.037636     0.0042813098     109.47432     0    
  0.13679164E-003         0.037636     0.0045389754     109.37773     0    
  0.13964147E-003         0.037636     0.0048058361     109.32573     0    
  0.14249130E-003         0.037636     0.005081979     109.32075     0    
  0.14534112E-003         0.037636     0.0053674877     109.35873     0    
  0.14819095E-003         0.037636     0.0056624417     109.43044     0    
  0.15104077E-003         0.037636     0.0059669171     109.52319     0    
  0.15389060E-003         0.037636     0.006280986     109.62285     0    
  0.15674043E-003         0.037636     0.0066047173     109.70195     0    
  0.15959025E-003         0.037636     0.0069381758     109.74649     0    
  0.16244008E-003         0.037636     0.0072814231     109.76987     0    
  0.16528990E-003         0.037636     0.007634517     109.77809     0    
  0.16813973E-003         0.037636     0.0079975119     109.77466     0    
  0.17098956E-003         0.037636     0.0083704586     109.76209     0    
  0.17383938E-003         0.037636     0.0087534046     109.74248     0    
  0.17668921E-003         0.037636     0.0091463938     109.71778     0    
  0.17953903E-003         0.037636     0.0095494668     109.6898     0    
  0.18238886E-003         0.037636     0.0099626607     109.6602     0    
  0.18523868E-003         0.037636     0.010386009     109.63045     0    
  0.18808851E-003         0.037636     0.010819543     109.60176     0    
  0.19093834E-003         0.037636     0.01126329     109.57497     0    
  0.19378816E-003         0.037636     0.011717273     109.55058     0    
  0.19663799E-003         0.037636     0.012181513     109.52867     0    
  0.19948781E-003         0.037636     0.012656027     109.50901     0    
  0.20233764E-003         0.037636     0.013140831     109.49101     0    
  0.20518747E-003         0.037636     0.013635935     109.47385     0    
  0.20803729E-003         0.037636     0.014141348     109.45654     0    
  0.21088712E-003         0.037636     0.014657074     109.438     0    
  0.21373694E-003         0.037636     0.015183115     109.41714     0    
  0.21658677E-003         0.037636     0.015719471     109.39292     0    
  0.21943660E-003         0.037636     0.016266137     109.36939     0    
  0.22228642E-003         0.037636     0.016823106     109.33528     0    
  0.22513625E-003         0.037636     0.017390369     109.29364     0    
  0.22798607E-003         0.037636     0.017967912     109.24418     0    
  0.23083590E-003         0.037636     0.018555721     109.18721     0    
  0.23368573E-003         0.037636     0.019153775     109.12349     0    
  0.23653555E-003         0.037636     0.019762055     109.05409     0    
  0.23938538E-003         0.037636     0.020380536     108.9802     0    
  0.24223520E-003         0.037636     0.02100919     108.90296     0    
  0.24508503E-003         0.037636     0.021647989     108.82327     0    
  0.24793486E-003         0.037636     0.022296901     108.74165     0    
  0.25078468E-003         0.037636     0.022955889     108.65821     0    
  0.25363451E-003         0.037636     0.023624917     108.5726     0    
  0.25648433E-003         0.037636     0.024303944     108.48408     0    
  0.25933416E-003         0.037636     0.024992927     108.39037     0    
  0.26218398E-003         0.037636     0.025691822     108.28422     0    
  0.26503381E-003         0.037636     0.026400581     108.17301     0    
  0.26788364E-003         0.037636     0.027119152     108.05656     0    
  0.27073346E-003         0.037636     0.027847484     107.93458     0    
  0.27358329E-003         0.037636     0.028585521     107.80677     0    
  0.27643311E-003         0.037636     0.029333205     107.67277     0    
  0.27928294E-003         0.037636     0.030090477     107.53219     0    
  0.28213277E-003         0.037636     0.030857274     107.38464     0    
  0.28498259E-003         0.037636     0.031633532     107.22972     0    
  0.28783242E-003         0.037636     0.032419184     107.06706     0    
  0.29068224E-003         0.037636     0.03321416     106.89631     0    
  0.29353207E-003         0.037636     0.034018389     106.71717     0    
  0.29638190E-003         0.037636     0.034831799     106.52936     0    
  0.29923172E-003         0.037636     0.035654312     106.33268     0    
  0.30208155E-003         0.037636     0.036485852     106.12693     0    
  0.30493137E-003         0.037636     0.037326338     105.91199     0    
  0.30778120E-003         0.037636     0.038175689     105.68775     0    
  0.31063103E-003         0.037636     0.03903382     105.45412     0    
  0.31348085E-003         0.037636     0.039900645     105.21103     0    
  0.31633068E-003         0.037636     0.040776077     104.95842     0    
  0.31918050E-003         0.037636     0.041660025     104.69619     0    
  0.32203033E-003         0.037636     0.042552398     104.42425     0    
  0.32488015E-003         0.037636     0.043453101     104.14247     0    
  0.32772998E-003         0.037636     0.044362039     103.85069     0    
  0.33057981E-003         0.037636     0.045279116     103.54872     0    
  0.33342963E-003         0.037636     0.04620423     103.23634     0    
  0.33627946E-003         0.037636     0.047137283     102.9133     0    
  0.33912928E-003         0.037636     0.048078169     102.57931     0    
  0.34197911E-003         0.037636     0.049026787     102.23407     0    
  0.34482894E-003         0.037636     0.049983028     101.87728     0    
  0.34767876E-003         0.037636     0.050946785     101.50864     0    
  0.35052859E-003         0.037636     0.051917949     101.12782     0    
  0.35337841E-003         0.037636     0.052896409     100.73454     0    
  0.35622824E-003         0.037636     0.053882053     100.32852     0    
  0.35907807E-003         0.037636     0.054874765     99.909519     0    
  0.36192789E-003         0.037636     0.055874431     99.477307     0    
  0.36477772E-003         0.037636     0.056880934     99.031689     0    
  0.36762754E-003         0.037636     0.057894154     98.572496     0    
  0.37047737E-003         0.037636     0.058913972     98.099582     0    
  0.37332720E-003         0.037636     0.059940267     97.612818     0    
  0.37617702E-003         0.037636     0.060972916     97.112093     0    
  0.37902685E-003         0.037636     0.062011795     96.597301     0    
  0.38187667E-003         0.037636     0.063056779     96.068337     0    
  0.38472650E-003         0.037636     0.064107741     95.525095     0    
  0.38757633E-003         0.037636     0.065164553     94.967459     0    
  0.39042615E-003         0.037636     0.066227087     94.395302     0    
  0.39327598E-003         0.037636     0.067295212     93.808482     0    
  0.39612580E-003         0.037636     0.068368796     93.206841     0    
  0.39897563E-003         0.037636     0.069447708     92.590209     0    
  0.40182545E-003         0.037636     0.070531815     91.958402     0    
  0.40467528E-003         0.037636     0.07162098     91.311229     0    
  0.40752511E-003         0.037636     0.072715069     90.648491     0    
  0.41037493E-003         0.037636     0.073813946     89.969992     0    
  0.41322476E-003         0.037636     0.074917472     89.275538     0    
  0.41607458E-003         0.037636     0.076025509     88.564944     0    
  0.41892441E-003         0.037636     0.077137918     87.83804     0    
  0.42177424E-003         0.037636     0.078254559     87.09467     0    
  0.42462406E-003         0.037636     0.07937529     86.334698     0    
  0.42747389E-003         0.037636     0.080499969     85.558008     0    
  0.43032371E-003         0.037636     0.081628454     84.764503     0    
  0.43317354E-003         0.037636     0.082760601     83.954107     0    
  0.43602337E-003         0.037636     0.083896266     83.126758     0    
  0.43887319E-003         0.037636     0.085035304     82.28241     0    
  0.44172302E-003         0.037636     0.08617757     81.421029     0    
  0.44457284E-003         0.037636     0.087322917     80.542587     0    
  0.44742267E-003         0.037636     0.088471199     79.647062     0    
  0.45027250E-003         0.037636     0.089622267     78.734431     0    
  0.45312232E-003         0.037636     0.090775975     77.804673     0    
  0.45597215E-003         0.037636     0.091932173     76.857763     0    
  0.45882197E-003         0.037636     0.093090713     75.893673     0    
  0.46167180E-003         0.037636     0.094251445     74.912372     0    
  0.46452162E-003         0.037636     0.095414219     73.913827     0    
  0.46737145E-003         0.037636     0.096578885     72.898004     0    
  0.47022128E-003         0.037636     0.097745293     71.86487     0    
  0.47307110E-003         0.037636     0.098913292     70.814397     0    
  0.47592093E-003         0.037636     0.10008273     69.746562     0    
  0.47877075E-003         0.037636     0.10125345     68.661353     0    
  0.48162058E-003         0.037636     0.10242532     67.558768     0    
  0.48447041E-003         0.037636     0.10359816     66.43882     0    
  0.48732023E-003         0.037636     0.10477184     65.301537     0    
  0.49017006E-003         0.037636     0.10594619     64.146962     0    
  0.49301988E-003         0.037636     0.10712108     62.975154     0    
  0.49586971E-003         0.037636     0.10829633     61.786191     0    
  0.49871954E-003         0.037636     0.10947181     60.580161     0    
  0.50156936E-003         0.037636     0.11064736     59.35717     0    
  0.50441919E-003         0.037636     0.11182282     58.117333     0    
  0.50726901E-003         0.037636     0.11299805     56.860775     0    
  0.51011884E-003         0.037636     0.11417288     55.58763     0    
  0.51296867E-003         0.037636     0.11534718     54.298038     0    
  0.51581849E-003         0.037636     0.11652078     52.992143     0    
  0.51866832E-003         0.037636     0.11769353     51.670096     0    
  0.52151814E-003         0.037636     0.11886528     50.332047     0    
  0.52436797E-003         0.037636     0.12003588     48.978154     0    
  0.52721780E-003         0.037636     0.12120518     47.608578     0    
  0.53006762E-003         0.037636     0.12237302     46.223481     0    
  0.53291745E-003         0.037636     0.12353926     44.823037     0    
  0.53576727E-003         0.037636     0.12470374     43.407422     0    
  0.53861710E-003         0.037636     0.12586632     41.976822     0    
  0.54146692E-003         0.037636     0.12702684     40.531434     0    
  0.54431675E-003         0.037636     0.12818514     39.071463     0    
  0.54716658E-003         0.037636     0.1293411     37.59713     0    
  0.55001640E-003         0.037636     0.13049454     36.108663     0    
  0.55286623E-003         0.037636     0.13164534     34.606307     0    
  0.55571605E-003         0.037636     0.13279333     33.090317     0    
  0.55856588E-003         0.037636     0.13393837     31.560961     0    
  0.56141571E-003         0.037636     0.13508031     30.018516     0    
  0.56426553E-003         0.037636     0.13621902     28.463274     0    
  0.56711536E-003         0.037636     0.13735433     26.895532     0    
  0.56996518E-003         0.037636     0.13848611     25.315598     0    
  0.57281501E-003         0.037636     0.13961422     23.723785     0    
  0.57566484E-003         0.037636     0.14073851     22.120417     0    
  0.57851466E-003         0.037636     0.14185883     20.505819     0    
  0.58136449E-003         0.037636     0.14297505     18.880325     0    
  0.58421431E-003         0.037636     0.14408702     17.244274     0    
  0.58706414E-003         0.037636     0.1451946     15.598009     0    
  0.58991397E-003         0.037636     0.14629767     13.94188     0    
  0.59276379E-003         0.037636     0.14739606     12.276245     0    
  0.59561362E-003         0.037636     0.14848966     10.601465     0    
  0.59846344E-003         0.037636     0.14957832     8.9179112     0    
  0.60131327E-003         0.037636     0.1506619     7.2259621     0    
  0.60416309E-003         0.037636     0.15174028     5.5260035     0    
  0.60701292E-003         0.037636     0.15281332     3.8184299     0    
  0.60986275E-003         0.037636     0.15388088     2.1036438     0    
  0.61271257E-003         0.037636     0.15494284     1.0471     0    
  0.61556240E-003         0.037636     0.15599907     1.059489     0    
  0.61841222E-003         0.037636     0.15704943     1.0718911     0    
  0.62126205E-003         0.037636     0.1580938     1.0843037     0    
  0.62411188E-003         0.037636     0.15913205     1.0967239     0    
  0.62696170E-003         0.037636     0.16016406     1.109149     0    
  0.62981153E-003         0.037636     0.16118971     1.1215765     0    
  0.63266135E-003         0.037636     0.16220886     1.1340036     0    
  0.63551118E-003         0.037636     0.16322141     1.146428     0    
  0.63836101E-003         0.037636     0.16422722     1.158847     0    
  0.64121083E-003         0.037636     0.16522619     1.1712582     0    
  0.64406066E-003         0.037636     0.16621819     1.1836591     0    
  0.64691048E-003         0.037636     0.16720311     1.1960472     0    
  0.64976031E-003         0.037636     0.16818084     1.2084197     0    
  0.65261014E-003         0.037636     0.16915125     1.220774     0    
  0.65545996E-003         0.037636     0.17011425     1.2331074     0    
  0.65830979E-003         0.037636     0.17106973     1.245417     0    
  0.66115961E-003         0.037636     0.17201757     1.2576997     0    
  0.66400944E-003         0.037636     0.17295766     1.2699526     0    
  0.66685927E-003         0.037636     0.17388992     1.2821724     0    
  0.66970909E-003         0.037636     0.17481422     1.2943561     0    
  0.67255892E-003         0.037636     0.17573048     1.3065004     0    
  0.67540874E-003         0.037636     0.17663858     1.318602     0    
  0.67825857E-003         0.037636     0.17753845     1.3306577     0    
  0.68110839E-003         0.037636     0.17842997     1.3426645     0    
  0.68395822E-003         0.037636     0.17931306     1.3546191     0    
  0.68680805E-003         0.037636     0.18018762     1.3665186     0    
  0.68965787E-003         0.037636     0.18105357     1.3783601     0    
  0.69250770E-003         0.037636     0.18191081     1.3901407     0    
  0.69535752E-003         0.037636     0.18275927     1.4018577     0    
  0.69820735E-003         0.037636     0.18359885     1.4135086     0    
  0.70105718E-003         0.037636     0.18442948     1.4250907     0    
  0.70390700E-003         0.037636     0.18525108     1.4366017     0    
  0.70675683E-003         0.037636     0.18606356     1.448039     0    
  0.70960665E-003         0.037636     0.18686685     1.4594002     0    
  0.71245648E-003         0.037636     0.18766089     1.4706828     0    
  0.71530631E-003         0.037636     0.18844559     1.4818843     0    
  0.71815613E-003         0.037636     0.18922089     1.4930023     0    
  0.72100596E-003         0.037636     0.18998673     1.504034     0    
  0.72385578E-003         0.037636     0.19074303     1.514977     0    
  0.72670561E-003         0.037636     0.19148974     1.5258283     0    
  0.72955544E-003         0.037636     0.19222679     1.5365853     0    
  0.73240526E-003         0.037636     0.19295414     1.5472453     0    
  0.73525509E-003         0.037636     0.19367172     1.5578053     0    
  0.73810491E-003         0.037636     0.19437948     1.5682627     0    
  0.74095474E-003         0.037636     0.19507737     1.5786147     0    
  0.74380457E-003         0.037636     0.19576535     1.5888586     0    
  0.74665439E-003         0.037636     0.19644336     1.598992     0    
  0.74950422E-003         0.037636     0.19711137     1.6090124     0    
  0.75235404E-003         0.037636     0.19776934     1.6189174     0    
  0.75520387E-003         0.037636     0.19841723     1.628705     0    
  0.75805369E-003         0.037636     0.199055     1.6383732     0    
  0.76090352E-003         0.037636     0.19968263     1.6479199     0    
  0.76375335E-003         0.037636     0.20030007     1.6573436     0    
  0.76660317E-003         0.037636     0.20090732     1.6666426     0    
  0.76945300E-003         0.037636     0.20150433     1.6758152     0    
  0.77230282E-003         0.037636     0.2020911     1.68486     0    
  0.77515265E-003         0.037636     0.20266761     1.6937756     0    
  0.77800248E-003         0.037636     0.20323383     1.7025605     0    
  0.78085230E-003         0.037636     0.20378975     1.7112131     0    
  0.78370213E-003         0.037636     0.20433537     1.7197322     0    
  0.78655195E-003         0.037636     0.20487068     1.728116     0    
  0.78940178E-003         0.037636     0.20539568     1.7363633     0    
  0.79225161E-003         0.037636     0.20591036     1.7444723     0    
  0.79510143E-003         0.037636     0.20641472     1.7524416     0    
  0.79795126E-003         0.037636     0.20690878     1.7602696     0    
  0.80080108E-003         0.037636     0.20739254     1.767955     0    
  0.80365091E-003         0.037636     0.20786602     1.7754962     0    
  0.80650074E-003         0.037636     0.20832922     1.7828919     0    
  0.80935056E-003         0.037636     0.20878216     1.7901411     0    
  0.81220039E-003         0.037636     0.20922487     1.7972425     0    
  0.81505021E-003         0.037636     0.20965737     1.8041954     0    
  0.81790004E-003         0.037636     0.21007969     1.8109991     0    
  0.82074986E-003         0.037636     0.21049185     1.8176529     0    
  0.82359969E-003         0.037636     0.2108939     1.8241565     0    
  0.82644952E-003         0.037636     0.21128587     1.8305097     0    
  0.82929934E-003         0.037636     0.2116678     1.8367124     0    
  0.83214917E-003         0.037636     0.21203974     1.8427647     0    
  0.83499899E-003         0.037636     0.21240173     1.8486668     0    
  0.83784882E-003         0.037636     0.21275382     1.8544188     0    
  0.84069865E-003         0.037636     0.21309607     1.860021     0    
  0.84354847E-003         0.037636     0.21342854     1.8654738     0    
  0.84639830E-003         0.037636     0.21375129     1.8707775     0    
  0.84924812E-003         0.037636     0.21406438     1.8759323     0    
  0.85209795E-003         0.037636     0.21436789     1.8809387     0    
  0.85494778E-003         0.037636     0.21466188     1.8857968     0    
  0.85779760E-003         0.037636     0.21494644     1.8905072     0    
  0.86064743E-003         0.037636     0.21522164     1.89507     0    
  0.86349725E-003         0.037636     0.21548756     1.8994857     0    
  0.86634708E-003         0.037636     0.2157443     1.9037549     0    
  0.86919691E-003         0.037636     0.21599194     1.9078781     0    
  0.87204673E-003         0.037636     0.21623059     1.9118559     0    
  0.87489656E-003         0.037636     0.21646033     1.9156893     0    
  0.87774638E-003         0.037636     0.21668128     1.9193793     0    
  0.88059621E-003         0.037636     0.21689353     1.922927     0    
  0.88344604E-003         0.037636     0.21709721     1.9263339     0    
  0.88629586E-003         0.037636     0.21729242     1.9296015     0    
  0.88914569E-003         0.037636     0.21747928     1.9327316     0    
  0.89199551E-003         0.037636     0.21765792     1.935726     0    
  0.89484534E-003         0.037636     0.21782847     1.9385868     0    
  0.89769516E-003         0.037636     0.21799105     1.9413162     0    
  0.90054499E-003         0.037636     0.21814579     1.9439165     0    
  0.90339482E-003         0.037636     0.21829285     1.9463898     0    
  0.90624464E-003         0.037636     0.21843236     1.9487387     0    
  0.90909447E-003         0.037636     0.21856447     1.9509655     0    
  0.91194429E-003         0.037636     0.21868933     1.9530726     0    
  0.91479412E-003         0.037636     0.21880709     1.9550625     0    
  0.91764395E-003         0.037636     0.21891793     1.9569374     0    
  0.92049377E-003         0.037636     0.219022     1.9587     0    
  0.92334360E-003         0.037636     0.21911947     1.9603525     0    
  0.92619342E-003         0.037636     0.21921051     1.9618975     0    
  0.92904325E-003         0.037636     0.21929531     1.9633375     0    
  0.93189308E-003         0.037636     0.21937405     1.9646752     0    
  0.93474290E-003         0.037636     0.21944691     1.9659133     0    
  0.93759273E-003         0.037636     0.21951408     1.9670546     0    
  0.94044255E-003         0.037636     0.21957577     1.9681023     0    
  0.94329238E-003         0.037636     0.21963216     1.9690594     0    
  0.94614221E-003         0.037636     0.21968348     1.9699294     0    
  0.94899203E-003         0.037636     0.21972991     1.9707158     0    
  0.95184186E-003         0.037636     0.21977169     1.9714223     0    
  0.95469168E-003         0.037636     0.21980903     1.9720528     0    
  0.95754151E-003         0.037636     0.21984215     1.9726113     0    
  0.96039133E-003         0.037636     0.21987129     1.9731021     0    
  0.96324116E-003         0.037636     0.21989666     1.9735293     0    
  0.96609099E-003         0.037636     0.21991853     1.9738972     0    
  0.96894081E-003         0.037636     0.21993712     1.9742103     0    
  0.97179064E-003         0.037636     0.21995268     1.974473     0    
  0.97464046E-003         0.037636     0.21996547     1.9746897     0    
  0.97749029E-003         0.037636     0.21997575     1.9748647     0    
  0.98034012E-003         0.037636     0.21998377     1.9750026     0    
  0.98318994E-003         0.037636     0.21998981     1.9751077     0    
  0.98603977E-003         0.037636     0.21999414     1.9751845     0    
  0.98888959E-003         0.037636     0.21999703     1.9752375     0    
  0.99173942E-003         0.037636     0.21999878     1.9752712     0    
  0.99458925E-003         0.037636     0.21999965     1.9752901     0    
  0.99743907E-003         0.037636     0.21999996     1.9752989     0    
