# 
# ALYA alya-sets output file 
# 
#    Adding 1 sets 
#    Set List: 1 
# 
# Time  , Column : 1 
# SIZES , Column  : 2  
# DIBOX , Column  : 3  
# FRBOX , Column  : 4  
# START 
  0.00000000E+000         0.037636     0     0     0    
  0.28640152E-005         0.037636     5.1461331e-08     0.0013984086     0    
  0.57280304E-005         0.037636     4.099205e-07     0.011137836     0    
  0.85920456E-005         0.037636     1.3775212e-06     0.037419685     0    
  0.11456061E-004         0.037636     3.2511393e-06     0.088288054     0    
  0.14320076E-004         0.037636     6.3224136e-06     0.17162586     0    
  0.17184091E-004         0.037636     1.0877776e-05     0.29515306     0    
  0.20048106E-004         0.037636     1.7198483e-05     0.46642728     0    
  0.22912121E-004         0.037636     2.5560644e-05     0.69284689     0    
  0.25776137E-004         0.037636     3.6235255e-05     0.98165659     0    
  0.28640152E-004         0.037636     4.9488227e-05     1.3399551     0    
  0.31504167E-004         0.037636     6.5580415e-05     1.7747049     0    
  0.34368182E-004         0.037636     8.4767654e-05     2.2927429     0    
  0.37232197E-004         0.037636     0.00010730078     2.9007921     0    
  0.40096213E-004         0.037636     0.00013342568     3.6054733     0    
  0.42960228E-004         0.037636     0.00016338329     4.4133163     0    
  0.45824243E-004         0.037636     0.00019740965     5.3307698     0    
  0.48688258E-004         0.037636     0.00023573595     6.36421     0    
  0.51552273E-004         0.037636     0.00027858851     7.5199468     0    
  0.54416289E-004         0.037636     0.00032618886     8.8042289     0    
  0.57280304E-004         0.037636     0.00037875374     10.223246     0    
  0.60144319E-004         0.037636     0.00043649514     11.783128     0    
  0.63008334E-004         0.037636     0.00049962034     13.489946     0    
  0.65872349E-004         0.037636     0.00056833194     15.34971     0    
  0.68736364E-004         0.037636     0.00064282785     17.368365     0    
  0.71600380E-004         0.037636     0.00072330139     19.551787     0    
  0.74464395E-004         0.037636     0.00080994127     21.905784     0    
  0.77328410E-004         0.037636     0.00090293163     24.436096     0    
  0.80192425E-004         0.037636     0.0010024521     27.148389     0    
  0.83056440E-004         0.037636     0.0011086777     30.048267     0    
  0.85920456E-004         0.037636     0.0012217791     33.141267     0    
  0.88784471E-004         0.037636     0.0013419226     36.432875     0    
  0.91648486E-004         0.037636     0.0014692698     39.928528     0    
  0.94512501E-004         0.037636     0.0016039782     43.633628     0    
  0.97376516E-004         0.037636     0.0017462008     47.553551     0    
  0.10024053E-003         0.037636     0.0018960863     51.693661     0    
  0.10310455E-003         0.037636     0.0020537792     56.059324     0    
  0.10596856E-003         0.037636     0.0022194195     60.655912     0    
  0.10883258E-003         0.037636     0.0023931434     65.488823     0    
  0.11169659E-003         0.037636     0.0025750824     70.563484     0    
  0.11456061E-003         0.037636     0.0027653641     75.885358     0    
  0.11742462E-003         0.037636     0.002964112     81.459951     0    
  0.12028864E-003         0.037636     0.0031714454     87.292814     0    
  0.12315265E-003         0.037636     0.0033874796     93.389541     0    
  0.12601667E-003         0.037636     0.0036123257     99.755772     0    
  0.12888068E-003         0.037636     0.0038460909     106.39719     0    
  0.13174470E-003         0.037636     0.0040888784     109.6048     0    
  0.13460871E-003         0.037636     0.0043407874     109.5358     0    
  0.13747273E-003         0.037636     0.0046019133     109.48138     0    
  0.14033674E-003         0.037636     0.0048723475     109.44419     0    
  0.14320076E-003         0.037636     0.0051521776     109.42533     0    
  0.14606477E-003         0.037636     0.0054414872     109.42444     0    
  0.14892879E-003         0.037636     0.0057403563     109.4399     0    
  0.15179280E-003         0.037636     0.006048861     109.46904     0    
  0.15465682E-003         0.037636     0.0063670738     109.50848     0    
  0.15752084E-003         0.037636     0.0066950633     109.5544     0    
  0.16038485E-003         0.037636     0.0070328946     109.60283     0    
  0.16324887E-003         0.037636     0.0073806289     109.64995     0    
  0.16611288E-003         0.037636     0.0077383242     109.69221     0    
  0.16897690E-003         0.037636     0.0081060344     109.72175     0    
  0.17184091E-003         0.037636     0.0084838103     109.73966     0    
  0.17470493E-003         0.037636     0.0088716989     109.74735     0    
  0.17756894E-003         0.037636     0.0092697438     109.74595     0    
  0.18043296E-003         0.037636     0.009677985     109.73648     0    
  0.18329697E-003         0.037636     0.010096459     109.72001     0    
  0.18616099E-003         0.037636     0.0105252     109.69767     0    
  0.18902500E-003         0.037636     0.010964237     109.67064     0    
  0.19188902E-003         0.037636     0.011413596     109.64013     0    
  0.19475303E-003         0.037636     0.011873302     109.60727     0    
  0.19761705E-003         0.037636     0.012343373     109.57311     0    
  0.20048106E-003         0.037636     0.012823827     109.53851     0    
  0.20334508E-003         0.037636     0.013314677     109.50411     0    
  0.20620909E-003         0.037636     0.013815934     109.47031     0    
  0.20907311E-003         0.037636     0.014327604     109.43727     0    
  0.21193712E-003         0.037636     0.014849691     109.4022     0    
  0.21480114E-003         0.037636     0.015382197     109.36494     0    
  0.21766515E-003         0.037636     0.015925119     109.32831     0    
  0.22052917E-003         0.037636     0.016478452     109.29192     0    
  0.22339318E-003         0.037636     0.017042187     109.25516     0    
  0.22625720E-003         0.037636     0.017616314     109.21721     0    
  0.22912121E-003         0.037636     0.018200819     109.17711     0    
  0.23198523E-003         0.037636     0.018795684     109.13387     0    
  0.23484925E-003         0.037636     0.019400889     109.08646     0    
  0.23771326E-003         0.037636     0.020016411     109.03395     0    
  0.24057728E-003         0.037636     0.020642225     108.97549     0    
  0.24344129E-003         0.037636     0.021278303     108.90965     0    
  0.24630531E-003         0.037636     0.021924613     108.83317     0    
  0.24916932E-003         0.037636     0.022581121     108.74991     0    
  0.25203334E-003         0.037636     0.023247791     108.66002     0    
  0.25489735E-003         0.037636     0.023924583     108.56377     0    
  0.25776137E-003         0.037636     0.024611455     108.46145     0    
  0.26062538E-003         0.037636     0.025308364     108.35337     0    
  0.26348940E-003         0.037636     0.02601526     108.23978     0    
  0.26635341E-003         0.037636     0.026732096     108.12091     0    
  0.26921743E-003         0.037636     0.027458818     107.99688     0    
  0.27208144E-003         0.037636     0.028195372     107.8677     0    
  0.27494546E-003         0.037636     0.028941701     107.73328     0    
  0.27780947E-003         0.037636     0.029697746     107.59343     0    
  0.28067349E-003         0.037636     0.030463443     107.44782     0    
  0.28353750E-003         0.037636     0.031238729     107.29606     0    
  0.28640152E-003         0.037636     0.032023538     107.13767     0    
  0.28926553E-003         0.037636     0.032817799     106.97214     0    
  0.29212955E-003         0.037636     0.033621442     106.79909     0    
  0.29499356E-003         0.037636     0.034434393     106.61782     0    
  0.29785758E-003         0.037636     0.035256577     106.42783     0    
  0.30072159E-003         0.037636     0.036087916     106.22864     0    
  0.30358561E-003         0.037636     0.036928329     106.01987     0    
  0.30644962E-003         0.037636     0.037777734     105.8012     0    
  0.30931364E-003         0.037636     0.038636047     105.57239     0    
  0.31217766E-003         0.037636     0.039503182     105.33328     0    
  0.31504167E-003         0.037636     0.040379049     105.08378     0    
  0.31790569E-003         0.037636     0.04126356     104.82386     0    
  0.32076970E-003         0.037636     0.042156621     104.55352     0    
  0.32363372E-003         0.037636     0.043058138     104.27278     0    
  0.32649773E-003         0.037636     0.043968015     103.98168     0    
  0.32936175E-003         0.037636     0.044886154     103.68022     0    
  0.33222576E-003         0.037636     0.045812454     103.36838     0    
  0.33508978E-003         0.037636     0.046746814     103.04609     0    
  0.33795379E-003         0.037636     0.047689131     102.71324     0    
  0.34081781E-003         0.037636     0.048639299     102.36964     0    
  0.34368182E-003         0.037636     0.049597211     102.01506     0    
  0.34654584E-003         0.037636     0.050562758     101.64921     0    
  0.34940985E-003         0.037636     0.05153583     101.27176     0    
  0.35227387E-003         0.037636     0.052516315     100.88234     0    
  0.35513788E-003         0.037636     0.0535041     100.48059     0    
  0.35800190E-003         0.037636     0.054499068     100.06611     0    
  0.36086591E-003         0.037636     0.055501103     99.638533     0    
  0.36372993E-003         0.037636     0.056510088     99.197498     0    
  0.36659394E-003         0.037636     0.057525901     98.74269     0    
  0.36945796E-003         0.037636     0.058548423     98.273829     0    
  0.37232197E-003         0.037636     0.05957753     97.790685     0    
  0.37518599E-003         0.037636     0.060613098     97.293071     0    
  0.37805000E-003         0.037636     0.061655002     96.780847     0    
  0.38091402E-003         0.037636     0.062703115     96.253913     0    
  0.38377803E-003         0.037636     0.063757309     95.712198     0    
  0.38664205E-003         0.037636     0.064817456     95.155655     0    
  0.38950607E-003         0.037636     0.065883423     94.584245     0    
  0.39237008E-003         0.037636     0.06695508     93.997931     0    
  0.39523410E-003         0.037636     0.068032294     93.396665     0    
  0.39809811E-003         0.037636     0.06911493     92.780383     0    
  0.40096213E-003         0.037636     0.070202854     92.148994     0    
  0.40382614E-003         0.037636     0.071295929     91.502383     0    
  0.40669016E-003         0.037636     0.072394018     90.840405     0    
  0.40955417E-003         0.037636     0.073496982     90.162889     0    
  0.41241819E-003         0.037636     0.074604683     89.469639     0    
  0.41528220E-003         0.037636     0.075716979     88.760446     0    
  0.41814622E-003         0.037636     0.07683373     88.035087     0    
  0.42101023E-003         0.037636     0.077954794     87.293339     0    
  0.42387425E-003         0.037636     0.079080027     86.534984     0    
  0.42673826E-003         0.037636     0.080209286     85.75982     0    
  0.42960228E-003         0.037636     0.081342425     84.967664     0    
  0.43246629E-003         0.037636     0.0824793     84.158359     0    
  0.43533031E-003         0.037636     0.083619765     83.331779     0    
  0.43819432E-003         0.037636     0.084763671     82.48783     0    
  0.44105834E-003         0.037636     0.085910873     81.626445     0    
  0.44392235E-003         0.037636     0.087061221     80.747592     0    
  0.44678637E-003         0.037636     0.088214567     79.851257     0    
  0.44965038E-003         0.037636     0.089370761     78.937451     0    
  0.45251440E-003         0.037636     0.090529653     78.006194     0    
  0.45537841E-003         0.037636     0.091691092     77.057517     0    
  0.45824243E-003         0.037636     0.092854928     76.091451     0    
  0.46110644E-003         0.037636     0.094021009     75.108023     0    
  0.46397046E-003         0.037636     0.095189183     74.107255     0    
  0.46683448E-003         0.037636     0.096359297     73.089157     0    
  0.46969849E-003         0.037636     0.097531198     72.053731     0    
  0.47256251E-003         0.037636     0.098704734     71.000967     0    
  0.47542652E-003         0.037636     0.099879751     69.930849     0    
  0.47829054E-003         0.037636     0.10105609     68.843355     0    
  0.48115455E-003         0.037636     0.10223361     67.73846     0    
  0.48401857E-003         0.037636     0.10341215     66.616145     0    
  0.48688258E-003         0.037636     0.10459155     65.476397     0    
  0.48974660E-003         0.037636     0.10577166     64.319215     0    
  0.49261061E-003         0.037636     0.10695232     63.144616     0    
  0.49547463E-003         0.037636     0.10813339     61.952633     0    
  0.49833864E-003         0.037636     0.1093147     60.743322     0    
  0.50120266E-003         0.037636     0.11049609     59.516762     0    
  0.50406667E-003         0.037636     0.11167743     58.273052     0    
  0.50693069E-003         0.037636     0.11285854     57.012314     0    
  0.50979470E-003         0.037636     0.11403928     55.734687     0    
  0.51265872E-003         0.037636     0.11521949     54.440327     0    
  0.51552273E-003         0.037636     0.11639901     53.129402     0    
  0.51838675E-003         0.037636     0.1175777     51.802089     0    
  0.52125076E-003         0.037636     0.11875539     50.458573     0    
  0.52411478E-003         0.037636     0.11993193     49.099041     0    
  0.52697879E-003         0.037636     0.12110717     47.723683     0    
  0.52984281E-003         0.037636     0.12228095     46.332689     0    
  0.53270682E-003         0.037636     0.12345313     44.926247     0    
  0.53557084E-003         0.037636     0.12462354     43.504548     0    
  0.53843485E-003         0.037636     0.12579203     42.067784     0    
  0.54129887E-003         0.037636     0.12695846     40.616147     0    
  0.54416289E-003         0.037636     0.12812267     39.149838     0    
  0.54702690E-003         0.037636     0.1292845     37.669062     0    
  0.54989092E-003         0.037636     0.13044381     36.174036     0    
  0.55275493E-003         0.037636     0.13160044     34.664986     0    
  0.55561895E-003         0.037636     0.13275426     33.142152     0    
  0.55848296E-003         0.037636     0.1339051     31.605789     0    
  0.56134698E-003         0.037636     0.13505281     30.056165     0    
  0.56421099E-003         0.037636     0.13619726     28.493566     0    
  0.56707501E-003         0.037636     0.13733828     26.918288     0    
  0.56993902E-003         0.037636     0.13847574     25.330645     0    
  0.57280304E-003         0.037636     0.13960949     23.73096     0    
  0.57566705E-003         0.037636     0.14073938     22.119567     0    
  0.57853107E-003         0.037636     0.14186527     20.496808     0    
  0.58139508E-003         0.037636     0.14298701     18.863034     0    
  0.58425910E-003         0.037636     0.14410446     17.218598     0    
  0.58712311E-003         0.037636     0.14521748     15.563862     0    
  0.58998713E-003         0.037636     0.14632592     13.899187     0    
  0.59285114E-003         0.037636     0.14742966     12.224941     0    
  0.59571516E-003         0.037636     0.14852853     10.541495     0    
  0.59857917E-003         0.037636     0.14962242     8.8492246     0    
  0.60144319E-003         0.037636     0.15071118     7.1485098     0    
  0.60430720E-003         0.037636     0.15179467     5.4397373     0    
  0.60717122E-003         0.037636     0.15287276     3.7233011     0    
  0.61003523E-003         0.037636     0.15394532     1.9996029     0    
  0.61289925E-003         0.037636     0.15501221     1.0478989     0    
  0.61576326E-003         0.037636     0.15607329     1.0603547     0    
  0.61862728E-003         0.037636     0.15712845     1.0728242     0    
  0.62149130E-003         0.037636     0.15817755     1.0853043     0    
  0.62435531E-003         0.037636     0.15922045     1.0977917     0    
  0.62721933E-003         0.037636     0.16025705     1.1102834     0    
  0.63008334E-003         0.037636     0.1612872     1.1227763     0    
  0.63294736E-003         0.037636     0.16231078     1.1352675     0    
  0.63581137E-003         0.037636     0.16332768     1.1477542     0    
  0.63867539E-003         0.037636     0.16433776     1.1602339     0    
  0.64153940E-003         0.037636     0.16534092     1.1727041     0    
  0.64440342E-003         0.037636     0.16633703     1.1851623     0    
  0.64726743E-003         0.037636     0.16732597     1.1976061     0    
  0.65013145E-003         0.037636     0.16830763     1.2100333     0    
  0.65299546E-003         0.037636     0.1692819     1.2224414     0    
  0.65585948E-003         0.037636     0.17024866     1.2348281     0    
  0.65872349E-003         0.037636     0.1712078     1.2471907     0    
  0.66158751E-003         0.037636     0.17215922     1.2595267     0    
  0.66445152E-003         0.037636     0.1731028     1.2718331     0    
  0.66731554E-003         0.037636     0.17403844     1.284107     0    
  0.67017955E-003         0.037636     0.17496604     1.2963452     0    
  0.67304357E-003         0.037636     0.17588549     1.3085445     0    
  0.67590758E-003         0.037636     0.1767967     1.3207015     0    
  0.67877160E-003         0.037636     0.17769956     1.3328127     0    
  0.68163561E-003         0.037636     0.17859398     1.3448747     0    
  0.68449963E-003         0.037636     0.17947987     1.3568838     0    
  0.68736364E-003         0.037636     0.18035712     1.3688366     0    
  0.69022766E-003         0.037636     0.18122566     1.38073     0    
  0.69309168E-003         0.037636     0.1820854     1.3925605     0    
  0.69595569E-003         0.037636     0.18293623     1.4043252     0    
  0.69881971E-003         0.037636     0.18377809     1.4160212     0    
  0.70168372E-003         0.037636     0.18461089     1.4276458     0    
  0.70454774E-003         0.037636     0.18543454     1.4391965     0    
  0.70741175E-003         0.037636     0.18624898     1.4506709     0    
  0.71027577E-003         0.037636     0.18705412     1.4620667     0    
  0.71313978E-003         0.037636     0.18784989     1.4733817     0    
  0.71600380E-003         0.037636     0.18863621     1.4846138     0    
  0.71886781E-003         0.037636     0.18941303     1.4957608     0    
  0.72173183E-003         0.037636     0.19018027     1.5068203     0    
  0.72459584E-003         0.037636     0.19093786     1.5177901     0    
  0.72745986E-003         0.037636     0.19168575     1.5286677     0    
  0.73032387E-003         0.037636     0.19242388     1.5394507     0    
  0.73318789E-003         0.037636     0.19315218     1.5501362     0    
  0.73605190E-003         0.037636     0.1938706     1.5607215     0    
  0.73891592E-003         0.037636     0.19457909     1.5712037     0    
  0.74177993E-003         0.037636     0.1952776     1.58158     0    
  0.74464395E-003         0.037636     0.19596608     1.5918473     0    
  0.74750796E-003         0.037636     0.19664449     1.6020027     0    
  0.75037198E-003         0.037636     0.19731279     1.6120435     0    
  0.75323599E-003         0.037636     0.19797093     1.6219669     0    
  0.75610001E-003         0.037636     0.19861887     1.6317704     0    
  0.75896402E-003         0.037636     0.19925659     1.6414516     0    
  0.76182804E-003         0.037636     0.19988405     1.6510084     0    
  0.76469205E-003         0.037636     0.20050122     1.6604389     0    
  0.76755607E-003         0.037636     0.20110808     1.6697415     0    
  0.77042009E-003         0.037636     0.2017046     1.6789145     0    
  0.77328410E-003         0.037636     0.20229077     1.6879567     0    
  0.77614812E-003         0.037636     0.20286656     1.6968669     0    
  0.77901213E-003         0.037636     0.20343196     1.7056439     0    
  0.78187615E-003         0.037636     0.20398696     1.7142866     0    
  0.78474016E-003         0.037636     0.20453155     1.722794     0    
  0.78760418E-003         0.037636     0.20506572     1.7311649     0    
  0.79046819E-003         0.037636     0.20558948     1.7393981     0    
  0.79333221E-003         0.037636     0.20610282     1.7474924     0    
  0.79619622E-003         0.037636     0.20660574     1.7554463     0    
  0.79906024E-003         0.037636     0.20709826     1.7632585     0    
  0.80192425E-003         0.037636     0.20758038     1.7709274     0    
  0.80478827E-003         0.037636     0.20805211     1.7784515     0    
  0.80765228E-003         0.037636     0.20851347     1.7858293     0    
  0.81051630E-003         0.037636     0.20896449     1.7930592     0    
  0.81338031E-003         0.037636     0.20940518     1.80014     0    
  0.81624433E-003         0.037636     0.20983557     1.8070703     0    
  0.81910834E-003         0.037636     0.21025568     1.8138491     0    
  0.82197236E-003         0.037636     0.21066556     1.8204755     0    
  0.82483637E-003         0.037636     0.21106523     1.826949     0    
  0.82770039E-003         0.037636     0.21145475     1.8332691     0    
  0.83056440E-003         0.037636     0.21183414     1.8394358     0    
  0.83342842E-003         0.037636     0.21220346     1.8454492     0    
  0.83629243E-003         0.037636     0.21256275     1.8513096     0    
  0.83915645E-003         0.037636     0.21291208     1.8570175     0    
  0.84202046E-003         0.037636     0.21325149     1.8625735     0    
  0.84488448E-003         0.037636     0.21358105     1.8679783     0    
  0.84774850E-003         0.037636     0.21390083     1.8732327     0    
  0.85061251E-003         0.037636     0.21421088     1.8783373     0    
  0.85347653E-003         0.037636     0.21451129     1.8832928     0    
  0.85634054E-003         0.037636     0.21480213     1.8881     0    
  0.85920456E-003         0.037636     0.21508347     1.8927593     0    
  0.86206857E-003         0.037636     0.2153554     1.8972713     0    
  0.86493259E-003         0.037636     0.21561801     1.9016365     0    
  0.86779660E-003         0.037636     0.21587139     1.9058552     0    
  0.87066062E-003         0.037636     0.21611563     1.909928     0    
  0.87352463E-003         0.037636     0.21635084     1.9138552     0    
  0.87638865E-003         0.037636     0.2165771     1.9176376     0    
  0.87925266E-003         0.037636     0.21679454     1.9212758     0    
  0.88211668E-003         0.037636     0.21700326     1.9247707     0    
  0.88498069E-003         0.037636     0.21720338     1.9281235     0    
  0.88784471E-003         0.037636     0.21739501     1.9313355     0    
  0.89070872E-003         0.037636     0.21757827     1.9344083     0    
  0.89357274E-003         0.037636     0.2177533     1.9373439     0    
  0.89643675E-003         0.037636     0.21792023     1.9401442     0    
  0.89930077E-003         0.037636     0.21807919     1.9428117     0    
  0.90216478E-003         0.037636     0.21823031     1.9453489     0    
  0.90502880E-003         0.037636     0.21837375     1.9477584     0    
  0.90789281E-003         0.037636     0.21850965     1.950043     0    
  0.91075683E-003         0.037636     0.21863817     1.9522056     0    
  0.91362084E-003         0.037636     0.21875946     1.9542489     0    
  0.91648486E-003         0.037636     0.21887367     1.9561759     0    
  0.91934887E-003         0.037636     0.21898099     1.9579892     0    
  0.92221289E-003         0.037636     0.21908157     1.9596917     0    
  0.92507691E-003         0.037636     0.2191756     1.961286     0    
  0.92794092E-003         0.037636     0.21926324     1.9627747     0    
  0.93080494E-003         0.037636     0.21934469     1.9641604     0    
  0.93366895E-003         0.037636     0.21942013     1.9654456     0    
  0.93653297E-003         0.037636     0.21948976     1.9666329     0    
  0.93939698E-003         0.037636     0.21955376     1.9677251     0    
  0.94226100E-003         0.037636     0.21961235     1.9687249     0    
  0.94512501E-003         0.037636     0.21966573     1.9696352     0    
  0.94798903E-003         0.037636     0.21971411     1.9704593     0    
  0.95085304E-003         0.037636     0.21975771     1.9712004     0    
  0.95371706E-003         0.037636     0.21979675     1.9718623     0    
  0.95658107E-003         0.037636     0.21983145     1.9724487     0    
  0.95944509E-003         0.037636     0.21986204     1.9729638     0    
  0.96230910E-003         0.037636     0.21988876     1.9734118     0    
  0.96517312E-003         0.037636     0.21991185     1.9737974     0    
  0.96803713E-003         0.037636     0.21993156     1.9741252     0    
  0.97090115E-003         0.037636     0.21994813     1.9743999     0    
  0.97376516E-003         0.037636     0.21996182     1.9746264     0    
  0.97662918E-003         0.037636     0.21997289     1.9748097     0    
  0.97949319E-003         0.037636     0.21998161     1.9749545     0    
  0.98235721E-003         0.037636     0.21998824     1.9750658     0    
  0.98522122E-003         0.037636     0.21999306     1.9751482     0    
  0.98808524E-003         0.037636     0.21999635     1.9752066     0    
  0.99094925E-003         0.037636     0.21999839     1.9752455     0    
  0.99381327E-003         0.037636     0.21999948     1.9752696     0    
  0.99667728E-003         0.037636     0.21999992     1.9752836     0    
  0.99954130E-003         0.037636     0.22     1.9752919     0    
