GiD Post Results File 1.0
 
Result VELOC ALYA  0.00000000E+00 Vector OnNodes
ComponentNames VELOC_X,VELOC_Y,VELOC_Z
Values
          1  0.00000000E+000  0.00000000E+000
          2  0.00000000E+000  0.00000000E+000
          3  0.00000000E+000  0.00000000E+000
          4  0.00000000E+000  0.00000000E+000
          5  0.00000000E+000  0.00000000E+000
          6  0.00000000E+000  0.00000000E+000
          7  0.00000000E+000  0.00000000E+000
          8  0.00000000E+000  0.00000000E+000
          9  0.00000000E+000  0.00000000E+000
         10  0.00000000E+000  0.00000000E+000
         11  0.00000000E+000  0.00000000E+000
         12  0.00000000E+000  0.00000000E+000
         13  0.00000000E+000  0.00000000E+000
         14  0.00000000E+000  0.00000000E+000
         15  0.00000000E+000  0.00000000E+000
         16  0.00000000E+000  0.00000000E+000
         17  0.00000000E+000  0.00000000E+000
         18  0.00000000E+000  0.00000000E+000
         19  0.00000000E+000  0.00000000E+000
         20  0.00000000E+000  0.00000000E+000
         21  0.00000000E+000  0.00000000E+000
         22  0.00000000E+000  0.00000000E+000
         23  0.00000000E+000  0.00000000E+000
         24  0.00000000E+000  0.00000000E+000
         25  0.00000000E+000  0.00000000E+000
         26  0.00000000E+000  0.00000000E+000
         27  0.00000000E+000  0.00000000E+000
         28  0.00000000E+000  0.00000000E+000
         29  0.00000000E+000  0.00000000E+000
         30  0.00000000E+000  0.00000000E+000
         31  0.00000000E+000  0.00000000E+000
         32  0.00000000E+000  0.00000000E+000
         33  0.00000000E+000  0.00000000E+000
         34  0.00000000E+000  0.00000000E+000
         35  0.00000000E+000  0.00000000E+000
         36  0.00000000E+000  0.00000000E+000
         37  0.00000000E+000  0.00000000E+000
         38  0.00000000E+000  0.00000000E+000
         39  0.00000000E+000  0.00000000E+000
         40  0.00000000E+000  0.00000000E+000
         41  0.00000000E+000  0.00000000E+000
         42  0.00000000E+000  0.00000000E+000
         43  0.00000000E+000  0.00000000E+000
         44  0.00000000E+000  0.00000000E+000
         45  0.00000000E+000  0.00000000E+000
         46  0.00000000E+000  0.00000000E+000
         47  0.00000000E+000  0.00000000E+000
         48  0.00000000E+000  0.00000000E+000
         49  0.00000000E+000  0.00000000E+000
         50  0.00000000E+000  0.00000000E+000
         51  0.00000000E+000  0.00000000E+000
         52  0.00000000E+000  0.00000000E+000
         53  0.00000000E+000  0.00000000E+000
         54  0.00000000E+000  0.00000000E+000
         55  0.00000000E+000  0.00000000E+000
         56  0.00000000E+000  0.00000000E+000
         57  0.00000000E+000  0.00000000E+000
         58  0.00000000E+000  0.00000000E+000
         59  0.00000000E+000  0.00000000E+000
         60  0.00000000E+000  0.00000000E+000
         61  0.00000000E+000  0.00000000E+000
         62  0.00000000E+000  0.00000000E+000
         63  0.00000000E+000  0.00000000E+000
         64  0.00000000E+000  0.00000000E+000
         65  0.00000000E+000  0.00000000E+000
         66  0.00000000E+000  0.00000000E+000
         67  0.00000000E+000  0.00000000E+000
         68  0.00000000E+000  0.00000000E+000
         69  0.00000000E+000  0.00000000E+000
         70  0.00000000E+000  0.00000000E+000
         71  0.00000000E+000  0.00000000E+000
         72  0.00000000E+000  0.00000000E+000
         73  0.00000000E+000  0.00000000E+000
         74  0.00000000E+000  0.00000000E+000
         75  0.00000000E+000  0.00000000E+000
         76  0.00000000E+000  0.00000000E+000
         77  0.00000000E+000  0.00000000E+000
         78  0.00000000E+000  0.00000000E+000
         79  0.00000000E+000  0.00000000E+000
         80  0.00000000E+000  0.00000000E+000
         81  0.00000000E+000  0.00000000E+000
         82  0.00000000E+000  0.00000000E+000
         83  0.00000000E+000  0.00000000E+000
         84  0.00000000E+000  0.00000000E+000
         85  0.00000000E+000  0.00000000E+000
         86  0.00000000E+000  0.00000000E+000
         87  0.00000000E+000  0.00000000E+000
         88  0.00000000E+000  0.00000000E+000
         89  0.00000000E+000  0.00000000E+000
         90  0.00000000E+000  0.00000000E+000
         91  0.00000000E+000  0.00000000E+000
         92  0.10000000E+001  0.00000000E+000
         93  0.10000000E+001  0.00000000E+000
         94  0.00000000E+000  0.00000000E+000
         95  0.00000000E+000  0.00000000E+000
         96  0.00000000E+000  0.00000000E+000
         97  0.00000000E+000  0.00000000E+000
         98  0.10000000E+001  0.00000000E+000
         99  0.00000000E+000  0.00000000E+000
        100  0.00000000E+000  0.00000000E+000
        101  0.00000000E+000  0.00000000E+000
        102  0.10000000E+001  0.00000000E+000
        103  0.00000000E+000  0.00000000E+000
        104  0.00000000E+000  0.00000000E+000
        105  0.00000000E+000  0.00000000E+000
        106  0.10000000E+001  0.00000000E+000
        107  0.00000000E+000  0.00000000E+000
        108  0.00000000E+000  0.00000000E+000
        109  0.00000000E+000  0.00000000E+000
        110  0.10000000E+001  0.00000000E+000
        111  0.00000000E+000  0.00000000E+000
        112  0.00000000E+000  0.00000000E+000
        113  0.00000000E+000  0.00000000E+000
        114  0.00000000E+000  0.00000000E+000
        115  0.10000000E+001  0.00000000E+000
        116  0.00000000E+000  0.00000000E+000
        117  0.10000000E+001  0.00000000E+000
        118  0.00000000E+000  0.00000000E+000
        119  0.10000000E+001  0.00000000E+000
        120  0.00000000E+000  0.00000000E+000
        121  0.00000000E+000  0.00000000E+000
End values

Result PRESS ALYA  0.00000000E+00 Scalar OnNodes
ComponentNames PRESS
Values
          1  0.00000000E+000
          2  0.00000000E+000
          3  0.00000000E+000
          4  0.00000000E+000
          5  0.00000000E+000
          6  0.00000000E+000
          7  0.00000000E+000
          8  0.00000000E+000
          9  0.00000000E+000
         10  0.00000000E+000
         11  0.00000000E+000
         12  0.00000000E+000
         13  0.00000000E+000
         14  0.00000000E+000
         15  0.00000000E+000
         16  0.00000000E+000
         17  0.00000000E+000
         18  0.00000000E+000
         19  0.00000000E+000
         20  0.00000000E+000
         21  0.00000000E+000
         22  0.00000000E+000
         23  0.00000000E+000
         24  0.00000000E+000
         25  0.00000000E+000
         26  0.00000000E+000
         27  0.00000000E+000
         28  0.00000000E+000
         29  0.00000000E+000
         30  0.00000000E+000
         31  0.00000000E+000
         32  0.00000000E+000
         33  0.00000000E+000
         34  0.00000000E+000
         35  0.00000000E+000
         36  0.00000000E+000
         37  0.00000000E+000
         38  0.00000000E+000
         39  0.00000000E+000
         40  0.00000000E+000
         41  0.00000000E+000
         42  0.00000000E+000
         43  0.00000000E+000
         44  0.00000000E+000
         45  0.00000000E+000
         46  0.00000000E+000
         47  0.00000000E+000
         48  0.00000000E+000
         49  0.00000000E+000
         50  0.00000000E+000
         51  0.00000000E+000
         52  0.00000000E+000
         53  0.00000000E+000
         54  0.00000000E+000
         55  0.00000000E+000
         56  0.00000000E+000
         57  0.00000000E+000
         58  0.00000000E+000
         59  0.00000000E+000
         60  0.00000000E+000
         61  0.00000000E+000
         62  0.00000000E+000
         63  0.00000000E+000
         64  0.00000000E+000
         65  0.00000000E+000
         66  0.00000000E+000
         67  0.00000000E+000
         68  0.00000000E+000
         69  0.00000000E+000
         70  0.00000000E+000
         71  0.00000000E+000
         72  0.00000000E+000
         73  0.00000000E+000
         74  0.00000000E+000
         75  0.00000000E+000
         76  0.00000000E+000
         77  0.00000000E+000
         78  0.00000000E+000
         79  0.00000000E+000
         80  0.00000000E+000
         81  0.00000000E+000
         82  0.00000000E+000
         83  0.00000000E+000
         84  0.00000000E+000
         85  0.00000000E+000
         86  0.00000000E+000
         87  0.00000000E+000
         88  0.00000000E+000
         89  0.00000000E+000
         90  0.00000000E+000
         91  0.00000000E+000
         92  0.00000000E+000
         93  0.00000000E+000
         94  0.00000000E+000
         95  0.00000000E+000
         96  0.00000000E+000
         97  0.00000000E+000
         98  0.00000000E+000
         99  0.00000000E+000
        100  0.00000000E+000
        101  0.00000000E+000
        102  0.00000000E+000
        103  0.00000000E+000
        104  0.00000000E+000
        105  0.00000000E+000
        106  0.00000000E+000
        107  0.00000000E+000
        108  0.00000000E+000
        109  0.00000000E+000
        110  0.00000000E+000
        111  0.00000000E+000
        112  0.00000000E+000
        113  0.00000000E+000
        114  0.00000000E+000
        115  0.00000000E+000
        116  0.00000000E+000
        117  0.00000000E+000
        118  0.00000000E+000
        119  0.00000000E+000
        120  0.00000000E+000
        121  0.00000000E+000
End values

Result VELOC ALYA  0.10384004E+02 Vector OnNodes
ComponentNames VELOC_X,VELOC_Y,VELOC_Z
Values
          1  0.00000000E+000  0.00000000E+000
          2  0.00000000E+000  0.00000000E+000
          3  0.00000000E+000  0.00000000E+000
          4 -0.11189431E-001  0.23418552E-001
          5  0.00000000E+000  0.00000000E+000
          6  0.00000000E+000  0.00000000E+000
          7 -0.10455576E+000 -0.50811290E-001
          8 -0.10244082E+000  0.11992150E-001
          9 -0.39237199E-001  0.13737618E+000
         10  0.00000000E+000  0.00000000E+000
         11  0.00000000E+000  0.00000000E+000
         12 -0.29813986E+000  0.11314265E+000
         13  0.19318131E+000 -0.10814872E+000
         14 -0.41238743E+000  0.51542068E+000
         15  0.59541052E+000 -0.51695722E-001
         16  0.00000000E+000  0.00000000E+000
         17  0.00000000E+000  0.00000000E+000
         18 -0.54833294E+000  0.13767609E+000
         19  0.18114995E+000 -0.35263992E+000
         20  0.10578452E+001  0.10578452E+001
         21 -0.79076215E+000  0.48517898E+000
         22  0.58158247E+000 -0.38720551E+000
         23  0.00000000E+000  0.00000000E+000
         24  0.00000000E+000  0.00000000E+000
         25  0.10527744E+001  0.10527744E+001
         26  0.10527744E+001  0.10527744E+001
         27 -0.78464399E+000  0.99294872E-001
         28  0.11689436E+000 -0.54311826E+000
         29 -0.11125777E+001  0.38698297E+000
         30  0.40808558E+000 -0.72664650E+000
         31  0.43824363E+000  0.43824363E+000
         32  0.10150190E+001  0.10150190E+001
         33  0.10150190E+001  0.10150190E+001
         34  0.00000000E+000  0.00000000E+000
         35  0.00000000E+000  0.00000000E+000
         36 -0.84395418E+000  0.17353948E-001
         37  0.25546674E-001 -0.55524309E+000
         38 -0.14026827E+001  0.13727247E-001
         39 -0.28544676E-001 -0.10038653E+001
         40  0.43903800E+000  0.43903800E+000
         41  0.43903800E+000  0.43903800E+000
         42  0.77758303E+000  0.77758303E+000
         43  0.77758303E+000  0.77758303E+000
         44  0.00000000E+000  0.00000000E+000
         45  0.00000000E+000  0.00000000E+000
         46 -0.69734976E+000 -0.10961366E+000
         47 -0.80749585E-001 -0.40197955E+000
         48  0.51148222E+000  0.51455230E+000
         49  0.44847588E+000  0.44847588E+000
         50  0.44847588E+000  0.44847588E+000
         51 -0.12488310E+001 -0.40450364E+000
         52 -0.40399329E+000 -0.87146762E+000
         53 -0.39376064E+000 -0.43848511E+000
         54 -0.39678985E+000 -0.32817990E+000
         55  0.43903800E+000  0.43903800E+000
         56  0.43903800E+000  0.43903800E+000
         57  0.00000000E+000  0.00000000E+000
         58  0.00000000E+000  0.00000000E+000
         59 -0.37823775E+000 -0.16246851E+000
         60  0.77758303E+000  0.77758303E+000
         61 -0.18448454E+000 -0.14634453E+000
         62  0.77758303E+000  0.77758303E+000
         63 -0.78610526E+000 -0.64236782E+000
         64 -0.58977344E+000 -0.47725680E+000
         65  0.43824363E+000  0.43824363E+000
         66 -0.51783357E+000 -0.11336448E+001
         67 -0.10447207E+001 -0.47362295E+000
         68  0.10150190E+001  0.10150190E+001
         69  0.10150190E+001  0.10150190E+001
         70  0.58829357E-001 -0.10215494E+001
         71 -0.92990888E+000  0.18708984E-001
         72  0.00000000E+000  0.00000000E+000
         73  0.00000000E+000  0.00000000E+000
         74 -0.10296131E+000 -0.13874980E+000
         75 -0.11687283E+000  0.48164392E-001
         76 -0.22820735E+000 -0.46961178E+000
         77  0.10527744E+001  0.10527744E+001
         78  0.10527744E+001  0.10527744E+001
         79 -0.36848127E+000 -0.96302610E-001
         80  0.47614295E+000 -0.58814893E+000
         81 -0.46039630E+000  0.51432588E+000
         82 -0.20622433E+000 -0.10200063E+001
         83 -0.72624869E+000 -0.16254790E+000
         84 -0.10000030E+000 -0.13235879E+001
         85 -0.10021576E+001 -0.13384520E+000
         86  0.10578452E+001  0.10578452E+001
         87  0.00000000E+000  0.00000000E+000
         88  0.00000000E+000  0.00000000E+000
         89  0.61403236E+000 -0.29884490E+000
         90 -0.15480612E+000  0.65007084E+000
         91  0.00000000E+000  0.00000000E+000
         92  0.10000000E+001  0.00000000E+000
         93  0.10000000E+001  0.00000000E+000
         94  0.00000000E+000  0.00000000E+000
         95  0.91739535E-001 -0.12124654E+001
         96 -0.89556980E+000  0.56834520E-001
         97  0.00000000E+000  0.00000000E+000
         98  0.10000000E+001  0.00000000E+000
         99  0.64749232E+000 -0.62251703E-001
        100  0.51467562E-001  0.59884717E+000
        101  0.00000000E+000  0.00000000E+000
        102  0.10000000E+001  0.00000000E+000
        103  0.20935274E+000 -0.90008731E+000
        104 -0.54779685E+000  0.20472131E+000
        105  0.00000000E+000  0.00000000E+000
        106  0.10000000E+001  0.00000000E+000
        107  0.17249579E+000  0.12481182E+000
        108  0.26796057E+000 -0.56003303E+000
        109 -0.16492021E+000  0.23190580E+000
        110  0.10000000E+001  0.00000000E+000
        111  0.00000000E+000  0.00000000E+000
        112  0.48140521E-001 -0.36573706E+000
        113  0.90798231E-001  0.47060914E-001
        114  0.00000000E+000  0.00000000E+000
        115  0.10000000E+001  0.00000000E+000
        116  0.28929941E-002 -0.38019505E+000
        117  0.10000000E+001  0.00000000E+000
        118  0.00000000E+000  0.00000000E+000
        119  0.10000000E+001  0.00000000E+000
        120  0.00000000E+000  0.00000000E+000
        121  0.00000000E+000  0.00000000E+000
End values

Result PRESS ALYA  0.10384004E+02 Scalar OnNodes
ComponentNames PRESS
Values
          1 -0.34076961E+001
          2 -0.34067556E+001
          3 -0.34022798E+001
          4 -0.33784462E+001
          5 -0.33832395E+001
          6 -0.33516517E+001
          7 -0.32797051E+001
          8 -0.33160179E+001
          9 -0.31239361E+001
         10 -0.32738931E+001
         11 -0.32847614E+001
         12 -0.31855654E+001
         13 -0.32081051E+001
         14 -0.30533319E+001
         15 -0.30512023E+001
         16 -0.31336579E+001
         17 -0.31799676E+001
         18 -0.31141332E+001
         19 -0.30847779E+001
         20 -0.27600919E+001
         21 -0.30149709E+001
         22 -0.29912169E+001
         23 -0.30271094E+001
         24 -0.29422441E+001
         25 -0.24878727E+001
         26 -0.23984690E+001
         27 -0.30583599E+001
         28 -0.29575026E+001
         29 -0.31148170E+001
         30 -0.29783143E+001
         31 -0.15524768E+001
         32 -0.25556560E+001
         33 -0.24061987E+001
         34 -0.27262231E+001
         35 -0.26558035E+001
         36 -0.28705862E+001
         37 -0.27850299E+001
         38 -0.30795085E+001
         39 -0.29445249E+001
         40 -0.16554962E+001
         41 -0.16425679E+001
         42 -0.27241980E+001
         43 -0.25546908E+001
         44 -0.23455963E+001
         45 -0.23614685E+001
         46 -0.25055074E+001
         47 -0.25410245E+001
         48 -0.19185154E+001
         49 -0.19703017E+001
         50 -0.19721642E+001
         51 -0.27622387E+001
         52 -0.27498866E+001
         53 -0.27189578E+001
         54 -0.26034886E+001
         55 -0.21241046E+001
         56 -0.21481208E+001
         57 -0.20589825E+001
         58 -0.22905971E+001
         59 -0.21173735E+001
         60 -0.23550763E+001
         61 -0.23658685E+001
         62 -0.23026023E+001
         63 -0.22305643E+001
         64 -0.24553071E+001
         65 -0.21217444E+001
         66 -0.23103871E+001
         67 -0.23377457E+001
         68 -0.21514702E+001
         69 -0.22119638E+001
         70 -0.21365090E+001
         71 -0.21000503E+001
         72 -0.25565309E+001
         73 -0.19651952E+001
         74 -0.19656470E+001
         75 -0.25052854E+001
         76 -0.19208299E+001
         77 -0.18717005E+001
         78 -0.18280792E+001
         79 -0.23156581E+001
         80 -0.14753435E+001
         81 -0.15452147E+001
         82 -0.18539001E+001
         83 -0.20151346E+001
         84 -0.16772737E+001
         85 -0.16259592E+001
         86 -0.13513267E+001
         87 -0.19637236E+001
         88 -0.27759221E+001
         89 -0.10028071E+001
         90 -0.99594636E+000
         91 -0.19620966E+001
         92 -0.27116989E+001
         93 -0.23403923E+001
         94 -0.19161999E+001
         95 -0.12266481E+001
         96 -0.11417651E+001
         97 -0.18131552E+001
         98 -0.20005229E+001
         99 -0.59712443E+000
        100 -0.63198152E+000
        101 -0.15777322E+001
        102 -0.16014565E+001
        103 -0.72591961E+000
        104 -0.69150592E+000
        105 -0.11305011E+001
        106 -0.10901397E+001
        107 -0.38453281E+000
        108 -0.38142320E+000
        109 -0.42646778E+000
        110 -0.61832878E+000
        111 -0.65088912E+000
        112 -0.28961156E+000
        113 -0.37941331E+000
        114 -0.33402196E+000
        115 -0.32278646E+000
        116 -0.27914663E+000
        117 -0.34267595E+000
        118 -0.26989169E+000
        119 -0.25147441E+000
        120 -0.21195162E+000
        121  0.00000000E+000
End values

