 0.14645097E-003
 0.00000000E+000
 0.00000000E+000
 0.14361122E-003
 0.73384150E-005
 0.00000000E+000
 0.00000000E+000
 0.73823706E-005
 0.16345267E-003
 0.65408310E-003
 0.21378817E-002
 0.74823301E-002
 0.66642049E-001
 0.24997264E+000
 0.23718383E+000
 0.12523466E+000
 0.14058128E-001
 0.16122586E-002
 0.00000000E+000
 0.00000000E+000
 0.00000000E+000
 0.00000000E+000
 0.00000000E+000
 0.00000000E+000
 0.00000000E+000
 0.00000000E+000
 0.18810356E-002
 0.14496098E-001
 0.13247063E+000
 0.23717384E+000
 0.24996964E+000
 0.66739652E-001
 0.74737351E-002
 0.21250436E-002
 0.64653018E-003
 0.16047375E-003
 0.72780036E-003
 0.25823258E-002
 0.57862630E-002
 0.82985358E-002
 0.82945582E-002
 0.63321972E-002
 0.39618291E-002
 0.21145498E-002
 0.10036741E-002
 0.56581629E-003
 0.48980304E-003
 0.37854856E-003
 0.17147160E-003
 0.43426526E-004
 0.73197859E-005
 0.36892434E-004
 0.13778217E-003
 0.50400990E-003
 0.23804107E-002
 0.62809191E-002
 0.72302908E-002
 0.86013409E-002
 0.82802072E-002
 0.75683058E-002
 0.00000000E+000
 0.00000000E+000
 0.00000000E+000
 0.00000000E+000
 0.00000000E+000
 0.00000000E+000
 0.00000000E+000
 0.00000000E+000
 0.75511495E-002
 0.82712696E-002
 0.86031309E-002
 0.72357132E-002
 0.62788038E-002
 0.23790351E-002
 0.50450217E-003
 0.13815978E-003
 0.37065181E-004
 0.73677892E-005
 0.43692970E-004
 0.17253825E-003
 0.38085839E-003
 0.49295627E-003
 0.57122432E-003
 0.10160010E-002
 0.21376818E-002
 0.40005488E-002
 0.63947065E-002
 0.83821049E-002
 0.83959208E-002
 0.58634303E-002
 0.26228907E-002
 0.74122309E-003
 0.64581928E-001
 0.10677861E+000
 0.10551100E+000
 0.12008427E+000
 0.14967483E+000
 0.18047942E+000
 0.20240951E+000
 0.21709854E+000
 0.22791920E+000
 0.23717167E+000
 0.24526555E+000
 0.24958459E+000
 0.12637261E+000
 0.25276521E-001
 0.65616774E-001
 0.10871990E+000
 0.10687939E+000
 0.11977646E+000
 0.14815250E+000
 0.17886164E+000
 0.20138827E+000
 0.21665793E+000
 0.22782865E+000
 0.23721756E+000
 0.24532525E+000
 0.24955772E+000
 0.12632307E+000
 0.25333681E-001
 0.36034439E-001
 0.17716835E+000
 0.24937660E+000
 0.24371067E+000
 0.23911341E+000
 0.23422316E+000
 0.22881048E+000
 0.22049402E+000
 0.20520293E+000
 0.18605985E+000
 0.17987402E+000
 0.19014720E+000
 0.17430188E+000
 0.70822251E-001
 0.47003252E-001
 0.18525320E+000
 0.24972418E+000
 0.24999885E+000
 0.24700919E+000
 0.19222002E+000
 0.15191489E+000
 0.24641657E+000
 0.24705058E+000
 0.24330429E+000
 0.24193501E+000
 0.23692555E+000
 0.21695826E+000
 0.79362487E-001
 0.44388352E-001
 0.12431446E+000
 0.17765409E+000
 0.13715835E+000
 0.65405883E-001
 0.44729945E-001
 0.79017944E-001
 0.14086851E+000
 0.18584014E+000
 0.24699488E+000
 0.24666582E+000
 0.23383381E+000
 0.19222009E+000
 0.77366764E-001
 0.33690961E-001
 0.73919213E-001
 0.91520064E-001
 0.62901602E-001
 0.26216522E-001
 0.24603957E-001
 0.50224853E-001
 0.90928523E-001
 0.14930512E+000
 0.22931221E+000
 0.24757277E+000
 0.23711445E+000
 0.22358092E+000
 0.22549634E+000
 0.24027109E-001
 0.35764469E-001
 0.40914098E-001
 0.30819377E-001
 0.14264933E-001
 0.16530832E-001
 0.37825557E-001
 0.68714204E-001
 0.11416483E+000
 0.19304765E+000
 0.25004858E+000
 0.24737887E+000
 0.24448090E+000
 0.24617480E+000
 0.99998296E-002
 0.16116960E-001
 0.20254721E-001
 0.17636713E-001
 0.94636996E-002
 0.11102037E-001
 0.26097218E-001
 0.47972577E-001
 0.80545020E-001
 0.12834479E+000
 0.17478922E+000
 0.19325151E+000
 0.17928081E+000
 0.13143321E+000
 0.25814769E-002
 0.65837813E-002
 0.99095129E-002
 0.96381989E-002
 0.59892172E-002
 0.69532252E-002
 0.15834081E-001
 0.29552400E-001
 0.50386063E-001
 0.77997350E-001
 0.98277017E-001
 0.97299650E-001
 0.71122844E-001
 0.29292565E-001
 0.71132433E-003
 0.25113188E-002
 0.45013858E-002
 0.47861842E-002
 0.34367721E-002
 0.42523750E-002
 0.93234315E-002
 0.17700460E-001
 0.30080824E-001
 0.46104992E-001
 0.58606372E-001
 0.55441579E-001
 0.32143510E-001
 0.93528521E-002
 0.21970765E-003
 0.93698710E-003
 0.18828302E-002
 0.21540153E-002
 0.18182505E-002
 0.25724960E-002
 0.55188583E-002
 0.10553037E-001
 0.17787157E-001
 0.25937289E-001
 0.29929208E-001
 0.24231402E-001
 0.12584441E-001
 0.32155683E-002
 0.51986380E-004
 0.30400239E-003
 0.71568164E-003
 0.89385302E-003
 0.89872873E-003
 0.14614769E-002
 0.31000877E-002
 0.58859336E-002
 0.96971059E-002
 0.13368707E-001
 0.14078061E-001
 0.98899141E-002
 0.41779899E-002
 0.85234965E-003
 0.18357497E-001
 0.83404188E-001
 0.21932521E+000
 0.24816618E+000
 0.23998836E+000
 0.22890583E+000
 0.21505665E+000
 0.19795646E+000
 0.17621899E+000
 0.14820940E+000
 0.11627058E+000
 0.85660610E-001
 0.67778529E-001
 0.36293765E-001
 0.15870935E-001
 0.64016815E-001
 0.18152530E+000
 0.24989284E+000
 0.24342737E+000
 0.23310941E+000
 0.21888459E+000
 0.19988909E+000
 0.17545856E+000
 0.14586359E+000
 0.11368432E+000
 0.81594127E-001
 0.54003679E-001
 0.28066009E-001
 0.14501848E-001
 0.54535972E-001
 0.15619048E+000
 0.24873770E+000
 0.24542731E+000
 0.23589406E+000
 0.22223896E+000
 0.20327952E+000
 0.17800118E+000
 0.14702385E+000
 0.11316080E+000
 0.79987897E-001
 0.51006605E-001
 0.25558469E-001
 0.14122131E-001
 0.50888958E-001
 0.14429629E+000
 0.24378627E+000
 0.24636347E+000
 0.23724888E+000
 0.22385979E+000
 0.20474679E+000
 0.17870640E+000
 0.14660669E+000
 0.11172267E+000
 0.78110901E-001
 0.49199915E-001
 0.24852258E-001
 0.14128916E-001
 0.50928866E-001
 0.14440479E+000
 0.24382997E+000
 0.24635773E+000
 0.23723938E+000
 0.22384276E+000
 0.20471108E+000
 0.17865072E+000
 0.14654578E+000
 0.11170003E+000
 0.78121921E-001
 0.49251076E-001
 0.24889032E-001
 0.14519721E-001
 0.54666212E-001
 0.15650966E+000
 0.24881810E+000
 0.24541072E+000
 0.23587043E+000
 0.22220577E+000
 0.20322616E+000
 0.17793457E+000
 0.14698368E+000
 0.11316788E+000
 0.80052027E-001
 0.51162042E-001
 0.25646009E-001
 0.15907291E-001
 0.64248383E-001
 0.18196997E+000
 0.24988360E+000
 0.24341695E+000
 0.23311945E+000
 0.21892934E+000
 0.19997286E+000
 0.17561093E+000
 0.14607643E+000
 0.11387132E+000
 0.81711417E-001
 0.54157812E-001
 0.28127358E-001
 0.18377874E-001
 0.83556410E-001
 0.21952080E+000
 0.24815098E+000
 0.23998448E+000
 0.22895714E+000
 0.21523009E+000
 0.19835315E+000
 0.17693138E+000
 0.14918289E+000
 0.11718402E+000
 0.85956144E-001
 0.67523360E-001
 0.35922892E-001
 0.51637177E-004
 0.30214639E-003
 0.71164853E-003
 0.88911325E-003
 0.89135055E-003
 0.14428456E-002
 0.30655400E-002
 0.58321784E-002
 0.96112821E-002
 0.13241800E-001
 0.13925831E-001
 0.97658202E-002
 0.41147521E-002
 0.83633113E-003
 0.21863201E-003
 0.93247851E-003
 0.18740030E-002
 0.21454158E-002
 0.18075182E-002
 0.25378668E-002
 0.54519113E-002
 0.10456986E-001
 0.17637897E-001
 0.25704731E-001
 0.29615598E-001
 0.23955322E-001
 0.12431978E-001
 0.31733744E-002
 0.70931323E-003
 0.25039424E-002
 0.44856924E-002
 0.47716571E-002
 0.34255968E-002
 0.41944763E-002
 0.92020894E-002
 0.17537922E-001
 0.29829984E-001
 0.45692554E-001
 0.58062035E-001
 0.54867011E-001
 0.31771384E-001
 0.92816350E-002
 0.25797935E-002
 0.65767088E-002
 0.98852016E-002
 0.96125055E-002
 0.59842137E-002
 0.68592446E-002
 0.15618090E-001
 0.29282938E-001
 0.49952371E-001
 0.77344139E-001
 0.97510016E-001
 0.96603870E-001
 0.70600130E-001
 0.29079452E-001
 0.10004117E-001
 0.16115491E-001
 0.20213981E-001
 0.17584430E-001
 0.94856042E-002
 0.10957678E-001
 0.25717688E-001
 0.47512001E-001
 0.79800930E-001
 0.12690872E+000
 0.17301885E+000
 0.19178425E+000
 0.17841082E+000
 0.13138342E+000
 0.24034432E-001
 0.35757310E-001
 0.40796339E-001
 0.30707772E-001
 0.14407327E-001
 0.16355592E-001
 0.37194276E-001
 0.67960056E-001
 0.11273638E+000
 0.19046752E+000
 0.24987380E+000
 0.24757370E+000
 0.24461851E+000
 0.24617588E+000
 0.33688795E-001
 0.73857911E-001
 0.91108632E-001
 0.62805181E-001
 0.27013158E-001
 0.24651519E-001
 0.49188840E-001
 0.89576051E-001
 0.14766964E+000
 0.22777550E+000
 0.24780017E+000
 0.23758278E+000
 0.22416874E+000
 0.22578492E+000
 0.44391263E-001
 0.12411502E+000
 0.17686146E+000
 0.13777645E+000
 0.69440744E-001
 0.47267983E-001
 0.76936744E-001
 0.13669747E+000
 0.18402014E+000
 0.24600335E+000
 0.24680389E+000
 0.23425261E+000
 0.19486680E+000
 0.85657668E-001
 0.47043509E-001
 0.18489446E+000
 0.24969416E+000
 0.24999023E+000
 0.24868212E+000
 0.21540068E+000
 0.17054075E+000
 0.24544627E+000
 0.24765544E+000
 0.24418893E+000
 0.24263070E+000
 0.23748126E+000
 0.21788482E+000
 0.80028650E-001
 0.36084920E-001
 0.17679099E+000
 0.24940823E+000
 0.24372896E+000
 0.23889578E+000
 0.23348461E+000
 0.22748350E+000
 0.21916333E+000
 0.20455692E+000
 0.18690223E+000
 0.18176459E+000
 0.19203812E+000
 0.17710177E+000
 0.72752496E-001
