 0.34613229E-004
 0.10000000E+001
 0.10000000E+001
 0.33845615E-004
 0.82231823E-006
 0.00000000E+000
 0.00000000E+000
 0.82722400E-006
 0.39392798E-004
 0.14440431E-003
 0.41050156E-003
 0.11734149E-002
 0.74574252E-002
 0.41007517E-001
 0.95539383E-001
 0.20265657E+000
 0.47344566E+000
 0.99385252E+000
 0.10000000E+001
 0.10000000E+001
 0.10000000E+001
 0.10000000E+001
 0.10000000E+001
 0.10000000E+001
 0.10000000E+001
 0.10000000E+001
 0.99282769E+000
 0.46964091E+000
 0.20269800E+000
 0.95577671E-001
 0.41117708E-001
 0.74683482E-002
 0.11655510E-002
 0.40569947E-003
 0.14199910E-003
 0.38535086E-004
 0.15345856E-003
 0.48674033E-003
 0.96378706E-003
 0.12490052E-002
 0.11689257E-002
 0.85874179E-003
 0.52222518E-003
 0.26911151E-003
 0.12153679E-003
 0.64845747E-004
 0.54959039E-004
 0.42407833E-004
 0.19213777E-004
 0.48665566E-005
 0.82020113E-006
 0.41337108E-005
 0.15436462E-004
 0.56456238E-004
 0.26655523E-003
 0.70309776E-003
 0.80906525E-003
 0.96248495E-003
 0.92655027E-003
 0.84688894E-003
 0.00000000E+000
 0.00000000E+000
 0.00000000E+000
 0.00000000E+000
 0.00000000E+000
 0.00000000E+000
 0.00000000E+000
 0.00000000E+000
 0.84496915E-003
 0.92555016E-003
 0.96268525E-003
 0.80969016E-003
 0.70284989E-003
 0.26638921E-003
 0.56508465E-004
 0.15478051E-004
 0.41529141E-005
 0.82555698E-006
 0.48962974E-005
 0.19332880E-004
 0.42665987E-004
 0.55313338E-004
 0.65463946E-004
 0.12297206E-003
 0.27188209E-003
 0.52707329E-003
 0.86698120E-003
 0.11812339E-002
 0.12640707E-002
 0.97753627E-003
 0.49519576E-003
 0.15664272E-003
 0.73301832E+000
 0.55957228E+000
 0.57505279E+000
 0.53539656E+000
 0.42739663E+000
 0.31140989E+000
 0.22813446E+000
 0.17221229E+000
 0.13094253E+000
 0.95585977E-001
 0.64224116E-001
 0.36200946E-001
 0.14161473E-001
 0.28284277E-002
 0.72838827E+000
 0.55173791E+000
 0.56982906E+000
 0.53639489E+000
 0.43326866E+000
 0.31757661E+000
 0.23202240E+000
 0.17389244E+000
 0.13128807E+000
 0.95410174E-001
 0.63987537E-001
 0.36085135E-001
 0.14155849E-001
 0.28348239E-002
 0.40322324E-002
 0.20037719E-001
 0.46028211E-001
 0.70354955E-001
 0.88137151E-001
 0.10687025E+000
 0.12754134E+000
 0.15926426E+000
 0.21757023E+000
 0.29056197E+000
 0.31414825E+000
 0.27497707E+000
 0.28054349E+000
 0.72995787E+000
 0.52596360E-002
 0.21100715E-001
 0.36802769E-001
 0.40043280E-001
 0.32372029E-001
 0.21874188E-001
 0.17073733E-001
 0.31764616E-001
 0.56951768E-001
 0.71939567E-001
 0.77261954E-001
 0.96528923E-001
 0.17274723E+000
 0.54035064E+000
 0.49670302E-002
 0.13929280E-001
 0.20095901E-001
 0.15385712E-001
 0.73190824E-002
 0.50052543E-002
 0.88429237E-002
 0.15807037E-001
 0.21076430E-001
 0.32454193E-001
 0.58537337E-001
 0.10835903E+000
 0.22200706E+000
 0.33246830E+000
 0.37709563E-002
 0.82719604E-002
 0.10242929E-001
 0.70388212E-002
 0.29336133E-002
 0.27562211E-002
 0.56204180E-002
 0.10176687E-001
 0.16798861E-001
 0.30042689E-001
 0.54702597E-001
 0.95805184E-001
 0.14749211E+000
 0.14018582E+000
 0.26899499E-002
 0.40044428E-002
 0.45799538E-002
 0.34492564E-002
 0.15972387E-002
 0.18592452E-002
 0.42577084E-002
 0.76893260E-002
 0.12785617E-001
 0.22642803E-001
 0.38201339E-001
 0.55550624E-001
 0.67333845E-001
 0.60560770E-001
 0.11198803E-002
 0.18053159E-002
 0.22684462E-002
 0.19744567E-002
 0.10597724E-002
 0.12546384E-002
 0.29715728E-002
 0.54367086E-002
 0.90139279E-002
 0.14385326E-001
 0.19752746E-001
 0.22003649E-001
 0.20290751E-001
 0.14735878E-001
 0.28917939E-003
 0.73765637E-003
 0.11101450E-002
 0.10792509E-002
 0.67067542E-003
 0.79016579E-003
 0.18328204E-002
 0.34388219E-002
 0.57412430E-002
 0.87286361E-002
 0.11000957E-001
 0.10891301E-001
 0.79588837E-002
 0.38147435E-002
 0.79700919E-004
 0.28141049E-003
 0.50434238E-003
 0.53595449E-003
 0.38509064E-003
 0.48728150E-003
 0.11011334E-002
 0.21230638E-002
 0.35807106E-002
 0.53437811E-002
 0.65846458E-002
 0.62817654E-002
 0.42450129E-002
 0.16297897E-002
 0.24620381E-004
 0.10500030E-003
 0.21095155E-003
 0.24119455E-003
 0.20444031E-003
 0.29919632E-003
 0.66788743E-003
 0.13080726E-002
 0.22162724E-002
 0.32322893E-002
 0.38137060E-002
 0.33506932E-002
 0.20049513E-002
 0.62874672E-003
 0.58257868E-005
 0.34066812E-004
 0.80177175E-004
 0.10013350E-003
 0.10191199E-003
 0.17364488E-003
 0.38573371E-003
 0.75505778E-003
 0.12673825E-002
 0.17903435E-002
 0.19927682E-002
 0.15559784E-002
 0.76393684E-003
 0.18669334E-003
 0.20541931E-002
 0.93341016E-002
 0.26345635E-001
 0.52107229E-001
 0.84775103E-001
 0.12717749E+000
 0.17999843E+000
 0.24516666E+000
 0.32797434E+000
 0.43465398E+000
 0.55638757E+000
 0.67326350E+000
 0.74133074E+000
 0.86161347E+000
 0.17759515E-002
 0.71636278E-002
 0.20559597E-001
 0.42462871E-001
 0.71459627E-001
 0.11112861E+000
 0.16540169E+000
 0.23782935E+000
 0.33098422E+000
 0.44382853E+000
 0.56652667E+000
 0.68888518E+000
 0.79408635E+000
 0.89298554E+000
 0.16227495E-002
 0.61025999E-002
 0.17568325E-001
 0.37097670E-001
 0.63583019E-001
 0.10048071E+000
 0.15260985E+000
 0.22490413E+000
 0.32128916E+000
 0.43940450E+000
 0.56852277E+000
 0.69500967E+000
 0.80551406E+000
 0.90254668E+000
 0.15802584E-002
 0.56944522E-002
 0.16200103E-001
 0.34476483E-001
 0.59783273E-001
 0.95290188E-001
 0.14642837E+000
 0.21930949E+000
 0.31860035E+000
 0.44099514E+000
 0.57400637E+000
 0.70216657E+000
 0.81240289E+000
 0.90523943E+000
 0.15810175E-002
 0.56989184E-002
 0.16212545E-001
 0.34496051E-001
 0.59806962E-001
 0.95326566E-001
 0.14649333E+000
 0.21944565E+000
 0.31881265E+000
 0.44122735E+000
 0.57409270E+000
 0.70212455E+000
 0.81220781E+000
 0.90509921E+000
 0.16247495E-002
 0.61171754E-002
 0.17605522E-001
 0.37152716E-001
 0.63648773E-001
 0.10057124E+000
 0.15273642E+000
 0.22510759E+000
 0.32154306E+000
 0.43955768E+000
 0.56849579E+000
 0.69476514E+000
 0.80492138E+000
 0.90221289E+000
 0.17800197E-002
 0.71895433E-002
 0.20612860E-001
 0.42526621E-001
 0.71500284E-001
 0.11109023E+000
 0.16523106E+000
 0.23750999E+000
 0.33040325E+000
 0.44301700E+000
 0.56581366E+000
 0.68843796E+000
 0.79349864E+000
 0.89275162E+000
 0.20564732E-002
 0.93511477E-002
 0.26390092E-001
 0.52173720E-001
 0.84790022E-001
 0.12698168E+000
 0.17933711E+000
 0.24365327E+000
 0.32525473E+000
 0.43099332E+000
 0.55294379E+000
 0.67225300E+000
 0.74250642E+000
 0.86302759E+000
 0.57868270E-005
 0.33859733E-004
 0.79726853E-004
 0.99602415E-004
 0.10106959E-003
 0.17148546E-003
 0.38166566E-003
 0.74855858E-003
 0.12566907E-002
 0.17739534E-002
 0.19715067E-002
 0.15356625E-002
 0.75133362E-003
 0.18275159E-003
 0.24500765E-004
 0.10449843E-003
 0.20996691E-003
 0.24023368E-003
 0.20321977E-003
 0.29520990E-003
 0.66012921E-003
 0.12968588E-002
 0.21988647E-002
 0.32056431E-002
 0.37787192E-002
 0.33148128E-002
 0.19788707E-002
 0.61864586E-003
 0.79479413E-004
 0.28059536E-003
 0.50259489E-003
 0.53433288E-003
 0.38382576E-003
 0.48067381E-003
 0.10872684E-002
 0.21046251E-002
 0.35528869E-002
 0.53011843E-002
 0.65312614E-002
 0.62285672E-002
 0.42042041E-002
 0.16110699E-002
 0.28900741E-003
 0.73689886E-003
 0.11074427E-002
 0.10763779E-002
 0.67010832E-003
 0.77953410E-003
 0.18084723E-002
 0.34089572E-002
 0.56953907E-002
 0.86554886E-002
 0.10914903E-001
 0.10813238E-001
 0.79003852E-002
 0.37828534E-002
 0.11204192E-002
 0.18052281E-002
 0.22639045E-002
 0.19685991E-002
 0.10622296E-002
 0.12384336E-002
 0.29292362E-002
 0.53865016E-002
 0.89306036E-002
 0.14222323E-001
 0.19540691E-001
 0.21819496E-001
 0.20186543E-001
 0.14730227E-001
 0.26908603E-002
 0.40037436E-002
 0.45667549E-002
 0.34367602E-002
 0.16131957E-002
 0.18396897E-002
 0.41875271E-002
 0.76049272E-002
 0.12624658E-001
 0.22210554E-001
 0.37447809E-001
 0.54698501E-001
 0.66788475E-001
 0.60556325E-001
 0.37707496E-002
 0.82650958E-002
 0.10196856E-001
 0.70280304E-002
 0.30227564E-002
 0.27616409E-002
 0.55053118E-002
 0.10025235E-001
 0.16602430E-001
 0.29537944E-001
 0.53708042E-001
 0.94010967E-001
 0.14524991E+000
 0.13908505E+000
 0.49673561E-002
 0.13906808E-001
 0.20000960E-001
 0.15455870E-001
 0.77706352E-002
 0.52892592E-002
 0.86098679E-002
 0.15333400E-001
 0.20858430E-001
 0.32376719E-001
 0.57968331E-001
 0.10675764E+000
 0.21805681E+000
 0.32728789E+000
 0.52641407E-002
 0.21055729E-001
 0.36673351E-001
 0.40360537E-001
 0.34086702E-001
 0.24926135E-001
 0.19243863E-001
 0.31201599E-001
 0.54341026E-001
 0.68490068E-001
 0.74566104E-001
 0.94399895E-001
 0.16921402E+000
 0.53158771E+000
 0.40378811E-002
 0.19992519E-001
 0.45809780E-001
 0.70283641E-001
 0.88973431E-001
 0.10969430E+000
 0.13260518E+000
 0.16433880E+000
 0.22003345E+000
 0.28735001E+000
 0.30693961E+000
 0.26776707E+000
 0.27406534E+000
 0.72259793E+000
