 0.19065779E-006
 0.11865620E+000
 0.12154691E+000
 0.19247462E-006
 0.22681014E-005
 0.52981373E-017
 0.00000000E+000
 0.22417172E-005
 0.51674951E-006
 0.70444136E-005
 0.51254147E-003
 0.32080582E+000
 0.43234733E+003
 0.41822922E+003
 0.38176612E+002
 0.99059155E+001
 0.59614890E-002
 0.55452196E-001
 0.31748392E-001
 0.00000000E+000
 0.00000000E+000
 0.00000000E+000
 0.00000000E+000
 0.00000000E+000
 0.00000000E+000
 0.32627232E-001
 0.56938342E-001
 0.61003673E-002
 0.95989653E+001
 0.36440509E+002
 0.42224558E+003
 0.43503681E+003
 0.31703198E+000
 0.53336660E-003
 0.73506648E-005
 0.53274859E-006
 0.25682945E-005
 0.37366184E-004
 0.31047641E-003
 0.15360799E-002
 0.38508985E-002
 0.54042519E-002
 0.55151036E-002
 0.51591261E-002
 0.40474057E-002
 0.15803865E-002
 0.23684788E-003
 0.48559599E-004
 0.23662598E-004
 0.75074413E-005
 0.38014590E-005
 0.13067620E-004
 0.40803804E-004
 0.12432999E-003
 0.29536310E-003
 0.38611440E-003
 0.22542221E-003
 0.37772930E-004
 0.00000000E+000
 0.00000000E+000
 0.12529141E-006
 0.54981504E-006
 0.32924072E-006
 0.95672875E-007
 0.98027210E-007
 0.33472503E-006
 0.54728667E-006
 0.12426920E-006
 0.00000000E+000
 0.00000000E+000
 0.37797243E-004
 0.22121171E-003
 0.36574230E-003
 0.27755339E-003
 0.11761812E-003
 0.39185249E-004
 0.12724633E-004
 0.37371765E-005
 0.74232190E-005
 0.23421404E-004
 0.48409653E-004
 0.23896786E-003
 0.15952229E-002
 0.41081643E-002
 0.52612783E-002
 0.56170831E-002
 0.54905626E-002
 0.39017883E-002
 0.15506956E-002
 0.31162113E-003
 0.37349550E-004
 0.25453696E-005
 0.36705102E+000
 0.65825485E+000
 0.46873031E+000
 0.17931396E+000
 0.52308684E-001
 0.13517617E-001
 0.43618213E-002
 0.43326316E-002
 0.26252095E-001
 0.37484361E+000
 0.39421179E+001
 0.16793162E+002
 0.19512095E+002
 0.10877077E+000
 0.37260222E+000
 0.66137528E+000
 0.46974308E+000
 0.18180620E+000
 0.52174138E-001
 0.13341237E-001
 0.41718508E-002
 0.36101759E-002
 0.24930337E-001
 0.37736116E+000
 0.39081017E+001
 0.16392954E+002
 0.19097472E+002
 0.10764455E+000
 0.57656430E+000
 0.18909570E+002
 0.16036385E+002
 0.54350674E+001
 0.52399812E+002
 0.28077851E+003
 0.32774127E+003
 0.87709031E+002
 0.31296262E+001
 0.12628955E+000
 0.82901121E-001
 0.40936278E+000
 0.94265294E+000
 0.39042299E+000
 0.96128293E+000
 0.93105893E+001
 0.12816857E+002
 0.19125150E+002
 0.96060179E+002
 0.66646777E+003
 0.89401641E+003
 0.29082936E+003
 0.12025911E+003
 0.29996693E+002
 0.31126513E+001
 0.22937763E+001
 0.20510547E+001
 0.22113214E+000
 0.25115101E+000
 0.28382176E+001
 0.96591143E+001
 0.29404677E+002
 0.41925281E+002
 0.72681553E+001
 0.21900825E+001
 0.14822151E+002
 0.53664324E+002
 0.16703101E+002
 0.38959748E+001
 0.61196083E+001
 0.44381092E+001
 0.33780182E+001
 0.10406180E-001
 0.19509405E+000
 0.46974176E+000
 0.23066283E+000
 0.21058000E-001
 0.23511546E-002
 0.51398241E-001
 0.34507303E+000
 0.51140904E+001
 0.13311913E+002
 0.53731476E+001
 0.36608530E+001
 0.44556749E+001
 0.12994365E+002
 0.92297954E-003
 0.30007825E-002
 0.40621904E-002
 0.12386154E-002
 0.14413688E-002
 0.70229638E-002
 0.31513702E-001
 0.25295932E+000
 0.27755794E+001
 0.13342279E+002
 0.19513722E+002
 0.12075567E+003
 0.34714967E+003
 0.54252038E+003
 0.62331492E-003
 0.11193187E-002
 0.11189929E-002
 0.67400325E-003
 0.17958852E-002
 0.11010269E-001
 0.33970735E-001
 0.26145522E+000
 0.10948541E+001
 0.41847757E+001
 0.13557664E+002
 0.63801715E+002
 0.30644960E+003
 0.56399207E+003
 0.29363743E-003
 0.64373501E-003
 0.78041067E-003
 0.53300773E-003
 0.17007941E-002
 0.12146031E-001
 0.40779619E-001
 0.10281748E+000
 0.58909292E+000
 0.88237948E+000
 0.75565533E+000
 0.14083167E+001
 0.29355664E+001
 0.22722626E+001
 0.11147195E-003
 0.29546563E-003
 0.40889814E-003
 0.33051622E-003
 0.16289155E-002
 0.11177709E-001
 0.34294909E-001
 0.65218531E-001
 0.13179166E+000
 0.49609399E+000
 0.71134518E+000
 0.10035248E+001
 0.47467735E+000
 0.46214645E-001
 0.40066896E-004
 0.11887290E-003
 0.17773474E-003
 0.23067437E-003
 0.17141313E-002
 0.88228852E-002
 0.20388785E-001
 0.33574230E-001
 0.53206907E-001
 0.76338183E-001
 0.11653851E+000
 0.60576772E-001
 0.68651911E-002
 0.23723213E-003
 0.13142138E-004
 0.42924151E-004
 0.73558137E-004
 0.22110156E-003
 0.16699203E-002
 0.57263391E-002
 0.92922844E-002
 0.11950198E-001
 0.14784340E-001
 0.14537429E-001
 0.81392916E-002
 0.18721900E-002
 0.19194765E-003
 0.10443350E-004
 0.10282134E-001
 0.88068065E+001
 0.16426060E+002
 0.88355754E+001
 0.11326818E+001
 0.57223196E-001
 0.20176826E-002
 0.16769532E-002
 0.56487469E-002
 0.17351678E-001
 0.50349320E-001
 0.11322503E+000
 0.14472550E+000
 0.92277997E-001
 0.32266029E-003
 0.18949458E+001
 0.14092768E+002
 0.10403892E+002
 0.24817593E+001
 0.16031948E+000
 0.47310521E-002
 0.30014715E-003
 0.62421627E-003
 0.11413341E-002
 0.12713557E-002
 0.85112166E-003
 0.91319730E-003
 0.20293361E-003
 0.12557903E-004
 0.40699997E+000
 0.12273197E+002
 0.10890691E+002
 0.31600605E+001
 0.30814604E+000
 0.10821712E-001
 0.88224249E-004
 0.45397123E-005
 0.10542453E-005
 0.74752389E-006
 0.18513582E-006
 0.68677534E-008
 0.19273737E-008
 0.20417562E-005
 0.19775617E+000
 0.11289936E+002
 0.11555226E+002
 0.31274730E+001
 0.44154953E+000
 0.16430614E-001
 0.12772261E-003
 0.66480373E-006
 0.40439145E-006
 0.21720671E-006
 0.53886735E-007
 0.60506327E-008
 0.16340272E-008
 0.21102601E-005
 0.19930414E+000
 0.11295018E+002
 0.11548070E+002
 0.31246043E+001
 0.44085827E+000
 0.16385082E-001
 0.12694580E-003
 0.92144117E-006
 0.49860646E-006
 0.19948400E-006
 0.44729809E-007
 0.55648636E-008
 0.16741253E-008
 0.13106203E-004
 0.41420689E+000
 0.12268922E+002
 0.10854211E+002
 0.31375627E+001
 0.30657661E+000
 0.10739317E-001
 0.87440925E-004
 0.54795136E-005
 0.12819627E-005
 0.64025782E-006
 0.15397617E-006
 0.65376805E-008
 0.21356567E-008
 0.33056246E-003
 0.19164934E+001
 0.14060382E+002
 0.10353405E+002
 0.24570749E+001
 0.15950889E+000
 0.47249675E-002
 0.30618419E-003
 0.59178128E-003
 0.93148389E-003
 0.98861715E-003
 0.23430190E-003
 0.10458098E-003
 0.26147050E-004
 0.10338635E-001
 0.89767529E+001
 0.16512924E+002
 0.88186634E+001
 0.11288769E+001
 0.57015701E-001
 0.20636268E-002
 0.16846943E-002
 0.55660721E-002
 0.16592819E-001
 0.48660264E-001
 0.11019792E+000
 0.13973537E+000
 0.89495931E-001
 0.13344811E-004
 0.43492648E-004
 0.74162839E-004
 0.21912236E-003
 0.16529240E-002
 0.56525211E-002
 0.91286710E-002
 0.11740168E-001
 0.14534006E-001
 0.14271037E-001
 0.79596754E-002
 0.18392117E-002
 0.19081439E-003
 0.10537494E-004
 0.41001955E-004
 0.12104709E-003
 0.17998412E-003
 0.22968407E-003
 0.16936213E-002
 0.87250824E-002
 0.20104015E-001
 0.33089836E-001
 0.52441604E-001
 0.74090394E-001
 0.10596638E+000
 0.52049604E-001
 0.67167303E-002
 0.23400042E-003
 0.11543443E-003
 0.30302231E-003
 0.41496202E-003
 0.33143864E-003
 0.16087707E-002
 0.11077152E-001
 0.33979032E-001
 0.64754152E-001
 0.12737802E+000
 0.48592000E+000
 0.72288893E+000
 0.10224929E+001
 0.46667286E+000
 0.43740377E-001
 0.30807366E-003
 0.66495892E-003
 0.79218446E-003
 0.53454929E-003
 0.16858726E-002
 0.12076825E-001
 0.40694868E-001
 0.97508276E-001
 0.56251842E+000
 0.87024318E+000
 0.77116867E+000
 0.14229396E+001
 0.28493171E+001
 0.21986394E+001
 0.65904309E-003
 0.11607365E-002
 0.11316909E-002
 0.67342200E-003
 0.17932397E-002
 0.11006042E-001
 0.33974985E-001
 0.24601787E+000
 0.10164943E+001
 0.38172084E+001
 0.12822464E+002
 0.61900835E+002
 0.30435798E+003
 0.56368589E+003
 0.97110132E-003
 0.30611609E-002
 0.40445141E-002
 0.12236015E-002
 0.14531056E-002
 0.70977815E-002
 0.31022323E-001
 0.23798210E+000
 0.24348190E+001
 0.12467675E+002
 0.18412870E+002
 0.11546327E+003
 0.34651661E+003
 0.54333151E+003
 0.10374642E-001
 0.19123178E+000
 0.46205197E+000
 0.22910646E+000
 0.22105185E-001
 0.24568326E-002
 0.46999693E-001
 0.31441716E+000
 0.48016278E+001
 0.13250337E+002
 0.54814451E+001
 0.36500159E+001
 0.43986548E+001
 0.12932331E+002
 0.24814232E+000
 0.28025436E+001
 0.97014131E+001
 0.31855050E+002
 0.57701674E+002
 0.13289378E+002
 0.23716315E+001
 0.12615034E+002
 0.44109944E+002
 0.14795344E+002
 0.36786727E+001
 0.57663461E+001
 0.43369269E+001
 0.33927389E+001
 0.94816894E+000
 0.92090792E+001
 0.12797501E+002
 0.19991388E+002
 0.60237136E+002
 0.44702034E+003
 0.79492934E+003
 0.26470124E+003
 0.95309072E+002
 0.23507094E+002
 0.32545689E+001
 0.22449214E+001
 0.20456055E+001
 0.22160160E+000
 0.56844217E+000
 0.18486080E+002
 0.15250610E+002
 0.46118202E+001
 0.29344867E+002
 0.18361407E+003
 0.27774339E+003
 0.78670024E+002
 0.37956952E+001
 0.16766370E+000
 0.95552046E-001
 0.41188860E+000
 0.93281254E+000
 0.39022896E+000
