 0.45730041E+003
 0.34323440E+003
 0.34373935E+003
 0.45722126E+003
 0.45324570E+003
 0.57027220E+003
 0.57006906E+003
 0.45324725E+003
 0.45981268E+003
 0.47491584E+003
 0.52221739E+003
 0.74749785E+003
 0.13108600E+004
 0.17556605E+004
 0.14345351E+004
 0.72950524E+003
 0.41837523E+003
 0.35272554E+003
 0.33420380E+003
 0.33024811E+003
 0.32914756E+003
 0.32882152E+003
 0.32880989E+003
 0.32912121E+003
 0.33025133E+003
 0.33436609E+003
 0.35371678E+003
 0.42294278E+003
 0.74696578E+003
 0.14408937E+004
 0.17555993E+004
 0.13106129E+004
 0.74695936E+003
 0.52177277E+003
 0.47468781E+003
 0.45970479E+003
 0.46556746E+003
 0.49359690E+003
 0.53693244E+003
 0.56942528E+003
 0.56877346E+003
 0.54228914E+003
 0.50993832E+003
 0.48422608E+003
 0.46856401E+003
 0.46202791E+003
 0.46038285E+003
 0.45864755E+003
 0.45581919E+003
 0.45382204E+003
 0.45341445E+003
 0.45449511E+003
 0.45826445E+003
 0.47326486E+003
 0.51981376E+003
 0.59390339E+003
 0.64812434E+003
 0.69157000E+003
 0.69733592E+003
 0.64974357E+003
 0.53017556E+003
 0.51786115E+003
 0.51224463E+003
 0.51030494E+003
 0.51033067E+003
 0.51232181E+003
 0.51798480E+003
 0.53021643E+003
 0.64944772E+003
 0.69713085E+003
 0.69154316E+003
 0.64815184E+003
 0.59387629E+003
 0.51978884E+003
 0.47326917E+003
 0.45827465E+003
 0.45450110E+003
 0.45341685E+003
 0.45382719E+003
 0.45583635E+003
 0.45868097E+003
 0.46043066E+003
 0.46211347E+003
 0.46874723E+003
 0.48456122E+003
 0.51048805E+003
 0.54314845E+003
 0.56996136E+003
 0.57074749E+003
 0.53800713E+003
 0.49419535E+003
 0.46578209E+003
 0.40053575E+003
 0.50094805E+003
 0.53672454E+003
 0.57361667E+003
 0.67304520E+003
 0.84064524E+003
 0.10436514E+004
 0.12525455E+004
 0.14705334E+004
 0.17212987E+004
 0.19773619E+004
 0.20936339E+004
 0.16491271E+004
 0.89736919E+003
 0.40255281E+003
 0.50583304E+003
 0.54086886E+003
 0.57414571E+003
 0.66851131E+003
 0.83094478E+003
 0.10317022E+004
 0.12423065E+004
 0.14649695E+004
 0.17204061E+004
 0.19790292E+004
 0.20964017E+004
 0.16498421E+004
 0.89751225E+003
 0.10404858E+004
 0.18386893E+004
 0.20900781E+004
 0.20057611E+004
 0.17436938E+004
 0.14883377E+004
 0.13509112E+004
 0.12653802E+004
 0.11147972E+004
 0.94309988E+003
 0.87454719E+003
 0.87166703E+003
 0.72931519E+003
 0.44350373E+003
 0.11088618E+004
 0.19101287E+004
 0.21661092E+004
 0.20954157E+004
 0.19355797E+004
 0.16751902E+004
 0.16108487E+004
 0.17644230E+004
 0.16549499E+004
 0.16392969E+004
 0.16174327E+004
 0.14292776E+004
 0.99454886E+003
 0.51836216E+003
 0.10265140E+004
 0.16483518E+004
 0.19178810E+004
 0.17082636E+004
 0.13653248E+004
 0.12288914E+004
 0.14277453E+004
 0.17972650E+004
 0.19578149E+004
 0.21234231E+004
 0.19676169E+004
 0.15557770E+004
 0.10433556E+004
 0.70337199E+003
 0.87788404E+003
 0.12464682E+004
 0.14005990E+004
 0.11993247E+004
 0.87960060E+003
 0.82849271E+003
 0.10815902E+004
 0.14762827E+004
 0.18914281E+004
 0.21314949E+004
 0.20162397E+004
 0.17185394E+004
 0.13873778E+004
 0.13239300E+004
 0.72859888E+003
 0.89034824E+003
 0.94747238E+003
 0.84044396E+003
 0.67983687E+003
 0.69684455E+003
 0.91405520E+003
 0.12379815E+004
 0.16457570E+004
 0.20200217E+004
 0.20910630E+004
 0.18558363E+004
 0.16670273E+004
 0.16683493E+004
 0.58408341E+003
 0.66299300E+003
 0.70276350E+003
 0.66609662E+003
 0.59145928E+003
 0.61709563E+003
 0.78081197E+003
 0.10253082E+004
 0.13526537E+004
 0.17217360E+004
 0.19429821E+004
 0.19069630E+004
 0.17232812E+004
 0.14831611E+004
 0.49798734E+003
 0.54229841E+003
 0.57536433E+003
 0.56918380E+003
 0.53768165E+003
 0.55676416E+003
 0.66181529E+003
 0.82910853E+003
 0.10570633E+004
 0.13198050E+004
 0.15051579E+004
 0.15104579E+004
 0.13039139E+004
 0.95756807E+003
 0.46688400E+003
 0.48858287E+003
 0.50944821E+003
 0.51194116E+003
 0.50136701E+003
 0.51572017E+003
 0.57822435E+003
 0.68462738E+003
 0.83109263E+003
 0.99570570E+003
 0.11042615E+004
 0.10643392E+004
 0.86002744E+003
 0.62218200E+003
 0.45751923E+003
 0.46668116E+003
 0.47718664E+003
 0.48044785E+003
 0.47882857E+003
 0.49006669E+003
 0.52698774E+003
 0.59054295E+003
 0.67872803E+003
 0.76973641E+003
 0.81197414E+003
 0.75884133E+003
 0.63056337E+003
 0.51448523E+003
 0.45444233E+003
 0.45801549E+003
 0.46277981E+003
 0.46511807E+003
 0.46632713E+003
 0.47446848E+003
 0.49600594E+003
 0.53223895E+003
 0.58014063E+003
 0.62412361E+003
 0.63293594E+003
 0.58897926E+003
 0.52154179E+003
 0.47393978E+003
 0.77170866E+003
 0.14316394E+004
 0.20408818E+004
 0.20093668E+004
 0.17911632E+004
 0.14736395E+004
 0.12016768E+004
 0.97178099E+003
 0.77898755E+003
 0.62535994E+003
 0.51728979E+003
 0.45126049E+003
 0.41206880E+003
 0.36540290E+003
 0.71064934E+003
 0.12730901E+004
 0.19478524E+004
 0.20973081E+004
 0.19023734E+004
 0.15606372E+004
 0.12495099E+004
 0.98700178E+003
 0.77711267E+003
 0.61922564E+003
 0.50921516E+003
 0.43580624E+003
 0.38845530E+003
 0.35187679E+003
 0.68080755E+003
 0.11735855E+004
 0.18559995E+004
 0.21495337E+004
 0.19719070E+004
 0.16387487E+004
 0.13061132E+004
 0.10190598E+004
 0.78956604E+003
 0.62108468E+003
 0.50669428E+003
 0.43144881E+003
 0.38254201E+003
 0.34833867E+003
 0.66929489E+003
 0.11287651E+004
 0.18022860E+004
 0.21458076E+004
 0.19901757E+004
 0.16802785E+004
 0.13370308E+004
 0.10367988E+004
 0.79604595E+003
 0.62109051E+003
 0.50412014E+003
 0.42859738E+003
 0.38032221E+003
 0.34728766E+003
 0.66942588E+003
 0.11292218E+004
 0.18028217E+004
 0.21459551E+004
 0.19901228E+004
 0.16799931E+004
 0.13367392E+004
 0.10364902E+004
 0.79578096E+003
 0.62094140E+003
 0.50408748E+003
 0.42862869E+003
 0.38038125E+003
 0.34732395E+003
 0.68121271E+003
 0.11749235E+004
 0.18574837E+004
 0.21498536E+004
 0.19718422E+004
 0.16382668E+004
 0.13057463E+004
 0.10187494E+004
 0.78938139E+003
 0.62106937E+003
 0.50677750E+003
 0.43158272E+003
 0.38270950E+003
 0.34842709E+003
 0.71125322E+003
 0.12748829E+004
 0.19495479E+004
 0.20971141E+004
 0.19021825E+004
 0.15609598E+004
 0.12504158E+004
 0.98827689E+003
 0.77850759E+003
 0.62042541E+003
 0.50994753E+003
 0.43611691E+003
 0.38857711E+003
 0.35189002E+003
 0.77204091E+003
 0.14323824E+004
 0.20407054E+004
 0.20084349E+004
 0.17909692E+004
 0.14750404E+004
 0.12049917E+004
 0.97671206E+003
 0.78422814E+003
 0.62933762E+003
 0.51911683E+003
 0.45130460E+003
 0.41132420E+003
 0.36488145E+003
 0.45443412E+003
 0.45798789E+003
 0.46272838E+003
 0.46505217E+003
 0.46621444E+003
 0.47421272E+003
 0.49553990E+003
 0.53150415E+003
 0.57899675E+003
 0.62249287E+003
 0.63103019E+003
 0.58736172E+003
 0.52062236E+003
 0.47362612E+003
 0.45750071E+003
 0.46662367E+003
 0.47708530E+003
 0.48033637E+003
 0.47865535E+003
 0.48961387E+003
 0.52614280E+003
 0.58928022E+003
 0.67681359E+003
 0.76700262E+003
 0.80861295E+003
 0.75567595E+003
 0.62851803E+003
 0.51378510E+003
 0.46685489E+003
 0.48849162E+003
 0.50927413E+003
 0.51176411E+003
 0.50113330E+003
 0.51495629E+003
 0.57672692E+003
 0.68251023E+003
 0.82807483E+003
 0.99132636E+003
 0.10989061E+004
 0.10590051E+004
 0.85626235E+003
 0.62076549E+003
 0.49796850E+003
 0.54219516E+003
 0.57508781E+003
 0.56890060E+003
 0.53741745E+003
 0.55552320E+003
 0.65925015E+003
 0.82575735E+003
 0.10522430E+004
 0.13131895E+004
 0.14977989E+004
 0.15038728E+004
 0.12991456E+004
 0.95555320E+003
 0.58410973E+003
 0.66287355E+003
 0.70224090E+003
 0.66560999E+003
 0.59136064E+003
 0.61524209E+003
 0.77665918E+003
 0.10199729E+004
 0.13450883E+004
 0.17133145E+004
 0.19390479E+004
 0.19048510E+004
 0.17211559E+004
 0.14824164E+004
 0.72861396E+003
 0.88997722E+003
 0.94618672E+003
 0.83987437E+003
 0.68121100E+003
 0.69498954E+003
 0.90765161E+003
 0.12296960E+004
 0.16361114E+004
 0.20169988E+004
 0.21016170E+004
 0.18665415E+004
 0.16727347E+004
 0.16702896E+004
 0.87775307E+003
 0.12453616E+004
 0.13980283E+004
 0.12008340E+004
 0.88915188E+003
 0.83175234E+003
 0.10717337E+004
 0.14623480E+004
 0.18815574E+004
 0.21309002E+004
 0.20254238E+004
 0.17321657E+004
 0.13997358E+004
 0.13326533E+004
 0.10262659E+004
 0.16467445E+004
 0.19153613E+004
 0.17090610E+004
 0.13797245E+004
 0.12611417E+004
 0.14379341E+004
 0.17874747E+004
 0.19631896E+004
 0.21263725E+004
 0.19752849E+004
 0.15715244E+004
 0.10592907E+004
 0.72069841E+003
 0.11086781E+004
 0.19094366E+004
 0.21665509E+004
 0.20911322E+004
 0.19567518E+004
 0.17409463E+004
 0.16624206E+004
 0.17720363E+004
 0.16726212E+004
 0.16595342E+004
 0.16368187E+004
 0.14478879E+004
 0.10086861E+004
 0.52503882E+003
 0.10404072E+004
 0.18389979E+004
 0.20933677E+004
 0.20081447E+004
 0.17650905E+004
 0.14967699E+004
 0.13448743E+004
 0.12503378E+004
 0.11080628E+004
 0.94885825E+003
 0.88624790E+003
 0.88580501E+003
 0.74101965E+003
 0.44715701E+003
