 0.00000000E+000
 0.10000000E+001
 0.10000000E+001
 0.00000000E+000
 0.00000000E+000
 0.10000000E+001
 0.10000000E+001
 0.00000000E+000
 0.10658520E+000
 0.63137483E+000
 0.10000000E+001
 0.10000000E+001
 0.10000000E+001
 0.10000000E+001
 0.10000000E+001
 0.10000000E+001
 0.10000000E+001
 0.10000000E+001
 0.10000000E+001
 0.10000000E+001
 0.10000000E+001
 0.10000000E+001
 0.10000000E+001
 0.10000000E+001
 0.10000000E+001
 0.10000000E+001
 0.63460412E+000
 0.10670833E+000
 0.00000000E+000
 0.00000000E+000
 0.10658334E+000
 0.63200694E+000
 0.10000000E+001
 0.10000000E+001
 0.10000000E+001
 0.10000000E+001
 0.10000000E+001
 0.10000000E+001
 0.10000000E+001
 0.10000000E+001
 0.10000000E+001
 0.10000000E+001
 0.10000000E+001
 0.10000000E+001
 0.10000000E+001
 0.10000000E+001
 0.10000000E+001
 0.10000000E+001
 0.63351363E+000
 0.10664762E+000
 0.00000000E+000
 0.00000000E+000
 0.00000000E+000
 0.00000000E+000
 0.10000000E+001
 0.10000000E+001
 0.10000000E+001
 0.10000000E+001
 0.00000000E+000
 0.00000000E+000
 0.96695365E-001
 0.96773238E-001
 0.55958001E+000
 0.56151966E+000
 0.10000000E+001
 0.10000000E+001
 0.10000000E+001
 0.10000000E+001
 0.99996114E+000
 0.99996017E+000
 0.99999503E+000
 0.99999494E+000
 0.99999957E+000
 0.99999956E+000
 0.99999998E+000
 0.99999998E+000
 0.10000000E+001
 0.10000000E+001
 0.96633200E-001
 0.96661109E-001
 0.55961815E+000
 0.56035938E+000
 0.10000000E+001
 0.10000000E+001
 0.10000000E+001
 0.10000000E+001
 0.99996100E+000
 0.99996108E+000
 0.99999503E+000
 0.99999502E+000
 0.99999957E+000
 0.99999957E+000
 0.99999998E+000
 0.99999998E+000
 0.10000000E+001
 0.10000000E+001
 0.96641889E-001
 0.96622127E-001
 0.55873703E+000
 0.55903691E+000
 0.10000000E+001
 0.10000000E+001
 0.10000000E+001
 0.10000000E+001
 0.99996152E+000
 0.99996111E+000
 0.99999507E+000
 0.99999504E+000
 0.99999957E+000
 0.99999957E+000
 0.99999998E+000
 0.99999998E+000
 0.10000000E+001
 0.10000000E+001
 0.10000000E+001
 0.10000000E+001
 0.10000000E+001
 0.10000000E+001
 0.10000000E+001
 0.10000000E+001
 0.99999998E+000
 0.99999998E+000
 0.99999956E+000
 0.99999957E+000
 0.99999494E+000
 0.99999499E+000
 0.99996023E+000
 0.99996096E+000
 0.10000000E+001
 0.10000000E+001
 0.10000000E+001
 0.10000000E+001
 0.56215319E+000
 0.56122305E+000
 0.96751943E-001
 0.96686271E-001
 0.00000000E+000
 0.00000000E+000
 0.00000000E+000
 0.00000000E+000
 0.85718724E-001
 0.85660037E-001
 0.85820271E-001
 0.85707499E-001
 0.45435802E+000
 0.45422298E+000
 0.45574149E+000
 0.45492936E+000
 0.97811274E+000
 0.97802210E+000
 0.97795261E+000
 0.97818715E+000
 0.99768213E+000
 0.99767252E+000
 0.99763404E+000
 0.99766746E+000
 0.99969511E+000
 0.99969484E+000
 0.99968917E+000
 0.99969288E+000
 0.99996526E+000
 0.99996529E+000
 0.99996474E+000
 0.99996502E+000
 0.99999680E+000
 0.99999680E+000
 0.99999676E+000
 0.99999678E+000
 0.99999978E+000
 0.99999978E+000
 0.99999977E+000
 0.99999978E+000
 0.10000000E+001
 0.10000000E+001
 0.10000000E+001
 0.10000000E+001
