MESH hex27-mm_QUA09 dimension 3 Elemtype Quadrilateral Nnode  9
coordinates
          1 -0.10000000E+001 -0.10000000E+001 -0.10000000E+001
          2  0.10000000E+001 -0.10000000E+001 -0.10000000E+001
          3  0.10000000E+001  0.10000000E+001 -0.10000000E+001
          4 -0.10000000E+001  0.10000000E+001 -0.10000000E+001
          5 -0.10000000E+001 -0.10000000E+001  0.10000000E+001
          6  0.10000000E+001 -0.10000000E+001  0.10000000E+001
          7  0.10000000E+001  0.10000000E+001  0.10000000E+001
          8 -0.10000000E+001  0.10000000E+001  0.10000000E+001
          9  0.00000000E+000 -0.10000000E+001 -0.10000000E+001
         10  0.10000000E+001  0.00000000E+000 -0.10000000E+001
         11  0.00000000E+000  0.10000000E+001 -0.10000000E+001
         12 -0.10000000E+001  0.00000000E+000 -0.10000000E+001
         13 -0.10000000E+001 -0.10000000E+001  0.00000000E+000
         14  0.10000000E+001 -0.10000000E+001  0.00000000E+000
         15  0.10000000E+001  0.10000000E+001  0.00000000E+000
         16 -0.10000000E+001  0.10000000E+001  0.00000000E+000
         17  0.00000000E+000 -0.10000000E+001  0.10000000E+001
         18  0.10000000E+001  0.00000000E+000  0.10000000E+001
         19  0.00000000E+000  0.10000000E+001  0.10000000E+001
         20 -0.10000000E+001  0.00000000E+000  0.10000000E+001
         21  0.00000000E+000  0.00000000E+000 -0.10000000E+001
         22  0.00000000E+000 -0.10000000E+001  0.00000000E+000
         23  0.10000000E+001  0.00000000E+000  0.00000000E+000
         24  0.00000000E+000  0.10000000E+001  0.00000000E+000
         25 -0.10000000E+001  0.00000000E+000  0.00000000E+000
         26  0.00000000E+000  0.00000000E+000  0.10000000E+001
         27  0.00000000E+000  0.00000000E+000  0.00000000E+000
         28  0.30000000E+001 -0.10000000E+001 -0.10000000E+001
         29  0.30000000E+001  0.10000000E+001 -0.10000000E+001
         30  0.30000000E+001 -0.10000000E+001  0.10000000E+001
         31  0.30000000E+001  0.10000000E+001  0.10000000E+001
         32  0.20000000E+001 -0.10000000E+001 -0.10000000E+001
         33  0.30000000E+001  0.00000000E+000 -0.10000000E+001
         34  0.20000000E+001  0.10000000E+001 -0.10000000E+001
         35  0.30000000E+001 -0.10000000E+001  0.00000000E+000
         36  0.30000000E+001  0.10000000E+001  0.00000000E+000
         37  0.20000000E+001 -0.10000000E+001  0.10000000E+001
         38  0.30000000E+001  0.00000000E+000  0.10000000E+001
         39  0.20000000E+001  0.10000000E+001  0.10000000E+001
         40  0.20000000E+001  0.00000000E+000 -0.10000000E+001
         41  0.20000000E+001 -0.10000000E+001  0.00000000E+000
         42  0.30000000E+001  0.00000000E+000  0.00000000E+000
         43  0.20000000E+001  0.10000000E+001  0.00000000E+000
         44  0.20000000E+001  0.00000000E+000  0.10000000E+001
         45  0.20000000E+001  0.00000000E+000  0.00000000E+000
end coordinates
elements
end elements

MESH hex27-mm_HEX27 dimension 3 Elemtype Hexahedra Nnode 27
elements
          1         1         2         3         4         5         6         7         8         9        10        11        12        13        14        15        16        17        18        19        20        21        22        23        24        25        26        27        39
          2         2        28        29         3         6        30        31         7        32        33        34        10        14        35        36        15        37        38        39        18        40        41        42        43        23        44        45        39
end elements

MESH hex27-mm_BOU_QUA09 dimension 3 Elemtype Quadrilateral Nnode  9
elements
          3         1         2         6         5         9        14        17        13        22        14
          4         2         3         7         6        10        15        18        14        23        14
end elements

