 0.10419492E-001
 0.10419809E-001
 0.10419809E-001
 0.10419492E-001
 0.10419492E-001
 0.10419492E-001
 0.10419492E-001
 0.10419492E-001
 0.10419492E-001
 0.10419492E-001
 0.10419492E-001
 0.10419492E-001
 0.10419492E-001
 0.10419492E-001
 0.10419492E-001
 0.10419492E-001
 0.10419492E-001
 0.10419492E-001
 0.10419492E-001
 0.10419492E-001
 0.10419492E-001
 0.10419492E-001
 0.10419492E-001
 0.10419492E-001
 0.10419492E-001
 0.10419492E-001
 0.10419492E-001
 0.10419492E-001
 0.10419514E-001
 0.10419730E-001
 0.10419791E-001
 0.10419806E-001
 0.10419809E-001
 0.10419809E-001
 0.10419809E-001
 0.10419809E-001
 0.10419809E-001
 0.10419809E-001
 0.10419809E-001
 0.10419809E-001
 0.10419809E-001
 0.10419809E-001
 0.10419809E-001
 0.10419809E-001
 0.10419809E-001
 0.10419809E-001
 0.10419809E-001
 0.10419809E-001
 0.10419809E-001
 0.10419809E-001
 0.10419809E-001
 0.10419809E-001
 0.10419809E-001
 0.10419809E-001
 0.10419809E-001
 0.10419809E-001
 0.10419809E-001
 0.10419809E-001
 0.10419809E-001
 0.10419809E-001
 0.10419809E-001
 0.10419809E-001
 0.10419809E-001
 0.10419809E-001
 0.10419809E-001
 0.10419809E-001
 0.10419809E-001
 0.10419809E-001
 0.10419809E-001
 0.10419809E-001
 0.10419809E-001
 0.10419809E-001
 0.10419809E-001
 0.10419809E-001
 0.10419806E-001
 0.10419791E-001
 0.10419730E-001
 0.10419514E-001
 0.10419492E-001
 0.10419492E-001
 0.10419492E-001
 0.10419492E-001
 0.10419492E-001
 0.10419492E-001
 0.10419492E-001
 0.10419492E-001
 0.10419492E-001
 0.10419492E-001
 0.10419492E-001
 0.10419492E-001
 0.10419492E-001
 0.10419492E-001
 0.10419492E-001
 0.10419492E-001
 0.10419492E-001
 0.10419492E-001
 0.10419492E-001
 0.10419492E-001
 0.10419492E-001
 0.10419492E-001
 0.10419492E-001
 0.10419492E-001
