GiD Post Results File 1.0
 
Result VELOC ALYA  0.00000000E+00 Vector OnNodes
ComponentNames VELOC_X,VELOC_Y,VELOC_Z
Values
          1  0.10000000E+001  0.10000000E+001
          2  0.30000000E+001  0.40000000E+001
          3  0.10000000E+001  0.10000000E+001
          4  0.00000000E+000  0.00000000E+000
          5  0.30000000E+001  0.40000000E+001
          6  0.10000000E+001  0.10000000E+001
          7  0.00000000E+000  0.00000000E+000
          8  0.00000000E+000  0.00000000E+000
          9  0.00000000E+000  0.00000000E+000
         10  0.30000000E+001  0.40000000E+001
         11  0.10000000E+001  0.10000000E+001
         12  0.40000000E+001  0.30000000E+001
         13  0.10000000E+001  0.10000000E+001
         14  0.40000000E+001  0.30000000E+001
         15  0.10000000E+001  0.10000000E+001
         16  0.40000000E+001  0.30000000E+001
End values

Result PRESS ALYA  0.00000000E+00 Scalar OnNodes
ComponentNames PRESS
Values
          1  0.00000000E+000
          2  0.00000000E+000
          3  0.00000000E+000
          4  0.00000000E+000
          5  0.00000000E+000
          6  0.00000000E+000
          7  0.00000000E+000
          8  0.00000000E+000
          9  0.00000000E+000
         10  0.00000000E+000
         11  0.00000000E+000
         12  0.00000000E+000
         13  0.00000000E+000
         14  0.00000000E+000
         15  0.00000000E+000
         16  0.00000000E+000
End values

Result TEMPE ALYA  0.00000000E+00 Scalar OnNodes
ComponentNames TEMPE
Values
          1  0.10000000E+001
          2  0.50000000E+001
          3  0.10000000E+001
          4  0.00000000E+000
          5  0.50000000E+001
          6  0.10000000E+001
          7  0.00000000E+000
          8  0.00000000E+000
          9  0.00000000E+000
         10  0.50000000E+001
         11  0.10000000E+001
         12  0.10000000E+001
         13  0.10000000E+001
         14  0.10000000E+001
         15  0.10000000E+001
         16  0.10000000E+001
End values

Result VELOC ALYA  0.20000000E+01 Vector OnNodes
ComponentNames VELOC_X,VELOC_Y,VELOC_Z
Values
          1  0.10000000E+001  0.10000000E+001
          2  0.30000000E+001  0.40000000E+001
          3  0.10000000E+001  0.10000000E+001
          4  0.00000000E+000  0.00000000E+000
          5  0.30000000E+001  0.40000000E+001
          6  0.10000000E+001  0.10000000E+001
          7  0.00000000E+000  0.00000000E+000
          8  0.00000000E+000  0.00000000E+000
          9  0.00000000E+000  0.00000000E+000
         10  0.30000000E+001  0.40000000E+001
         11  0.10000000E+001  0.10000000E+001
         12  0.60000000E+001  0.90000000E+001
         13  0.10000000E+001  0.10000000E+001
         14  0.60000000E+001  0.90000000E+001
         15  0.10000000E+001  0.10000000E+001
         16  0.60000000E+001  0.90000000E+001
End values

Result PRESS ALYA  0.20000000E+01 Scalar OnNodes
ComponentNames PRESS
Values
          1  0.00000000E+000
          2  0.00000000E+000
          3  0.00000000E+000
          4  0.00000000E+000
          5  0.00000000E+000
          6  0.00000000E+000
          7  0.00000000E+000
          8  0.00000000E+000
          9  0.00000000E+000
         10  0.00000000E+000
         11  0.00000000E+000
         12  0.00000000E+000
         13  0.00000000E+000
         14  0.00000000E+000
         15  0.00000000E+000
         16  0.00000000E+000
End values

Result TEMPE ALYA  0.20000000E+01 Scalar OnNodes
ComponentNames TEMPE
Values
          1  0.10000000E+001
          2  0.50000000E+001
          3  0.10000000E+001
          4  0.00000000E+000
          5  0.50000000E+001
          6  0.10000000E+001
          7  0.00000000E+000
          8  0.00000000E+000
          9  0.00000000E+000
         10  0.50000000E+001
         11  0.10000000E+001
         12  0.30000000E+001
         13  0.10000000E+001
         14  0.30000000E+001
         15  0.10000000E+001
         16  0.30000000E+001
End values

