GiD Post Results File 1.0
 
Result VEL1D ALYA  0.00000000E+00 Scalar OnNodes
ComponentNames VEL1D
Values
          1  0.00000000E+000
          2  0.00000000E+000
          3  0.00000000E+000
          4  0.00000000E+000
          5  0.00000000E+000
          6  0.00000000E+000
          7  0.00000000E+000
          8  0.00000000E+000
          9  0.00000000E+000
         10  0.00000000E+000
         11  0.00000000E+000
End values

Result PRESS ALYA  0.00000000E+00 Scalar OnNodes
ComponentNames PRESS
Values
          1  0.00000000E+000
          2  0.00000000E+000
          3  0.00000000E+000
          4  0.00000000E+000
          5  0.00000000E+000
          6  0.00000000E+000
          7  0.00000000E+000
          8  0.00000000E+000
          9  0.00000000E+000
         10  0.00000000E+000
         11  0.00000000E+000
End values

Result FLOWR ALYA  0.00000000E+00 Scalar OnNodes
ComponentNames FLOWR
Values
          1  0.10000000E+000
          2  0.00000000E+000
          3  0.00000000E+000
          4  0.00000000E+000
          5  0.00000000E+000
          6  0.00000000E+000
          7  0.00000000E+000
          8  0.00000000E+000
          9  0.00000000E+000
         10  0.00000000E+000
         11  0.00000000E+000
End values

Result VEL1D ALYA  0.10000000E+01 Scalar OnNodes
ComponentNames VEL1D
Values
          1  0.10000000E+001
          2  0.10000000E+001
          3  0.10000000E+001
          4  0.10000000E+001
          5  0.10000000E+001
          6  0.10000000E+001
          7  0.10000000E+001
          8  0.10000000E+001
          9  0.10000000E+001
         10  0.10000000E+001
         11  0.10000000E+001
End values

Result PRESS ALYA  0.10000000E+01 Scalar OnNodes
ComponentNames PRESS
Values
          1  0.25132741E+002
          2  0.22619467E+002
          3  0.20106193E+002
          4  0.17592919E+002
          5  0.15079645E+002
          6  0.12566371E+002
          7  0.10053096E+002
          8  0.75398224E+001
          9  0.50265482E+001
         10  0.25132741E+001
         11  0.17476141E-013
End values

Result FLOWR ALYA  0.10000000E+01 Scalar OnNodes
ComponentNames FLOWR
Values
          1  0.10000000E+000
          2  0.10000000E+000
          3  0.10000000E+000
          4  0.10000000E+000
          5  0.10000000E+000
          6  0.10000000E+000
          7  0.10000000E+000
          8  0.10000000E+000
          9  0.10000000E+000
         10  0.10000000E+000
         11  0.10000000E+000
End values

