GiD Post Results File 1.0
 
Result PRESS ALYA  0.10000000E+00 Scalar OnNodes
ComponentNames PRESS
Values
          1  0.80000000E+001
          2  0.79218750E+001
          3  0.65937500E+001
          4  0.75312500E+001
          5  0.74531250E+001
          6  0.61250000E+001
          7  0.65156250E+001
          8  0.60468750E+001
          9  0.71250000E+001
         10  0.76875000E+001
         11  0.53750000E+001
         12  0.52968750E+001
         13  0.72187500E+001
         14  0.57187500E+001
         15  0.70468750E+001
         16  0.49062500E+001
         17  0.62812500E+001
         18  0.48281250E+001
         19  0.56406250E+001
         20  0.58125000E+001
         21  0.50625000E+001
         22  0.68125000E+001
         23  0.45000000E+001
         24  0.45937500E+001
         25  0.72968750E+001
         26  0.67812500E+001
         27  0.43437500E+001
         28  0.44218750E+001
         29  0.54062500E+001
         30  0.67031250E+001
         31  0.68281250E+001
         32  0.38750000E+001
         33  0.53750000E+001
         34  0.42656250E+001
         35  0.58906250E+001
         36  0.37968750E+001
         37  0.52968750E+001
         38  0.54218750E+001
         39  0.41875000E+001
         40  0.40312500E+001
         41  0.34687500E+001
         42  0.41562500E+001
         43  0.64687500E+001
         44  0.64218750E+001
         45  0.46718750E+001
         46  0.40781250E+001
         47  0.33906250E+001
         48  0.50625000E+001
         49  0.50156250E+001
         50  0.35625000E+001
         51  0.42031250E+001
         52  0.67500000E+001
         53  0.35000000E+001
         54  0.65000000E+001
         55  0.34218750E+001
         56  0.50937500E+001
         57  0.38437500E+001
         58  0.30312500E+001
         59  0.64218750E+001
         60  0.62812500E+001
         61  0.53437500E+001
         62  0.37968750E+001
         63  0.31562500E+001
         64  0.36406250E+001
         65  0.29531250E+001
         66  0.50156250E+001
         67  0.60781250E+001
         68  0.31250000E+001
         69  0.48750000E+001
         70  0.31718750E+001
         71  0.30468750E+001
         72  0.46718750E+001
         73  0.61875000E+001
         74  0.58750000E+001
         75  0.38750000E+001
         76  0.26250000E+001
         77  0.41250000E+001
         78  0.31875000E+001
         79  0.44687500E+001
         80  0.37968750E+001
         81  0.25468750E+001
         82  0.36562500E+001
         83  0.47812500E+001
         84  0.27187500E+001
         85  0.27656250E+001
         86  0.34531250E+001
         87  0.28125000E+001
         88  0.35625000E+001
         89  0.32500000E+001
         90  0.23125000E+001
         91  0.30937500E+001
         92  0.55312500E+001
         93  0.22812500E+001
         94  0.62812500E+001
         95  0.57968750E+001
         96  0.60468750E+001
         97  0.28437500E+001
         98  0.28437500E+001
         99  0.27968750E+001
        100  0.26250000E+001
        101  0.46406250E+001
        102  0.22031250E+001
        103  0.41250000E+001
        104  0.48750000E+001
        105  0.23750000E+001
        106  0.55781250E+001
        107  0.62031250E+001
        108  0.27656250E+001
        109  0.27656250E+001
        110  0.43906250E+001
        111  0.23281250E+001
        112  0.22968750E+001
        113  0.24218750E+001
        114  0.41718750E+001
        115  0.47968750E+001
        116  0.22187500E+001
        117  0.36562500E+001
        118  0.19687500E+001
        119  0.25312500E+001
        120  0.59687500E+001
        121  0.51718750E+001
        122  0.25312500E+001
        123  0.19218750E+001
        124  0.29062500E+001
        125  0.31718750E+001
        126  0.19687500E+001
        127  0.34218750E+001
        128  0.18906250E+001
        129  0.37656250E+001
        130  0.35781250E+001
        131  0.45625000E+001
        132  0.20625000E+001
        133  0.29531250E+001
        134  0.22500000E+001
        135  0.52500000E+001
        136  0.20000000E+001
        137  0.33437500E+001
        138  0.17812500E+001
        139  0.38437500E+001
        140  0.19218750E+001
        141  0.16562500E+001
        142  0.25468750E+001
        143  0.23906250E+001
        144  0.18750000E+001
        145  0.21406250E+001
        146  0.21406250E+001
        147  0.16250000E+001
        148  0.55781250E+001
        149  0.26250000E+001
        150  0.48281250E+001
        151  0.15781250E+001
        152  0.19218750E+001
        153  0.16718750E+001
        154  0.15468750E+001
        155  0.25468750E+001
        156  0.34218750E+001
        157  0.41718750E+001
        158  0.13750000E+001
        159  0.23750000E+001
        160  0.51875000E+001
        161  0.61250000E+001
        162  0.26250000E+001
        163  0.16875000E+001
        164  0.47187500E+001
        165  0.37812500E+001
        166  0.60468750E+001
        167  0.47187500E+001
        168  0.19062500E+001
        169  0.22968750E+001
        170  0.15156250E+001
        171  0.12656250E+001
        172  0.46406250E+001
        173  0.33125000E+001
        174  0.23125000E+001
        175  0.29531250E+001
        176  0.13125000E+001
        177  0.22031250E+001
        178  0.18281250E+001
        179  0.15000000E+001
        180  0.25625000E+001
        181  0.43125000E+001
        182  0.35000000E+001
        183  0.58125000E+001
        184  0.20625000E+001
        185  0.15937500E+001
        186  0.20937500E+001
        187  0.45468750E+001
        188  0.10312500E+001
        189  0.29062500E+001
        190  0.15937500E+001
        191  0.15468750E+001
        192  0.13437500E+001
        193  0.34218750E+001
        194  0.17812500E+001
        195  0.50312500E+001
        196  0.12968750E+001
        197  0.44062500E+001
        198  0.15937500E+001
        199  0.14218750E+001
        200  0.12656250E+001
        201  0.17031250E+001
        202  0.11250000E+001
        203  0.10781250E+001
        204  0.36250000E+001
        205  0.31406250E+001
        206  0.11718750E+001
        207  0.92187500E+000
        208  0.19218750E+001
        209  0.16875000E+001
        210  0.31875000E+001
        211  0.11875000E+001
        212  0.15312500E+001
        213  0.54218750E+001
        214  0.11562500E+001
        215  0.67187500E+000
        216  0.24687500E+001
        217  0.71875000E+000
        218  0.39687500E+001
        219  0.10312500E+001
        220  0.24062500E+001
        221  0.14687500E+001
        222  0.19218750E+001
        223  0.16718750E+001
        224  0.10625000E+001
        225  0.25625000E+001
        226  0.23906250E+001
        227  0.40156250E+001
        228  0.10781250E+001
        229  0.12031250E+001
        230  0.75000000E+000
        231  0.65625000E+000
        232  0.41718750E+001
        233  0.13437500E+001
        234  0.60312500E+001
        235  0.20937500E+001
        236  0.27968750E+001
        237  0.21562500E+001
        238  0.84375000E+000
        239  0.79687500E+000
        240  0.89062500E+000
        241  0.89062500E+000
        242  0.13750000E+001
        243  0.64062500E+000
        244  0.59531250E+001
        245  0.46250000E+001
        246  0.37031250E+001
        247  0.32812500E+000
        248  0.11250000E+001
        249  0.16250000E+001
        250  0.37500000E+000
        251  0.20156250E+001
        252  0.43281250E+001
        253  0.10781250E+001
        254  0.27656250E+001
        255  0.42187500E+000
        256  0.10468750E+001
        257  0.29218750E+001
        258  0.15468750E+001
        259  0.45468750E+001
        260  0.22968750E+001
        261  0.87500000E+000
        262  0.68750000E+000
        263  0.48750000E+001
        264  0.36875000E+001
        265  0.16250000E+001
        266  0.11250000E+001
        267  0.12187500E+001
        268  0.32968750E+001
        269  0.21875000E+000
        270  0.15468750E+001
        271  0.57187500E+001
        272  0.22812500E+001
        273  0.34687500E+001
        274  0.17812500E+001
        275  0.34062500E+001
        276  0.65625000E+000
        277  0.79687500E+000
        278  0.15468750E+001
        279  0.31250000E+000
        280  0.15625000E-001
        281  0.17656250E+001
        282  0.11406250E+001
        283  0.33281250E+001
        284  0.13125000E+001
        285  0.81250000E+000
        286  0.18906250E+001
        287  0.43125000E+001
        288  0.10781250E+001
        289  0.17031250E+001
        290  0.45312500E+000
        291  0.10625000E+001
        292 -0.18750000E+000
        293  0.22500000E+001
        294  0.13125000E+001
        295  0.56250000E+000
        296  0.25000000E+000
        297  0.46875000E-001
        298  0.90625000E+000
        299  0.93750000E-001
        300  0.53125000E+000
        301  0.30937500E+001
        302  0.67187500E+000
        303  0.51562500E+000
        304  0.13906250E+001
        305  0.53281250E+001
        306  0.23750000E+001
        307  0.87500000E+000
        308  0.29531250E+001
        309  0.67187500E+000
        310  0.46875000E-001
        311 -0.32812500E+000
        312  0.92187500E+000
        313  0.42187500E+000
        314  0.79687500E+000
        315  0.22968750E+001
        316  0.39218750E+001
        317  0.15468750E+001
        318  0.31250000E-001
        319  0.31250000E-001
        320  0.12187500E+001
        321 -0.53125000E+000
        322  0.42187500E+000
        323  0.41718750E+001
        324  0.96875000E+000
        325  0.34687500E+001
        326  0.65625000E+000
        327  0.92187500E+000
        328 -0.93750000E-001
        329  0.17187500E+000
        330 -0.35937500E+000
        331 -0.43750000E+000
        332  0.51562500E+000
        333  0.89062500E+000
        334 -0.46875000E-001
        335  0.27656250E+001
        336  0.20625000E+001
        337  0.56250000E+000
        338  0.27031250E+001
        339  0.20625000E+001
        340  0.57812500E+000
        341  0.32812500E+000
        342  0.20000000E+001
        343  0.60000000E+001
        344  0.30000000E+001
        345 -0.84375000E+000
        346  0.84375000E+000
        347  0.47812500E+001
        348  0.25312500E+001
        349  0.59218750E+001
        350  0.19218750E+001
        351  0.15312500E+001
        352  0.15937500E+001
        353  0.65625000E+000
        354 -0.45312500E+000
        355  0.59375000E+000
        356  0.45937500E+001
        357  0.84375000E+000
        358  0.15312500E+001
        359  0.26718750E+001
        360  0.34375000E+000
        361 -0.32812500E+000
        362  0.15468750E+001
        363 -0.60937500E+000
        364  0.37500000E+000
        365  0.33750000E+001
        366  0.14531250E+001
        367 -0.12500000E+000
        368  0.14531250E+001
        369 -0.17187500E+000
        370  0.11250000E+001
        371  0.45156250E+001
        372  0.12656250E+001
        373  0.51562500E+000
        374 -0.79687500E+000
        375 -0.70312500E+000
        376  0.16718750E+001
        377  0.17187500E+000
        378  0.37500000E+000
        379  0.11250000E+001
        380 -0.81250000E+000
        381  0.37500000E+000
        382  0.16875000E+001
        383  0.33750000E+001
        384  0.56875000E+001
        385  0.21250000E+001
        386 -0.37500000E+000
        387 -0.31250000E-001
        388  0.10468750E+001
        389  0.12187500E+001
        390  0.32968750E+001
        391 -0.93750000E-001
        392  0.42812500E+001
        393  0.28125000E+000
        394  0.71875000E+000
        395  0.21562500E+001
        396  0.46875000E-001
        397  0.12187500E+001
        398 -0.12031250E+001
        399 -0.11875000E+001
        400 -0.18750000E+000
        401  0.51562500E+000
        402  0.26562500E+000
        403 -0.79687500E+000
        404 -0.46875000E-001
        405 -0.43750000E+000
        406  0.33125000E+001
        407  0.81250000E+000
        408 -0.50000000E+000
        409  0.50000000E+000
        410  0.30625000E+001
        411  0.12968750E+001
        412  0.78125000E+000
        413  0.23437500E+001
        414  0.17812500E+001
        415 -0.65625000E+000
        416  0.52968750E+001
        417 -0.90625000E+000
        418  0.19062500E+001
        419  0.42187500E+000
        420 -0.98437500E+000
        421 -0.37500000E+000
        422  0.11250000E+001
        423 -0.98437500E+000
        424  0.14062500E+000
        425  0.82812500E+000
        426  0.40781250E+001
        427 -0.10937500E+000
        428  0.24531250E+001
        429  0.37500000E+000
        430  0.70312500E+000
        431  0.22656250E+001
        432  0.38906250E+001
        433  0.82812500E+000
        434 -0.11250000E+001
        435  0.87500000E+000
        436  0.37500000E+000
        437 -0.15468750E+001
        438 -0.14531250E+001
        439 -0.82812500E+000
        440  0.26718750E+001
        441 -0.32812500E+000
        442  0.79687500E+000
        443  0.29687500E+000
        444  0.10468750E+001
        445 -0.13125000E+001
        446  0.68750000E+000
        447  0.18750000E+000
        448 -0.14687500E+001
        449 -0.15312500E+001
        450 -0.84375000E+000
        451 -0.10781250E+001
        452  0.20312500E+001
        453  0.26718750E+001
        454 -0.28125000E+000
        455 -0.32812500E+000
        456 -0.10312500E+001
        457  0.46875000E+000
        458  0.42187500E+000
        459 -0.59375000E+000
        460 -0.18593750E+001
        461  0.56250000E+000
        462 -0.73437500E+000
        463  0.62500000E-001
        464  0.14531250E+001
        465 -0.17187500E+000
        466  0.50000000E+000
        467 -0.15000000E+001
        468  0.47500000E+001
        469  0.75000000E+000
        470  0.15000000E+001
        471  0.15000000E+001
        472 -0.34375000E+000
        473 -0.65625000E+000
        474  0.14218750E+001
        475 -0.16562500E+001
        476  0.33437500E+001
        477  0.42187500E+000
        478  0.93750000E-001
        479  0.28125000E+000
        480  0.28125000E+000
        481 -0.19687500E+001
        482 -0.20312500E+000
        483 -0.18281250E+001
        484  0.16406250E+001
        485 -0.18750000E+001
        486  0.78125000E-001
        487  0.42187500E+000
        488 -0.22031250E+001
        489 -0.12031250E+001
        490 -0.10781250E+001
        491  0.17187500E+000
        492 -0.32812500E+000
        493  0.11875000E+001
        494 -0.23750000E+001
        495  0.18750000E+000
        496  0.21250000E+001
        497 -0.11250000E+001
        498 -0.12500000E+000
        499 -0.71875000E+000
        500  0.40625000E+000
        501  0.21875000E+000
        502  0.32187500E+001
        503  0.22968750E+001
        504 -0.14531250E+001
        505 -0.11875000E+001
        506 -0.16875000E+001
        507 -0.98437500E+000
        508  0.18125000E+001
        509  0.14062500E+000
        510 -0.12968750E+001
        511  0.89062500E+000
        512  0.32812500E+000
        513 -0.19218750E+001
        514 -0.19375000E+001
        515 -0.11875000E+001
        516 -0.75000000E+000
        517 -0.15937500E+001
        518  0.10937500E+001
        519 -0.27187500E+001
        520  0.40468750E+001
        521  0.46875000E-001
        522  0.79687500E+000
        523 -0.46875000E+000
        524  0.84375000E+000
        525  0.59375000E+000
        526  0.12812500E+001
        527 -0.21562500E+001
        528 -0.93750000E-001
        529  0.28125000E+000
        530 -0.20312500E+000
        531 -0.32812500E+000
        532 -0.21562500E+001
        533  0.93750000E-001
        534 -0.23281250E+001
        535 -0.24843750E+001
        536 -0.87500000E+000
        537 -0.12500000E+000
        538  0.76562500E+000
        539 -0.42187500E+000
        540  0.26406250E+001
        541 -0.37500000E+000
        542 -0.42187500E+000
        543 -0.26250000E+001
        544  0.20312500E+000
        545 -0.13593750E+001
        546 -0.20468750E+001
        547  0.53125000E+000
        548 -0.82812500E+000
        549 -0.13437500E+001
        550 -0.31250000E-001
        551 -0.30312500E+001
        552  0.14218750E+001
        553 -0.13593750E+001
        554 -0.19375000E+001
        555 -0.43750000E+000
        556 -0.48437500E+000
        557 -0.26718750E+001
        558 -0.29687500E+000
        559  0.25000000E+000
        560 -0.30000000E+001
        561 -0.75000000E+000
        562 -0.18437500E+001
        563 -0.14531250E+001
        564 -0.21562500E+001
        565 -0.17343750E+001
        566  0.39062500E+000
        567 -0.11718750E+001
        568 -0.23750000E+001
        569 -0.42187500E+000
        570 -0.33750000E+001
        571  0.14062500E+000
        572  0.22031250E+001
        573  0.12500000E+000
        574 -0.22031250E+001
        575 -0.27031250E+001
        576 -0.10781250E+001
        577 -0.15781250E+001
        578  0.46875000E-001
        579  0.79687500E+000
        580  0.11250000E+001
        581 -0.81250000E+000
        582 -0.26250000E+001
        583  0.12500000E+000
        584  0.37500000E+000
        585  0.31875000E+001
        586 -0.22187500E+001
        587 -0.10312500E+001
        588 -0.30937500E+001
        589  0.17812500E+001
        590 -0.28125000E+000
        591  0.46875000E-001
        592 -0.12812500E+001
        593 -0.12812500E+001
        594  0.29687500E+000
        595 -0.84375000E+000
        596 -0.29531250E+001
        597 -0.22031250E+001
        598 -0.26093750E+001
        599 -0.42187500E+000
        600 -0.18750000E+000
        601 -0.15000000E+001
        602  0.56250000E+000
        603 -0.18750000E+000
        604 -0.35000000E+001
        605 -0.16875000E+001
        606  0.62500000E-001
        607 -0.96875000E+000
        608 -0.32187500E+001
        609 -0.14531250E+001
        610 -0.45312500E+000
        611 -0.40625000E+000
        612 -0.36562500E+001
        613 -0.29531250E+001
        614 -0.14531250E+001
        615 -0.57812500E+000
        616 -0.23125000E+001
        617 -0.46875000E+000
        618 -0.57812500E+000
        619 -0.38437500E+001
        620 -0.25312500E+001
        621 -0.20312500E+001
        622 -0.32812500E+000
        623 -0.28593750E+001
        624 -0.24375000E+001
        625 -0.19375000E+001
        626 -0.15468750E+001
        627 -0.17343750E+001
        628 -0.31718750E+001
        629 -0.29062500E+001
        630  0.93750000E-001
        631  0.31250000E-001
        632  0.21718750E+001
        633 -0.18281250E+001
        634  0.10312500E+001
        635 -0.32343750E+001
        636 -0.11093750E+001
        637 -0.11250000E+001
        638 -0.33750000E+001
        639 -0.22968750E+001
        640 -0.38750000E+001
        641 -0.46875000E-001
        642 -0.37500000E+000
        643 -0.16718750E+001
        644  0.15625000E-001
        645 -0.22968750E+001
        646  0.76562500E+000
        647 -0.33750000E+001
        648 -0.11250000E+001
        649 -0.13125000E+001
        650 -0.23125000E+001
        651 -0.41250000E+001
        652 -0.87500000E+000
        653 -0.21875000E+000
        654 -0.27031250E+001
        655 -0.15937500E+001
        656 -0.28125000E+000
        657 -0.37812500E+001
        658 -0.45312500E+000
        659 -0.25937500E+001
        660 -0.24062500E+001
        661 -0.33281250E+001
        662 -0.14843750E+001
        663 -0.67187500E+000
        664 -0.30468750E+001
        665 -0.26250000E+001
        666 -0.41250000E+001
        667 -0.60937500E+000
        668 -0.34531250E+001
        669 -0.29531250E+001
        670 -0.18281250E+001
        671 -0.19687500E+001
        672 -0.43437500E+001
        673 -0.40312500E+001
        674 -0.25312500E+001
        675 -0.15781250E+001
        676 -0.18281250E+001
        677  0.00000000E+000
        678 -0.30000000E+001
        679  0.10000000E+001
        680 -0.11562500E+001
        681 -0.78125000E-001
        682 -0.44062500E+001
        683 -0.12187500E+001
        684 -0.34687500E+001
        685 -0.34687500E+001
        686 -0.33281250E+001
        687 -0.40625000E+000
        688 -0.23281250E+001
        689 -0.16250000E+001
        690 -0.31250000E+000
        691 -0.38750000E+001
        692 -0.36093750E+001
        693 -0.26875000E+001
        694 -0.34218750E+001
        695 -0.26875000E+001
        696 -0.45000000E+001
        697 -0.24375000E+001
        698 -0.42187500E+001
        699 -0.70312500E+000
        700 -0.26562500E+001
        701 -0.35468750E+001
        702 -0.18593750E+001
        703 -0.29843750E+001
        704 -0.41250000E+001
        705 -0.19218750E+001
        706 -0.46250000E+001
        707 -0.12500000E+001
        708 -0.35000000E+001
        709 -0.45000000E+001
        710 -0.37031250E+001
        711 -0.27187500E+001
        712 -0.34531250E+001
        713 -0.37031250E+001
        714 -0.47812500E+001
        715 -0.45937500E+001
        716 -0.27812500E+001
        717 -0.19531250E+001
        718 -0.41562500E+001
        719 -0.47187500E+001
        720 -0.37343750E+001
        721 -0.37968750E+001
        722 -0.48750000E+001
        723 -0.48750000E+001
        724 -0.46250000E+001
        725 -0.28125000E+001
        726 -0.49062500E+001
        727 -0.49687500E+001
        728 -0.38281250E+001
        729 -0.50000000E+001
End values

Result VEERR ALYA  0.10000000E+00 Scalar OnNodes
ComponentNames VEERR
Values
          1  0.00000000E+000
          2  0.00000000E+000
          3  0.00000000E+000
          4  0.00000000E+000
          5  0.00000000E+000
          6  0.00000000E+000
          7  0.00000000E+000
          8  0.00000000E+000
          9  0.00000000E+000
         10  0.00000000E+000
         11  0.00000000E+000
         12  0.00000000E+000
         13  0.00000000E+000
         14  0.00000000E+000
         15  0.00000000E+000
         16  0.00000000E+000
         17  0.00000000E+000
         18  0.00000000E+000
         19  0.00000000E+000
         20  0.00000000E+000
         21  0.00000000E+000
         22  0.00000000E+000
         23  0.00000000E+000
         24  0.00000000E+000
         25  0.00000000E+000
         26  0.00000000E+000
         27  0.00000000E+000
         28  0.00000000E+000
         29  0.00000000E+000
         30  0.00000000E+000
         31  0.00000000E+000
         32  0.00000000E+000
         33  0.00000000E+000
         34  0.00000000E+000
         35  0.00000000E+000
         36  0.00000000E+000
         37  0.00000000E+000
         38  0.00000000E+000
         39  0.00000000E+000
         40  0.00000000E+000
         41  0.00000000E+000
         42  0.00000000E+000
         43  0.00000000E+000
         44  0.00000000E+000
         45  0.00000000E+000
         46  0.00000000E+000
         47  0.00000000E+000
         48  0.00000000E+000
         49  0.00000000E+000
         50  0.00000000E+000
         51  0.00000000E+000
         52  0.00000000E+000
         53  0.00000000E+000
         54  0.00000000E+000
         55  0.00000000E+000
         56  0.00000000E+000
         57  0.00000000E+000
         58  0.00000000E+000
         59  0.00000000E+000
         60  0.00000000E+000
         61  0.00000000E+000
         62  0.00000000E+000
         63  0.00000000E+000
         64  0.00000000E+000
         65  0.00000000E+000
         66  0.00000000E+000
         67  0.00000000E+000
         68  0.00000000E+000
         69  0.00000000E+000
         70  0.00000000E+000
         71  0.00000000E+000
         72  0.00000000E+000
         73  0.00000000E+000
         74  0.00000000E+000
         75  0.00000000E+000
         76  0.00000000E+000
         77  0.00000000E+000
         78  0.00000000E+000
         79  0.00000000E+000
         80  0.00000000E+000
         81  0.00000000E+000
         82  0.00000000E+000
         83  0.00000000E+000
         84  0.00000000E+000
         85  0.00000000E+000
         86  0.00000000E+000
         87  0.00000000E+000
         88  0.00000000E+000
         89  0.00000000E+000
         90  0.00000000E+000
         91  0.00000000E+000
         92  0.00000000E+000
         93  0.00000000E+000
         94  0.00000000E+000
         95  0.00000000E+000
         96  0.00000000E+000
         97  0.00000000E+000
         98  0.00000000E+000
         99  0.00000000E+000
        100  0.00000000E+000
        101  0.00000000E+000
        102  0.00000000E+000
        103  0.00000000E+000
        104  0.00000000E+000
        105  0.00000000E+000
        106  0.00000000E+000
        107  0.00000000E+000
        108  0.00000000E+000
        109  0.00000000E+000
        110  0.00000000E+000
        111  0.00000000E+000
        112  0.00000000E+000
        113  0.00000000E+000
        114  0.00000000E+000
        115  0.00000000E+000
        116  0.00000000E+000
        117  0.00000000E+000
        118  0.00000000E+000
        119  0.00000000E+000
        120  0.00000000E+000
        121  0.00000000E+000
        122  0.00000000E+000
        123  0.00000000E+000
        124  0.00000000E+000
        125  0.00000000E+000
        126  0.00000000E+000
        127  0.00000000E+000
        128  0.00000000E+000
        129  0.00000000E+000
        130  0.00000000E+000
        131  0.00000000E+000
        132  0.00000000E+000
        133  0.00000000E+000
        134  0.00000000E+000
        135  0.00000000E+000
        136  0.00000000E+000
        137  0.00000000E+000
        138  0.00000000E+000
        139  0.00000000E+000
        140  0.00000000E+000
        141  0.00000000E+000
        142  0.00000000E+000
        143  0.00000000E+000
        144  0.00000000E+000
        145  0.00000000E+000
        146  0.00000000E+000
        147  0.00000000E+000
        148  0.00000000E+000
        149  0.00000000E+000
        150  0.00000000E+000
        151  0.00000000E+000
        152  0.00000000E+000
        153  0.00000000E+000
        154  0.00000000E+000
        155  0.00000000E+000
        156  0.00000000E+000
        157  0.00000000E+000
        158  0.00000000E+000
        159  0.00000000E+000
        160  0.00000000E+000
        161  0.00000000E+000
        162  0.00000000E+000
        163  0.00000000E+000
        164  0.00000000E+000
        165  0.00000000E+000
        166  0.00000000E+000
        167  0.00000000E+000
        168  0.00000000E+000
        169  0.00000000E+000
        170  0.00000000E+000
        171  0.00000000E+000
        172  0.00000000E+000
        173  0.00000000E+000
        174  0.00000000E+000
        175  0.00000000E+000
        176  0.00000000E+000
        177  0.00000000E+000
        178  0.00000000E+000
        179  0.00000000E+000
        180  0.00000000E+000
        181  0.00000000E+000
        182  0.00000000E+000
        183  0.00000000E+000
        184  0.00000000E+000
        185  0.00000000E+000
        186  0.00000000E+000
        187  0.00000000E+000
        188  0.00000000E+000
        189  0.00000000E+000
        190  0.00000000E+000
        191  0.00000000E+000
        192  0.00000000E+000
        193  0.00000000E+000
        194  0.00000000E+000
        195  0.00000000E+000
        196  0.00000000E+000
        197  0.00000000E+000
        198  0.00000000E+000
        199  0.00000000E+000
        200  0.00000000E+000
        201  0.00000000E+000
        202  0.00000000E+000
        203  0.00000000E+000
        204  0.00000000E+000
        205  0.00000000E+000
        206  0.00000000E+000
        207  0.00000000E+000
        208  0.00000000E+000
        209  0.00000000E+000
        210  0.00000000E+000
        211  0.00000000E+000
        212  0.00000000E+000
        213  0.00000000E+000
        214  0.00000000E+000
        215  0.00000000E+000
        216  0.00000000E+000
        217  0.00000000E+000
        218  0.00000000E+000
        219  0.00000000E+000
        220  0.00000000E+000
        221  0.00000000E+000
        222  0.00000000E+000
        223  0.00000000E+000
        224  0.00000000E+000
        225  0.00000000E+000
        226  0.00000000E+000
        227  0.00000000E+000
        228  0.00000000E+000
        229  0.00000000E+000
        230  0.00000000E+000
        231  0.00000000E+000
        232  0.00000000E+000
        233  0.00000000E+000
        234  0.00000000E+000
        235  0.00000000E+000
        236  0.00000000E+000
        237  0.00000000E+000
        238  0.00000000E+000
        239  0.00000000E+000
        240  0.00000000E+000
        241  0.00000000E+000
        242  0.00000000E+000
        243  0.00000000E+000
        244  0.00000000E+000
        245  0.00000000E+000
        246  0.00000000E+000
        247  0.00000000E+000
        248  0.00000000E+000
        249  0.00000000E+000
        250  0.00000000E+000
        251  0.00000000E+000
        252  0.00000000E+000
        253  0.00000000E+000
        254  0.00000000E+000
        255  0.00000000E+000
        256  0.00000000E+000
        257  0.00000000E+000
        258  0.00000000E+000
        259  0.00000000E+000
        260  0.00000000E+000
        261  0.00000000E+000
        262  0.00000000E+000
        263  0.00000000E+000
        264  0.00000000E+000
        265  0.00000000E+000
        266  0.00000000E+000
        267  0.00000000E+000
        268  0.00000000E+000
        269  0.00000000E+000
        270  0.00000000E+000
        271  0.00000000E+000
        272  0.00000000E+000
        273  0.00000000E+000
        274  0.00000000E+000
        275  0.00000000E+000
        276  0.00000000E+000
        277  0.00000000E+000
        278  0.00000000E+000
        279  0.00000000E+000
        280  0.00000000E+000
        281  0.00000000E+000
        282  0.00000000E+000
        283  0.00000000E+000
        284  0.00000000E+000
        285  0.00000000E+000
        286  0.00000000E+000
        287  0.00000000E+000
        288  0.00000000E+000
        289  0.00000000E+000
        290  0.00000000E+000
        291  0.00000000E+000
        292  0.00000000E+000
        293  0.00000000E+000
        294  0.00000000E+000
        295  0.00000000E+000
        296  0.00000000E+000
        297  0.00000000E+000
        298  0.00000000E+000
        299  0.00000000E+000
        300  0.00000000E+000
        301  0.00000000E+000
        302  0.00000000E+000
        303  0.00000000E+000
        304  0.00000000E+000
        305  0.00000000E+000
        306  0.00000000E+000
        307  0.00000000E+000
        308  0.00000000E+000
        309  0.00000000E+000
        310  0.00000000E+000
        311  0.00000000E+000
        312  0.00000000E+000
        313  0.00000000E+000
        314  0.00000000E+000
        315  0.00000000E+000
        316  0.00000000E+000
        317  0.00000000E+000
        318  0.00000000E+000
        319  0.00000000E+000
        320  0.00000000E+000
        321  0.00000000E+000
        322  0.00000000E+000
        323  0.00000000E+000
        324  0.00000000E+000
        325  0.00000000E+000
        326  0.00000000E+000
        327  0.00000000E+000
        328  0.00000000E+000
        329  0.00000000E+000
        330  0.00000000E+000
        331  0.00000000E+000
        332  0.00000000E+000
        333  0.00000000E+000
        334  0.00000000E+000
        335  0.00000000E+000
        336  0.00000000E+000
        337  0.00000000E+000
        338  0.00000000E+000
        339  0.00000000E+000
        340  0.00000000E+000
        341  0.00000000E+000
        342  0.00000000E+000
        343  0.00000000E+000
        344  0.00000000E+000
        345  0.00000000E+000
        346  0.00000000E+000
        347  0.00000000E+000
        348  0.00000000E+000
        349  0.00000000E+000
        350  0.00000000E+000
        351  0.00000000E+000
        352  0.00000000E+000
        353  0.00000000E+000
        354  0.00000000E+000
        355  0.00000000E+000
        356  0.00000000E+000
        357  0.00000000E+000
        358  0.00000000E+000
        359  0.00000000E+000
        360  0.00000000E+000
        361  0.00000000E+000
        362  0.00000000E+000
        363  0.00000000E+000
        364  0.00000000E+000
        365  0.00000000E+000
        366  0.00000000E+000
        367  0.00000000E+000
        368  0.00000000E+000
        369  0.00000000E+000
        370  0.00000000E+000
        371  0.00000000E+000
        372  0.00000000E+000
        373  0.00000000E+000
        374  0.00000000E+000
        375  0.00000000E+000
        376  0.00000000E+000
        377  0.00000000E+000
        378  0.00000000E+000
        379  0.00000000E+000
        380  0.00000000E+000
        381  0.00000000E+000
        382  0.00000000E+000
        383  0.00000000E+000
        384  0.00000000E+000
        385  0.00000000E+000
        386  0.00000000E+000
        387  0.00000000E+000
        388  0.00000000E+000
        389  0.00000000E+000
        390  0.00000000E+000
        391  0.00000000E+000
        392  0.00000000E+000
        393  0.00000000E+000
        394  0.00000000E+000
        395  0.00000000E+000
        396  0.00000000E+000
        397  0.00000000E+000
        398  0.00000000E+000
        399  0.00000000E+000
        400  0.00000000E+000
        401  0.00000000E+000
        402  0.00000000E+000
        403  0.00000000E+000
        404  0.00000000E+000
        405  0.00000000E+000
        406  0.00000000E+000
        407  0.00000000E+000
        408  0.00000000E+000
        409  0.00000000E+000
        410  0.00000000E+000
        411  0.00000000E+000
        412  0.00000000E+000
        413  0.00000000E+000
        414  0.00000000E+000
        415  0.00000000E+000
        416  0.00000000E+000
        417  0.00000000E+000
        418  0.00000000E+000
        419  0.00000000E+000
        420  0.00000000E+000
        421  0.00000000E+000
        422  0.00000000E+000
        423  0.00000000E+000
        424  0.00000000E+000
        425  0.00000000E+000
        426  0.00000000E+000
        427  0.00000000E+000
        428  0.00000000E+000
        429  0.00000000E+000
        430  0.00000000E+000
        431  0.00000000E+000
        432  0.00000000E+000
        433  0.00000000E+000
        434  0.00000000E+000
        435  0.00000000E+000
        436  0.00000000E+000
        437  0.00000000E+000
        438  0.00000000E+000
        439  0.00000000E+000
        440  0.00000000E+000
        441  0.00000000E+000
        442  0.00000000E+000
        443  0.00000000E+000
        444  0.00000000E+000
        445  0.00000000E+000
        446  0.00000000E+000
        447  0.00000000E+000
        448  0.00000000E+000
        449  0.00000000E+000
        450  0.00000000E+000
        451  0.00000000E+000
        452  0.00000000E+000
        453  0.00000000E+000
        454  0.00000000E+000
        455  0.00000000E+000
        456  0.00000000E+000
        457  0.00000000E+000
        458  0.00000000E+000
        459  0.00000000E+000
        460  0.00000000E+000
        461  0.00000000E+000
        462  0.00000000E+000
        463  0.00000000E+000
        464  0.00000000E+000
        465  0.00000000E+000
        466  0.00000000E+000
        467  0.00000000E+000
        468  0.00000000E+000
        469  0.00000000E+000
        470  0.00000000E+000
        471  0.00000000E+000
        472  0.00000000E+000
        473  0.00000000E+000
        474  0.00000000E+000
        475  0.00000000E+000
        476  0.00000000E+000
        477  0.00000000E+000
        478  0.00000000E+000
        479  0.00000000E+000
        480  0.00000000E+000
        481  0.00000000E+000
        482  0.00000000E+000
        483  0.00000000E+000
        484  0.00000000E+000
        485  0.00000000E+000
        486  0.00000000E+000
        487  0.00000000E+000
        488  0.00000000E+000
        489  0.00000000E+000
        490  0.00000000E+000
        491  0.00000000E+000
        492  0.00000000E+000
        493  0.00000000E+000
        494  0.00000000E+000
        495  0.00000000E+000
        496  0.00000000E+000
        497  0.00000000E+000
        498  0.00000000E+000
        499  0.00000000E+000
        500  0.00000000E+000
        501  0.00000000E+000
        502  0.00000000E+000
        503  0.00000000E+000
        504  0.00000000E+000
        505  0.00000000E+000
        506  0.00000000E+000
        507  0.00000000E+000
        508  0.00000000E+000
        509  0.00000000E+000
        510  0.00000000E+000
        511  0.00000000E+000
        512  0.00000000E+000
        513  0.00000000E+000
        514  0.00000000E+000
        515  0.00000000E+000
        516  0.00000000E+000
        517  0.00000000E+000
        518  0.00000000E+000
        519  0.00000000E+000
        520  0.00000000E+000
        521  0.00000000E+000
        522  0.00000000E+000
        523  0.00000000E+000
        524  0.00000000E+000
        525  0.00000000E+000
        526  0.00000000E+000
        527  0.00000000E+000
        528  0.00000000E+000
        529  0.00000000E+000
        530  0.00000000E+000
        531  0.00000000E+000
        532  0.00000000E+000
        533  0.00000000E+000
        534  0.00000000E+000
        535  0.00000000E+000
        536  0.00000000E+000
        537  0.00000000E+000
        538  0.00000000E+000
        539  0.00000000E+000
        540  0.00000000E+000
        541  0.00000000E+000
        542  0.00000000E+000
        543  0.00000000E+000
        544  0.00000000E+000
        545  0.00000000E+000
        546  0.00000000E+000
        547  0.00000000E+000
        548  0.00000000E+000
        549  0.00000000E+000
        550  0.00000000E+000
        551  0.00000000E+000
        552  0.00000000E+000
        553  0.00000000E+000
        554  0.00000000E+000
        555  0.00000000E+000
        556  0.00000000E+000
        557  0.00000000E+000
        558  0.00000000E+000
        559  0.00000000E+000
        560  0.00000000E+000
        561  0.00000000E+000
        562  0.00000000E+000
        563  0.00000000E+000
        564  0.00000000E+000
        565  0.00000000E+000
        566  0.00000000E+000
        567  0.00000000E+000
        568  0.00000000E+000
        569  0.00000000E+000
        570  0.00000000E+000
        571  0.00000000E+000
        572  0.00000000E+000
        573  0.00000000E+000
        574  0.00000000E+000
        575  0.00000000E+000
        576  0.00000000E+000
        577  0.00000000E+000
        578  0.00000000E+000
        579  0.00000000E+000
        580  0.00000000E+000
        581  0.00000000E+000
        582  0.00000000E+000
        583  0.00000000E+000
        584  0.00000000E+000
        585  0.00000000E+000
        586  0.00000000E+000
        587  0.00000000E+000
        588  0.00000000E+000
        589  0.00000000E+000
        590  0.00000000E+000
        591  0.00000000E+000
        592  0.00000000E+000
        593  0.00000000E+000
        594  0.00000000E+000
        595  0.00000000E+000
        596  0.00000000E+000
        597  0.00000000E+000
        598  0.00000000E+000
        599  0.00000000E+000
        600  0.00000000E+000
        601  0.00000000E+000
        602  0.00000000E+000
        603  0.00000000E+000
        604  0.00000000E+000
        605  0.00000000E+000
        606  0.00000000E+000
        607  0.00000000E+000
        608  0.00000000E+000
        609  0.00000000E+000
        610  0.00000000E+000
        611  0.00000000E+000
        612  0.00000000E+000
        613  0.00000000E+000
        614  0.00000000E+000
        615  0.00000000E+000
        616  0.00000000E+000
        617  0.00000000E+000
        618  0.00000000E+000
        619  0.00000000E+000
        620  0.00000000E+000
        621  0.00000000E+000
        622  0.00000000E+000
        623  0.00000000E+000
        624  0.00000000E+000
        625  0.00000000E+000
        626  0.00000000E+000
        627  0.00000000E+000
        628  0.00000000E+000
        629  0.00000000E+000
        630  0.00000000E+000
        631  0.00000000E+000
        632  0.00000000E+000
        633  0.00000000E+000
        634  0.00000000E+000
        635  0.00000000E+000
        636  0.00000000E+000
        637  0.00000000E+000
        638  0.00000000E+000
        639  0.00000000E+000
        640  0.00000000E+000
        641  0.00000000E+000
        642  0.00000000E+000
        643  0.00000000E+000
        644  0.00000000E+000
        645  0.00000000E+000
        646  0.00000000E+000
        647  0.00000000E+000
        648  0.00000000E+000
        649  0.00000000E+000
        650  0.00000000E+000
        651  0.00000000E+000
        652  0.00000000E+000
        653  0.00000000E+000
        654  0.00000000E+000
        655  0.00000000E+000
        656  0.00000000E+000
        657  0.00000000E+000
        658  0.00000000E+000
        659  0.00000000E+000
        660  0.00000000E+000
        661  0.00000000E+000
        662  0.00000000E+000
        663  0.00000000E+000
        664  0.00000000E+000
        665  0.00000000E+000
        666  0.00000000E+000
        667  0.00000000E+000
        668  0.00000000E+000
        669  0.00000000E+000
        670  0.00000000E+000
        671  0.00000000E+000
        672  0.00000000E+000
        673  0.00000000E+000
        674  0.00000000E+000
        675  0.00000000E+000
        676  0.00000000E+000
        677  0.00000000E+000
        678  0.00000000E+000
        679  0.00000000E+000
        680  0.00000000E+000
        681  0.00000000E+000
        682  0.00000000E+000
        683  0.00000000E+000
        684  0.00000000E+000
        685  0.00000000E+000
        686  0.00000000E+000
        687  0.00000000E+000
        688  0.00000000E+000
        689  0.00000000E+000
        690  0.00000000E+000
        691  0.00000000E+000
        692  0.00000000E+000
        693  0.00000000E+000
        694  0.00000000E+000
        695  0.00000000E+000
        696  0.00000000E+000
        697  0.00000000E+000
        698  0.00000000E+000
        699  0.00000000E+000
        700  0.00000000E+000
        701  0.00000000E+000
        702  0.00000000E+000
        703  0.00000000E+000
        704  0.00000000E+000
        705  0.00000000E+000
        706  0.00000000E+000
        707  0.00000000E+000
        708  0.00000000E+000
        709  0.00000000E+000
        710  0.00000000E+000
        711  0.00000000E+000
        712  0.00000000E+000
        713  0.00000000E+000
        714  0.00000000E+000
        715  0.00000000E+000
        716  0.00000000E+000
        717  0.00000000E+000
        718  0.00000000E+000
        719  0.00000000E+000
        720  0.00000000E+000
        721  0.00000000E+000
        722  0.00000000E+000
        723  0.00000000E+000
        724  0.00000000E+000
        725  0.00000000E+000
        726  0.00000000E+000
        727  0.00000000E+000
        728  0.00000000E+000
        729  0.00000000E+000
End values

Result PRERR ALYA  0.10000000E+00 Scalar OnNodes
ComponentNames PRERR
Values
          1  0.00000000E+000
          2  0.00000000E+000
          3  0.00000000E+000
          4  0.00000000E+000
          5  0.00000000E+000
          6  0.00000000E+000
          7  0.00000000E+000
          8  0.00000000E+000
          9  0.00000000E+000
         10  0.00000000E+000
         11  0.00000000E+000
         12  0.00000000E+000
         13  0.00000000E+000
         14  0.00000000E+000
         15  0.00000000E+000
         16  0.00000000E+000
         17  0.00000000E+000
         18  0.00000000E+000
         19  0.00000000E+000
         20  0.00000000E+000
         21  0.00000000E+000
         22  0.00000000E+000
         23  0.00000000E+000
         24  0.00000000E+000
         25  0.00000000E+000
         26  0.00000000E+000
         27  0.00000000E+000
         28  0.00000000E+000
         29  0.00000000E+000
         30  0.00000000E+000
         31  0.00000000E+000
         32  0.00000000E+000
         33  0.00000000E+000
         34  0.00000000E+000
         35  0.00000000E+000
         36  0.00000000E+000
         37  0.00000000E+000
         38  0.00000000E+000
         39  0.00000000E+000
         40  0.00000000E+000
         41  0.00000000E+000
         42  0.00000000E+000
         43  0.00000000E+000
         44  0.00000000E+000
         45  0.00000000E+000
         46  0.00000000E+000
         47  0.00000000E+000
         48  0.00000000E+000
         49  0.00000000E+000
         50  0.00000000E+000
         51  0.00000000E+000
         52  0.00000000E+000
         53  0.00000000E+000
         54  0.00000000E+000
         55  0.00000000E+000
         56  0.00000000E+000
         57  0.00000000E+000
         58  0.00000000E+000
         59  0.00000000E+000
         60  0.00000000E+000
         61  0.00000000E+000
         62  0.00000000E+000
         63  0.00000000E+000
         64  0.00000000E+000
         65  0.00000000E+000
         66  0.00000000E+000
         67  0.00000000E+000
         68  0.00000000E+000
         69  0.00000000E+000
         70  0.00000000E+000
         71  0.00000000E+000
         72  0.00000000E+000
         73  0.00000000E+000
         74  0.00000000E+000
         75  0.00000000E+000
         76  0.00000000E+000
         77  0.00000000E+000
         78  0.00000000E+000
         79  0.00000000E+000
         80  0.00000000E+000
         81  0.00000000E+000
         82  0.00000000E+000
         83  0.00000000E+000
         84  0.00000000E+000
         85  0.00000000E+000
         86  0.00000000E+000
         87  0.00000000E+000
         88  0.00000000E+000
         89  0.00000000E+000
         90  0.00000000E+000
         91  0.00000000E+000
         92  0.00000000E+000
         93  0.00000000E+000
         94  0.00000000E+000
         95  0.00000000E+000
         96  0.00000000E+000
         97  0.00000000E+000
         98  0.00000000E+000
         99  0.00000000E+000
        100  0.00000000E+000
        101  0.00000000E+000
        102  0.00000000E+000
        103  0.00000000E+000
        104  0.00000000E+000
        105  0.00000000E+000
        106  0.00000000E+000
        107  0.00000000E+000
        108  0.00000000E+000
        109  0.00000000E+000
        110  0.00000000E+000
        111  0.00000000E+000
        112  0.00000000E+000
        113  0.00000000E+000
        114  0.00000000E+000
        115  0.00000000E+000
        116  0.00000000E+000
        117  0.00000000E+000
        118  0.00000000E+000
        119  0.00000000E+000
        120  0.00000000E+000
        121  0.00000000E+000
        122  0.00000000E+000
        123  0.00000000E+000
        124  0.00000000E+000
        125  0.00000000E+000
        126  0.00000000E+000
        127  0.00000000E+000
        128  0.00000000E+000
        129  0.00000000E+000
        130  0.00000000E+000
        131  0.00000000E+000
        132  0.00000000E+000
        133  0.00000000E+000
        134  0.00000000E+000
        135  0.00000000E+000
        136  0.00000000E+000
        137  0.00000000E+000
        138  0.00000000E+000
        139  0.00000000E+000
        140  0.00000000E+000
        141  0.00000000E+000
        142  0.00000000E+000
        143  0.00000000E+000
        144  0.00000000E+000
        145  0.00000000E+000
        146  0.00000000E+000
        147  0.00000000E+000
        148  0.00000000E+000
        149  0.00000000E+000
        150  0.00000000E+000
        151  0.00000000E+000
        152  0.00000000E+000
        153  0.00000000E+000
        154  0.00000000E+000
        155  0.00000000E+000
        156  0.00000000E+000
        157  0.00000000E+000
        158  0.00000000E+000
        159  0.00000000E+000
        160  0.00000000E+000
        161  0.00000000E+000
        162  0.00000000E+000
        163  0.00000000E+000
        164  0.00000000E+000
        165  0.00000000E+000
        166  0.00000000E+000
        167  0.00000000E+000
        168  0.00000000E+000
        169  0.00000000E+000
        170  0.00000000E+000
        171  0.00000000E+000
        172  0.00000000E+000
        173  0.00000000E+000
        174  0.00000000E+000
        175  0.00000000E+000
        176  0.00000000E+000
        177  0.00000000E+000
        178  0.00000000E+000
        179  0.00000000E+000
        180  0.00000000E+000
        181  0.00000000E+000
        182  0.00000000E+000
        183  0.00000000E+000
        184  0.00000000E+000
        185  0.00000000E+000
        186  0.00000000E+000
        187  0.00000000E+000
        188  0.00000000E+000
        189  0.00000000E+000
        190  0.00000000E+000
        191  0.00000000E+000
        192  0.00000000E+000
        193  0.00000000E+000
        194  0.00000000E+000
        195  0.00000000E+000
        196  0.00000000E+000
        197  0.00000000E+000
        198  0.00000000E+000
        199  0.00000000E+000
        200  0.00000000E+000
        201  0.00000000E+000
        202  0.00000000E+000
        203  0.00000000E+000
        204  0.00000000E+000
        205  0.00000000E+000
        206  0.00000000E+000
        207  0.00000000E+000
        208  0.00000000E+000
        209  0.00000000E+000
        210  0.00000000E+000
        211  0.00000000E+000
        212  0.00000000E+000
        213  0.00000000E+000
        214  0.00000000E+000
        215  0.00000000E+000
        216  0.00000000E+000
        217  0.00000000E+000
        218  0.00000000E+000
        219  0.00000000E+000
        220  0.00000000E+000
        221  0.00000000E+000
        222  0.00000000E+000
        223  0.00000000E+000
        224  0.00000000E+000
        225  0.00000000E+000
        226  0.00000000E+000
        227  0.00000000E+000
        228  0.00000000E+000
        229  0.00000000E+000
        230  0.00000000E+000
        231  0.00000000E+000
        232  0.00000000E+000
        233  0.00000000E+000
        234  0.00000000E+000
        235  0.00000000E+000
        236  0.00000000E+000
        237  0.00000000E+000
        238  0.00000000E+000
        239  0.00000000E+000
        240  0.00000000E+000
        241  0.00000000E+000
        242  0.00000000E+000
        243  0.00000000E+000
        244  0.00000000E+000
        245  0.00000000E+000
        246  0.00000000E+000
        247  0.00000000E+000
        248  0.00000000E+000
        249  0.00000000E+000
        250  0.00000000E+000
        251  0.00000000E+000
        252  0.00000000E+000
        253  0.00000000E+000
        254  0.00000000E+000
        255  0.00000000E+000
        256  0.00000000E+000
        257  0.00000000E+000
        258  0.00000000E+000
        259  0.00000000E+000
        260  0.00000000E+000
        261  0.00000000E+000
        262  0.00000000E+000
        263  0.00000000E+000
        264  0.00000000E+000
        265  0.00000000E+000
        266  0.00000000E+000
        267  0.00000000E+000
        268  0.00000000E+000
        269  0.00000000E+000
        270  0.00000000E+000
        271  0.00000000E+000
        272  0.00000000E+000
        273  0.00000000E+000
        274  0.00000000E+000
        275  0.00000000E+000
        276  0.00000000E+000
        277  0.00000000E+000
        278  0.00000000E+000
        279  0.00000000E+000
        280  0.00000000E+000
        281  0.00000000E+000
        282  0.00000000E+000
        283  0.00000000E+000
        284  0.00000000E+000
        285  0.00000000E+000
        286  0.00000000E+000
        287  0.00000000E+000
        288  0.00000000E+000
        289  0.00000000E+000
        290  0.00000000E+000
        291  0.00000000E+000
        292  0.00000000E+000
        293  0.00000000E+000
        294  0.00000000E+000
        295  0.00000000E+000
        296  0.00000000E+000
        297  0.00000000E+000
        298  0.00000000E+000
        299  0.00000000E+000
        300  0.00000000E+000
        301  0.00000000E+000
        302  0.00000000E+000
        303  0.00000000E+000
        304  0.00000000E+000
        305  0.00000000E+000
        306  0.00000000E+000
        307  0.00000000E+000
        308  0.00000000E+000
        309  0.00000000E+000
        310  0.00000000E+000
        311  0.00000000E+000
        312  0.00000000E+000
        313  0.00000000E+000
        314  0.00000000E+000
        315  0.00000000E+000
        316  0.00000000E+000
        317  0.00000000E+000
        318  0.00000000E+000
        319  0.00000000E+000
        320  0.00000000E+000
        321  0.00000000E+000
        322  0.00000000E+000
        323  0.00000000E+000
        324  0.00000000E+000
        325  0.00000000E+000
        326  0.00000000E+000
        327  0.00000000E+000
        328  0.00000000E+000
        329  0.00000000E+000
        330  0.00000000E+000
        331  0.00000000E+000
        332  0.00000000E+000
        333  0.00000000E+000
        334  0.00000000E+000
        335  0.00000000E+000
        336  0.00000000E+000
        337  0.00000000E+000
        338  0.00000000E+000
        339  0.00000000E+000
        340  0.00000000E+000
        341  0.00000000E+000
        342  0.00000000E+000
        343  0.00000000E+000
        344  0.00000000E+000
        345  0.00000000E+000
        346  0.00000000E+000
        347  0.00000000E+000
        348  0.00000000E+000
        349  0.00000000E+000
        350  0.00000000E+000
        351  0.00000000E+000
        352  0.00000000E+000
        353  0.00000000E+000
        354  0.00000000E+000
        355  0.00000000E+000
        356  0.00000000E+000
        357  0.00000000E+000
        358  0.00000000E+000
        359  0.00000000E+000
        360  0.00000000E+000
        361  0.00000000E+000
        362  0.00000000E+000
        363  0.00000000E+000
        364  0.00000000E+000
        365  0.00000000E+000
        366  0.00000000E+000
        367  0.00000000E+000
        368  0.00000000E+000
        369  0.00000000E+000
        370  0.00000000E+000
        371  0.00000000E+000
        372  0.00000000E+000
        373  0.00000000E+000
        374  0.00000000E+000
        375  0.00000000E+000
        376  0.00000000E+000
        377  0.00000000E+000
        378  0.00000000E+000
        379  0.00000000E+000
        380  0.00000000E+000
        381  0.00000000E+000
        382  0.00000000E+000
        383  0.00000000E+000
        384  0.00000000E+000
        385  0.00000000E+000
        386  0.00000000E+000
        387  0.00000000E+000
        388  0.00000000E+000
        389  0.00000000E+000
        390  0.00000000E+000
        391  0.00000000E+000
        392  0.00000000E+000
        393  0.00000000E+000
        394  0.00000000E+000
        395  0.00000000E+000
        396  0.00000000E+000
        397  0.00000000E+000
        398  0.00000000E+000
        399  0.00000000E+000
        400  0.00000000E+000
        401  0.00000000E+000
        402  0.00000000E+000
        403  0.00000000E+000
        404  0.00000000E+000
        405  0.00000000E+000
        406  0.00000000E+000
        407  0.00000000E+000
        408  0.00000000E+000
        409  0.00000000E+000
        410  0.00000000E+000
        411  0.00000000E+000
        412  0.00000000E+000
        413  0.00000000E+000
        414  0.00000000E+000
        415  0.00000000E+000
        416  0.00000000E+000
        417  0.00000000E+000
        418  0.00000000E+000
        419  0.00000000E+000
        420  0.00000000E+000
        421  0.00000000E+000
        422  0.00000000E+000
        423  0.00000000E+000
        424  0.00000000E+000
        425  0.00000000E+000
        426  0.00000000E+000
        427  0.00000000E+000
        428  0.00000000E+000
        429  0.00000000E+000
        430  0.00000000E+000
        431  0.00000000E+000
        432  0.00000000E+000
        433  0.00000000E+000
        434  0.00000000E+000
        435  0.00000000E+000
        436  0.00000000E+000
        437  0.00000000E+000
        438  0.00000000E+000
        439  0.00000000E+000
        440  0.00000000E+000
        441  0.00000000E+000
        442  0.00000000E+000
        443  0.00000000E+000
        444  0.00000000E+000
        445  0.00000000E+000
        446  0.00000000E+000
        447  0.00000000E+000
        448  0.00000000E+000
        449  0.00000000E+000
        450  0.00000000E+000
        451  0.00000000E+000
        452  0.00000000E+000
        453  0.00000000E+000
        454  0.00000000E+000
        455  0.00000000E+000
        456  0.00000000E+000
        457  0.00000000E+000
        458  0.00000000E+000
        459  0.00000000E+000
        460  0.00000000E+000
        461  0.00000000E+000
        462  0.00000000E+000
        463  0.00000000E+000
        464  0.00000000E+000
        465  0.00000000E+000
        466  0.00000000E+000
        467  0.00000000E+000
        468  0.00000000E+000
        469  0.00000000E+000
        470  0.00000000E+000
        471  0.00000000E+000
        472  0.00000000E+000
        473  0.00000000E+000
        474  0.00000000E+000
        475  0.00000000E+000
        476  0.00000000E+000
        477  0.00000000E+000
        478  0.00000000E+000
        479  0.00000000E+000
        480  0.00000000E+000
        481  0.00000000E+000
        482  0.00000000E+000
        483  0.00000000E+000
        484  0.00000000E+000
        485  0.00000000E+000
        486  0.00000000E+000
        487  0.00000000E+000
        488  0.00000000E+000
        489  0.00000000E+000
        490  0.00000000E+000
        491  0.00000000E+000
        492  0.00000000E+000
        493  0.00000000E+000
        494  0.00000000E+000
        495  0.00000000E+000
        496  0.00000000E+000
        497  0.00000000E+000
        498  0.00000000E+000
        499  0.00000000E+000
        500  0.00000000E+000
        501  0.00000000E+000
        502  0.00000000E+000
        503  0.00000000E+000
        504  0.00000000E+000
        505  0.00000000E+000
        506  0.00000000E+000
        507  0.00000000E+000
        508  0.00000000E+000
        509  0.00000000E+000
        510  0.00000000E+000
        511  0.00000000E+000
        512  0.00000000E+000
        513  0.00000000E+000
        514  0.00000000E+000
        515  0.00000000E+000
        516  0.00000000E+000
        517  0.00000000E+000
        518  0.00000000E+000
        519  0.00000000E+000
        520  0.00000000E+000
        521  0.00000000E+000
        522  0.00000000E+000
        523  0.00000000E+000
        524  0.00000000E+000
        525  0.00000000E+000
        526  0.00000000E+000
        527  0.00000000E+000
        528  0.00000000E+000
        529  0.00000000E+000
        530  0.00000000E+000
        531  0.00000000E+000
        532  0.00000000E+000
        533  0.00000000E+000
        534  0.00000000E+000
        535  0.00000000E+000
        536  0.00000000E+000
        537  0.00000000E+000
        538  0.00000000E+000
        539  0.00000000E+000
        540  0.00000000E+000
        541  0.00000000E+000
        542  0.00000000E+000
        543  0.00000000E+000
        544  0.00000000E+000
        545  0.00000000E+000
        546  0.00000000E+000
        547  0.00000000E+000
        548  0.00000000E+000
        549  0.00000000E+000
        550  0.00000000E+000
        551  0.00000000E+000
        552  0.00000000E+000
        553  0.00000000E+000
        554  0.00000000E+000
        555  0.00000000E+000
        556  0.00000000E+000
        557  0.00000000E+000
        558  0.00000000E+000
        559  0.00000000E+000
        560  0.00000000E+000
        561  0.00000000E+000
        562  0.00000000E+000
        563  0.00000000E+000
        564  0.00000000E+000
        565  0.00000000E+000
        566  0.00000000E+000
        567  0.00000000E+000
        568  0.00000000E+000
        569  0.00000000E+000
        570  0.00000000E+000
        571  0.00000000E+000
        572  0.00000000E+000
        573  0.00000000E+000
        574  0.00000000E+000
        575  0.00000000E+000
        576  0.00000000E+000
        577  0.00000000E+000
        578  0.00000000E+000
        579  0.00000000E+000
        580  0.00000000E+000
        581  0.00000000E+000
        582  0.00000000E+000
        583  0.00000000E+000
        584  0.00000000E+000
        585  0.00000000E+000
        586  0.00000000E+000
        587  0.00000000E+000
        588  0.00000000E+000
        589  0.00000000E+000
        590  0.00000000E+000
        591  0.00000000E+000
        592  0.00000000E+000
        593  0.00000000E+000
        594  0.00000000E+000
        595  0.00000000E+000
        596  0.00000000E+000
        597  0.00000000E+000
        598  0.00000000E+000
        599  0.00000000E+000
        600  0.00000000E+000
        601  0.00000000E+000
        602  0.00000000E+000
        603  0.00000000E+000
        604  0.00000000E+000
        605  0.00000000E+000
        606  0.00000000E+000
        607  0.00000000E+000
        608  0.00000000E+000
        609  0.00000000E+000
        610  0.00000000E+000
        611  0.00000000E+000
        612  0.00000000E+000
        613  0.00000000E+000
        614  0.00000000E+000
        615  0.00000000E+000
        616  0.00000000E+000
        617  0.00000000E+000
        618  0.00000000E+000
        619  0.00000000E+000
        620  0.00000000E+000
        621  0.00000000E+000
        622  0.00000000E+000
        623  0.00000000E+000
        624  0.00000000E+000
        625  0.00000000E+000
        626  0.00000000E+000
        627  0.00000000E+000
        628  0.00000000E+000
        629  0.00000000E+000
        630  0.00000000E+000
        631  0.00000000E+000
        632  0.00000000E+000
        633  0.00000000E+000
        634  0.00000000E+000
        635  0.00000000E+000
        636  0.00000000E+000
        637  0.00000000E+000
        638  0.00000000E+000
        639  0.00000000E+000
        640  0.00000000E+000
        641  0.00000000E+000
        642  0.00000000E+000
        643  0.00000000E+000
        644  0.00000000E+000
        645  0.00000000E+000
        646  0.00000000E+000
        647  0.00000000E+000
        648  0.00000000E+000
        649  0.00000000E+000
        650  0.00000000E+000
        651  0.00000000E+000
        652  0.00000000E+000
        653  0.00000000E+000
        654  0.00000000E+000
        655  0.00000000E+000
        656  0.00000000E+000
        657  0.00000000E+000
        658  0.00000000E+000
        659  0.00000000E+000
        660  0.00000000E+000
        661  0.00000000E+000
        662  0.00000000E+000
        663  0.00000000E+000
        664  0.00000000E+000
        665  0.00000000E+000
        666  0.00000000E+000
        667  0.00000000E+000
        668  0.00000000E+000
        669  0.00000000E+000
        670  0.00000000E+000
        671  0.00000000E+000
        672  0.00000000E+000
        673  0.00000000E+000
        674  0.00000000E+000
        675  0.00000000E+000
        676  0.00000000E+000
        677  0.00000000E+000
        678  0.00000000E+000
        679  0.00000000E+000
        680  0.00000000E+000
        681  0.00000000E+000
        682  0.00000000E+000
        683  0.00000000E+000
        684  0.00000000E+000
        685  0.00000000E+000
        686  0.00000000E+000
        687  0.00000000E+000
        688  0.00000000E+000
        689  0.00000000E+000
        690  0.00000000E+000
        691  0.00000000E+000
        692  0.00000000E+000
        693  0.00000000E+000
        694  0.00000000E+000
        695  0.00000000E+000
        696  0.00000000E+000
        697  0.00000000E+000
        698  0.00000000E+000
        699  0.00000000E+000
        700  0.00000000E+000
        701  0.00000000E+000
        702  0.00000000E+000
        703  0.00000000E+000
        704  0.00000000E+000
        705  0.00000000E+000
        706  0.00000000E+000
        707  0.00000000E+000
        708  0.00000000E+000
        709  0.00000000E+000
        710  0.00000000E+000
        711  0.00000000E+000
        712  0.00000000E+000
        713  0.00000000E+000
        714  0.00000000E+000
        715  0.00000000E+000
        716  0.00000000E+000
        717  0.00000000E+000
        718  0.00000000E+000
        719  0.00000000E+000
        720  0.00000000E+000
        721  0.00000000E+000
        722  0.00000000E+000
        723  0.00000000E+000
        724  0.00000000E+000
        725  0.00000000E+000
        726  0.00000000E+000
        727  0.00000000E+000
        728  0.00000000E+000
        729  0.00000000E+000
End values

