GiD Post Results File 1.0
 
Result TEMPE ALYA  0.00000000E+00 Scalar OnNodes
ComponentNames TEMPE
Values
          1  0.10000000E+001
          2  0.10000000E+001
          3  0.10000000E+001
          4  0.10000000E+001
          5  0.10000000E+001
          6  0.10000000E+001
          7  0.10000000E+001
          8  0.10000000E+001
          9  0.10000000E+001
         10  0.10000000E+001
         11  0.10000000E+001
         12  0.10000000E+001
         13  0.10000000E+001
         14  0.10000000E+001
         15  0.10000000E+001
         16  0.10000000E+001
         17  0.10000000E+001
         18  0.10000000E+001
         19  0.10000000E+001
         20  0.10000000E+001
         21  0.10000000E+001
         22  0.10000000E+001
         23  0.10000000E+001
         24  0.10000000E+001
         25  0.10000000E+001
         26  0.10000000E+001
         27  0.10000000E+001
         28  0.10000000E+001
         29  0.10000000E+001
         30  0.10000000E+001
         31  0.10000000E+001
         32  0.10000000E+001
         33  0.10000000E+001
         34  0.10000000E+001
         35  0.10000000E+001
         36  0.10000000E+001
         37  0.10000000E+001
         38  0.10000000E+001
         39  0.10000000E+001
         40  0.10000000E+001
         41  0.10000000E+001
         42  0.10000000E+001
         43  0.10000000E+001
         44  0.10000000E+001
         45  0.10000000E+001
         46  0.10000000E+001
         47  0.10000000E+001
         48  0.10000000E+001
         49  0.10000000E+001
         50  0.10000000E+001
         51  0.10000000E+001
         52  0.10000000E+001
         53  0.10000000E+001
         54  0.10000000E+001
         55  0.10000000E+001
         56  0.10000000E+001
         57  0.10000000E+001
         58  0.10000000E+001
         59  0.10000000E+001
         60  0.10000000E+001
         61  0.10000000E+001
         62  0.10000000E+001
         63  0.10000000E+001
         64  0.10000000E+001
         65  0.10000000E+001
         66  0.10000000E+001
         67  0.10000000E+001
         68  0.10000000E+001
         69  0.10000000E+001
         70  0.10000000E+001
         71  0.10000000E+001
         72  0.10000000E+001
         73  0.10000000E+001
         74  0.10000000E+001
         75  0.10000000E+001
         76  0.10000000E+001
         77  0.10000000E+001
         78  0.10000000E+001
         79  0.10000000E+001
         80  0.10000000E+001
         81  0.10000000E+001
         82  0.10000000E+001
         83  0.10000000E+001
         84  0.10000000E+001
         85  0.10000000E+001
         86  0.10000000E+001
         87  0.10000000E+001
         88  0.10000000E+001
         89  0.10000000E+001
         90  0.10000000E+001
         91  0.10000000E+001
         92  0.10000000E+001
         93  0.10000000E+001
         94  0.10000000E+001
         95  0.10000000E+001
         96  0.10000000E+001
         97  0.10000000E+001
         98  0.10000000E+001
         99  0.10000000E+001
        100  0.10000000E+001
        101  0.10000000E+001
        102  0.10000000E+001
        103  0.10000000E+001
        104  0.10000000E+001
        105  0.10000000E+001
        106  0.10000000E+001
        107  0.10000000E+001
        108  0.10000000E+001
        109  0.10000000E+001
        110  0.10000000E+001
        111  0.10000000E+001
        112  0.10000000E+001
        113  0.10000000E+001
        114  0.10000000E+001
        115  0.10000000E+001
        116  0.10000000E+001
        117  0.10000000E+001
        118  0.10000000E+001
        119  0.10000000E+001
        120  0.10000000E+001
        121  0.10000000E+001
End values

Result TEMPE ALYA  0.10000000E+00 Scalar OnNodes
ComponentNames TEMPE
Values
          1  0.20000000E+001
          2  0.20000000E+001
          3  0.20000000E+001
          4  0.19999999E+001
          5  0.20000000E+001
          6  0.20000000E+001
          7  0.19999998E+001
          8  0.19999998E+001
          9  0.19999996E+001
         10  0.20000000E+001
         11  0.20000000E+001
         12  0.19999997E+001
         13  0.19999997E+001
         14  0.19999996E+001
         15  0.19999996E+001
         16  0.20000000E+001
         17  0.20000000E+001
         18  0.19999997E+001
         19  0.19999997E+001
         20  0.19999994E+001
         21  0.19999995E+001
         22  0.19999995E+001
         23  0.20000000E+001
         24  0.19999994E+001
         25  0.20000000E+001
         26  0.19999994E+001
         27  0.19999997E+001
         28  0.19999997E+001
         29  0.19999995E+001
         30  0.19999995E+001
         31  0.19999993E+001
         32  0.19999994E+001
         33  0.19999994E+001
         34  0.20000000E+001
         35  0.20000000E+001
         36  0.19999997E+001
         37  0.19999997E+001
         38  0.19999995E+001
         39  0.19999995E+001
         40  0.19999993E+001
         41  0.19999993E+001
         42  0.19999994E+001
         43  0.19999994E+001
         44  0.20000000E+001
         45  0.20000000E+001
         46  0.19999997E+001
         47  0.19999997E+001
         48  0.19999993E+001
         49  0.19999993E+001
         50  0.19999993E+001
         51  0.19999996E+001
         52  0.19999996E+001
         53  0.19999994E+001
         54  0.19999994E+001
         55  0.19999993E+001
         56  0.19999993E+001
         57  0.20000000E+001
         58  0.20000000E+001
         59  0.19999998E+001
         60  0.19999998E+001
         61  0.19999994E+001
         62  0.19999994E+001
         63  0.19999996E+001
         64  0.19999996E+001
         65  0.19999993E+001
         66  0.19999996E+001
         67  0.19999996E+001
         68  0.19999994E+001
         69  0.19999994E+001
         70  0.19999995E+001
         71  0.19999995E+001
         72  0.20000000E+001
         73  0.20000000E+001
         74  0.19999999E+001
         75  0.19999999E+001
         76  0.19999998E+001
         77  0.19999998E+001
         78  0.19999994E+001
         79  0.19999994E+001
         80  0.19999995E+001
         81  0.19999995E+001
         82  0.19999997E+001
         83  0.19999997E+001
         84  0.19999997E+001
         85  0.19999997E+001
         86  0.19999994E+001
         87  0.20000000E+001
         88  0.20000000E+001
         89  0.19999995E+001
         90  0.19999995E+001
         91  0.20000000E+001
         92  0.20000000E+001
         93  0.20000000E+001
         94  0.20000000E+001
         95  0.19999997E+001
         96  0.19999997E+001
         97  0.20000000E+001
         98  0.20000000E+001
         99  0.19999996E+001
        100  0.19999996E+001
        101  0.20000000E+001
        102  0.20000000E+001
        103  0.19999997E+001
        104  0.19999997E+001
        105  0.20000000E+001
        106  0.20000000E+001
        107  0.19999996E+001
        108  0.19999997E+001
        109  0.19999997E+001
        110  0.20000000E+001
        111  0.20000000E+001
        112  0.19999998E+001
        113  0.19999998E+001
        114  0.20000000E+001
        115  0.20000000E+001
        116  0.19999999E+001
        117  0.20000000E+001
        118  0.20000000E+001
        119  0.20000000E+001
        120  0.20000000E+001
        121  0.20000000E+001
End values

Result TEMPE ALYA  0.20000000E+00 Scalar OnNodes
ComponentNames TEMPE
Values
          1  0.30000000E+001
          2  0.30000000E+001
          3  0.30000000E+001
          4  0.29999999E+001
          5  0.30000000E+001
          6  0.30000000E+001
          7  0.29999998E+001
          8  0.29999998E+001
          9  0.29999996E+001
         10  0.30000000E+001
         11  0.30000000E+001
         12  0.29999997E+001
         13  0.29999997E+001
         14  0.29999996E+001
         15  0.29999996E+001
         16  0.30000000E+001
         17  0.30000000E+001
         18  0.29999997E+001
         19  0.29999997E+001
         20  0.29999994E+001
         21  0.29999995E+001
         22  0.29999995E+001
         23  0.30000000E+001
         24  0.29999994E+001
         25  0.30000000E+001
         26  0.29999994E+001
         27  0.29999997E+001
         28  0.29999997E+001
         29  0.29999995E+001
         30  0.29999995E+001
         31  0.29999993E+001
         32  0.29999994E+001
         33  0.29999994E+001
         34  0.30000000E+001
         35  0.30000000E+001
         36  0.29999997E+001
         37  0.29999997E+001
         38  0.29999995E+001
         39  0.29999995E+001
         40  0.29999993E+001
         41  0.29999993E+001
         42  0.29999994E+001
         43  0.29999994E+001
         44  0.30000000E+001
         45  0.30000000E+001
         46  0.29999997E+001
         47  0.29999997E+001
         48  0.29999993E+001
         49  0.29999993E+001
         50  0.29999993E+001
         51  0.29999996E+001
         52  0.29999996E+001
         53  0.29999994E+001
         54  0.29999994E+001
         55  0.29999993E+001
         56  0.29999993E+001
         57  0.30000000E+001
         58  0.30000000E+001
         59  0.29999998E+001
         60  0.29999998E+001
         61  0.29999994E+001
         62  0.29999994E+001
         63  0.29999996E+001
         64  0.29999996E+001
         65  0.29999993E+001
         66  0.29999996E+001
         67  0.29999996E+001
         68  0.29999994E+001
         69  0.29999994E+001
         70  0.29999995E+001
         71  0.29999995E+001
         72  0.30000000E+001
         73  0.30000000E+001
         74  0.29999999E+001
         75  0.29999999E+001
         76  0.29999998E+001
         77  0.29999998E+001
         78  0.29999994E+001
         79  0.29999994E+001
         80  0.29999995E+001
         81  0.29999995E+001
         82  0.29999997E+001
         83  0.29999997E+001
         84  0.29999997E+001
         85  0.29999997E+001
         86  0.29999994E+001
         87  0.30000000E+001
         88  0.30000000E+001
         89  0.29999995E+001
         90  0.29999995E+001
         91  0.30000000E+001
         92  0.30000000E+001
         93  0.30000000E+001
         94  0.30000000E+001
         95  0.29999997E+001
         96  0.29999997E+001
         97  0.30000000E+001
         98  0.30000000E+001
         99  0.29999996E+001
        100  0.29999996E+001
        101  0.30000000E+001
        102  0.30000000E+001
        103  0.29999997E+001
        104  0.29999997E+001
        105  0.30000000E+001
        106  0.30000000E+001
        107  0.29999996E+001
        108  0.29999997E+001
        109  0.29999997E+001
        110  0.30000000E+001
        111  0.30000000E+001
        112  0.29999998E+001
        113  0.29999998E+001
        114  0.30000000E+001
        115  0.30000000E+001
        116  0.29999999E+001
        117  0.30000000E+001
        118  0.30000000E+001
        119  0.30000000E+001
        120  0.30000000E+001
        121  0.30000000E+001
End values

Result TEMPE ALYA  0.30000000E+00 Scalar OnNodes
ComponentNames TEMPE
Values
          1  0.30000000E+001
          2  0.30000000E+001
          3  0.30000000E+001
          4  0.30000000E+001
          5  0.30000000E+001
          6  0.30000000E+001
          7  0.30000000E+001
          8  0.30000000E+001
          9  0.30000000E+001
         10  0.30000000E+001
         11  0.30000000E+001
         12  0.30000000E+001
         13  0.30000000E+001
         14  0.30000000E+001
         15  0.30000000E+001
         16  0.30000000E+001
         17  0.30000000E+001
         18  0.30000000E+001
         19  0.30000000E+001
         20  0.30000000E+001
         21  0.30000000E+001
         22  0.30000000E+001
         23  0.30000000E+001
         24  0.30000000E+001
         25  0.30000000E+001
         26  0.30000000E+001
         27  0.30000000E+001
         28  0.30000000E+001
         29  0.30000000E+001
         30  0.30000000E+001
         31  0.30000000E+001
         32  0.30000000E+001
         33  0.30000000E+001
         34  0.30000000E+001
         35  0.30000000E+001
         36  0.30000000E+001
         37  0.30000000E+001
         38  0.30000000E+001
         39  0.30000000E+001
         40  0.30000000E+001
         41  0.30000000E+001
         42  0.30000000E+001
         43  0.30000000E+001
         44  0.30000000E+001
         45  0.30000000E+001
         46  0.30000000E+001
         47  0.30000000E+001
         48  0.30000000E+001
         49  0.30000000E+001
         50  0.30000000E+001
         51  0.30000000E+001
         52  0.30000000E+001
         53  0.30000000E+001
         54  0.30000000E+001
         55  0.30000000E+001
         56  0.30000000E+001
         57  0.30000000E+001
         58  0.30000000E+001
         59  0.30000000E+001
         60  0.30000000E+001
         61  0.30000000E+001
         62  0.30000000E+001
         63  0.30000000E+001
         64  0.30000000E+001
         65  0.30000000E+001
         66  0.30000000E+001
         67  0.30000000E+001
         68  0.30000000E+001
         69  0.30000000E+001
         70  0.30000000E+001
         71  0.30000000E+001
         72  0.30000000E+001
         73  0.30000000E+001
         74  0.30000000E+001
         75  0.30000000E+001
         76  0.30000000E+001
         77  0.30000000E+001
         78  0.30000000E+001
         79  0.30000000E+001
         80  0.30000000E+001
         81  0.30000000E+001
         82  0.30000000E+001
         83  0.30000000E+001
         84  0.30000000E+001
         85  0.30000000E+001
         86  0.30000000E+001
         87  0.30000000E+001
         88  0.30000000E+001
         89  0.30000000E+001
         90  0.30000000E+001
         91  0.30000000E+001
         92  0.30000000E+001
         93  0.30000000E+001
         94  0.30000000E+001
         95  0.30000000E+001
         96  0.30000000E+001
         97  0.30000000E+001
         98  0.30000000E+001
         99  0.30000000E+001
        100  0.30000000E+001
        101  0.30000000E+001
        102  0.30000000E+001
        103  0.30000000E+001
        104  0.30000000E+001
        105  0.30000000E+001
        106  0.30000000E+001
        107  0.30000000E+001
        108  0.30000000E+001
        109  0.30000000E+001
        110  0.30000000E+001
        111  0.30000000E+001
        112  0.30000000E+001
        113  0.30000000E+001
        114  0.30000000E+001
        115  0.30000000E+001
        116  0.30000000E+001
        117  0.30000000E+001
        118  0.30000000E+001
        119  0.30000000E+001
        120  0.30000000E+001
        121  0.30000000E+001
End values

Result TEMPE ALYA  0.40000000E+00 Scalar OnNodes
ComponentNames TEMPE
Values
          1  0.30000000E+001
          2  0.30000000E+001
          3  0.30000000E+001
          4  0.30000000E+001
          5  0.30000000E+001
          6  0.30000000E+001
          7  0.30000000E+001
          8  0.30000000E+001
          9  0.30000000E+001
         10  0.30000000E+001
         11  0.30000000E+001
         12  0.30000000E+001
         13  0.30000000E+001
         14  0.30000000E+001
         15  0.30000000E+001
         16  0.30000000E+001
         17  0.30000000E+001
         18  0.30000000E+001
         19  0.30000000E+001
         20  0.30000000E+001
         21  0.30000000E+001
         22  0.30000000E+001
         23  0.30000000E+001
         24  0.30000000E+001
         25  0.30000000E+001
         26  0.30000000E+001
         27  0.30000000E+001
         28  0.30000000E+001
         29  0.30000000E+001
         30  0.30000000E+001
         31  0.30000000E+001
         32  0.30000000E+001
         33  0.30000000E+001
         34  0.30000000E+001
         35  0.30000000E+001
         36  0.30000000E+001
         37  0.30000000E+001
         38  0.30000000E+001
         39  0.30000000E+001
         40  0.30000000E+001
         41  0.30000000E+001
         42  0.30000000E+001
         43  0.30000000E+001
         44  0.30000000E+001
         45  0.30000000E+001
         46  0.30000000E+001
         47  0.30000000E+001
         48  0.30000000E+001
         49  0.30000000E+001
         50  0.30000000E+001
         51  0.30000000E+001
         52  0.30000000E+001
         53  0.30000000E+001
         54  0.30000000E+001
         55  0.30000000E+001
         56  0.30000000E+001
         57  0.30000000E+001
         58  0.30000000E+001
         59  0.30000000E+001
         60  0.30000000E+001
         61  0.30000000E+001
         62  0.30000000E+001
         63  0.30000000E+001
         64  0.30000000E+001
         65  0.30000000E+001
         66  0.30000000E+001
         67  0.30000000E+001
         68  0.30000000E+001
         69  0.30000000E+001
         70  0.30000000E+001
         71  0.30000000E+001
         72  0.30000000E+001
         73  0.30000000E+001
         74  0.30000000E+001
         75  0.30000000E+001
         76  0.30000000E+001
         77  0.30000000E+001
         78  0.30000000E+001
         79  0.30000000E+001
         80  0.30000000E+001
         81  0.30000000E+001
         82  0.30000000E+001
         83  0.30000000E+001
         84  0.30000000E+001
         85  0.30000000E+001
         86  0.30000000E+001
         87  0.30000000E+001
         88  0.30000000E+001
         89  0.30000000E+001
         90  0.30000000E+001
         91  0.30000000E+001
         92  0.30000000E+001
         93  0.30000000E+001
         94  0.30000000E+001
         95  0.30000000E+001
         96  0.30000000E+001
         97  0.30000000E+001
         98  0.30000000E+001
         99  0.30000000E+001
        100  0.30000000E+001
        101  0.30000000E+001
        102  0.30000000E+001
        103  0.30000000E+001
        104  0.30000000E+001
        105  0.30000000E+001
        106  0.30000000E+001
        107  0.30000000E+001
        108  0.30000000E+001
        109  0.30000000E+001
        110  0.30000000E+001
        111  0.30000000E+001
        112  0.30000000E+001
        113  0.30000000E+001
        114  0.30000000E+001
        115  0.30000000E+001
        116  0.30000000E+001
        117  0.30000000E+001
        118  0.30000000E+001
        119  0.30000000E+001
        120  0.30000000E+001
        121  0.30000000E+001
End values

Result TEMPE ALYA  0.50000000E+00 Scalar OnNodes
ComponentNames TEMPE
Values
          1  0.30000000E+001
          2  0.30000000E+001
          3  0.30000000E+001
          4  0.30000000E+001
          5  0.30000000E+001
          6  0.30000000E+001
          7  0.30000000E+001
          8  0.30000000E+001
          9  0.30000000E+001
         10  0.30000000E+001
         11  0.30000000E+001
         12  0.30000000E+001
         13  0.30000000E+001
         14  0.30000000E+001
         15  0.30000000E+001
         16  0.30000000E+001
         17  0.30000000E+001
         18  0.30000000E+001
         19  0.30000000E+001
         20  0.30000000E+001
         21  0.30000000E+001
         22  0.30000000E+001
         23  0.30000000E+001
         24  0.30000000E+001
         25  0.30000000E+001
         26  0.30000000E+001
         27  0.30000000E+001
         28  0.30000000E+001
         29  0.30000000E+001
         30  0.30000000E+001
         31  0.30000000E+001
         32  0.30000000E+001
         33  0.30000000E+001
         34  0.30000000E+001
         35  0.30000000E+001
         36  0.30000000E+001
         37  0.30000000E+001
         38  0.30000000E+001
         39  0.30000000E+001
         40  0.30000000E+001
         41  0.30000000E+001
         42  0.30000000E+001
         43  0.30000000E+001
         44  0.30000000E+001
         45  0.30000000E+001
         46  0.30000000E+001
         47  0.30000000E+001
         48  0.30000000E+001
         49  0.30000000E+001
         50  0.30000000E+001
         51  0.30000000E+001
         52  0.30000000E+001
         53  0.30000000E+001
         54  0.30000000E+001
         55  0.30000000E+001
         56  0.30000000E+001
         57  0.30000000E+001
         58  0.30000000E+001
         59  0.30000000E+001
         60  0.30000000E+001
         61  0.30000000E+001
         62  0.30000000E+001
         63  0.30000000E+001
         64  0.30000000E+001
         65  0.30000000E+001
         66  0.30000000E+001
         67  0.30000000E+001
         68  0.30000000E+001
         69  0.30000000E+001
         70  0.30000000E+001
         71  0.30000000E+001
         72  0.30000000E+001
         73  0.30000000E+001
         74  0.30000000E+001
         75  0.30000000E+001
         76  0.30000000E+001
         77  0.30000000E+001
         78  0.30000000E+001
         79  0.30000000E+001
         80  0.30000000E+001
         81  0.30000000E+001
         82  0.30000000E+001
         83  0.30000000E+001
         84  0.30000000E+001
         85  0.30000000E+001
         86  0.30000000E+001
         87  0.30000000E+001
         88  0.30000000E+001
         89  0.30000000E+001
         90  0.30000000E+001
         91  0.30000000E+001
         92  0.30000000E+001
         93  0.30000000E+001
         94  0.30000000E+001
         95  0.30000000E+001
         96  0.30000000E+001
         97  0.30000000E+001
         98  0.30000000E+001
         99  0.30000000E+001
        100  0.30000000E+001
        101  0.30000000E+001
        102  0.30000000E+001
        103  0.30000000E+001
        104  0.30000000E+001
        105  0.30000000E+001
        106  0.30000000E+001
        107  0.30000000E+001
        108  0.30000000E+001
        109  0.30000000E+001
        110  0.30000000E+001
        111  0.30000000E+001
        112  0.30000000E+001
        113  0.30000000E+001
        114  0.30000000E+001
        115  0.30000000E+001
        116  0.30000000E+001
        117  0.30000000E+001
        118  0.30000000E+001
        119  0.30000000E+001
        120  0.30000000E+001
        121  0.30000000E+001
End values

