GiD Post Results File 1.0
 
Result VELOC ALYA  0.00000000E+00 Vector OnNodes
ComponentNames VELOC_X,VELOC_Y,VELOC_Z
Values
          1  0.10000000E+001  0.00000000E+000
          2  0.10000000E+001  0.00000000E+000
          3  0.10000000E+001  0.00000000E+000
          4  0.10000000E+001  0.00000000E+000
          5  0.10000000E+001  0.00000000E+000
          6  0.10000000E+001  0.00000000E+000
          7  0.10000000E+001  0.00000000E+000
          8  0.10000000E+001  0.00000000E+000
          9  0.10000000E+001  0.00000000E+000
         10  0.10000000E+001  0.00000000E+000
         11  0.10000000E+001  0.00000000E+000
         12  0.10000000E+001  0.00000000E+000
         13  0.10000000E+001  0.00000000E+000
         14  0.10000000E+001  0.00000000E+000
         15  0.10000000E+001  0.00000000E+000
         16  0.10000000E+001  0.00000000E+000
         17  0.10000000E+001  0.00000000E+000
         18  0.10000000E+001  0.00000000E+000
         19  0.10000000E+001  0.00000000E+000
         20  0.10000000E+001  0.00000000E+000
         21  0.10000000E+001  0.00000000E+000
         22  0.10000000E+001  0.00000000E+000
         23  0.10000000E+001  0.00000000E+000
         24  0.10000000E+001  0.00000000E+000
         25  0.10000000E+001  0.00000000E+000
End values

Result PRESS ALYA  0.00000000E+00 Scalar OnNodes
ComponentNames PRESS
Values
          1  0.20010580E+001
          2  0.19994426E+001
          3  0.20000370E+001
          4  0.20000598E+001
          5  0.19992490E+001
          6  0.19995242E+001
          7  0.20000673E+001
          8  0.19999903E+001
          9  0.20005035E+001
         10  0.20000370E+001
         11  0.20000015E+001
         12  0.20003388E+001
         13  0.20000598E+001
         14  0.19998740E+001
         15  0.20000673E+001
         16  0.20010580E+001
         17  0.19990090E+001
         18  0.20000000E+001
         19  0.19994426E+001
         20  0.20003388E+001
         21  0.19995242E+001
         22  0.20000000E+001
         23  0.20000015E+001
         24  0.20000000E+001
         25  0.19990090E+001
End values

Result VELOC ALYA  0.57870360E+02 Vector OnNodes
ComponentNames VELOC_X,VELOC_Y,VELOC_Z
Values
          1  0.10000000E+001  0.00000000E+000
          2  0.10000000E+001  0.00000000E+000
          3  0.10000000E+001  0.00000000E+000
          4  0.10000000E+001  0.10539536E-016
          5  0.10000000E+001  0.00000000E+000
          6  0.10000000E+001  0.00000000E+000
          7  0.10000000E+001  0.14061683E-013
          8  0.10000000E+001 -0.66679199E-016
          9  0.10000000E+001  0.10283430E-015
         10  0.10000000E+001  0.00000000E+000
         11  0.10000000E+001  0.00000000E+000
         12  0.10000000E+001  0.42863598E-013
         13  0.10000000E+001 -0.29492900E-015
         14  0.10000000E+001 -0.94454677E-016
         15  0.10000000E+001 -0.14251565E-013
         16  0.10000000E+001  0.00000000E+000
         17  0.10000000E+001  0.00000000E+000
         18  0.10000000E+001 -0.43633355E-012
         19  0.10000000E+001  0.00000000E+000
         20  0.10000000E+001 -0.43089551E-013
         21  0.10000000E+001  0.00000000E+000
         22  0.10000000E+001 -0.52042382E-015
         23  0.10000000E+001  0.00000000E+000
         24  0.10000000E+001  0.43573213E-012
         25  0.10000000E+001  0.00000000E+000
End values

Result PRESS ALYA  0.57870360E+02 Scalar OnNodes
ComponentNames PRESS
Values
          1 -0.10000000E+002
          2 -0.10000000E+002
          3 -0.10000000E+002
          4 -0.10000000E+002
          5 -0.10000000E+002
          6 -0.10000000E+002
          7 -0.10000000E+002
          8 -0.10000000E+002
          9 -0.10000000E+002
         10 -0.10000000E+002
         11 -0.10000000E+002
         12 -0.10000000E+002
         13 -0.10000000E+002
         14 -0.10000000E+002
         15 -0.10000000E+002
         16 -0.10000000E+002
         17 -0.10000000E+002
         18 -0.10000000E+002
         19 -0.10000000E+002
         20 -0.10000000E+002
         21 -0.10000000E+002
         22 -0.10000000E+002
         23 -0.10000000E+002
         24 -0.10000000E+002
         25 -0.10000000E+002
End values

