GiD Post Results File 1.0
 
Result PRESS ALYA  0.50000000E-01 Scalar OnNodes
ComponentNames PRESS
Values
        1  0.00000000E+000
        2 -0.50000000E+001
        3  0.10000000E+001
        4  0.60000000E+001
        5  0.20000000E+001
        6 -0.30000000E+001
        7  0.30000000E+001
        8  0.80000000E+001
        9 -0.12500000E+001
       10 -0.35000000E+001
       11  0.47500000E+001
       12  0.15000000E+001
       13  0.25000000E+000
       14  0.75000000E+000
       15 -0.15000000E+001
       16  0.67500000E+001
       17  0.35000000E+001
       18  0.22500000E+001
       19 -0.75000000E+000
       20 -0.45000000E+001
       21 -0.30000000E+001
       22  0.15000000E+001
       23  0.52500000E+001
       24  0.65000000E+001
       25  0.20000000E+001
       26  0.50000000E+000
       27  0.75000000E+000
End values
Result VEERR ALYA  0.50000000E-01 Scalar OnNodes
ComponentNames VEERR
Values
        1  0.00000000E+000
        2  0.00000000E+000
        3  0.00000000E+000
        4  0.00000000E+000
        5  0.00000000E+000
        6  0.00000000E+000
        7  0.00000000E+000
        8  0.00000000E+000
        9  0.00000000E+000
       10  0.00000000E+000
       11  0.00000000E+000
       12  0.00000000E+000
       13  0.00000000E+000
       14  0.00000000E+000
       15  0.00000000E+000
       16  0.00000000E+000
       17  0.00000000E+000
       18  0.00000000E+000
       19  0.00000000E+000
       20  0.00000000E+000
       21  0.00000000E+000
       22  0.00000000E+000
       23  0.00000000E+000
       24  0.00000000E+000
       25  0.00000000E+000
       26  0.00000000E+000
       27  0.00000000E+000
End values
Result PRERR ALYA  0.50000000E-01 Scalar OnNodes
ComponentNames PRERR
Values
        1  0.00000000E+000
        2  0.00000000E+000
        3  0.00000000E+000
        4  0.00000000E+000
        5  0.00000000E+000
        6  0.00000000E+000
        7  0.00000000E+000
        8  0.00000000E+000
        9  0.00000000E+000
       10  0.00000000E+000
       11  0.00000000E+000
       12  0.00000000E+000
       13  0.00000000E+000
       14  0.00000000E+000
       15  0.00000000E+000
       16  0.00000000E+000
       17  0.00000000E+000
       18  0.00000000E+000
       19  0.00000000E+000
       20  0.00000000E+000
       21  0.00000000E+000
       22  0.00000000E+000
       23  0.00000000E+000
       24  0.00000000E+000
       25  0.00000000E+000
       26  0.00000000E+000
       27  0.00000000E+000
End values
