GiD Post Results File 1.0
 
Result VELOC ALYA  0.00000000E+00 Vector OnNodes
ComponentNames VELOC_X,VELOC_Y,VELOC_Z
Values
        1  0.10000000E+001  0.00000000E+000
        2  0.00000000E+000  0.00000000E+000
        3  0.10000000E+001  0.00000000E+000
        4  0.00000000E+000  0.00000000E+000
        5  0.10000000E+001  0.00000000E+000
        6  0.00000000E+000  0.00000000E+000
        7  0.00000000E+000  0.00000000E+000
        8  0.00000000E+000  0.00000000E+000
        9  0.00000000E+000  0.00000000E+000
       10  0.10000000E+001  0.00000000E+000
       11  0.00000000E+000  0.00000000E+000
       12  0.00000000E+000  0.00000000E+000
       13  0.00000000E+000  0.00000000E+000
       14  0.00000000E+000  0.00000000E+000
       15  0.00000000E+000  0.00000000E+000
       16  0.10000000E+001  0.00000000E+000
       17  0.00000000E+000  0.00000000E+000
       18  0.00000000E+000  0.00000000E+000
       19  0.00000000E+000  0.00000000E+000
       20  0.00000000E+000  0.00000000E+000
       21  0.00000000E+000  0.00000000E+000
       22  0.00000000E+000  0.00000000E+000
       23  0.00000000E+000  0.00000000E+000
       24  0.00000000E+000  0.00000000E+000
       25  0.00000000E+000  0.00000000E+000
End values
Result PRESS ALYA  0.00000000E+00 Scalar OnNodes
ComponentNames PRESS
Values
        1  0.20010580E+001
        2  0.19994426E+001
        3  0.20000370E+001
        4  0.20000598E+001
        5  0.19992490E+001
        6  0.19995242E+001
        7  0.20000673E+001
        8  0.19999903E+001
        9  0.20005035E+001
       10  0.20000370E+001
       11  0.20000015E+001
       12  0.20003388E+001
       13  0.20000598E+001
       14  0.19998740E+001
       15  0.20000673E+001
       16  0.20010580E+001
       17  0.19990090E+001
       18  0.20000000E+001
       19  0.19994426E+001
       20  0.20003388E+001
       21  0.19995242E+001
       22  0.20000000E+001
       23  0.20000015E+001
       24  0.20000000E+001
       25  0.19990090E+001
End values
Result VELOC ALYA  0.23243255E+03 Vector OnNodes
ComponentNames VELOC_X,VELOC_Y,VELOC_Z
Values
        1  0.10000000E+001  0.00000000E+000
        2  0.10000000E+001  0.00000000E+000
        3  0.10000000E+001  0.00000000E+000
        4  0.10000000E+001  0.50894264E-014
        5  0.10000000E+001  0.00000000E+000
        6  0.10000000E+001  0.00000000E+000
        7  0.10000000E+001  0.94383315E-014
        8  0.10000000E+001 -0.64023227E-016
        9  0.10000000E+001 -0.10261126E-016
       10  0.10000000E+001  0.00000000E+000
       11  0.10000000E+001  0.00000000E+000
       12  0.10000000E+001  0.10717026E-013
       13  0.10000000E+001 -0.50907476E-014
       14  0.10000000E+001 -0.27874805E-015
       15  0.10000000E+001 -0.94828848E-014
       16  0.10000000E+001  0.00000000E+000
       17  0.10000000E+001  0.00000000E+000
       18  0.10000000E+001  0.21380772E-013
       19  0.10000000E+001  0.00000000E+000
       20  0.10000000E+001 -0.10739425E-013
       21  0.10000000E+001  0.00000000E+000
       22  0.10000000E+001 -0.63069027E-016
       23  0.10000000E+001  0.00000000E+000
       24  0.10000000E+001 -0.21761220E-013
       25  0.10000000E+001  0.00000000E+000
End values
Result PRESS ALYA  0.23243255E+03 Scalar OnNodes
ComponentNames PRESS
Values
        1  0.20000000E+001
        2  0.20000000E+001
        3  0.20000000E+001
        4  0.20000000E+001
        5  0.20000000E+001
        6  0.20000000E+001
        7  0.20000000E+001
        8  0.20000000E+001
        9  0.20000000E+001
       10  0.20000000E+001
       11  0.20000000E+001
       12  0.20000000E+001
       13  0.20000000E+001
       14  0.20000000E+001
       15  0.20000000E+001
       16  0.20000000E+001
       17  0.20000000E+001
       18  0.20000000E+001
       19  0.20000000E+001
       20  0.20000000E+001
       21  0.20000000E+001
       22  0.20000000E+001
       23  0.20000000E+001
       24  0.20000000E+001
       25  0.20000000E+001
End values
