 0.61931023E-013  0.14691415E-011
 0.10295458E-003 -0.11953182E-002
-0.10295458E-003 -0.11953182E-002
 0.56350780E-012  0.58060334E-013
-0.57501235E-012 -0.11820654E-011
-0.69668696E-006  0.23752443E-004
 0.69668696E-006  0.23752443E-004
 0.10751913E-015 -0.21503827E-015
 0.52039262E-013  0.12705172E-011
 0.30610698E-012  0.11608669E-011
 0.27234597E-012 -0.11684466E-011
 0.26879784E-015  0.16969006E-012
 0.22525259E-013  0.70640634E-013
 0.11036445E-013  0.23624704E-014
 0.76464565E-011  0.33327232E-013
-0.39260151E-007 -0.16859672E-009
-0.14841340E-003 -0.17256760E-006
 0.11113901E-007 -0.86161541E-003
 0.36140173E-009 -0.11844944E-002
 0.55242721E-011 -0.11843829E-002
 0.29342046E-014 -0.11843829E-002
-0.38736359E-013 -0.11843829E-002
 0.19020973E-016 -0.11843829E-002
-0.87596002E-012 -0.11843829E-002
-0.55541558E-011 -0.11843829E-002
-0.35965689E-009 -0.11844944E-002
-0.11114658E-007 -0.86161541E-003
 0.14841340E-003 -0.17257284E-006
 0.39260148E-007 -0.16924653E-009
-0.78047098E-011  0.33336731E-013
-0.10941800E-013  0.23208906E-014
-0.37631698E-015  0.43063748E-015
-0.53759569E-016 -0.19017315E-015
-0.11289509E-014 -0.68128308E-015
-0.29298965E-012 -0.19247616E-014
-0.10214318E-013  0.11970261E-011
 0.66462413E-014 -0.34682233E-010
-0.33941030E-010 -0.52684378E-014
 0.35481315E-014  0.34683201E-010
-0.11504547E-013 -0.51609186E-014
 0.60173085E-012  0.21073751E-013
 0.24729401E-014  0.43007655E-015
 0.26342188E-014 -0.39782081E-014
 0.31917597E-014 -0.64511483E-015
 0.32117049E-014  0.64511483E-015
 0.25804593E-014  0.75263396E-015
 0.22977923E-014  0.32255741E-014
 0.31440762E-014 -0.60699929E-011
-0.59353113E-011 -0.64511482E-015
 0.21104923E-014  0.54811106E-011
 0.26904513E-011 -0.17203062E-014
 0.11719586E-013 -0.10996197E-010
-0.30746172E-011 -0.56447547E-013
-0.19154534E-012  0.27524899E-013
 0.53652050E-013  0.52624790E-009
 0.22399392E-014  0.11918299E-015
 0.35020993E-011  0.33631640E-014
 0.17614798E-008 -0.27172334E-012
 0.63155379E-006  0.15928948E-007
-0.16533060E-008  0.21158041E-004
-0.31925788E-009  0.23751114E-004
-0.33121633E-031  0.23751045E-004
 0.50132208E-018  0.23751045E-004
 0.50132208E-018  0.23751045E-004
 0.27071392E-016  0.23751045E-004
-0.50132208E-018  0.23751045E-004
-0.27071392E-016  0.23751045E-004
 0.31925788E-009  0.23751114E-004
 0.16533060E-008  0.21158041E-004
-0.63155626E-006  0.15928948E-007
-0.17614799E-008  0.98150834E-011
-0.10357593E-011  0.32359687E-014
-0.42965971E-015  0.12018453E-016
-0.10751913E-015  0.21503827E-015
 0.53759569E-016 -0.00000000E+000
-0.32647378E-028 -0.00000000E+000
-0.53759569E-016  0.21503827E-015
 0.53759569E-016  0.10751913E-015
-0.10949395E-015 -0.36732475E-028
-0.71843697E-016  0.29007524E-028
 0.18641271E-016  0.19390294E-028
-0.33132123E-016  0.10751913E-015
-0.59885655E-015  0.86015310E-015
-0.19095545E-014  0.75263396E-015
 0.17002017E-014  0.10429356E-013
 0.71034345E-014  0.41932463E-013
 0.26210755E-014  0.61285908E-014
 0.15054448E-013 -0.10644394E-013
 0.63362541E-013 -0.33976047E-013
-0.18557471E-013  0.15266825E-009
 0.14930551E-009 -0.50533994E-014
-0.35239194E-013 -0.15198733E-009
 0.14323883E-006 -0.14274579E-002
-0.21068676E-006 -0.25113369E-002
-0.63413954E-004 -0.39501866E-002
-0.23133517E-005 -0.55310860E-002
 0.38458527E-005 -0.66162244E-002
 0.19930586E-003 -0.70180910E-002
 0.32222214E-003 -0.77520623E-002
 0.28071620E-004  0.60464624E-003
 0.37513217E-004  0.13944715E-001
-0.22799354E-004  0.19583624E-001
-0.33417896E-005  0.97511602E-002
-0.21995401E-006  0.26056974E-002
-0.17196657E-007  0.52865636E-003
-0.42058066E-009  0.88720475E-004
-0.14323881E-006 -0.14274579E-002
 0.21068677E-006 -0.25113369E-002
 0.63413954E-004 -0.39501866E-002
 0.23133518E-005 -0.55310860E-002
-0.38458527E-005 -0.66162244E-002
-0.19930586E-003 -0.70180910E-002
-0.32222214E-003 -0.77520623E-002
-0.28071620E-004  0.60464624E-003
-0.37513217E-004  0.13944715E-001
 0.22799354E-004  0.19583624E-001
 0.33417902E-005  0.97511602E-002
 0.21995400E-006  0.26056974E-002
 0.17197324E-007  0.52865636E-003
 0.42067020E-009  0.88720474E-004
-0.58064680E-005  0.87287680E-004
-0.43554336E-004  0.52448595E-003
-0.26381559E-003  0.25249722E-002
-0.11959021E-002  0.90216734E-002
-0.34493726E-002  0.17657683E-001
-0.60188075E-002  0.12261931E-001
-0.71204716E-002  0.94809946E-003
-0.61473032E-002 -0.63993593E-002
-0.49213328E-002 -0.67557369E-002
-0.36806110E-002 -0.64944131E-002
-0.24328375E-002 -0.53683349E-002
-0.14744451E-002 -0.39350128E-002
-0.72452785E-003 -0.24310508E-002
-0.29902915E-003 -0.13316407E-002
-0.58075912E-005  0.69331310E-007
-0.43587064E-004  0.41632466E-006
-0.27076358E-003  0.27321298E-005
-0.14531578E-002  0.17691670E-004
-0.69342559E-002  0.41872706E-004
-0.23808515E-001  0.53623976E-004
-0.35472024E-001  0.42506031E-004
-0.27534912E-001 -0.22274529E-004
-0.18898010E-001 -0.60091139E-004
-0.11281334E-001 -0.38079395E-004
-0.60596546E-002 -0.19713301E-004
-0.28744539E-002 -0.88891052E-005
-0.12692643E-002 -0.36409192E-005
-0.47592124E-003 -0.10077610E-005
-0.56545613E-008  0.37148887E-010
-0.35640731E-007  0.24508631E-009
-0.20843006E-006  0.15106894E-008
-0.13433007E-005  0.25497740E-008
-0.81285870E-005  0.35916912E-008
-0.17518545E-004  0.40103187E-008
-0.25826719E-004  0.10581365E-009
-0.30126231E-004 -0.59140465E-009
-0.18696768E-004 -0.16414540E-008
-0.99990681E-005 -0.44100836E-008
-0.46095386E-005 -0.29807758E-008
-0.18767358E-005 -0.15616615E-008
-0.56104808E-006 -0.68078518E-009
-0.84726260E-007 -0.28678198E-009
-0.34348915E-011  0.14842534E-013
-0.19194376E-010  0.51995987E-013
-0.12313828E-009 -0.10734904E-012
-0.75428551E-009 -0.28240798E-012
-0.13469236E-008 -0.11387962E-011
-0.24195949E-008 -0.10170047E-011
-0.31182537E-008  0.86846626E-013
-0.24654429E-008  0.15717004E-012
-0.28629247E-008  0.27159908E-012
-0.17423369E-008  0.10003476E-011
-0.87158730E-009  0.91411300E-012
-0.36103761E-009  0.57916669E-013
-0.13159436E-009 -0.81138038E-013
-0.33406346E-010  0.71168035E-014
-0.12198188E-014  0.86768632E-017
-0.76850325E-014  0.32972151E-016
-0.26640323E-013 -0.82004276E-014
 0.44788239E-013 -0.68323872E-013
 0.11137819E-012 -0.19036676E-012
 0.60131505E-012 -0.34608334E-012
 0.60814645E-012 -0.57910615E-012
 0.55878486E-012  0.82745214E-013
 0.53150640E-012  0.75386794E-012
 0.42622122E-012  0.31746598E-012
 0.42821744E-013 -0.31763265E-014
-0.20618115E-013  0.39320719E-014
 0.14192843E-013  0.25826931E-013
 0.19021736E-013  0.10260175E-013
-0.39737848E-015  0.28046347E-018
-0.53487608E-015 -0.13325992E-015
-0.21317414E-014 -0.19350640E-014
 0.42986523E-012 -0.98914802E-014
 0.35839010E-011 -0.40695713E-013
 0.10421385E-010 -0.83353073E-013
 0.21748072E-010 -0.17268693E-013
 0.40815686E-010  0.41018831E-013
 0.17406047E-010  0.44379663E-013
 0.12569758E-011  0.74134726E-013
 0.77033718E-012  0.96110912E-014
 0.14063648E-011 -0.69134525E-013
 0.20304024E-009 -0.61421795E-014
 0.43118415E-013  0.70789480E-013
 0.19687445E-016  0.12432559E-016
-0.51898491E-016 -0.53479105E-016
 0.18641271E-016  0.93930444E-016
 0.91763293E-015  0.17371126E-015
 0.52340567E-014  0.48411658E-015
 0.22359852E-013  0.56218034E-015
 0.45104119E-013  0.80667400E-015
 0.27424551E-013  0.16252196E-014
 0.30568027E-013  0.15065111E-013
 0.11811421E-013  0.53477182E-013
-0.60804080E-014 -0.35307604E-013
 0.60781543E-015  0.41415609E-009
 0.64567056E-014 -0.15900400E-013
 0.30310662E-012 -0.41416200E-009
 0.12752866E-016 -0.12560326E-015
 0.95511057E-016 -0.83995793E-016
 0.52455634E-016  0.89435010E-016
 0.37202629E-017  0.82991688E-015
 0.83964118E-015  0.30739496E-014
 0.30840093E-014 -0.17505424E-014
-0.18986513E-014 -0.67380302E-014
 0.79974020E-014  0.11151754E-013
 0.12959820E-013  0.12454135E-013
-0.84609220E-014 -0.87823723E-015
-0.53178776E-013 -0.13147571E-013
 0.14438983E-013 -0.43455816E-013
-0.19950338E-009  0.61262596E-012
 0.30071747E-013  0.58137617E-013
-0.71923387E-017  0.46898889E-016
 0.69489804E-016 -0.85777409E-017
 0.18641271E-016 -0.16985644E-015
-0.40066703E-016  0.17255976E-014
-0.75012936E-017  0.67651279E-014
-0.17138452E-016 -0.49405889E-014
 0.34744845E-016  0.10892462E-013
 0.39116747E-014  0.32032125E-013
 0.14670153E-013 -0.18595519E-013
-0.31704545E-014 -0.81735275E-013
-0.20385439E-013  0.11629510E-013
 0.36432825E-014  0.61897069E-011
 0.17621788E-013  0.16107140E-013
-0.29005651E-012 -0.55298115E-011
-0.94766271E-016  0.11531603E-015
 0.22664814E-016 -0.11359140E-015
-0.52025479E-016 -0.18224359E-016
 0.40572651E-016  0.78816917E-015
-0.84770919E-015  0.29385519E-014
-0.27289586E-014 -0.16847710E-014
 0.19889447E-014  0.12442669E-014
-0.29864572E-014  0.41066238E-013
 0.68725229E-014 -0.20073284E-014
 0.91309228E-014 -0.72701161E-013
 0.41692448E-013  0.62689047E-015
-0.13064022E-013  0.34453811E-013
 0.71653457E-010  0.11942421E-013
-0.23402116E-013  0.64810714E-012
-0.47954128E-009  0.88735778E-004
 0.46816124E-009  0.52920972E-003
 0.11766149E-007  0.26164938E-002
 0.19782750E-006  0.98466207E-002
 0.13246471E-005  0.19849117E-001
-0.40722774E-007  0.14152645E-001
-0.87365389E-006  0.62538013E-003
 0.80236419E-005 -0.78161859E-002
 0.75198612E-005 -0.70918274E-002
-0.19498083E-006 -0.66951248E-002
 0.36973568E-007 -0.55879028E-002
 0.24478976E-007 -0.39915076E-002
 0.39276325E-007 -0.25310755E-002
-0.25920598E-007 -0.14289066E-002
-0.20883807E-010  0.88735736E-004
 0.24322752E-012  0.52921039E-003
 0.33701648E-010  0.26165241E-002
 0.52824699E-009  0.98468675E-002
-0.43544946E-008  0.19849047E-001
-0.30420147E-008  0.14151685E-001
 0.29017186E-007  0.62505690E-003
-0.14019787E-006 -0.78133530E-002
-0.12787660E-006 -0.70889689E-002
 0.11316985E-008 -0.66939101E-002
-0.15215648E-008 -0.55881824E-002
 0.19316141E-009 -0.39924542E-002
 0.55435286E-009 -0.25314000E-002
 0.15765598E-010 -0.14287207E-002
 0.60847447E-014  0.88735736E-004
 0.15750207E-014  0.52921041E-003
-0.17020312E-012  0.26165252E-002
 0.94478364E-011  0.98468799E-002
 0.14154196E-010  0.19849071E-001
 0.67371742E-010  0.14151691E-001
-0.48359014E-009  0.62506152E-003
 0.19520401E-008 -0.78134205E-002
 0.15121528E-008 -0.70890438E-002
 0.97949526E-011 -0.66939407E-002
 0.86791269E-011 -0.55881856E-002
-0.40209793E-012 -0.39924546E-002
 0.17519343E-012 -0.25314004E-002
 0.62627981E-013 -0.14287207E-002
-0.13819828E-016  0.88735736E-004
-0.61095027E-017  0.52921041E-003
-0.51436172E-015  0.26165252E-002
-0.25995270E-013  0.98468799E-002
-0.21306217E-012  0.19849071E-001
-0.12346367E-011  0.14151691E-001
 0.57563667E-011  0.62506146E-003
-0.20145684E-010 -0.78134193E-002
-0.12943644E-010 -0.70890426E-002
-0.34276530E-012 -0.66939402E-002
-0.26478531E-012 -0.55881855E-002
 0.43310316E-014 -0.39924546E-002
 0.26020985E-012 -0.25314004E-002
 0.58073417E-015 -0.14287207E-002
 0.62334963E-014  0.88735736E-004
-0.10033957E-015  0.52921041E-003
 0.84290700E-012  0.26165252E-002
-0.63519309E-012  0.98468799E-002
 0.62705650E-014  0.19849071E-001
 0.11971420E-011  0.14151691E-001
-0.52147825E-011  0.62506146E-003
 0.20140586E-010 -0.78134193E-002
 0.13441382E-010 -0.70890426E-002
 0.34269175E-012 -0.66939402E-002
 0.96473481E-013 -0.55881855E-002
-0.90270218E-014 -0.39924546E-002
-0.43362881E-013 -0.25314004E-002
-0.10045843E-011 -0.14287207E-002
-0.60847666E-014  0.88735736E-004
-0.81230929E-015  0.52921041E-003
 0.14096964E-012  0.26165252E-002
-0.81256652E-011  0.98468799E-002
-0.14156891E-010  0.19849071E-001
-0.67329210E-010  0.14151691E-001
 0.48171228E-009  0.62506152E-003
-0.19520227E-008 -0.78134205E-002
-0.15120402E-008 -0.70890438E-002
-0.97891687E-011 -0.66939407E-002
-0.86534712E-011 -0.55881856E-002
 0.33622862E-012 -0.39924546E-002
-0.33996680E-012 -0.25314004E-002
 0.94133020E-012 -0.14287207E-002
 0.20877585E-010  0.88735736E-004
-0.98699848E-012  0.52921039E-003
-0.35358168E-010  0.26165241E-002
-0.52824720E-009  0.98468675E-002
 0.43547028E-008  0.19849047E-001
 0.30420422E-008  0.14151685E-001
-0.29017188E-007  0.62505690E-003
 0.14019795E-006 -0.78133530E-002
 0.12787639E-006 -0.70889689E-002
-0.11316931E-008 -0.66939101E-002
 0.15217678E-008 -0.55881824E-002
-0.19314473E-009 -0.39924542E-002
-0.55435752E-009 -0.25314000E-002
-0.15765734E-010 -0.14287207E-002
 0.47954128E-009  0.88735777E-004
-0.46741929E-009  0.52920972E-003
-0.11765306E-007  0.26164938E-002
-0.19782882E-006  0.98466207E-002
-0.13246471E-005  0.19849117E-001
 0.40722698E-007  0.14152645E-001
 0.87365515E-006  0.62538013E-003
-0.80236418E-005 -0.78161859E-002
-0.75198612E-005 -0.70918274E-002
 0.19497987E-006 -0.66951248E-002
-0.36973602E-007 -0.55879028E-002
-0.24478891E-007 -0.39915076E-002
-0.39276429E-007 -0.25310755E-002
 0.25920599E-007 -0.14289066E-002
 0.29148438E-012 -0.10396561E-014
-0.29741605E-011  0.31648515E-015
 0.47039623E-014  0.24148254E-014
 0.70325309E-014  0.26159945E-014
-0.66024544E-014  0.17142339E-014
-0.10721996E-013  0.13379169E-014
-0.10876340E-013 -0.13743656E-014
-0.77144981E-014 -0.47906739E-014
 0.37900496E-014  0.61308192E-012
 0.35481315E-014  0.67554813E-014
-0.88872360E-014 -0.61696304E-012
 0.18915575E-014 -0.17490084E-013
-0.16964305E-010 -0.21564550E-014
 0.43983120E-014  0.60655099E-012
-0.16466014E-014 -0.61056441E-011
-0.18211483E-013 -0.58738391E-012
 0.11582149E-013  0.27946398E-013
 0.16259231E-013 -0.19953377E-013
-0.18960220E-013 -0.35703214E-013
-0.29997839E-013 -0.80066014E-014
-0.29934107E-013  0.54350079E-014
-0.21503827E-013  0.25903534E-013
 0.62361100E-014  0.23364682E-013
-0.29019914E-012 -0.48868293E-014
-0.23654210E-014 -0.85025896E-014
-0.12533772E-014  0.16718380E-014
 0.40219950E-014 -0.62337309E-016
-0.25882524E-015 -0.34075826E-014
-0.37995268E-012 -0.62325424E-013
-0.18527106E-013  0.27387144E-013
 0.27014183E-013  0.72933651E-013
 0.70862905E-014 -0.59918396E-013
-0.10058455E-015 -0.92753340E-013
-0.39322416E-015 -0.21199354E-013
-0.26879784E-016  0.15990115E-013
 0.53759569E-016  0.69359498E-013
 0.56252719E-016  0.63539595E-013
 0.26879784E-016 -0.10796019E-013
-0.81636614E-015 -0.25930196E-013
-0.16227596E-014 -0.42234826E-014
-0.27954975E-014  0.23523345E-016
-0.15590275E-014 -0.98575637E-015
 0.12846069E-009  0.14531239E-012
-0.14911345E-013  0.24499478E-012
 0.32282621E-013  0.80490507E-013
-0.24460603E-014 -0.75466002E-013
 0.13923728E-013 -0.50897879E-013
 0.90316076E-014 -0.80237645E-014
-0.15869045E-013  0.61947830E-014
-0.75532194E-014  0.26193342E-013
-0.31933184E-013  0.23278173E-013
-0.22759698E-013 -0.65462348E-014
-0.40857272E-014 -0.11653393E-013
-0.40319676E-015 -0.23529884E-014
-0.87706028E-015 -0.12110783E-015
-0.38628958E-015 -0.10723867E-015
 0.50083973E-013  0.29899885E-012
 0.10716970E-012 -0.26266705E-009
-0.18214521E-013  0.98420182E-013
-0.44339895E-012 -0.97370451E-013
-0.35787745E-011 -0.69295804E-013
-0.10411447E-010 -0.82090581E-013
-0.21736015E-010 -0.17927677E-013
-0.40808297E-010  0.36287989E-013
-0.17409020E-010  0.32297629E-013
-0.12550684E-011  0.46219640E-013
-0.74582341E-012  0.19879168E-013
-0.14170385E-011  0.22044228E-014
-0.53759569E-012  0.54040033E-016
-0.61285908E-013  0.45809533E-015
-0.11952011E-011  0.23731783E-014
 0.80842272E-014  0.98005532E-015
 0.26230775E-013 -0.97414227E-014
-0.44936089E-013 -0.68542207E-013
-0.11139754E-012 -0.19039979E-012
-0.60136526E-012 -0.34603127E-012
-0.60818583E-012 -0.57910325E-012
-0.55886135E-012  0.82688126E-013
-0.53154155E-012  0.75383750E-012
-0.42620693E-012  0.31742844E-012
-0.42712239E-013 -0.31948709E-014
 0.20595029E-013  0.39445911E-014
-0.14416134E-013  0.25830210E-013
-0.19089811E-013  0.10235250E-013
 0.34356520E-011  0.14739747E-013
 0.19193925E-010  0.51646079E-013
 0.12313829E-009 -0.10753357E-012
 0.75428559E-009 -0.28242490E-012
 0.13469236E-008 -0.11388642E-011
 0.24195949E-008 -0.10170335E-011
 0.31182537E-008  0.86786019E-013
 0.24654428E-008  0.15713748E-012
 0.28629246E-008  0.27167320E-012
 0.17423368E-008  0.10003799E-011
 0.87158727E-009  0.91413229E-012
 0.36103766E-009  0.57900256E-013
 0.13159439E-009 -0.81172463E-013
 0.33406307E-010  0.71125549E-014
 0.56545612E-008  0.32104688E-010
 0.35639538E-007  0.24508572E-009
 0.20843024E-006  0.15106890E-008
 0.13432995E-005  0.25497737E-008
 0.81285870E-005  0.35916908E-008
 0.17518545E-004  0.40103186E-008
 0.25826719E-004  0.10581335E-009
 0.30126232E-004 -0.59140496E-009
 0.18696768E-004 -0.16414539E-008
 0.99990681E-005 -0.44100836E-008
 0.46095386E-005 -0.29807757E-008
 0.18767358E-005 -0.15616614E-008
 0.56104642E-006 -0.68078537E-009
 0.84727632E-007 -0.28710803E-009
 0.58075911E-005  0.69328869E-007
 0.43587064E-004  0.41632503E-006
 0.27076358E-003  0.27321299E-005
 0.14531578E-002  0.17691670E-004
 0.69342559E-002  0.41872709E-004
 0.23808515E-001  0.53623976E-004
 0.35472024E-001  0.42506033E-004
 0.27534912E-001 -0.22274529E-004
 0.18898010E-001 -0.60091140E-004
 0.11281334E-001 -0.38079395E-004
 0.60596546E-002 -0.19713301E-004
 0.28744539E-002 -0.88891091E-005
 0.12692643E-002 -0.36409164E-005
 0.47592124E-003 -0.10077578E-005
 0.58064680E-005  0.87287680E-004
 0.43554337E-004  0.52448595E-003
 0.26381559E-003  0.25249722E-002
 0.11959021E-002  0.90216734E-002
 0.34493726E-002  0.17657683E-001
 0.60188075E-002  0.12261931E-001
 0.71204716E-002  0.94809946E-003
 0.61473032E-002 -0.63993593E-002
 0.49213328E-002 -0.67557369E-002
 0.36806110E-002 -0.64944131E-002
 0.24328375E-002 -0.53683349E-002
 0.14744451E-002 -0.39350128E-002
 0.72452785E-003 -0.24310508E-002
 0.29902915E-003 -0.13316407E-002
