 0.16817030E-036
 0.99000399E+000
 0.99000399E+000
 0.16817030E-036
 0.43506267E-037
 0.18011229E-027
 0.18011229E-027
 0.43506267E-037
-0.12271230E-033
 0.44788875E-030
 0.26538713E-027
 0.33729772E-023
 0.73339477E-020
 0.17191278E-015
 0.23654520E-011
 0.27747117E-007
 0.19490740E-003
 0.98978741E+000
 0.99000435E+000
 0.99000436E+000
 0.99000436E+000
 0.99000436E+000
 0.99000436E+000
 0.99000436E+000
 0.99000436E+000
 0.99000435E+000
 0.98978741E+000
 0.19490740E-003
 0.27747117E-007
 0.23654520E-011
 0.17191278E-015
 0.73339477E-020
 0.33729772E-023
 0.26538713E-027
 0.44788875E-030
-0.12271230E-033
-0.16864491E-036
 0.27180724E-036
-0.38296110E-036
 0.57090082E-036
-0.68984401E-036
 0.75197308E-036
-0.64407382E-036
 0.45236994E-036
-0.19571257E-036
 0.34955174E-038
 0.11139453E-036
-0.12567165E-036
 0.97721973E-037
-0.57405523E-037
-0.31518039E-034
 0.42700849E-031
 0.51908001E-030
 0.21198098E-029
 0.27066649E-029
 0.79830490E-029
 0.40906530E-028
 0.12634247E-027
 0.19802864E-027
 0.16212411E-027
 0.00000000E+000
 0.00000000E+000
 0.00000000E+000
 0.00000000E+000
 0.00000000E+000
 0.00000000E+000
 0.00000000E+000
 0.00000000E+000
 0.16212411E-027
 0.19802864E-027
 0.12634247E-027
 0.40906530E-028
 0.79830490E-029
 0.27066649E-029
 0.21198098E-029
 0.51908000E-030
 0.42700849E-031
-0.31518039E-034
-0.57405523E-037
 0.97721973E-037
-0.12567165E-036
 0.11139453E-036
 0.34955180E-038
-0.19571257E-036
 0.45236994E-036
-0.64407382E-036
 0.75197308E-036
-0.68984401E-036
 0.57090082E-036
-0.38296110E-036
 0.27180724E-036
-0.16864491E-036
 0.96761042E+000
 0.91359799E+000
 0.80652277E+000
 0.64105724E+000
 0.43354695E+000
 0.20819873E+000
 0.72285450E-002
 0.57586311E-006
 0.53879807E-009
 0.13319996E-009
 0.23360748E-012
 0.78550735E-016
 0.11553888E-019
 0.11396722E-023
 0.96761042E+000
 0.91359799E+000
 0.80652277E+000
 0.64105724E+000
 0.43354695E+000
 0.20819873E+000
 0.72285450E-002
 0.57586311E-006
 0.53879807E-009
 0.13319996E-009
 0.23360748E-012
 0.78550735E-016
 0.11553888E-019
 0.11396722E-023
 0.87534040E-024
 0.78878570E-020
 0.50295352E-016
 0.16679254E-012
 0.17618912E-009
 0.29315492E-008
 0.23093748E-005
 0.31713561E-001
 0.22305217E+000
 0.43443485E+000
 0.64109148E+000
 0.80875738E+000
 0.91329551E+000
 0.96736546E+000
 0.79434508E-024
 0.48620245E-020
 0.20020174E-016
 0.48589368E-013
 0.81705355E-010
 0.11289593E-006
 0.56989589E-004
 0.19962702E-003
 0.20530269E-003
 0.26751518E-003
 0.27163861E-003
 0.24944133E-003
 0.22550230E-003
 0.20618447E-003
 0.37420354E-024
 0.15780993E-020
 0.44180811E-017
 0.90725584E-014
 0.14760170E-010
 0.95003729E-008
 0.22428756E-007
 0.15984586E-007
 0.41392971E-007
 0.34263706E-007
 0.36624830E-007
 0.34384188E-007
 0.30612227E-007
 0.27798631E-007
 0.89605505E-025
 0.27391235E-021
 0.61428190E-018
 0.10251518E-014
 0.71311365E-012
 0.93518897E-012
 0.64900981E-012
 0.34133101E-011
 0.12534982E-011
 0.34675722E-011
 0.27447516E-011
 0.27808250E-011
 0.26518306E-011
 0.25613179E-011
 0.13014277E-025
 0.31178661E-022
 0.53452841E-019
 0.39374272E-016
 0.13187062E-016
 0.41897277E-016
 0.18689533E-015
-0.33097263E-016
 0.29800431E-015
 0.67309733E-016
 0.20994887E-015
 0.16655542E-015
 0.17017530E-015
 0.15653711E-015
 0.22407168E-026
 0.27955813E-023
 0.17162872E-020
-0.10372890E-020
 0.35327484E-020
 0.60123461E-020
-0.48605452E-020
 0.20328028E-019
-0.78733225E-020
 0.18508153E-019
 0.29201847E-020
 0.10290778E-019
 0.78256017E-020
 0.92095757E-020
 0.97490709E-027
 0.46600338E-024
-0.70968694E-024
 0.17969499E-023
 0.17130093E-024
-0.10724861E-023
 0.72937138E-023
-0.70526051E-023
 0.11391887E-022
-0.49278244E-023
 0.68072572E-023
 0.69885908E-024
 0.35062380E-023
 0.20126166E-023
 0.10728057E-027
-0.26075270E-027
 0.69105056E-027
-0.57296492E-027
 0.34779847E-027
 0.15625619E-026
-0.27986315E-026
 0.51335293E-026
-0.44868857E-026
 0.47966522E-026
-0.20870227E-026
 0.21576831E-026
-0.29043399E-028
 0.12112202E-026
-0.71087588E-031
 0.20944498E-030
-0.30537544E-030
 0.36055778E-030
 0.26767319E-031
-0.57510126E-030
 0.15755895E-029
-0.20654091E-029
 0.25066587E-029
-0.19432763E-029
 0.16312054E-029
-0.73134732E-030
 0.66301576E-030
-0.15647832E-030
 0.55727426E-034
-0.10132466E-033
 0.15768071E-033
-0.13060373E-033
 0.10034970E-034
 0.28788569E-033
-0.59643676E-033
 0.91323817E-033
-0.97361846E-033
 0.93467504E-033
-0.65851249E-033
 0.48360730E-033
-0.24330813E-033
 0.21757597E-033
 0.13953617E-023
 0.14001475E-019
 0.90442135E-016
 0.24068503E-012
 0.12372008E-009
 0.45164000E-009
 0.38916485E-006
 0.78776398E-002
 0.20867132E+000
 0.43352959E+000
 0.64105257E+000
 0.80651691E+000
 0.91359555E+000
 0.96761004E+000
 0.15167013E-023
 0.14798152E-019
 0.92049755E-016
 0.23670959E-012
 0.11544998E-009
 0.41756042E-009
 0.39486034E-006
 0.78646784E-002
 0.20866492E+000
 0.43353050E+000
 0.64105274E+000
 0.80651689E+000
 0.91359549E+000
 0.96761004E+000
 0.15494649E-023
 0.14892914E-019
 0.91577060E-016
 0.23372660E-012
 0.11389189E-009
 0.41851664E-009
 0.39474718E-006
 0.78648665E-002
 0.20866498E+000
 0.43353049E+000
 0.64105274E+000
 0.80651689E+000
 0.91359549E+000
 0.96761004E+000
 0.15530722E-023
 0.14869153E-019
 0.91302544E-016
 0.23329160E-012
 0.11393820E-009
 0.41849755E-009
 0.39474875E-006
 0.78648645E-002
 0.20866498E+000
 0.43353049E+000
 0.64105274E+000
 0.80651689E+000
 0.91359549E+000
 0.96761004E+000
 0.15530722E-023
 0.14869153E-019
 0.91302544E-016
 0.23329160E-012
 0.11393820E-009
 0.41849755E-009
 0.39474875E-006
 0.78648645E-002
 0.20866498E+000
 0.43353049E+000
 0.64105274E+000
 0.80651689E+000
 0.91359549E+000
 0.96761004E+000
 0.15494649E-023
 0.14892914E-019
 0.91577060E-016
 0.23372660E-012
 0.11389189E-009
 0.41851664E-009
 0.39474718E-006
 0.78648665E-002
 0.20866498E+000
 0.43353049E+000
 0.64105274E+000
 0.80651689E+000
 0.91359549E+000
 0.96761004E+000
 0.15167013E-023
 0.14798152E-019
 0.92049755E-016
 0.23670959E-012
 0.11544998E-009
 0.41756042E-009
 0.39486034E-006
 0.78646784E-002
 0.20866492E+000
 0.43353050E+000
 0.64105274E+000
 0.80651689E+000
 0.91359549E+000
 0.96761004E+000
 0.13953617E-023
 0.14001475E-019
 0.90442135E-016
 0.24068503E-012
 0.12372008E-009
 0.45164000E-009
 0.38916485E-006
 0.78776398E-002
 0.20867132E+000
 0.43352959E+000
 0.64105257E+000
 0.80651691E+000
 0.91359555E+000
 0.96761004E+000
 0.55727426E-034
-0.10132466E-033
 0.15768071E-033
-0.13060373E-033
 0.10034971E-034
 0.28788569E-033
-0.59643676E-033
 0.91323817E-033
-0.97361846E-033
 0.93467503E-033
-0.65851249E-033
 0.48360730E-033
-0.24330813E-033
 0.21757597E-033
-0.71087588E-031
 0.20944498E-030
-0.30537544E-030
 0.36055779E-030
 0.26767317E-031
-0.57510126E-030
 0.15755895E-029
-0.20654091E-029
 0.25066587E-029
-0.19432763E-029
 0.16312054E-029
-0.73134732E-030
 0.66301576E-030
-0.15647832E-030
 0.10728057E-027
-0.26075270E-027
 0.69105056E-027
-0.57296492E-027
 0.34779848E-027
 0.15625619E-026
-0.27986314E-026
 0.51335293E-026
-0.44868857E-026
 0.47966522E-026
-0.20870226E-026
 0.21576831E-026
-0.29043398E-028
 0.12112202E-026
 0.97490709E-027
 0.46600338E-024
-0.70968694E-024
 0.17969499E-023
 0.17130092E-024
-0.10724861E-023
 0.72937138E-023
-0.70526051E-023
 0.11391887E-022
-0.49278244E-023
 0.68072572E-023
 0.69885909E-024
 0.35062380E-023
 0.20126166E-023
 0.22407168E-026
 0.27955813E-023
 0.17162872E-020
-0.10372890E-020
 0.35327485E-020
 0.60123460E-020
-0.48605452E-020
 0.20328028E-019
-0.78733225E-020
 0.18508153E-019
 0.29201847E-020
 0.10290778E-019
 0.78256017E-020
 0.92095757E-020
 0.13014277E-025
 0.31178661E-022
 0.53452841E-019
 0.39374272E-016
 0.13187062E-016
 0.41897277E-016
 0.18689533E-015
-0.33097263E-016
 0.29800431E-015
 0.67309733E-016
 0.20994887E-015
 0.16655542E-015
 0.17017530E-015
 0.15653711E-015
 0.89605505E-025
 0.27391235E-021
 0.61428190E-018
 0.10251518E-014
 0.71311365E-012
 0.93518897E-012
 0.64900981E-012
 0.34133101E-011
 0.12534982E-011
 0.34675722E-011
 0.27447516E-011
 0.27808250E-011
 0.26518306E-011
 0.25613179E-011
 0.37420354E-024
 0.15780993E-020
 0.44180811E-017
 0.90725584E-014
 0.14760170E-010
 0.95003729E-008
 0.22428756E-007
 0.15984586E-007
 0.41392971E-007
 0.34263706E-007
 0.36624830E-007
 0.34384188E-007
 0.30612227E-007
 0.27798631E-007
 0.79434508E-024
 0.48620245E-020
 0.20020174E-016
 0.48589368E-013
 0.81705355E-010
 0.11289593E-006
 0.56989589E-004
 0.19962702E-003
 0.20530269E-003
 0.26751518E-003
 0.27163861E-003
 0.24944133E-003
 0.22550230E-003
 0.20618447E-003
 0.87534040E-024
 0.78878570E-020
 0.50295352E-016
 0.16679254E-012
 0.17618912E-009
 0.29315492E-008
 0.23093748E-005
 0.31713561E-001
 0.22305217E+000
 0.43443485E+000
 0.64109148E+000
 0.80875738E+000
 0.91329551E+000
 0.96736546E+000
