4.00000000E-005
3.99201612E-005
3.95674478E-005
3.90707715E-005
3.85356737E-005
3.79883113E-005
3.74329388E-005
3.68699354E-005
3.62990581E-005
3.57199498E-005
3.51322115E-005
3.45354089E-005
3.39290703E-005
3.33126819E-005
3.26856825E-005
3.20474568E-005
3.13973282E-005
3.07345501E-005
3.00582945E-005
2.93676400E-005
2.86615557E-005
2.79388823E-005
2.71983089E-005
2.64383429E-005
2.56572738E-005
2.48531249E-005
2.40235922E-005
2.31659628E-005
2.22770056E-005
2.13528216E-005
2.03886323E-005
1.93784752E-005
1.83147464E-005
1.71874893E-005
1.59832279E-005
1.46829314E-005
1.32581537E-005
1.16628328E-005
9.81537830E-006
0.00000000E+000
