# ALYA Lagrangian postprocess  
#
# HEADER
# T , Column :   1
# ILAGR , Column :   2
# ITYPE , Column :   3
# EXIST , Column :   4
# COORX , Column :   5
# COORY , Column :   6
# COORZ , Column :   7
# VELOX , Column :   8
# VELOY , Column :   9
# VELOZ , Column :  10
# DTK , Column :  11
# CD , Column :  12
# TEMPK , Column :  13
# MASSK , Column :  14
# DIAMK , Column :  15
#               T            ILAGR            ITYPE            EXIST            COORX            COORY            COORZ            VELOX            VELOY            VELOZ              DTK               CD            TEMPK            MASSK            DIAMK            
  0.00000000E+000                1                1               -5  0.00000000E+000  0.00000000E+000  0.00000000E+000  0.00000000E+000  0.00000000E+000  0.00000000E+000  6.00000000E-004  0.00000000E+000  2.73150000E+002  3.35546646E-011  4.00000000E-005
  6.00000000E-003                1                1               -1  0.00000000E+000 -1.18956969E-004  0.00000000E+000  0.00000000E+000 -3.25557290E-002  0.00000000E+000  6.00000000E-004  3.35236641E+002  2.94075821E+002  3.31785231E-011  3.99201612E-005
  1.20000000E-002                1                1               -1  0.00000000E+000 -3.43026179E-004  0.00000000E+000  0.00000000E+000 -4.02360177E-002  0.00000000E+000  6.00000000E-004  2.82468834E+002  3.01975216E+002  3.22400874E-011  3.95674478E-005
  1.80000000E-002                1                1               -1  0.00000000E+000 -5.89184961E-004  0.00000000E+000  0.00000000E+000 -4.13534453E-002  0.00000000E+000  6.00000000E-004  2.79936120E+002  3.03660492E+002  3.10273018E-011  3.90707715E-005
  2.40000000E-002                1                1               -1  0.00000000E+000 -8.35878013E-004  0.00000000E+000  0.00000000E+000 -4.07869756E-002  0.00000000E+000  6.00000000E-004  2.87825791E+002  3.03939188E+002  2.97676633E-011  3.85356737E-005
  3.00000000E-002                1                1               -1  0.00000000E+000 -1.07762253E-003  0.00000000E+000  0.00000000E+000 -3.98001927E-002  0.00000000E+000  6.00000000E-004  2.98983113E+002  3.03980788E+002  2.85168163E-011  3.79883113E-005
  3.60000000E-002                1                1               -1  0.00000000E+000 -1.31307157E-003  0.00000000E+000  0.00000000E+000 -3.87129770E-002  0.00000000E+000  6.00000000E-004  3.11647926E+002  3.03986428E+002  2.72842609E-011  3.74329388E-005
  4.20000000E-002                1                1               -1  0.00000000E+000 -1.54190870E-003  0.00000000E+000  0.00000000E+000 -3.76028526E-002  0.00000000E+000  6.00000000E-004  3.25430226E+002  3.03986959E+002  2.60715883E-011  3.68699354E-005
  4.80000000E-002                1                1               -1  0.00000000E+000 -1.76406285E-003  0.00000000E+000  0.00000000E+000 -3.64877546E-002  0.00000000E+000  6.00000000E-004  3.40312184E+002  3.03986806E+002  2.48792020E-011  3.62990581E-005
  5.40000000E-002                1                1               -1  0.00000000E+000 -1.97951877E-003  0.00000000E+000  0.00000000E+000 -3.53716515E-002  0.00000000E+000  6.00000000E-004  3.56382551E+002  3.03986565E+002  2.37073454E-011  3.57199498E-005
  6.00000000E-002                1                1               -1  0.00000000E+000 -2.18827335E-003  0.00000000E+000  0.00000000E+000 -3.42553920E-002  0.00000000E+000  6.00000000E-004  3.73769751E+002  3.03986311E+002  2.25562500E-011  3.51322115E-005
  6.60000000E-002                1                1               -1  0.00000000E+000 -2.39032605E-003  0.00000000E+000  0.00000000E+000 -3.31391616E-002  0.00000000E+000  6.00000000E-004  3.92627898E+002  3.03986054E+002  2.14261564E-011  3.45354089E-005
  7.20000000E-002                1                1               -1  0.00000000E+000 -2.58567692E-003  0.00000000E+000  0.00000000E+000 -3.20230124E-002  0.00000000E+000  6.00000000E-004  4.13136708E+002  3.03985793E+002  2.03173177E-011  3.39290703E-005
  7.80000000E-002                1                1               -1  0.00000000E+000 -2.77432619E-003  0.00000000E+000  0.00000000E+000 -3.09069720E-002  0.00000000E+000  6.00000000E-004  4.35505460E+002  3.03985530E+002  1.92300015E-011  3.33126819E-005
  8.40000000E-002                1                1               -1  0.00000000E+000 -2.95627421E-003  0.00000000E+000  0.00000000E+000 -2.97910646E-002  0.00000000E+000  6.00000000E-004  4.59978862E+002  3.03985263E+002  1.81644908E-011  3.26856825E-005
  9.00000000E-002                1                1               -1  0.00000000E+000 -3.13152142E-003  0.00000000E+000  0.00000000E+000 -2.86753156E-002  0.00000000E+000  6.00000000E-004  4.86844608E+002  3.03984993E+002  1.71210856E-011  3.20474568E-005
  9.60000000E-002                1                1               -1  0.00000000E+000 -3.30006838E-003  0.00000000E+000  0.00000000E+000 -2.75597516E-002  0.00000000E+000  6.00000000E-004  5.16442949E+002  3.03984719E+002  1.61001046E-011  3.13973282E-005
  1.02000000E-001                1                1               -1  0.00000000E+000 -3.46191576E-003  0.00000000E+000  0.00000000E+000 -2.64444018E-002  0.00000000E+000  6.00000000E-004  5.49178925E+002  3.03984442E+002  1.51018875E-011  3.07345501E-005
  1.08000000E-001                1                1               -1  0.00000000E+000 -3.61706432E-003  0.00000000E+000  0.00000000E+000 -2.53292977E-002  0.00000000E+000  6.00000000E-004  5.85538083E+002  3.03984162E+002  1.41267965E-011  3.00582945E-005
  1.14000000E-001                1                1               -1  0.00000000E+000 -3.76551496E-003  0.00000000E+000  0.00000000E+000 -2.42144736E-002  0.00000000E+000  6.00000000E-004  6.26106931E+002  3.03983877E+002  1.31752195E-011  2.93676400E-005
  1.20000000E-001                1                1               -1  0.00000000E+000 -3.90726868E-003  0.00000000E+000  0.00000000E+000 -2.30999673E-002  0.00000000E+000  6.00000000E-004  6.71599798E+002  3.03983588E+002  1.22475727E-011  2.86615557E-005
  1.26000000E-001                1                1               -1  0.00000000E+000 -4.04232662E-003  0.00000000E+000  0.00000000E+000 -2.19858209E-002  0.00000000E+000  6.00000000E-004  7.22894588E+002  3.03983295E+002  1.13443043E-011  2.79388823E-005
  1.32000000E-001                1                1               -1  0.00000000E+000 -4.17069005E-003  0.00000000E+000  0.00000000E+000 -2.08720812E-002  0.00000000E+000  6.00000000E-004  7.81080954E+002  3.03982997E+002  1.04658986E-011  2.71983089E-005
  1.38000000E-001                1                1               -1  0.00000000E+000 -4.29236036E-003  0.00000000E+000  0.00000000E+000 -1.97588009E-002  0.00000000E+000  6.00000000E-004  8.47526174E+002  3.03982694E+002  9.61288057E-012  2.64383429E-005
  1.44000000E-001                1                1               -1  0.00000000E+000 -4.40733908E-003  0.00000000E+000  0.00000000E+000 -1.86460401E-002  0.00000000E+000  6.00000000E-004  9.23966677E+002  3.03982385E+002  8.78582228E-012  2.56572738E-005
  1.50000000E-001                1                1               -1  0.00000000E+000 -4.51562789E-003  0.00000000E+000  0.00000000E+000 -1.75338680E-002  0.00000000E+000  6.00000000E-004  1.01263745E+003  3.03982071E+002  7.98534956E-012  2.48531249E-005
  1.56000000E-001                1                1               -1  0.00000000E+000 -4.61722860E-003  0.00000000E+000  0.00000000E+000 -1.64223652E-002  0.00000000E+000  6.00000000E-004  1.11645863E+003  3.03981751E+002  7.21215086E-012  2.40235922E-005
  1.62000000E-001                1                1               -1  0.00000000E+000 -4.71214318E-003  0.00000000E+000  0.00000000E+000 -1.53116266E-002  0.00000000E+000  6.00000000E-004  1.23931054E+003  3.03981425E+002  6.46698810E-012  2.31659628E-005
  1.68000000E-001                1                1               -1  0.00000000E+000 -4.80037372E-003  0.00000000E+000  0.00000000E+000 -1.42017653E-002  0.00000000E+000  6.00000000E-004  1.38644928E+003  3.03981091E+002  5.75071019E-012  2.22770056E-005
  1.74000000E-001                1                1               -1  0.00000000E+000 -4.88192249E-003  0.00000000E+000  0.00000000E+000 -1.30929183E-002  0.00000000E+000  6.00000000E-004  1.56515273E+003  3.03980749E+002  5.06427045E-012  2.13528216E-005
  1.80000000E-001                1                1               -1  0.00000000E+000 -4.95679186E-003  0.00000000E+000  0.00000000E+000 -1.19852523E-002  0.00000000E+000  6.00000000E-004  1.78575779E+003  3.03980399E+002  4.40874925E-012  2.03886323E-005
  1.86000000E-001                1                1               -1  0.00000000E+000 -5.02498438E-003  0.00000000E+000  0.00000000E+000 -1.08789727E-002  0.00000000E+000  6.00000000E-004  2.06339050E+003  3.03980039E+002  3.78538417E-012  1.93784752E-005
  1.92000000E-001                1                1               -1  0.00000000E+000 -5.08650265E-003  0.00000000E+000  0.00000000E+000 -9.77433183E-003  0.00000000E+000  6.00000000E-004  2.42098314E+003  3.03979669E+002  3.19561117E-012  1.83147464E-005
  1.98000000E-001                1                1               -1  0.00000000E+000 -5.14134940E-003  0.00000000E+000  0.00000000E+000 -8.67163637E-003  0.00000000E+000  6.00000000E-004  2.89482616E+003  3.03979288E+002  2.64112265E-012  1.71874893E-005
  2.04000000E-001                1                1               -1  0.00000000E+000 -5.18952736E-003  0.00000000E+000  0.00000000E+000 -7.57124297E-003  0.00000000E+000  6.00000000E-004  3.54547791E+003  3.03978893E+002  2.12395235E-012  1.59832279E-005
  2.10000000E-001                1                1               -1  0.00000000E+000 -5.23103917E-003  0.00000000E+000  0.00000000E+000 -6.47351946E-003  0.00000000E+000  6.00000000E-004  4.48104801E+003  3.03978484E+002  1.64660581E-012  1.46829314E-005
  2.16000000E-001                1                1               -1  0.00000000E+000 -5.26588721E-003  0.00000000E+000  0.00000000E+000 -5.37871311E-003  0.00000000E+000  6.00000000E-004  5.91251750E+003  3.03978056E+002  1.21227329E-012  1.32581537E-005
  2.22000000E-001                1                1               -1  0.00000000E+000 -5.29407309E-003  0.00000000E+000  0.00000000E+000 -4.28660783E-003  0.00000000E+000  6.00000000E-004  8.30577905E+003  3.03977598E+002  8.25208303E-013  1.16628328E-005
  2.28000000E-001                1                1               -1  0.00000000E+000 -5.31554327E-003  0.00000000E+000  0.00000000E+000 -3.19647412E-003  0.00000000E+000  6.00000000E-004  1.28935373E+004  3.03977131E+002  4.91895243E-013  9.81537830E-006
  2.34000000E-001                1                1               -6  0.00000000E+000 -5.33025799E-003  0.00000000E+000  0.00000000E+000 -2.10753037E-003  0.00000000E+000  4.16666667E-004  2.40749608E+004  3.03976864E+002  0.00000000E+000  0.00000000E+000
