2.73150000E+002
2.94075821E+002
3.01975216E+002
3.03660492E+002
3.03939188E+002
3.03980788E+002
3.03986428E+002
3.03986959E+002
3.03986806E+002
3.03986565E+002
3.03986311E+002
3.03986054E+002
3.03985793E+002
3.03985530E+002
3.03985263E+002
3.03984993E+002
3.03984719E+002
3.03984442E+002
3.03984162E+002
3.03983877E+002
3.03983588E+002
3.03983295E+002
3.03982997E+002
3.03982694E+002
3.03982385E+002
3.03982071E+002
3.03981751E+002
3.03981425E+002
3.03981091E+002
3.03980749E+002
3.03980399E+002
3.03980039E+002
3.03979669E+002
3.03979288E+002
3.03978893E+002
3.03978484E+002
3.03978056E+002
3.03977598E+002
3.03977131E+002
3.03976864E+002
