0.00000000E+000
-1.18956969E-004
-3.43026179E-004
-5.89184961E-004
-8.35878013E-004
-1.07762253E-003
-1.31307157E-003
-1.54190870E-003
-1.76406285E-003
-1.97951877E-003
-2.18827335E-003
-2.39032605E-003
-2.58567692E-003
-2.77432619E-003
-2.95627421E-003
-3.13152142E-003
-3.30006838E-003
-3.46191576E-003
-3.61706432E-003
-3.76551496E-003
-3.90726868E-003
-4.04232662E-003
-4.17069005E-003
-4.29236036E-003
-4.40733908E-003
-4.51562789E-003
-4.61722860E-003
-4.71214318E-003
-4.80037372E-003
-4.88192249E-003
-4.95679186E-003
-5.02498438E-003
-5.08650265E-003
-5.14134940E-003
-5.18952736E-003
-5.23103917E-003
-5.26588721E-003
-5.29407309E-003
-5.31554327E-003
-5.33025799E-003
