GiD Post Results File 1.0
 
Result VELOC ALYA  0.49697761E+02 Vector OnNodes
ComponentNames VELOC_X,VELOC_Y,VELOC_Z
Values
          1  0.00000000E+000  0.00000000E+000
          2  0.45000000E-001 -0.23767198E-016
          3  0.80000000E-001  0.42980655E-016
          4  0.10500000E+000 -0.74215455E-016
          5  0.12000000E+000  0.20808451E-015
          6  0.00000000E+000  0.00000000E+000
          7  0.12500000E+000 -0.26036427E-015
          8  0.45000000E-001  0.10370897E-016
          9  0.80000000E-001  0.84434190E-016
         10  0.10500000E+000 -0.88827312E-016
         11  0.12000000E+000  0.26670705E-015
         12  0.12000000E+000  0.18757686E-015
         13  0.10500000E+000 -0.33685518E-015
         14  0.12500000E+000 -0.25859793E-015
         15  0.12000000E+000  0.32651336E-015
         16  0.80000000E-001  0.26459215E-015
         17  0.10500000E+000 -0.31148839E-015
         18  0.45000000E-001 -0.12086846E-015
         19  0.80000000E-001  0.24848487E-015
         20  0.00000000E+000  0.00000000E+000
         21  0.00000000E+000  0.00000000E+000
         22  0.45000000E-001 -0.28668070E-016
         23  0.80000000E-001  0.73503625E-016
         24  0.45000000E-001 -0.15224595E-015
         25  0.10500000E+000 -0.15077841E-015
         26  0.12000000E+000  0.22058363E-015
         27  0.00000000E+000  0.00000000E+000
         28  0.12500000E+000 -0.30558270E-015
         29  0.12000000E+000  0.37831220E-015
         30  0.10500000E+000 -0.32154000E-015
         31  0.80000000E-001  0.31800181E-015
         32  0.45000000E-001 -0.13472676E-015
         33  0.00000000E+000  0.00000000E+000
         34  0.00000000E+000  0.00000000E+000
         35  0.45000000E-001 -0.69436576E-016
         36  0.80000000E-001  0.78685762E-016
         37  0.10500000E+000 -0.21556608E-015
         38  0.12000000E+000  0.28751226E-015
         39  0.12500000E+000 -0.38759505E-015
         40  0.12000000E+000  0.41752102E-015
         41  0.10500000E+000 -0.39151176E-015
         42  0.80000000E-001  0.35688764E-015
         43  0.45000000E-001 -0.14993709E-015
         44  0.00000000E+000  0.00000000E+000
         45  0.00000000E+000  0.00000000E+000
         46  0.45000000E-001 -0.57033266E-016
         47  0.80000000E-001  0.15174310E-015
         48  0.10500000E+000 -0.26629026E-015
         49  0.12000000E+000  0.32910059E-015
         50  0.12500000E+000 -0.44931154E-015
         51  0.12000000E+000  0.49491671E-015
         52  0.10500000E+000 -0.44888558E-015
         53  0.80000000E-001  0.34197940E-015
         54  0.45000000E-001 -0.20898383E-015
         55  0.00000000E+000  0.00000000E+000
         56  0.00000000E+000  0.00000000E+000
         57  0.45000000E-001 -0.89106260E-016
         58  0.80000000E-001  0.16511299E-015
         59  0.10500000E+000 -0.25251760E-015
         60  0.12000000E+000  0.40668669E-015
         61  0.12500000E+000 -0.46859165E-015
         62  0.12000000E+000  0.48756151E-015
         63  0.10500000E+000 -0.53171309E-015
         64  0.80000000E-001  0.35347625E-015
         65  0.45000000E-001 -0.21556586E-015
         66  0.00000000E+000  0.00000000E+000
         67  0.00000000E+000  0.00000000E+000
         68  0.45000000E-001 -0.56676559E-016
         69  0.80000000E-001  0.17359898E-015
         70  0.10500000E+000 -0.27386638E-015
         71  0.12000000E+000  0.35981151E-015
         72  0.12500000E+000 -0.46286423E-015
         73  0.12000000E+000  0.51515273E-015
         74  0.10500000E+000 -0.47628278E-015
         75  0.80000000E-001  0.37303788E-015
         76  0.45000000E-001 -0.21084067E-015
         77  0.00000000E+000  0.00000000E+000
         78  0.00000000E+000  0.00000000E+000
         79  0.45000000E-001 -0.83831423E-016
         80  0.80000000E-001  0.10843668E-015
         81  0.10500000E+000 -0.26860450E-015
         82  0.12000000E+000  0.30253466E-015
         83  0.12500000E+000 -0.42000607E-015
         84  0.12000000E+000  0.46850389E-015
         85  0.10500000E+000 -0.39811236E-015
         86  0.80000000E-001  0.38575007E-015
         87  0.45000000E-001 -0.16349500E-015
         88  0.00000000E+000  0.00000000E+000
         89  0.00000000E+000  0.00000000E+000
         90  0.45000000E-001 -0.88327024E-016
         91  0.80000000E-001  0.59403564E-016
         92  0.10500000E+000 -0.21468208E-015
         93  0.12000000E+000  0.24288873E-015
         94  0.12500000E+000 -0.33816454E-015
         95  0.12000000E+000  0.39310179E-015
         96  0.10500000E+000 -0.35756816E-015
         97  0.80000000E-001  0.33290331E-015
         98  0.45000000E-001 -0.15966247E-015
         99  0.00000000E+000  0.00000000E+000
        100  0.00000000E+000  0.00000000E+000
        101  0.45000000E-001 -0.30821334E-016
        102  0.80000000E-001  0.44562222E-016
        103  0.10500000E+000 -0.16228240E-015
        104  0.12000000E+000  0.17661850E-015
        105  0.12500000E+000 -0.26067126E-015
        106  0.12000000E+000  0.36689549E-015
        107  0.10500000E+000 -0.30580498E-015
        108  0.80000000E-001  0.26088804E-015
        109  0.45000000E-001 -0.18159283E-015
        110  0.00000000E+000  0.00000000E+000
        111  0.00000000E+000  0.00000000E+000
        112  0.45000000E-001 -0.23767198E-016
        113  0.80000000E-001  0.42980655E-016
        114  0.10500000E+000 -0.74215455E-016
        115  0.12000000E+000  0.20808451E-015
        116  0.12500000E+000 -0.26036427E-015
        117  0.12000000E+000  0.26670705E-015
        118  0.10500000E+000 -0.33685518E-015
        119  0.80000000E-001  0.26459215E-015
        120  0.45000000E-001 -0.12086846E-015
        121  0.00000000E+000  0.00000000E+000
End values

Result PRESS ALYA  0.49697761E+02 Scalar OnNodes
ComponentNames PRESS
Values
          1  0.10000000E+001
          2  0.10000000E+001
          3  0.10000000E+001
          4  0.10000000E+001
          5  0.10000000E+001
          6  0.10000000E+001
          7  0.10000000E+001
          8  0.10000000E+001
          9  0.10000000E+001
         10  0.10000000E+001
         11  0.10000000E+001
         12  0.10000000E+001
         13  0.10000000E+001
         14  0.10000000E+001
         15  0.10000000E+001
         16  0.10000000E+001
         17  0.10000000E+001
         18  0.10000000E+001
         19  0.10000000E+001
         20  0.10000000E+001
         21  0.10000000E+001
         22  0.10000000E+001
         23  0.10000000E+001
         24  0.10000000E+001
         25  0.10000000E+001
         26  0.10000000E+001
         27  0.10000000E+001
         28  0.10000000E+001
         29  0.10000000E+001
         30  0.10000000E+001
         31  0.10000000E+001
         32  0.10000000E+001
         33  0.10000000E+001
         34  0.10000000E+001
         35  0.10000000E+001
         36  0.10000000E+001
         37  0.10000000E+001
         38  0.10000000E+001
         39  0.10000000E+001
         40  0.10000000E+001
         41  0.10000000E+001
         42  0.10000000E+001
         43  0.10000000E+001
         44  0.10000000E+001
         45  0.10000000E+001
         46  0.10000000E+001
         47  0.10000000E+001
         48  0.10000000E+001
         49  0.10000000E+001
         50  0.10000000E+001
         51  0.10000000E+001
         52  0.10000000E+001
         53  0.10000000E+001
         54  0.10000000E+001
         55  0.10000000E+001
         56  0.10000000E+001
         57  0.10000000E+001
         58  0.10000000E+001
         59  0.10000000E+001
         60  0.10000000E+001
         61  0.10000000E+001
         62  0.10000000E+001
         63  0.10000000E+001
         64  0.10000000E+001
         65  0.10000000E+001
         66  0.10000000E+001
         67  0.10000000E+001
         68  0.10000000E+001
         69  0.10000000E+001
         70  0.10000000E+001
         71  0.10000000E+001
         72  0.10000000E+001
         73  0.10000000E+001
         74  0.10000000E+001
         75  0.10000000E+001
         76  0.10000000E+001
         77  0.10000000E+001
         78  0.10000000E+001
         79  0.10000000E+001
         80  0.10000000E+001
         81  0.10000000E+001
         82  0.10000000E+001
         83  0.10000000E+001
         84  0.10000000E+001
         85  0.10000000E+001
         86  0.10000000E+001
         87  0.10000000E+001
         88  0.10000000E+001
         89  0.10000000E+001
         90  0.10000000E+001
         91  0.10000000E+001
         92  0.10000000E+001
         93  0.10000000E+001
         94  0.10000000E+001
         95  0.10000000E+001
         96  0.10000000E+001
         97  0.10000000E+001
         98  0.10000000E+001
         99  0.10000000E+001
        100  0.10000000E+001
        101  0.10000000E+001
        102  0.10000000E+001
        103  0.10000000E+001
        104  0.10000000E+001
        105  0.10000000E+001
        106  0.10000000E+001
        107  0.10000000E+001
        108  0.10000000E+001
        109  0.10000000E+001
        110  0.10000000E+001
        111  0.10000000E+001
        112  0.10000000E+001
        113  0.10000000E+001
        114  0.10000000E+001
        115  0.10000000E+001
        116  0.10000000E+001
        117  0.10000000E+001
        118  0.10000000E+001
        119  0.10000000E+001
        120  0.10000000E+001
        121  0.10000000E+001
End values

