$-------------------------------------------------------------------
RUN_DATA
  ALYA:                   1D_FLAME_fluid
  CODE=                   1
  LIVE_INFO:              Screen
  RUN_TYPE:               NOCONTI,PRELIMINARY,FREQUENCY=5000
END_RUN_DATA
$-------------------------------------------------------------------
PROBLEM_DATA
  TIME_COUPLING:          Global, PRESCRIBED  $$$$FROMCRIT
  NUMBER_OF_STEPS:        10
  TIMESTEP:               5.0e-7

  MAXIMUM_NUMBER_GLOBAL:  1
  BLOCK_ITERATION: 1
     1 CHEMIC, NASTIN
  END_BLOCK_ITERATION

  NASTIN_PROBLEM:         ON
  END_NASTIN 
  CHEMIC_PROBLEM:         ON
  END_CHEMIC

  PARALL_SERVICE:         ON
    METHOD:               METIS
    PARTITION_TYPE:       FACES
    OPENMP:
      COLORING: MINCO
    END_OPENMP
  END_PARALL

END_PROBLEM_DATA
$-------------------------------------------------------------------
MPI_IO: ON
  GEOMETRY: OFF
  RESTART: ON
  POSTPROCESS: OFF
END_MPI_IO
$-------------------------------------------------------------------
