GiD Post Results File 1.0
 
Result VELNO ALYA  0.00000000E+00 Vector OnNodes
ComponentNames VELNO_X,VELNO_Y,VELNO_Z
Values
          1  0.00000000E+000  0.00000000E+000
          2  0.00000000E+000  0.00000000E+000
          3  0.00000000E+000  0.00000000E+000
          4  0.00000000E+000  0.00000000E+000
          5  0.00000000E+000  0.00000000E+000
          6  0.00000000E+000  0.00000000E+000
          7  0.00000000E+000  0.00000000E+000
          8  0.00000000E+000  0.00000000E+000
          9  0.00000000E+000  0.00000000E+000
         10  0.00000000E+000  0.00000000E+000
         11  0.00000000E+000  0.00000000E+000
         12  0.00000000E+000  0.00000000E+000
         13  0.00000000E+000  0.00000000E+000
         14  0.00000000E+000  0.00000000E+000
         15  0.00000000E+000  0.00000000E+000
         16  0.00000000E+000  0.00000000E+000
         17  0.00000000E+000  0.00000000E+000
         18  0.00000000E+000  0.00000000E+000
         19  0.00000000E+000  0.00000000E+000
         20  0.00000000E+000  0.00000000E+000
         21  0.00000000E+000  0.00000000E+000
         22  0.00000000E+000  0.00000000E+000
         23  0.00000000E+000  0.00000000E+000
         24  0.00000000E+000  0.00000000E+000
         25  0.00000000E+000  0.00000000E+000
         26  0.00000000E+000  0.00000000E+000
         27  0.00000000E+000  0.00000000E+000
         28  0.00000000E+000  0.00000000E+000
         29  0.00000000E+000  0.00000000E+000
         30  0.00000000E+000  0.00000000E+000
         31  0.00000000E+000  0.00000000E+000
         32  0.00000000E+000  0.00000000E+000
         33  0.00000000E+000  0.00000000E+000
         34  0.00000000E+000  0.00000000E+000
         35  0.00000000E+000  0.00000000E+000
         36  0.00000000E+000  0.00000000E+000
         37  0.00000000E+000  0.00000000E+000
         38  0.00000000E+000  0.00000000E+000
         39  0.00000000E+000  0.00000000E+000
         40  0.00000000E+000  0.00000000E+000
         41  0.00000000E+000  0.00000000E+000
         42  0.00000000E+000  0.00000000E+000
         43  0.00000000E+000  0.00000000E+000
         44  0.00000000E+000  0.00000000E+000
         45  0.00000000E+000  0.00000000E+000
         46  0.00000000E+000  0.00000000E+000
         47  0.00000000E+000  0.00000000E+000
         48  0.00000000E+000  0.00000000E+000
         49  0.00000000E+000  0.00000000E+000
         50  0.00000000E+000  0.00000000E+000
         51  0.00000000E+000  0.00000000E+000
         52  0.00000000E+000  0.00000000E+000
         53  0.00000000E+000  0.00000000E+000
         54  0.00000000E+000  0.00000000E+000
         55  0.00000000E+000  0.00000000E+000
         56  0.00000000E+000  0.00000000E+000
         57  0.00000000E+000  0.00000000E+000
         58  0.00000000E+000  0.00000000E+000
         59  0.00000000E+000  0.00000000E+000
         60  0.00000000E+000  0.00000000E+000
         61  0.00000000E+000  0.00000000E+000
         62  0.00000000E+000  0.00000000E+000
         63  0.00000000E+000  0.00000000E+000
         64  0.00000000E+000  0.00000000E+000
         65  0.00000000E+000  0.00000000E+000
         66  0.00000000E+000  0.00000000E+000
         67  0.00000000E+000  0.00000000E+000
         68  0.00000000E+000  0.00000000E+000
         69  0.00000000E+000  0.00000000E+000
         70  0.00000000E+000  0.00000000E+000
         71  0.00000000E+000  0.00000000E+000
         72  0.00000000E+000  0.00000000E+000
         73  0.00000000E+000  0.00000000E+000
         74  0.00000000E+000  0.00000000E+000
         75  0.00000000E+000  0.00000000E+000
         76  0.00000000E+000  0.00000000E+000
         77  0.00000000E+000  0.00000000E+000
         78  0.00000000E+000  0.00000000E+000
         79  0.00000000E+000  0.00000000E+000
         80  0.00000000E+000  0.00000000E+000
         81  0.00000000E+000  0.00000000E+000
         82  0.00000000E+000  0.00000000E+000
         83  0.00000000E+000  0.00000000E+000
         84  0.00000000E+000  0.00000000E+000
         85  0.00000000E+000  0.00000000E+000
         86  0.00000000E+000  0.00000000E+000
         87  0.10833333E+000  0.19166667E+000
         88  0.00000000E+000  0.00000000E+000
         89  0.00000000E+000  0.00000000E+000
         90  0.00000000E+000  0.00000000E+000
         91  0.35000000E+000  0.65000000E+000
         92  0.00000000E+000  0.00000000E+000
         93  0.00000000E+000  0.00000000E+000
         94  0.55000000E+000  0.10500000E+001
         95  0.00000000E+000  0.00000000E+000
         96  0.00000000E+000  0.00000000E+000
         97  0.00000000E+000  0.00000000E+000
         98  0.75000000E+000  0.14500000E+001
         99  0.00000000E+000  0.00000000E+000
        100  0.00000000E+000  0.00000000E+000
        101  0.00000000E+000  0.00000000E+000
        102  0.95000000E+000  0.18500000E+001
        103  0.00000000E+000  0.00000000E+000
        104  0.00000000E+000  0.00000000E+000
        105  0.11500000E+001  0.22500000E+001
        106  0.00000000E+000  0.00000000E+000
        107  0.00000000E+000  0.00000000E+000
        108  0.00000000E+000  0.00000000E+000
        109  0.00000000E+000  0.00000000E+000
        110  0.13500000E+001  0.26500000E+001
        111  0.00000000E+000  0.00000000E+000
        112  0.00000000E+000  0.00000000E+000
        113  0.00000000E+000  0.00000000E+000
        114  0.00000000E+000  0.00000000E+000
        115  0.15500000E+001  0.30500000E+001
        116  0.00000000E+000  0.00000000E+000
        117  0.17500000E+001  0.34500000E+001
        118  0.00000000E+000  0.00000000E+000
        119  0.19500000E+001  0.38500000E+001
        120  0.00000000E+000  0.00000000E+000
        121  0.10416667E+001  0.20583333E+001
End values

Result VELNO ALYA  0.50095941E+00 Vector OnNodes
ComponentNames VELNO_X,VELNO_Y,VELNO_Z
Values
          1  0.00000000E+000  0.00000000E+000
          2  0.00000000E+000  0.00000000E+000
          3  0.00000000E+000  0.00000000E+000
          4  0.00000000E+000  0.00000000E+000
          5  0.00000000E+000  0.00000000E+000
          6  0.00000000E+000  0.00000000E+000
          7  0.00000000E+000  0.00000000E+000
          8  0.00000000E+000  0.00000000E+000
          9  0.00000000E+000  0.00000000E+000
         10  0.00000000E+000  0.00000000E+000
         11  0.00000000E+000  0.00000000E+000
         12  0.00000000E+000  0.00000000E+000
         13  0.00000000E+000  0.00000000E+000
         14  0.00000000E+000  0.00000000E+000
         15  0.00000000E+000  0.00000000E+000
         16  0.00000000E+000  0.00000000E+000
         17  0.00000000E+000  0.00000000E+000
         18  0.00000000E+000  0.00000000E+000
         19  0.00000000E+000  0.00000000E+000
         20  0.00000000E+000  0.00000000E+000
         21  0.00000000E+000  0.00000000E+000
         22  0.00000000E+000  0.00000000E+000
         23  0.00000000E+000  0.00000000E+000
         24  0.00000000E+000  0.00000000E+000
         25  0.00000000E+000  0.00000000E+000
         26  0.00000000E+000  0.00000000E+000
         27  0.00000000E+000  0.00000000E+000
         28  0.00000000E+000  0.00000000E+000
         29  0.00000000E+000  0.00000000E+000
         30  0.00000000E+000  0.00000000E+000
         31  0.00000000E+000  0.00000000E+000
         32  0.00000000E+000  0.00000000E+000
         33  0.00000000E+000  0.00000000E+000
         34  0.00000000E+000  0.00000000E+000
         35  0.00000000E+000  0.00000000E+000
         36  0.00000000E+000  0.00000000E+000
         37  0.00000000E+000  0.00000000E+000
         38  0.00000000E+000  0.00000000E+000
         39  0.00000000E+000  0.00000000E+000
         40  0.00000000E+000  0.00000000E+000
         41  0.00000000E+000  0.00000000E+000
         42  0.00000000E+000  0.00000000E+000
         43  0.00000000E+000  0.00000000E+000
         44  0.00000000E+000  0.00000000E+000
         45  0.00000000E+000  0.00000000E+000
         46  0.00000000E+000  0.00000000E+000
         47  0.00000000E+000  0.00000000E+000
         48  0.00000000E+000  0.00000000E+000
         49  0.00000000E+000  0.00000000E+000
         50  0.00000000E+000  0.00000000E+000
         51  0.00000000E+000  0.00000000E+000
         52  0.00000000E+000  0.00000000E+000
         53  0.00000000E+000  0.00000000E+000
         54  0.00000000E+000  0.00000000E+000
         55  0.00000000E+000  0.00000000E+000
         56  0.00000000E+000  0.00000000E+000
         57  0.00000000E+000  0.00000000E+000
         58  0.00000000E+000  0.00000000E+000
         59  0.00000000E+000  0.00000000E+000
         60  0.00000000E+000  0.00000000E+000
         61  0.00000000E+000  0.00000000E+000
         62  0.00000000E+000  0.00000000E+000
         63  0.00000000E+000  0.00000000E+000
         64  0.00000000E+000  0.00000000E+000
         65  0.00000000E+000  0.00000000E+000
         66  0.00000000E+000  0.00000000E+000
         67  0.00000000E+000  0.00000000E+000
         68  0.00000000E+000  0.00000000E+000
         69  0.00000000E+000  0.00000000E+000
         70  0.00000000E+000  0.00000000E+000
         71  0.00000000E+000  0.00000000E+000
         72  0.00000000E+000  0.00000000E+000
         73  0.00000000E+000  0.00000000E+000
         74  0.00000000E+000  0.00000000E+000
         75  0.00000000E+000  0.00000000E+000
         76  0.00000000E+000  0.00000000E+000
         77  0.00000000E+000  0.00000000E+000
         78  0.00000000E+000  0.00000000E+000
         79  0.00000000E+000  0.00000000E+000
         80  0.00000000E+000  0.00000000E+000
         81  0.00000000E+000  0.00000000E+000
         82  0.00000000E+000  0.00000000E+000
         83  0.00000000E+000  0.00000000E+000
         84  0.00000000E+000  0.00000000E+000
         85  0.00000000E+000  0.00000000E+000
         86  0.00000000E+000  0.00000000E+000
         87  0.10833333E+000  0.19166667E+000
         88  0.00000000E+000  0.00000000E+000
         89  0.00000000E+000  0.00000000E+000
         90  0.00000000E+000  0.00000000E+000
         91  0.35000000E+000  0.65000000E+000
         92  0.00000000E+000  0.00000000E+000
         93  0.00000000E+000  0.00000000E+000
         94  0.55000000E+000  0.10500000E+001
         95  0.00000000E+000  0.00000000E+000
         96  0.00000000E+000  0.00000000E+000
         97  0.00000000E+000  0.00000000E+000
         98  0.75000000E+000  0.14500000E+001
         99  0.00000000E+000  0.00000000E+000
        100  0.00000000E+000  0.00000000E+000
        101  0.00000000E+000  0.00000000E+000
        102  0.95000000E+000  0.18500000E+001
        103  0.00000000E+000  0.00000000E+000
        104  0.00000000E+000  0.00000000E+000
        105  0.11500000E+001  0.22500000E+001
        106  0.00000000E+000  0.00000000E+000
        107  0.00000000E+000  0.00000000E+000
        108  0.00000000E+000  0.00000000E+000
        109  0.00000000E+000  0.00000000E+000
        110  0.13500000E+001  0.26500000E+001
        111  0.00000000E+000  0.00000000E+000
        112  0.00000000E+000  0.00000000E+000
        113  0.00000000E+000  0.00000000E+000
        114  0.00000000E+000  0.00000000E+000
        115  0.15500000E+001  0.30500000E+001
        116  0.00000000E+000  0.00000000E+000
        117  0.17500000E+001  0.34500000E+001
        118  0.00000000E+000  0.00000000E+000
        119  0.19500000E+001  0.38500000E+001
        120  0.00000000E+000  0.00000000E+000
        121  0.10416667E+001  0.20583333E+001
End values

Result VELOC ALYA  0.50095941E+00 Vector OnNodes
ComponentNames VELOC_X,VELOC_Y,VELOC_Z
Values
          1  0.30000000E+001  0.50000000E+001
          2  0.27000000E+001  0.45000000E+001
          3  0.32000000E+001  0.54000000E+001
          4  0.29000000E+001  0.49000000E+001
          5  0.24000000E+001  0.40000000E+001
          6  0.34000000E+001  0.58000000E+001
          7  0.31000000E+001  0.53000000E+001
          8  0.26000000E+001  0.44000000E+001
          9  0.28000000E+001  0.48000000E+001
         10  0.21000000E+001  0.35000000E+001
         11  0.36000000E+001  0.62000000E+001
         12  0.33000000E+001  0.57000000E+001
         13  0.23000000E+001  0.39000000E+001
         14  0.30000000E+001  0.52000000E+001
         15  0.25000000E+001  0.43000000E+001
         16  0.38000000E+001  0.66000000E+001
         17  0.18000000E+001  0.30000000E+001
         18  0.35000000E+001  0.61000000E+001
         19  0.20000000E+001  0.34000000E+001
         20  0.27000000E+001  0.47000000E+001
         21  0.32000000E+001  0.56000000E+001
         22  0.22000000E+001  0.38000000E+001
         23  0.15000000E+001  0.25000000E+001
         24  0.29000000E+001  0.51000000E+001
         25  0.40000000E+001  0.70000000E+001
         26  0.24000000E+001  0.42000000E+001
         27  0.37000000E+001  0.65000000E+001
         28  0.17000000E+001  0.29000000E+001
         29  0.34000000E+001  0.60000000E+001
         30  0.19000000E+001  0.33000000E+001
         31  0.26000000E+001  0.46000000E+001
         32  0.31000000E+001  0.55000000E+001
         33  0.21000000E+001  0.37000000E+001
         34  0.42000000E+001  0.74000000E+001
         35  0.12000000E+001  0.20000000E+001
         36  0.39000000E+001  0.69000000E+001
         37  0.14000000E+001  0.24000000E+001
         38  0.36000000E+001  0.64000000E+001
         39  0.16000000E+001  0.28000000E+001
         40  0.28000000E+001  0.50000000E+001
         41  0.23000000E+001  0.41000000E+001
         42  0.33000000E+001  0.59000000E+001
         43  0.18000000E+001  0.32000000E+001
         44  0.44000000E+001  0.78000000E+001
         45  0.90000000E+000  0.15000000E+001
         46  0.41000000E+001  0.73000000E+001
         47  0.11000000E+001  0.19000000E+001
         48  0.25000000E+001  0.45000000E+001
         49  0.30000000E+001  0.54000000E+001
         50  0.20000000E+001  0.36000000E+001
         51  0.38000000E+001  0.68000000E+001
         52  0.13000000E+001  0.23000000E+001
         53  0.35000000E+001  0.63000000E+001
         54  0.15000000E+001  0.27000000E+001
         55  0.22000000E+001  0.40000000E+001
         56  0.27000000E+001  0.49000000E+001
         57  0.60000000E+000  0.10000000E+001
         58  0.46000000E+001  0.82000000E+001
         59  0.43000000E+001  0.77000000E+001
         60  0.80000000E+000  0.14000000E+001
         61  0.17000000E+001  0.31000000E+001
         62  0.32000000E+001  0.58000000E+001
         63  0.40000000E+001  0.72000000E+001
         64  0.10000000E+001  0.18000000E+001
         65  0.24000000E+001  0.44000000E+001
         66  0.37000000E+001  0.67000000E+001
         67  0.12000000E+001  0.22000000E+001
         68  0.19000000E+001  0.35000000E+001
         69  0.29000000E+001  0.53000000E+001
         70  0.34000000E+001  0.62000000E+001
         71  0.14000000E+001  0.26000000E+001
         72  0.48000000E+001  0.86000000E+001
         73  0.30000000E+000  0.50000000E+000
         74  0.45000000E+001  0.81000000E+001
         75  0.50000000E+000  0.90000000E+000
         76  0.42000000E+001  0.76000000E+001
         77  0.70000000E+000  0.13000000E+001
         78  0.21000000E+001  0.39000000E+001
         79  0.26000000E+001  0.48000000E+001
         80  0.16000000E+001  0.30000000E+001
         81  0.31000000E+001  0.57000000E+001
         82  0.39000000E+001  0.71000000E+001
         83  0.90000000E+000  0.17000000E+001
         84  0.36000000E+001  0.66000000E+001
         85  0.11000000E+001  0.21000000E+001
         86  0.23000000E+001  0.43000000E+001
         87  0.00000000E+000  0.00000000E+000
         88  0.50000000E+001  0.90000000E+001
         89  0.18000000E+001  0.34000000E+001
         90  0.28000000E+001  0.52000000E+001
         91  0.20000000E+000  0.40000000E+000
         92  0.47000000E+001  0.85000000E+001
         93  0.44000000E+001  0.80000000E+001
         94  0.40000000E+000  0.80000000E+000
         95  0.13000000E+001  0.25000000E+001
         96  0.33000000E+001  0.61000000E+001
         97  0.41000000E+001  0.75000000E+001
         98  0.60000000E+000  0.12000000E+001
         99  0.25000000E+001  0.47000000E+001
        100  0.20000000E+001  0.38000000E+001
        101  0.38000000E+001  0.70000000E+001
        102  0.80000000E+000  0.16000000E+001
        103  0.15000000E+001  0.29000000E+001
        104  0.30000000E+001  0.56000000E+001
        105  0.10000000E+001  0.20000000E+001
        106  0.35000000E+001  0.65000000E+001
        107  0.22000000E+001  0.42000000E+001
        108  0.17000000E+001  0.33000000E+001
        109  0.27000000E+001  0.51000000E+001
        110  0.12000000E+001  0.24000000E+001
        111  0.32000000E+001  0.60000000E+001
        112  0.19000000E+001  0.37000000E+001
        113  0.24000000E+001  0.46000000E+001
        114  0.29000000E+001  0.55000000E+001
        115  0.14000000E+001  0.28000000E+001
        116  0.21000000E+001  0.41000000E+001
        117  0.16000000E+001  0.32000000E+001
        118  0.26000000E+001  0.50000000E+001
        119  0.18000000E+001  0.36000000E+001
        120  0.23000000E+001  0.45000000E+001
        121  0.20000000E+001  0.40000000E+001
End values

Result PRESS ALYA  0.50095941E+00 Scalar OnNodes
ComponentNames PRESS
Values
          1  0.70000000E+001
          2  0.63000000E+001
          3  0.76000000E+001
          4  0.69000000E+001
          5  0.56000000E+001
          6  0.82000000E+001
          7  0.75000000E+001
          8  0.62000000E+001
          9  0.68000000E+001
         10  0.49000000E+001
         11  0.88000000E+001
         12  0.81000000E+001
         13  0.55000000E+001
         14  0.74000000E+001
         15  0.61000000E+001
         16  0.94000000E+001
         17  0.42000000E+001
         18  0.87000000E+001
         19  0.48000000E+001
         20  0.67000000E+001
         21  0.80000000E+001
         22  0.54000000E+001
         23  0.35000000E+001
         24  0.73000000E+001
         25  0.10000000E+002
         26  0.60000000E+001
         27  0.93000000E+001
         28  0.41000000E+001
         29  0.86000000E+001
         30  0.47000000E+001
         31  0.66000000E+001
         32  0.79000000E+001
         33  0.53000000E+001
         34  0.10600000E+002
         35  0.28000000E+001
         36  0.99000000E+001
         37  0.34000000E+001
         38  0.92000000E+001
         39  0.40000000E+001
         40  0.72000000E+001
         41  0.59000000E+001
         42  0.85000000E+001
         43  0.46000000E+001
         44  0.11200000E+002
         45  0.21000000E+001
         46  0.10500000E+002
         47  0.27000000E+001
         48  0.65000000E+001
         49  0.78000000E+001
         50  0.52000000E+001
         51  0.98000000E+001
         52  0.33000000E+001
         53  0.91000000E+001
         54  0.39000000E+001
         55  0.58000000E+001
         56  0.71000000E+001
         57  0.14000000E+001
         58  0.11800000E+002
         59  0.11100000E+002
         60  0.20000000E+001
         61  0.45000000E+001
         62  0.84000000E+001
         63  0.10400000E+002
         64  0.26000000E+001
         65  0.64000000E+001
         66  0.97000000E+001
         67  0.32000000E+001
         68  0.51000000E+001
         69  0.77000000E+001
         70  0.90000000E+001
         71  0.38000000E+001
         72  0.12400000E+002
         73  0.70000000E+000
         74  0.11700000E+002
         75  0.13000000E+001
         76  0.11000000E+002
         77  0.19000000E+001
         78  0.57000000E+001
         79  0.70000000E+001
         80  0.44000000E+001
         81  0.83000000E+001
         82  0.10300000E+002
         83  0.25000000E+001
         84  0.96000000E+001
         85  0.31000000E+001
         86  0.63000000E+001
         87  0.00000000E+000
         88  0.13000000E+002
         89  0.50000000E+001
         90  0.76000000E+001
         91  0.60000000E+000
         92  0.12300000E+002
         93  0.11600000E+002
         94  0.12000000E+001
         95  0.37000000E+001
         96  0.89000000E+001
         97  0.10900000E+002
         98  0.18000000E+001
         99  0.69000000E+001
        100  0.56000000E+001
        101  0.10200000E+002
        102  0.24000000E+001
        103  0.43000000E+001
        104  0.82000000E+001
        105  0.30000000E+001
        106  0.95000000E+001
        107  0.62000000E+001
        108  0.49000000E+001
        109  0.75000000E+001
        110  0.36000000E+001
        111  0.88000000E+001
        112  0.55000000E+001
        113  0.68000000E+001
        114  0.81000000E+001
        115  0.42000000E+001
        116  0.61000000E+001
        117  0.48000000E+001
        118  0.74000000E+001
        119  0.54000000E+001
        120  0.67000000E+001
        121  0.60000000E+001
End values

Result VEPAV ALYA  0.50095941E+00 Vector OnNodes
ComponentNames VEPAV_X,VEPAV_Y,VEPAV_Z
Values
          1  0.00000000E+000  0.00000000E+000
          2  0.00000000E+000  0.00000000E+000
          3  0.00000000E+000  0.00000000E+000
          4  0.00000000E+000  0.00000000E+000
          5  0.00000000E+000  0.00000000E+000
          6  0.00000000E+000  0.00000000E+000
          7  0.00000000E+000  0.00000000E+000
          8  0.00000000E+000  0.00000000E+000
          9  0.00000000E+000  0.00000000E+000
         10  0.00000000E+000  0.00000000E+000
         11  0.00000000E+000  0.00000000E+000
         12  0.00000000E+000  0.00000000E+000
         13  0.00000000E+000  0.00000000E+000
         14  0.00000000E+000  0.00000000E+000
         15  0.00000000E+000  0.00000000E+000
         16  0.00000000E+000  0.00000000E+000
         17  0.00000000E+000  0.00000000E+000
         18  0.00000000E+000  0.00000000E+000
         19  0.00000000E+000  0.00000000E+000
         20  0.00000000E+000  0.00000000E+000
         21  0.00000000E+000  0.00000000E+000
         22  0.00000000E+000  0.00000000E+000
         23  0.00000000E+000  0.00000000E+000
         24  0.00000000E+000  0.00000000E+000
         25  0.00000000E+000  0.00000000E+000
         26  0.00000000E+000  0.00000000E+000
         27  0.00000000E+000  0.00000000E+000
         28  0.00000000E+000  0.00000000E+000
         29  0.00000000E+000  0.00000000E+000
         30  0.00000000E+000  0.00000000E+000
         31  0.00000000E+000  0.00000000E+000
         32  0.00000000E+000  0.00000000E+000
         33  0.00000000E+000  0.00000000E+000
         34  0.00000000E+000  0.00000000E+000
         35  0.00000000E+000  0.00000000E+000
         36  0.00000000E+000  0.00000000E+000
         37  0.00000000E+000  0.00000000E+000
         38  0.00000000E+000  0.00000000E+000
         39  0.00000000E+000  0.00000000E+000
         40  0.00000000E+000  0.00000000E+000
         41  0.00000000E+000  0.00000000E+000
         42  0.00000000E+000  0.00000000E+000
         43  0.00000000E+000  0.00000000E+000
         44  0.00000000E+000  0.00000000E+000
         45  0.00000000E+000  0.00000000E+000
         46  0.00000000E+000  0.00000000E+000
         47  0.00000000E+000  0.00000000E+000
         48  0.00000000E+000  0.00000000E+000
         49  0.00000000E+000  0.00000000E+000
         50  0.00000000E+000  0.00000000E+000
         51  0.00000000E+000  0.00000000E+000
         52  0.00000000E+000  0.00000000E+000
         53  0.00000000E+000  0.00000000E+000
         54  0.00000000E+000  0.00000000E+000
         55  0.00000000E+000  0.00000000E+000
         56  0.00000000E+000  0.00000000E+000
         57  0.00000000E+000  0.00000000E+000
         58  0.00000000E+000  0.00000000E+000
         59  0.00000000E+000  0.00000000E+000
         60  0.00000000E+000  0.00000000E+000
         61  0.00000000E+000  0.00000000E+000
         62  0.00000000E+000  0.00000000E+000
         63  0.00000000E+000  0.00000000E+000
         64  0.00000000E+000  0.00000000E+000
         65  0.00000000E+000  0.00000000E+000
         66  0.00000000E+000  0.00000000E+000
         67  0.00000000E+000  0.00000000E+000
         68  0.00000000E+000  0.00000000E+000
         69  0.00000000E+000  0.00000000E+000
         70  0.00000000E+000  0.00000000E+000
         71  0.00000000E+000  0.00000000E+000
         72  0.00000000E+000  0.00000000E+000
         73  0.00000000E+000  0.00000000E+000
         74  0.00000000E+000  0.00000000E+000
         75  0.00000000E+000  0.00000000E+000
         76  0.00000000E+000  0.00000000E+000
         77  0.00000000E+000  0.00000000E+000
         78  0.00000000E+000  0.00000000E+000
         79  0.00000000E+000  0.00000000E+000
         80  0.00000000E+000  0.00000000E+000
         81  0.00000000E+000  0.00000000E+000
         82  0.00000000E+000  0.00000000E+000
         83  0.00000000E+000  0.00000000E+000
         84  0.00000000E+000  0.00000000E+000
         85  0.00000000E+000  0.00000000E+000
         86  0.00000000E+000  0.00000000E+000
         87  0.10833333E+000  0.00000000E+000
         88  0.00000000E+000  0.00000000E+000
         89  0.00000000E+000  0.00000000E+000
         90  0.00000000E+000  0.00000000E+000
         91  0.35000000E+000  0.00000000E+000
         92  0.00000000E+000  0.00000000E+000
         93  0.00000000E+000  0.00000000E+000
         94  0.55000000E+000  0.00000000E+000
         95  0.00000000E+000  0.00000000E+000
         96  0.00000000E+000  0.00000000E+000
         97  0.00000000E+000  0.00000000E+000
         98  0.75000000E+000  0.00000000E+000
         99  0.00000000E+000  0.00000000E+000
        100  0.00000000E+000  0.00000000E+000
        101  0.00000000E+000  0.00000000E+000
        102  0.95000000E+000  0.00000000E+000
        103  0.00000000E+000  0.00000000E+000
        104  0.00000000E+000  0.00000000E+000
        105  0.11500000E+001  0.00000000E+000
        106  0.00000000E+000  0.00000000E+000
        107  0.00000000E+000  0.00000000E+000
        108  0.00000000E+000  0.00000000E+000
        109  0.00000000E+000  0.00000000E+000
        110  0.13500000E+001  0.00000000E+000
        111  0.00000000E+000  0.00000000E+000
        112  0.00000000E+000  0.00000000E+000
        113  0.00000000E+000  0.00000000E+000
        114  0.00000000E+000  0.00000000E+000
        115  0.15500000E+001  0.00000000E+000
        116  0.00000000E+000  0.00000000E+000
        117  0.17500000E+001  0.00000000E+000
        118  0.00000000E+000  0.00000000E+000
        119  0.19500000E+001  0.00000000E+000
        120  0.00000000E+000  0.00000000E+000
        121  0.10416667E+001  0.00000000E+000
End values

