GiD Post Results File 1.0
 
Result LINTE ALYA  0.10000000E+00 Scalar OnNodes
ComponentNames LINTE
Values
          1  0.00000000E+000
          2  0.00000000E+000
          3  0.00000000E+000
          4  0.00000000E+000
          5  0.00000000E+000
          6  0.00000000E+000
          7  0.00000000E+000
          8  0.00000000E+000
          9  0.00000000E+000
         10  0.00000000E+000
         11  0.00000000E+000
         12  0.00000000E+000
         13  0.00000000E+000
         14  0.00000000E+000
         15  0.00000000E+000
         16  0.00000000E+000
         17  0.00000000E+000
         18  0.00000000E+000
         19  0.00000000E+000
         20  0.00000000E+000
         21  0.00000000E+000
         22  0.00000000E+000
         23  0.00000000E+000
         24  0.00000000E+000
         25  0.00000000E+000
         26  0.00000000E+000
         27  0.00000000E+000
         28  0.00000000E+000
         29  0.00000000E+000
         30  0.00000000E+000
         31  0.00000000E+000
         32  0.00000000E+000
         33  0.00000000E+000
         34  0.00000000E+000
         35  0.00000000E+000
         36  0.00000000E+000
         37  0.00000000E+000
         38  0.00000000E+000
         39  0.00000000E+000
         40  0.00000000E+000
         41  0.00000000E+000
         42  0.00000000E+000
         43  0.00000000E+000
         44  0.00000000E+000
         45  0.00000000E+000
         46  0.00000000E+000
         47  0.00000000E+000
         48  0.00000000E+000
         49  0.00000000E+000
         50  0.00000000E+000
         51  0.00000000E+000
         52  0.00000000E+000
         53  0.00000000E+000
         54  0.00000000E+000
         55  0.00000000E+000
         56  0.00000000E+000
         57  0.00000000E+000
         58  0.00000000E+000
         59  0.00000000E+000
         60  0.10000000E+001
         61  0.00000000E+000
         62  0.00000000E+000
         63  0.20000000E+001
         64  0.00000000E+000
         65  0.10000000E+001
         66  0.00000000E+000
         67  0.30000000E+001
         68  0.20000000E+001
         69  0.00000000E+000
         70  0.00000000E+000
         71  0.10000000E+001
         72  0.00000000E+000
         73  0.00000000E+000
         74  0.30000000E+001
         75  0.20000000E+001
         76  0.40000000E+001
         77  0.00000000E+000
         78  0.10000000E+001
         79  0.30000000E+001
         80  0.20000000E+001
         81  0.00000000E+000
         82  0.00000000E+000
         83  0.40000000E+001
         84  0.00000000E+000
         85  0.10000000E+001
         86  0.30000000E+001
         87  0.00000000E+000
         88  0.20000000E+001
         89  0.00000000E+000
         90  0.50000000E+001
         91  0.40000000E+001
         92  0.10000000E+001
         93  0.00000000E+000
         94  0.00000000E+000
         95  0.00000000E+000
         96  0.30000000E+001
         97  0.20000000E+001
         98  0.50000000E+001
         99  0.00000000E+000
        100  0.40000000E+001
        101  0.10000000E+001
        102  0.30000000E+001
        103  0.00000000E+000
        104  0.20000000E+001
        105  0.50000000E+001
        106  0.40000000E+001
        107  0.00000000E+000
        108  0.00000000E+000
        109  0.10000000E+001
        110  0.60000000E+001
        111  0.30000000E+001
        112  0.20000000E+001
        113  0.50000000E+001
        114  0.40000000E+001
        115  0.00000000E+000
        116  0.10000000E+001
        117  0.60000000E+001
        118  0.30000000E+001
        119  0.20000000E+001
        120  0.50000000E+001
        121  0.40000000E+001
        122  0.00000000E+000
        123  0.10000000E+001
        124  0.00000000E+000
        125  0.00000000E+000
        126  0.60000000E+001
        127  0.30000000E+001
        128  0.20000000E+001
        129  0.00000000E+000
        130  0.00000000E+000
        131  0.40000000E+001
        132  0.50000000E+001
        133  0.10000000E+001
        134  0.20000000E+001
        135  0.30000000E+001
        136  0.00000000E+000
        137  0.60000000E+001
        138  0.70000000E+001
        139  0.10000000E+001
        140  0.40000000E+001
        141  0.50000000E+001
        142  0.00000000E+000
        143  0.20000000E+001
        144  0.30000000E+001
        145  0.10000000E+001
        146  0.00000000E+000
        147  0.60000000E+001
        148  0.70000000E+001
        149  0.00000000E+000
        150  0.20000000E+001
        151  0.40000000E+001
        152  0.30000000E+001
        153  0.50000000E+001
        154  0.10000000E+001
        155  0.20000000E+001
        156  0.60000000E+001
        157  0.70000000E+001
        158  0.40000000E+001
        159  0.30000000E+001
        160  0.10000000E+001
        161  0.00000000E+000
        162  0.50000000E+001
        163  0.00000000E+000
        164  0.20000000E+001
        165  0.10000000E+001
        166  0.30000000E+001
        167  0.40000000E+001
        168  0.20000000E+001
        169  0.00000000E+000
        170  0.60000000E+001
        171  0.10000000E+001
        172  0.70000000E+001
        173  0.50000000E+001
        174  0.30000000E+001
        175  0.20000000E+001
        176  0.10000000E+001
        177  0.40000000E+001
        178  0.80000000E+001
        179  0.20000000E+001
        180  0.30000000E+001
        181  0.10000000E+001
        182  0.60000000E+001
        183  0.50000000E+001
        184  0.10000000E+001
        185  0.20000000E+001
        186  0.00000000E+000
        187  0.70000000E+001
        188  0.40000000E+001
        189  0.30000000E+001
        190  0.10000000E+001
        191  0.00000000E+000
        192  0.20000000E+001
        193  0.00000000E+000
        194  0.20000000E+001
        195  0.30000000E+001
        196  0.40000000E+001
        197  0.80000000E+001
        198  0.00000000E+000
        199  0.50000000E+001
        200  0.30000000E+001
        201  0.60000000E+001
        202  0.70000000E+001
        203  0.30000000E+001
        204  0.40000000E+001
        205  0.00000000E+000
        206  0.30000000E+001
        207  0.50000000E+001
        208  0.40000000E+001
        209  0.80000000E+001
        210  0.60000000E+001
        211  0.00000000E+000
        212  0.40000000E+001
        213  0.50000000E+001
        214  0.70000000E+001
        215  0.40000000E+001
        216  0.00000000E+000
        217  0.00000000E+000
        218  0.60000000E+001
        219  0.40000000E+001
        220  0.50000000E+001
        221  0.80000000E+001
        222  0.40000000E+001
        223  0.70000000E+001
        224  0.50000000E+001
        225  0.60000000E+001
        226  0.50000000E+001
        227  0.00000000E+000
        228  0.80000000E+001
        229  0.00000000E+000
        230  0.90000000E+001
        231  0.50000000E+001
        232  0.70000000E+001
        233  0.60000000E+001
        234  0.50000000E+001
        235  0.50000000E+001
        236  0.60000000E+001
        237  0.50000000E+001
        238  0.80000000E+001
        239  0.70000000E+001
        240  0.90000000E+001
        241  0.60000000E+001
        242  0.00000000E+000
        243  0.00000000E+000
        244  0.70000000E+001
        245  0.60000000E+001
        246  0.80000000E+001
        247  0.90000000E+001
        248  0.60000000E+001
        249  0.70000000E+001
        250  0.60000000E+001
        251  0.80000000E+001
        252  0.60000000E+001
        253  0.90000000E+001
        254  0.60000000E+001
        255  0.70000000E+001
        256  0.00000000E+000
        257  0.00000000E+000
        258  0.60000000E+001
        259  0.80000000E+001
        260  0.70000000E+001
        261  0.90000000E+001
        262  0.70000000E+001
        263  0.80000000E+001
        264  0.10000000E+002
        265  0.70000000E+001
        266  0.90000000E+001
        267  0.00000000E+000
        268  0.70000000E+001
        269  0.80000000E+001
        270  0.70000000E+001
        271  0.10000000E+002
        272  0.70000000E+001
        273  0.90000000E+001
        274  0.80000000E+001
        275  0.70000000E+001
        276  0.70000000E+001
        277  0.10000000E+002
        278  0.80000000E+001
        279  0.00000000E+000
        280  0.90000000E+001
        281  0.80000000E+001
        282  0.10000000E+002
        283  0.90000000E+001
        284  0.80000000E+001
        285  0.80000000E+001
        286  0.00000000E+000
        287  0.90000000E+001
        288  0.10000000E+002
        289  0.80000000E+001
        290  0.80000000E+001
        291  0.90000000E+001
        292  0.80000000E+001
        293  0.10000000E+002
        294  0.80000000E+001
        295  0.11000000E+002
        296  0.80000000E+001
        297  0.90000000E+001
        298  0.10000000E+002
        299  0.90000000E+001
        300  0.11000000E+002
        301  0.90000000E+001
        302  0.10000000E+002
        303  0.11000000E+002
        304  0.90000000E+001
        305  0.90000000E+001
        306  0.10000000E+002
        307  0.90000000E+001
        308  0.11000000E+002
        309  0.90000000E+001
        310  0.10000000E+002
        311  0.90000000E+001
        312  0.90000000E+001
        313  0.11000000E+002
        314  0.90000000E+001
        315  0.10000000E+002
        316  0.10000000E+002
        317  0.11000000E+002
        318  0.10000000E+002
        319  0.11000000E+002
        320  0.10000000E+002
        321  0.10000000E+002
        322  0.11000000E+002
        323  0.10000000E+002
        324  0.10000000E+002
        325  0.11000000E+002
        326  0.10000000E+002
        327  0.10000000E+002
        328  0.10000000E+002
        329  0.11000000E+002
        330  0.10000000E+002
        331  0.11000000E+002
        332  0.11000000E+002
        333  0.11000000E+002
        334  0.11000000E+002
        335  0.11000000E+002
        336  0.11000000E+002
        337  0.11000000E+002
        338  0.11000000E+002
        339  0.11000000E+002
        340  0.11000000E+002
        341  0.11000000E+002
End values

