 0.28174014E-004
 0.28175901E-004
 0.28174014E-004
 0.28175901E-004
 0.28174282E-004
 0.28175061E-004
 0.28175348E-004
 0.28175382E-004
 0.28175384E-004
 0.28175384E-004
 0.28175384E-004
 0.28175384E-004
 0.28175384E-004
 0.28175386E-004
 0.28175419E-004
 0.28175706E-004
 0.28176482E-004
 0.28176768E-004
 0.28176802E-004
 0.28176806E-004
 0.28176839E-004
 0.28177126E-004
 0.28177901E-004
 0.28178190E-004
 0.28178257E-004
 0.28178546E-004
 0.28179323E-004
 0.28179643E-004
 0.28179965E-004
 0.28180776E-004
 0.28181350E-004
 0.28182160E-004
 0.28182484E-004
 0.28182838E-004
 0.28183904E-004
 0.28185001E-004
 0.28185643E-004
 0.28186773E-004
 0.28188125E-004
 0.28189256E-004
 0.28189900E-004
 0.28191034E-004
 0.28192452E-004
 0.28194155E-004
 0.28196350E-004
 0.28198088E-004
 0.28199828E-004
 0.28202055E-004
 0.28204047E-004
 0.28206308E-004
 0.28208335E-004
 0.28210883E-004
 0.28213716E-004
 0.28216836E-004
 0.28220477E-004
 0.28223916E-004
 0.28227875E-004
 0.28232087E-004
 0.28236332E-004
 0.28240609E-004
 0.28245141E-004
 0.28250222E-004
 0.28255355E-004
 0.28261491E-004
 0.28267428E-004
 0.28273429E-004
 0.28280202E-004
 0.28287540E-004
 0.28295679E-004
 0.28304134E-004
 0.28312903E-004
 0.28322439E-004
 0.28332287E-004
 0.28342449E-004
 0.28353406E-004
 0.28364923E-004
 0.28377233E-004
 0.28389886E-004
 0.28403099E-004
 0.28417611E-004
 0.28432482E-004
 0.28448647E-004
 0.28465399E-004
 0.28482764E-004
 0.28501632E-004
 0.28521110E-004
 0.28541197E-004
 0.28562806E-004
 0.28585264E-004
 0.28608794E-004
 0.28633393E-004
 0.28658864E-004
 0.28686108E-004
 0.28714680E-004
 0.28744111E-004
 0.28775081E-004
 0.28807144E-004
 0.28841001E-004
 0.28876398E-004
 0.28913113E-004
 0.28951140E-004
 0.28990711E-004
 0.29032265E-004
 0.29075341E-004
 0.29119722E-004
 0.29165637E-004
 0.29213753E-004
 0.29264056E-004
 0.29315880E-004
 0.29369183E-004
 0.29424387E-004
 0.29481305E-004
 0.29540358E-004
 0.29601555E-004
 0.29664680E-004
 0.29730330E-004
 0.29797832E-004
 0.29867157E-004
 0.29938069E-004
 0.30010993E-004
 0.30086133E-004
 0.30163496E-004
 0.30243053E-004
 0.30324748E-004
 0.30408362E-004
 0.30493694E-004
 0.30581477E-004
 0.30671322E-004
 0.30762846E-004
 0.30856763E-004
 0.30952874E-004
 0.31050964E-004
 0.31150974E-004
 0.31252872E-004
 0.31356603E-004
 0.31461991E-004
 0.31569006E-004
 0.31678313E-004
 0.31788879E-004
 0.31901355E-004
 0.32015714E-004
 0.32131778E-004
 0.32249433E-004
 0.32368310E-004
 0.32488064E-004
 0.32609634E-004
 0.32732249E-004
 0.32856336E-004
 0.32981532E-004
 0.33107805E-004
 0.33234959E-004
 0.33363093E-004
 0.33491889E-004
 0.33621336E-004
 0.33751696E-004
 0.33882657E-004
 0.34014023E-004
 0.34145753E-004
 0.34277805E-004
 0.34409994E-004
 0.34542037E-004
 0.34674177E-004
 0.34806375E-004
 0.34938181E-004
 0.35069422E-004
 0.35200211E-004
 0.35330637E-004
 0.35460188E-004
 0.35588957E-004
 0.35717053E-004
 0.35844308E-004
 0.35970314E-004
 0.36095045E-004
 0.36218686E-004
 0.36340869E-004
 0.36461333E-004
 0.36580330E-004
 0.36697405E-004
 0.36812443E-004
 0.36925751E-004
 0.37037177E-004
 0.37146159E-004
 0.37252872E-004
 0.37357513E-004
 0.37459654E-004
 0.37559179E-004
 0.37655856E-004
 0.37749698E-004
 0.37840873E-004
 0.37929071E-004
 0.38014077E-004
 0.38096136E-004
 0.38175005E-004
 0.38250747E-004
 0.38323310E-004
 0.38392384E-004
 0.38457949E-004
 0.38520178E-004
 0.38578847E-004
 0.38633696E-004
 0.38684618E-004
 0.38731836E-004
 0.38775053E-004
 0.38814493E-004
 0.38850867E-004
 0.38883539E-004
 0.38911244E-004
 0.38934762E-004
 0.38955237E-004
 0.38971969E-004
 0.38984260E-004
 0.38991961E-004
 0.38995606E-004
 0.38995446E-004
 0.38991524E-004
 0.38983811E-004
 0.38971280E-004
 0.38954382E-004
 0.38933821E-004
 0.38910085E-004
 0.38881903E-004
 0.38848688E-004
 0.38811746E-004
 0.38772539E-004
 0.38729494E-004
 0.38680994E-004
 0.38628812E-004
 0.38574629E-004
 0.38517420E-004
 0.38454012E-004
 0.38386473E-004
 0.38317639E-004
 0.38247268E-004
 0.38170521E-004
 0.38088922E-004
 0.38006492E-004
 0.37924715E-004
 0.37836068E-004
 0.37741824E-004
 0.37646703E-004
 0.37553134E-004
 0.37454137E-004
 0.37349463E-004
 0.37243395E-004
 0.37139217E-004
 0.37031652E-004
 0.36917927E-004
 0.36802233E-004
 0.36688900E-004
 0.36574555E-004
 0.36453674E-004
 0.36329713E-004
 0.36208276E-004
 0.36089314E-004
 0.35963271E-004
 0.35832835E-004
 0.35705075E-004
 0.35583103E-004
 0.35453824E-004
 0.35319724E-004
 0.35188027E-004
 0.35062381E-004
 0.34931371E-004
 0.34795700E-004
 0.34661810E-004
 0.34534198E-004
 0.34403941E-004
 0.34268275E-004
 0.34133050E-004
 0.34004321E-004
 0.33877047E-004
 0.33743845E-004
 0.33609717E-004
 0.33481182E-004
 0.33357121E-004
 0.33227553E-004
 0.33096268E-004
 0.32970236E-004
 0.32851283E-004
 0.32726130E-004
 0.32599165E-004
 0.32476551E-004
 0.32362463E-004
 0.32243862E-004
 0.32122800E-004
 0.32005170E-004
 0.31895336E-004
 0.31784309E-004
 0.31670532E-004
 0.31558972E-004
 0.31454613E-004
 0.31351583E-004
 0.31245619E-004
 0.31141133E-004
 0.31043050E-004
 0.30949152E-004
 0.30851511E-004
 0.30754125E-004
 0.30662575E-004
 0.30577575E-004
 0.30489197E-004
 0.30400369E-004
 0.30316146E-004
 0.30239483E-004
 0.30160194E-004
 0.30080048E-004
 0.30003601E-004
 0.29933741E-004
 0.29863663E-004
 0.29792533E-004
 0.29723791E-004
 0.29660902E-004
 0.29599084E-004
 0.29536422E-004
 0.29475862E-004
 0.29420001E-004
 0.29366962E-004
 0.29312373E-004
 0.29259282E-004
 0.29209621E-004
 0.29163740E-004
 0.29117142E-004
 0.29071269E-004
 0.29027976E-004
 0.28989570E-004
 0.28949543E-004
 0.28909552E-004
 0.28872592E-004
 0.28839714E-004
 0.28806341E-004
 0.28772720E-004
 0.28741045E-004
 0.28712993E-004
 0.28685373E-004
 0.28657482E-004
 0.28631331E-004
 0.28607413E-004
 0.28584594E-004
 0.28561667E-004
 0.28539595E-004
 0.28519280E-004
 0.28500961E-004
 0.28482062E-004
 0.28463310E-004
 0.28446526E-004
 0.28431528E-004
 0.28416426E-004
 0.28401446E-004
 0.28387723E-004
 0.28375547E-004
 0.28363486E-004
 0.28351999E-004
 0.28341045E-004
 0.28330914E-004
 0.28321319E-004
 0.28312298E-004
 0.28303331E-004
 0.28295392E-004
 0.28287504E-004
 0.28280164E-004
 0.28273110E-004
 0.28266370E-004
 0.28260402E-004
 0.28254750E-004
 0.28249413E-004
 0.28244818E-004
 0.28240254E-004
 0.28235238E-004
 0.28230743E-004
 0.28226783E-004
 0.28223595E-004
 0.28220441E-004
 0.28216833E-004
 0.28213716E-004
 0.28210883E-004
 0.28208333E-004
 0.28206274E-004
 0.28203761E-004
 0.28201279E-004
 0.28199508E-004
 0.28197768E-004
 0.28195573E-004
 0.28193869E-004
 0.28192417E-004
 0.28190998E-004
 0.28189613E-004
 0.28188481E-004
 0.28187839E-004
 0.28186740E-004
 0.28185640E-004
 0.28185001E-004
 0.28183902E-004
 0.28182804E-004
 0.28182198E-004
 0.28181385E-004
 0.28181063E-004
 0.28180743E-004
 0.28179963E-004
 0.28179643E-004
 0.28179317E-004
 0.28178446E-004
 0.28177399E-004
 0.28177399E-004
 0.28178446E-004
 0.28179317E-004
 0.28179643E-004
 0.28179963E-004
 0.28180743E-004
 0.28181063E-004
 0.28181385E-004
 0.28182198E-004
 0.28182804E-004
 0.28183902E-004
 0.28185001E-004
 0.28185640E-004
 0.28186740E-004
 0.28187839E-004
 0.28188481E-004
 0.28189613E-004
 0.28190998E-004
 0.28192417E-004
 0.28193869E-004
 0.28195573E-004
 0.28197768E-004
 0.28199508E-004
 0.28201279E-004
 0.28203761E-004
 0.28206274E-004
 0.28208333E-004
 0.28210883E-004
 0.28213716E-004
 0.28216833E-004
 0.28220441E-004
 0.28223595E-004
 0.28226783E-004
 0.28230743E-004
 0.28235238E-004
 0.28240254E-004
 0.28244818E-004
 0.28249413E-004
 0.28254750E-004
 0.28260402E-004
 0.28266370E-004
 0.28273110E-004
 0.28280164E-004
 0.28287504E-004
 0.28295392E-004
 0.28303331E-004
 0.28312298E-004
 0.28321319E-004
 0.28330914E-004
 0.28341045E-004
 0.28351999E-004
 0.28363486E-004
 0.28375547E-004
 0.28387723E-004
 0.28401446E-004
 0.28416426E-004
 0.28431528E-004
 0.28446526E-004
 0.28463310E-004
 0.28482062E-004
 0.28500961E-004
 0.28519280E-004
 0.28539595E-004
 0.28561667E-004
 0.28584594E-004
 0.28607413E-004
 0.28631331E-004
 0.28657482E-004
 0.28685373E-004
 0.28712993E-004
 0.28741045E-004
 0.28772720E-004
 0.28806341E-004
 0.28839714E-004
 0.28872592E-004
 0.28909552E-004
 0.28949543E-004
 0.28989570E-004
 0.29027976E-004
 0.29071269E-004
 0.29117142E-004
 0.29163740E-004
 0.29209621E-004
 0.29259282E-004
 0.29312373E-004
 0.29366962E-004
 0.29420001E-004
 0.29475862E-004
 0.29536422E-004
 0.29599084E-004
 0.29660902E-004
 0.29723791E-004
 0.29792533E-004
 0.29863663E-004
 0.29933741E-004
 0.30003601E-004
 0.30080048E-004
 0.30160194E-004
 0.30239483E-004
 0.30316146E-004
 0.30400369E-004
 0.30489197E-004
 0.30577575E-004
 0.30662575E-004
 0.30754125E-004
 0.30851511E-004
 0.30949152E-004
 0.31043050E-004
 0.31141133E-004
 0.31245619E-004
 0.31351583E-004
 0.31454613E-004
 0.31558972E-004
 0.31670532E-004
 0.31784309E-004
 0.31895336E-004
 0.32005170E-004
 0.32122800E-004
 0.32243862E-004
 0.32362463E-004
 0.32476551E-004
 0.32599165E-004
 0.32726130E-004
 0.32851283E-004
 0.32970236E-004
 0.33096268E-004
 0.33227553E-004
 0.33357121E-004
 0.33481182E-004
 0.33609717E-004
 0.33743845E-004
 0.33877047E-004
 0.34004321E-004
 0.34133050E-004
 0.34268275E-004
 0.34403941E-004
 0.34534198E-004
 0.34661810E-004
 0.34795700E-004
 0.34931371E-004
 0.35062381E-004
 0.35188027E-004
 0.35319724E-004
 0.35453824E-004
 0.35583103E-004
 0.35705075E-004
 0.35832835E-004
 0.35963271E-004
 0.36089314E-004
 0.36208276E-004
 0.36329713E-004
 0.36453674E-004
 0.36574555E-004
 0.36688900E-004
 0.36802233E-004
 0.36917927E-004
 0.37031652E-004
 0.37139217E-004
 0.37243395E-004
 0.37349463E-004
 0.37454137E-004
 0.37553134E-004
 0.37646703E-004
 0.37741824E-004
 0.37836068E-004
 0.37924715E-004
 0.38006492E-004
 0.38088922E-004
 0.38170521E-004
 0.38247268E-004
 0.38317639E-004
 0.38386473E-004
 0.38454012E-004
 0.38517420E-004
 0.38574629E-004
 0.38628812E-004
 0.38680994E-004
 0.38729494E-004
 0.38772539E-004
 0.38811746E-004
 0.38848688E-004
 0.38881903E-004
 0.38910085E-004
 0.38933821E-004
 0.38954382E-004
 0.38971280E-004
 0.38983811E-004
 0.38991524E-004
 0.38995446E-004
 0.38995606E-004
 0.38991961E-004
 0.38984260E-004
 0.38971969E-004
 0.38955237E-004
 0.38934762E-004
 0.38911244E-004
 0.38883539E-004
 0.38850867E-004
 0.38814493E-004
 0.38775053E-004
 0.38731836E-004
 0.38684618E-004
 0.38633696E-004
 0.38578847E-004
 0.38520178E-004
 0.38457949E-004
 0.38392384E-004
 0.38323310E-004
 0.38250747E-004
 0.38175005E-004
 0.38096136E-004
 0.38014077E-004
 0.37929071E-004
 0.37840873E-004
 0.37749698E-004
 0.37655856E-004
 0.37559179E-004
 0.37459654E-004
 0.37357513E-004
 0.37252872E-004
 0.37146159E-004
 0.37037177E-004
 0.36925751E-004
 0.36812443E-004
 0.36697405E-004
 0.36580330E-004
 0.36461333E-004
 0.36340869E-004
 0.36218686E-004
 0.36095045E-004
 0.35970314E-004
 0.35844308E-004
 0.35717053E-004
 0.35588957E-004
 0.35460188E-004
 0.35330637E-004
 0.35200211E-004
 0.35069422E-004
 0.34938181E-004
 0.34806375E-004
 0.34674177E-004
 0.34542037E-004
 0.34409994E-004
 0.34277805E-004
 0.34145753E-004
 0.34014023E-004
 0.33882657E-004
 0.33751696E-004
 0.33621336E-004
 0.33491889E-004
 0.33363093E-004
 0.33234959E-004
 0.33107805E-004
 0.32981532E-004
 0.32856336E-004
 0.32732249E-004
 0.32609634E-004
 0.32488064E-004
 0.32368310E-004
 0.32249433E-004
 0.32131778E-004
 0.32015714E-004
 0.31901355E-004
 0.31788879E-004
 0.31678313E-004
 0.31569006E-004
 0.31461991E-004
 0.31356603E-004
 0.31252872E-004
 0.31150974E-004
 0.31050964E-004
 0.30952874E-004
 0.30856763E-004
 0.30762846E-004
 0.30671322E-004
 0.30581477E-004
 0.30493694E-004
 0.30408362E-004
 0.30324748E-004
 0.30243053E-004
 0.30163496E-004
 0.30086133E-004
 0.30010993E-004
 0.29938069E-004
 0.29867157E-004
 0.29797832E-004
 0.29730330E-004
 0.29664680E-004
 0.29601555E-004
 0.29540358E-004
 0.29481305E-004
 0.29424387E-004
 0.29369183E-004
 0.29315880E-004
 0.29264056E-004
 0.29213753E-004
 0.29165637E-004
 0.29119722E-004
 0.29075341E-004
 0.29032265E-004
 0.28990711E-004
 0.28951140E-004
 0.28913113E-004
 0.28876398E-004
 0.28841001E-004
 0.28807144E-004
 0.28775081E-004
 0.28744111E-004
 0.28714680E-004
 0.28686108E-004
 0.28658864E-004
 0.28633393E-004
 0.28608794E-004
 0.28585264E-004
 0.28562806E-004
 0.28541197E-004
 0.28521110E-004
 0.28501632E-004
 0.28482764E-004
 0.28465399E-004
 0.28448647E-004
 0.28432482E-004
 0.28417611E-004
 0.28403099E-004
 0.28389886E-004
 0.28377233E-004
 0.28364923E-004
 0.28353406E-004
 0.28342449E-004
 0.28332287E-004
 0.28322439E-004
 0.28312903E-004
 0.28304134E-004
 0.28295679E-004
 0.28287540E-004
 0.28280202E-004
 0.28273429E-004
 0.28267428E-004
 0.28261491E-004
 0.28255355E-004
 0.28250222E-004
 0.28245141E-004
 0.28240609E-004
 0.28236332E-004
 0.28232087E-004
 0.28227875E-004
 0.28223916E-004
 0.28220477E-004
 0.28216836E-004
 0.28213716E-004
 0.28210883E-004
 0.28208335E-004
 0.28206308E-004
 0.28204047E-004
 0.28202055E-004
 0.28199828E-004
 0.28198088E-004
 0.28196350E-004
 0.28194155E-004
 0.28192452E-004
 0.28191034E-004
 0.28189900E-004
 0.28189256E-004
 0.28188125E-004
 0.28186773E-004
 0.28185643E-004
 0.28185001E-004
 0.28183904E-004
 0.28182838E-004
 0.28182484E-004
 0.28182160E-004
 0.28181350E-004
 0.28180776E-004
 0.28179965E-004
 0.28179643E-004
 0.28179323E-004
 0.28178546E-004
 0.28178257E-004
 0.28178190E-004
 0.28177901E-004
 0.28177126E-004
 0.28176839E-004
 0.28176806E-004
 0.28176802E-004
 0.28176768E-004
 0.28176482E-004
 0.28175706E-004
 0.28175419E-004
 0.28175386E-004
 0.28175384E-004
 0.28175384E-004
 0.28175384E-004
 0.28175384E-004
 0.28175384E-004
 0.28175382E-004
 0.28175348E-004
 0.28175061E-004
 0.28174282E-004
