 0.23019214E-010
 0.14085551E-003
 0.14085528E-003
 0.22895214E-010
 0.23028874E-010
 0.14085530E-003
 0.14085593E-003
 0.22721865E-010
 0.93340238E-007
 0.55614153E-005
 0.53309432E-004
 0.18079162E-003
 0.29575259E-003
 0.45176915E-003
 0.86806387E-003
 0.93332934E-003
 0.56047070E-003
 0.15627227E-003
 0.17441749E-003
 0.17441742E-003
 0.15627210E-003
 0.56047049E-003
 0.93332925E-003
 0.86806428E-003
 0.45176888E-003
 0.29574883E-003
 0.18078676E-003
 0.53304652E-004
 0.55603193E-005
 0.93290378E-007
 0.60157530E-011
 0.47973554E-013
 0.49998331E-013
 0.60631681E-011
 0.93385104E-007
 0.55624493E-005
 0.53314204E-004
 0.18079783E-003
 0.29575889E-003
 0.45176980E-003
 0.86806319E-003
 0.93332945E-003
 0.56047057E-003
 0.15627229E-003
 0.17441790E-003
 0.17441806E-003
 0.15627276E-003
 0.56047074E-003
 0.93332940E-003
 0.86805889E-003
 0.45176611E-003
 0.29574873E-003
 0.18077796E-003
 0.53296614E-004
 0.55583894E-005
 0.93184670E-007
 0.59434975E-011
 0.44509690E-013
 0.49525494E-013
 0.60615185E-011
 0.60567308E-011
 0.49319121E-013
 0.49773219E-013
 0.60634991E-011
 0.15627244E-003
 0.17441791E-003
 0.17441783E-003
 0.15627226E-003
 0.15627217E-003
 0.17441767E-003
 0.17441786E-003
 0.15627272E-003
 0.60067243E-011
 0.46987429E-013
 0.44315976E-013
 0.59416037E-011
 0.75750887E-007
 0.55164750E-007
 0.55154022E-007
 0.75716086E-007
 0.50073913E-005
 0.43207300E-005
 0.43204686E-005
 0.50065901E-005
 0.50138366E-004
 0.46078797E-004
 0.46077655E-004
 0.50134875E-004
 0.17609490E-003
 0.16976681E-003
 0.16976604E-003
 0.17609184E-003
 0.29253639E-003
 0.28797190E-003
 0.28797190E-003
 0.29253462E-003
 0.44269302E-003
 0.43170868E-003
 0.43170875E-003
 0.44269298E-003
 0.86394583E-003
 0.85885877E-003
 0.85885892E-003
 0.86394620E-003
 0.93210730E-003
 0.93046904E-003
 0.93046902E-003
 0.93210724E-003
 0.57732565E-003
 0.59632078E-003
 0.59632072E-003
 0.57732549E-003
 0.75772794E-007
 0.55145855E-007
 0.55097814E-007
 0.75626976E-007
 0.50079721E-005
 0.43203946E-005
 0.43193060E-005
 0.50048703E-005
 0.50141144E-004
 0.46077108E-004
 0.46071952E-004
 0.50127219E-004
 0.17609840E-003
 0.16976397E-003
 0.16975778E-003
 0.17608243E-003
 0.29254044E-003
 0.28797281E-003
 0.28797149E-003
 0.29253429E-003
 0.44269282E-003
 0.43170711E-003
 0.43170616E-003
 0.44269012E-003
 0.86394476E-003
 0.85885649E-003
 0.85885509E-003
 0.86394125E-003
 0.93210743E-003
 0.93046922E-003
 0.93046925E-003
 0.93210744E-003
 0.57732563E-003
 0.59632093E-003
 0.59632096E-003
 0.57732574E-003
 0.75741466E-007
 0.55150501E-007
 0.55164872E-007
 0.75778205E-007
 0.50071605E-005
 0.43204046E-005
 0.43208208E-005
 0.50081014E-005
 0.50137215E-004
 0.46077262E-004
 0.46079453E-004
 0.50141869E-004
 0.17609384E-003
 0.16976559E-003
 0.16976824E-003
 0.17609973E-003
 0.29253748E-003
 0.28797398E-003
 0.28797470E-003
 0.29254121E-003
 0.44269260E-003
 0.43170770E-003
 0.43170791E-003
 0.44269311E-003
 0.86394524E-003
 0.85885736E-003
 0.85885751E-003
 0.86394504E-003
 0.93210734E-003
 0.93046916E-003
 0.93046918E-003
 0.93210743E-003
 0.57732573E-003
 0.59632100E-003
 0.59632096E-003
 0.57732564E-003
 0.18408292E-003
 0.21716955E-003
 0.21716951E-003
 0.18408291E-003
 0.21716926E-003
 0.26820634E-003
 0.26820639E-003
 0.21716954E-003
 0.21716915E-003
 0.26820622E-003
 0.26820635E-003
 0.21716964E-003
 0.18408268E-003
 0.21716931E-003
 0.21716949E-003
 0.18408323E-003
 0.57732552E-003
 0.59632084E-003
 0.59632090E-003
 0.57732574E-003
 0.93210724E-003
 0.93046904E-003
 0.93046912E-003
 0.93210740E-003
 0.86394611E-003
 0.85885839E-003
 0.85885693E-003
 0.86394196E-003
 0.44269295E-003
 0.43170858E-003
 0.43170768E-003
 0.44269067E-003
 0.29253445E-003
 0.28797174E-003
 0.28797112E-003
 0.29253363E-003
 0.17609166E-003
 0.16976559E-003
 0.16976251E-003
 0.17608422E-003
 0.50134559E-004
 0.46076446E-004
 0.46073940E-004
 0.50128058E-004
 0.50064753E-005
 0.43200604E-005
 0.43195099E-005
 0.50049718E-005
 0.75707997E-007
 0.55128570E-007
 0.55102437E-007
 0.75630577E-007
 0.11997559E-011
 0.62951218E-014
 0.59372150E-014
 0.11844625E-011
 0.64272375E-014
 0.00000000E+000
 0.00000000E+000
 0.59631678E-014
 0.66985062E-014
 0.00000000E+000
 0.00000000E+000
 0.66351580E-014
 0.12105822E-011
 0.66075093E-014
 0.66683470E-014
 0.12110946E-011
 0.59692166E-007
 0.40839834E-007
 0.40844810E-007
 0.59708351E-007
 0.40852673E-007
 0.22817553E-007
 0.22812296E-007
 0.40838324E-007
 0.40850708E-007
 0.22825672E-007
 0.22816049E-007
 0.40814093E-007
 0.59675357E-007
 0.40841598E-007
 0.40823001E-007
 0.59613592E-007
 0.43862769E-005
 0.36069248E-005
 0.36071337E-005
 0.43867992E-005
 0.36072006E-005
 0.26584706E-005
 0.26584077E-005
 0.36069972E-005
 0.36071587E-005
 0.26587102E-005
 0.26585027E-005
 0.36063956E-005
 0.43859156E-005
 0.36070599E-005
 0.36066490E-005
 0.43846585E-005
 0.45983570E-004
 0.40605513E-004
 0.40606868E-004
 0.45986491E-004
 0.40606588E-004
 0.33258293E-004
 0.33258248E-004
 0.40605901E-004
 0.40606432E-004
 0.33259332E-004
 0.33258229E-004
 0.40602636E-004
 0.45982171E-004
 0.40606353E-004
 0.40604289E-004
 0.45976348E-004
 0.16764175E-003
 0.15636641E-003
 0.15636825E-003
 0.16764561E-003
 0.15636705E-003
 0.13840405E-003
 0.13840400E-003
 0.15636586E-003
 0.15636724E-003
 0.13840505E-003
 0.13840296E-003
 0.15636128E-003
 0.16764105E-003
 0.15636764E-003
 0.15636454E-003
 0.16763340E-003
 0.28284821E-003
 0.27017482E-003
 0.27017468E-003
 0.28284995E-003
 0.27017438E-003
 0.24718387E-003
 0.24718313E-003
 0.27017395E-003
 0.27017489E-003
 0.24718509E-003
 0.24718425E-003
 0.27017377E-003
 0.28284738E-003
 0.27017523E-003
 0.27017441E-003
 0.28284630E-003
 0.42782840E-003
 0.41032872E-003
 0.41032864E-003
 0.42782817E-003
 0.41032949E-003
 0.38536471E-003
 0.38536433E-003
 0.41032829E-003
 0.41032981E-003
 0.38536528E-003
 0.38536463E-003
 0.41032787E-003
 0.42782894E-003
 0.41032983E-003
 0.41032898E-003
 0.42782666E-003
 0.85607186E-003
 0.84631514E-003
 0.84631515E-003
 0.85607133E-003
 0.84631604E-003
 0.83060807E-003
 0.83060766E-003
 0.84631448E-003
 0.84631631E-003
 0.83060833E-003
 0.83060735E-003
 0.84631340E-003
 0.85607259E-003
 0.84631595E-003
 0.84631459E-003
 0.85606875E-003
 0.92903969E-003
 0.92478873E-003
 0.92478876E-003
 0.92903979E-003
 0.92478864E-003
 0.91682165E-003
 0.91682171E-003
 0.92478880E-003
 0.92478861E-003
 0.91682162E-003
 0.91682173E-003
 0.92478885E-003
 0.92903961E-003
 0.92478864E-003
 0.92478875E-003
 0.92903983E-003
 0.60557867E-003
 0.63697617E-003
 0.63697616E-003
 0.60557866E-003
 0.63697603E-003
 0.68129986E-003
 0.68129988E-003
 0.63697613E-003
 0.63697596E-003
 0.68129980E-003
 0.68129985E-003
 0.63697614E-003
 0.60557851E-003
 0.63697603E-003
 0.63697609E-003
 0.60557871E-003
