 0.00000000E+000
 0.90931917E-005
 0.90921235E-005
 0.00000000E+000
 0.00000000E+000
 0.90915748E-005
 0.90954683E-005
 0.00000000E+000
 0.68383290E-009
 0.38566026E-004
 0.52693601E-002
 0.35790605E-001
 0.67084549E-001
 0.65366085E-001
 0.57389087E+000
 0.79920285E+000
 0.11729643E+000
 0.17046860E-003
 0.47317430E-003
 0.47317261E-003
 0.17046668E-003
 0.11729630E+000
 0.79920284E+000
 0.57389163E+000
 0.65366230E-001
 0.67083769E-001
 0.35789085E-001
 0.52681865E-002
 0.38537968E-004
 0.68028579E-009
 0.00000000E+000
 0.00000000E+000
 0.00000000E+000
 0.00000000E+000
 0.68421318E-009
 0.38592040E-004
 0.52702765E-002
 0.35791268E-001
 0.67084771E-001
 0.65365696E-001
 0.57388884E+000
 0.79920271E+000
 0.11729636E+000
 0.17046963E-003
 0.47319914E-003
 0.47321038E-003
 0.17048776E-003
 0.11729640E+000
 0.79920184E+000
 0.57388340E+000
 0.65365668E-001
 0.67083427E-001
 0.35785576E-001
 0.52666297E-002
 0.38484126E-004
 0.67540355E-009
 0.00000000E+000
 0.00000000E+000
 0.00000000E+000
 0.00000000E+000
 0.00000000E+000
 0.00000000E+000
 0.00000000E+000
 0.00000000E+000
 0.17047531E-003
 0.47319774E-003
 0.47319228E-003
 0.17046771E-003
 0.17046854E-003
 0.47318700E-003
 0.47319564E-003
 0.17048748E-003
 0.00000000E+000
 0.00000000E+000
 0.00000000E+000
 0.00000000E+000
 0.10930458E-009
 0.12415996E-009
 0.12443124E-009
 0.10859740E-009
 0.26483701E-004
 0.16406432E-004
 0.16400959E-004
 0.26465282E-004
 0.45353911E-002
 0.38252075E-002
 0.38249056E-002
 0.45345176E-002
 0.34628461E-001
 0.33339472E-001
 0.33339208E-001
 0.34627545E-001
 0.69020151E-001
 0.70487113E-001
 0.70487225E-001
 0.69019886E-001
 0.62356447E-001
 0.59606350E-001
 0.59606311E-001
 0.62356464E-001
 0.56578765E+000
 0.55876584E+000
 0.55876611E+000
 0.56578831E+000
 0.80913718E+000
 0.81696617E+000
 0.81696617E+000
 0.80913718E+000
 0.12588093E+000
 0.13344839E+000
 0.13344836E+000
 0.12588084E+000
 0.10926409E-009
 0.12458512E-009
 0.12523329E-009
 0.10740550E-009
 0.26495380E-004
 0.16399228E-004
 0.16376890E-004
 0.26423610E-004
 0.45358979E-002
 0.38248667E-002
 0.38238036E-002
 0.45330508E-002
 0.34628292E-001
 0.33337041E-001
 0.33334742E-001
 0.34623294E-001
 0.69020122E-001
 0.70486620E-001
 0.70486994E-001
 0.69019829E-001
 0.62355997E-001
 0.59605822E-001
 0.59605656E-001
 0.62355795E-001
 0.56578564E+000
 0.55876250E+000
 0.55876068E+000
 0.56578116E+000
 0.80913694E+000
 0.81696563E+000
 0.81696528E+000
 0.80913615E+000
 0.12588092E+000
 0.13344845E+000
 0.13344845E+000
 0.12588093E+000
 0.10911919E-009
 0.12456737E-009
 0.12443808E-009
 0.10933099E-009
 0.26477657E-004
 0.16399416E-004
 0.16407535E-004
 0.26498239E-004
 0.45350477E-002
 0.38247618E-002
 0.38252967E-002
 0.45360482E-002
 0.34627362E-001
 0.33337736E-001
 0.33338665E-001
 0.34628737E-001
 0.69020403E-001
 0.70487254E-001
 0.70486936E-001
 0.69020142E-001
 0.62356111E-001
 0.59605816E-001
 0.59605870E-001
 0.62356020E-001
 0.56578658E+000
 0.55876329E+000
 0.55876354E+000
 0.56578587E+000
 0.80913705E+000
 0.81696589E+000
 0.81696592E+000
 0.80913701E+000
 0.12588096E+000
 0.13344850E+000
 0.13344848E+000
 0.12588092E+000
 0.18098897E-002
 0.45907192E-002
 0.45907084E-002
 0.18098872E-002
 0.45906758E-002
 0.11521454E-001
 0.11521453E-001
 0.45907167E-002
 0.45906586E-002
 0.11521422E-001
 0.11521441E-001
 0.45907354E-002
 0.18098702E-002
 0.45906840E-002
 0.45907081E-002
 0.18099275E-002
 0.12588085E+000
 0.13344842E+000
 0.13344843E+000
 0.12588094E+000
 0.80913717E+000
 0.81696607E+000
 0.81696575E+000
 0.80913634E+000
 0.56578826E+000
 0.55876557E+000
 0.55876364E+000
 0.56578230E+000
 0.62356478E-001
 0.59606342E-001
 0.59606229E-001
 0.62356122E-001
 0.69019829E-001
 0.70487096E-001
 0.70487152E-001
 0.69019606E-001
 0.34627412E-001
 0.33339349E-001
 0.33338277E-001
 0.34624600E-001
 0.45344205E-002
 0.38246305E-002
 0.38241320E-002
 0.45331576E-002
 0.26461032E-004
 0.16390017E-004
 0.16378858E-004
 0.26425839E-004
 0.10834577E-009
 0.12508372E-009
 0.12539365E-009
 0.10736531E-009
 0.00000000E+000
 0.00000000E+000
 0.00000000E+000
 0.00000000E+000
 0.00000000E+000
 0.00000000E+000
 0.00000000E+000
 0.00000000E+000
 0.00000000E+000
 0.00000000E+000
 0.00000000E+000
 0.00000000E+000
 0.00000000E+000
 0.00000000E+000
 0.00000000E+000
 0.00000000E+000
 0.19967561E-009
 0.73552925E-009
 0.73552722E-009
 0.19978196E-009
 0.73523770E-009
 0.10823501E-008
 0.10820919E-008
 0.73567692E-009
 0.73575731E-009
 0.10832876E-008
 0.10831738E-008
 0.73655911E-009
 0.20035948E-009
 0.73627869E-009
 0.73664593E-009
 0.20124760E-009
 0.16992822E-004
 0.96109911E-005
 0.96121858E-005
 0.16999846E-004
 0.96171237E-005
 0.32834805E-005
 0.32815917E-005
 0.96115565E-005
 0.96173293E-005
 0.32872056E-005
 0.32857437E-005
 0.96060356E-005
 0.16987111E-004
 0.96161939E-005
 0.96110164E-005
 0.16963736E-004
 0.36214502E-002
 0.27722195E-002
 0.27724245E-002
 0.36219988E-002
 0.27725307E-002
 0.16646993E-002
 0.16646575E-002
 0.27724099E-002
 0.27725370E-002
 0.16650191E-002
 0.16649448E-002
 0.27720155E-002
 0.36211819E-002
 0.27726561E-002
 0.27723714E-002
 0.36201967E-002
 0.31215899E-001
 0.27578040E-001
 0.27578876E-001
 0.31217132E-001
 0.27578609E-001
 0.21490031E-001
 0.21490223E-001
 0.27578061E-001
 0.27578749E-001
 0.21490461E-001
 0.21489674E-001
 0.27576157E-001
 0.31216251E-001
 0.27579408E-001
 0.27578108E-001
 0.31213136E-001
 0.65591939E-001
 0.61606869E-001
 0.61606123E-001
 0.65590989E-001
 0.61607365E-001
 0.52358323E-001
 0.52357762E-001
 0.61606316E-001
 0.61607762E-001
 0.52359100E-001
 0.52358809E-001
 0.61607229E-001
 0.65592190E-001
 0.61607910E-001
 0.61607745E-001
 0.65591902E-001
 0.56429544E-001
 0.51797343E-001
 0.51797381E-001
 0.56429408E-001
 0.51797567E-001
 0.45981888E-001
 0.45981902E-001
 0.51797379E-001
 0.51797577E-001
 0.45981921E-001
 0.45981898E-001
 0.51797295E-001
 0.56429715E-001
 0.51797610E-001
 0.51797540E-001
 0.56429366E-001
 0.54069429E+000
 0.51924020E+000
 0.51924039E+000
 0.54069357E+000
 0.51924153E+000
 0.48603320E+000
 0.48603294E+000
 0.51923979E+000
 0.51924190E+000
 0.48603348E+000
 0.48603255E+000
 0.51923847E+000
 0.54069549E+000
 0.51924157E+000
 0.51924003E+000
 0.54069057E+000
 0.83567897E+000
 0.85532144E+000
 0.85532144E+000
 0.83567883E+000
 0.85532166E+000
 0.88160004E+000
 0.88159990E+000
 0.85532121E+000
 0.85532171E+000
 0.88160008E+000
 0.88159975E+000
 0.85532088E+000
 0.83567910E+000
 0.85532161E+000
 0.85532123E+000
 0.83567816E+000
 0.15125156E+000
 0.17482424E+000
 0.17482423E+000
 0.15125156E+000
 0.17482415E+000
 0.21455110E+000
 0.21455110E+000
 0.17482420E+000
 0.17482411E+000
 0.21455106E+000
 0.21455107E+000
 0.17482420E+000
 0.15125147E+000
 0.17482416E+000
 0.17482417E+000
 0.15125156E+000
