 0.00000000E+000  0.00000000E+000  0.00000000E+000
-0.72262166E-002 -0.37124291E-003 -0.37132322E-003
-0.72259284E-002  0.37155296E-003 -0.37145977E-003
 0.00000000E+000  0.00000000E+000  0.00000000E+000
 0.00000000E+000  0.00000000E+000  0.00000000E+000
-0.72270910E-002 -0.37082533E-003  0.37075672E-003
-0.72243506E-002  0.37265818E-003  0.37266529E-003
 0.00000000E+000  0.00000000E+000  0.00000000E+000
-0.75181632E-001  0.87020472E-005 -0.87020472E-005
-0.77939720E-001  0.96304684E-005 -0.96304684E-005
-0.61992700E+000 -0.48996038E-005  0.48996038E-005
-0.91091519E+000 -0.28805621E-004  0.28805621E-004
-0.41893768E+000 -0.53473422E-005  0.53473422E-005
 0.52191438E+000 -0.12973630E-005  0.12973630E-005
 0.30960014E+000  0.57578334E-006 -0.57578334E-006
-0.54044592E-002  0.76407809E-007 -0.76407809E-007
-0.21609205E-001  0.17903933E-007 -0.17903933E-007
-0.13084600E-001  0.35068414E-003 -0.21367925E-003
-0.20625477E-001  0.32229751E-003  0.71742885E-003
-0.20625294E-001 -0.32245980E-003  0.71737489E-003
-0.13083904E-001 -0.35064656E-003 -0.21399409E-003
-0.21609353E-001  0.39807523E-007  0.39807523E-007
-0.54051370E-002  0.18902556E-007  0.18902556E-007
 0.30959812E+000 -0.61584918E-007 -0.61584918E-007
 0.52191423E+000  0.11028343E-005  0.11028343E-005
-0.41898186E+000  0.21605420E-004  0.21605420E-004
-0.91088456E+000  0.11833843E-004  0.11833843E-004
-0.61982956E+000 -0.99621451E-005 -0.99621451E-005
-0.77929364E-001 -0.19559818E-004 -0.19559818E-004
-0.75097059E-001 -0.11129806E-004 -0.11129806E-004
 0.00000000E+000  0.00000000E+000  0.00000000E+000
 0.00000000E+000  0.00000000E+000  0.00000000E+000
 0.00000000E+000  0.00000000E+000  0.00000000E+000
 0.00000000E+000  0.00000000E+000  0.00000000E+000
-0.75201465E-001  0.25094783E-005  0.25094783E-005
-0.77916507E-001  0.61488537E-005  0.61488537E-005
-0.62003066E+000 -0.55514581E-005 -0.55514581E-005
-0.91088307E+000 -0.14377674E-004 -0.14377674E-004
-0.41895217E+000 -0.53220683E-005 -0.53220683E-005
 0.52194557E+000 -0.97831317E-006 -0.97831317E-006
 0.30960945E+000  0.99123336E-007  0.99123336E-007
-0.54037320E-002 -0.21275260E-008 -0.21275260E-008
-0.21609503E-001 -0.27672148E-007 -0.27672148E-007
-0.13084552E-001  0.35022680E-003  0.21373228E-003
-0.20624484E-001  0.32194558E-003 -0.71664188E-003
-0.20623745E-001 -0.32245071E-003 -0.71611092E-003
-0.13082618E-001 -0.35056148E-003  0.21509746E-003
-0.21608926E-001 -0.26992531E-008  0.26992531E-008
-0.54014626E-002  0.70182198E-007 -0.70182198E-007
 0.30963225E+000  0.60719861E-006 -0.60719861E-006
 0.52197296E+000 -0.19585186E-005  0.19585186E-005
-0.41908241E+000 -0.17154061E-004  0.17154061E-004
-0.91089530E+000 -0.25197992E-004  0.25197992E-004
-0.61976262E+000 -0.94022225E-005  0.94022225E-005
-0.77826592E-001 -0.87348899E-005  0.87348899E-005
-0.75056152E-001 -0.13309955E-004  0.13309955E-004
 0.00000000E+000  0.00000000E+000  0.00000000E+000
 0.00000000E+000  0.00000000E+000  0.00000000E+000
 0.00000000E+000  0.00000000E+000  0.00000000E+000
 0.00000000E+000  0.00000000E+000  0.00000000E+000
 0.00000000E+000  0.00000000E+000  0.00000000E+000
 0.00000000E+000  0.00000000E+000  0.00000000E+000
 0.00000000E+000  0.00000000E+000  0.00000000E+000
 0.00000000E+000  0.00000000E+000  0.00000000E+000
-0.13084416E-001 -0.21381035E-003  0.35060357E-003
-0.20625461E-001  0.71724284E-003  0.32236052E-003
-0.20625648E-001  0.71738978E-003 -0.32222129E-003
-0.13084978E-001 -0.21350780E-003 -0.35047330E-003
-0.13084155E-001  0.21390594E-003  0.35063636E-003
-0.20625088E-001 -0.71716880E-003  0.32227606E-003
-0.20624778E-001 -0.71685621E-003 -0.32262675E-003
-0.13082790E-001  0.21495671E-003 -0.35084689E-003
 0.00000000E+000  0.00000000E+000  0.00000000E+000
 0.00000000E+000  0.00000000E+000  0.00000000E+000
 0.00000000E+000  0.00000000E+000  0.00000000E+000
 0.00000000E+000  0.00000000E+000  0.00000000E+000
-0.59789898E-001  0.20638881E-002 -0.21427996E-017
-0.40014719E-001  0.12634240E-002  0.25413295E-018
-0.39987608E-001 -0.12797026E-002 -0.27240197E-017
-0.59731308E-001 -0.20806536E-002  0.17234439E-017
-0.58758483E-001  0.13153851E-002  0.88194912E-019
-0.43520465E-001  0.38217348E-003 -0.29051800E-017
-0.43497395E-001 -0.38445116E-003 -0.43617794E-017
-0.58736230E-001 -0.13107267E-002 -0.41578963E-017
-0.58177244E+000  0.20834055E-002  0.39426175E-016
-0.56775808E+000  0.16208092E-002  0.76189258E-016
-0.56771769E+000 -0.16208118E-002  0.18815029E-016
-0.58169002E+000 -0.21124633E-002 -0.14163799E-018
-0.91260630E+000  0.12081425E-002  0.16200886E-018
-0.91129748E+000  0.12479853E-003 -0.91643647E-016
-0.91130197E+000 -0.26168557E-003 -0.91705104E-016
-0.91259886E+000 -0.12874581E-002  0.30507977E-016
-0.44050342E+000  0.14456518E-002 -0.58828072E-016
-0.46016132E+000  0.21302155E-003 -0.30846093E-016
-0.46016609E+000 -0.42758589E-003  0.15484115E-016
-0.44052830E+000 -0.15370238E-002 -0.14768432E-016
 0.51117547E+000  0.65315915E-003  0.87586990E-019
 0.50553702E+000  0.25273408E-003  0.67816654E-016
 0.50554028E+000 -0.25880654E-003 -0.86763258E-020
 0.51117968E+000 -0.65873943E-003  0.34097280E-016
 0.30934515E+000 -0.10899798E-002 -0.10334059E-016
 0.30631841E+000 -0.48326550E-003 -0.81005851E-019
 0.30631868E+000  0.48838257E-003 -0.20472789E-016
 0.30934443E+000  0.10925246E-002  0.10407202E-016
-0.61840604E-003  0.77139069E-003 -0.61978196E-019
 0.41851288E-002  0.29554007E-003 -0.24097642E-018
 0.41849605E-002 -0.29495941E-003  0.00000000E+000
-0.61894410E-003 -0.77106790E-003  0.25849563E-019
-0.23581781E-001  0.81885671E-003  0.15262253E-017
-0.26125257E-001  0.40910726E-003 -0.17379504E-017
-0.26125286E-001 -0.40919516E-003 -0.87583370E-018
-0.23581884E-001 -0.81881652E-003 -0.82350918E-019
-0.59796762E-001  0.20690923E-002  0.69365012E-019
-0.39990132E-001  0.12644398E-002  0.53625755E-017
-0.39941559E-001 -0.12326697E-002  0.39343975E-017
-0.59670077E-001 -0.20407528E-002  0.57275450E-017
-0.58740538E-001  0.13100222E-002 -0.59955535E-017
-0.43490402E-001  0.40040392E-003 -0.44008113E-017
-0.43373941E-001 -0.34346818E-003 -0.57817921E-017
-0.58623495E-001 -0.12739213E-002 -0.17082963E-018
-0.58183298E+000  0.21074317E-002  0.38940514E-016
-0.56774530E+000  0.16285321E-002 -0.76024017E-016
-0.56763936E+000 -0.16517259E-002 -0.19140496E-016
-0.58161002E+000 -0.21296600E-002  0.39139007E-016
-0.91257331E+000  0.11270987E-002  0.75570542E-019
-0.91126879E+000  0.54547046E-004  0.12220066E-015
-0.91125817E+000 -0.28848955E-003  0.30510668E-016
-0.91258315E+000 -0.12761195E-002  0.42781102E-019
-0.44052905E+000  0.12586228E-002 -0.14641874E-016
-0.46022457E+000  0.97089233E-004 -0.30841201E-016
-0.46027981E+000 -0.39352109E-003  0.26385091E-019
-0.44064430E+000 -0.14866770E-002 -0.14921841E-016
 0.51120218E+000  0.64450394E-003  0.34102607E-016
 0.50557379E+000  0.24816732E-003 -0.33898083E-016
 0.50559445E+000 -0.25786709E-003  0.33934047E-016
 0.51123963E+000 -0.65726518E-003 -0.44068799E-019
 0.30935526E+000 -0.10885021E-002 -0.30966853E-016
 0.30633507E+000 -0.48163606E-003 -0.10269689E-016
 0.30634527E+000  0.48879300E-003 -0.30826480E-016
 0.30937717E+000  0.10924095E-002 -0.41376829E-016
-0.61749349E-003  0.77127617E-003 -0.18623049E-018
 0.41868534E-002  0.29543984E-003  0.38146709E-018
 0.41878295E-002 -0.29497888E-003 -0.17006127E-018
-0.61533842E-003 -0.77104370E-003  0.46477583E-019
-0.23581910E-001  0.81846901E-003 -0.38156498E-017
-0.26125233E-001  0.40877145E-003  0.00000000E+000
-0.26125115E-001 -0.40921951E-003 -0.26412027E-017
-0.23581562E-001 -0.81875284E-003 -0.25363599E-017
-0.59778423E-001  0.41462555E-017  0.20610073E-002
-0.39994299E-001  0.26815672E-017  0.12675022E-002
-0.40010895E-001  0.42530566E-019 -0.12686463E-002
-0.59808778E-001  0.80202058E-017 -0.20659190E-002
-0.58740502E-001  0.80523638E-017  0.13080864E-002
-0.43493181E-001  0.58975817E-017  0.38930612E-003
-0.43534363E-001 -0.29439776E-017 -0.37366238E-003
-0.58746581E-001  0.77905107E-017 -0.13013987E-002
-0.58174656E+000 -0.97723428E-016  0.20880346E-002
-0.56772380E+000 -0.11441341E-015  0.16250943E-002
-0.56778820E+000  0.10812834E-018 -0.16126829E-002
-0.58184917E+000  0.21208721E-018 -0.21087866E-002
-0.91258833E+000 -0.30769166E-016  0.13066628E-002
-0.91128436E+000 -0.30617485E-016  0.28658826E-003
-0.91129207E+000  0.26657352E-020 -0.79516346E-004
-0.91257720E+000 -0.12214085E-015 -0.11605606E-002
-0.44053976E+000 -0.14717679E-016  0.15253901E-002
-0.46021195E+000  0.15524407E-016  0.40948145E-003
-0.46018947E+000 -0.15432194E-016 -0.13819701E-003
-0.44051916E+000 -0.14724511E-016 -0.13009882E-002
 0.51119760E+000  0.11062262E-018  0.65995351E-003
 0.50557416E+000 -0.33872005E-016  0.25954043E-003
 0.50556827E+000 -0.33897713E-016 -0.24989980E-003
 0.51120273E+000 -0.68616156E-016 -0.64791552E-003
 0.30935233E+000 -0.25635927E-018 -0.10924218E-002
 0.30633221E+000  0.20408198E-016 -0.48841189E-003
 0.30633007E+000  0.10382687E-016  0.48223324E-003
 0.30935420E+000  0.31404736E-016  0.10888526E-002
-0.61785477E-003 -0.15577557E-019  0.77104581E-003
 0.41864782E-002  0.17001334E-018  0.29495270E-003
 0.41863227E-002  0.19811871E-019 -0.29548464E-003
-0.61759827E-003 -0.16545794E-018 -0.77133119E-003
-0.23581832E-001 -0.28603179E-017  0.81879673E-003
-0.26125312E-001 -0.25040596E-017  0.40913549E-003
-0.26125378E-001 -0.36404652E-017 -0.40901005E-003
-0.23581987E-001 -0.25363873E-017 -0.81867688E-003
 0.16802190E-001  0.98935410E-003  0.98921403E-003
 0.24979410E-001  0.25777854E-002  0.87319909E-003
 0.24979265E-001  0.25777488E-002 -0.87314544E-003
 0.16802185E-001  0.98905952E-003 -0.98929971E-003
 0.24979382E-001  0.87323092E-003  0.25776920E-002
 0.38585523E-001  0.19865787E-002  0.19864836E-002
 0.38585452E-001  0.19864902E-002 -0.19865961E-002
 0.24979890E-001  0.87295087E-003 -0.25779630E-002
 0.24979351E-001 -0.87319790E-003  0.25777745E-002
 0.38585445E-001 -0.19864889E-002  0.19864381E-002
 0.38585497E-001 -0.19865885E-002 -0.19867390E-002
 0.24980277E-001 -0.87331464E-003 -0.25780954E-002
 0.16802385E-001 -0.98938805E-003  0.98939462E-003
 0.24979586E-001 -0.25778274E-002  0.87307870E-003
 0.24979837E-001 -0.25778300E-002 -0.87345808E-003
 0.16803576E-001 -0.98932016E-003 -0.98951921E-003
-0.23581935E-001  0.31073786E-017  0.81879758E-003
-0.26125198E-001  0.82098341E-018  0.40901099E-003
-0.26125149E-001  0.94444566E-018 -0.40935323E-003
-0.23581541E-001  0.15811125E-017 -0.81898051E-003
-0.61883183E-003 -0.93186995E-019  0.77100788E-003
 0.41854475E-002  0.19770853E-019  0.29487288E-003
 0.41864872E-002 -0.10518033E-017 -0.29555490E-003
-0.61588693E-003 -0.62149550E-019 -0.77140895E-003
 0.30934456E+000 -0.10988008E-018 -0.10925394E-002
 0.30632036E+000 -0.98087353E-019 -0.48764207E-003
 0.30632862E+000 -0.20409191E-016  0.48380892E-003
 0.30936946E+000  0.10773362E-016  0.10899727E-002
 0.51117917E+000 -0.34627219E-016  0.65866752E-003
 0.50553905E+000 -0.33964556E-016  0.25653852E-003
 0.50555083E+000 -0.33837069E-016 -0.25343682E-003
 0.51121724E+000  0.34893535E-018 -0.65052561E-003
-0.44053239E+000 -0.29121919E-016  0.15482021E-002
-0.46016519E+000 -0.15426747E-016  0.34469032E-003
-0.46019335E+000  0.30822668E-016 -0.24395688E-003
-0.44060925E+000  0.93296892E-019 -0.13914787E-002
-0.91259047E+000 -0.30247908E-016  0.12905177E-002
-0.91130373E+000  0.30609240E-016  0.24868432E-003
-0.91131113E+000  0.30541777E-016 -0.13948374E-003
-0.91259454E+000 -0.80100565E-019 -0.11946618E-002
-0.58168076E+000  0.19640894E-016  0.20942213E-002
-0.56768468E+000 -0.10976811E-018  0.16371392E-002
-0.56763759E+000 -0.54786791E-019 -0.16342378E-002
-0.58160342E+000  0.19497886E-016 -0.21153003E-002
-0.58709125E-001 -0.38498285E-017  0.12907628E-002
-0.43438039E-001  0.58249312E-017  0.38808314E-003
-0.43387426E-001 -0.14651630E-017 -0.31699355E-003
-0.58633885E-001 -0.40565345E-017 -0.12449322E-002
-0.59713429E-001  0.40734664E-017  0.20807713E-002
-0.39956897E-001  0.27648930E-017  0.12801677E-002
-0.39935329E-001 -0.25945175E-017 -0.12393338E-002
-0.59667275E-001 -0.78641910E-017 -0.20438815E-002
 0.40959946E-001  0.00000000E+000  0.00000000E+000
 0.61439933E-001  0.00000000E+000  0.00000000E+000
 0.61439933E-001  0.00000000E+000  0.00000000E+000
 0.40959946E-001  0.00000000E+000  0.00000000E+000
 0.61439933E-001  0.00000000E+000  0.00000000E+000
 0.92159920E-001  0.00000000E+000  0.00000000E+000
 0.92159920E-001  0.00000000E+000  0.00000000E+000
 0.61439933E-001  0.00000000E+000  0.00000000E+000
 0.61439933E-001  0.00000000E+000  0.00000000E+000
 0.92159920E-001  0.00000000E+000  0.00000000E+000
 0.92159920E-001  0.00000000E+000  0.00000000E+000
 0.61439933E-001  0.00000000E+000  0.00000000E+000
 0.40959946E-001  0.00000000E+000  0.00000000E+000
 0.61439933E-001  0.00000000E+000  0.00000000E+000
 0.61439933E-001  0.00000000E+000  0.00000000E+000
 0.40959946E-001  0.00000000E+000  0.00000000E+000
-0.25643518E-001  0.31911131E-003  0.32216420E-003
 0.87035251E-002  0.44765210E-003  0.10040428E-002
 0.86994742E-002  0.45481942E-003 -0.99697003E-003
-0.25654477E-001  0.31663511E-003 -0.32350845E-003
 0.86898516E-002  0.99309070E-003  0.44914477E-003
 0.61202429E-001  0.24865480E-002  0.25040128E-002
 0.61207070E-001  0.24914429E-002 -0.25038787E-002
 0.87119757E-002  0.98729520E-003 -0.45441552E-003
 0.87106702E-002 -0.99884516E-003  0.45084869E-003
 0.61196352E-001 -0.25003616E-002  0.25027905E-002
 0.61207889E-001 -0.24970641E-002 -0.24928859E-002
 0.87457818E-002 -0.97188676E-003 -0.44864155E-003
-0.25601915E-001 -0.31928535E-003  0.33061124E-003
 0.87195035E-002 -0.43562890E-003  0.99869331E-003
 0.87305307E-002 -0.43136906E-003 -0.97428920E-003
-0.25564648E-001 -0.29233793E-003 -0.29495802E-003
-0.18603619E-001  0.63354642E-003  0.63856200E-003
 0.81598980E-002  0.84811720E-003  0.10053255E-003
 0.81619391E-002  0.84853111E-003 -0.72340595E-004
-0.18604078E-001  0.63973213E-003 -0.63389886E-003
 0.81172852E-002  0.86758109E-004  0.84733721E-003
 0.73563287E-001  0.70674323E-003  0.72637065E-003
 0.73602100E-001  0.70727089E-003 -0.69784224E-003
 0.81647876E-002  0.96566980E-004 -0.83672162E-003
 0.81113245E-002 -0.89971791E-004  0.84659931E-003
 0.73520219E-001 -0.72331353E-003  0.72370339E-003
 0.73523061E-001 -0.70781871E-003 -0.67763988E-003
 0.81810310E-002 -0.61384859E-004 -0.81797990E-003
-0.18596102E-001 -0.63862396E-003  0.62525750E-003
 0.81118050E-002 -0.85248618E-003  0.10068109E-003
 0.81337124E-002 -0.84461620E-003 -0.36526394E-004
-0.18511227E-001 -0.60656511E-003 -0.58743312E-003
-0.51966955E+000  0.34368484E-002  0.34419199E-002
-0.52109980E+000  0.68288670E-002  0.31192755E-002
-0.52109646E+000  0.68311527E-002 -0.31124487E-002
-0.51972507E+000  0.34503301E-002 -0.34473551E-002
-0.52115140E+000  0.31113067E-002  0.68251718E-002
-0.43469124E+000  0.45538354E-002  0.45614655E-002
-0.43465213E+000  0.45551822E-002 -0.45367560E-002
-0.52112241E+000  0.31223326E-002 -0.68276646E-002
-0.52116144E+000 -0.31229097E-002  0.68266960E-002
-0.43476284E+000 -0.45508451E-002  0.45658127E-002
-0.43476745E+000 -0.45591959E-002 -0.45502490E-002
-0.52113993E+000 -0.31398331E-002 -0.68262100E-002
-0.51964027E+000 -0.34528889E-002  0.34393979E-002
-0.52119829E+000 -0.68454018E-002  0.31330362E-002
-0.52119999E+000 -0.68390674E-002 -0.31264995E-002
-0.51958144E+000 -0.34692990E-002 -0.34574356E-002
-0.85547665E+000  0.22001018E-002  0.22891499E-002
-0.81827393E+000  0.34664360E-002  0.91728200E-003
-0.81828939E+000  0.34410648E-002 -0.76683006E-003
-0.85550111E+000  0.21345697E-002 -0.21675523E-002
-0.81825110E+000  0.78346499E-003  0.35476902E-002
-0.77191755E+000  0.19803219E-002  0.20922709E-002
-0.77194610E+000  0.19669618E-002 -0.20004117E-002
-0.81827760E+000  0.73453798E-003 -0.34634233E-002
-0.81825134E+000 -0.90681873E-003  0.35394556E-002
-0.77190957E+000 -0.21046051E-002  0.20810611E-002
-0.77190215E+000 -0.21052467E-002 -0.20072430E-002
-0.81824184E+000 -0.91838425E-003 -0.34767320E-002
-0.85548954E+000 -0.22843443E-002  0.22686268E-002
-0.81827392E+000 -0.35442688E-002  0.88912386E-003
-0.81824809E+000 -0.35437667E-002 -0.79412744E-003
-0.85547948E+000 -0.22704371E-002 -0.22047252E-002
-0.46247071E+000  0.44788154E-002  0.45597513E-002
-0.49544977E+000  0.86698343E-002  0.19853828E-002
-0.49542241E+000  0.86264099E-002 -0.17687590E-002
-0.46244252E+000  0.43448721E-002 -0.43853317E-002
-0.49543651E+000  0.18143963E-002  0.87726748E-002
-0.54532916E+000  0.41806354E-002  0.43275696E-002
-0.54531129E+000  0.41499322E-002 -0.41961060E-002
-0.49543871E+000  0.17283575E-002 -0.86704670E-002
-0.49543247E+000 -0.20021175E-002  0.87913554E-002
-0.54532260E+000 -0.43602060E-002  0.43204839E-002
-0.54533715E+000 -0.43709765E-002 -0.42206955E-002
-0.49549096E+000 -0.20021474E-002 -0.86911714E-002
-0.46245873E+000 -0.45726761E-002  0.45907675E-002
-0.49541806E+000 -0.87936912E-002  0.19457530E-002
-0.49545042E+000 -0.87912675E-002 -0.18492576E-002
-0.46253811E+000 -0.45489369E-002 -0.44461249E-002
 0.50711561E+000  0.21600643E-002  0.21684324E-002
 0.49528524E+000  0.45007369E-002  0.12304523E-002
 0.49527218E+000  0.44967988E-002 -0.12241316E-002
 0.50711233E+000  0.21518134E-002 -0.21554737E-002
 0.49526816E+000  0.12235184E-002  0.45097597E-002
 0.47157929E+000  0.28041268E-002  0.28088856E-002
 0.47157147E+000  0.28051735E-002 -0.28066141E-002
 0.49527643E+000  0.12223108E-002 -0.45003129E-002
 0.49526944E+000 -0.12299488E-002  0.45101617E-002
 0.47157978E+000 -0.28091046E-002  0.28088810E-002
 0.47158519E+000 -0.28093935E-002 -0.28057814E-002
 0.49529900E+000 -0.12307925E-002 -0.45028064E-002
 0.50710730E+000 -0.21682654E-002  0.21676803E-002
 0.49526777E+000 -0.45114511E-002  0.12289435E-002
 0.49527788E+000 -0.45111628E-002 -0.12252095E-002
 0.50714352E+000 -0.21670605E-002 -0.21589936E-002
 0.35502894E+000 -0.17143067E-002 -0.17164068E-002
 0.37285375E+000 -0.22193209E-002 -0.68963224E-003
 0.37285121E+000 -0.22190190E-002  0.68382660E-003
 0.35503098E+000 -0.17132063E-002  0.17135111E-002
 0.37284671E+000 -0.68466309E-003 -0.22213000E-002
 0.39476590E+000 -0.69744036E-003 -0.70216402E-003
 0.39476572E+000 -0.69674115E-003  0.69757903E-003
 0.37285450E+000 -0.68315289E-003  0.22192756E-002
 0.37284595E+000  0.68971370E-003 -0.22213481E-002
 0.39476525E+000  0.70269822E-003 -0.70184067E-003
 0.39476962E+000  0.70294604E-003  0.69815555E-003
 0.37286327E+000  0.69012717E-003  0.22194827E-002
 0.35502413E+000  0.17165538E-002 -0.17165558E-002
 0.37284695E+000  0.22213565E-002 -0.68891217E-003
 0.37285431E+000  0.22213544E-002  0.68523240E-003
 0.35504753E+000  0.17164649E-002  0.17143552E-002
 0.49667083E-001  0.12472958E-002  0.12468947E-002
 0.79619829E-001  0.17838814E-002  0.51051778E-003
 0.79619723E-001  0.17838978E-002 -0.51133733E-003
 0.49667500E-001  0.12472751E-002 -0.12473236E-002
 0.79618956E-001  0.51132629E-003  0.17833849E-002
 0.12468469E+000  0.82509083E-003  0.82412469E-003
 0.12468493E+000  0.82514208E-003 -0.82508014E-003
 0.79620159E-001  0.51133657E-003 -0.17839079E-002
 0.79618723E-001 -0.51051590E-003  0.17833750E-002
 0.12468454E+000 -0.82409138E-003  0.82412307E-003
 0.12468536E+000 -0.82409435E-003 -0.82504564E-003
 0.79621100E-001 -0.51052567E-003 -0.17839114E-002
 0.49666318E-001 -0.12468908E-002  0.12468583E-002
 0.79619076E-001 -0.17834192E-002  0.51050266E-003
 0.79620173E-001 -0.17834287E-002 -0.51130792E-003
 0.49669324E-001 -0.12469001E-002 -0.12473004E-002
 0.11744078E-001  0.18107886E-002  0.18106975E-002
 0.25973437E-001  0.34305419E-002  0.10190538E-002
 0.25973428E-001  0.34304877E-002 -0.10190431E-002
 0.11744030E-001  0.18105220E-002 -0.18107430E-002
 0.25973600E-001  0.10190962E-002  0.34304510E-002
 0.46130878E-001  0.21285107E-002  0.21284077E-002
 0.46130805E-001  0.21284360E-002 -0.21285843E-002
 0.25973453E-001  0.10188421E-002 -0.34306908E-002
 0.25973611E-001 -0.10190596E-002  0.34304925E-002
 0.46130963E-001 -0.21284460E-002  0.21283621E-002
 0.46130791E-001 -0.21285244E-002 -0.21286970E-002
 0.25973411E-001 -0.10191648E-002 -0.34308135E-002
 0.11744079E-001 -0.18107827E-002  0.18107826E-002
 0.25973652E-001 -0.34305487E-002  0.10189318E-002
 0.25973550E-001 -0.34305681E-002 -0.10193001E-002
 0.11744219E-001 -0.18107521E-002 -0.18109327E-002
