 0.10000000E+001
 0.12476606E+003
 0.12476591E+003
 0.99999999E+000
 0.10000000E+001
 0.12476594E+003
 0.12476628E+003
 0.10000000E+001
 0.11475749E+001
 0.56893372E+001
 0.35761440E+002
 0.11161152E+003
 0.19636541E+003
 0.33799763E+003
 0.71522133E+003
 0.79085130E+003
 0.38764840E+003
 0.13356340E+003
 0.14361578E+003
 0.14361574E+003
 0.13356330E+003
 0.38764829E+003
 0.79085137E+003
 0.71522178E+003
 0.33799790E+003
 0.19636477E+003
 0.11160970E+003
 0.35758776E+002
 0.56885117E+001
 0.11475109E+001
 0.10000000E+001
 0.10000000E+001
 0.10000000E+001
 0.10000000E+001
 0.11476328E+001
 0.56901509E+001
 0.35764119E+002
 0.11161309E+003
 0.19636541E+003
 0.33799697E+003
 0.71522061E+003
 0.79085113E+003
 0.38764834E+003
 0.13356341E+003
 0.14361598E+003
 0.14361606E+003
 0.13356365E+003
 0.38764839E+003
 0.79085058E+003
 0.71521894E+003
 0.33799611E+003
 0.19636302E+003
 0.11160454E+003
 0.35754369E+002
 0.56871005E+001
 0.11473563E+001
 0.99999999E+000
 0.99999999E+000
 0.10000000E+001
 0.10000000E+001
 0.10000000E+001
 0.10000000E+001
 0.10000000E+001
 0.10000000E+001
 0.13356350E+003
 0.14361601E+003
 0.14361597E+003
 0.13356340E+003
 0.13356334E+003
 0.14361587E+003
 0.14361596E+003
 0.13356363E+003
 0.10000000E+001
 0.99999999E+000
 0.10000000E+001
 0.10000000E+001
 0.11261322E+001
 0.11003585E+001
 0.11003416E+001
 0.11260841E+001
 0.53028273E+001
 0.48040833E+001
 0.48038668E+001
 0.53022007E+001
 0.33929462E+002
 0.31514390E+002
 0.31513696E+002
 0.33927448E+002
 0.10889398E+003
 0.10521728E+003
 0.10521686E+003
 0.10889270E+003
 0.19478086E+003
 0.19255557E+003
 0.19255553E+003
 0.19478052E+003
 0.33332385E+003
 0.32770642E+003
 0.32770645E+003
 0.33332402E+003
 0.71145223E+003
 0.70697958E+003
 0.70697970E+003
 0.71145258E+003
 0.79477898E+003
 0.79904860E+003
 0.79904863E+003
 0.79477904E+003
 0.39660983E+003
 0.40678760E+003
 0.40678757E+003
 0.39660974E+003
 0.11261604E+001
 0.11003242E+001
 0.11002455E+001
 0.11259454E+001
 0.53033167E+001
 0.48038790E+001
 0.48030111E+001
 0.53009287E+001
 0.33931100E+002
 0.31513622E+002
 0.31510672E+002
 0.33923277E+002
 0.10889460E+003
 0.10521520E+003
 0.10521212E+003
 0.10888729E+003
 0.19478048E+003
 0.19255435E+003
 0.19255378E+003
 0.19477874E+003
 0.33332300E+003
 0.32770514E+003
 0.32770479E+003
 0.33332222E+003
 0.71145141E+003
 0.70697824E+003
 0.70697762E+003
 0.71144995E+003
 0.79477878E+003
 0.79904825E+003
 0.79904805E+003
 0.79477831E+003
 0.39660982E+003
 0.40678766E+003
 0.40678766E+003
 0.39660983E+003
 0.11261165E+001
 0.11003314E+001
 0.11003539E+001
 0.11261677E+001
 0.53026610E+001
 0.48038590E+001
 0.48041938E+001
 0.53034063E+001
 0.33928829E+002
 0.31513605E+002
 0.31514868E+002
 0.33931471E+002
 0.10889309E+003
 0.10521596E+003
 0.10521715E+003
 0.10889515E+003
 0.19478059E+003
 0.19255491E+003
 0.19255495E+003
 0.19478064E+003
 0.33332341E+003
 0.32770543E+003
 0.32770542E+003
 0.33332307E+003
 0.71145185E+003
 0.70697865E+003
 0.70697865E+003
 0.71145150E+003
 0.79477890E+003
 0.79904841E+003
 0.79904840E+003
 0.79477881E+003
 0.39660987E+003
 0.40678771E+003
 0.40678769E+003
 0.39660982E+003
 0.14861465E+003
 0.16584234E+003
 0.16584232E+003
 0.14861464E+003
 0.16584219E+003
 0.19129952E+003
 0.19129954E+003
 0.16584232E+003
 0.16584213E+003
 0.19129946E+003
 0.19129951E+003
 0.16584236E+003
 0.14861452E+003
 0.16584221E+003
 0.16584229E+003
 0.14861479E+003
 0.39660976E+003
 0.40678762E+003
 0.40678764E+003
 0.39660984E+003
 0.79477903E+003
 0.79904855E+003
 0.79904832E+003
 0.79477841E+003
 0.71145256E+003
 0.70697946E+003
 0.70697867E+003
 0.71145036E+003
 0.33332402E+003
 0.32770637E+003
 0.32770594E+003
 0.33332270E+003
 0.19478051E+003
 0.19255551E+003
 0.19255503E+003
 0.19477915E+003
 0.10889262E+003
 0.10521655E+003
 0.10521491E+003
 0.10888844E+003
 0.33927269E+002
 0.31512949E+002
 0.31511556E+002
 0.33923684E+002
 0.53021121E+001
 0.48035313E+001
 0.48031042E+001
 0.53009850E+001
 0.11260713E+001
 0.11002983E+001
 0.11002540E+001
 0.11259514E+001
 0.10000000E+001
 0.99999999E+000
 0.10000000E+001
 0.99999999E+000
 0.10000000E+001
 0.99999999E+000
 0.10000000E+001
 0.99999999E+000
 0.10000000E+001
 0.99999999E+000
 0.99999999E+000
 0.99999999E+000
 0.10000000E+001
 0.10000000E+001
 0.99999999E+000
 0.99999999E+000
 0.11036229E+001
 0.10762777E+001
 0.10762846E+001
 0.11036447E+001
 0.10763040E+001
 0.10438861E+001
 0.10438733E+001
 0.10762750E+001
 0.10763022E+001
 0.10439064E+001
 0.10438858E+001
 0.10762345E+001
 0.11036004E+001
 0.10762863E+001
 0.10762525E+001
 0.11034982E+001
 0.48542124E+001
 0.42696861E+001
 0.42698662E+001
 0.48546561E+001
 0.42698824E+001
 0.35345028E+001
 0.35344617E+001
 0.42697600E+001
 0.42698297E+001
 0.35346793E+001
 0.35345132E+001
 0.42692492E+001
 0.48538937E+001
 0.42697300E+001
 0.42694029E+001
 0.48529340E+001
 0.31603638E+002
 0.28511259E+002
 0.28512103E+002
 0.31605398E+002
 0.28511753E+002
 0.24380971E+002
 0.24381041E+002
 0.28511546E+002
 0.28511564E+002
 0.24381395E+002
 0.24380806E+002
 0.28509541E+002
 0.31602692E+002
 0.28511417E+002
 0.28510258E+002
 0.31599478E+002
 0.10447154E+003
 0.98516759E+002
 0.98517678E+002
 0.10447293E+003
 0.98517363E+002
 0.89417764E+002
 0.89417801E+002
 0.98516528E+002
 0.98517394E+002
 0.89418125E+002
 0.89417057E+002
 0.98514113E+002
 0.10447140E+003
 0.98517483E+002
 0.98515851E+002
 0.10446717E+003
 0.19004573E+003
 0.18384184E+003
 0.18384174E+003
 0.19004544E+003
 0.18384240E+003
 0.17250512E+003
 0.17250480E+003
 0.18384148E+003
 0.18384260E+003
 0.17250562E+003
 0.17250512E+003
 0.18384124E+003
 0.19004594E+003
 0.18384273E+003
 0.18384218E+003
 0.19004452E+003
 0.32552470E+003
 0.31634357E+003
 0.31634350E+003
 0.32552421E+003
 0.31634420E+003
 0.30301229E+003
 0.30301210E+003
 0.31634336E+003
 0.31634434E+003
 0.30301255E+003
 0.30301220E+003
 0.31634317E+003
 0.32552516E+003
 0.31634432E+003
 0.31634389E+003
 0.32552385E+003
 0.70472621E+003
 0.69674222E+003
 0.69674218E+003
 0.70472577E+003
 0.69674279E+003
 0.68453604E+003
 0.68453582E+003
 0.69674191E+003
 0.69674295E+003
 0.68453619E+003
 0.68453570E+003
 0.69674143E+003
 0.70472674E+003
 0.69674278E+003
 0.69674208E+003
 0.70472473E+003
 0.80119686E+003
 0.80803867E+003
 0.80803865E+003
 0.80119675E+003
 0.80803879E+003
 0.81740639E+003
 0.81740632E+003
 0.80803855E+003
 0.80803883E+003
 0.81740642E+003
 0.81740626E+003
 0.80803839E+003
 0.80119697E+003
 0.80803877E+003
 0.80803856E+003
 0.80119639E+003
 0.41184080E+003
 0.42910083E+003
 0.42910082E+003
 0.41184079E+003
 0.42910076E+003
 0.45431659E+003
 0.45431659E+003
 0.42910079E+003
 0.42910073E+003
 0.45431655E+003
 0.45431656E+003
 0.42910078E+003
 0.41184072E+003
 0.42910076E+003
 0.42910077E+003
 0.41184079E+003
