 0.00000000E+000
 0.65372069E-004
 0.65229013E-004
 0.00000000E+000
 0.00000000E+000
 0.64511286E-004
 0.67058840E-004
 0.00000000E+000
 0.82138241E-004
 0.18180599E-001
 0.17144841E+000
 0.34317651E+000
 0.31460963E+000
 0.99312200E-001
 0.45908409E+000
 0.86007320E+000
 0.33146107E+000
 0.15898531E-001
 0.28495173E-001
 0.28495155E-001
 0.15898552E-001
 0.33146069E+000
 0.86007346E+000
 0.45908619E+000
 0.99312619E-001
 0.31460660E+000
 0.34317071E+000
 0.17143273E+000
 0.18174197E-001
 0.81918928E-004
 0.00000000E+000
 0.00000000E+000
 0.00000000E+000
 0.00000000E+000
 0.82160030E-004
 0.18186509E-001
 0.17145937E+000
 0.34317968E+000
 0.31461222E+000
 0.99308688E-001
 0.45907698E+000
 0.86007256E+000
 0.33146078E+000
 0.15898577E-001
 0.28496321E-001
 0.28496932E-001
 0.15900271E-001
 0.33146126E+000
 0.86007020E+000
 0.45905383E+000
 0.99312440E-001
 0.31460685E+000
 0.34315680E+000
 0.17141120E+000
 0.18162227E-001
 0.81617080E-004
 0.00000000E+000
 0.00000000E+000
 0.00000000E+000
 0.00000000E+000
 0.00000000E+000
 0.00000000E+000
 0.00000000E+000
 0.00000000E+000
 0.15898932E-001
 0.28495970E-001
 0.28495721E-001
 0.15898331E-001
 0.15898633E-001
 0.28495726E-001
 0.28496168E-001
 0.15900158E-001
 0.00000000E+000
 0.00000000E+000
 0.00000000E+000
 0.00000000E+000
 0.27613292E-004
-0.24051361E-004
-0.24098536E-004
 0.27469597E-004
 0.15074107E-001
 0.11845790E-001
 0.11843945E-001
 0.15069094E-001
 0.16102216E+000
 0.15031926E+000
 0.15031409E+000
 0.16100915E+000
 0.34295205E+000
 0.34215749E+000
 0.34215723E+000
 0.34294945E+000
 0.31749048E+000
 0.31867741E+000
 0.31867838E+000
 0.31749004E+000
 0.87722889E-001
 0.74728294E-001
 0.74727760E-001
 0.87722453E-001
 0.44960679E+000
 0.44038000E+000
 0.44038033E+000
 0.44960818E+000
 0.86784804E+000
 0.87356320E+000
 0.87356325E+000
 0.86784824E+000
 0.35335470E+000
 0.37162950E+000
 0.37162943E+000
 0.35335446E+000
 0.27594857E-004
-0.24125081E-004
-0.24241938E-004
 0.27227787E-004
 0.15077278E-001
 0.11843262E-001
 0.11835713E-001
 0.15057902E-001
 0.16102855E+000
 0.15031206E+000
 0.15029342E+000
 0.16098582E+000
 0.34295091E+000
 0.34214612E+000
 0.34213853E+000
 0.34293274E+000
 0.31749096E+000
 0.31867613E+000
 0.31867832E+000
 0.31749089E+000
 0.87719292E-001
 0.74723994E-001
 0.74721109E-001
 0.87718363E-001
 0.44959902E+000
 0.44036690E+000
 0.44036036E+000
 0.44958111E+000
 0.86784715E+000
 0.87356147E+000
 0.87356053E+000
 0.86784502E+000
 0.35335465E+000
 0.37162977E+000
 0.37162990E+000
 0.35335496E+000
 0.27570381E-004
-0.24113204E-004
-0.24088703E-004
 0.27606467E-004
 0.15072484E-001
 0.11843395E-001
 0.11846147E-001
 0.15078064E-001
 0.16101648E+000
 0.15031083E+000
 0.15032004E+000
 0.16103106E+000
 0.34294814E+000
 0.34215021E+000
 0.34215290E+000
 0.34295264E+000
 0.31749211E+000
 0.31867908E+000
 0.31867763E+000
 0.31749146E+000
 0.87719439E-001
 0.74722463E-001
 0.74722901E-001
 0.87718727E-001
 0.44960242E+000
 0.44037060E+000
 0.44037187E+000
 0.44960033E+000
 0.86784756E+000
 0.87356211E+000
 0.87356219E+000
 0.86784730E+000
 0.35335479E+000
 0.37162979E+000
 0.37162971E+000
 0.35335461E+000
 0.62100914E-001
 0.10097600E+000
 0.10097587E+000
 0.62100865E-001
 0.10097553E+000
 0.16276873E+000
 0.16276875E+000
 0.10097614E+000
 0.10097536E+000
 0.16276853E+000
 0.16276872E+000
 0.10097646E+000
 0.62100637E-001
 0.10097569E+000
 0.10097605E+000
 0.62101960E-001
 0.35335448E+000
 0.37162963E+000
 0.37162975E+000
 0.35335496E+000
 0.86784821E+000
 0.87356289E+000
 0.87356194E+000
 0.86784559E+000
 0.44960786E+000
 0.44037790E+000
 0.44037204E+000
 0.44958621E+000
 0.87722879E-001
 0.74729564E-001
 0.74727506E-001
 0.87721509E-001
 0.31748961E+000
 0.31867715E+000
 0.31867719E+000
 0.31748923E+000
 0.34294905E+000
 0.34215887E+000
 0.34215503E+000
 0.34293814E+000
 0.16100757E+000
 0.15030953E+000
 0.15030067E+000
 0.16098804E+000
 0.15067956E-001
 0.11840221E-001
 0.11836439E-001
 0.15058511E-001
 0.27410619E-004
-0.24204788E-004
-0.24260545E-004
 0.27214822E-004
 0.00000000E+000
 0.00000000E+000
 0.00000000E+000
 0.00000000E+000
 0.00000000E+000
 0.00000000E+000
 0.00000000E+000
 0.00000000E+000
 0.00000000E+000
 0.00000000E+000
 0.00000000E+000
 0.00000000E+000
 0.00000000E+000
 0.00000000E+000
 0.00000000E+000
 0.00000000E+000
-0.33062863E-004
-0.78190838E-004
-0.78190151E-004
-0.33070429E-004
-0.78172610E-004
-0.99232793E-004
-0.99222533E-004
-0.78201506E-004
-0.78202090E-004
-0.99273295E-004
-0.99269353E-004
-0.78254801E-004
-0.33150934E-004
-0.78231891E-004
-0.78255424E-004
-0.33275903E-004
 0.12155041E-001
 0.91991439E-002
 0.91996845E-002
 0.12157427E-001
 0.92018940E-002
 0.55288155E-002
 0.55273394E-002
 0.91993718E-002
 0.92019961E-002
 0.55317385E-002
 0.55305768E-002
 0.91969009E-002
 0.12153093E-001
 0.92014863E-002
 0.91991610E-002
 0.12145220E-001
 0.14552383E+000
 0.12940339E+000
 0.12940741E+000
 0.14553273E+000
 0.12941041E+000
 0.10224726E+000
 0.10224574E+000
 0.12940696E+000
 0.12941083E+000
 0.10225650E+000
 0.10225415E+000
 0.12939905E+000
 0.14551989E+000
 0.12941377E+000
 0.12940771E+000
 0.14550208E+000
 0.33015628E+000
 0.31537705E+000
 0.31537969E+000
 0.33016011E+000
 0.31538042E+000
 0.28336016E+000
 0.28336017E+000
 0.31537607E+000
 0.31538190E+000
 0.28336359E+000
 0.28335874E+000
 0.31536906E+000
 0.33015922E+000
 0.31538582E+000
 0.31537977E+000
 0.33014603E+000
 0.30651637E+000
 0.29366632E+000
 0.29366202E+000
 0.30651115E+000
 0.29366839E+000
 0.26681341E+000
 0.26681001E+000
 0.29366307E+000
 0.29367077E+000
 0.26681757E+000
 0.26681595E+000
 0.29366829E+000
 0.30651805E+000
 0.29367092E+000
 0.29366994E+000
 0.30651671E+000
 0.70858197E-001
 0.55179104E-001
 0.55179972E-001
 0.70857799E-001
 0.55181925E-001
 0.37711821E-001
 0.37712689E-001
 0.55181194E-001
 0.55182213E-001
 0.37712913E-001
 0.37712716E-001
 0.55179374E-001
 0.70860240E-001
 0.55183928E-001
 0.55182518E-001
 0.70857649E-001
 0.41549500E+000
 0.38464772E+000
 0.38464875E+000
 0.41549245E+000
 0.38465287E+000
 0.33518606E+000
 0.33518508E+000
 0.38464574E+000
 0.38465381E+000
 0.33518697E+000
 0.33518303E+000
 0.38464031E+000
 0.41549870E+000
 0.38465232E+000
 0.38464681E+000
 0.41548021E+000
 0.88610906E+000
 0.89679647E+000
 0.89679647E+000
 0.88610856E+000
 0.89679725E+000
 0.90641097E+000
 0.90641058E+000
 0.89679588E+000
 0.89679744E+000
 0.90641111E+000
 0.90641017E+000
 0.89679498E+000
 0.88610962E+000
 0.89679708E+000
 0.89679599E+000
 0.88610681E+000
 0.41311998E+000
 0.46273552E+000
 0.46273549E+000
 0.41311998E+000
 0.46273534E+000
 0.53753618E+000
 0.53753618E+000
 0.46273550E+000
 0.46273527E+000
 0.53753613E+000
 0.53753616E+000
 0.46273556E+000
 0.41311978E+000
 0.46273540E+000
 0.46273548E+000
 0.41312018E+000
