 0.23134664E+004
 0.46212000E+003
 0.46212000E+003
 0.23134664E+004
 0.23134664E+004
 0.90000000E+003
 0.90000000E+003
 0.23134664E+004
 0.23134664E+004
 0.23134664E+004
 0.23134664E+004
 0.23134664E+004
 0.23134664E+004
 0.23134664E+004
 0.23134663E+004
 0.23134648E+004
 0.23134374E+004
 0.23130366E+004
 0.22921316E+004
 0.21018962E+004
 0.15961036E+004
 0.87309117E+003
 0.46212000E+003
 0.46212000E+003
 0.46212000E+003
 0.46212000E+003
 0.46212000E+003
 0.46212000E+003
 0.46212000E+003
 0.46212000E+003
 0.87308338E+003
 0.15960975E+004
 0.21018922E+004
 0.22921311E+004
 0.23130365E+004
 0.23134374E+004
 0.23134648E+004
 0.23134663E+004
 0.23134664E+004
 0.23134664E+004
 0.23134664E+004
 0.23134664E+004
 0.23134664E+004
 0.23134664E+004
 0.23134664E+004
 0.23134664E+004
 0.23134664E+004
 0.23134664E+004
 0.23134664E+004
 0.23134664E+004
 0.23134664E+004
 0.23134664E+004
 0.23134664E+004
 0.23134664E+004
 0.23134664E+004
 0.23134664E+004
 0.23134664E+004
 0.23134664E+004
 0.23134664E+004
 0.23134664E+004
 0.23134664E+004
 0.23134664E+004
 0.23134664E+004
 0.23134664E+004
 0.23134664E+004
 0.23134664E+004
 0.23134666E+004
 0.23134711E+004
 0.23134224E+004
 0.23115308E+004
 0.22887880E+004
 0.20595257E+004
 0.90000000E+003
 0.90000000E+003
 0.90000000E+003
 0.90000000E+003
 0.90000000E+003
 0.90000000E+003
 0.90000000E+003
 0.90000000E+003
 0.20595240E+004
 0.22887874E+004
 0.23115308E+004
 0.23134224E+004
 0.23134711E+004
 0.23134666E+004
 0.23134664E+004
 0.23134664E+004
 0.23134664E+004
 0.23134664E+004
 0.23134664E+004
 0.23134664E+004
 0.23134664E+004
 0.23134664E+004
 0.23134664E+004
 0.23134664E+004
 0.23134664E+004
 0.23134664E+004
 0.23134664E+004
 0.23134664E+004
 0.23134664E+004
 0.23134664E+004
 0.23134664E+004
 0.23134664E+004
 0.23134664E+004
 0.23134664E+004
 0.23134664E+004
 0.23134664E+004
 0.49124881E+003
 0.51561656E+003
 0.64014978E+003
 0.10260281E+004
 0.15047943E+004
 0.18773239E+004
 0.21437566E+004
 0.22790123E+004
 0.23057367E+004
 0.22912297E+004
 0.22223639E+004
 0.20550457E+004
 0.18063157E+004
 0.15368351E+004
 0.49124742E+003
 0.51561534E+003
 0.64014644E+003
 0.10260228E+004
 0.15047901E+004
 0.18773205E+004
 0.21437544E+004
 0.22790115E+004
 0.23057366E+004
 0.22912299E+004
 0.22223647E+004
 0.20550479E+004
 0.18063192E+004
 0.15368384E+004
 0.21037518E+004
 0.21868384E+004
 0.22584298E+004
 0.22969360E+004
 0.23102737E+004
 0.23120306E+004
 0.23062094E+004
 0.22711293E+004
 0.21588214E+004
 0.19421398E+004
 0.16286178E+004
 0.12582526E+004
 0.96807349E+003
 0.84809683E+003
 0.22881070E+004
 0.22979724E+004
 0.23081919E+004
 0.23123353E+004
 0.23132568E+004
 0.23132968E+004
 0.23127339E+004
 0.23087016E+004
 0.22909472E+004
 0.22340058E+004
 0.20960481E+004
 0.18908894E+004
 0.16865365E+004
 0.15961496E+004
 0.23121036E+004
 0.23126120E+004
 0.23130514E+004
 0.23133845E+004
 0.23134675E+004
 0.23134587E+004
 0.23134302E+004
 0.23133045E+004
 0.23123624E+004
 0.23066730E+004
 0.22882725E+004
 0.22420127E+004
 0.21612583E+004
 0.21098354E+004
 0.23133367E+004
 0.23134494E+004
 0.23134801E+004
 0.23134708E+004
 0.23134676E+004
 0.23134667E+004
 0.23134660E+004
 0.23134623E+004
 0.23134372E+004
 0.23132926E+004
 0.23124314E+004
 0.23088207E+004
 0.23015136E+004
 0.22940069E+004
 0.23134698E+004
 0.23134689E+004
 0.23134677E+004
 0.23134668E+004
 0.23134665E+004
 0.23134664E+004
 0.23134663E+004
 0.23134657E+004
 0.23134633E+004
 0.23134549E+004
 0.23134216E+004
 0.23133367E+004
 0.23131946E+004
 0.23130748E+004
 0.23134667E+004
 0.23134665E+004
 0.23134665E+004
 0.23134664E+004
 0.23134664E+004
 0.23134664E+004
 0.23134664E+004
 0.23134664E+004
 0.23134663E+004
 0.23134655E+004
 0.23134633E+004
 0.23134578E+004
 0.23134492E+004
 0.23134399E+004
 0.23134664E+004
 0.23134664E+004
 0.23134664E+004
 0.23134664E+004
 0.23134664E+004
 0.23134664E+004
 0.23134664E+004
 0.23134664E+004
 0.23134664E+004
 0.23134664E+004
 0.23134662E+004
 0.23134660E+004
 0.23134654E+004
 0.23134651E+004
 0.23134664E+004
 0.23134664E+004
 0.23134664E+004
 0.23134664E+004
 0.23134664E+004
 0.23134664E+004
 0.23134664E+004
 0.23134664E+004
 0.23134664E+004
 0.23134664E+004
 0.23134664E+004
 0.23134664E+004
 0.23134664E+004
 0.23134663E+004
 0.23134664E+004
 0.23134664E+004
 0.23134664E+004
 0.23134664E+004
 0.23134664E+004
 0.23134664E+004
 0.23134664E+004
 0.23134664E+004
 0.23134664E+004
 0.23134664E+004
 0.23134664E+004
 0.23134664E+004
 0.23134664E+004
 0.23134664E+004
 0.23134664E+004
 0.23134664E+004
 0.23134664E+004
 0.23134664E+004
 0.23134664E+004
 0.23134664E+004
 0.23134664E+004
 0.23134664E+004
 0.23134664E+004
 0.23134664E+004
 0.23134664E+004
 0.23134664E+004
 0.23134664E+004
 0.23134664E+004
 0.23134664E+004
 0.23134664E+004
 0.23134664E+004
 0.23134664E+004
 0.23134664E+004
 0.23134664E+004
 0.23134664E+004
 0.23134664E+004
 0.23134664E+004
 0.23134664E+004
 0.23134664E+004
 0.23134664E+004
 0.23134664E+004
 0.23134664E+004
 0.23134664E+004
 0.23134664E+004
 0.23134664E+004
 0.23134664E+004
 0.23134664E+004
 0.23134664E+004
 0.23134664E+004
 0.23134664E+004
 0.23134664E+004
 0.23134664E+004
 0.23134664E+004
 0.23134664E+004
 0.23134664E+004
 0.23134664E+004
 0.23134664E+004
 0.23134664E+004
 0.23134664E+004
 0.23134664E+004
 0.23134664E+004
 0.23134664E+004
 0.23134664E+004
 0.23134664E+004
 0.23134664E+004
 0.23134664E+004
 0.23134664E+004
 0.23134664E+004
 0.23134664E+004
 0.23134664E+004
 0.23134664E+004
 0.23134664E+004
 0.23134664E+004
 0.23134664E+004
 0.23134664E+004
 0.23134664E+004
 0.23134664E+004
 0.23134664E+004
 0.23134664E+004
 0.23134664E+004
 0.23134664E+004
 0.23134664E+004
 0.23134664E+004
 0.23134664E+004
 0.10238126E+004
 0.12465551E+004
 0.16514779E+004
 0.20355549E+004
 0.22349920E+004
 0.22873777E+004
 0.22153764E+004
 0.19597009E+004
 0.15693751E+004
 0.10519252E+004
 0.59786285E+003
 0.48612589E+003
 0.46911191E+003
 0.46282912E+003
 0.91734828E+003
 0.10420523E+004
 0.13924628E+004
 0.18493264E+004
 0.21576777E+004
 0.22658011E+004
 0.21613848E+004
 0.18341610E+004
 0.13741069E+004
 0.82371869E+003
 0.51156927E+003
 0.48081276E+003
 0.46659042E+003
 0.46226765E+003
 0.91182944E+003
 0.10057815E+004
 0.12953119E+004
 0.17375090E+004
 0.20915664E+004
 0.22425794E+004
 0.21374999E+004
 0.17736483E+004
 0.12750578E+004
 0.72340830E+003
 0.49377417E+003
 0.48075453E+003
 0.46573373E+003
 0.46213652E+003
 0.91078207E+003
 0.10028444E+004
 0.12875048E+004
 0.17109996E+004
 0.20644083E+004
 0.22298886E+004
 0.21307291E+004
 0.17574517E+004
 0.12502105E+004
 0.70674664E+003
 0.49158228E+003
 0.48081395E+003
 0.46563047E+003
 0.46211999E+003
 0.91078207E+003
 0.10028445E+004
 0.12875050E+004
 0.17110002E+004
 0.20644088E+004
 0.22298888E+004
 0.21307291E+004
 0.17574518E+004
 0.12502105E+004
 0.70674647E+003
 0.49158226E+003
 0.48081395E+003
 0.46563046E+003
 0.46212000E+003
 0.91182949E+003
 0.10057818E+004
 0.12953126E+004
 0.17375101E+004
 0.20915674E+004
 0.22425798E+004
 0.21374999E+004
 0.17736484E+004
 0.12750579E+004
 0.72340795E+003
 0.49377412E+003
 0.48075450E+003
 0.46573372E+003
 0.46213652E+003
 0.91734829E+003
 0.10420525E+004
 0.13924632E+004
 0.18493270E+004
 0.21576782E+004
 0.22658014E+004
 0.21613853E+004
 0.18341618E+004
 0.13741079E+004
 0.82371875E+003
 0.51156924E+003
 0.48081270E+003
 0.46659041E+003
 0.46226765E+003
 0.10238116E+004
 0.12465531E+004
 0.16514762E+004
 0.20355543E+004
 0.22349919E+004
 0.22873779E+004
 0.22153774E+004
 0.19597028E+004
 0.15693775E+004
 0.10519273E+004
 0.59786421E+003
 0.48612599E+003
 0.46911190E+003
 0.46282913E+003
 0.23134664E+004
 0.23134664E+004
 0.23134664E+004
 0.23134664E+004
 0.23134664E+004
 0.23134664E+004
 0.23134664E+004
 0.23134664E+004
 0.23134664E+004
 0.23134664E+004
 0.23134664E+004
 0.23134664E+004
 0.23134664E+004
 0.23134664E+004
 0.23134664E+004
 0.23134664E+004
 0.23134664E+004
 0.23134664E+004
 0.23134664E+004
 0.23134664E+004
 0.23134664E+004
 0.23134664E+004
 0.23134664E+004
 0.23134664E+004
 0.23134664E+004
 0.23134664E+004
 0.23134664E+004
 0.23134664E+004
 0.23134664E+004
 0.23134664E+004
 0.23134664E+004
 0.23134664E+004
 0.23134664E+004
 0.23134664E+004
 0.23134664E+004
 0.23134664E+004
 0.23134664E+004
 0.23134664E+004
 0.23134664E+004
 0.23134664E+004
 0.23134664E+004
 0.23134664E+004
 0.23134664E+004
 0.23134664E+004
 0.23134664E+004
 0.23134664E+004
 0.23134664E+004
 0.23134664E+004
 0.23134664E+004
 0.23134664E+004
 0.23134664E+004
 0.23134664E+004
 0.23134664E+004
 0.23134664E+004
 0.23134664E+004
 0.23134664E+004
 0.23134664E+004
 0.23134664E+004
 0.23134664E+004
 0.23134664E+004
 0.23134664E+004
 0.23134664E+004
 0.23134664E+004
 0.23134664E+004
 0.23134664E+004
 0.23134664E+004
 0.23134664E+004
 0.23134664E+004
 0.23134664E+004
 0.23134664E+004
 0.23134664E+004
 0.23134664E+004
 0.23134664E+004
 0.23134664E+004
 0.23134664E+004
 0.23134664E+004
 0.23134664E+004
 0.23134664E+004
 0.23134664E+004
 0.23134664E+004
 0.23134664E+004
 0.23134664E+004
 0.23134664E+004
 0.23134664E+004
 0.23134664E+004
 0.23134664E+004
 0.23134664E+004
 0.23134664E+004
 0.23134664E+004
 0.23134664E+004
 0.23134664E+004
 0.23134664E+004
 0.23134664E+004
 0.23134664E+004
 0.23134664E+004
 0.23134664E+004
 0.23134664E+004
 0.23134663E+004
 0.23134664E+004
 0.23134664E+004
 0.23134664E+004
 0.23134664E+004
 0.23134664E+004
 0.23134664E+004
 0.23134664E+004
 0.23134664E+004
 0.23134664E+004
 0.23134664E+004
 0.23134662E+004
 0.23134660E+004
 0.23134654E+004
 0.23134651E+004
 0.23134667E+004
 0.23134665E+004
 0.23134665E+004
 0.23134664E+004
 0.23134664E+004
 0.23134664E+004
 0.23134664E+004
 0.23134664E+004
 0.23134663E+004
 0.23134655E+004
 0.23134633E+004
 0.23134578E+004
 0.23134492E+004
 0.23134399E+004
 0.23134698E+004
 0.23134689E+004
 0.23134677E+004
 0.23134668E+004
 0.23134665E+004
 0.23134664E+004
 0.23134663E+004
 0.23134657E+004
 0.23134633E+004
 0.23134549E+004
 0.23134216E+004
 0.23133367E+004
 0.23131945E+004
 0.23130747E+004
 0.23133367E+004
 0.23134494E+004
 0.23134801E+004
 0.23134708E+004
 0.23134676E+004
 0.23134667E+004
 0.23134660E+004
 0.23134623E+004
 0.23134372E+004
 0.23132926E+004
 0.23124313E+004
 0.23088204E+004
 0.23015132E+004
 0.22940063E+004
 0.23121036E+004
 0.23126120E+004
 0.23130514E+004
 0.23133845E+004
 0.23134675E+004
 0.23134587E+004
 0.23134302E+004
 0.23133045E+004
 0.23123624E+004
 0.23066728E+004
 0.22882715E+004
 0.22420099E+004
 0.21612545E+004
 0.21098312E+004
 0.22881076E+004
 0.22979729E+004
 0.23081921E+004
 0.23123354E+004
 0.23132569E+004
 0.23132968E+004
 0.23127339E+004
 0.23087014E+004
 0.22909465E+004
 0.22340041E+004
 0.20960440E+004
 0.18908828E+004
 0.16865292E+004
 0.15961430E+004
 0.21037541E+004
 0.21868402E+004
 0.22584307E+004
 0.22969364E+004
 0.23102738E+004
 0.23120306E+004
 0.23062092E+004
 0.22711285E+004
 0.21588187E+004
 0.19421355E+004
 0.16286118E+004
 0.12582443E+004
 0.96806553E+003
 0.84808866E+003
