 0.13772008E+000
 0.00000000E+000
 0.00000000E+000
 0.13772008E+000
 0.13772008E+000
 0.00000000E+000
 0.00000000E+000
 0.13772008E+000
 0.13772008E+000
 0.13772008E+000
 0.13772008E+000
 0.13772008E+000
 0.13772008E+000
 0.13772007E+000
 0.13772009E+000
 0.13772008E+000
 0.13772412E+000
 0.13777080E+000
 0.13864717E+000
 0.14331086E+000
 0.14959158E+000
 0.74147356E-001
 0.00000000E+000
 0.00000000E+000
 0.00000000E+000
 0.00000000E+000
 0.00000000E+000
 0.00000000E+000
 0.00000000E+000
 0.00000000E+000
 0.74146415E-001
 0.14959144E+000
 0.14331101E+000
 0.13864719E+000
 0.13777080E+000
 0.13772412E+000
 0.13772008E+000
 0.13772009E+000
 0.13772007E+000
 0.13772008E+000
 0.13772008E+000
 0.13772008E+000
 0.13772008E+000
 0.13772008E+000
 0.13772008E+000
 0.13772008E+000
 0.13772008E+000
 0.13772008E+000
 0.13772008E+000
 0.13772008E+000
 0.13772008E+000
 0.13772008E+000
 0.13772008E+000
 0.13772008E+000
 0.13772008E+000
 0.13772008E+000
 0.13772008E+000
 0.13772008E+000
 0.13772008E+000
 0.13772008E+000
 0.13772008E+000
 0.13772008E+000
 0.13772008E+000
 0.13772008E+000
 0.13772007E+000
 0.13772009E+000
 0.13771994E+000
 0.13772084E+000
 0.13770755E+000
 0.13770930E+000
 0.13554385E+000
 0.12839535E+000
 0.00000000E+000
 0.00000000E+000
 0.00000000E+000
 0.00000000E+000
 0.00000000E+000
 0.00000000E+000
 0.00000000E+000
 0.00000000E+000
 0.12839506E+000
 0.13554381E+000
 0.13770930E+000
 0.13770755E+000
 0.13772084E+000
 0.13771994E+000
 0.13772009E+000
 0.13772007E+000
 0.13772008E+000
 0.13772008E+000
 0.13772008E+000
 0.13772008E+000
 0.13772008E+000
 0.13772008E+000
 0.13772008E+000
 0.13772008E+000
 0.13772008E+000
 0.13772008E+000
 0.13772008E+000
 0.13772008E+000
 0.13772008E+000
 0.13772008E+000
 0.13772008E+000
 0.13772008E+000
 0.13772008E+000
 0.13772008E+000
 0.13772008E+000
 0.13772008E+000
 0.00000000E+000
 0.21003347E-002
 0.21884442E-001
 0.85352002E-001
 0.14382131E+000
 0.15126286E+000
 0.14379191E+000
 0.14031768E+000
 0.13820985E+000
 0.13655246E+000
 0.13094580E+000
 0.11339261E+000
 0.83300985E-001
 0.54171170E-001
 0.00000000E+000
 0.21002391E-002
 0.21884023E-001
 0.85351200E-001
 0.14382099E+000
 0.15126289E+000
 0.14379200E+000
 0.14031770E+000
 0.13820987E+000
 0.13655248E+000
 0.13094590E+000
 0.11339290E+000
 0.83301459E-001
 0.54171652E-001
 0.12177072E+000
 0.12938773E+000
 0.13492035E+000
 0.13694432E+000
 0.13763919E+000
 0.13784972E+000
 0.13829430E+000
 0.13971848E+000
 0.14228093E+000
 0.14954354E+000
 0.15054995E+000
 0.12578580E+000
 0.77376871E-001
 0.62606142E-001
 0.13683095E+000
 0.13683344E+000
 0.13737758E+000
 0.13766094E+000
 0.13771387E+000
 0.13772926E+000
 0.13775484E+000
 0.13785036E+000
 0.13824250E+000
 0.13966899E+000
 0.14329758E+000
 0.14959639E+000
 0.15098257E+000
 0.14929481E+000
 0.13756056E+000
 0.13770189E+000
 0.13770776E+000
 0.13771538E+000
 0.13771898E+000
 0.13771971E+000
 0.13771958E+000
 0.13772192E+000
 0.13775474E+000
 0.13789438E+000
 0.13834018E+000
 0.14011017E+000
 0.14151491E+000
 0.14313559E+000
 0.13772221E+000
 0.13771426E+000
 0.13771957E+000
 0.13772000E+000
 0.13772003E+000
 0.13772007E+000
 0.13772022E+000
 0.13772095E+000
 0.13772258E+000
 0.13773318E+000
 0.13780974E+000
 0.13793255E+000
 0.13828557E+000
 0.13851171E+000
 0.13771896E+000
 0.13772045E+000
 0.13771981E+000
 0.13772003E+000
 0.13772008E+000
 0.13772008E+000
 0.13772008E+000
 0.13772005E+000
 0.13772024E+000
 0.13772179E+000
 0.13772250E+000
 0.13773762E+000
 0.13774902E+000
 0.13777812E+000
 0.13772016E+000
 0.13771999E+000
 0.13772011E+000
 0.13772007E+000
 0.13772007E+000
 0.13772008E+000
 0.13772008E+000
 0.13772008E+000
 0.13772010E+000
 0.13772003E+000
 0.13772056E+000
 0.13772040E+000
 0.13772254E+000
 0.13772201E+000
 0.13772006E+000
 0.13772008E+000
 0.13772007E+000
 0.13772008E+000
 0.13772008E+000
 0.13772008E+000
 0.13772008E+000
 0.13772008E+000
 0.13772007E+000
 0.13772009E+000
 0.13772005E+000
 0.13772017E+000
 0.13772005E+000
 0.13772029E+000
 0.13772008E+000
 0.13772007E+000
 0.13772008E+000
 0.13772008E+000
 0.13772008E+000
 0.13772008E+000
 0.13772008E+000
 0.13772008E+000
 0.13772008E+000
 0.13772007E+000
 0.13772008E+000
 0.13772007E+000
 0.13772009E+000
 0.13772007E+000
 0.13772008E+000
 0.13772008E+000
 0.13772008E+000
 0.13772008E+000
 0.13772008E+000
 0.13772008E+000
 0.13772008E+000
 0.13772008E+000
 0.13772008E+000
 0.13772008E+000
 0.13772008E+000
 0.13772008E+000
 0.13772007E+000
 0.13772008E+000
 0.13772008E+000
 0.13772008E+000
 0.13772008E+000
 0.13772008E+000
 0.13772008E+000
 0.13772008E+000
 0.13772008E+000
 0.13772008E+000
 0.13772008E+000
 0.13772008E+000
 0.13772008E+000
 0.13772008E+000
 0.13772008E+000
 0.13772008E+000
 0.13772008E+000
 0.13772008E+000
 0.13772008E+000
 0.13772008E+000
 0.13772008E+000
 0.13772008E+000
 0.13772008E+000
 0.13772008E+000
 0.13772008E+000
 0.13772008E+000
 0.13772008E+000
 0.13772008E+000
 0.13772008E+000
 0.13772008E+000
 0.13772008E+000
 0.13772008E+000
 0.13772008E+000
 0.13772008E+000
 0.13772008E+000
 0.13772008E+000
 0.13772008E+000
 0.13772008E+000
 0.13772008E+000
 0.13772008E+000
 0.13772008E+000
 0.13772008E+000
 0.13772008E+000
 0.13772008E+000
 0.13772008E+000
 0.13772008E+000
 0.13772008E+000
 0.13772008E+000
 0.13772008E+000
 0.13772008E+000
 0.13772008E+000
 0.13772008E+000
 0.13772008E+000
 0.13772008E+000
 0.13772008E+000
 0.13772008E+000
 0.13772008E+000
 0.13772008E+000
 0.13772008E+000
 0.13772008E+000
 0.13772008E+000
 0.13772008E+000
 0.13772008E+000
 0.13772008E+000
 0.13772008E+000
 0.13772008E+000
 0.13772008E+000
 0.13772008E+000
 0.13772008E+000
 0.13772008E+000
 0.13772008E+000
 0.13772008E+000
 0.00000000E+000
 0.15648445E-001
 0.62339379E-001
 0.10938552E+000
 0.13164396E+000
 0.13841310E+000
 0.14170358E+000
 0.15005673E+000
 0.14361376E+000
 0.89933033E-001
 0.20706291E-001
 0.32469697E-002
 0.00000000E+000
 0.00000000E+000
 0.27384524E-003
 0.62200545E-002
 0.36399351E-001
 0.87203273E-001
 0.12269769E+000
 0.13769879E+000
 0.14290142E+000
 0.15151878E+000
 0.13123737E+000
 0.61415017E-001
 0.17443092E-001
 0.23230969E-002
 0.00000000E+000
 0.00000000E+000
 0.17984030E-004
 0.53457275E-002
 0.28163499E-001
 0.74169648E-001
 0.11415384E+000
 0.13531593E+000
 0.14305010E+000
 0.15147985E+000
 0.12126269E+000
 0.50463230E-001
 0.14004975E-001
 0.00000000E+000
 0.00000000E+000
 0.00000000E+000
 0.00000000E+000
 0.50758603E-002
 0.29797412E-001
 0.72875909E-001
 0.11092933E+000
 0.13378713E+000
 0.14299333E+000
 0.15145378E+000
 0.11965768E+000
 0.50052665E-001
 0.13582625E-001
 0.00000000E+000
 0.00000000E+000
 0.31419349E-007
 0.00000000E+000
 0.50758601E-002
 0.29797417E-001
 0.72875987E-001
 0.11092941E+000
 0.13378716E+000
 0.14299334E+000
 0.15145378E+000
 0.11965768E+000
 0.50052552E-001
 0.13582537E-001
 0.00000000E+000
 0.00000000E+000
 0.31415297E-007
 0.17982384E-004
 0.53457499E-002
 0.28163549E-001
 0.74169796E-001
 0.11415399E+000
 0.13531599E+000
 0.14305011E+000
 0.15147985E+000
 0.12126265E+000
 0.50463004E-001
 0.14004840E-001
 0.00000000E+000
 0.00000000E+000
 0.00000000E+000
 0.27384193E-003
 0.62201204E-002
 0.36399444E-001
 0.87203367E-001
 0.12269776E+000
 0.13769880E+000
 0.14290142E+000
 0.15151877E+000
 0.13123745E+000
 0.61414902E-001
 0.17443029E-001
 0.23231140E-002
 0.00000000E+000
 0.00000000E+000
 0.00000000E+000
 0.15648240E-001
 0.62339144E-001
 0.10938542E+000
 0.13164394E+000
 0.13841309E+000
 0.14170356E+000
 0.15005669E+000
 0.14361392E+000
 0.89933350E-001
 0.20706403E-001
 0.32470239E-002
 0.00000000E+000
 0.00000000E+000
 0.13772008E+000
 0.13772008E+000
 0.13772008E+000
 0.13772008E+000
 0.13772008E+000
 0.13772008E+000
 0.13772008E+000
 0.13772008E+000
 0.13772008E+000
 0.13772008E+000
 0.13772008E+000
 0.13772008E+000
 0.13772008E+000
 0.13772008E+000
 0.13772008E+000
 0.13772008E+000
 0.13772008E+000
 0.13772008E+000
 0.13772008E+000
 0.13772008E+000
 0.13772008E+000
 0.13772008E+000
 0.13772008E+000
 0.13772008E+000
 0.13772008E+000
 0.13772008E+000
 0.13772008E+000
 0.13772008E+000
 0.13772008E+000
 0.13772008E+000
 0.13772008E+000
 0.13772008E+000
 0.13772008E+000
 0.13772008E+000
 0.13772008E+000
 0.13772008E+000
 0.13772008E+000
 0.13772008E+000
 0.13772008E+000
 0.13772008E+000
 0.13772008E+000
 0.13772008E+000
 0.13772008E+000
 0.13772008E+000
 0.13772008E+000
 0.13772008E+000
 0.13772008E+000
 0.13772008E+000
 0.13772008E+000
 0.13772008E+000
 0.13772008E+000
 0.13772008E+000
 0.13772008E+000
 0.13772008E+000
 0.13772008E+000
 0.13772008E+000
 0.13772008E+000
 0.13772008E+000
 0.13772008E+000
 0.13772008E+000
 0.13772008E+000
 0.13772008E+000
 0.13772008E+000
 0.13772008E+000
 0.13772008E+000
 0.13772008E+000
 0.13772008E+000
 0.13772008E+000
 0.13772008E+000
 0.13772008E+000
 0.13772008E+000
 0.13772008E+000
 0.13772008E+000
 0.13772008E+000
 0.13772008E+000
 0.13772008E+000
 0.13772008E+000
 0.13772008E+000
 0.13772008E+000
 0.13772008E+000
 0.13772008E+000
 0.13772008E+000
 0.13772007E+000
 0.13772008E+000
 0.13772008E+000
 0.13772007E+000
 0.13772008E+000
 0.13772008E+000
 0.13772008E+000
 0.13772008E+000
 0.13772008E+000
 0.13772008E+000
 0.13772008E+000
 0.13772007E+000
 0.13772008E+000
 0.13772007E+000
 0.13772009E+000
 0.13772007E+000
 0.13772006E+000
 0.13772008E+000
 0.13772007E+000
 0.13772008E+000
 0.13772008E+000
 0.13772008E+000
 0.13772008E+000
 0.13772008E+000
 0.13772007E+000
 0.13772009E+000
 0.13772005E+000
 0.13772017E+000
 0.13772005E+000
 0.13772029E+000
 0.13772016E+000
 0.13771999E+000
 0.13772011E+000
 0.13772007E+000
 0.13772007E+000
 0.13772008E+000
 0.13772008E+000
 0.13772008E+000
 0.13772010E+000
 0.13772003E+000
 0.13772056E+000
 0.13772040E+000
 0.13772254E+000
 0.13772201E+000
 0.13771896E+000
 0.13772045E+000
 0.13771981E+000
 0.13772003E+000
 0.13772008E+000
 0.13772008E+000
 0.13772008E+000
 0.13772005E+000
 0.13772024E+000
 0.13772179E+000
 0.13772250E+000
 0.13773762E+000
 0.13774902E+000
 0.13777812E+000
 0.13772221E+000
 0.13771426E+000
 0.13771957E+000
 0.13772000E+000
 0.13772003E+000
 0.13772007E+000
 0.13772022E+000
 0.13772095E+000
 0.13772258E+000
 0.13773318E+000
 0.13780974E+000
 0.13793256E+000
 0.13828558E+000
 0.13851172E+000
 0.13756056E+000
 0.13770189E+000
 0.13770776E+000
 0.13771538E+000
 0.13771898E+000
 0.13771971E+000
 0.13771958E+000
 0.13772192E+000
 0.13775474E+000
 0.13789438E+000
 0.13834020E+000
 0.14011018E+000
 0.14151500E+000
 0.14313570E+000
 0.13683100E+000
 0.13683347E+000
 0.13737759E+000
 0.13766094E+000
 0.13771387E+000
 0.13772927E+000
 0.13775484E+000
 0.13785036E+000
 0.13824251E+000
 0.13966906E+000
 0.14329770E+000
 0.14959652E+000
 0.15098247E+000
 0.14929461E+000
 0.12177104E+000
 0.12938795E+000
 0.13492043E+000
 0.13694435E+000
 0.13763920E+000
 0.13784972E+000
 0.13829432E+000
 0.13971854E+000
 0.14228102E+000
 0.14954363E+000
 0.15054986E+000
 0.12578454E+000
 0.77375671E-001
 0.62605086E-001
