 0.31587829E+003
 0.28800000E+003
 0.28800000E+003
 0.28800000E+003
 0.28800000E+003
 0.26902394E+003
 0.31587829E+003
 0.31587829E+003
 0.31587835E+003
 0.31587866E+003
 0.31587950E+003
 0.31588016E+003
 0.31588025E+003
 0.31588025E+003
 0.31588025E+003
 0.31588025E+003
 0.31588025E+003
 0.31588025E+003
 0.31588025E+003
 0.31588025E+003
 0.31588025E+003
 0.31588025E+003
 0.31588025E+003
 0.31588025E+003
 0.31588029E+003
 0.31588028E+003
 0.31587578E+003
 0.31580472E+003
 0.31502739E+003
 0.31002245E+003
 0.28800000E+003
 0.28800000E+003
 0.28800000E+003
 0.28800000E+003
 0.28800000E+003
 0.28800000E+003
 0.28800000E+003
 0.28800000E+003
 0.28800000E+003
 0.28800000E+003
 0.28800000E+003
 0.28800000E+003
 0.28800000E+003
 0.28800000E+003
 0.28800000E+003
 0.71224323E+003
 0.72498612E+003
 0.73824905E+003
 0.75205326E+003
 0.76642082E+003
 0.78137474E+003
 0.79693894E+003
 0.81313832E+003
 0.82999882E+003
 0.84754740E+003
 0.86581216E+003
 0.88482232E+003
 0.90460829E+003
 0.92520175E+003
 0.94663564E+003
 0.96894426E+003
 0.99216331E+003
 0.10163299E+004
 0.10414828E+004
 0.10676622E+004
 0.10949100E+004
 0.11232699E+004
 0.11527871E+004
 0.11835089E+004
 0.28800000E+003
 0.28800000E+003
 0.28800000E+003
 0.28800000E+003
 0.28800000E+003
 0.28800000E+003
 0.28800000E+003
 0.28800000E+003
 0.28800000E+003
 0.28800000E+003
 0.28800000E+003
 0.28800000E+003
 0.28800000E+003
 0.28800000E+003
 0.28800000E+003
 0.27337025E+003
 0.26955492E+003
 0.26905109E+003
 0.26902462E+003
 0.26902398E+003
 0.26902394E+003
 0.26902394E+003
 0.26902394E+003
 0.26902394E+003
 0.26902394E+003
 0.26902394E+003
 0.26902394E+003
 0.26902394E+003
 0.26902394E+003
 0.26902394E+003
 0.26902394E+003
 0.26902394E+003
 0.26902394E+003
 0.26902394E+003
 0.26902394E+003
 0.26902394E+003
 0.26902394E+003
 0.26902394E+003
 0.26902394E+003
 0.26902394E+003
 0.26902394E+003
 0.26902394E+003
 0.26902394E+003
 0.26902394E+003
 0.26902394E+003
 0.26902396E+003
 0.26902411E+003
 0.26902523E+003
 0.26903220E+003
 0.26906855E+003
 0.26922572E+003
 0.26978160E+003
 0.27136734E+003
 0.27496261E+003
 0.28134872E+003
 0.29012871E+003
 0.29941528E+003
 0.30700980E+003
 0.31189284E+003
 0.31440247E+003
 0.31543638E+003
 0.31577540E+003
 0.31586294E+003
 0.30872254E+003
 0.31473399E+003
 0.31813318E+003
 0.36983439E+003
 0.53845343E+003
 0.67822697E+003
 0.78933469E+003
 0.86995776E+003
 0.80285911E+003
 0.48666872E+003
 0.30147632E+003
 0.27007964E+003
 0.26908154E+003
 0.26903150E+003
 0.26902467E+003
 0.26902399E+003
 0.26902395E+003
 0.26902402E+003
 0.26902507E+003
 0.26903622E+003
 0.26912629E+003
 0.26965994E+003
 0.27183722E+003
 0.27723107E+003
 0.31586294E+003
 0.31577540E+003
 0.31543639E+003
 0.31440248E+003
 0.31189285E+003
 0.30700981E+003
 0.29941528E+003
 0.29012868E+003
 0.28134866E+003
 0.27496253E+003
 0.27136727E+003
 0.26978155E+003
 0.26922569E+003
 0.26906854E+003
 0.26903220E+003
 0.26902523E+003
 0.26902411E+003
 0.26902396E+003
 0.26902394E+003
 0.26902394E+003
 0.26902394E+003
 0.26902394E+003
 0.26902394E+003
 0.26902394E+003
 0.31586295E+003
 0.31577544E+003
 0.31543647E+003
 0.31440264E+003
 0.31189311E+003
 0.30701007E+003
 0.29941533E+003
 0.29012823E+003
 0.28134767E+003
 0.27496129E+003
 0.27136618E+003
 0.26978083E+003
 0.26922533E+003
 0.26906839E+003
 0.26903215E+003
 0.26902522E+003
 0.26902411E+003
 0.26902396E+003
 0.26902394E+003
 0.26902394E+003
 0.26902394E+003
 0.26902394E+003
 0.26902394E+003
 0.26902394E+003
 0.31586306E+003
 0.31577578E+003
 0.31543736E+003
 0.31440451E+003
 0.31189623E+003
 0.30701365E+003
 0.29941639E+003
 0.29012299E+003
 0.28133567E+003
 0.27494679E+003
 0.27135438E+003
 0.26977387E+003
 0.26922222E+003
 0.26906732E+003
 0.26903185E+003
 0.26902516E+003
 0.26902410E+003
 0.26902396E+003
 0.26902394E+003
 0.26902394E+003
 0.26902394E+003
 0.26902394E+003
 0.26902394E+003
 0.26902394E+003
 0.31586379E+003
 0.31577825E+003
 0.31544422E+003
 0.31441996E+003
 0.31192396E+003
 0.30704861E+003
 0.29943145E+003
 0.29007758E+003
 0.28122554E+003
 0.27482151E+003
 0.27126351E+003
 0.26972731E+003
 0.26920440E+003
 0.26906204E+003
 0.26903061E+003
 0.26902492E+003
 0.26902406E+003
 0.26902395E+003
 0.26902394E+003
 0.26902394E+003
 0.26902394E+003
 0.26902394E+003
 0.26902394E+003
 0.26902394E+003
 0.31586581E+003
 0.31578557E+003
 0.31546544E+003
 0.31446907E+003
 0.31201478E+003
 0.30716781E+003
 0.29948887E+003
 0.28992755E+003
 0.28085105E+003
 0.27440596E+003
 0.27097810E+003
 0.26959160E+003
 0.26915686E+003
 0.26904927E+003
 0.26902792E+003
 0.26902446E+003
 0.26902400E+003
 0.26902395E+003
 0.26902394E+003
 0.26902394E+003
 0.26902394E+003
 0.26902394E+003
 0.26902394E+003
 0.26902394E+003
 0.31586746E+003
 0.31579172E+003
 0.31548355E+003
 0.31451155E+003
 0.31209446E+003
 0.30727467E+003
 0.29954293E+003
 0.28979075E+003
 0.28050211E+003
 0.27402093E+003
 0.27071991E+003
 0.26947329E+003
 0.26911730E+003
 0.26903923E+003
 0.26902593E+003
 0.26902415E+003
 0.26902396E+003
 0.26902394E+003
 0.26902394E+003
 0.26902394E+003
 0.26902394E+003
 0.26902394E+003
 0.26902394E+003
 0.26902394E+003
 0.31586770E+003
 0.31579265E+003
 0.31548636E+003
 0.31451827E+003
 0.31210725E+003
 0.30729208E+003
 0.29955189E+003
 0.28976827E+003
 0.28044460E+003
 0.27395783E+003
 0.27067809E+003
 0.26945444E+003
 0.26911113E+003
 0.26903770E+003
 0.26902563E+003
 0.26902410E+003
 0.26902395E+003
 0.26902394E+003
 0.26902394E+003
 0.26902394E+003
 0.26902394E+003
 0.26902394E+003
 0.26902394E+003
 0.26902394E+003
 0.31586769E+003
 0.31579259E+003
 0.31548621E+003
 0.31451793E+003
 0.31210665E+003
 0.30729129E+003
 0.29955148E+003
 0.28976929E+003
 0.28044728E+003
 0.27396085E+003
 0.27068013E+003
 0.26945537E+003
 0.26911144E+003
 0.26903778E+003
 0.26902565E+003
 0.26902411E+003
 0.26902395E+003
 0.26902394E+003
 0.26902394E+003
 0.26902394E+003
 0.26902394E+003
 0.26902394E+003
 0.26902394E+003
 0.26902394E+003
 0.31586769E+003
 0.31579259E+003
 0.31548622E+003
 0.31451794E+003
 0.31210667E+003
 0.30729131E+003
 0.29955150E+003
 0.28976926E+003
 0.28044720E+003
 0.27396075E+003
 0.27068006E+003
 0.26945534E+003
 0.26911143E+003
 0.26903778E+003
 0.26902565E+003
 0.26902411E+003
 0.26902395E+003
 0.26902394E+003
 0.26902394E+003
 0.26902394E+003
 0.26902394E+003
 0.26902394E+003
 0.26902394E+003
 0.26902394E+003
 0.31586769E+003
 0.31579259E+003
 0.31548622E+003
 0.31451794E+003
 0.31210667E+003
 0.30729131E+003
 0.29955150E+003
 0.28976926E+003
 0.28044721E+003
 0.27396076E+003
 0.27068007E+003
 0.26945535E+003
 0.26911143E+003
 0.26903778E+003
 0.26902565E+003
 0.26902411E+003
 0.26902395E+003
 0.26902394E+003
 0.26902394E+003
 0.26902394E+003
 0.26902394E+003
 0.26902394E+003
 0.26902394E+003
 0.26902394E+003
 0.31586769E+003
 0.31579259E+003
 0.31548622E+003
 0.31451794E+003
 0.31210667E+003
 0.30729131E+003
 0.29955150E+003
 0.28976926E+003
 0.28044721E+003
 0.27396076E+003
 0.27068007E+003
 0.26945535E+003
 0.26911143E+003
 0.26903778E+003
 0.26902565E+003
 0.26902411E+003
 0.26902395E+003
 0.26902394E+003
 0.26902394E+003
 0.26902394E+003
 0.26902394E+003
 0.26902394E+003
 0.26902394E+003
 0.26902394E+003
 0.31586769E+003
 0.31579259E+003
 0.31548622E+003
 0.31451794E+003
 0.31210667E+003
 0.30729131E+003
 0.29955150E+003
 0.28976926E+003
 0.28044721E+003
 0.27396076E+003
 0.27068007E+003
 0.26945535E+003
 0.26911143E+003
 0.26903778E+003
 0.26902565E+003
 0.26902411E+003
 0.26902395E+003
 0.26902394E+003
 0.26902394E+003
 0.26902394E+003
 0.26902394E+003
 0.26902394E+003
 0.26902394E+003
 0.26902394E+003
 0.31586769E+003
 0.31579259E+003
 0.31548622E+003
 0.31451794E+003
 0.31210667E+003
 0.30729131E+003
 0.29955150E+003
 0.28976926E+003
 0.28044721E+003
 0.27396076E+003
 0.27068007E+003
 0.26945535E+003
 0.26911143E+003
 0.26903778E+003
 0.26902565E+003
 0.26902411E+003
 0.26902395E+003
 0.26902394E+003
 0.26902394E+003
 0.26902394E+003
 0.26902394E+003
 0.26902394E+003
 0.26902394E+003
 0.26902394E+003
 0.31586769E+003
 0.31579259E+003
 0.31548622E+003
 0.31451794E+003
 0.31210667E+003
 0.30729131E+003
 0.29955150E+003
 0.28976926E+003
 0.28044721E+003
 0.27396076E+003
 0.27068007E+003
 0.26945535E+003
 0.26911143E+003
 0.26903778E+003
 0.26902565E+003
 0.26902411E+003
 0.26902395E+003
 0.26902394E+003
 0.26902394E+003
 0.26902394E+003
 0.26902394E+003
 0.26902394E+003
 0.26902394E+003
 0.26902394E+003
 0.31586769E+003
 0.31579259E+003
 0.31548622E+003
 0.31451794E+003
 0.31210667E+003
 0.30729131E+003
 0.29955150E+003
 0.28976926E+003
 0.28044721E+003
 0.27396076E+003
 0.27068007E+003
 0.26945534E+003
 0.26911143E+003
 0.26903778E+003
 0.26902565E+003
 0.26902411E+003
 0.26902395E+003
 0.26902394E+003
 0.26902394E+003
 0.26902394E+003
 0.26902394E+003
 0.26902394E+003
 0.26902394E+003
 0.26902394E+003
 0.31586769E+003
 0.31579259E+003
 0.31548622E+003
 0.31451794E+003
 0.31210667E+003
 0.30729131E+003
 0.29955150E+003
 0.28976926E+003
 0.28044720E+003
 0.27396076E+003
 0.27068006E+003
 0.26945534E+003
 0.26911143E+003
 0.26903778E+003
 0.26902565E+003
 0.26902411E+003
 0.26902395E+003
 0.26902394E+003
 0.26902394E+003
 0.26902394E+003
 0.26902394E+003
 0.26902394E+003
 0.26902394E+003
 0.26902394E+003
 0.31586769E+003
 0.31579260E+003
 0.31548622E+003
 0.31451795E+003
 0.31210668E+003
 0.30729132E+003
 0.29955150E+003
 0.28976925E+003
 0.28044718E+003
 0.27396073E+003
 0.27068005E+003
 0.26945534E+003
 0.26911143E+003
 0.26903778E+003
 0.26902565E+003
 0.26902411E+003
 0.26902395E+003
 0.26902394E+003
 0.26902394E+003
 0.26902394E+003
 0.26902394E+003
 0.26902394E+003
 0.26902394E+003
 0.26902394E+003
 0.31586770E+003
 0.31579263E+003
 0.31548630E+003
 0.31451809E+003
 0.31210686E+003
 0.30729149E+003
 0.29955155E+003
 0.28976909E+003
 0.28044685E+003
 0.27396038E+003
 0.27067980E+003
 0.26945521E+003
 0.26911138E+003
 0.26903776E+003
 0.26902564E+003
 0.26902411E+003
 0.26902395E+003
 0.26902394E+003
 0.26902394E+003
 0.26902394E+003
 0.26902394E+003
 0.26902394E+003
 0.26902394E+003
 0.26902394E+003
 0.31586780E+003
 0.31579298E+003
 0.31548719E+003
 0.31451976E+003
 0.31210923E+003
 0.30729373E+003
 0.29955215E+003
 0.28976687E+003
 0.28044247E+003
 0.27395600E+003
 0.27067691E+003
 0.26945384E+003
 0.26911090E+003
 0.26903763E+003
 0.26902562E+003
 0.26902410E+003
 0.26902395E+003
 0.26902394E+003
 0.26902394E+003
 0.26902394E+003
 0.26902395E+003
 0.26902395E+003
 0.26902395E+003
 0.26902395E+003
 0.31586826E+003
 0.31579552E+003
 0.31549460E+003
 0.31453495E+003
 0.31213187E+003
 0.30731597E+003
 0.29955847E+003
 0.28974544E+003
 0.28040093E+003
 0.27391618E+003
 0.27065235E+003
 0.26944319E+003
 0.26910750E+003
 0.26903682E+003
 0.26902547E+003
 0.26902408E+003
 0.26902395E+003
 0.26902394E+003
 0.26902395E+003
 0.26902399E+003
 0.26902411E+003
 0.26902421E+003
 0.26902417E+003
 0.26902404E+003
 0.31586526E+003
 0.31580150E+003
 0.31552157E+003
 0.31459674E+003
 0.31223285E+003
 0.30742779E+003
 0.29961469E+003
 0.28968935E+003
 0.28025555E+003
 0.27376920E+003
 0.27056190E+003
 0.26940538E+003
 0.26909622E+003
 0.26903435E+003
 0.26902507E+003
 0.26902403E+003
 0.26902395E+003
 0.26902395E+003
 0.26902401E+003
 0.26902440E+003
 0.26902585E+003
 0.26902818E+003
 0.26902831E+003
 0.26902600E+003
 0.31579918E+003
 0.31577803E+003
 0.31555724E+003
 0.31473773E+003
 0.31258123E+003
 0.30799987E+003
 0.30027696E+003
 0.29023373E+003
 0.28050230E+003
 0.27375756E+003
 0.27048451E+003
 0.26936183E+003
 0.26908283E+003
 0.26903161E+003
 0.26902467E+003
 0.26902399E+003
 0.26902394E+003
 0.26902396E+003
 0.26902420E+003
 0.26902600E+003
 0.26903493E+003
 0.26905937E+003
 0.26908504E+003
 0.26907210E+003
 0.31520458E+003
 0.31559212E+003
 0.31562962E+003
 0.31561898E+003
 0.31587001E+003
 0.31419543E+003
 0.30874180E+003
 0.29964611E+003
 0.28760520E+003
 0.27668512E+003
 0.27104609E+003
 0.26939701E+003
 0.26908090E+003
 0.26903118E+003
 0.26902462E+003
 0.26902399E+003
 0.26902395E+003
 0.26902399E+003
 0.26902451E+003
 0.26902922E+003
 0.26905933E+003
 0.26918306E+003
 0.26945701E+003
 0.26965430E+003
 0.31268497E+003
 0.31512591E+003
 0.31633105E+003
 0.32525952E+003
 0.35433150E+003
 0.37924799E+003
 0.39377663E+003
 0.40305305E+003
 0.37657117E+003
 0.31247502E+003
 0.27662179E+003
 0.26962228E+003
 0.26908163E+003
 0.26903134E+003
 0.26902465E+003
 0.26902399E+003
 0.26902395E+003
 0.26902401E+003
 0.26902483E+003
 0.26903321E+003
 0.26909641E+003
 0.26943149E+003
 0.27055943E+003
 0.27248964E+003
 0.30774260E+003
 0.31466021E+003
 0.31891408E+003
 0.44376242E+003
 0.92500401E+003
 0.12932680E+004
 0.15402734E+004
 0.17265797E+004
 0.16332986E+004
 0.82979551E+003
 0.35108765E+003
 0.27044970E+003
 0.26908204E+003
 0.26903170E+003
 0.26902471E+003
 0.26902400E+003
 0.26902395E+003
 0.26902403E+003
 0.26902523E+003
 0.26903795E+003
 0.26914091E+003
 0.26975372E+003
 0.27227476E+003
 0.27865039E+003
 0.30767101E+003
 0.31462685E+003
 0.32116920E+003
 0.45922383E+003
 0.99282478E+003
 0.14838435E+004
 0.18580047E+004
 0.19806951E+004
 0.16650348E+004
 0.86353265E+003
 0.36559637E+003
 0.27097760E+003
 0.26908289E+003
 0.26903191E+003
 0.26902475E+003
 0.26902400E+003
 0.26902395E+003
 0.26902404E+003
 0.26902533E+003
 0.26903876E+003
 0.26914611E+003
 0.26977618E+003
 0.27233097E+003
 0.27871358E+003
 0.30755428E+003
 0.31457676E+003
 0.32174792E+003
 0.45944895E+003
 0.98504255E+003
 0.14860443E+004
 0.18939407E+004
 0.19864430E+004
 0.16315600E+004
 0.85420479E+003
 0.36660387E+003
 0.27125953E+003
 0.26908393E+003
 0.26903217E+003
 0.26902479E+003
 0.26902401E+003
 0.26902395E+003
 0.26902405E+003
 0.26902540E+003
 0.26903939E+003
 0.26914979E+003
 0.26979057E+003
 0.27236368E+003
 0.27874747E+003
 0.30742952E+003
 0.31452190E+003
 0.32204723E+003
 0.45989185E+003
 0.98299158E+003
 0.14846049E+004
 0.18966973E+004
 0.19927753E+004
 0.16572114E+004
 0.86752758E+003
 0.36891054E+003
 0.27141765E+003
 0.26908549E+003
 0.26903247E+003
 0.26902484E+003
 0.26902401E+003
 0.26902395E+003
 0.26902406E+003
 0.26902547E+003
 0.26903995E+003
 0.26915309E+003
 0.26980352E+003
 0.27239356E+003
 0.27877927E+003
 0.30730390E+003
 0.31446501E+003
 0.32252180E+003
 0.46059769E+003
 0.97955396E+003
 0.14807584E+004
 0.18950913E+004
 0.19963667E+004
 0.16687656E+004
 0.87470319E+003
 0.37062806E+003
 0.27158520E+003
 0.26908897E+003
 0.26903281E+003
 0.26902490E+003
 0.26902402E+003
 0.26902395E+003
 0.26902406E+003
 0.26902553E+003
 0.26904044E+003
 0.26915589E+003
 0.26981435E+003
 0.27241824E+003
 0.27880517E+003
 0.30719228E+003
 0.31441261E+003
 0.32315762E+003
 0.46167015E+003
 0.97563790E+003
 0.14761432E+004
 0.18926051E+004
 0.19977094E+004
 0.16729287E+004
 0.87731376E+003
 0.37163488E+003
 0.27176617E+003
 0.26909500E+003
 0.26903316E+003
 0.26902495E+003
 0.26902403E+003
 0.26902395E+003
 0.26902407E+003
 0.26902558E+003
 0.26904081E+003
 0.26915802E+003
 0.26982252E+003
 0.27243671E+003
 0.27882439E+003
 0.30711394E+003
 0.31437683E+003
 0.32387899E+003
 0.46303483E+003
 0.97210264E+003
 0.14721046E+004
 0.18904834E+004
 0.19983430E+004
 0.16752209E+004
 0.87868227E+003
 0.37235628E+003
 0.27192755E+003
 0.26910119E+003
 0.26903347E+003
 0.26902499E+003
 0.26902403E+003
 0.26902395E+003
 0.26902407E+003
 0.26902561E+003
 0.26904105E+003
 0.26915935E+003
 0.26982762E+003
 0.27244816E+003
 0.27883623E+003
 0.30708563E+003
 0.31437005E+003
 0.32426527E+003
 0.46377402E+003
 0.97059209E+003
 0.14704242E+004
 0.18896372E+004
 0.19985558E+004
 0.16760364E+004
 0.87916950E+003
 0.37264831E+003
 0.27199680E+003
 0.26910394E+003
 0.26903359E+003
 0.26902501E+003
 0.26902403E+003
 0.26902395E+003
 0.26902407E+003
 0.26902562E+003
 0.26904113E+003
 0.26915981E+003
 0.26982935E+003
 0.27245204E+003
 0.27884023E+003
 0.30711394E+003
 0.31437683E+003
 0.32387899E+003
 0.46303483E+003
 0.97210265E+003
 0.14721047E+004
 0.18904834E+004
 0.19983432E+004
 0.16752213E+004
 0.87868248E+003
 0.37235632E+003
 0.27192755E+003
 0.26910119E+003
 0.26903347E+003
 0.26902499E+003
 0.26902403E+003
 0.26902395E+003
 0.26902407E+003
 0.26902561E+003
 0.26904105E+003
 0.26915935E+003
 0.26982762E+003
 0.27244816E+003
 0.27883623E+003
 0.30719228E+003
 0.31441261E+003
 0.32315762E+003
 0.46167016E+003
 0.97563800E+003
 0.14761436E+004
 0.18926058E+004
 0.19977114E+004
 0.16729319E+004
 0.87731596E+003
 0.37163537E+003
 0.27176619E+003
 0.26909500E+003
 0.26903316E+003
 0.26902495E+003
 0.26902403E+003
 0.26902395E+003
 0.26902407E+003
 0.26902558E+003
 0.26904081E+003
 0.26915801E+003
 0.26982252E+003
 0.27243673E+003
 0.27882437E+003
 0.30730392E+003
 0.31446504E+003
 0.32252184E+003
 0.46059814E+003
 0.97955540E+003
 0.14807612E+004
 0.18950989E+004
 0.19963827E+004
 0.16687923E+004
 0.87472028E+003
 0.37063188E+003
 0.27158542E+003
 0.26908899E+003
 0.26903283E+003
 0.26902492E+003
 0.26902405E+003
 0.26902398E+003
 0.26902410E+003
 0.26902557E+003
 0.26904049E+003
 0.26915595E+003
 0.26981433E+003
 0.27241815E+003
 0.27880580E+003
 0.30742803E+003
 0.31451981E+003
 0.32204413E+003
 0.45988598E+003
 0.98299568E+003
 0.14846387E+004
 0.18967571E+004
 0.19928795E+004
 0.16573213E+004
 0.86762139E+003
 0.36893120E+003
 0.27141606E+003
 0.26908359E+003
 0.26903029E+003
 0.26902239E+003
 0.26902126E+003
 0.26902088E+003
 0.26902064E+003
 0.26902169E+003
 0.26903579E+003
 0.26914874E+003
 0.26979994E+003
 0.27238715E+003
 0.27875970E+003
 0.30764963E+003
 0.31471094E+003
 0.32192460E+003
 0.45972412E+003
 0.98519687E+003
 0.14861017E+004
 0.18940786E+004
 0.19867789E+004
 0.16321369E+004
 0.85435542E+003
 0.36674095E+003
 0.27139208E+003
 0.26921215E+003
 0.26917192E+003
 0.26917671E+003
 0.26918893E+003
 0.26920263E+003
 0.26921713E+003
 0.26923339E+003
 0.26926235E+003
 0.26938653E+003
 0.27004660E+003
 0.27271490E+003
 0.27922487E+003
 0.30385013E+003
 0.30961707E+003
 0.31562613E+003
 0.45397741E+003
 0.99012966E+003
 0.14806918E+004
 0.18570526E+004
 0.19800773E+004
 0.16581518E+004
 0.86078371E+003
 0.36219841E+003
 0.26648753E+003
 0.26432466E+003
 0.26406570E+003
 0.26383669E+003
 0.26360432E+003
 0.26336428E+003
 0.26311728E+003
 0.26286518E+003
 0.26261639E+003
 0.26242426E+003
 0.26257071E+003
 0.26413933E+003
 0.27089469E+003
 0.35942149E+003
 0.37473284E+003
 0.37822081E+003
 0.48965015E+003
 0.95721936E+003
 0.13227459E+004
 0.15651996E+004
 0.17361835E+004
 0.16273654E+004
 0.89228239E+003
 0.43605765E+003
 0.35623845E+003
 0.35728661E+003
 0.35988493E+003
 0.36263627E+003
 0.36550740E+003
 0.36850397E+003
 0.37163790E+003
 0.37492207E+003
 0.37836921E+003
 0.38196908E+003
 0.38546726E+003
 0.38746810E+003
 0.37053632E+003
