-0.18509767E+007
-0.18977990E+007
-0.18977990E+007
-0.10206042E+005
-0.10206042E+005
-0.29312382E+005
-0.18509767E+007
-0.18509768E+007
-0.18509782E+007
-0.18509878E+007
-0.18510320E+007
-0.18510646E+007
-0.18510624E+007
-0.18510625E+007
-0.18510625E+007
-0.18510625E+007
-0.18510625E+007
-0.18510625E+007
-0.18510625E+007
-0.18510625E+007
-0.18510625E+007
-0.18510625E+007
-0.18510625E+007
-0.18510627E+007
-0.18510639E+007
-0.18510728E+007
-0.18511118E+007
-0.18511818E+007
-0.18517291E+007
-0.18582410E+007
-0.18977990E+007
-0.18977990E+007
-0.18977990E+007
-0.18977990E+007
-0.18977990E+007
-0.18977990E+007
-0.18977990E+007
-0.18977990E+007
-0.18977990E+007
-0.18977990E+007
-0.18977990E+007
-0.18977990E+007
-0.18977990E+007
-0.18977990E+007
-0.18977990E+007
-0.84991617E+006
-0.80788721E+006
-0.75876151E+006
-0.73794590E+006
-0.91962663E+006
-0.12047378E+007
-0.13052880E+007
-0.12382539E+007
-0.82495476E+006
 0.88789334E+005
 0.56972509E+006
 0.61961409E+006
 0.64401733E+006
 0.66766136E+006
 0.69209907E+006
 0.71761063E+006
 0.74426485E+006
 0.77210750E+006
 0.80118887E+006
 0.83156555E+006
 0.86329670E+006
 0.89644415E+006
 0.93107246E+006
 0.96724906E+006
-0.10206042E+005
-0.10206042E+005
-0.10206042E+005
-0.10206042E+005
-0.10206042E+005
-0.10206042E+005
-0.10206042E+005
-0.10206042E+005
-0.10206042E+005
-0.10206042E+005
-0.10206042E+005
-0.10206042E+005
-0.10206042E+005
-0.10206042E+005
-0.10206042E+005
-0.27067861E+005
-0.29221484E+005
-0.29311984E+005
-0.29312334E+005
-0.29312371E+005
-0.29312381E+005
-0.29312382E+005
-0.29312382E+005
-0.29312382E+005
-0.29312382E+005
-0.29312382E+005
-0.29312382E+005
-0.29312382E+005
-0.29312382E+005
-0.29312382E+005
-0.29312382E+005
-0.29312382E+005
-0.29312382E+005
-0.29312382E+005
-0.29312382E+005
-0.29312382E+005
-0.29312382E+005
-0.29312382E+005
-0.29312382E+005
-0.29312382E+005
-0.29312382E+005
-0.29312382E+005
-0.29312382E+005
-0.29312383E+005
-0.29312401E+005
-0.29312591E+005
-0.29314393E+005
-0.29329044E+005
-0.29430195E+005
-0.30015597E+005
-0.32816210E+005
-0.43738379E+005
-0.78049337E+005
-0.16432106E+006
-0.33828160E+006
-0.62096798E+006
-0.98738555E+006
-0.13527103E+007
-0.16226935E+007
-0.17692414E+007
-0.18282541E+007
-0.18461649E+007
-0.18502964E+007
-0.18600378E+007
-0.18491871E+007
-0.18361801E+007
-0.17724988E+007
-0.15103981E+007
-0.11827816E+007
-0.84048908E+006
-0.50983469E+006
-0.27398218E+006
-0.12608896E+006
-0.55460970E+005
-0.34468199E+005
-0.30072807E+005
-0.29393425E+005
-0.29318510E+005
-0.29312701E+005
-0.29312392E+005
-0.29312358E+005
-0.29311978E+005
-0.29307039E+005
-0.29257756E+005
-0.28891343E+005
-0.26963135E+005
-0.20473555E+005
-0.18502964E+007
-0.18461650E+007
-0.18282542E+007
-0.17692416E+007
-0.16226938E+007
-0.13527105E+007
-0.98738556E+006
-0.62096770E+006
-0.33828108E+006
-0.16432045E+006
-0.78048787E+005
-0.43737982E+005
-0.32815980E+005
-0.30015489E+005
-0.29430155E+005
-0.29329031E+005
-0.29314390E+005
-0.29312591E+005
-0.29312401E+005
-0.29312383E+005
-0.29312382E+005
-0.29312382E+005
-0.29312382E+005
-0.29312382E+005
-0.18502967E+007
-0.18461657E+007
-0.18282560E+007
-0.17692450E+007
-0.16226987E+007
-0.13527150E+007
-0.98738622E+006
-0.62096265E+006
-0.33827143E+006
-0.16430928E+006
-0.78039188E+005
-0.43731557E+005
-0.32812595E+005
-0.30014084E+005
-0.29429695E+005
-0.29328911E+005
-0.29314365E+005
-0.29312586E+005
-0.29312400E+005
-0.29312383E+005
-0.29312382E+005
-0.29312382E+005
-0.29312382E+005
-0.29312382E+005
-0.18502997E+007
-0.18461748E+007
-0.18282793E+007
-0.17692927E+007
-0.16227734E+007
-0.13527901E+007
-0.98740510E+006
-0.62089066E+006
-0.33812894E+006
-0.16414996E+006
-0.77911441E+005
-0.43654496E+005
-0.32777235E+005
-0.30001610E+005
-0.29426263E+005
-0.29328165E+005
-0.29314235E+005
-0.29312568E+005
-0.29312398E+005
-0.29312383E+005
-0.29312382E+005
-0.29312382E+005
-0.29312382E+005
-0.29312382E+005
-0.18503228E+007
-0.18462563E+007
-0.18285080E+007
-0.17697979E+007
-0.16236314E+007
-0.13537506E+007
-0.98774844E+006
-0.62009014E+006
-0.33647652E+006
-0.16238855E+006
-0.76638173E+005
-0.42993668E+005
-0.32523181E+005
-0.29927337E+005
-0.29409379E+005
-0.29325123E+005
-0.29313793E+005
-0.29312515E+005
-0.29312393E+005
-0.29312382E+005
-0.29312382E+005
-0.29312382E+005
-0.29312382E+005
-0.29312382E+005
-0.18504378E+007
-0.18467365E+007
-0.18300169E+007
-0.17734087E+007
-0.16302766E+007
-0.13621099E+007
-0.99192407E+006
-0.61388721E+006
-0.32234447E+006
-0.14871069E+006
-0.68316528E+005
-0.39457261E+005
-0.31417119E+005
-0.29663838E+005
-0.29360299E+005
-0.29317815E+005
-0.29312905E+005
-0.29312426E+005
-0.29312385E+005
-0.29312382E+005
-0.29312382E+005
-0.29312382E+005
-0.29312382E+005
-0.29312382E+005
-0.18505246E+007
-0.18471180E+007
-0.18312506E+007
-0.17764154E+007
-0.16359202E+007
-0.13694547E+007
-0.99589844E+006
-0.60836781E+006
-0.30912738E+006
-0.13601819E+006
-0.60897058E+005
-0.36490480E+005
-0.30557232E+005
-0.29476502E+005
-0.29328760E+005
-0.29313607E+005
-0.29312448E+005
-0.29312384E+005
-0.29312382E+005
-0.29312382E+005
-0.29312382E+005
-0.29312382E+005
-0.29312382E+005
-0.29312382E+005
-0.18505190E+007
-0.18470966E+007
-0.18311880E+007
-0.17762732E+007
-0.16356688E+007
-0.13691422E+007
-0.99573148E+006
-0.60859907E+006
-0.30970178E+006
-0.13658477E+006
-0.61235660E+005
-0.36629138E+005
-0.30598530E+005
-0.29485758E+005
-0.29330358E+005
-0.29313823E+005
-0.29312472E+005
-0.29312386E+005
-0.29312382E+005
-0.29312382E+005
-0.29312382E+005
-0.29312382E+005
-0.29312382E+005
-0.29312382E+005
-0.18505192E+007
-0.18470974E+007
-0.18311901E+007
-0.17762777E+007
-0.16356763E+007
-0.13691511E+007
-0.99573608E+006
-0.60859241E+006
-0.30968512E+006
-0.13656792E+006
-0.61225270E+005
-0.36624719E+005
-0.30597154E+005
-0.29485433E+005
-0.29330299E+005
-0.29313815E+005
-0.29312471E+005
-0.29312386E+005
-0.29312382E+005
-0.29312382E+005
-0.29312382E+005
-0.29312382E+005
-0.29312382E+005
-0.29312382E+005
-0.18505192E+007
-0.18470974E+007
-0.18311900E+007
-0.17762776E+007
-0.16356761E+007
-0.13691509E+007
-0.99573598E+006
-0.60859256E+006
-0.30968549E+006
-0.13656830E+006
-0.61225509E+005
-0.36624825E+005
-0.30597188E+005
-0.29485442E+005
-0.29330301E+005
-0.29313815E+005
-0.29312471E+005
-0.29312386E+005
-0.29312382E+005
-0.29312382E+005
-0.29312382E+005
-0.29312382E+005
-0.29312382E+005
-0.29312382E+005
-0.18505192E+007
-0.18470974E+007
-0.18311900E+007
-0.17762776E+007
-0.16356761E+007
-0.13691509E+007
-0.99573599E+006
-0.60859256E+006
-0.30968548E+006
-0.13656829E+006
-0.61225505E+005
-0.36624823E+005
-0.30597188E+005
-0.29485442E+005
-0.29330301E+005
-0.29313815E+005
-0.29312471E+005
-0.29312386E+005
-0.29312382E+005
-0.29312382E+005
-0.29312382E+005
-0.29312382E+005
-0.29312382E+005
-0.29312382E+005
-0.18505192E+007
-0.18470974E+007
-0.18311900E+007
-0.17762776E+007
-0.16356761E+007
-0.13691509E+007
-0.99573599E+006
-0.60859256E+006
-0.30968548E+006
-0.13656829E+006
-0.61225505E+005
-0.36624823E+005
-0.30597188E+005
-0.29485442E+005
-0.29330301E+005
-0.29313815E+005
-0.29312471E+005
-0.29312386E+005
-0.29312382E+005
-0.29312382E+005
-0.29312382E+005
-0.29312382E+005
-0.29312382E+005
-0.29312382E+005
-0.18505192E+007
-0.18470974E+007
-0.18311900E+007
-0.17762776E+007
-0.16356761E+007
-0.13691509E+007
-0.99573599E+006
-0.60859256E+006
-0.30968548E+006
-0.13656829E+006
-0.61225505E+005
-0.36624823E+005
-0.30597188E+005
-0.29485442E+005
-0.29330301E+005
-0.29313815E+005
-0.29312471E+005
-0.29312386E+005
-0.29312382E+005
-0.29312382E+005
-0.29312382E+005
-0.29312382E+005
-0.29312382E+005
-0.29312382E+005
-0.18505192E+007
-0.18470974E+007
-0.18311900E+007
-0.17762776E+007
-0.16356761E+007
-0.13691509E+007
-0.99573599E+006
-0.60859256E+006
-0.30968548E+006
-0.13656829E+006
-0.61225505E+005
-0.36624823E+005
-0.30597188E+005
-0.29485442E+005
-0.29330301E+005
-0.29313815E+005
-0.29312471E+005
-0.29312386E+005
-0.29312382E+005
-0.29312382E+005
-0.29312382E+005
-0.29312382E+005
-0.29312382E+005
-0.29312382E+005
-0.18505192E+007
-0.18470974E+007
-0.18311900E+007
-0.17762776E+007
-0.16356761E+007
-0.13691509E+007
-0.99573599E+006
-0.60859256E+006
-0.30968548E+006
-0.13656829E+006
-0.61225505E+005
-0.36624823E+005
-0.30597188E+005
-0.29485442E+005
-0.29330301E+005
-0.29313815E+005
-0.29312471E+005
-0.29312386E+005
-0.29312382E+005
-0.29312382E+005
-0.29312382E+005
-0.29312382E+005
-0.29312382E+005
-0.29312382E+005
-0.18505192E+007
-0.18470974E+007
-0.18311900E+007
-0.17762776E+007
-0.16356761E+007
-0.13691509E+007
-0.99573599E+006
-0.60859256E+006
-0.30968548E+006
-0.13656829E+006
-0.61225505E+005
-0.36624823E+005
-0.30597188E+005
-0.29485442E+005
-0.29330300E+005
-0.29313815E+005
-0.29312471E+005
-0.29312386E+005
-0.29312382E+005
-0.29312382E+005
-0.29312382E+005
-0.29312382E+005
-0.29312382E+005
-0.29312382E+005
-0.18505192E+007
-0.18470974E+007
-0.18311901E+007
-0.17762776E+007
-0.16356761E+007
-0.13691509E+007
-0.99573599E+006
-0.60859255E+006
-0.30968547E+006
-0.13656828E+006
-0.61225500E+005
-0.36624820E+005
-0.30597186E+005
-0.29485441E+005
-0.29330300E+005
-0.29313815E+005
-0.29312471E+005
-0.29312386E+005
-0.29312382E+005
-0.29312382E+005
-0.29312382E+005
-0.29312382E+005
-0.29312382E+005
-0.29312382E+005
-0.18505192E+007
-0.18470974E+007
-0.18311901E+007
-0.17762777E+007
-0.16356763E+007
-0.13691511E+007
-0.99573603E+006
-0.60859247E+006
-0.30968532E+006
-0.13656813E+006
-0.61225393E+005
-0.36624763E+005
-0.30597162E+005
-0.29485433E+005
-0.29330298E+005
-0.29313815E+005
-0.29312471E+005
-0.29312386E+005
-0.29312382E+005
-0.29312382E+005
-0.29312382E+005
-0.29312382E+005
-0.29312382E+005
-0.29312382E+005
-0.18505195E+007
-0.18470982E+007
-0.18311917E+007
-0.17762805E+007
-0.16356798E+007
-0.13691540E+007
-0.99573682E+006
-0.60859075E+006
-0.30968223E+006
-0.13656520E+006
-0.61223448E+005
-0.36623794E+005
-0.30596790E+005
-0.29485322E+005
-0.29330272E+005
-0.29313810E+005
-0.29312470E+005
-0.29312386E+005
-0.29312382E+005
-0.29312382E+005
-0.29312382E+005
-0.29312382E+005
-0.29312382E+005
-0.29312382E+005
-0.18505224E+007
-0.18471074E+007
-0.18312145E+007
-0.17763222E+007
-0.16357350E+007
-0.13692005E+007
-0.99574802E+006
-0.60856098E+006
-0.30963196E+006
-0.13651995E+006
-0.61195359E+005
-0.36610931E+005
-0.30592336E+005
-0.29484145E+005
-0.29330034E+005
-0.29313773E+005
-0.29312466E+005
-0.29312386E+005
-0.29312382E+005
-0.29312381E+005
-0.29312380E+005
-0.29312379E+005
-0.29312379E+005
-0.29312380E+005
-0.18505466E+007
-0.18471962E+007
-0.18314573E+007
-0.17768026E+007
-0.16364023E+007
-0.13697726E+007
-0.99586987E+006
-0.60816564E+006
-0.30900356E+006
-0.13598762E+006
-0.60889719E+005
-0.36484318E+005
-0.30553625E+005
-0.29475336E+005
-0.29328540E+005
-0.29313585E+005
-0.29312448E+005
-0.29312384E+005
-0.29312380E+005
-0.29312369E+005
-0.29312338E+005
-0.29312308E+005
-0.29312318E+005
-0.29312353E+005
-0.18506782E+007
-0.18477624E+007
-0.18332198E+007
-0.17806493E+007
-0.16420829E+007
-0.13747535E+007
-0.99680092E+006
-0.60447103E+006
-0.30347795E+006
-0.13162560E+006
-0.58612482E+005
-0.35650788E+005
-0.30335140E+005
-0.29433978E+005
-0.29322875E+005
-0.29313025E+005
-0.29312409E+005
-0.29312381E+005
-0.29312361E+005
-0.29312211E+005
-0.29311571E+005
-0.29310846E+005
-0.29311147E+005
-0.29311986E+005
-0.18508887E+007
-0.18485911E+007
-0.18359847E+007
-0.17871486E+007
-0.16521843E+007
-0.13838486E+007
-0.99840566E+006
-0.59744378E+006
-0.29327925E+006
-0.12390469E+006
-0.54822117E+005
-0.34375517E+005
-0.30035586E+005
-0.29384653E+005
-0.29317215E+005
-0.29312580E+005
-0.29312385E+005
-0.29312374E+005
-0.29312278E+005
-0.29311370E+005
-0.29305941E+005
-0.29290055E+005
-0.29287742E+005
-0.29302944E+005
-0.18514816E+007
-0.18487633E+007
-0.18359357E+007
-0.17870659E+007
-0.16517798E+007
-0.13829999E+007
-0.99737588E+006
-0.59662144E+006
-0.29286721E+006
-0.12375011E+006
-0.54796828E+005
-0.34394117E+005
-0.30048170E+005
-0.29388150E+005
-0.29317770E+005
-0.29312633E+005
-0.29312388E+005
-0.29312368E+005
-0.29312165E+005
-0.29309883E+005
-0.29291753E+005
-0.29200792E+005
-0.28986421E+005
-0.29044221E+005
-0.18557958E+007
-0.18490813E+007
-0.18358736E+007
-0.17852875E+007
-0.16412269E+007
-0.13662836E+007
-0.98355293E+006
-0.59006301E+006
-0.29249215E+006
-0.12448759E+006
-0.54966193E+005
-0.34430052E+005
-0.30059585E+005
-0.29390584E+005
-0.29318110E+005
-0.29312664E+005
-0.29312389E+005
-0.29312362E+005
-0.29312058E+005
-0.29308234E+005
-0.29272246E+005
-0.29031565E+005
-0.28007354E+005
-0.25999434E+005
-0.18597029E+007
-0.18491389E+007
-0.18360654E+007
-0.17750022E+007
-0.53371207E+006
-0.31289763E+006
-0.25028783E+006
-0.21470394E+006
-0.17668081E+006
-0.12631713E+006
-0.56147024E+005
-0.34506102E+005
-0.30087360E+005
-0.29396466E+005
-0.29318931E+005
-0.29312740E+005
-0.29312394E+005
-0.29312355E+005
-0.29311924E+005
-0.29306378E+005
-0.29251521E+005
-0.28848813E+005
-0.26779095E+005
-0.20131972E+005
-0.18599585E+007
-0.18491317E+007
-0.18364268E+007
-0.17601362E+007
-0.62352990E+006
-0.30897878E+006
-0.20726939E+006
-0.16617108E+006
-0.14354380E+006
-0.11780887E+006
-0.56355236E+005
-0.34559068E+005
-0.30103627E+005
-0.29399854E+005
-0.29319400E+005
-0.29312784E+005
-0.29312396E+005
-0.29312352E+005
-0.29311890E+005
-0.29306020E+005
-0.29248821E+005
-0.28835462E+005
-0.26743933E+005
-0.20108695E+005
-0.18602249E+007
-0.18491280E+007
-0.18361542E+007
-0.17609644E+007
-0.61853297E+006
-0.30999905E+006
-0.20337335E+006
-0.15926160E+006
-0.13811782E+006
-0.11615071E+006
-0.56350147E+005
-0.34625957E+005
-0.30123409E+005
-0.29403869E+005
-0.29319950E+005
-0.29312836E+005
-0.29312400E+005
-0.29312350E+005
-0.29311858E+005
-0.29305693E+005
-0.29246404E+005
-0.28823302E+005
-0.26707235E+005
-0.20061130E+005
-0.18605108E+007
-0.18491085E+007
-0.18358909E+007
-0.17597454E+007
-0.62343966E+006
-0.31031016E+006
-0.20322395E+006
-0.15870958E+006
-0.13749962E+006
-0.11579677E+006
-0.56406920E+005
-0.34708094E+005
-0.30147330E+005
-0.29408565E+005
-0.29320582E+005
-0.29312896E+005
-0.29312403E+005
-0.29312348E+005
-0.29311828E+005
-0.29305391E+005
-0.29244199E+005
-0.28812316E+005
-0.26674596E+005
-0.20021265E+005
-0.18607956E+007
-0.18490676E+007
-0.18354991E+007
-0.17581341E+007
-0.62889752E+006
-0.31171668E+006
-0.20360057E+006
-0.15877524E+006
-0.13741485E+006
-0.11557024E+006
-0.56484566E+005
-0.34810167E+005
-0.30175392E+005
-0.29413842E+005
-0.29321276E+005
-0.29312961E+005
-0.29312408E+005
-0.29312346E+005
-0.29311801E+005
-0.29305130E+005
-0.29242320E+005
-0.28803080E+005
-0.26647549E+005
-0.19988681E+005
-0.18610439E+007
-0.18489958E+007
-0.18349397E+007
-0.17557274E+007
-0.63550590E+006
-0.31328078E+006
-0.20410289E+006
-0.15890779E+006
-0.13737290E+006
-0.11535851E+006
-0.56590037E+005
-0.34928114E+005
-0.30205575E+005
-0.29419215E+005
-0.29321960E+005
-0.29313024E+005
-0.29312412E+005
-0.29312345E+005
-0.29311780E+005
-0.29304928E+005
-0.29240878E+005
-0.28796071E+005
-0.26627241E+005
-0.19964544E+005
-0.18612128E+007
-0.18489056E+007
-0.18342738E+007
-0.17526331E+007
-0.64203047E+006
-0.31467286E+006
-0.20452058E+006
-0.15901992E+006
-0.13734230E+006
-0.11518430E+006
-0.56708879E+005
-0.35037256E+005
-0.30231363E+005
-0.29423548E+005
-0.29322494E+005
-0.29313073E+005
-0.29312415E+005
-0.29312344E+005
-0.29311767E+005
-0.29304799E+005
-0.29239970E+005
-0.28791686E+005
-0.26614634E+005
-0.19949701E+005
-0.18612719E+007
-0.18488590E+007
-0.18339230E+007
-0.17508780E+007
-0.64506883E+006
-0.31525296E+006
-0.20468765E+006
-0.15906367E+006
-0.13733029E+006
-0.11511402E+006
-0.56768499E+005
-0.35084928E+005
-0.30241998E+005
-0.29425265E+005
-0.29322701E+005
-0.29313092E+005
-0.29312416E+005
-0.29312344E+005
-0.29311763E+005
-0.29304755E+005
-0.29239659E+005
-0.28790193E+005
-0.26610359E+005
-0.19944693E+005
-0.18612128E+007
-0.18489056E+007
-0.18342738E+007
-0.17526331E+007
-0.64203047E+006
-0.31467282E+006
-0.20452054E+006
-0.15901986E+006
-0.13734227E+006
-0.11518430E+006
-0.56708879E+005
-0.35037256E+005
-0.30231363E+005
-0.29423548E+005
-0.29322494E+005
-0.29313073E+005
-0.29312415E+005
-0.29312344E+005
-0.29311767E+005
-0.29304799E+005
-0.29239970E+005
-0.28791686E+005
-0.26614634E+005
-0.19949701E+005
-0.18610439E+007
-0.18489958E+007
-0.18349397E+007
-0.17557274E+007
-0.63550572E+006
-0.31328049E+006
-0.20410202E+006
-0.15890720E+006
-0.13737244E+006
-0.11535839E+006
-0.56590035E+005
-0.34928114E+005
-0.30205575E+005
-0.29419215E+005
-0.29321960E+005
-0.29313024E+005
-0.29312412E+005
-0.29312345E+005
-0.29311780E+005
-0.29304928E+005
-0.29240879E+005
-0.28796067E+005
-0.26627248E+005
-0.19964539E+005
-0.18607956E+007
-0.18490676E+007
-0.18354991E+007
-0.17581341E+007
-0.62889685E+006
-0.31170921E+006
-0.20359377E+006
-0.15876597E+006
-0.13740922E+006
-0.11556919E+006
-0.56484494E+005
-0.34810167E+005
-0.30175393E+005
-0.29413842E+005
-0.29321277E+005
-0.29312962E+005
-0.29312409E+005
-0.29312347E+005
-0.29311803E+005
-0.29305131E+005
-0.29242322E+005
-0.28803132E+005
-0.26647365E+005
-0.19988890E+005
-0.18605106E+007
-0.18491082E+007
-0.18358909E+007
-0.17597424E+007
-0.62340916E+006
-0.31027687E+006
-0.20311824E+006
-0.15862447E+006
-0.13745363E+006
-0.11577677E+006
-0.56406804E+005
-0.34707987E+005
-0.30147221E+005
-0.29408441E+005
-0.29320438E+005
-0.29312728E+005
-0.29312211E+005
-0.29312129E+005
-0.29311580E+005
-0.29305110E+005
-0.29243808E+005
-0.28811721E+005
-0.26677835E+005
-0.20014084E+005
-0.18602422E+007
-0.18491540E+007
-0.18361714E+007
-0.17611072E+007
-0.61855106E+006
-0.30929132E+006
-0.20288708E+006
-0.15868721E+006
-0.13753329E+006
-0.11613257E+006
-0.56352289E+005
-0.34635498E+005
-0.30135465E+005
-0.29417472E+005
-0.29335299E+005
-0.29330087E+005
-0.29331697E+005
-0.29333822E+005
-0.29335631E+005
-0.29331953E+005
-0.29275250E+005
-0.28849132E+005
-0.26702869E+005
-0.20264911E+005
-0.18587896E+007
-0.18475397E+007
-0.18349177E+007
-0.17550330E+007
-0.62004113E+006
-0.30978619E+006
-0.20450257E+006
-0.16334818E+006
-0.14353699E+006
-0.11547019E+006
-0.55465586E+005
-0.33834247E+005
-0.29283853E+005
-0.28503499E+005
-0.28342344E+005
-0.28249575E+005
-0.28157932E+005
-0.28062207E+005
-0.27962276E+005
-0.27854678E+005
-0.27702742E+005
-0.27232682E+005
-0.24919303E+005
-0.15433998E+005
-0.19089881E+007
-0.19075426E+007
-0.18953414E+007
-0.18730043E+007
-0.58244281E+006
-0.31526274E+006
-0.26832696E+006
-0.23803253E+006
-0.18230057E+006
-0.15746825E+006
-0.88954945E+005
-0.64669047E+005
-0.61930139E+005
-0.62871495E+005
-0.64463922E+005
-0.66197120E+005
-0.68004908E+005
-0.69872746E+005
-0.71791187E+005
-0.73752099E+005
-0.75763256E+005
-0.78077561E+005
-0.82756283E+005
-0.97126654E+005
