 0.99991211E+000
 0.10000000E+001
 0.10000000E+001
 0.00000000E+000
 0.00000000E+000
 0.99464973E-015
 0.99991212E+000
 0.99991219E+000
 0.99991296E+000
 0.99991824E+000
 0.99994250E+000
 0.99996040E+000
 0.99995918E+000
 0.99995923E+000
 0.99995923E+000
 0.99995923E+000
 0.99995923E+000
 0.99995923E+000
 0.99995923E+000
 0.99995923E+000
 0.99995923E+000
 0.99995923E+000
 0.99995924E+000
 0.99995931E+000
 0.99995999E+000
 0.99996480E+000
 0.99998480E+000
 0.10000000E+001
 0.99999983E+000
 0.10000000E+001
 0.10000000E+001
 0.10000000E+001
 0.10000000E+001
 0.10000000E+001
 0.10000000E+001
 0.10000000E+001
 0.10000000E+001
 0.10000000E+001
 0.10000000E+001
 0.10000000E+001
 0.10000000E+001
 0.10000000E+001
 0.10000000E+001
 0.10000000E+001
 0.10000000E+001
 0.99990155E+000
 0.99890943E+000
 0.99415381E+000
 0.95034975E+000
 0.67971445E+000
 0.43181022E+000
 0.28300103E+000
 0.17564725E+000
 0.10828642E+000
 0.53038022E-001
 0.14728816E-001
 0.25946402E-002
 0.36096500E-003
 0.34448919E-004
 0.21307831E-005
 0.73904345E-007
 0.66546935E-009
 0.00000000E+000
 0.88601686E-021
 0.49928603E-019
 0.77597575E-018
 0.56193472E-017
 0.00000000E+000
 0.00000000E+000
 0.00000000E+000
 0.00000000E+000
 0.00000000E+000
 0.00000000E+000
 0.00000000E+000
 0.00000000E+000
 0.00000000E+000
 0.00000000E+000
 0.00000000E+000
 0.00000000E+000
 0.00000000E+000
 0.00000000E+000
 0.00000000E+000
 0.00000000E+000
 0.00000000E+000
 0.00000000E+000
 0.00000000E+000
 0.00000000E+000
 0.00000000E+000
 0.00000000E+000
 0.00000000E+000
 0.00000000E+000
 0.26006873E-020
 0.64336139E-020
 0.85390604E-020
 0.92446666E-020
 0.94021913E-020
 0.94269152E-020
 0.94298641E-020
 0.94278723E-020
 0.94588332E-020
 0.91989747E-020
 0.10833618E-019
 0.00000000E+000
 0.77875216E-016
 0.32559584E-015
 0.60598929E-015
 0.82792876E-015
 0.95489310E-015
 0.10757980E-013
 0.21016171E-012
 0.37120863E-011
 0.58855163E-010
 0.83258468E-009
 0.10436209E-007
 0.11499912E-006
 0.11041112E-005
 0.91457190E-005
 0.64667967E-004
 0.38599493E-003
 0.19232523E-002
 0.79184341E-002
 0.26751729E-001
 0.74106305E-001
 0.16959329E+000
 0.32475994E+000
 0.52588665E+000
 0.72641355E+000
 0.87460743E+000
 0.95504760E+000
 0.98743969E+000
 0.99727095E+000
 0.99953872E+000
 0.99981895E+000
 0.99851919E+000
 0.99177226E+000
 0.95683499E+000
 0.81296843E+000
 0.63313964E+000
 0.44525513E+000
 0.26375884E+000
 0.13429932E+000
 0.53120696E-001
 0.14352968E-001
 0.28300298E-002
 0.41739767E-003
 0.44484672E-004
 0.33636628E-005
 0.17550140E-006
 0.59999753E-008
 0.11833265E-009
 0.70000408E-012
 0.00000000E+000
 0.00000000E+000
 0.87689881E-017
 0.00000000E+000
 0.00000000E+000
 0.99953873E+000
 0.99727097E+000
 0.98743975E+000
 0.95504770E+000
 0.87460756E+000
 0.72641367E+000
 0.52588666E+000
 0.32475979E+000
 0.16959301E+000
 0.74105971E-001
 0.26751428E-001
 0.79182166E-002
 0.19231259E-002
 0.38593554E-003
 0.64645522E-004
 0.91389032E-005
 0.11024457E-005
 0.11467029E-006
 0.10383447E-007
 0.82565074E-009
 0.58101547E-010
 0.36435836E-011
 0.20489056E-012
 0.10409393E-013
 0.99953888E+000
 0.99727138E+000
 0.98744072E+000
 0.95504955E+000
 0.87461024E+000
 0.72641612E+000
 0.52588702E+000
 0.32475701E+000
 0.16958772E+000
 0.74099842E-001
 0.26746158E-001
 0.79146899E-002
 0.19212680E-002
 0.38516482E-003
 0.64393048E-004
 0.90731597E-005
 0.10887230E-005
 0.11235287E-006
 0.10063524E-007
 0.78912642E-009
 0.54609987E-010
 0.33604937E-011
 0.18517620E-012
 0.92130282E-014
 0.99954050E+000
 0.99727639E+000
 0.98745352E+000
 0.95507575E+000
 0.87465128E+000
 0.72645737E+000
 0.52589739E+000
 0.32471750E+000
 0.16950950E+000
 0.74012388E-001
 0.26676038E-001
 0.78723911E-002
 0.19018592E-002
 0.37831753E-003
 0.62509690E-004
 0.86635474E-005
 0.10173227E-005
 0.10224254E-006
 0.88842043E-008
 0.67416348E-009
 0.45107556E-010
 0.26851021E-011
 0.14335497E-012
 0.69254993E-014
 0.99955320E+000
 0.99732109E+000
 0.98757905E+000
 0.95535304E+000
 0.87512220E+000
 0.72698454E+000
 0.52608584E+000
 0.32427809E+000
 0.16860249E+000
 0.73045553E-001
 0.25977141E-001
 0.75096624E-002
 0.17624089E-002
 0.33754902E-003
 0.53241902E-004
 0.69938536E-005
 0.77475583E-006
 0.73345035E-007
 0.60135897E-008
 0.43245269E-009
 0.27585129E-010
 0.15758520E-011
 0.81264568E-013
 0.38130138E-014
 0.99961634E+000
 0.99758466E+000
 0.98840728E+000
 0.95733502E+000
 0.87876978E+000
 0.73157296E+000
 0.52837785E+000
 0.32087330E+000
 0.16084540E+000
 0.65537773E-001
 0.21409387E-001
 0.55685273E-002
 0.11552911E-002
 0.19291428E-003
 0.26301591E-004
 0.29825514E-005
 0.28741626E-006
 0.24064135E-007
 0.17851302E-008
 0.11906096E-009
 0.72118673E-011
 0.39818095E-012
 0.20050880E-013
 0.92439645E-015
 0.99966398E+000
 0.99779406E+000
 0.98908448E+000
 0.95898543E+000
 0.88186752E+000
 0.73560454E+000
 0.53055938E+000
 0.31784370E+000
 0.15359054E+000
 0.58570855E-001
 0.17336838E-001
 0.39400603E-002
 0.68329882E-003
 0.90085846E-004
 0.89902348E-005
 0.67242575E-006
 0.36580660E-007
 0.12926738E-008
 0.10546658E-010
 0.00000000E+000
 0.00000000E+000
 0.00000000E+000
 0.00000000E+000
 0.00000000E+000
 0.99966090E+000
 0.99778236E+000
 0.98905010E+000
 0.95890735E+000
 0.88172954E+000
 0.73543301E+000
 0.53046774E+000
 0.31797064E+000
 0.15390582E+000
 0.58881847E-001
 0.17522697E-001
 0.40161698E-002
 0.70596697E-003
 0.95166072E-004
 0.98671514E-005
 0.79134090E-006
 0.49505687E-007
 0.24441156E-008
 0.96762131E-010
 0.31268543E-011
 0.82888190E-013
 0.18085602E-014
 0.32246826E-016
 0.46385144E-018
 0.99966102E+000
 0.99778279E+000
 0.98905126E+000
 0.95890982E+000
 0.88173367E+000
 0.73543792E+000
 0.53047026E+000
 0.31796698E+000
 0.15389668E+000
 0.58872601E-001
 0.17516994E-001
 0.40137441E-002
 0.70521168E-003
 0.94988102E-004
 0.98347340E-005
 0.78670151E-006
 0.48976218E-007
 0.23951669E-008
 0.93030388E-010
 0.29046293E-011
 0.73821759E-013
 0.15678919E-014
 0.27455833E-016
 0.39203349E-018
 0.99966102E+000
 0.99778278E+000
 0.98905123E+000
 0.95890976E+000
 0.88173358E+000
 0.73543781E+000
 0.53047021E+000
 0.31796706E+000
 0.15389688E+000
 0.58872807E-001
 0.17517125E-001
 0.40138023E-002
 0.70523070E-003
 0.94992842E-004
 0.98356530E-005
 0.78684216E-006
 0.48993416E-007
 0.23968659E-008
 0.93167646E-010
 0.29137392E-011
 0.74303592E-013
 0.15867047E-014
 0.27962261E-016
 0.40172010E-018
 0.99966102E+000
 0.99778278E+000
 0.98905123E+000
 0.95890976E+000
 0.88173358E+000
 0.73543782E+000
 0.53047021E+000
 0.31796706E+000
 0.15389688E+000
 0.58872803E-001
 0.17517123E-001
 0.40138012E-002
 0.70523032E-003
 0.94992741E-004
 0.98356322E-005
 0.78683875E-006
 0.48992966E-007
 0.23968178E-008
 0.93163456E-010
 0.29134381E-011
 0.74285741E-013
 0.15858508E-014
 0.27930937E-016
 0.40088811E-018
 0.99966102E+000
 0.99778278E+000
 0.98905123E+000
 0.95890976E+000
 0.88173358E+000
 0.73543782E+000
 0.53047021E+000
 0.31796706E+000
 0.15389688E+000
 0.58872803E-001
 0.17517123E-001
 0.40138012E-002
 0.70523032E-003
 0.94992743E-004
 0.98356326E-005
 0.78683882E-006
 0.48992976E-007
 0.23968190E-008
 0.93163562E-010
 0.29134464E-011
 0.74286277E-013
 0.15858796E-014
 0.27932185E-016
 0.40093011E-018
 0.99966102E+000
 0.99778278E+000
 0.98905123E+000
 0.95890976E+000
 0.88173358E+000
 0.73543782E+000
 0.53047021E+000
 0.31796706E+000
 0.15389688E+000
 0.58872803E-001
 0.17517123E-001
 0.40138012E-002
 0.70523032E-003
 0.94992743E-004
 0.98356326E-005
 0.78683882E-006
 0.48992975E-007
 0.23968189E-008
 0.93163559E-010
 0.29134460E-011
 0.74286240E-013
 0.15858760E-014
 0.27931871E-016
 0.40090640E-018
 0.99966102E+000
 0.99778278E+000
 0.98905123E+000
 0.95890976E+000
 0.88173358E+000
 0.73543782E+000
 0.53047021E+000
 0.31796706E+000
 0.15389688E+000
 0.58872803E-001
 0.17517123E-001
 0.40138012E-002
 0.70523032E-003
 0.94992743E-004
 0.98356326E-005
 0.78683881E-006
 0.48992975E-007
 0.23968188E-008
 0.93163538E-010
 0.29134428E-011
 0.74285838E-013
 0.15858344E-014
 0.27928396E-016
 0.40067297E-018
 0.99966102E+000
 0.99778278E+000
 0.98905123E+000
 0.95890976E+000
 0.88173358E+000
 0.73543782E+000
 0.53047021E+000
 0.31796706E+000
 0.15389688E+000
 0.58872803E-001
 0.17517123E-001
 0.40138012E-002
 0.70523032E-003
 0.94992742E-004
 0.98356324E-005
 0.78683877E-006
 0.48992963E-007
 0.23968165E-008
 0.93163160E-010
 0.29133920E-011
 0.74280306E-013
 0.15853501E-014
 0.27894645E-016
 0.39882023E-018
 0.99966102E+000
 0.99778278E+000
 0.98905123E+000
 0.95890976E+000
 0.88173358E+000
 0.73543782E+000
 0.53047021E+000
 0.31796706E+000
 0.15389688E+000
 0.58872803E-001
 0.17517123E-001
 0.40138011E-002
 0.70523029E-003
 0.94992730E-004
 0.98356286E-005
 0.78683775E-006
 0.48992743E-007
 0.23967777E-008
 0.93157598E-010
 0.29127509E-011
 0.74221338E-013
 0.15810669E-014
 0.27651734E-016
 0.38819148E-018
 0.99966102E+000
 0.99778278E+000
 0.98905123E+000
 0.95890977E+000
 0.88173359E+000
 0.73543782E+000
 0.53047021E+000
 0.31796706E+000
 0.15389687E+000
 0.58872799E-001
 0.17517120E-001
 0.40137996E-002
 0.70522960E-003
 0.94992479E-004
 0.98355545E-005
 0.78682013E-006
 0.48989364E-007
 0.23962574E-008
 0.93093769E-010
 0.29065610E-011
 0.73751451E-013
 0.15534522E-014
 0.26410953E-016
 0.34615945E-018
 0.99966103E+000
 0.99778280E+000
 0.98905128E+000
 0.95890985E+000
 0.88173369E+000
 0.73543790E+000
 0.53047024E+000
 0.31796702E+000
 0.15389679E+000
 0.58872715E-001
 0.17517061E-001
 0.40137681E-002
 0.70521639E-003
 0.94988088E-004
 0.98343926E-005
 0.78657561E-006
 0.48948590E-007
 0.23909014E-008
 0.92543684E-010
 0.28627897E-011
 0.71081319E-013
 0.14300959E-014
 0.22157384E-016
 0.23873605E-018
 0.99966117E+000
 0.99778319E+000
 0.98905216E+000
 0.95891136E+000
 0.88173561E+000
 0.73543951E+000
 0.53047067E+000
 0.31796607E+000
 0.15389509E+000
 0.58871106E-001
 0.17515994E-001
 0.40132366E-002
 0.70501229E-003
 0.94927004E-004
 0.98201088E-005
 0.78397010E-006
 0.48579459E-007
 0.23505449E-008
 0.89166675E-010
 0.26486282E-011
 0.60909827E-013
 0.10736466E-014
 0.13131600E-016
 0.79959105E-019
 0.99966276E+000
 0.99778827E+000
 0.98906465E+000
 0.95893423E+000
 0.88176587E+000
 0.73546505E+000
 0.53047682E+000
 0.31794973E+000
 0.15386750E+000
 0.58846271E-001
 0.17500576E-001
 0.40061757E-002
 0.70256715E-003
 0.94280838E-004
 0.96895474E-005
 0.76384130E-006
 0.46222821E-007
 0.21424612E-008
 0.75434675E-010
 0.19791532E-011
 0.37174807E-013
 0.47677698E-015
 0.30309632E-017
 0.00000000E+000
 0.99967597E+000
 0.99783696E+000
 0.98919789E+000
 0.95919796E+000
 0.88213217E+000
 0.73577906E+000
 0.53054370E+000
 0.31773273E+000
 0.15352257E+000
 0.58554074E-001
 0.17332810E-001
 0.39366780E-002
 0.68131903E-003
 0.89445800E-004
 0.88692375E-005
 0.66029520E-006
 0.36547714E-007
 0.14786396E-008
 0.42383374E-010
 0.80652103E-012
 0.85403019E-014
 0.40093483E-016
 0.00000000E+000
 0.00000000E+000
 0.99974644E+000
 0.99814648E+000
 0.99016489E+000
 0.96130934E+000
 0.88525024E+000
 0.73851308E+000
 0.53105475E+000
 0.31570475E+000
 0.15048956E+000
 0.56159759E-001
 0.16082833E-001
 0.34791528E-002
 0.56139260E-003
 0.66744016E-004
 0.57595232E-005
 0.35288603E-006
 0.14782307E-007
 0.39032075E-009
 0.49340868E-011
 0.00000000E+000
 0.00000000E+000
 0.00000000E+000
 0.00000000E+000
 0.00000000E+000
 0.99983421E+000
 0.99858439E+000
 0.99167874E+000
 0.96487660E+000
 0.89079492E+000
 0.74350540E+000
 0.53193560E+000
 0.31184750E+000
 0.14489149E+000
 0.51921747E-001
 0.14002301E-001
 0.27791567E-002
 0.39696720E-003
 0.39669649E-004
 0.26532589E-005
 0.10886660E-006
 0.21285732E-008
 0.00000000E+000
 0.00000000E+000
 0.58748354E-014
 0.10142061E-015
 0.12147201E-016
 0.00000000E+000
 0.00000000E+000
 0.99982605E+000
 0.99855975E+000
 0.99164460E+000
 0.96483109E+000
 0.89057288E+000
 0.74303953E+000
 0.53137035E+000
 0.31139612E+000
 0.14466532E+000
 0.51836902E-001
 0.13988420E-001
 0.27893660E-002
 0.40387455E-003
 0.41589387E-004
 0.29574393E-005
 0.13791871E-006
 0.37415657E-008
 0.34608217E-010
 0.00000000E+000
 0.00000000E+000
 0.11839327E-016
 0.10258528E-016
 0.00000000E+000
 0.00000000E+000
 0.99982313E+000
 0.99854356E+000
 0.99160525E+000
 0.96385482E+000
 0.88478040E+000
 0.73386391E+000
 0.52378293E+000
 0.30779619E+000
 0.14445945E+000
 0.52241705E-001
 0.14081384E-001
 0.28090906E-002
 0.41014015E-003
 0.42924992E-004
 0.31440934E-005
 0.15511340E-006
 0.47674984E-008
 0.71900141E-010
 0.00000000E+000
 0.00000000E+000
 0.52544120E-018
 0.90627442E-017
 0.00000000E+000
 0.00000000E+000
 0.99981259E+000
 0.99849611E+000
 0.99170830E+000
 0.95820860E+000
 0.27686507E+000
 0.15566002E+000
 0.12129349E+000
 0.10176148E+000
 0.80890579E-001
 0.53245941E-001
 0.14729543E-001
 0.28508346E-002
 0.42538583E-003
 0.46153837E-004
 0.35947013E-005
 0.19677656E-006
 0.72934600E-008
 0.16848231E-009
 0.18175883E-011
 0.00000000E+000
 0.00000000E+000
 0.68210675E-017
 0.00000000E+000
 0.00000000E+000
 0.99980578E+000
 0.99846399E+000
 0.99190442E+000
 0.95004846E+000
 0.32616608E+000
 0.15350896E+000
 0.97680655E-001
 0.75121783E-001
 0.62701661E-001
 0.48575749E-001
 0.14843830E-001
 0.28799075E-002
 0.43431499E-003
 0.48013441E-004
 0.38524941E-005
 0.22102080E-006
 0.88421980E-008
 0.23460270E-009
 0.36082859E-011
 0.13729210E-013
 0.00000000E+000
 0.43357006E-017
 0.00000000E+000
 0.00000000E+000
 0.99979703E+000
 0.99843220E+000
 0.99175249E+000
 0.95050284E+000
 0.32342325E+000
 0.15406898E+000
 0.95542120E-001
 0.71329169E-001
 0.59723339E-001
 0.47665590E-001
 0.14841037E-001
 0.29166233E-002
 0.44517337E-003
 0.50217405E-004
 0.41542697E-005
 0.24946485E-006
 0.10701175E-007
 0.31845227E-009
 0.61580143E-011
 0.62512893E-013
 0.00000000E+000
 0.19099143E-017
 0.00000000E+000
 0.48505421E-024
 0.99978608E+000
 0.99838758E+000
 0.99160517E+000
 0.94983354E+000
 0.32611652E+000
 0.15423975E+000
 0.95460114E-001
 0.71026164E-001
 0.59384011E-001
 0.47471312E-001
 0.14872200E-001
 0.29617083E-002
 0.45830319E-003
 0.52795214E-004
 0.45013584E-005
 0.28218616E-006
 0.12884460E-007
 0.42178456E-009
 0.95986384E-011
 0.14092264E-012
 0.10124135E-014
 0.72148697E-017
 0.00000000E+000
 0.00000000E+000
 0.99977253E+000
 0.99832895E+000
 0.99138703E+000
 0.94894885E+000
 0.32911233E+000
 0.15501179E+000
 0.95666842E-001
 0.71062203E-001
 0.59337481E-001
 0.47346966E-001
 0.14914820E-001
 0.30177357E-002
 0.47370678E-003
 0.55691505E-004
 0.48820062E-005
 0.31787191E-006
 0.15300014E-007
 0.54056889E-009
 0.13844563E-010
 0.25044954E-012
 0.30059128E-014
 0.30972802E-016
 0.00000000E+000
 0.00000000E+000
 0.99975701E+000
 0.99825540E+000
 0.99107682E+000
 0.94762752E+000
 0.33273965E+000
 0.15587032E+000
 0.95942563E-001
 0.71134962E-001
 0.59314454E-001
 0.47230746E-001
 0.14972713E-001
 0.30824772E-002
 0.49027423E-003
 0.58640727E-004
 0.52576209E-005
 0.35267246E-006
 0.17671439E-007
 0.66030396E-009
 0.18345723E-010
 0.37670653E-012
 0.56430218E-014
 0.71423944E-016
 0.83294700E-019
 0.00000000E+000
 0.99974284E+000
 0.99818063E+000
 0.99070881E+000
 0.94592881E+000
 0.33632097E+000
 0.15663443E+000
 0.96171831E-001
 0.71196509E-001
 0.59297657E-001
 0.47135126E-001
 0.15037945E-001
 0.31423854E-002
 0.50442907E-003
 0.61019220E-004
 0.55505949E-005
 0.37940928E-006
 0.19493788E-007
 0.75370031E-009
 0.21967450E-010
 0.48360512E-012
 0.80576720E-014
 0.11329061E-015
 0.70830417E-018
 0.10257444E-020
 0.99973672E+000
 0.99814566E+000
 0.99051529E+000
 0.94496534E+000
 0.33798872E+000
 0.15695285E+000
 0.96263538E-001
 0.71220527E-001
 0.59291067E-001
 0.47096549E-001
 0.15070671E-001
 0.31685525E-002
 0.51026642E-003
 0.61961930E-004
 0.56640901E-005
 0.38965252E-006
 0.20190561E-007
 0.78962845E-009
 0.23380770E-010
 0.52632214E-012
 0.90574257E-014
 0.13154599E-015
 0.98713257E-018
 0.42093841E-020
 0.99974284E+000
 0.99818063E+000
 0.99070881E+000
 0.94592881E+000
 0.33632097E+000
 0.15663443E+000
 0.96171833E-001
 0.71196510E-001
 0.59297657E-001
 0.47135126E-001
 0.15037946E-001
 0.31423854E-002
 0.50442907E-003
 0.61019220E-004
 0.55505949E-005
 0.37940928E-006
 0.19493788E-007
 0.75370031E-009
 0.21967450E-010
 0.48360511E-012
 0.80576724E-014
 0.11329071E-015
 0.70831483E-018
 0.10239662E-020
 0.99975701E+000
 0.99825540E+000
 0.99107682E+000
 0.94762752E+000
 0.33273965E+000
 0.15587034E+000
 0.95942582E-001
 0.71134978E-001
 0.59314464E-001
 0.47230744E-001
 0.14972713E-001
 0.30824772E-002
 0.49027423E-003
 0.58640727E-004
 0.52576209E-005
 0.35267246E-006
 0.17671438E-007
 0.66030394E-009
 0.18345724E-010
 0.37670710E-012
 0.56430588E-014
 0.71421049E-016
 0.82319357E-019
 0.00000000E+000
 0.99977253E+000
 0.99832895E+000
 0.99138703E+000
 0.94894884E+000
 0.32911247E+000
 0.15501194E+000
 0.95667109E-001
 0.71062464E-001
 0.59337530E-001
 0.47346977E-001
 0.14914823E-001
 0.30177358E-002
 0.47370679E-003
 0.55691504E-004
 0.48820061E-005
 0.31787187E-006
 0.15300015E-007
 0.54057043E-009
 0.13844744E-010
 0.25044195E-012
 0.30026287E-014
 0.30625118E-016
 0.00000000E+000
 0.00000000E+000
 0.99978608E+000
 0.99838759E+000
 0.99160514E+000
 0.94983371E+000
 0.32611668E+000
 0.15424268E+000
 0.95463231E-001
 0.71027510E-001
 0.59385567E-001
 0.47471118E-001
 0.14872264E-001
 0.29617098E-002
 0.45830294E-003
 0.52795204E-004
 0.45013573E-005
 0.28218853E-006
 0.12884912E-007
 0.42178753E-009
 0.95895929E-011
 0.13956944E-012
 0.90098605E-015
 0.41714125E-017
 0.00000000E+000
 0.00000000E+000
 0.99979704E+000
 0.99843224E+000
 0.99175406E+000
 0.95049815E+000
 0.32345007E+000
 0.15408353E+000
 0.95554856E-001
 0.71353620E-001
 0.59724748E-001
 0.47666814E-001
 0.14840545E-001
 0.29164384E-002
 0.44516415E-003
 0.50217873E-004
 0.41547690E-005
 0.24948940E-006
 0.10687526E-007
 0.31533533E-009
 0.58335739E-011
 0.41822581E-013
 0.00000000E+000
 0.00000000E+000
 0.00000000E+000
 0.00000000E+000
 0.99980485E+000
 0.99845788E+000
 0.99185949E+000
 0.95013422E+000
 0.32595138E+000
 0.15359630E+000
 0.97901597E-001
 0.75057722E-001
 0.62629082E-001
 0.48507103E-001
 0.14857592E-001
 0.28893957E-002
 0.43584675E-003
 0.48178163E-004
 0.38491557E-005
 0.21723659E-006
 0.82577637E-008
 0.18533838E-009
 0.11151380E-011
 0.00000000E+000
 0.00000000E+000
 0.12077669E-017
 0.00000000E+000
 0.13317458E-021
 0.99983539E+000
 0.99861741E+000
 0.99223545E+000
 0.95751975E+000
 0.28185617E+000
 0.15984406E+000
 0.12026862E+000
 0.98681449E-001
 0.77567470E-001
 0.52481649E-001
 0.14529014E-001
 0.26500847E-002
 0.37731387E-003
 0.37793434E-004
 0.25646516E-005
 0.10753733E-006
 0.19635831E-008
 0.00000000E+000
 0.00000000E+000
 0.00000000E+000
 0.73874497E-019
 0.00000000E+000
 0.22063774E-019
 0.00000000E+000
