GiD Post Results File 1.0
 
Result MASSM ALYA  0.00000000E+00 Scalar OnNodes
ComponentNames MASSM
Values
          1  0.55555553E-001
          2  0.55555553E-001
          3  0.55555553E-001
          4  0.55555553E-001
          5  0.27777772E-001
          6  0.27777772E-001
          7  0.27777772E-001
          8  0.11111112E+000
          9  0.11111112E+000
         10  0.11111112E+000
         11  0.55555553E-001
         12  0.55555553E-001
         13  0.11111112E+000
         14  0.55555553E-001
         15  0.55555553E-001
         16  0.27777772E-001
End values

Result TEMPE ALYA  0.00000000E+00 Scalar OnNodes
ComponentNames TEMPE
Values
          1  0.36666666E+001
          2  0.43333334E+001
          3  0.40000001E+001
          4  0.29999999E+001
          5  0.30000000E+001
          6  0.50000000E+001
          7  0.20000000E+001
          8  0.10000000E+001
          9  0.10000000E+001
         10  0.10000000E+001
         11  0.20000001E+001
         12  0.13333334E+001
         13  0.10000000E+001
         14  0.99999990E+000
         15  0.66666660E+000
         16  0.00000000E+000
End values

Result TEMPE ALYA  0.10000000E+00 Scalar OnNodes
ComponentNames TEMPE
Values
          1  0.36666666E+001
          2  0.43333334E+001
          3  0.40000001E+001
          4  0.29999999E+001
          5  0.30000000E+001
          6  0.50000000E+001
          7  0.20000000E+001
          8  0.33333335E+001
          9  0.26666667E+001
         10  0.23333333E+001
         11  0.20000001E+001
         12  0.13333334E+001
         13  0.16666665E+001
         14  0.99999990E+000
         15  0.66666660E+000
         16  0.00000000E+000
End values

