{
    "authors": [
        "alfonso.santiago@bsc.es",
        "adria.quintanas@bsc.es"
    ],
    "comparisons": [
        {
            "file": "cycle_management_springs-cardiac-cycle.sld.res",
            "method": "absolute",
            "tolerance": "1.0e-5"
        },
        {
            "file": "cycle_management_springs-cardiac-cycle.sld.cvg",
            "method": "absolute",
            "tolerance": "1.0e-3"
        }
    ],
    "description": "Test the cycle management+springs for two cavities",
    "exclude": [
        "special"
    ],
    "executions": [
        {
            "mpi": 3,
            "openmp": 0
        }
    ],
    "modules": [
        "solidz"
    ],
    "name": "cycle_management_springs",
    "postprocess": "alya2pos",
    "timeout": "00:02:00"
}
