#
# --|  Columns displayed:
# --|  1. Time step                 2. Global iteration        3. Current time          4. Overall time
# --|  5. Count element assembly    6. Max element assembly    7. Ave element assembly  
# --|  8. Count boundary assembly   9. Max boundary assembly  10. Ave boundary assembly 
# --| 11. Count node assembly      12. Max node assembly      13. Ave node assembly     
# --| 14. Count particle assembly  15. Max particle assembly  16. Ave particle assembly 
# --| 17. Solvers
# --------- --------- ------------- ------------- ------------- ------------- ------------- ------------- ------------- ------------- ------------- ------------- ------------- ------------- ------------- ------------- ------------- 
# Time step Global it Current time  Overall time  # elem. ass.  Max elem. ass Ave elem. ass # boun. ass.  Max boun. ass Ave boun. ass # node  ass.  Max node  ass Ave node  ass # part. ass.  Max part. ass Ave part  ass  Solvers
# --------- --------- ------------- ------------- ------------- ------------- ------------- ------------- ------------- ------------- ------------- ------------- ------------- ------------- ------------- ------------- ------------- 
         1         1   3.000000E-04  2.479553E-04  0.000000E+00  0.000000E+00  0.000000E+00  0.000000E+00  0.000000E+00  0.000000E+00  0.000000E+00  0.000000E+00  0.000000E+00  1.000000E+00  1.649857E-04  1.649857E-04  0.000000E+00
         2         1   6.000000E-04  9.202957E-05  0.000000E+00  0.000000E+00  0.000000E+00  0.000000E+00  0.000000E+00  0.000000E+00  0.000000E+00  0.000000E+00  0.000000E+00  1.000000E+00  6.198883E-05  6.198883E-05  0.000000E+00
         3         1   9.000000E-04  8.010864E-05  0.000000E+00  0.000000E+00  0.000000E+00  0.000000E+00  0.000000E+00  0.000000E+00  0.000000E+00  0.000000E+00  0.000000E+00  1.000000E+00  5.388260E-05  5.388260E-05  0.000000E+00
         4         1   1.200000E-03  7.987022E-05  0.000000E+00  0.000000E+00  0.000000E+00  0.000000E+00  0.000000E+00  0.000000E+00  0.000000E+00  0.000000E+00  0.000000E+00  1.000000E+00  5.388260E-05  5.388260E-05  0.000000E+00
         5         1   1.500000E-03  7.796288E-05  0.000000E+00  0.000000E+00  0.000000E+00  0.000000E+00  0.000000E+00  0.000000E+00  0.000000E+00  0.000000E+00  0.000000E+00  1.000000E+00  5.412102E-05  5.412102E-05  0.000000E+00
         6         1   1.800000E-03  7.891655E-05  0.000000E+00  0.000000E+00  0.000000E+00  0.000000E+00  0.000000E+00  0.000000E+00  0.000000E+00  0.000000E+00  0.000000E+00  1.000000E+00  5.507469E-05  5.507469E-05  0.000000E+00
         7         1   2.100000E-03  7.796288E-05  0.000000E+00  0.000000E+00  0.000000E+00  0.000000E+00  0.000000E+00  0.000000E+00  0.000000E+00  0.000000E+00  0.000000E+00  1.000000E+00  5.412102E-05  5.412102E-05  0.000000E+00
         8         1   2.400000E-03  8.583069E-05  0.000000E+00  0.000000E+00  0.000000E+00  0.000000E+00  0.000000E+00  0.000000E+00  0.000000E+00  0.000000E+00  0.000000E+00  1.000000E+00  6.198883E-05  6.198883E-05  0.000000E+00
         9         1   2.700000E-03  7.987022E-05  0.000000E+00  0.000000E+00  0.000000E+00  0.000000E+00  0.000000E+00  0.000000E+00  0.000000E+00  0.000000E+00  0.000000E+00  1.000000E+00  5.507469E-05  5.507469E-05  0.000000E+00
        10         1   3.000000E-03  2.748966E-04  0.000000E+00  0.000000E+00  0.000000E+00  0.000000E+00  0.000000E+00  0.000000E+00  0.000000E+00  0.000000E+00  0.000000E+00  1.000000E+00  2.388954E-04  2.388954E-04  0.000000E+00
        11         1   3.300000E-03  1.840830E-03  0.000000E+00  0.000000E+00  0.000000E+00  0.000000E+00  0.000000E+00  0.000000E+00  0.000000E+00  0.000000E+00  0.000000E+00  1.000000E+00  5.602837E-05  5.602837E-05  0.000000E+00
        12         1   3.600000E-03  8.296967E-05  0.000000E+00  0.000000E+00  0.000000E+00  0.000000E+00  0.000000E+00  0.000000E+00  0.000000E+00  0.000000E+00  0.000000E+00  1.000000E+00  5.412102E-05  5.412102E-05  0.000000E+00
        13         1   3.900000E-03  1.029968E-04  0.000000E+00  0.000000E+00  0.000000E+00  0.000000E+00  0.000000E+00  0.000000E+00  0.000000E+00  0.000000E+00  0.000000E+00  1.000000E+00  6.699562E-05  6.699562E-05  0.000000E+00
        14         1   4.200000E-03  8.106232E-05  0.000000E+00  0.000000E+00  0.000000E+00  0.000000E+00  0.000000E+00  0.000000E+00  0.000000E+00  0.000000E+00  0.000000E+00  1.000000E+00  5.388260E-05  5.388260E-05  0.000000E+00
        15         1   4.500000E-03  7.820129E-05  0.000000E+00  0.000000E+00  0.000000E+00  0.000000E+00  0.000000E+00  0.000000E+00  0.000000E+00  0.000000E+00  0.000000E+00  1.000000E+00  5.292892E-05  5.292892E-05  0.000000E+00
        16         1   4.800000E-03  7.700920E-05  0.000000E+00  0.000000E+00  0.000000E+00  0.000000E+00  0.000000E+00  0.000000E+00  0.000000E+00  0.000000E+00  0.000000E+00  1.000000E+00  5.292892E-05  5.292892E-05  0.000000E+00
        17         1   5.100000E-03  1.709461E-04  0.000000E+00  0.000000E+00  0.000000E+00  0.000000E+00  0.000000E+00  0.000000E+00  0.000000E+00  0.000000E+00  0.000000E+00  1.000000E+00  1.459122E-04  1.459122E-04  0.000000E+00
        18         1   5.400000E-03  7.820129E-05  0.000000E+00  0.000000E+00  0.000000E+00  0.000000E+00  0.000000E+00  0.000000E+00  0.000000E+00  0.000000E+00  0.000000E+00  1.000000E+00  5.412102E-05  5.412102E-05  0.000000E+00
        19         1   5.700000E-03  7.700920E-05  0.000000E+00  0.000000E+00  0.000000E+00  0.000000E+00  0.000000E+00  0.000000E+00  0.000000E+00  0.000000E+00  0.000000E+00  1.000000E+00  5.316734E-05  5.316734E-05  0.000000E+00
        20         1   6.000000E-03  7.581711E-05  0.000000E+00  0.000000E+00  0.000000E+00  0.000000E+00  0.000000E+00  0.000000E+00  0.000000E+00  0.000000E+00  0.000000E+00  1.000000E+00  5.102158E-05  5.102158E-05  0.000000E+00
        21         1   6.300000E-03  7.796288E-05  0.000000E+00  0.000000E+00  0.000000E+00  0.000000E+00  0.000000E+00  0.000000E+00  0.000000E+00  0.000000E+00  0.000000E+00  1.000000E+00  5.292892E-05  5.292892E-05  0.000000E+00
        22         1   6.600000E-03  7.700920E-05  0.000000E+00  0.000000E+00  0.000000E+00  0.000000E+00  0.000000E+00  0.000000E+00  0.000000E+00  0.000000E+00  0.000000E+00  1.000000E+00  5.197525E-05  5.197525E-05  0.000000E+00
        23         1   6.900000E-03  7.605553E-05  0.000000E+00  0.000000E+00  0.000000E+00  0.000000E+00  0.000000E+00  0.000000E+00  0.000000E+00  0.000000E+00  0.000000E+00  1.000000E+00  5.197525E-05  5.197525E-05  0.000000E+00
        24         1   7.200000E-03  7.796288E-05  0.000000E+00  0.000000E+00  0.000000E+00  0.000000E+00  0.000000E+00  0.000000E+00  0.000000E+00  0.000000E+00  0.000000E+00  1.000000E+00  5.412102E-05  5.412102E-05  0.000000E+00
        25         1   7.500000E-03  7.796288E-05  0.000000E+00  0.000000E+00  0.000000E+00  0.000000E+00  0.000000E+00  0.000000E+00  0.000000E+00  0.000000E+00  0.000000E+00  1.000000E+00  5.412102E-05  5.412102E-05  0.000000E+00
        26         1   7.800000E-03  7.891655E-05  0.000000E+00  0.000000E+00  0.000000E+00  0.000000E+00  0.000000E+00  0.000000E+00  0.000000E+00  0.000000E+00  0.000000E+00  1.000000E+00  5.412102E-05  5.412102E-05  0.000000E+00
        27         1   8.100000E-03  7.605553E-05  0.000000E+00  0.000000E+00  0.000000E+00  0.000000E+00  0.000000E+00  0.000000E+00  0.000000E+00  0.000000E+00  0.000000E+00  1.000000E+00  5.197525E-05  5.197525E-05  0.000000E+00
        28         1   8.400000E-03  7.605553E-05  0.000000E+00  0.000000E+00  0.000000E+00  0.000000E+00  0.000000E+00  0.000000E+00  0.000000E+00  0.000000E+00  0.000000E+00  1.000000E+00  5.197525E-05  5.197525E-05  0.000000E+00
        29         1   8.700000E-03  7.605553E-05  0.000000E+00  0.000000E+00  0.000000E+00  0.000000E+00  0.000000E+00  0.000000E+00  0.000000E+00  0.000000E+00  0.000000E+00  1.000000E+00  5.197525E-05  5.197525E-05  0.000000E+00
        30         1   9.000000E-03  4.069805E-04  0.000000E+00  0.000000E+00  0.000000E+00  0.000000E+00  0.000000E+00  0.000000E+00  0.000000E+00  0.000000E+00  0.000000E+00  1.000000E+00  3.819466E-04  3.819466E-04  0.000000E+00
        31         1   9.300000E-03  1.280308E-04  0.000000E+00  0.000000E+00  0.000000E+00  0.000000E+00  0.000000E+00  0.000000E+00  0.000000E+00  0.000000E+00  0.000000E+00  1.000000E+00  1.029968E-04  1.029968E-04  0.000000E+00
        32         1   9.600000E-03  7.581711E-05  0.000000E+00  0.000000E+00  0.000000E+00  0.000000E+00  0.000000E+00  0.000000E+00  0.000000E+00  0.000000E+00  0.000000E+00  1.000000E+00  5.197525E-05  5.197525E-05  0.000000E+00
        33         1   9.900000E-03  7.605553E-05  0.000000E+00  0.000000E+00  0.000000E+00  0.000000E+00  0.000000E+00  0.000000E+00  0.000000E+00  0.000000E+00  0.000000E+00  1.000000E+00  5.197525E-05  5.197525E-05  0.000000E+00
        34         1   1.020000E-02  7.605553E-05  0.000000E+00  0.000000E+00  0.000000E+00  0.000000E+00  0.000000E+00  0.000000E+00  0.000000E+00  0.000000E+00  0.000000E+00  1.000000E+00  5.197525E-05  5.197525E-05  0.000000E+00
        35         1   1.050000E-02  9.799004E-05  0.000000E+00  0.000000E+00  0.000000E+00  0.000000E+00  0.000000E+00  0.000000E+00  0.000000E+00  0.000000E+00  0.000000E+00  1.000000E+00  6.508827E-05  6.508827E-05  0.000000E+00
        36         1   1.080000E-02  8.010864E-05  0.000000E+00  0.000000E+00  0.000000E+00  0.000000E+00  0.000000E+00  0.000000E+00  0.000000E+00  0.000000E+00  0.000000E+00  1.000000E+00  5.292892E-05  5.292892E-05  0.000000E+00
        37         1   1.110000E-02  7.820129E-05  0.000000E+00  0.000000E+00  0.000000E+00  0.000000E+00  0.000000E+00  0.000000E+00  0.000000E+00  0.000000E+00  0.000000E+00  1.000000E+00  5.197525E-05  5.197525E-05  0.000000E+00
        38         1   1.140000E-02  7.796288E-05  0.000000E+00  0.000000E+00  0.000000E+00  0.000000E+00  0.000000E+00  0.000000E+00  0.000000E+00  0.000000E+00  0.000000E+00  1.000000E+00  5.316734E-05  5.316734E-05  0.000000E+00
        39         1   1.170000E-02  7.796288E-05  0.000000E+00  0.000000E+00  0.000000E+00  0.000000E+00  0.000000E+00  0.000000E+00  0.000000E+00  0.000000E+00  0.000000E+00  1.000000E+00  5.412102E-05  5.412102E-05  0.000000E+00
        40         1   1.200000E-02  7.891655E-05  0.000000E+00  0.000000E+00  0.000000E+00  0.000000E+00  0.000000E+00  0.000000E+00  0.000000E+00  0.000000E+00  0.000000E+00  1.000000E+00  5.388260E-05  5.388260E-05  0.000000E+00
        41         1   1.230000E-02  7.820129E-05  0.000000E+00  0.000000E+00  0.000000E+00  0.000000E+00  0.000000E+00  0.000000E+00  0.000000E+00  0.000000E+00  0.000000E+00  1.000000E+00  5.316734E-05  5.316734E-05  0.000000E+00
        42         1   1.260000E-02  7.700920E-05  0.000000E+00  0.000000E+00  0.000000E+00  0.000000E+00  0.000000E+00  0.000000E+00  0.000000E+00  0.000000E+00  0.000000E+00  1.000000E+00  5.316734E-05  5.316734E-05  0.000000E+00
        43         1   1.290000E-02  7.700920E-05  0.000000E+00  0.000000E+00  0.000000E+00  0.000000E+00  0.000000E+00  0.000000E+00  0.000000E+00  0.000000E+00  0.000000E+00  1.000000E+00  5.292892E-05  5.292892E-05  0.000000E+00
        44         1   1.320000E-02  7.915497E-05  0.000000E+00  0.000000E+00  0.000000E+00  0.000000E+00  0.000000E+00  0.000000E+00  0.000000E+00  0.000000E+00  0.000000E+00  1.000000E+00  5.388260E-05  5.388260E-05  0.000000E+00
        45         1   1.350000E-02  7.700920E-05  0.000000E+00  0.000000E+00  0.000000E+00  0.000000E+00  0.000000E+00  0.000000E+00  0.000000E+00  0.000000E+00  0.000000E+00  1.000000E+00  5.292892E-05  5.292892E-05  0.000000E+00
        46         1   1.380000E-02  7.700920E-05  0.000000E+00  0.000000E+00  0.000000E+00  0.000000E+00  0.000000E+00  0.000000E+00  0.000000E+00  0.000000E+00  0.000000E+00  1.000000E+00  5.292892E-05  5.292892E-05  0.000000E+00
        47         1   1.410000E-02  7.700920E-05  0.000000E+00  0.000000E+00  0.000000E+00  0.000000E+00  0.000000E+00  0.000000E+00  0.000000E+00  0.000000E+00  0.000000E+00  1.000000E+00  5.197525E-05  5.197525E-05  0.000000E+00
        48         1   1.440000E-02  7.605553E-05  0.000000E+00  0.000000E+00  0.000000E+00  0.000000E+00  0.000000E+00  0.000000E+00  0.000000E+00  0.000000E+00  0.000000E+00  1.000000E+00  5.292892E-05  5.292892E-05  0.000000E+00
        49         1   1.470000E-02  7.605553E-05  0.000000E+00  0.000000E+00  0.000000E+00  0.000000E+00  0.000000E+00  0.000000E+00  0.000000E+00  0.000000E+00  0.000000E+00  1.000000E+00  5.197525E-05  5.197525E-05  0.000000E+00
        50         1   1.500000E-02  7.700920E-05  0.000000E+00  0.000000E+00  0.000000E+00  0.000000E+00  0.000000E+00  0.000000E+00  0.000000E+00  0.000000E+00  0.000000E+00  1.000000E+00  5.197525E-05  5.197525E-05  0.000000E+00
        51         1   1.530000E-02  7.700920E-05  0.000000E+00  0.000000E+00  0.000000E+00  0.000000E+00  0.000000E+00  0.000000E+00  0.000000E+00  0.000000E+00  0.000000E+00  1.000000E+00  5.292892E-05  5.292892E-05  0.000000E+00
        52         1   1.560000E-02  7.390976E-05  0.000000E+00  0.000000E+00  0.000000E+00  0.000000E+00  0.000000E+00  0.000000E+00  0.000000E+00  0.000000E+00  0.000000E+00  1.000000E+00  5.006790E-05  5.006790E-05  0.000000E+00
        53         1   1.590000E-02  7.700920E-05  0.000000E+00  0.000000E+00  0.000000E+00  0.000000E+00  0.000000E+00  0.000000E+00  0.000000E+00  0.000000E+00  0.000000E+00  1.000000E+00  5.197525E-05  5.197525E-05  0.000000E+00
        54         1   1.620000E-02  7.581711E-05  0.000000E+00  0.000000E+00  0.000000E+00  0.000000E+00  0.000000E+00  0.000000E+00  0.000000E+00  0.000000E+00  0.000000E+00  1.000000E+00  5.197525E-05  5.197525E-05  0.000000E+00
        55         1   1.650000E-02  7.605553E-05  0.000000E+00  0.000000E+00  0.000000E+00  0.000000E+00  0.000000E+00  0.000000E+00  0.000000E+00  0.000000E+00  0.000000E+00  1.000000E+00  5.197525E-05  5.197525E-05  0.000000E+00
        56         1   1.680000E-02  7.605553E-05  0.000000E+00  0.000000E+00  0.000000E+00  0.000000E+00  0.000000E+00  0.000000E+00  0.000000E+00  0.000000E+00  0.000000E+00  1.000000E+00  5.102158E-05  5.102158E-05  0.000000E+00
        57         1   1.710000E-02  7.605553E-05  0.000000E+00  0.000000E+00  0.000000E+00  0.000000E+00  0.000000E+00  0.000000E+00  0.000000E+00  0.000000E+00  0.000000E+00  1.000000E+00  5.197525E-05  5.197525E-05  0.000000E+00
        58         1   1.740000E-02  7.581711E-05  0.000000E+00  0.000000E+00  0.000000E+00  0.000000E+00  0.000000E+00  0.000000E+00  0.000000E+00  0.000000E+00  0.000000E+00  1.000000E+00  5.197525E-05  5.197525E-05  0.000000E+00
        59         1   1.770000E-02  7.605553E-05  0.000000E+00  0.000000E+00  0.000000E+00  0.000000E+00  0.000000E+00  0.000000E+00  0.000000E+00  0.000000E+00  0.000000E+00  1.000000E+00  5.197525E-05  5.197525E-05  0.000000E+00
        60         1   1.800000E-02  8.583069E-05  0.000000E+00  0.000000E+00  0.000000E+00  0.000000E+00  0.000000E+00  0.000000E+00  0.000000E+00  0.000000E+00  0.000000E+00  1.000000E+00  6.008148E-05  6.008148E-05  0.000000E+00
        61         1   1.830000E-02  7.915497E-05  0.000000E+00  0.000000E+00  0.000000E+00  0.000000E+00  0.000000E+00  0.000000E+00  0.000000E+00  0.000000E+00  0.000000E+00  1.000000E+00  5.292892E-05  5.292892E-05  0.000000E+00
        62         1   1.860000E-02  7.700920E-05  0.000000E+00  0.000000E+00  0.000000E+00  0.000000E+00  0.000000E+00  0.000000E+00  0.000000E+00  0.000000E+00  0.000000E+00  1.000000E+00  5.292892E-05  5.292892E-05  0.000000E+00
        63         1   1.890000E-02  7.700920E-05  0.000000E+00  0.000000E+00  0.000000E+00  0.000000E+00  0.000000E+00  0.000000E+00  0.000000E+00  0.000000E+00  0.000000E+00  1.000000E+00  5.292892E-05  5.292892E-05  0.000000E+00
        64         1   1.920000E-02  7.700920E-05  0.000000E+00  0.000000E+00  0.000000E+00  0.000000E+00  0.000000E+00  0.000000E+00  0.000000E+00  0.000000E+00  0.000000E+00  1.000000E+00  5.292892E-05  5.292892E-05  0.000000E+00
        65         1   1.950000E-02  7.700920E-05  0.000000E+00  0.000000E+00  0.000000E+00  0.000000E+00  0.000000E+00  0.000000E+00  0.000000E+00  0.000000E+00  0.000000E+00  1.000000E+00  5.316734E-05  5.316734E-05  0.000000E+00
        66         1   1.980000E-02  7.700920E-05  0.000000E+00  0.000000E+00  0.000000E+00  0.000000E+00  0.000000E+00  0.000000E+00  0.000000E+00  0.000000E+00  0.000000E+00  1.000000E+00  5.292892E-05  5.292892E-05  0.000000E+00
        67         1   2.010000E-02  7.915497E-05  0.000000E+00  0.000000E+00  0.000000E+00  0.000000E+00  0.000000E+00  0.000000E+00  0.000000E+00  0.000000E+00  0.000000E+00  1.000000E+00  5.483627E-05  5.483627E-05  0.000000E+00
        68         1   2.040000E-02  7.605553E-05  0.000000E+00  0.000000E+00  0.000000E+00  0.000000E+00  0.000000E+00  0.000000E+00  0.000000E+00  0.000000E+00  0.000000E+00  1.000000E+00  5.197525E-05  5.197525E-05  0.000000E+00
        69         1   2.070000E-02  7.605553E-05  0.000000E+00  0.000000E+00  0.000000E+00  0.000000E+00  0.000000E+00  0.000000E+00  0.000000E+00  0.000000E+00  0.000000E+00  1.000000E+00  5.197525E-05  5.197525E-05  0.000000E+00
        70         1   2.100000E-02  7.510185E-05  0.000000E+00  0.000000E+00  0.000000E+00  0.000000E+00  0.000000E+00  0.000000E+00  0.000000E+00  0.000000E+00  0.000000E+00  1.000000E+00  5.102158E-05  5.102158E-05  0.000000E+00
        71         1   2.130000E-02  7.486343E-05  0.000000E+00  0.000000E+00  0.000000E+00  0.000000E+00  0.000000E+00  0.000000E+00  0.000000E+00  0.000000E+00  0.000000E+00  1.000000E+00  5.197525E-05  5.197525E-05  0.000000E+00
        72         1   2.160000E-02  7.510185E-05  0.000000E+00  0.000000E+00  0.000000E+00  0.000000E+00  0.000000E+00  0.000000E+00  0.000000E+00  0.000000E+00  0.000000E+00  1.000000E+00  5.102158E-05  5.102158E-05  0.000000E+00
        73         1   2.190000E-02  7.605553E-05  0.000000E+00  0.000000E+00  0.000000E+00  0.000000E+00  0.000000E+00  0.000000E+00  0.000000E+00  0.000000E+00  0.000000E+00  1.000000E+00  5.197525E-05  5.197525E-05  0.000000E+00
        74         1   2.220000E-02  7.486343E-05  0.000000E+00  0.000000E+00  0.000000E+00  0.000000E+00  0.000000E+00  0.000000E+00  0.000000E+00  0.000000E+00  0.000000E+00  1.000000E+00  5.102158E-05  5.102158E-05  0.000000E+00
        75         1   2.250000E-02  7.700920E-05  0.000000E+00  0.000000E+00  0.000000E+00  0.000000E+00  0.000000E+00  0.000000E+00  0.000000E+00  0.000000E+00  0.000000E+00  1.000000E+00  5.292892E-05  5.292892E-05  0.000000E+00
        76         1   2.280000E-02  8.010864E-05  0.000000E+00  0.000000E+00  0.000000E+00  0.000000E+00  0.000000E+00  0.000000E+00  0.000000E+00  0.000000E+00  0.000000E+00  1.000000E+00  4.887581E-05  4.887581E-05  0.000000E+00
        77         1   2.310000E-02  2.312660E-05  0.000000E+00  0.000000E+00  0.000000E+00  0.000000E+00  0.000000E+00  0.000000E+00  0.000000E+00  0.000000E+00  0.000000E+00  1.000000E+00  0.000000E+00  0.000000E+00  0.000000E+00
        78         1   2.340000E-02  2.312660E-05  0.000000E+00  0.000000E+00  0.000000E+00  0.000000E+00  0.000000E+00  0.000000E+00  0.000000E+00  0.000000E+00  0.000000E+00  1.000000E+00  0.000000E+00  0.000000E+00  0.000000E+00
        79         1   2.370000E-02  2.193451E-05  0.000000E+00  0.000000E+00  0.000000E+00  0.000000E+00  0.000000E+00  0.000000E+00  0.000000E+00  0.000000E+00  0.000000E+00  1.000000E+00  0.000000E+00  0.000000E+00  0.000000E+00
        80         1   2.400000E-02  2.193451E-05  0.000000E+00  0.000000E+00  0.000000E+00  0.000000E+00  0.000000E+00  0.000000E+00  0.000000E+00  0.000000E+00  0.000000E+00  1.000000E+00  0.000000E+00  0.000000E+00  0.000000E+00
