#          T [K]     rho [kg/m^3]       cp [J/kgK]        Psat [Pa]        Lv [J/kg]             Xsat       Ysat \w N2
 0.25000000E+003  0.10068789E+004  0.43129033E+004  0.94579159E+002  0.25245140E+007  0.93342372E-003  0.60075813E-003
 0.25100000E+003  0.10066445E+004  0.43080367E+004  0.10334118E+003  0.25227782E+007  0.10198982E-002  0.65643394E-003
 0.25200000E+003  0.10064096E+004  0.43032853E+004  0.11282535E+003  0.25210380E+007  0.11134996E-002  0.71670229E-003
 0.25300000E+003  0.10061743E+004  0.42986475E+004  0.12308342E+003  0.25192931E+007  0.12147389E-002  0.78189304E-003
 0.25400000E+003  0.10059384E+004  0.42941219E+004  0.13417027E+003  0.25175436E+007  0.13241576E-002  0.85235603E-003
 0.25500000E+003  0.10057021E+004  0.42897067E+004  0.14614403E+003  0.25157895E+007  0.14423295E-002  0.92846203E-003
 0.25600000E+003  0.10054652E+004  0.42854006E+004  0.15906626E+003  0.25140308E+007  0.15698619E-002  0.10106037E-002
 0.25700000E+003  0.10052279E+004  0.42812020E+004  0.17300207E+003  0.25122673E+007  0.17073977E-002  0.10991967E-002
 0.25800000E+003  0.10049900E+004  0.42771094E+004  0.18802031E+003  0.25104991E+007  0.18556161E-002  0.11946807E-002
 0.25900000E+003  0.10047517E+004  0.42731213E+004  0.20419372E+003  0.25087260E+007  0.20152353E-002  0.12975205E-002
 0.26000000E+003  0.10045128E+004  0.42692363E+004  0.22159912E+003  0.25069482E+007  0.21870133E-002  0.14082070E-002
 0.26100000E+003  0.10042734E+004  0.42654529E+004  0.24031758E+003  0.25051655E+007  0.23717501E-002  0.15272588E-002
 0.26200000E+003  0.10040335E+004  0.42617696E+004  0.26043457E+003  0.25033780E+007  0.25702894E-002  0.16552230E-002
 0.26300000E+003  0.10037931E+004  0.42581850E+004  0.28204020E+003  0.25015855E+007  0.27835203E-002  0.17926765E-002
 0.26400000E+003  0.10035522E+004  0.42546977E+004  0.30522935E+003  0.24997881E+007  0.30123795E-002  0.19402277E-002
 0.26500000E+003  0.10033108E+004  0.42513062E+004  0.33010193E+003  0.24979856E+007  0.32578528E-002  0.20985172E-002
 0.26600000E+003  0.10030688E+004  0.42480092E+004  0.35676304E+003  0.24961782E+007  0.35209775E-002  0.22682197E-002
 0.26700000E+003  0.10028263E+004  0.42448053E+004  0.38532317E+003  0.24943656E+007  0.38028440E-002  0.24500452E-002
 0.26800000E+003  0.10025833E+004  0.42416931E+004  0.41589843E+003  0.24925480E+007  0.41045984E-002  0.26447405E-002
 0.26900000E+003  0.10023397E+004  0.42386712E+004  0.44861077E+003  0.24907252E+007  0.44274441E-002  0.28530905E-002
 0.27000000E+003  0.10020956E+004  0.42357383E+004  0.48358818E+003  0.24888973E+007  0.47726443E-002  0.30759203E-002
 0.27100000E+003  0.10018510E+004  0.42328930E+004  0.52096493E+003  0.24870641E+007  0.51415241E-002  0.33140963E-002
 0.27200000E+003  0.10016059E+004  0.42301341E+004  0.56088180E+003  0.24852257E+007  0.55354729E-002  0.35685280E-002
 0.27300000E+003  0.10013602E+004  0.42274602E+004  0.60348628E+003  0.24833820E+007  0.59559465E-002  0.38401697E-002
 0.27400000E+003  0.10011139E+004  0.42248701E+004  0.64893288E+003  0.24815330E+007  0.64044696E-002  0.41300225E-002
 0.27500000E+003  0.10008671E+004  0.42223623E+004  0.69738331E+003  0.24796786E+007  0.68826381E-002  0.44391356E-002
 0.27600000E+003  0.10006198E+004  0.42199357E+004  0.74900676E+003  0.24778189E+007  0.73921219E-002  0.47686089E-002
 0.27700000E+003  0.10003719E+004  0.42175890E+004  0.80398013E+003  0.24759537E+007  0.79346670E-002  0.51195943E-002
 0.27800000E+003  0.10001234E+004  0.42153210E+004  0.86248833E+003  0.24740830E+007  0.85120980E-002  0.54932979E-002
 0.27900000E+003  0.99987444E+003  0.42131303E+004  0.92472451E+003  0.24722068E+007  0.91263213E-002  0.58909822E-002
 0.28000000E+003  0.99962488E+003  0.42110158E+004  0.99089031E+003  0.24703250E+007  0.97793270E-002  0.63139683E-002
 0.28100000E+003  0.99937475E+003  0.42089763E+004  0.10611962E+004  0.24684377E+007  0.10473192E-001  0.67636378E-002
 0.28200000E+003  0.99912406E+003  0.42070106E+004  0.11358616E+004  0.24665448E+007  0.11210083E-001  0.72414354E-002
 0.28300000E+003  0.99887280E+003  0.42051174E+004  0.12151155E+004  0.24646461E+007  0.11992257E-001  0.77488709E-002
 0.28400000E+003  0.99862096E+003  0.42032956E+004  0.12991962E+004  0.24627418E+007  0.12822070E-001  0.82875222E-002
 0.28500000E+003  0.99836856E+003  0.42015441E+004  0.13883522E+004  0.24608318E+007  0.13701971E-001  0.88590373E-002
 0.28600000E+003  0.99811557E+003  0.41998617E+004  0.14828420E+004  0.24589159E+007  0.14634513E-001  0.94651375E-002
 0.28700000E+003  0.99786200E+003  0.41982472E+004  0.15829348E+004  0.24569942E+007  0.15622352E-001  0.10107620E-001
 0.28800000E+003  0.99760786E+003  0.41966996E+004  0.16889104E+004  0.24550667E+007  0.16668249E-001  0.10788359E-001
 0.28900000E+003  0.99735312E+003  0.41952176E+004  0.18010598E+004  0.24531333E+007  0.17775078E-001  0.11509312E-001
 0.29000000E+003  0.99709780E+003  0.41938003E+004  0.19196853E+004  0.24511939E+007  0.18945821E-001  0.12272522E-001
 0.29100000E+003  0.99684188E+003  0.41924466E+004  0.20451013E+004  0.24492486E+007  0.20183580E-001  0.13080117E-001
 0.29200000E+003  0.99658537E+003  0.41911552E+004  0.21776336E+004  0.24472972E+007  0.21491573E-001  0.13934318E-001
 0.29300000E+003  0.99632826E+003  0.41899253E+004  0.23176210E+004  0.24453397E+007  0.22873141E-001  0.14837440E-001
 0.29400000E+003  0.99607055E+003  0.41887557E+004  0.24654145E+004  0.24433762E+007  0.24331749E-001  0.15791898E-001
 0.29500000E+003  0.99581223E+003  0.41876454E+004  0.26213783E+004  0.24414065E+007  0.25870992E-001  0.16800207E-001
 0.29600000E+003  0.99555331E+003  0.41865934E+004  0.27858899E+004  0.24394307E+007  0.27494596E-001  0.17864988E-001
 0.29700000E+003  0.99529377E+003  0.41855987E+004  0.29593404E+004  0.24374486E+007  0.29206419E-001  0.18988976E-001
 0.29800000E+003  0.99503362E+003  0.41846602E+004  0.31421349E+004  0.24354602E+007  0.31010461E-001  0.20175015E-001
 0.29900000E+003  0.99477286E+003  0.41837770E+004  0.33346929E+004  0.24334656E+007  0.32910860E-001  0.21426074E-001
 0.30000000E+003  0.99451147E+003  0.41829481E+004  0.35374483E+004  0.24314645E+007  0.34911901E-001  0.22745242E-001
 0.30100000E+003  0.99424946E+003  0.41821725E+004  0.37508503E+004  0.24294571E+007  0.37018014E-001  0.24135739E-001
 0.30200000E+003  0.99398682E+003  0.41814494E+004  0.39753631E+004  0.24274433E+007  0.39233784E-001  0.25600920E-001
 0.30300000E+003  0.99372355E+003  0.41807777E+004  0.42114669E+004  0.24254230E+007  0.41563946E-001  0.27144279E-001
 0.30400000E+003  0.99345965E+003  0.41801565E+004  0.44596575E+004  0.24233961E+007  0.44013397E-001  0.28769456E-001
 0.30500000E+003  0.99319511E+003  0.41795849E+004  0.47204474E+004  0.24213627E+007  0.46587194E-001  0.30480246E-001
 0.30600000E+003  0.99292992E+003  0.41790621E+004  0.49943656E+004  0.24193227E+007  0.49290556E-001  0.32280600E-001
 0.30700000E+003  0.99266410E+003  0.41785870E+004  0.52819583E+004  0.24172761E+007  0.52128875E-001  0.34174636E-001
 0.30800000E+003  0.99239763E+003  0.41781589E+004  0.55837888E+004  0.24152227E+007  0.55107711E-001  0.36166647E-001
 0.30900000E+003  0.99213050E+003  0.41777770E+004  0.59004384E+004  0.24131626E+007  0.58232800E-001  0.38261106E-001
 0.31000000E+003  0.99186272E+003  0.41774402E+004  0.62325065E+004  0.24110958E+007  0.61510056E-001  0.40462677E-001
 0.31100000E+003  0.99159428E+003  0.41771478E+004  0.65806106E+004  0.24090221E+007  0.64945578E-001  0.42776220E-001
 0.31200000E+003  0.99132518E+003  0.41768991E+004  0.69453874E+004  0.24069416E+007  0.68545645E-001  0.45206807E-001
 0.31300000E+003  0.99105542E+003  0.41766930E+004  0.73274925E+004  0.24048541E+007  0.72316729E-001  0.47759726E-001
 0.31400000E+003  0.99078498E+003  0.41765290E+004  0.77276010E+004  0.24027597E+007  0.76265492E-001  0.50440494E-001
 0.31500000E+003  0.99051388E+003  0.41764061E+004  0.81464078E+004  0.24006582E+007  0.80398794E-001  0.53254869E-001
 0.31600000E+003  0.99024209E+003  0.41763236E+004  0.85846281E+004  0.23985498E+007  0.84723692E-001  0.56208861E-001
 0.31700000E+003  0.98996963E+003  0.41762808E+004  0.90429975E+004  0.23964342E+007  0.89247446E-001  0.59308746E-001
 0.31800000E+003  0.98969648E+003  0.41762768E+004  0.95222725E+004  0.23943115E+007  0.93977523E-001  0.62561080E-001
 0.31900000E+003  0.98942264E+003  0.41763110E+004  0.10023231E+005  0.23921816E+007  0.98921599E-001  0.65972713E-001
 0.32000000E+003  0.98914811E+003  0.41763826E+004  0.10546672E+005  0.23900445E+007  0.10408756E+000  0.69550807E-001
 0.32100000E+003  0.98887289E+003  0.41764909E+004  0.11093417E+005  0.23879001E+007  0.10948352E+000  0.73302848E-001
 0.32200000E+003  0.98859696E+003  0.41766352E+004  0.11664310E+005  0.23857484E+007  0.11511779E+000  0.77236671E-001
 0.32300000E+003  0.98832033E+003  0.41768148E+004  0.12260217E+005  0.23835893E+007  0.12099893E+000  0.81360478E-001
 0.32400000E+003  0.98804300E+003  0.41770291E+004  0.12882026E+005  0.23814228E+007  0.12713571E+000  0.85682854E-001
 0.32500000E+003  0.98776495E+003  0.41772773E+004  0.13530650E+005  0.23792488E+007  0.13353713E+000  0.90212797E-001
 0.32600000E+003  0.98748619E+003  0.41775589E+004  0.14207025E+005  0.23770674E+007  0.14021244E+000  0.94959738E-001
 0.32700000E+003  0.98720670E+003  0.41778732E+004  0.14912111E+005  0.23748783E+007  0.14717109E+000  0.99933571E-001
 0.32800000E+003  0.98692650E+003  0.41782195E+004  0.15646892E+005  0.23726817E+007  0.15442282E+000  0.10514468E+000
 0.32900000E+003  0.98664556E+003  0.41785973E+004  0.16412378E+005  0.23704774E+007  0.16197757E+000  0.11060396E+000
 0.33000000E+003  0.98636389E+003  0.41790059E+004  0.17209601E+005  0.23682654E+007  0.16984555E+000  0.11632288E+000
 0.33100000E+003  0.98608149E+003  0.41794448E+004  0.18039621E+005  0.23660456E+007  0.17803722E+000  0.12231348E+000
 0.33200000E+003  0.98579834E+003  0.41799134E+004  0.18903523E+005  0.23638180E+007  0.18656326E+000  0.12858843E+000
 0.33300000E+003  0.98551445E+003  0.41804111E+004  0.19802416E+005  0.23615826E+007  0.19543466E+000  0.13516110E+000
 0.33400000E+003  0.98522981E+003  0.41809374E+004  0.20737439E+005  0.23593393E+007  0.20466261E+000  0.14204554E+000
 0.33500000E+003  0.98494441E+003  0.41814917E+004  0.21709755E+005  0.23570881E+007  0.21425862E+000  0.14925659E+000
 0.33600000E+003  0.98465826E+003  0.41820735E+004  0.22720553E+005  0.23548288E+007  0.22423442E+000  0.15680991E+000
 0.33700000E+003  0.98437135E+003  0.41826824E+004  0.23771052E+005  0.23525615E+007  0.23460204E+000  0.16472205E+000
 0.33800000E+003  0.98408366E+003  0.41833177E+004  0.24862495E+005  0.23502860E+007  0.24537375E+000  0.17301049E+000
 0.33900000E+003  0.98379521E+003  0.41839790E+004  0.25996157E+005  0.23480025E+007  0.25656212E+000  0.18169374E+000
 0.34000000E+003  0.98350597E+003  0.41846659E+004  0.27173337E+005  0.23457107E+007  0.26817999E+000  0.19079140E+000
 0.34100000E+003  0.98321596E+003  0.41853778E+004  0.28395365E+005  0.23434106E+007  0.28024047E+000  0.20032427E+000
 0.34200000E+003  0.98292516E+003  0.41861143E+004  0.29663599E+005  0.23411023E+007  0.29275696E+000  0.21031440E+000
 0.34300000E+003  0.98263357E+003  0.41868750E+004  0.30979425E+005  0.23387856E+007  0.30574316E+000  0.22078522E+000
 0.34400000E+003  0.98234118E+003  0.41876595E+004  0.32344260E+005  0.23364605E+007  0.31921303E+000  0.23176166E+000
 0.34500000E+003  0.98204800E+003  0.41884673E+004  0.33759549E+005  0.23341269E+007  0.33318085E+000  0.24327025E+000
 0.34600000E+003  0.98175401E+003  0.41892980E+004  0.35226768E+005  0.23317848E+007  0.34766117E+000  0.25533928E+000
 0.34700000E+003  0.98145920E+003  0.41901513E+004  0.36747421E+005  0.23294341E+007  0.36266885E+000  0.26799893E+000
 0.34800000E+003  0.98116359E+003  0.41910268E+004  0.38323045E+005  0.23270748E+007  0.37821905E+000  0.28128144E+000
 0.34900000E+003  0.98086715E+003  0.41919241E+004  0.39955205E+005  0.23247068E+007  0.39432722E+000  0.29522131E+000
 0.35000000E+003  0.98056989E+003  0.41928428E+004  0.41645499E+005  0.23223301E+007  0.41100912E+000  0.30985548E+000
 0.35100000E+003  0.98027179E+003  0.41937827E+004  0.43395555E+005  0.23199446E+007  0.42828083E+000  0.32522358E+000
 0.35200000E+003  0.97997287E+003  0.41947433E+004  0.45207033E+005  0.23175503E+007  0.44615873E+000  0.34136817E+000
 0.35300000E+003  0.97967310E+003  0.41957244E+004  0.47081623E+005  0.23151470E+007  0.46465949E+000  0.35833503E+000
 0.35400000E+003  0.97937248E+003  0.41967257E+004  0.49021048E+005  0.23127348E+007  0.48380013E+000  0.37617347E+000
 0.35500000E+003  0.97907102E+003  0.41977469E+004  0.51027064E+005  0.23103136E+007  0.50359796E+000  0.39493668E+000
 0.35600000E+003  0.97876869E+003  0.41987877E+004  0.53101456E+005  0.23078834E+007  0.52407063E+000  0.41468214E+000
 0.35700000E+003  0.97846551E+003  0.41998479E+004  0.55246046E+005  0.23054440E+007  0.54523608E+000  0.43547204E+000
 0.35800000E+003  0.97816146E+003  0.42009271E+004  0.57462685E+005  0.23029954E+007  0.56711261E+000  0.45737384E+000
 0.35900000E+003  0.97785653E+003  0.42020252E+004  0.59753258E+005  0.23005376E+007  0.58971881E+000  0.48046078E+000
 0.36000000E+003  0.97755073E+003  0.42031420E+004  0.62119685E+005  0.22980705E+007  0.61307362E+000  0.50481256E+000
 0.36100000E+003  0.97724404E+003  0.42042771E+004  0.64563915E+005  0.22955940E+007  0.63719630E+000  0.53051605E+000
 0.36200000E+003  0.97693646E+003  0.42054305E+004  0.67087935E+005  0.22931082E+007  0.66210644E+000  0.55766616E+000
 0.36300000E+003  0.97662799E+003  0.42066020E+004  0.69693763E+005  0.22906128E+007  0.68782396E+000  0.58636680E+000
 0.36400000E+003  0.97631861E+003  0.42077912E+004  0.72383453E+005  0.22881080E+007  0.71436913E+000  0.61673192E+000
 0.36500000E+003  0.97600833E+003  0.42089982E+004  0.75159089E+005  0.22855935E+007  0.74176254E+000  0.64888686E+000
 0.36600000E+003  0.97569713E+003  0.42102227E+004  0.78022795E+005  0.22830694E+007  0.77002512E+000  0.68296973E+000
 0.36700000E+003  0.97538502E+003  0.42114646E+004  0.80976725E+005  0.22805356E+007  0.79917814E+000  0.71913316E+000
 0.36800000E+003  0.97507198E+003  0.42127237E+004  0.84023069E+005  0.22779921E+007  0.82924321E+000  0.75754623E+000
 0.36900000E+003  0.97475801E+003  0.42140001E+004  0.87164051E+005  0.22754387E+007  0.86024230E+000  0.79839677E+000
 0.37000000E+003  0.97444310E+003  0.42152935E+004  0.90401931E+005  0.22728754E+007  0.89219769E+000  0.84189407E+000
 0.37100000E+003  0.97412724E+003  0.42166038E+004  0.93739004E+005  0.22703021E+007  0.92513204E+000  0.88827201E+000
 0.37200000E+003  0.97381044E+003  0.42179311E+004  0.97177600E+005  0.22677189E+007  0.95906834E+000  0.93779283E+000
 0.37300000E+003  0.97349268E+003  0.42192752E+004  0.10072008E+006  0.22651256E+007  0.99402993E+000  0.99075156E+000
 0.37316784E+003  0.97343925E+003  0.42195024E+004  0.10132500E+006  0.22646893E+007  0.10000000E+001  0.10000000E+001
 0.37416784E+003  0.97312037E+003  0.42208661E+004  0.10499185E+006  0.22620841E+007 NaN NaN
 0.37516784E+003  0.97280051E+003  0.42222465E+004  0.10876783E+006  0.22594687E+007 NaN NaN
 0.37616784E+003  0.97247968E+003  0.42236436E+004  0.11265543E+006  0.22568431E+007 NaN NaN
 0.37716784E+003  0.97215787E+003  0.42250574E+004  0.11665715E+006  0.22542071E+007 NaN NaN
 0.37816784E+003  0.97183506E+003  0.42264879E+004  0.12077555E+006  0.22515607E+007 NaN NaN
 0.37916784E+003  0.97151126E+003  0.42279351E+004  0.12501321E+006  0.22489038E+007 NaN NaN
 0.38016784E+003  0.97118645E+003  0.42293990E+004  0.12937275E+006  0.22462364E+007 NaN NaN
 0.38116784E+003  0.97086063E+003  0.42308798E+004  0.13385684E+006  0.22435584E+007 NaN NaN
 0.38216784E+003  0.97053380E+003  0.42323773E+004  0.13846816E+006  0.22408697E+007 NaN NaN
 0.38316784E+003  0.97020594E+003  0.42338918E+004  0.14320944E+006  0.22381703E+007 NaN NaN
 0.38416784E+003  0.96987704E+003  0.42354232E+004  0.14808346E+006  0.22354601E+007 NaN NaN
 0.38516784E+003  0.96954711E+003  0.42369716E+004  0.15309300E+006  0.22327390E+007 NaN NaN
 0.38616784E+003  0.96921613E+003  0.42385372E+004  0.15824093E+006  0.22300069E+007 NaN NaN
 0.38716784E+003  0.96888410E+003  0.42401201E+004  0.16353010E+006  0.22272639E+007 NaN NaN
 0.38816784E+003  0.96855100E+003  0.42417203E+004  0.16896344E+006  0.22245098E+007 NaN NaN
 0.38916784E+003  0.96821684E+003  0.42433381E+004  0.17454389E+006  0.22217445E+007 NaN NaN
 0.39016784E+003  0.96788160E+003  0.42449735E+004  0.18027445E+006  0.22189681E+007 NaN NaN
 0.39116784E+003  0.96754527E+003  0.42466268E+004  0.18615813E+006  0.22161803E+007 NaN NaN
 0.39216784E+003  0.96720786E+003  0.42482982E+004  0.19219799E+006  0.22133812E+007 NaN NaN
 0.39316784E+003  0.96686934E+003  0.42499877E+004  0.19839713E+006  0.22105707E+007 NaN NaN
 0.39416784E+003  0.96652971E+003  0.42516956E+004  0.20475870E+006  0.22077486E+007 NaN NaN
 0.39516784E+003  0.96618897E+003  0.42534221E+004  0.21128585E+006  0.22049150E+007 NaN NaN
 0.39616784E+003  0.96584711E+003  0.42551675E+004  0.21798179E+006  0.22020697E+007 NaN NaN
 0.39716784E+003  0.96550411E+003  0.42569320E+004  0.22484978E+006  0.21992127E+007 NaN NaN
 0.39816784E+003  0.96515997E+003  0.42587158E+004  0.23189310E+006  0.21963440E+007 NaN NaN
 0.39916784E+003  0.96481468E+003  0.42605191E+004  0.23911506E+006  0.21934633E+007 NaN NaN
 0.40016784E+003  0.96446824E+003  0.42623424E+004  0.24651902E+006  0.21905707E+007 NaN NaN
 0.40116784E+003  0.96412062E+003  0.42641858E+004  0.25410837E+006  0.21876661E+007 NaN NaN
 0.40216784E+003  0.96377183E+003  0.42660496E+004  0.26188656E+006  0.21847494E+007 NaN NaN
 0.40316784E+003  0.96342186E+003  0.42679343E+004  0.26985703E+006  0.21818205E+007 NaN NaN
 0.40416784E+003  0.96307070E+003  0.42698400E+004  0.27802330E+006  0.21788793E+007 NaN NaN
 0.40516784E+003  0.96271833E+003  0.42717671E+004  0.28638892E+006  0.21759259E+007 NaN NaN
 0.40616784E+003  0.96236475E+003  0.42737161E+004  0.29495745E+006  0.21729600E+007 NaN NaN
 0.40716784E+003  0.96200995E+003  0.42756871E+004  0.30373252E+006  0.21699816E+007 NaN NaN
 0.40816784E+003  0.96165392E+003  0.42776807E+004  0.31271777E+006  0.21669906E+007 NaN NaN
 0.40916784E+003  0.96129666E+003  0.42796972E+004  0.32191691E+006  0.21639870E+007 NaN NaN
 0.41016784E+003  0.96093814E+003  0.42817370E+004  0.33133365E+006  0.21609707E+007 NaN NaN
 0.41116784E+003  0.96057836E+003  0.42838006E+004  0.34097176E+006  0.21579415E+007 NaN NaN
 0.41216784E+003  0.96021732E+003  0.42858882E+004  0.35083503E+006  0.21548995E+007 NaN NaN
 0.41316784E+003  0.95985500E+003  0.42880005E+004  0.36092732E+006  0.21518445E+007 NaN NaN
 0.41416784E+003  0.95949139E+003  0.42901377E+004  0.37125249E+006  0.21487764E+007 NaN NaN
 0.41516784E+003  0.95912648E+003  0.42923005E+004  0.38181445E+006  0.21456951E+007 NaN NaN
 0.41616784E+003  0.95876026E+003  0.42944893E+004  0.39261715E+006  0.21426006E+007 NaN NaN
 0.41716784E+003  0.95839272E+003  0.42967045E+004  0.40366457E+006  0.21394928E+007 NaN NaN
 0.41816784E+003  0.95802385E+003  0.42989466E+004  0.41496075E+006  0.21363716E+007 NaN NaN
 0.41916784E+003  0.95765364E+003  0.43012162E+004  0.42650972E+006  0.21332369E+007 NaN NaN
 0.42016784E+003  0.95728208E+003  0.43035138E+004  0.43831559E+006  0.21300886E+007 NaN NaN
 0.42116784E+003  0.95690916E+003  0.43058400E+004  0.45038250E+006  0.21269266E+007 NaN NaN
 0.42216784E+003  0.95653486E+003  0.43081952E+004  0.46271459E+006  0.21237508E+007 NaN NaN
 0.42316784E+003  0.95615918E+003  0.43105801E+004  0.47531609E+006  0.21205612E+007 NaN NaN
