# ALYA Lagrangian postprocess  
#
# HEADER
# T , Column :   1
# ILAGR , Column :   2
# ITYPE , Column :   3
# EXIST , Column :   4
# COORX , Column :   5
# COORY , Column :   6
# COORZ , Column :   7
# VELOX , Column :   8
# VELOY , Column :   9
# VELOZ , Column :  10
# DTK , Column :  11
# CD , Column :  12
# TEMPK , Column :  13
# MASSK , Column :  14
# DIAMK , Column :  15
#               T            ILAGR            ITYPE            EXIST            COORX            COORY            COORZ            VELOX            VELOY            VELOZ              DTK               CD            TEMPK            MASSK            DIAMK            
  0.00000000E+000                1                1               -5  1.00000000E-001  0.00000000E+000  0.00000000E+000  9.00000000E+000  1.70000000E+001  1.00000000E+001  3.00000000E-004  0.00000000E+000  3.50000000E+002  1.38624802E-005  3.00000000E-003
  3.00000000E-004                1                1               -1  1.02699569E-001  5.09918541E-003  2.99952083E-003  8.99712499E+000  1.69945694E+001  9.99680554E+000  3.00000000E-004  4.40000000E-001  3.49965855E+002  1.38615982E-005  2.99992601E-003
  6.00000000E-004                1                1               -1  1.05397844E-001  1.01959279E-002  5.99760464E-003  8.99137789E+000  1.69837138E+001  9.99041987E+000  3.00000000E-004  4.40000000E-001  3.49931780E+002  1.38607181E-005  2.99985217E-003
  9.00000000E-004                1                1               -1  1.08094396E-001  1.52894153E-002  8.99377373E-003  8.98563664E+000  1.69728692E+001  9.98404072E+000  3.00000000E-004  4.40000000E-001  3.49897778E+002  1.38598398E-005  2.99977849E-003
  1.20000000E-003                1                1               -1  1.10789227E-001  2.03796511E-002  1.19880300E-002  8.97990125E+000  1.69620357E+001  9.97766806E+000  3.00000000E-004  4.40000000E-001  3.49863849E+002  1.38589634E-005  2.99970497E-003
  1.50000000E-003                1                1               -1  1.13482338E-001  2.54666384E-002  1.49803755E-002  8.97417171E+000  1.69512132E+001  9.97130190E+000  3.00000000E-004  4.40000000E-001  3.49829993E+002  1.38580890E-005  2.99963161E-003
  1.80000000E-003                1                1               -1  1.16173731E-001  3.05503807E-002  1.79708122E-002  8.96844801E+000  1.69404018E+001  9.96494223E+000  3.00000000E-004  4.40000000E-001  3.49796211E+002  1.38572164E-005  2.99955840E-003
  2.10000000E-003                1                1               -1  1.18863408E-001  3.56308811E-002  2.09593419E-002  8.96273015E+000  1.69296014E+001  9.95858905E+000  3.00000000E-004  4.40000000E-001  3.49762500E+002  1.38563456E-005  2.99948534E-003
  2.40000000E-003                1                1               -1  1.21551370E-001  4.07081432E-002  2.39459666E-002  8.95701812E+000  1.69188120E+001  9.95224235E+000  3.00000000E-004  4.40000000E-001  3.49728862E+002  1.38554768E-005  2.99941245E-003
  2.70000000E-003                1                1               -1  1.24237619E-001  4.57821700E-002  2.69306882E-002  8.95131192E+000  1.69080336E+001  9.94590214E+000  3.00000000E-004  4.40000000E-001  3.49695295E+002  1.38546098E-005  2.99933970E-003
  3.00000000E-003                1                1               -1  1.26989266E-001  4.77497839E-002  2.98392800E-002  9.67766149E+000 -1.69539690E+001  9.12984050E+000  2.50000000E-004  4.40000000E-001  3.49661790E+002  1.38537443E-005  2.99926709E-003
  3.30000000E-003                1                1               -1  1.29891640E-001  4.26652124E-002  3.25773602E-002  9.67149969E+000 -1.69431743E+001  9.12402750E+000  3.00000000E-004  4.40000000E-001  3.49628364E+002  1.38528809E-005  2.99919465E-003
  3.60000000E-003                1                1               -1  1.32792167E-001  3.75838775E-002  3.53136975E-002  9.66534469E+000 -1.69323916E+001  9.11822092E+000  3.00000000E-004  4.40000000E-001  3.49595010E+002  1.38520194E-005  2.99912236E-003
  3.90000000E-003                1                1               -1  1.35690848E-001  3.25057758E-002  3.80482937E-002  9.65919599E+000 -1.69216199E+001  9.11242027E+000  3.00000000E-004  4.40000000E-001  3.49561726E+002  1.38511597E-005  2.99905023E-003
  4.20000000E-003                1                1               -1  1.38587685E-001  2.74309039E-002  4.07811506E-002  9.65305357E+000 -1.69108592E+001  9.10662556E+000  3.00000000E-004  4.40000000E-001  3.49528512E+002  1.38503018E-005  2.99897825E-003
  4.50000000E-003                1                1               -1  1.41482681E-001  2.23592586E-002  4.35122699E-002  9.64691744E+000 -1.69001095E+001  9.10083677E+000  3.00000000E-004  4.40000000E-001  3.49495369E+002  1.38494457E-005  2.99890641E-003
  4.80000000E-003                1                1               -1  1.44375836E-001  1.72908365E-002  4.62416535E-002  9.64078758E+000 -1.68893708E+001  9.09505390E+000  3.00000000E-004  4.40000000E-001  3.49462295E+002  1.38485914E-005  2.99883473E-003
  5.10000000E-003                1                1               -1  1.47267154E-001  1.22256345E-002  4.89693031E-002  9.67865900E+000 -1.71094016E+001 -8.59780427E+000  3.00000000E-004  4.40000000E-001  3.49429291E+002  1.38477389E-005  2.99876320E-003
  5.40000000E-003                1                1               -1  1.50169832E-001  7.09443257E-003  4.63899383E-002  9.67252739E+000 -1.70986110E+001 -8.59796109E+000  3.00000000E-004  4.40000000E-001  3.49396357E+002  1.38468882E-005  2.99869181E-003
  5.70000000E-003                1                1               -1  1.53070669E-001  1.96647727E-003  4.38113686E-002  9.66638776E+000 -1.70877577E+001 -8.59250354E+000  3.00000000E-004  4.40000000E-001  3.49363489E+002  1.38460393E-005  2.99862057E-003
  6.00000000E-003                1                1               -1  1.55969666E-001 -3.15822371E-003  4.12344354E-002  9.66025442E+000 -1.70769155E+001 -8.58705158E+000  3.00000000E-004  4.40000000E-001  3.49330691E+002  1.38451921E-005  2.99854948E-003
  6.30000000E-003                1                1               -1  1.58866823E-001 -8.27967368E-003  3.86591368E-002  9.65412736E+000 -1.70660844E+001 -8.58160521E+000  3.00000000E-004  4.40000000E-001  3.49297960E+002  1.38443467E-005  2.99847854E-003
  6.60000000E-003                1                1               -1  1.61762143E-001 -1.33978760E-002  3.60854714E-002  9.64800659E+000 -1.70552644E+001 -8.57616442E+000  3.00000000E-004  4.40000000E-001  3.49265298E+002  1.38435030E-005  2.99840774E-003
  6.90000000E-003                1                1               -1  1.64655628E-001 -1.85128340E-002  3.35134374E-002  9.64189208E+000 -1.70444554E+001 -8.57072920E+000  3.00000000E-004  4.40000000E-001  3.49232704E+002  1.38426611E-005  2.99833709E-003
  7.20000000E-003                1                1               -1  1.67547279E-001 -2.36245509E-002  3.09430331E-002  9.63578384E+000 -1.70336576E+001 -8.56529955E+000  3.00000000E-004  4.40000000E-001  3.49200177E+002  1.38418209E-005  2.99826658E-003
  7.50000000E-003                1                1               -1  1.70437099E-001 -2.87330302E-002  2.83742568E-002  9.62968187E+000 -1.70228708E+001 -8.55987548E+000  3.00000000E-004  4.40000000E-001  3.49167717E+002  1.38409824E-005  2.99819622E-003
  7.80000000E-003                1                1               -1  1.73325089E-001 -3.38382751E-002  2.58071069E-002  9.62358616E+000 -1.70120951E+001 -8.55445697E+000  3.00000000E-004  4.40000000E-001  3.49135325E+002  1.38401457E-005  2.99812600E-003
  8.10000000E-003                1                1               -1  1.76211252E-001 -3.89402889E-002  2.32415818E-002  9.61749670E+000 -1.70013305E+001 -8.54904401E+000  3.00000000E-004  4.40000000E-001  3.49102999E+002  1.38393107E-005  2.99805592E-003
  8.40000000E-003                1                1               -1  1.79095588E-001 -4.40390750E-002  2.06776797E-002  9.61141349E+000 -1.69905769E+001 -8.54363661E+000  3.00000000E-004  4.40000000E-001  3.49070740E+002  1.38384774E-005  2.99798599E-003
  8.70000000E-003                1                1               -1  1.81978101E-001 -4.91346367E-002  1.81153990E-002  9.10885008E+000  1.09918606E-001 -8.83741049E+000  3.00000000E-004  4.40000000E-001  3.49038547E+002  1.38376459E-005  2.99791620E-003
  9.00000000E-003                1                1               -1  1.84710043E-001 -4.91008591E-002  1.54648304E-002  9.10288269E+000  1.53783727E-001 -8.83362877E+000  3.00000000E-004  4.40000000E-001  3.49013260E+002  1.38369927E-005  2.99786138E-003
  9.30000000E-003                1                1               -1  1.87440394E-001 -4.90547316E-002  1.28152408E-002  9.09793748E+000  1.98240271E-001 -8.83086451E+000  3.00000000E-004  4.40000000E-001  3.48988013E+002  1.38363405E-005  2.99780665E-003
  9.60000000E-003                1                1               -1  1.90169261E-001 -4.89952694E-002  1.01664803E-002  9.09282239E+000  2.44313723E-001 -8.82800130E+000  3.00000000E-004  4.40000000E-001  3.48962805E+002  1.38356894E-005  2.99775200E-003
  9.90000000E-003                1                1               -1  1.92896594E-001 -4.89219878E-002  7.51857848E-003  9.08939846E+000  2.44230421E-001 -8.82467748E+000  3.00000000E-004  4.40000000E-001  3.48937637E+002  1.38350393E-005  2.99769743E-003
  1.02000000E-002                1                1               -1  1.95622900E-001 -4.88487325E-002  4.87167354E-003  9.08234730E+000  3.31043110E-001 -8.82183101E+000  3.00000000E-004  4.40000000E-001  3.48912507E+002  1.38343901E-005  2.99764295E-003
  1.05000000E-002                1                1               -1  1.98347092E-001 -4.87494358E-002  2.22562227E-003  9.07679170E+000  3.79057561E-001 -8.81864150E+000  3.00000000E-004  4.40000000E-001  3.48887416E+002  1.38337420E-005  2.99758855E-003
  1.08000000E-002                1                1               -1  2.01069617E-001 -4.86357386E-002 -4.19472431E-004  9.07088315E+000  4.31880756E-001 -8.81529359E+000  3.00000000E-004  4.40000000E-001  3.48862364E+002  1.38330949E-005  2.99753424E-003
  1.11000000E-002                1                1               -1  2.03790370E-001 -4.85061972E-002 -3.06356304E-003  9.06454121E+000  4.90564582E-001 -8.81171451E+000  3.00000000E-004  4.40000000E-001  3.48837351E+002  1.38324488E-005  2.99748001E-003
  1.14000000E-002                1                1               -1  2.06509220E-001 -4.83590539E-002 -5.70658022E-003  9.06113113E+000  4.90391128E-001 -8.80840003E+000  3.00000000E-004  4.40000000E-001  3.48812376E+002  1.38318036E-005  2.99742586E-003
  1.17000000E-002                1                1               -1  2.09227049E-001 -4.82119642E-002 -8.34860335E-003  9.05772357E+000  4.90206709E-001 -8.80508750E+000  3.00000000E-004  4.40000000E-001  3.48787440E+002  1.38311595E-005  2.99737179E-003
  1.20000000E-002                1                1               -1  2.11943855E-001 -4.80649298E-002 -1.09896330E-002  9.05431794E+000  4.90022396E-001 -8.80177687E+000  3.00000000E-004  4.40000000E-001  3.48762542E+002  1.38305163E-005  2.99731781E-003
  1.23000000E-002                1                1               -1  2.14659640E-001 -4.79179507E-002 -1.36296698E-002  9.05091425E+000  4.89838187E-001 -8.79846812E+000  3.00000000E-004  4.40000000E-001  3.48737682E+002  1.38298741E-005  2.99726391E-003
  1.26000000E-002                1                1               -1  2.17374404E-001 -4.77710269E-002 -1.62687142E-002  9.04751251E+000  4.89654084E-001 -8.79516125E+000  3.00000000E-004  4.40000000E-001  3.48712859E+002  1.38292329E-005  2.99721008E-003
  1.29000000E-002                1                1               -1  2.20088148E-001 -4.76241583E-002 -1.89067668E-002  9.04411270E+000  4.89470085E-001 -8.79185627E+000  3.00000000E-004  4.40000000E-001  3.48688075E+002  1.38285927E-005  2.99715634E-003
  1.32000000E-002                1                1               -1  2.22800872E-001 -4.74773448E-002 -2.15438282E-002  9.04071483E+000  4.89286191E-001 -8.78855318E+000  3.00000000E-004  4.40000000E-001  3.48663329E+002  1.38279534E-005  2.99710268E-003
  1.35000000E-002                1                1               -1  2.25512577E-001 -4.73305865E-002 -2.41798990E-002  9.03731891E+000  4.89102403E-001 -8.78525197E+000  3.00000000E-004  4.40000000E-001  3.48638620E+002  1.38273151E-005  2.99704911E-003
  1.38000000E-002                1                1               -1  2.28223263E-001 -4.71838834E-002 -2.68149797E-002  9.03392492E+000  4.88918719E-001 -8.78195264E+000  3.00000000E-004  4.40000000E-001  3.48613948E+002  1.38266778E-005  2.99699561E-003
  1.41000000E-002                1                1               -1  2.30932932E-001 -4.70372353E-002 -2.94490708E-002  9.03053287E+000  4.88735141E-001 -8.77865521E+000  3.00000000E-004  4.40000000E-001  3.48589314E+002  1.38260414E-005  2.99694219E-003
  1.44000000E-002                1                1               -1  2.33641583E-001 -4.68906423E-002 -3.20821731E-002  9.02714276E+000  4.88551667E-001 -8.77535965E+000  3.00000000E-004  4.40000000E-001  3.48564718E+002  1.38254060E-005  2.99688885E-003
  1.47000000E-002                1                1               -1  2.36349218E-001 -4.67441043E-002 -3.47142869E-002  9.02375459E+000  4.88368298E-001 -8.77206598E+000  3.00000000E-004  4.40000000E-001  3.48540158E+002  1.38247715E-005  2.99683559E-003
  1.50000000E-002                1                1               -1  2.39055836E-001 -4.65976213E-002 -3.73454129E-002  9.02036836E+000  4.88185034E-001 -8.76877420E+000  3.00000000E-004  4.40000000E-001  3.48515636E+002  1.38241380E-005  2.99678241E-003
  1.53000000E-002                1                1               -1  2.41761439E-001 -4.64511932E-002 -3.99755517E-002  9.01698406E+000  4.88001875E-001 -8.76548430E+000  3.00000000E-004  4.40000000E-001  3.48491151E+002  1.38235055E-005  2.99672932E-003
  1.56000000E-002                1                1               -1  2.44466027E-001 -4.63048201E-002 -4.26047038E-002  9.01360171E+000  4.87818821E-001 -8.76219628E+000  3.00000000E-004  4.40000000E-001  3.48466702E+002  1.38228739E-005  2.99667630E-003
  1.59000000E-002                1                1               -1  2.47169601E-001 -4.61585019E-002 -4.52328698E-002  9.01022129E+000  4.87635872E-001 -8.75891015E+000  3.00000000E-004  4.40000000E-001  3.48442290E+002  1.38222432E-005  2.99662335E-003
  1.62000000E-002                1                1               -1  2.49872160E-001 -4.60122386E-002 -4.78600502E-002  9.00684280E+000  4.87453027E-001 -8.75562590E+000  3.00000000E-004  4.40000000E-001  3.48417915E+002  1.38216135E-005  2.99657049E-003
  1.65000000E-002                1                1               -1  2.52474828E-001 -4.50589943E-002 -4.94121545E-002  7.92482746E+000  9.29104478E+000  2.96467810E+000  2.50000000E-004  4.40000000E-001  3.48393571E+002  1.38209846E-005  2.99651769E-003
  1.68000000E-002                1                1               -1  2.54851831E-001 -4.22722033E-002 -4.85229177E-002  7.92185686E+000  9.28756205E+000  2.96356680E+000  3.00000000E-004  4.40000000E-001  3.48369268E+002  1.38203567E-005  2.99646499E-003
  1.71000000E-002                1                1               -1  2.57227943E-001 -3.94864568E-002 -4.76340143E-002  7.91888812E+000  9.28408151E+000  2.96245620E+000  3.00000000E-004  4.40000000E-001  3.48345002E+002  1.38197298E-005  2.99641236E-003
  1.74000000E-002                1                1               -1  2.59603164E-001 -3.67017541E-002 -4.67454439E-002  7.91592109E+000  9.28060298E+000  2.96134623E+000  3.00000000E-004  4.40000000E-001  3.48320772E+002  1.38191038E-005  2.99635980E-003
  1.77000000E-002                1                1               -1  2.61977496E-001 -3.39180947E-002 -4.58572065E-002  7.91295577E+000  9.27712644E+000  2.96023690E+000  3.00000000E-004  4.40000000E-001  3.48296578E+002  1.38184788E-005  2.99630733E-003
  1.80000000E-002                1                1               -1  2.64350938E-001 -3.11354779E-002 -4.49693017E-002  7.90999215E+000  9.27365190E+000  2.95912821E+000  3.00000000E-004  4.40000000E-001  3.48272420E+002  1.38178546E-005  2.99625493E-003
  1.83000000E-002                1                1               -1  2.66723491E-001 -2.83539032E-002 -4.40817294E-002  7.90703023E+000  9.27017936E+000  2.95802016E+000  3.00000000E-004  4.40000000E-001  3.48248299E+002  1.38172314E-005  2.99620261E-003
  1.86000000E-002                1                1               -1  2.69095156E-001 -2.55733700E-002 -4.31944895E-002  7.90407002E+000  9.26670881E+000  2.95691274E+000  3.00000000E-004  4.40000000E-001  3.48224212E+002  1.38166092E-005  2.99615037E-003
  1.89000000E-002                1                1               -1  2.71465934E-001 -2.27938776E-002 -4.23075817E-002  7.90111151E+000  9.26324026E+000  2.95580596E+000  3.00000000E-004  4.40000000E-001  3.48200162E+002  1.38159878E-005  2.99609820E-003
  1.92000000E-002                1                1               -1  2.73835823E-001 -2.00154256E-002 -4.14210058E-002  7.89815470E+000  9.25977370E+000  2.95469982E+000  3.00000000E-004  4.40000000E-001  3.48176147E+002  1.38153673E-005  2.99604611E-003
  1.95000000E-002                1                1               -1  2.76204827E-001 -1.72380131E-002 -4.05347617E-002  7.89519959E+000  9.25630915E+000  2.95359432E+000  3.00000000E-004  4.40000000E-001  3.48152168E+002  1.38147478E-005  2.99599410E-003
  1.98000000E-002                1                1               -1  2.78572943E-001 -1.44616398E-002 -3.96488491E-002  7.89224619E+000  9.25284658E+000  2.95248945E+000  3.00000000E-004  4.40000000E-001  3.48128224E+002  1.38141291E-005  2.99594216E-003
  2.01000000E-002                1                1               -1  2.80940175E-001 -1.16863049E-002 -3.87632679E-002  7.88929448E+000  9.24938602E+000  2.95138522E+000  3.00000000E-004  4.40000000E-001  3.48104316E+002  1.38135114E-005  2.99589029E-003
  2.04000000E-002                1                1               -1  2.83306520E-001 -8.91200786E-003 -3.78780179E-002  7.88634448E+000  9.24592744E+000  2.95028162E+000  3.00000000E-004  4.40000000E-001  3.48080443E+002  1.38128946E-005  2.99583850E-003
  2.07000000E-002                1                1               -1  2.85671982E-001 -6.13874811E-003 -3.69930989E-002  7.88339618E+000  9.24247086E+000  2.94917866E+000  3.00000000E-004  4.40000000E-001  3.48056604E+002  1.38122787E-005  2.99578679E-003
  2.10000000E-002                1                1               -1  2.88036558E-001 -3.36652504E-003 -3.61085106E-002  7.88044958E+000  9.23901628E+000  2.94807634E+000  3.00000000E-004  4.40000000E-001  3.48032801E+002  1.38116636E-005  2.99573515E-003
  2.13000000E-002                1                1               -1  2.90400252E-001 -5.95338046E-004 -3.52242530E-002  7.87750468E+000  9.23556369E+000  2.94697465E+000  3.00000000E-004  4.40000000E-001  3.48009033E+002  1.38110495E-005  2.99568359E-003
  2.16000000E-002                1                1               -1  2.92763061E-001  2.17481347E-003 -3.43403257E-002  7.87456148E+000  9.23211309E+000  2.94587360E+000  3.00000000E-004  4.40000000E-001  3.47985299E+002  1.38104363E-005  2.99563210E-003
  2.19000000E-002                1                1               -1  2.95124989E-001  4.94393011E-003 -3.34567287E-002  7.87161998E+000  9.22866448E+000  2.94477318E+000  3.00000000E-004  4.40000000E-001  3.47961601E+002  1.38098239E-005  2.99558069E-003
  2.22000000E-002                1                1               -1  2.97486034E-001  7.71201246E-003 -3.25734617E-002  7.86868018E+000  9.22521787E+000  2.94367341E+000  3.00000000E-004  4.40000000E-001  3.47937937E+002  1.38092125E-005  2.99552935E-003
  2.25000000E-002                1                1               -4  3.00000000E-001  1.06593793E-002 -3.16329869E-002  7.86868018E+000  9.22521787E+000  2.94367341E+000  3.00000000E-004  4.40000000E-001  3.47937937E+002  1.38092125E-005  2.99552935E-003
