0.00000000E+000
2.99952083E-003
5.99760464E-003
8.99377373E-003
1.19880300E-002
1.49803755E-002
1.79708122E-002
2.09593419E-002
2.39459666E-002
2.69306882E-002
2.99004785E-002
3.27961328E-002
3.56899300E-002
3.85818854E-002
4.14720009E-002
4.43602783E-002
4.72467197E-002
4.96540218E-002
4.68103505E-002
4.39675754E-002
4.11266049E-002
3.82874372E-002
3.54500704E-002
3.26145027E-002
2.97807322E-002
2.69487571E-002
2.41185756E-002
2.12901858E-002
1.84635859E-002
1.56387739E-002
1.28157461E-002
9.99411327E-003
7.17356158E-003
4.35409037E-003
1.53569899E-003
-1.28161320E-003
-4.09784681E-003
-6.91300248E-003
-9.72708084E-003
-1.25400825E-002
-1.53520081E-002
-1.81628582E-002
-2.09726336E-002
-2.37813347E-002
-2.65889623E-002
-2.93955169E-002
-3.22009992E-002
-3.50054099E-002
-3.78087494E-002
-4.06110186E-002
-4.34122179E-002
-4.62123480E-002
-4.90114095E-002
-4.90114096E-002
-4.62139500E-002
-4.34170238E-002
-4.06211644E-002
-3.78263710E-002
-3.50326431E-002
-3.22399800E-002
-2.94483811E-002
-2.66578457E-002
-2.38683733E-002
-2.10799633E-002
-1.82926149E-002
-1.55063276E-002
-1.27211007E-002
-9.93693372E-003
-7.15382590E-003
-4.37177667E-003
-1.59078539E-003
1.18914855E-003
3.96802578E-003
6.74584691E-003
9.52261258E-003
1.22983234E-002
1.39169867E-002
