#
#     Memory units are Mbytes
#
#     Time step   Max. Master   Cur. Master   Ave. Slaves   Max. Slaves     Max. Rank   Cur. Slaves     Cur. Rank
               1  0.309858E+01  0.309168E+01  0.309168E+01  0.309858E+01            -1  0.309168E+01            -1
               2  0.309858E+01  0.309168E+01  0.309168E+01  0.309858E+01            -1  0.309168E+01            -1
               3  0.309858E+01  0.309168E+01  0.309168E+01  0.309858E+01            -1  0.309168E+01            -1
               4  0.309858E+01  0.309168E+01  0.309168E+01  0.309858E+01            -1  0.309168E+01            -1
               5  0.309858E+01  0.309168E+01  0.309168E+01  0.309858E+01            -1  0.309168E+01            -1
               6  0.309858E+01  0.309168E+01  0.309168E+01  0.309858E+01            -1  0.309168E+01            -1
               7  0.309858E+01  0.309168E+01  0.309168E+01  0.309858E+01            -1  0.309168E+01            -1
               8  0.309858E+01  0.309168E+01  0.309168E+01  0.309858E+01            -1  0.309168E+01            -1
               9  0.309858E+01  0.309168E+01  0.309168E+01  0.309858E+01            -1  0.309168E+01            -1
              10  0.309858E+01  0.309168E+01  0.309168E+01  0.309858E+01            -1  0.309168E+01            -1
              11  0.309858E+01  0.309168E+01  0.309168E+01  0.309858E+01            -1  0.309168E+01            -1
              12  0.309858E+01  0.309168E+01  0.309168E+01  0.309858E+01            -1  0.309168E+01            -1
              13  0.309858E+01  0.309168E+01  0.309168E+01  0.309858E+01            -1  0.309168E+01            -1
              14  0.309858E+01  0.309168E+01  0.309168E+01  0.309858E+01            -1  0.309168E+01            -1
              15  0.309858E+01  0.309168E+01  0.309168E+01  0.309858E+01            -1  0.309168E+01            -1
              16  0.309858E+01  0.309168E+01  0.309168E+01  0.309858E+01            -1  0.309168E+01            -1
              17  0.309858E+01  0.309168E+01  0.309168E+01  0.309858E+01            -1  0.309168E+01            -1
              18  0.309858E+01  0.309168E+01  0.309168E+01  0.309858E+01            -1  0.309168E+01            -1
              19  0.309858E+01  0.309168E+01  0.309168E+01  0.309858E+01            -1  0.309168E+01            -1
              20  0.309858E+01  0.309168E+01  0.309168E+01  0.309858E+01            -1  0.309168E+01            -1
              21  0.309858E+01  0.309168E+01  0.309168E+01  0.309858E+01            -1  0.309168E+01            -1
              22  0.309858E+01  0.309168E+01  0.309168E+01  0.309858E+01            -1  0.309168E+01            -1
              23  0.309858E+01  0.309168E+01  0.309168E+01  0.309858E+01            -1  0.309168E+01            -1
              24  0.309858E+01  0.309168E+01  0.309168E+01  0.309858E+01            -1  0.309168E+01            -1
              25  0.309858E+01  0.309168E+01  0.309168E+01  0.309858E+01            -1  0.309168E+01            -1
              26  0.309858E+01  0.309168E+01  0.309168E+01  0.309858E+01            -1  0.309168E+01            -1
              27  0.309858E+01  0.309168E+01  0.309168E+01  0.309858E+01            -1  0.309168E+01            -1
              28  0.309858E+01  0.309168E+01  0.309168E+01  0.309858E+01            -1  0.309168E+01            -1
              29  0.309858E+01  0.309168E+01  0.309168E+01  0.309858E+01            -1  0.309168E+01            -1
              30  0.309858E+01  0.309168E+01  0.309168E+01  0.309858E+01            -1  0.309168E+01            -1
              31  0.309858E+01  0.309168E+01  0.309168E+01  0.309858E+01            -1  0.309168E+01            -1
              32  0.309858E+01  0.309168E+01  0.309168E+01  0.309858E+01            -1  0.309168E+01            -1
              33  0.309858E+01  0.309168E+01  0.309168E+01  0.309858E+01            -1  0.309168E+01            -1
              34  0.309858E+01  0.309168E+01  0.309168E+01  0.309858E+01            -1  0.309168E+01            -1
              35  0.309858E+01  0.309168E+01  0.309168E+01  0.309858E+01            -1  0.309168E+01            -1
              36  0.309858E+01  0.309168E+01  0.309168E+01  0.309858E+01            -1  0.309168E+01            -1
              37  0.309858E+01  0.309168E+01  0.309168E+01  0.309858E+01            -1  0.309168E+01            -1
              38  0.309858E+01  0.309168E+01  0.309168E+01  0.309858E+01            -1  0.309168E+01            -1
              39  0.309858E+01  0.309168E+01  0.309168E+01  0.309858E+01            -1  0.309168E+01            -1
              40  0.309858E+01  0.309168E+01  0.309168E+01  0.309858E+01            -1  0.309168E+01            -1
              41  0.309858E+01  0.309168E+01  0.309168E+01  0.309858E+01            -1  0.309168E+01            -1
              42  0.309858E+01  0.309168E+01  0.309168E+01  0.309858E+01            -1  0.309168E+01            -1
              43  0.309858E+01  0.309168E+01  0.309168E+01  0.309858E+01            -1  0.309168E+01            -1
              44  0.309858E+01  0.309168E+01  0.309168E+01  0.309858E+01            -1  0.309168E+01            -1
              45  0.309858E+01  0.309168E+01  0.309168E+01  0.309858E+01            -1  0.309168E+01            -1
              46  0.309858E+01  0.309168E+01  0.309168E+01  0.309858E+01            -1  0.309168E+01            -1
              47  0.309858E+01  0.309168E+01  0.309168E+01  0.309858E+01            -1  0.309168E+01            -1
              48  0.309858E+01  0.309168E+01  0.309168E+01  0.309858E+01            -1  0.309168E+01            -1
              49  0.309858E+01  0.309168E+01  0.309168E+01  0.309858E+01            -1  0.309168E+01            -1
              50  0.309858E+01  0.309168E+01  0.309168E+01  0.309858E+01            -1  0.309168E+01            -1
              51  0.309858E+01  0.309168E+01  0.309168E+01  0.309858E+01            -1  0.309168E+01            -1
              52  0.309858E+01  0.309168E+01  0.309168E+01  0.309858E+01            -1  0.309168E+01            -1
              53  0.309858E+01  0.309168E+01  0.309168E+01  0.309858E+01            -1  0.309168E+01            -1
              54  0.309858E+01  0.309168E+01  0.309168E+01  0.309858E+01            -1  0.309168E+01            -1
              55  0.309858E+01  0.309168E+01  0.309168E+01  0.309858E+01            -1  0.309168E+01            -1
              56  0.309858E+01  0.309168E+01  0.309168E+01  0.309858E+01            -1  0.309168E+01            -1
              57  0.309858E+01  0.309168E+01  0.309168E+01  0.309858E+01            -1  0.309168E+01            -1
              58  0.309858E+01  0.309168E+01  0.309168E+01  0.309858E+01            -1  0.309168E+01            -1
              59  0.309858E+01  0.309168E+01  0.309168E+01  0.309858E+01            -1  0.309168E+01            -1
              60  0.309858E+01  0.309168E+01  0.309168E+01  0.309858E+01            -1  0.309168E+01            -1
              61  0.309858E+01  0.309168E+01  0.309168E+01  0.309858E+01            -1  0.309168E+01            -1
              62  0.309858E+01  0.309168E+01  0.309168E+01  0.309858E+01            -1  0.309168E+01            -1
              63  0.309858E+01  0.309168E+01  0.309168E+01  0.309858E+01            -1  0.309168E+01            -1
              64  0.309858E+01  0.309168E+01  0.309168E+01  0.309858E+01            -1  0.309168E+01            -1
              65  0.309858E+01  0.309168E+01  0.309168E+01  0.309858E+01            -1  0.309168E+01            -1
              66  0.309858E+01  0.309168E+01  0.309168E+01  0.309858E+01            -1  0.309168E+01            -1
              67  0.309858E+01  0.309168E+01  0.309168E+01  0.309858E+01            -1  0.309168E+01            -1
              68  0.309858E+01  0.309168E+01  0.309168E+01  0.309858E+01            -1  0.309168E+01            -1
              69  0.309858E+01  0.309168E+01  0.309168E+01  0.309858E+01            -1  0.309168E+01            -1
              70  0.309858E+01  0.309168E+01  0.309168E+01  0.309858E+01            -1  0.309168E+01            -1
              71  0.309858E+01  0.309168E+01  0.309168E+01  0.309858E+01            -1  0.309168E+01            -1
              72  0.309858E+01  0.309168E+01  0.309168E+01  0.309858E+01            -1  0.309168E+01            -1
              73  0.309858E+01  0.309168E+01  0.309168E+01  0.309858E+01            -1  0.309168E+01            -1
              74  0.309858E+01  0.309168E+01  0.309168E+01  0.309858E+01            -1  0.309168E+01            -1
              75  0.309858E+01  0.309168E+01  0.309168E+01  0.309858E+01            -1  0.309168E+01            -1
              76  0.309858E+01  0.309168E+01  0.309168E+01  0.309858E+01            -1  0.309168E+01            -1
              77  0.309858E+01  0.309168E+01  0.309168E+01  0.309858E+01            -1  0.309168E+01            -1
              78  0.309858E+01  0.309168E+01  0.309168E+01  0.309858E+01            -1  0.309168E+01            -1
              79  0.309858E+01  0.309168E+01  0.309168E+01  0.309858E+01            -1  0.309168E+01            -1
              80  0.309858E+01  0.309168E+01  0.309168E+01  0.309858E+01            -1  0.309168E+01            -1
