-0.93864650E-001 -0.70398488E+000 -0.70398488E+000
 0.93864650E-001 -0.70398488E+000 -0.70398488E+000
 0.93864650E-001  0.70398488E+000 -0.70398488E+000
-0.93864650E-001  0.70398488E+000 -0.70398488E+000
-0.93864650E-001 -0.70398488E+000  0.70398488E+000
 0.93864650E-001 -0.70398488E+000  0.70398488E+000
 0.93864650E-001  0.70398488E+000  0.70398488E+000
-0.93864650E-001  0.70398488E+000  0.70398488E+000
-0.12777445E-016 -0.70710678E+000 -0.70710678E+000
 0.13216372E+000  0.00000000E+000 -0.99122790E+000
 0.13216372E+000 -0.71646096E-016 -0.99122790E+000
 0.13216372E+000  0.71646096E-016 -0.99122790E+000
 0.13216372E+000  0.71646096E-016 -0.99122790E+000
-0.12777445E-016  0.70710678E+000 -0.70710678E+000
-0.13216372E+000  0.71646096E-016 -0.99122790E+000
-0.13216372E+000 -0.14329219E-015 -0.99122790E+000
-0.13216372E+000  0.21493828E-015 -0.99122790E+000
-0.13216372E+000 -0.14329219E-015 -0.99122790E+000
-0.12777445E-016 -0.70710678E+000  0.70710678E+000
 0.13216372E+000  0.71646096E-016  0.99122790E+000
 0.13216372E+000 -0.71646096E-016  0.99122790E+000
 0.13216372E+000  0.71646096E-016  0.99122790E+000
 0.13216372E+000  0.00000000E+000  0.99122790E+000
-0.63887225E-017  0.70710678E+000  0.70710678E+000
-0.13216372E+000  0.00000000E+000  0.99122790E+000
-0.13216372E+000 -0.14329219E-015  0.99122790E+000
-0.13216372E+000  0.71646096E-016  0.99122790E+000
-0.13216372E+000  0.71646096E-016  0.99122790E+000
-0.13216372E+000 -0.99122790E+000  0.71646096E-016
-0.13216372E+000 -0.99122790E+000  0.71646096E-016
-0.13216372E+000 -0.99122790E+000  0.14329219E-015
-0.13216372E+000 -0.99122790E+000 -0.14329219E-015
 0.13216372E+000 -0.99122790E+000  0.71646096E-016
 0.13216372E+000 -0.99122790E+000  0.71646096E-016
 0.13216372E+000 -0.99122790E+000  0.00000000E+000
 0.13216372E+000 -0.99122790E+000 -0.14329219E-015
 0.13216372E+000  0.99122790E+000  0.00000000E+000
 0.13216372E+000  0.99122790E+000  0.71646096E-016
 0.13216372E+000  0.99122790E+000  0.00000000E+000
 0.13216372E+000  0.99122790E+000  0.00000000E+000
-0.13216372E+000  0.99122790E+000 -0.71646096E-016
-0.13216372E+000  0.99122790E+000  0.00000000E+000
-0.13216372E+000  0.99122790E+000 -0.14329219E-015
-0.13216372E+000  0.99122790E+000 -0.14329219E-015
 0.90350181E-017 -0.10842021E-015 -0.10000000E+001
-0.90350181E-017  0.36140072E-016 -0.10000000E+001
 0.90350181E-017 -0.36140072E-016 -0.10000000E+001
 0.90350181E-017  0.10842021E-015 -0.10000000E+001
-0.45175090E-017 -0.14456028E-015  0.10000000E+001
-0.90350181E-017  0.36140072E-016  0.10000000E+001
 0.00000000E+000  0.36140072E-016  0.10000000E+001
 0.45175090E-017 -0.14456028E-015  0.10000000E+001
 0.45175090E-017 -0.10000000E+001  0.00000000E+000
 0.90350181E-017 -0.10000000E+001 -0.21684043E-015
 0.90350181E-017 -0.10000000E+001 -0.14456028E-015
-0.13552527E-016 -0.10000000E+001 -0.72280144E-016
 0.19028180E+000 -0.69418759E+000 -0.69418759E+000
 0.21203026E+000 -0.95834631E+000 -0.19135178E+000
 0.21203026E+000 -0.95834631E+000  0.19135178E+000
 0.19028180E+000 -0.69418759E+000  0.69418759E+000
 0.21203026E+000 -0.19135178E+000 -0.95834631E+000
 0.43733295E+000 -0.63590089E+000 -0.63590089E+000
 0.43733295E+000 -0.63590089E+000  0.63590089E+000
 0.21203026E+000 -0.19135178E+000  0.95834631E+000
 0.21203026E+000  0.19135178E+000 -0.95834631E+000
 0.43733295E+000  0.63590089E+000 -0.63590089E+000
 0.43733295E+000  0.63590089E+000  0.63590089E+000
 0.21203026E+000  0.19135178E+000  0.95834631E+000
 0.19028180E+000  0.69418759E+000 -0.69418759E+000
 0.21203026E+000  0.95834631E+000 -0.19135178E+000
 0.21203026E+000  0.95834631E+000  0.19135178E+000
 0.19028180E+000  0.69418759E+000  0.69418759E+000
 0.00000000E+000  0.10000000E+001 -0.18070036E-015
-0.90350181E-017  0.10000000E+001  0.36140072E-016
 0.00000000E+000  0.10000000E+001 -0.10842021E-015
-0.45175090E-017  0.10000000E+001 -0.10842021E-015
-0.19028180E+000  0.69418759E+000 -0.69418759E+000
-0.21203026E+000  0.95834631E+000 -0.19135178E+000
-0.21203026E+000  0.95834631E+000  0.19135178E+000
-0.19028180E+000  0.69418759E+000  0.69418759E+000
-0.21203026E+000  0.19135178E+000 -0.95834631E+000
-0.43733295E+000  0.63590089E+000 -0.63590089E+000
-0.43733295E+000  0.63590089E+000  0.63590089E+000
-0.21203026E+000  0.19135178E+000  0.95834631E+000
-0.21203026E+000 -0.19135178E+000 -0.95834631E+000
-0.43733295E+000 -0.63590089E+000 -0.63590089E+000
-0.43733295E+000 -0.63590089E+000  0.63590089E+000
-0.21203026E+000 -0.19135178E+000  0.95834631E+000
-0.19028180E+000 -0.69418759E+000 -0.69418759E+000
-0.21203026E+000 -0.95834631E+000 -0.19135178E+000
-0.21203026E+000 -0.95834631E+000  0.19135178E+000
-0.19028180E+000 -0.69418759E+000  0.69418759E+000
-0.65451324E-013 -0.70710678E+000 -0.70710678E+000
 0.18195293E-012 -0.98067370E+000 -0.19565040E+000
 0.18192117E-012 -0.98067370E+000  0.19565040E+000
-0.65456556E-013 -0.70710678E+000  0.70710678E+000
-0.19508884E-012 -0.19565040E+000 -0.98067370E+000
-0.18911614E-012 -0.70710678E+000 -0.70710678E+000
-0.18949816E-012 -0.70710678E+000  0.70710678E+000
-0.19526548E-012 -0.19565040E+000  0.98067370E+000
 0.19575201E-012  0.19565040E+000 -0.98067370E+000
 0.19034372E-012  0.70710678E+000 -0.70710678E+000
 0.19009836E-012  0.70710678E+000  0.70710678E+000
 0.19579536E-012  0.19565040E+000  0.98067370E+000
 0.66054597E-013  0.70710678E+000 -0.70710678E+000
-0.18138377E-012  0.98067370E+000 -0.19565040E+000
-0.18141394E-012  0.98067370E+000  0.19565040E+000
 0.66112176E-013  0.70710678E+000  0.70710678E+000
