0.00000000E+000
5.09918541E-003
1.01959279E-002
1.52894153E-002
2.03796511E-002
2.54666384E-002
3.05503807E-002
3.56308811E-002
4.07081432E-002
4.57821700E-002
4.92963792E-002
4.41779986E-002
3.90612548E-002
3.39477675E-002
2.88375336E-002
2.37305495E-002
1.86268121E-002
1.35244488E-002
8.40476838E-003
3.28833570E-003
-1.82484902E-003
-6.93478909E-003
-1.20414879E-002
-1.71449486E-002
-2.22451747E-002
-2.73421695E-002
-3.24359362E-002
-3.75264782E-002
-4.26137987E-002
-4.76979012E-002
-4.97401821E-002
-4.97401821E-002
-4.97401821E-002
-4.97401821E-002
-4.97401821E-002
-4.97401821E-002
-4.97401821E-002
-4.97401821E-002
-4.97401821E-002
-4.97401821E-002
-4.97401821E-002
-4.97401821E-002
-4.97401821E-002
-4.97401821E-002
-4.97401821E-002
-4.97401821E-002
-4.97401821E-002
-4.97401821E-002
-4.97401821E-002
-4.97401821E-002
-4.97401821E-002
-4.97401821E-002
-4.97401821E-002
-4.97406550E-002
-4.97416006E-002
-4.97416006E-002
-4.97416006E-002
-4.97416006E-002
-4.97416006E-002
-4.97416006E-002
-4.97416006E-002
-4.97416006E-002
-4.97416006E-002
-4.97416006E-002
-4.97416006E-002
-4.97416006E-002
-4.97416006E-002
-4.97416006E-002
-4.97416006E-002
-4.97416006E-002
-4.97416006E-002
-4.97416006E-002
-4.97416006E-002
-4.97416006E-002
-4.97416006E-002
-4.97416006E-002
-4.97416006E-002
