{
    "authors": [
        "alfonso.santiago@bsc.es",
        "beatriz.eguzkitza@bsc.es"
    ],
    "comparisons": [
        {
            "file": "Y_pump_blow.ensi.PRESS-000003",
            "method": "power",
            "tolerance": "6"
        },
        {
            "file": "Y_pump_blow.ensi.VELOC-000003",
            "method": "power",
            "tolerance": "6"
        },
        {
            "file": "Y_pump_blow-boundary.nsi.set",
            "method": "power",
            "tolerance": "6"
        }
    ],
    "description": "Test pump boundary condition, blow version. \n",
    "exclude": [
        "special"
    ],
    "executions": [
        {
            "mpi": 3,
            "openmp": 0
        }
    ],
    "modules": [
        "nastin"
    ],
    "name": "Y_pump_blow",
    "postprocess": "alya2pos"
}
