GiD Post Results File 1.0
 
Result VELOC ALYA  0.37357401E+04 Vector OnNodes
ComponentNames VELOC_X,VELOC_Y,VELOC_Z
Values
          1  0.10000000E+001  0.00000000E+000
          2  0.10000000E+001  0.00000000E+000
          3  0.10000000E+001  0.00000000E+000
          4  0.10000000E+001  0.39798421E-014
          5  0.10000000E+001  0.00000000E+000
          6  0.10000000E+001  0.00000000E+000
          7  0.10000000E+001  0.21456958E-014
          8  0.10000000E+001  0.38268445E-013
          9  0.10000000E+001 -0.16632504E-015
         10  0.10000000E+001  0.00000000E+000
         11  0.10000000E+001  0.00000000E+000
         12  0.10000000E+001  0.65204439E-013
         13  0.10000000E+001 -0.46239588E-014
         14  0.10000000E+001 -0.39510964E-013
         15  0.10000000E+001 -0.44892544E-015
         16  0.10000000E+001  0.00000000E+000
         17  0.10000000E+001  0.00000000E+000
         18  0.10000000E+001  0.00000000E+000
         19  0.10000000E+001 -0.71283591E-012
         20  0.10000000E+001 -0.65925421E-013
         21  0.10000000E+001  0.00000000E+000
         22  0.10000000E+001 -0.16888588E-014
         23  0.10000000E+001  0.00000000E+000
         24  0.10000000E+001  0.71048905E-012
         25  0.10000000E+001  0.00000000E+000
End values

Result PRESS ALYA  0.37357401E+04 Scalar OnNodes
ComponentNames PRESS
Values
          1  0.10000000E+001
          2  0.10000000E+001
          3  0.10000000E+001
          4  0.10000000E+001
          5  0.10000000E+001
          6  0.10000000E+001
          7  0.10000000E+001
          8  0.10000000E+001
          9  0.10000000E+001
         10  0.10000000E+001
         11  0.10000000E+001
         12  0.10000000E+001
         13  0.10000000E+001
         14  0.10000000E+001
         15  0.10000000E+001
         16  0.10000000E+001
         17  0.10000000E+001
         18  0.10000000E+001
         19  0.10000000E+001
         20  0.10000000E+001
         21  0.10000000E+001
         22  0.10000000E+001
         23  0.10000000E+001
         24  0.10000000E+001
         25  0.10000000E+001
End values

Result FIXPR ALYA  0.37357401E+04 Scalar OnNodes
ComponentNames FIXPR
Values
          1  0.00000000E+000
          2  0.00000000E+000
          3  0.00000000E+000
          4  0.00000000E+000
          5  0.00000000E+000
          6  0.00000000E+000
          7  0.00000000E+000
          8  0.00000000E+000
          9  0.00000000E+000
         10  0.00000000E+000
         11  0.00000000E+000
         12  0.00000000E+000
         13  0.00000000E+000
         14  0.00000000E+000
         15  0.00000000E+000
         16  0.00000000E+000
         17  0.00000000E+000
         18  0.00000000E+000
         19  0.10000000E+001
         20  0.00000000E+000
         21  0.00000000E+000
         22  0.10000000E+001
         23  0.00000000E+000
         24  0.10000000E+001
         25  0.00000000E+000
End values

