GiD Post Results File 1.0
 
Result TEMPE ALYA  0.00000000E+00 Scalar OnNodes
ComponentNames TEMPE
Values
          1  0.14000000E+002
          2  0.15406250E+002
          3  0.12421875E+002
          4  0.12187500E+002
          5  0.13500000E+002
          6  0.10718750E+002
          7  0.13750000E+002
          8  0.00000000E+000
          9  0.10500000E+002
         10  0.16875000E+002
         11  0.10937500E+002
         12  0.12187500E+002
         13  0.14875000E+002
         14  0.91406250E+001
         15  0.11718750E+002
         16  0.93437500E+001
         17  0.15140625E+002
         18  0.00000000E+000
         19  0.00000000E+000
         20  0.00000000E+000
         21  0.13500000E+002
         22  0.13000000E+002
         23  0.78750000E+001
         24  0.00000000E+000
         25  0.18406250E+002
         26  0.89375000E+001
         27  0.95468750E+001
         28  0.00000000E+000
         29  0.00000000E+000
         30  0.10062500E+002
         31  0.16312500E+002
         32  0.80625000E+001
         33  0.76875000E+001
         34  0.10718750E+002
         35  0.16593750E+002
         36  0.00000000E+000
         37  0.00000000E+000
         38  0.00000000E+000
         39  0.00000000E+000
         40  0.11953125E+002
         41  0.67031250E+001
         42  0.65312500E+001
         43  0.11250000E+002
         44  0.14343750E+002
         45  0.14875000E+002
         46  0.00000000E+000
         47  0.00000000E+000
         48  0.00000000E+000
         49  0.00000000E+000
         50  0.00000000E+000
         51  0.00000000E+000
         52  0.20000000E+002
         53  0.82500000E+001
         54  0.75000000E+001
         55  0.93437500E+001
         56  0.63593750E+001
         57  0.00000000E+000
         58  0.68750000E+001
         59  0.85312500E+001
         60  0.17812500E+002
         61  0.18109375E+002
         62  0.00000000E+000
         63  0.00000000E+000
         64  0.13250000E+002
         65  0.00000000E+000
         66  0.00000000E+000
         67  0.12500000E+002
         68  0.54687500E+001
         69  0.00000000E+000
         70  0.00000000E+000
         71  0.00000000E+000
         72  0.00000000E+000
         73  0.96250000E+001
         74  0.15750000E+002
         75  0.53125000E+001
         76  0.56250000E+001
         77  0.16312500E+002
         78  0.10500000E+002
         79  0.00000000E+000
         80  0.00000000E+000
         81  0.00000000E+000
         82  0.00000000E+000
         83  0.00000000E+000
         84  0.00000000E+000
         85  0.00000000E+000
         86  0.00000000E+000
         87  0.00000000E+000
         88  0.00000000E+000
         89  0.00000000E+000
         90  0.00000000E+000
         91  0.14609375E+002
         92  0.13812500E+002
         93  0.45000000E+001
         94  0.61875000E+001
         95  0.10781250E+002
         96  0.21656250E+002
         97  0.70468750E+001
         98  0.43593750E+001
         99  0.11718750E+002
        100  0.00000000E+000
        101  0.19687500E+002
        102  0.00000000E+000
        103  0.00000000E+000
        104  0.51562500E+001
        105  0.57812500E+001
        106  0.19375000E+002
        107  0.71250000E+001
        108  0.00000000E+000
        109  0.80625000E+001
        110  0.00000000E+000
        111  0.00000000E+000
        112  0.00000000E+000
        113  0.00000000E+000
        114  0.00000000E+000
        115  0.00000000E+000
        116  0.00000000E+000
        117  0.42187500E+001
        118  0.46406250E+001
        119  0.00000000E+000
        120  0.81250000E+001
        121  0.17218750E+002
        122  0.91406250E+001
        123  0.00000000E+000
        124  0.00000000E+000
        125  0.00000000E+000
        126  0.00000000E+000
        127  0.17812500E+002
        128  0.00000000E+000
        129  0.00000000E+000
        130  0.00000000E+000
        131  0.00000000E+000
        132  0.00000000E+000
        133  0.00000000E+000
        134  0.13000000E+002
        135  0.12000000E+002
        136  0.35000000E+001
        137  0.00000000E+000
        138  0.00000000E+000
        139  0.00000000E+000
        140  0.00000000E+000
        141  0.00000000E+000
        142  0.00000000E+000
        143  0.16031250E+002
        144  0.00000000E+000
        145  0.00000000E+000
        146  0.10281250E+002
        147  0.36250000E+001
        148  0.91875000E+001
        149  0.33750000E+001
        150  0.15187500E+002
        151  0.00000000E+000
        152  0.00000000E+000
        153  0.00000000E+000
        154  0.00000000E+000
        155  0.00000000E+000
        156  0.00000000E+000
        157  0.00000000E+000
        158  0.00000000E+000
        159  0.59375000E+001
        160  0.23375000E+002
        161  0.50000000E+001
        162  0.00000000E+000
        163  0.00000000E+000
        164  0.40781250E+001
        165  0.21328125E+002
        166  0.58437500E+001
        167  0.21000000E+002
        168  0.47812500E+001
        169  0.68750000E+001
        170  0.00000000E+000
        171  0.00000000E+000
        172  0.00000000E+000
        173  0.00000000E+000
        174  0.00000000E+000
        175  0.00000000E+000
        176  0.00000000E+000
        177  0.00000000E+000
        178  0.00000000E+000
        179  0.37500000E+001
        180  0.19375000E+002
        181  0.18750000E+002
        182  0.32500000E+001
        183  0.67500000E+001
        184  0.78750000E+001
        185  0.00000000E+000
        186  0.00000000E+000
        187  0.13281250E+002
        188  0.00000000E+000
        189  0.00000000E+000
        190  0.11484375E+002
        191  0.14343750E+002
        192  0.27343750E+001
        193  0.00000000E+000
        194  0.26250000E+001
        195  0.10312500E+002
        196  0.00000000E+000
        197  0.00000000E+000
        198  0.00000000E+000
        199  0.00000000E+000
        200  0.00000000E+000
        201  0.00000000E+000
        202  0.00000000E+000
        203  0.00000000E+000
        204  0.00000000E+000
        205  0.00000000E+000
        206  0.00000000E+000
        207  0.00000000E+000
        208  0.00000000E+000
        209  0.00000000E+000
        210  0.00000000E+000
        211  0.00000000E+000
        212  0.17515625E+002
        213  0.77187500E+001
        214  0.28437500E+001
        215  0.00000000E+000
        216  0.25156250E+001
        217  0.00000000E+000
        218  0.16625000E+002
        219  0.00000000E+000
        220  0.00000000E+000
        221  0.00000000E+000
        222  0.00000000E+000
        223  0.89375000E+001
        224  0.00000000E+000
        225  0.00000000E+000
        226  0.00000000E+000
        227  0.00000000E+000
        228  0.00000000E+000
        229  0.00000000E+000
        230  0.00000000E+000
        231  0.00000000E+000
        232  0.25156250E+002
        233  0.00000000E+000
        234  0.39375000E+001
        235  0.49218750E+001
        236  0.00000000E+000
        237  0.00000000E+000
        238  0.00000000E+000
        239  0.00000000E+000
        240  0.00000000E+000
        241  0.12750000E+002
        242  0.00000000E+000
        243  0.00000000E+000
        244  0.46875000E+001
        245  0.31250000E+001
        246  0.22687500E+002
        247  0.00000000E+000
        248  0.19687500E+001
        249  0.38750000E+001
        250  0.00000000E+000
        251  0.57812500E+001
        252  0.11500000E+002
        253  0.00000000E+000
        254  0.23031250E+002
        255  0.00000000E+000
        256  0.00000000E+000
        257  0.00000000E+000
        258  0.00000000E+000
        259  0.00000000E+000
        260  0.00000000E+000
        261  0.20625000E+001
        262  0.15750000E+002
        263  0.87500000E+001
        264  0.14625000E+002
        265  0.18750000E+001
        266  0.10062500E+002
        267  0.29531250E+001
        268  0.20343750E+002
        269  0.00000000E+000
        270  0.00000000E+000
        271  0.55000000E+001
        272  0.00000000E+000
        273  0.00000000E+000
        274  0.67031250E+001
        275  0.24062500E+001
        276  0.00000000E+000
        277  0.00000000E+000
        278  0.21000000E+002
        279  0.00000000E+000
        280  0.00000000E+000
        281  0.00000000E+000
        282  0.00000000E+000
        283  0.00000000E+000
        284  0.00000000E+000
        285  0.00000000E+000
        286  0.00000000E+000
        287  0.00000000E+000
        288  0.00000000E+000
        289  0.00000000E+000
        290  0.00000000E+000
        291  0.00000000E+000
        292  0.00000000E+000
        293  0.00000000E+000
        294  0.00000000E+000
        295  0.00000000E+000
        296  0.00000000E+000
        297  0.00000000E+000
        298  0.00000000E+000
        299  0.00000000E+000
        300  0.00000000E+000
        301  0.00000000E+000
        302  0.00000000E+000
        303  0.19062500E+002
        304  0.76875000E+001
        305  0.63750000E+001
        306  0.17812500E+001
        307  0.21562500E+001
        308  0.18125000E+002
        309  0.00000000E+000
        310  0.00000000E+000
        311  0.00000000E+000
        312  0.00000000E+000
        313  0.00000000E+000
        314  0.00000000E+000
        315  0.00000000E+000
        316  0.00000000E+000
        317  0.00000000E+000
        318  0.00000000E+000
        319  0.14078125E+002
        320  0.00000000E+000
        321  0.00000000E+000
        322  0.11250000E+002
        323  0.98437500E+001
        324  0.13281250E+001
        325  0.12750000E+002
        326  0.14062500E+001
        327  0.00000000E+000
        328  0.00000000E+000
        329  0.00000000E+000
        330  0.00000000E+000
        331  0.00000000E+000
        332  0.00000000E+000
        333  0.00000000E+000
        334  0.00000000E+000
        335  0.00000000E+000
        336  0.00000000E+000
        337  0.00000000E+000
        338  0.00000000E+000
        339  0.00000000E+000
        340  0.00000000E+000
        341  0.00000000E+000
        342  0.40000000E+001
        343  0.30000000E+001
        344  0.27000000E+002
        345  0.00000000E+000
        346  0.87343750E+001
        347  0.73125000E+001
        348  0.24437500E+002
        349  0.36562500E+001
        350  0.47812500E+001
        351  0.12500000E+001
        352  0.24796875E+002
        353  0.00000000E+000
        354  0.00000000E+000
        355  0.14843750E+001
        356  0.22968750E+001
        357  0.00000000E+000
        358  0.30625000E+001
        359  0.16031250E+002
        360  0.00000000E+000
        361  0.17218750E+002
        362  0.00000000E+000
        363  0.00000000E+000
        364  0.00000000E+000
        365  0.00000000E+000
        366  0.37500000E+001
        367  0.00000000E+000
        368  0.00000000E+000
        369  0.00000000E+000
        370  0.22343750E+002
        371  0.28750000E+001
        372  0.00000000E+000
        373  0.00000000E+000
        374  0.00000000E+000
        375  0.00000000E+000
        376  0.00000000E+000
        377  0.00000000E+000
        378  0.00000000E+000
        379  0.22500000E+001
        380  0.00000000E+000
        381  0.22687500E+002
        382  0.56250000E+001
        383  0.16875000E+001
        384  0.43750000E+001
        385  0.22000000E+002
        386  0.00000000E+000
        387  0.00000000E+000
        388  0.28437500E+001
        389  0.45000000E+001
        390  0.21875000E+001
        391  0.20343750E+002
        392  0.35156250E+001
        393  0.00000000E+000
        394  0.20015625E+002
        395  0.00000000E+000
        396  0.00000000E+000
        397  0.00000000E+000
        398  0.00000000E+000
        399  0.00000000E+000
        400  0.00000000E+000
        401  0.00000000E+000
        402  0.00000000E+000
        403  0.00000000E+000
        404  0.00000000E+000
        405  0.12500000E+002
        406  0.11000000E+002
        407  0.35000000E+001
        408  0.18125000E+002
        409  0.87500000E+000
        410  0.27500000E+001
        411  0.65312500E+001
        412  0.15625000E+001
        413  0.11718750E+001
        414  0.19687500E+002
        415  0.20671875E+002
        416  0.51562500E+001
        417  0.00000000E+000
        418  0.00000000E+000
        419  0.00000000E+000
        420  0.00000000E+000
        421  0.00000000E+000
        422  0.00000000E+000
        423  0.15468750E+002
        424  0.98437500E+001
        425  0.53125000E+001
        426  0.83125000E+001
        427  0.00000000E+000
        428  0.14062500E+002
        429  0.93750000E+000
        430  0.20625000E+001
        431  0.15937500E+001
        432  0.42187500E+001
        433  0.00000000E+000
        434  0.18437500E+002
        435  0.81250000E+000
        436  0.17812500E+002
        437  0.00000000E+000
        438  0.00000000E+000
        439  0.00000000E+000
        440  0.00000000E+000
        441  0.00000000E+000
        442  0.00000000E+000
        443  0.00000000E+000
        444  0.00000000E+000
        445  0.00000000E+000
        446  0.00000000E+000
        447  0.00000000E+000
        448  0.00000000E+000
        449  0.16328125E+002
        450  0.16031250E+002
        451  0.00000000E+000
        452  0.20781250E+001
        453  0.33750000E+001
        454  0.00000000E+000
        455  0.00000000E+000
        456  0.00000000E+000
        457  0.26250000E+001
        458  0.42187500E+001
        459  0.00000000E+000
        460  0.00000000E+000
        461  0.00000000E+000
        462  0.00000000E+000
        463  0.00000000E+000
        464  0.00000000E+000
        465  0.00000000E+000
        466  0.10000000E+001
        467  0.18750000E+002
        468  0.60000000E+001
        469  0.75000000E+001
        470  0.17500000E+002
        471  0.75000000E+000
        472  0.00000000E+000
        473  0.00000000E+000
        474  0.10937500E+001
        475  0.00000000E+000
        476  0.49843750E+001
        477  0.14062500E+001
        478  0.15734375E+002
        479  0.61875000E+001
        480  0.00000000E+000
        481  0.16625000E+002
        482  0.00000000E+000
        483  0.00000000E+000
        484  0.26250000E+001
        485  0.14343750E+002
        486  0.32500000E+001
        487  0.00000000E+000
        488  0.00000000E+000
        489  0.00000000E+000
        490  0.00000000E+000
        491  0.00000000E+000
        492  0.00000000E+000
        493  0.15000000E+001
        494  0.14625000E+002
        495  0.18750000E+001
        496  0.40625000E+001
        497  0.14062500E+002
        498  0.50000000E+001
        499  0.11015625E+002
        500  0.46875000E+000
        501  0.51562500E+000
        502  0.93750000E+001
        503  0.12218750E+002
        504  0.13812500E+002
        505  0.00000000E+000
        506  0.00000000E+000
        507  0.00000000E+000
        508  0.00000000E+000
        509  0.00000000E+000
        510  0.00000000E+000
        511  0.00000000E+000
        512  0.00000000E+000
        513  0.00000000E+000
        514  0.00000000E+000
        515  0.00000000E+000
        516  0.00000000E+000
        517  0.00000000E+000
        518  0.32343750E+001
        519  0.12750000E+002
        520  0.69062500E+001
        521  0.85312500E+001
        522  0.19687500E+001
        523  0.39375000E+001
        524  0.42187500E+000
        525  0.00000000E+000
        526  0.15437500E+002
        527  0.16921875E+002
        528  0.00000000E+000
        529  0.56250000E+000
        530  0.24062500E+001
        531  0.00000000E+000
        532  0.12484375E+002
        533  0.00000000E+000
        534  0.00000000E+000
        535  0.00000000E+000
        536  0.00000000E+000
        537  0.13781250E+002
        538  0.68750000E+000
        539  0.00000000E+000
        540  0.58125000E+001
        541  0.00000000E+000
        542  0.71250000E+001
        543  0.14906250E+002
        544  0.87500000E+000
        545  0.00000000E+000
        546  0.00000000E+000
        547  0.10156250E+001
        548  0.58437500E+001
        549  0.12218750E+002
        550  0.12500000E+001
        551  0.13015625E+002
        552  0.48125000E+001
        553  0.00000000E+000
        554  0.00000000E+000
        555  0.00000000E+000
        556  0.00000000E+000
        557  0.00000000E+000
        558  0.00000000E+000
        559  0.25000000E+001
        560  0.11000000E+002
        561  0.30000000E+001
        562  0.00000000E+000
        563  0.00000000E+000
        564  0.00000000E+000
        565  0.12250000E+002
        566  0.39062500E+001
        567  0.46875000E+001
        568  0.10750000E+002
        569  0.16875000E+001
        570  0.11250000E+002
        571  0.14062500E+001
        572  0.10500000E+002
        573  0.21875000E+000
        574  0.00000000E+000
        575  0.00000000E+000
        576  0.00000000E+000
        577  0.00000000E+000
        578  0.00000000E+000
        579  0.00000000E+000
        580  0.13500000E+002
        581  0.96250000E+001
        582  0.15187500E+002
        583  0.25000000E+000
        584  0.18750000E+000
        585  0.78750000E+001
        586  0.00000000E+000
        587  0.00000000E+000
        588  0.13281250E+002
        589  0.67031250E+001
        590  0.11953125E+002
        591  0.46875000E+000
        592  0.00000000E+000
        593  0.81250000E+001
        594  0.37500000E+000
        595  0.00000000E+000
        596  0.00000000E+000
        597  0.00000000E+000
        598  0.00000000E+000
        599  0.00000000E+000
        600  0.00000000E+000
        601  0.10500000E+002
        602  0.56250000E+001
        603  0.75000000E+000
        604  0.11500000E+002
        605  0.67500000E+001
        606  0.62500000E+000
        607  0.21875000E+001
        608  0.93750000E+001
        609  0.36562500E+001
        610  0.30937500E+001
        611  0.18593750E+001
        612  0.96093750E+001
        613  0.00000000E+000
        614  0.00000000E+000
        615  0.00000000E+000
        616  0.00000000E+000
        617  0.46406250E+001
        618  0.10937500E+001
        619  0.98437500E+001
        620  0.91406250E+001
        621  0.55000000E+001
        622  0.93750000E+000
        623  0.00000000E+000
        624  0.00000000E+000
        625  0.00000000E+000
        626  0.00000000E+000
        627  0.00000000E+000
        628  0.00000000E+000
        629  0.13546875E+002
        630  0.46875000E-001
        631  0.62500000E-001
        632  0.89062500E+001
        633  0.10781250E+002
        634  0.11687500E+002
        635  0.00000000E+000
        636  0.23750000E+001
        637  0.00000000E+000
        638  0.11750000E+002
        639  0.91875000E+001
        640  0.80937500E+001
        641  0.18750000E+000
        642  0.10250000E+002
        643  0.27500000E+001
        644  0.15625000E+000
        645  0.00000000E+000
        646  0.76562500E+001
        647  0.78750000E+001
        648  0.15000000E+001
        649  0.37500000E+001
        650  0.43750000E+001
        651  0.83125000E+001
        652  0.13125000E+001
        653  0.32812500E+000
        654  0.77187500E+001
        655  0.89062500E+001
        656  0.37500000E+000
        657  0.10078125E+002
        658  0.65000000E+001
        659  0.00000000E+000
        660  0.00000000E+000
        661  0.00000000E+000
        662  0.54375000E+001
        663  0.62500000E+000
        664  0.63750000E+001
        665  0.76562500E+001
        666  0.85312500E+001
        667  0.56250000E+000
        668  0.00000000E+000
        669  0.00000000E+000
        670  0.00000000E+000
        671  0.29531250E+001
        672  0.69062500E+001
        673  0.67031250E+001
        674  0.33750000E+001
        675  0.17500000E+001
        676  0.19687500E+001
        677  0.00000000E+000
        678  0.12000000E+002
        679  0.10000000E+002
        680  0.85937500E+000
        681  0.31250000E-001
        682  0.71093750E+001
        683  0.93750000E+000
        684  0.10312500E+002
        685  0.65000000E+001
        686  0.51562500E+001
        687  0.86718750E+001
        688  0.44687500E+001
        689  0.74375000E+001
        690  0.12500000E+000
        691  0.87500000E+001
        692  0.00000000E+000
        693  0.00000000E+000
        694  0.00000000E+000
        695  0.25000000E+001
        696  0.56250000E+001
        697  0.22500000E+001
        698  0.73125000E+001
        699  0.28125000E+000
        700  0.62968750E+001
        701  0.40625000E+001
        702  0.12187500E+001
        703  0.35937500E+001
        704  0.54375000E+001
        705  0.13125000E+001
        706  0.58125000E+001
        707  0.50000000E+000
        708  0.52500000E+001
        709  0.60000000E+001
        710  0.00000000E+000
        711  0.16406250E+001
        712  0.28125000E+001
        713  0.30937500E+001
        714  0.46406250E+001
        715  0.44687500E+001
        716  0.17500000E+001
        717  0.78125000E+000
        718  0.42968750E+001
        719  0.48125000E+001
        720  0.21250000E+001
        721  0.22500000E+001
        722  0.35937500E+001
        723  0.37500000E+001
        724  0.34375000E+001
        725  0.11250000E+001
        726  0.26718750E+001
        727  0.28125000E+001
        728  0.15312500E+001
        729  0.20000000E+001
End values

Result ERROR ALYA  0.00000000E+00 Scalar OnNodes
ComponentNames ERROR
Values
          1  0.00000000E+000
          2  0.00000000E+000
          3  0.00000000E+000
          4  0.00000000E+000
          5  0.00000000E+000
          6  0.00000000E+000
          7  0.00000000E+000
          8 -0.11953125E+002
          9  0.00000000E+000
         10  0.00000000E+000
         11  0.00000000E+000
         12  0.00000000E+000
         13  0.00000000E+000
         14  0.00000000E+000
         15  0.00000000E+000
         16  0.00000000E+000
         17  0.00000000E+000
         18 -0.10500000E+002
         19 -0.10281250E+002
         20 -0.13250000E+002
         21  0.00000000E+000
         22  0.00000000E+000
         23  0.00000000E+000
         24 -0.11718750E+002
         25  0.00000000E+000
         26  0.00000000E+000
         27  0.00000000E+000
         28 -0.89375000E+001
         29 -0.11484375E+002
         30  0.00000000E+000
         31  0.00000000E+000
         32  0.00000000E+000
         33  0.00000000E+000
         34  0.00000000E+000
         35  0.00000000E+000
         36 -0.91406250E+001
         37 -0.87343750E+001
         38 -0.14609375E+002
         39 -0.10062500E+002
         40  0.00000000E+000
         41  0.00000000E+000
         42  0.00000000E+000
         43  0.00000000E+000
         44  0.00000000E+000
         45  0.00000000E+000
         46 -0.75000000E+001
         47 -0.76875000E+001
         48 -0.98437500E+001
         49 -0.12750000E+002
         50 -0.10281250E+002
         51 -0.13000000E+002
         52  0.00000000E+000
         53  0.00000000E+000
         54  0.00000000E+000
         55  0.00000000E+000
         56  0.00000000E+000
         57 -0.85312500E+001
         58  0.00000000E+000
         59  0.00000000E+000
         60  0.00000000E+000
         61  0.00000000E+000
         62 -0.11250000E+002
         63 -0.87343750E+001
         64  0.00000000E+000
         65 -0.78750000E+001
         66 -0.73125000E+001
         67  0.00000000E+000
         68  0.00000000E+000
         69 -0.16031250E+002
         70 -0.11484375E+002
         71 -0.63593750E+001
         72 -0.11015625E+002
         73  0.00000000E+000
         74  0.00000000E+000
         75  0.00000000E+000
         76  0.00000000E+000
         77  0.00000000E+000
         78  0.00000000E+000
         79 -0.14078125E+002
         80 -0.61875000E+001
         81 -0.65312500E+001
         82 -0.14343750E+002
         83 -0.83281250E+001
         84 -0.89375000E+001
         85 -0.98437500E+001
         86 -0.96250000E+001
         87 -0.73125000E+001
         88 -0.71250000E+001
         89 -0.12500000E+002
         90 -0.75000000E+001
         91  0.00000000E+000
         92  0.00000000E+000
         93  0.00000000E+000
         94  0.00000000E+000
         95  0.00000000E+000
         96  0.00000000E+000
         97  0.00000000E+000
         98  0.00000000E+000
         99  0.00000000E+000
        100 -0.12750000E+002
        101  0.00000000E+000
        102 -0.53125000E+001
        103 -0.12250000E+002
        104  0.00000000E+000
        105  0.00000000E+000
        106  0.00000000E+000
        107  0.00000000E+000
        108 -0.51562500E+001
        109  0.00000000E+000
        110 -0.94062500E+001
        111 -0.10062500E+002
        112 -0.67031250E+001
        113 -0.83281250E+001
        114 -0.17515625E+002
        115 -0.60156250E+001
        116 -0.11015625E+002
        117  0.00000000E+000
        118  0.00000000E+000
        119 -0.60156250E+001
        120  0.00000000E+000
        121  0.00000000E+000
        122  0.00000000E+000
        123 -0.85312500E+001
        124 -0.10781250E+002
        125 -0.81250000E+001
        126 -0.61875000E+001
        127  0.00000000E+000
        128 -0.54687500E+001
        129 -0.15468750E+002
        130 -0.50000000E+001
        131 -0.69375000E+001
        132 -0.76875000E+001
        133 -0.15750000E+002
        134  0.00000000E+000
        135  0.00000000E+000
        136  0.00000000E+000
        137 -0.58437500E+001
        138 -0.11250000E+002
        139 -0.10546875E+002
        140 -0.42187500E+001
        141 -0.63593750E+001
        142 -0.13812500E+002
        143  0.00000000E+000
        144 -0.94062500E+001
        145 -0.69375000E+001
        146  0.00000000E+000
        147  0.00000000E+000
        148  0.00000000E+000
        149  0.00000000E+000
        150  0.00000000E+000
        151 -0.71250000E+001
        152 -0.14078125E+002
        153 -0.87343750E+001
        154 -0.43593750E+001
        155 -0.40781250E+001
        156 -0.13546875E+002
        157 -0.79218750E+001
        158 -0.96250000E+001
        159  0.00000000E+000
        160  0.00000000E+000
        161  0.00000000E+000
        162 -0.91875000E+001
        163 -0.50000000E+001
        164  0.00000000E+000
        165  0.00000000E+000
        166  0.00000000E+000
        167  0.00000000E+000
        168  0.00000000E+000
        169  0.00000000E+000
        170 -0.12250000E+002
        171 -0.73125000E+001
        172 -0.48437500E+001
        173 -0.19062500E+002
        174 -0.48437500E+001
        175 -0.67500000E+001
        176 -0.51562500E+001
        177 -0.12000000E+002
        178 -0.56250000E+001
        179  0.00000000E+000
        180  0.00000000E+000
        181  0.00000000E+000
        182  0.00000000E+000
        183  0.00000000E+000
        184  0.00000000E+000
        185 -0.79218750E+001
        186 -0.17218750E+002
        187  0.00000000E+000
        188 -0.81250000E+001
        189 -0.16921875E+002
        190  0.00000000E+000
        191  0.00000000E+000
        192  0.00000000E+000
        193 -0.39375000E+001
        194  0.00000000E+000
        195  0.00000000E+000
        196 -0.58437500E+001
        197 -0.56718750E+001
        198 -0.65312500E+001
        199 -0.45000000E+001
        200 -0.33750000E+001
        201 -0.32500000E+001
        202 -0.98437500E+001
        203 -0.12500000E+002
        204 -0.89687500E+001
        205 -0.11750000E+002
        206 -0.10546875E+002
        207 -0.60156250E+001
        208 -0.56718750E+001
        209 -0.15187500E+002
        210 -0.46875000E+001
        211 -0.53125000E+001
        212  0.00000000E+000
        213  0.00000000E+000
        214  0.00000000E+000
        215 -0.10781250E+002
        216  0.00000000E+000
        217 -0.83281250E+001
        218  0.00000000E+000
        219 -0.40781250E+001
        220 -0.77187500E+001
        221 -0.39375000E+001
        222 -0.10312500E+002
        223  0.00000000E+000
        224 -0.15468750E+002
        225 -0.14906250E+002
        226 -0.31250000E+001
        227 -0.65625000E+001
        228 -0.35000000E+001
        229 -0.75000000E+001
        230 -0.67500000E+001
        231 -0.13546875E+002
        232  0.00000000E+000
        233 -0.13281250E+002
        234  0.00000000E+000
        235  0.00000000E+000
        236 -0.55000000E+001
        237 -0.37968750E+001
        238 -0.42187500E+001
        239 -0.61875000E+001
        240 -0.89687500E+001
        241  0.00000000E+000
        242 -0.65625000E+001
        243 -0.48437500E+001
        244  0.00000000E+000
        245  0.00000000E+000
        246  0.00000000E+000
        247 -0.91875000E+001
        248  0.00000000E+000
        249  0.00000000E+000
        250 -0.69375000E+001
        251  0.00000000E+000
        252  0.00000000E+000
        253 -0.46875000E+001
        254  0.00000000E+000
        255 -0.11015625E+002
        256 -0.25156250E+001
        257 -0.10078125E+002
        258 -0.46406250E+001
        259 -0.37968750E+001
        260 -0.20671875E+002
        261  0.00000000E+000
        262  0.00000000E+000
        263  0.00000000E+000
        264  0.00000000E+000
        265  0.00000000E+000
        266  0.00000000E+000
        267  0.00000000E+000
        268  0.00000000E+000
        269 -0.13812500E+002
        270 -0.24062500E+001
        271  0.00000000E+000
        272 -0.13015625E+002
        273 -0.75156250E+001
        274  0.00000000E+000
        275  0.00000000E+000
        276 -0.85312500E+001
        277 -0.26250000E+001
        278  0.00000000E+000
        279 -0.11750000E+002
        280 -0.94062500E+001
        281 -0.45312500E+001
        282 -0.36250000E+001
        283 -0.30000000E+001
        284 -0.54687500E+001
        285 -0.31250000E+001
        286 -0.18437500E+002
        287 -0.45312500E+001
        288 -0.18750000E+002
        289 -0.87500000E+001
        290 -0.50000000E+001
        291 -0.11500000E+002
        292 -0.12000000E+002
        293 -0.63750000E+001
        294 -0.30000000E+001
        295 -0.32500000E+001
        296 -0.71250000E+001
        297 -0.77187500E+001
        298 -0.43593750E+001
        299 -0.56718750E+001
        300 -0.55000000E+001
        301 -0.36562500E+001
        302 -0.16625000E+002
        303  0.00000000E+000
        304  0.00000000E+000
        305  0.00000000E+000
        306  0.00000000E+000
        307  0.00000000E+000
        308  0.00000000E+000
        309 -0.75156250E+001
        310 -0.16921875E+002
        311 -0.79218750E+001
        312 -0.63593750E+001
        313 -0.37968750E+001
        314 -0.27343750E+001
        315 -0.22968750E+001
        316 -0.53281250E+001
        317 -0.16328125E+002
        318 -0.10078125E+002
        319  0.00000000E+000
        320 -0.53281250E+001
        321 -0.10312500E+002
        322  0.00000000E+000
        323  0.00000000E+000
        324  0.00000000E+000
        325  0.00000000E+000
        326  0.00000000E+000
        327 -0.36562500E+001
        328 -0.58437500E+001
        329 -0.39375000E+001
        330 -0.14906250E+002
        331 -0.12250000E+002
        332 -0.51562500E+001
        333 -0.17812500E+001
        334 -0.96250000E+001
        335 -0.85312500E+001
        336 -0.11250000E+002
        337 -0.33750000E+001
        338 -0.43750000E+001
        339 -0.28750000E+001
        340 -0.18750000E+001
        341 -0.14625000E+002
        342  0.00000000E+000
        343  0.00000000E+000
        344  0.00000000E+000
        345 -0.10546875E+002
        346  0.00000000E+000
        347  0.00000000E+000
        348  0.00000000E+000
        349  0.00000000E+000
        350  0.00000000E+000
        351  0.00000000E+000
        352  0.00000000E+000
        353 -0.22968750E+001
        354 -0.81250000E+001
        355  0.00000000E+000
        356  0.00000000E+000
        357 -0.98437500E+001
        358  0.00000000E+000
        359  0.00000000E+000
        360 -0.24062500E+001
        361  0.00000000E+000
        362 -0.73125000E+001
        363 -0.65625000E+001
        364 -0.73125000E+001
        365 -0.61875000E+001
        366  0.00000000E+000
        367 -0.45312500E+001
        368 -0.16875000E+001
        369 -0.63750000E+001
        370  0.00000000E+000
        371  0.00000000E+000
        372 -0.14343750E+002
        373 -0.19687500E+001
        374 -0.15187500E+002
        375 -0.13015625E+002
        376 -0.35156250E+001
        377 -0.40781250E+001
        378 -0.43750000E+001
        379  0.00000000E+000
        380 -0.87500000E+001
        381  0.00000000E+000
        382  0.00000000E+000
        383  0.00000000E+000
        384  0.00000000E+000
        385  0.00000000E+000
        386 -0.46875000E+001
        387 -0.60156250E+001
        388  0.00000000E+000
        389  0.00000000E+000
        390  0.00000000E+000
        391  0.00000000E+000
        392  0.00000000E+000
        393 -0.25156250E+001
        394  0.00000000E+000
        395 -0.51562500E+001
        396 -0.12750000E+002
        397 -0.21875000E+001
        398 -0.13281250E+002
        399 -0.89687500E+001
        400 -0.85312500E+001
        401 -0.61875000E+001
        402 -0.28750000E+001
        403 -0.67500000E+001
        404 -0.30000000E+001
        405  0.00000000E+000
        406  0.00000000E+000
        407  0.00000000E+000
        408  0.00000000E+000
        409  0.00000000E+000
        410  0.00000000E+000
        411  0.00000000E+000
        412  0.00000000E+000
        413  0.00000000E+000
        414  0.00000000E+000
        415  0.00000000E+000
        416  0.00000000E+000
        417 -0.10781250E+002
        418 -0.96093750E+001
        419 -0.12500000E+001
        420 -0.11250000E+002
        421 -0.48437500E+001
        422 -0.42187500E+001
        423  0.00000000E+000
        424  0.00000000E+000
        425  0.00000000E+000
        426  0.00000000E+000
        427 -0.31250000E+001
        428  0.00000000E+000
        429  0.00000000E+000
        430  0.00000000E+000
        431  0.00000000E+000
        432  0.00000000E+000
        433 -0.27500000E+001
        434  0.00000000E+000
        435  0.00000000E+000
        436  0.00000000E+000
        437 -0.11500000E+002
        438 -0.13546875E+002
        439 -0.53281250E+001
        440 -0.71093750E+001
        441 -0.83281250E+001
        442 -0.11718750E+001
        443 -0.13281250E+001
        444 -0.12484375E+002
        445 -0.91875000E+001
        446 -0.83125000E+001
        447 -0.16875000E+001
        448 -0.75156250E+001
        449  0.00000000E+000
        450  0.00000000E+000
        451 -0.55000000E+001
        452  0.00000000E+000
        453  0.00000000E+000
        454 -0.35156250E+001
        455 -0.51562500E+001
        456 -0.73125000E+001
        457  0.00000000E+000
        458  0.00000000E+000
        459 -0.36562500E+001
        460 -0.11750000E+002
        461 -0.15937500E+001
        462 -0.69375000E+001
        463 -0.17812500E+001
        464 -0.60000000E+001
        465 -0.11000000E+002
        466  0.00000000E+000
        467  0.00000000E+000
        468  0.00000000E+000
        469  0.00000000E+000
        470  0.00000000E+000
        471  0.00000000E+000
        472 -0.71093750E+001
        473 -0.37968750E+001
        474  0.00000000E+000
        475 -0.77187500E+001
        476  0.00000000E+000
        477  0.00000000E+000
        478  0.00000000E+000
        479  0.00000000E+000
        480 -0.33750000E+001
        481  0.00000000E+000
        482 -0.21875000E+001
        483 -0.98437500E+001
        484  0.00000000E+000
        485  0.00000000E+000
        486  0.00000000E+000
        487 -0.49843750E+001
        488 -0.10078125E+002
        489 -0.96093750E+001
        490 -0.56718750E+001
        491 -0.20781250E+001
        492 -0.22968750E+001
        493  0.00000000E+000
        494  0.00000000E+000
        495  0.00000000E+000
        496  0.00000000E+000
        497  0.00000000E+000
        498  0.00000000E+000
        499  0.00000000E+000
        500  0.00000000E+000
        501  0.00000000E+000
        502  0.00000000E+000
        503  0.00000000E+000
        504  0.00000000E+000
        505 -0.94062500E+001
        506 -0.61875000E+001
        507 -0.42187500E+001
        508 -0.80937500E+001
        509 -0.81250000E+000
        510 -0.43750000E+001
        511 -0.10750000E+002
        512 -0.75000000E+000
        513 -0.12000000E+002
        514 -0.63750000E+001
        515 -0.60000000E+001
        516 -0.27500000E+001
        517 -0.79218750E+001
        518  0.00000000E+000
        519  0.00000000E+000
        520  0.00000000E+000
        521  0.00000000E+000
        522  0.00000000E+000
        523  0.00000000E+000
        524  0.00000000E+000
        525 -0.69062500E+001
        526  0.00000000E+000
        527  0.00000000E+000
        528 -0.11718750E+001
        529  0.00000000E+000
        530  0.00000000E+000
        531 -0.93750000E+001
        532  0.00000000E+000
        533 -0.10937500E+001
        534 -0.10312500E+002
        535 -0.85312500E+001
        536 -0.28750000E+001
        537  0.00000000E+000
        538  0.00000000E+000
        539 -0.40625000E+001
        540  0.00000000E+000
        541 -0.26250000E+001
        542  0.00000000E+000
        543  0.00000000E+000
        544  0.00000000E+000
        545 -0.45312500E+001
        546 -0.83125000E+001
        547  0.00000000E+000
        548  0.00000000E+000
        549  0.00000000E+000
        550  0.00000000E+000
        551  0.00000000E+000
        552  0.00000000E+000
        553 -0.80937500E+001
        554 -0.65625000E+001
        555 -0.58125000E+001
        556 -0.15937500E+001
        557 -0.87500000E+001
        558 -0.15000000E+001
        559  0.00000000E+000
        560  0.00000000E+000
        561  0.00000000E+000
        562 -0.49843750E+001
        563 -0.33750000E+001
        564 -0.51562500E+001
        565  0.00000000E+000
        566  0.00000000E+000
        567  0.00000000E+000
        568  0.00000000E+000
        569  0.00000000E+000
        570  0.00000000E+000
        571  0.00000000E+000
        572  0.00000000E+000
        573  0.00000000E+000
        574 -0.10546875E+002
        575 -0.71093750E+001
        576 -0.32343750E+001
        577 -0.35156250E+001
        578 -0.42187500E+000
        579 -0.91406250E+001
        580  0.00000000E+000
        581  0.00000000E+000
        582  0.00000000E+000
        583  0.00000000E+000
        584  0.00000000E+000
        585  0.00000000E+000
        586 -0.53281250E+001
        587 -0.20781250E+001
        588  0.00000000E+000
        589  0.00000000E+000
        590  0.00000000E+000
        591  0.00000000E+000
        592 -0.48125000E+001
        593  0.00000000E+000
        594  0.00000000E+000
        595 -0.19687500E+001
        596 -0.73125000E+001
        597 -0.69062500E+001
        598 -0.89687500E+001
        599 -0.78750000E+001
        600 -0.68750000E+000
        601  0.00000000E+000
        602  0.00000000E+000
        603  0.00000000E+000
        604  0.00000000E+000
        605  0.00000000E+000
        606  0.00000000E+000
        607  0.00000000E+000
        608  0.00000000E+000
        609  0.00000000E+000
        610  0.00000000E+000
        611  0.00000000E+000
        612  0.00000000E+000
        613 -0.75156250E+001
        614 -0.67031250E+001
        615 -0.10156250E+001
        616 -0.40625000E+001
        617  0.00000000E+000
        618  0.00000000E+000
        619  0.00000000E+000
        620  0.00000000E+000
        621  0.00000000E+000
        622  0.00000000E+000
        623 -0.58125000E+001
        624 -0.42187500E+001
        625 -0.39062500E+001
        626 -0.25000000E+001
        627 -0.26250000E+001
        628 -0.60000000E+001
        629  0.00000000E+000
        630  0.00000000E+000
        631  0.00000000E+000
        632  0.00000000E+000
        633  0.00000000E+000
        634  0.00000000E+000
        635 -0.61875000E+001
        636  0.00000000E+000
        637 -0.14062500E+001
        638  0.00000000E+000
        639  0.00000000E+000
        640  0.00000000E+000
        641  0.00000000E+000
        642  0.00000000E+000
        643  0.00000000E+000
        644  0.00000000E+000
        645 -0.56250000E+001
        646  0.00000000E+000
        647  0.00000000E+000
        648  0.00000000E+000
        649  0.00000000E+000
        650  0.00000000E+000
        651  0.00000000E+000
        652  0.00000000E+000
        653  0.00000000E+000
        654  0.00000000E+000
        655  0.00000000E+000
        656  0.00000000E+000
        657  0.00000000E+000
        658  0.00000000E+000
        659 -0.32343750E+001
        660 -0.30937500E+001
        661 -0.48125000E+001
        662  0.00000000E+000
        663  0.00000000E+000
        664  0.00000000E+000
        665  0.00000000E+000
        666  0.00000000E+000
        667  0.00000000E+000
        668 -0.49843750E+001
        669 -0.46406250E+001
        670 -0.18593750E+001
        671  0.00000000E+000
        672  0.00000000E+000
        673  0.00000000E+000
        674  0.00000000E+000
        675  0.00000000E+000
        676  0.00000000E+000
        677  0.00000000E+000
        678  0.00000000E+000
        679  0.00000000E+000
        680  0.00000000E+000
        681  0.00000000E+000
        682  0.00000000E+000
        683  0.00000000E+000
        684  0.00000000E+000
        685  0.00000000E+000
        686  0.00000000E+000
        687  0.00000000E+000
        688  0.00000000E+000
        689  0.00000000E+000
        690  0.00000000E+000
        691  0.00000000E+000
        692 -0.39062500E+001
        693 -0.23750000E+001
        694 -0.37500000E+001
        695  0.00000000E+000
        696  0.00000000E+000
        697  0.00000000E+000
        698  0.00000000E+000
        699  0.00000000E+000
        700  0.00000000E+000
        701  0.00000000E+000
        702  0.00000000E+000
        703  0.00000000E+000
        704  0.00000000E+000
        705  0.00000000E+000
        706  0.00000000E+000
        707  0.00000000E+000
        708  0.00000000E+000
        709  0.00000000E+000
        710 -0.29531250E+001
        711  0.00000000E+000
        712  0.00000000E+000
        713  0.00000000E+000
        714  0.00000000E+000
        715  0.00000000E+000
        716  0.00000000E+000
        717  0.00000000E+000
        718  0.00000000E+000
        719  0.00000000E+000
        720  0.00000000E+000
        721  0.00000000E+000
        722  0.00000000E+000
        723  0.00000000E+000
        724  0.00000000E+000
        725  0.00000000E+000
        726  0.00000000E+000
        727  0.00000000E+000
        728  0.00000000E+000
        729  0.00000000E+000
End values

Result TEMPE ALYA  0.10000000E+00 Scalar OnNodes
ComponentNames TEMPE
Values
          1  0.14000000E+002
          2  0.15406250E+002
          3  0.12421875E+002
          4  0.12187500E+002
          5  0.13500000E+002
          6  0.10718750E+002
          7  0.13750000E+002
          8  0.11953125E+002
          9  0.10500000E+002
         10  0.16875000E+002
         11  0.10937500E+002
         12  0.12187500E+002
         13  0.14875000E+002
         14  0.91406250E+001
         15  0.11718750E+002
         16  0.93437500E+001
         17  0.15140625E+002
         18  0.10500000E+002
         19  0.10281250E+002
         20  0.13250000E+002
         21  0.13500000E+002
         22  0.13000000E+002
         23  0.78750000E+001
         24  0.11718750E+002
         25  0.18406250E+002
         26  0.89375000E+001
         27  0.95468750E+001
         28  0.89375000E+001
         29  0.11484375E+002
         30  0.10062500E+002
         31  0.16312500E+002
         32  0.80625000E+001
         33  0.76875000E+001
         34  0.10718750E+002
         35  0.16593750E+002
         36  0.91406250E+001
         37  0.87343750E+001
         38  0.14609375E+002
         39  0.10062500E+002
         40  0.11953125E+002
         41  0.67031250E+001
         42  0.65312500E+001
         43  0.11250000E+002
         44  0.14343750E+002
         45  0.14875000E+002
         46  0.75000000E+001
         47  0.76875000E+001
         48  0.98437500E+001
         49  0.12750000E+002
         50  0.10281250E+002
         51  0.13000000E+002
         52  0.20000000E+002
         53  0.82500000E+001
         54  0.75000000E+001
         55  0.93437500E+001
         56  0.63593750E+001
         57  0.85312500E+001
         58  0.68750000E+001
         59  0.85312500E+001
         60  0.17812500E+002
         61  0.18109375E+002
         62  0.11250000E+002
         63  0.87343750E+001
         64  0.13250000E+002
         65  0.78750000E+001
         66  0.73125000E+001
         67  0.12500000E+002
         68  0.54687500E+001
         69  0.16031250E+002
         70  0.11484375E+002
         71  0.63593750E+001
         72  0.11015625E+002
         73  0.96250000E+001
         74  0.15750000E+002
         75  0.53125000E+001
         76  0.56250000E+001
         77  0.16312500E+002
         78  0.10500000E+002
         79  0.14078125E+002
         80  0.61875000E+001
         81  0.65312500E+001
         82  0.14343750E+002
         83  0.83281250E+001
         84  0.89375000E+001
         85  0.98437500E+001
         86  0.96250000E+001
         87  0.73125000E+001
         88  0.71250000E+001
         89  0.12500000E+002
         90  0.75000000E+001
         91  0.14609375E+002
         92  0.13812500E+002
         93  0.45000000E+001
         94  0.61875000E+001
         95  0.10781250E+002
         96  0.21656250E+002
         97  0.70468750E+001
         98  0.43593750E+001
         99  0.11718750E+002
        100  0.12750000E+002
        101  0.19687500E+002
        102  0.53125000E+001
        103  0.12250000E+002
        104  0.51562500E+001
        105  0.57812500E+001
        106  0.19375000E+002
        107  0.71250000E+001
        108  0.51562500E+001
        109  0.80625000E+001
        110  0.94062500E+001
        111  0.10062500E+002
        112  0.67031250E+001
        113  0.83281250E+001
        114  0.17515625E+002
        115  0.60156250E+001
        116  0.11015625E+002
        117  0.42187500E+001
        118  0.46406250E+001
        119  0.60156250E+001
        120  0.81250000E+001
        121  0.17218750E+002
        122  0.91406250E+001
        123  0.85312500E+001
        124  0.10781250E+002
        125  0.81250000E+001
        126  0.61875000E+001
        127  0.17812500E+002
        128  0.54687500E+001
        129  0.15468750E+002
        130  0.50000000E+001
        131  0.69375000E+001
        132  0.76875000E+001
        133  0.15750000E+002
        134  0.13000000E+002
        135  0.12000000E+002
        136  0.35000000E+001
        137  0.58437500E+001
        138  0.11250000E+002
        139  0.10546875E+002
        140  0.42187500E+001
        141  0.63593750E+001
        142  0.13812500E+002
        143  0.16031250E+002
        144  0.94062500E+001
        145  0.69375000E+001
        146  0.10281250E+002
        147  0.36250000E+001
        148  0.91875000E+001
        149  0.33750000E+001
        150  0.15187500E+002
        151  0.71250000E+001
        152  0.14078125E+002
        153  0.87343750E+001
        154  0.43593750E+001
        155  0.40781250E+001
        156  0.13546875E+002
        157  0.79218750E+001
        158  0.96250000E+001
        159  0.59375000E+001
        160  0.23375000E+002
        161  0.50000000E+001
        162  0.91875000E+001
        163  0.50000000E+001
        164  0.40781250E+001
        165  0.21328125E+002
        166  0.58437500E+001
        167  0.21000000E+002
        168  0.47812500E+001
        169  0.68750000E+001
        170  0.12250000E+002
        171  0.73125000E+001
        172  0.48437500E+001
        173  0.19062500E+002
        174  0.48437500E+001
        175  0.67500000E+001
        176  0.51562500E+001
        177  0.12000000E+002
        178  0.56250000E+001
        179  0.37500000E+001
        180  0.19375000E+002
        181  0.18750000E+002
        182  0.32500000E+001
        183  0.67500000E+001
        184  0.78750000E+001
        185  0.79218750E+001
        186  0.17218750E+002
        187  0.13281250E+002
        188  0.81250000E+001
        189  0.16921875E+002
        190  0.11484375E+002
        191  0.14343750E+002
        192  0.27343750E+001
        193  0.39375000E+001
        194  0.26250000E+001
        195  0.10312500E+002
        196  0.58437500E+001
        197  0.56718750E+001
        198  0.65312500E+001
        199  0.45000000E+001
        200  0.33750000E+001
        201  0.32500000E+001
        202  0.98437500E+001
        203  0.12500000E+002
        204  0.89687500E+001
        205  0.11750000E+002
        206  0.10546875E+002
        207  0.60156250E+001
        208  0.56718750E+001
        209  0.15187500E+002
        210  0.46875000E+001
        211  0.53125000E+001
        212  0.17515625E+002
        213  0.77187500E+001
        214  0.28437500E+001
        215  0.10781250E+002
        216  0.25156250E+001
        217  0.83281250E+001
        218  0.16625000E+002
        219  0.40781250E+001
        220  0.77187500E+001
        221  0.39375000E+001
        222  0.10312500E+002
        223  0.89375000E+001
        224  0.15468750E+002
        225  0.14906250E+002
        226  0.31250000E+001
        227  0.65625000E+001
        228  0.35000000E+001
        229  0.75000000E+001
        230  0.67500000E+001
        231  0.13546875E+002
        232  0.25156250E+002
        233  0.13281250E+002
        234  0.39375000E+001
        235  0.49218750E+001
        236  0.55000000E+001
        237  0.37968750E+001
        238  0.42187500E+001
        239  0.61875000E+001
        240  0.89687500E+001
        241  0.12750000E+002
        242  0.65625000E+001
        243  0.48437500E+001
        244  0.46875000E+001
        245  0.31250000E+001
        246  0.22687500E+002
        247  0.91875000E+001
        248  0.19687500E+001
        249  0.38750000E+001
        250  0.69375000E+001
        251  0.57812500E+001
        252  0.11500000E+002
        253  0.46875000E+001
        254  0.23031250E+002
        255  0.11015625E+002
        256  0.25156250E+001
        257  0.10078125E+002
        258  0.46406250E+001
        259  0.37968750E+001
        260  0.20671875E+002
        261  0.20625000E+001
        262  0.15750000E+002
        263  0.87500000E+001
        264  0.14625000E+002
        265  0.18750000E+001
        266  0.10062500E+002
        267  0.29531250E+001
        268  0.20343750E+002
        269  0.13812500E+002
        270  0.24062500E+001
        271  0.55000000E+001
        272  0.13015625E+002
        273  0.75156250E+001
        274  0.67031250E+001
        275  0.24062500E+001
        276  0.85312500E+001
        277  0.26250000E+001
        278  0.21000000E+002
        279  0.11750000E+002
        280  0.94062500E+001
        281  0.45312500E+001
        282  0.36250000E+001
        283  0.30000000E+001
        284  0.54687500E+001
        285  0.31250000E+001
        286  0.18437500E+002
        287  0.45312500E+001
        288  0.18750000E+002
        289  0.87500000E+001
        290  0.50000000E+001
        291  0.11500000E+002
        292  0.12000000E+002
        293  0.63750000E+001
        294  0.30000000E+001
        295  0.32500000E+001
        296  0.71250000E+001
        297  0.77187500E+001
        298  0.43593750E+001
        299  0.56718750E+001
        300  0.55000000E+001
        301  0.36562500E+001
        302  0.16625000E+002
        303  0.19062500E+002
        304  0.76875000E+001
        305  0.63750000E+001
        306  0.17812500E+001
        307  0.21562500E+001
        308  0.18125000E+002
        309  0.75156250E+001
        310  0.16921875E+002
        311  0.79218750E+001
        312  0.63593750E+001
        313  0.37968750E+001
        314  0.27343750E+001
        315  0.22968750E+001
        316  0.53281250E+001
        317  0.16328125E+002
        318  0.10078125E+002
        319  0.14078125E+002
        320  0.53281250E+001
        321  0.10312500E+002
        322  0.11250000E+002
        323  0.98437500E+001
        324  0.13281250E+001
        325  0.12750000E+002
        326  0.14062500E+001
        327  0.36562500E+001
        328  0.58437500E+001
        329  0.39375000E+001
        330  0.14906250E+002
        331  0.12250000E+002
        332  0.51562500E+001
        333  0.17812500E+001
        334  0.96250000E+001
        335  0.85312500E+001
        336  0.11250000E+002
        337  0.33750000E+001
        338  0.43750000E+001
        339  0.28750000E+001
        340  0.18750000E+001
        341  0.14625000E+002
        342  0.40000000E+001
        343  0.30000000E+001
        344  0.27000000E+002
        345  0.10546875E+002
        346  0.87343750E+001
        347  0.73125000E+001
        348  0.24437500E+002
        349  0.36562500E+001
        350  0.47812500E+001
        351  0.12500000E+001
        352  0.24796875E+002
        353  0.22968750E+001
        354  0.81250000E+001
        355  0.14843750E+001
        356  0.22968750E+001
        357  0.98437500E+001
        358  0.30625000E+001
        359  0.16031250E+002
        360  0.24062500E+001
        361  0.17218750E+002
        362  0.73125000E+001
        363  0.65625000E+001
        364  0.73125000E+001
        365  0.61875000E+001
        366  0.37500000E+001
        367  0.45312500E+001
        368  0.16875000E+001
        369  0.63750000E+001
        370  0.22343750E+002
        371  0.28750000E+001
        372  0.14343750E+002
        373  0.19687500E+001
        374  0.15187500E+002
        375  0.13015625E+002
        376  0.35156250E+001
        377  0.40781250E+001
        378  0.43750000E+001
        379  0.22500000E+001
        380  0.87500000E+001
        381  0.22687500E+002
        382  0.56250000E+001
        383  0.16875000E+001
        384  0.43750000E+001
        385  0.22000000E+002
        386  0.46875000E+001
        387  0.60156250E+001
        388  0.28437500E+001
        389  0.45000000E+001
        390  0.21875000E+001
        391  0.20343750E+002
        392  0.35156250E+001
        393  0.25156250E+001
        394  0.20015625E+002
        395  0.51562500E+001
        396  0.12750000E+002
        397  0.21875000E+001
        398  0.13281250E+002
        399  0.89687500E+001
        400  0.85312500E+001
        401  0.61875000E+001
        402  0.28750000E+001
        403  0.67500000E+001
        404  0.30000000E+001
        405  0.12500000E+002
        406  0.11000000E+002
        407  0.35000000E+001
        408  0.18125000E+002
        409  0.87500000E+000
        410  0.27500000E+001
        411  0.65312500E+001
        412  0.15625000E+001
        413  0.11718750E+001
        414  0.19687500E+002
        415  0.20671875E+002
        416  0.51562500E+001
        417  0.10781250E+002
        418  0.96093750E+001
        419  0.12500000E+001
        420  0.11250000E+002
        421  0.48437500E+001
        422  0.42187500E+001
        423  0.15468750E+002
        424  0.98437500E+001
        425  0.53125000E+001
        426  0.83125000E+001
        427  0.31250000E+001
        428  0.14062500E+002
        429  0.93750000E+000
        430  0.20625000E+001
        431  0.15937500E+001
        432  0.42187500E+001
        433  0.27500000E+001
        434  0.18437500E+002
        435  0.81250000E+000
        436  0.17812500E+002
        437  0.11500000E+002
        438  0.13546875E+002
        439  0.53281250E+001
        440  0.71093750E+001
        441  0.83281250E+001
        442  0.11718750E+001
        443  0.13281250E+001
        444  0.12484375E+002
        445  0.91875000E+001
        446  0.83125000E+001
        447  0.16875000E+001
        448  0.75156250E+001
        449  0.16328125E+002
        450  0.16031250E+002
        451  0.55000000E+001
        452  0.20781250E+001
        453  0.33750000E+001
        454  0.35156250E+001
        455  0.51562500E+001
        456  0.73125000E+001
        457  0.26250000E+001
        458  0.42187500E+001
        459  0.36562500E+001
        460  0.11750000E+002
        461  0.15937500E+001
        462  0.69375000E+001
        463  0.17812500E+001
        464  0.60000000E+001
        465  0.11000000E+002
        466  0.10000000E+001
        467  0.18750000E+002
        468  0.60000000E+001
        469  0.75000000E+001
        470  0.17500000E+002
        471  0.75000000E+000
        472  0.71093750E+001
        473  0.37968750E+001
        474  0.10937500E+001
        475  0.77187500E+001
        476  0.49843750E+001
        477  0.14062500E+001
        478  0.15734375E+002
        479  0.61875000E+001
        480  0.33750000E+001
        481  0.16625000E+002
        482  0.21875000E+001
        483  0.98437500E+001
        484  0.26250000E+001
        485  0.14343750E+002
        486  0.32500000E+001
        487  0.49843750E+001
        488  0.10078125E+002
        489  0.96093750E+001
        490  0.56718750E+001
        491  0.20781250E+001
        492  0.22968750E+001
        493  0.15000000E+001
        494  0.14625000E+002
        495  0.18750000E+001
        496  0.40625000E+001
        497  0.14062500E+002
        498  0.50000000E+001
        499  0.11015625E+002
        500  0.46875000E+000
        501  0.51562500E+000
        502  0.93750000E+001
        503  0.12218750E+002
        504  0.13812500E+002
        505  0.94062500E+001
        506  0.61875000E+001
        507  0.42187500E+001
        508  0.80937500E+001
        509  0.81250000E+000
        510  0.43750000E+001
        511  0.10750000E+002
        512  0.75000000E+000
        513  0.12000000E+002
        514  0.63750000E+001
        515  0.60000000E+001
        516  0.27500000E+001
        517  0.79218750E+001
        518  0.32343750E+001
        519  0.12750000E+002
        520  0.69062500E+001
        521  0.85312500E+001
        522  0.19687500E+001
        523  0.39375000E+001
        524  0.42187500E+000
        525  0.69062500E+001
        526  0.15437500E+002
        527  0.16921875E+002
        528  0.11718750E+001
        529  0.56250000E+000
        530  0.24062500E+001
        531  0.93750000E+001
        532  0.12484375E+002
        533  0.10937500E+001
        534  0.10312500E+002
        535  0.85312500E+001
        536  0.28750000E+001
        537  0.13781250E+002
        538  0.68750000E+000
        539  0.40625000E+001
        540  0.58125000E+001
        541  0.26250000E+001
        542  0.71250000E+001
        543  0.14906250E+002
        544  0.87500000E+000
        545  0.45312500E+001
        546  0.83125000E+001
        547  0.10156250E+001
        548  0.58437500E+001
        549  0.12218750E+002
        550  0.12500000E+001
        551  0.13015625E+002
        552  0.48125000E+001
        553  0.80937500E+001
        554  0.65625000E+001
        555  0.58125000E+001
        556  0.15937500E+001
        557  0.87500000E+001
        558  0.15000000E+001
        559  0.25000000E+001
        560  0.11000000E+002
        561  0.30000000E+001
        562  0.49843750E+001
        563  0.33750000E+001
        564  0.51562500E+001
        565  0.12250000E+002
        566  0.39062500E+001
        567  0.46875000E+001
        568  0.10750000E+002
        569  0.16875000E+001
        570  0.11250000E+002
        571  0.14062500E+001
        572  0.10500000E+002
        573  0.21875000E+000
        574  0.10546875E+002
        575  0.71093750E+001
        576  0.32343750E+001
        577  0.35156250E+001
        578  0.42187500E+000
        579  0.91406250E+001
        580  0.13500000E+002
        581  0.96250000E+001
        582  0.15187500E+002
        583  0.25000000E+000
        584  0.18750000E+000
        585  0.78750000E+001
        586  0.53281250E+001
        587  0.20781250E+001
        588  0.13281250E+002
        589  0.67031250E+001
        590  0.11953125E+002
        591  0.46875000E+000
        592  0.48125000E+001
        593  0.81250000E+001
        594  0.37500000E+000
        595  0.19687500E+001
        596  0.73125000E+001
        597  0.69062500E+001
        598  0.89687500E+001
        599  0.78750000E+001
        600  0.68750000E+000
        601  0.10500000E+002
        602  0.56250000E+001
        603  0.75000000E+000
        604  0.11500000E+002
        605  0.67500000E+001
        606  0.62500000E+000
        607  0.21875000E+001
        608  0.93750000E+001
        609  0.36562500E+001
        610  0.30937500E+001
        611  0.18593750E+001
        612  0.96093750E+001
        613  0.75156250E+001
        614  0.67031250E+001
        615  0.10156250E+001
        616  0.40625000E+001
        617  0.46406250E+001
        618  0.10937500E+001
        619  0.98437500E+001
        620  0.91406250E+001
        621  0.55000000E+001
        622  0.93750000E+000
        623  0.58125000E+001
        624  0.42187500E+001
        625  0.39062500E+001
        626  0.25000000E+001
        627  0.26250000E+001
        628  0.60000000E+001
        629  0.13546875E+002
        630  0.46875000E-001
        631  0.62500000E-001
        632  0.89062500E+001
        633  0.10781250E+002
        634  0.11687500E+002
        635  0.61875000E+001
        636  0.23750000E+001
        637  0.14062500E+001
        638  0.11750000E+002
        639  0.91875000E+001
        640  0.80937500E+001
        641  0.18750000E+000
        642  0.10250000E+002
        643  0.27500000E+001
        644  0.15625000E+000
        645  0.56250000E+001
        646  0.76562500E+001
        647  0.78750000E+001
        648  0.15000000E+001
        649  0.37500000E+001
        650  0.43750000E+001
        651  0.83125000E+001
        652  0.13125000E+001
        653  0.32812500E+000
        654  0.77187500E+001
        655  0.89062500E+001
        656  0.37500000E+000
        657  0.10078125E+002
        658  0.65000000E+001
        659  0.32343750E+001
        660  0.30937500E+001
        661  0.48125000E+001
        662  0.54375000E+001
        663  0.62500000E+000
        664  0.63750000E+001
        665  0.76562500E+001
        666  0.85312500E+001
        667  0.56250000E+000
        668  0.49843750E+001
        669  0.46406250E+001
        670  0.18593750E+001
        671  0.29531250E+001
        672  0.69062500E+001
        673  0.67031250E+001
        674  0.33750000E+001
        675  0.17500000E+001
        676  0.19687500E+001
        677  0.00000000E+000
        678  0.12000000E+002
        679  0.10000000E+002
        680  0.85937500E+000
        681  0.31250000E-001
        682  0.71093750E+001
        683  0.93750000E+000
        684  0.10312500E+002
        685  0.65000000E+001
        686  0.51562500E+001
        687  0.86718750E+001
        688  0.44687500E+001
        689  0.74375000E+001
        690  0.12500000E+000
        691  0.87500000E+001
        692  0.39062500E+001
        693  0.23750000E+001
        694  0.37500000E+001
        695  0.25000000E+001
        696  0.56250000E+001
        697  0.22500000E+001
        698  0.73125000E+001
        699  0.28125000E+000
        700  0.62968750E+001
        701  0.40625000E+001
        702  0.12187500E+001
        703  0.35937500E+001
        704  0.54375000E+001
        705  0.13125000E+001
        706  0.58125000E+001
        707  0.50000000E+000
        708  0.52500000E+001
        709  0.60000000E+001
        710  0.29531250E+001
        711  0.16406250E+001
        712  0.28125000E+001
        713  0.30937500E+001
        714  0.46406250E+001
        715  0.44687500E+001
        716  0.17500000E+001
        717  0.78125000E+000
        718  0.42968750E+001
        719  0.48125000E+001
        720  0.21250000E+001
        721  0.22500000E+001
        722  0.35937500E+001
        723  0.37500000E+001
        724  0.34375000E+001
        725  0.11250000E+001
        726  0.26718750E+001
        727  0.28125000E+001
        728  0.15312500E+001
        729  0.20000000E+001
End values

Result ERROR ALYA  0.10000000E+00 Scalar OnNodes
ComponentNames ERROR
Values
          1  0.00000000E+000
          2  0.00000000E+000
          3  0.00000000E+000
          4  0.00000000E+000
          5  0.00000000E+000
          6  0.00000000E+000
          7  0.00000000E+000
          8 -0.20428104E-012
          9  0.00000000E+000
         10  0.00000000E+000
         11  0.00000000E+000
         12  0.00000000E+000
         13  0.00000000E+000
         14  0.00000000E+000
         15  0.00000000E+000
         16  0.00000000E+000
         17  0.00000000E+000
         18 -0.33750780E-012
         19 -0.36060044E-012
         20 -0.31086245E-012
         21  0.00000000E+000
         22  0.00000000E+000
         23  0.00000000E+000
         24 -0.53823612E-012
         25  0.00000000E+000
         26  0.00000000E+000
         27  0.00000000E+000
         28 -0.58975047E-012
         29 -0.56132876E-012
         30  0.00000000E+000
         31  0.00000000E+000
         32  0.00000000E+000
         33  0.00000000E+000
         34  0.00000000E+000
         35  0.00000000E+000
         36 -0.31796787E-012
         37 -0.38902215E-012
         38 -0.31263880E-012
         39 -0.84376950E-012
         40  0.00000000E+000
         41  0.00000000E+000
         42  0.00000000E+000
         43  0.00000000E+000
         44  0.00000000E+000
         45  0.00000000E+000
         46 -0.63771211E-012
         47 -0.56399330E-012
         48 -0.60751404E-012
         49 -0.54534155E-012
         50 -0.52047255E-012
         51 -0.53113069E-012
         52  0.00000000E+000
         53  0.00000000E+000
         54  0.00000000E+000
         55  0.00000000E+000
         56  0.00000000E+000
         57 -0.96456176E-012
         58  0.00000000E+000
         59  0.00000000E+000
         60  0.00000000E+000
         61  0.00000000E+000
         62 -0.90594199E-012
         63 -0.87574392E-012
         64  0.00000000E+000
         65 -0.22559732E-012
         66 -0.34994230E-012
         67  0.00000000E+000
         68  0.00000000E+000
         69 -0.25224267E-012
         70 -0.52757798E-012
         71 -0.56399330E-012
         72 -0.59685590E-012
         73  0.00000000E+000
         74  0.00000000E+000
         75  0.00000000E+000
         76  0.00000000E+000
         77  0.00000000E+000
         78  0.00000000E+000
         79 -0.45830006E-012
         80 -0.56221694E-012
         81 -0.38813397E-012
         82 -0.42632564E-012
         83 -0.54711791E-012
         84 -0.41389114E-012
         85 -0.90594199E-012
         86 -0.99475983E-012
         87 -0.92814645E-012
         88 -0.86952667E-012
         89 -0.77271523E-012
         90 -0.68567374E-012
         91  0.00000000E+000
         92  0.00000000E+000
         93  0.00000000E+000
         94  0.00000000E+000
         95  0.00000000E+000
         96  0.00000000E+000
         97  0.00000000E+000
         98  0.00000000E+000
         99  0.00000000E+000
        100 -0.40500936E-012
        101  0.00000000E+000
        102 -0.42099657E-012
        103 -0.49205084E-012
        104  0.00000000E+000
        105  0.00000000E+000
        106  0.00000000E+000
        107  0.00000000E+000
        108 -0.52047255E-012
        109  0.00000000E+000
        110 -0.49737992E-012
        111 -0.37836401E-012
        112 -0.14299673E-012
        113 -0.95923269E-012
        114 -0.23447910E-012
        115 -0.25934810E-012
        116 -0.73008266E-012
        117  0.00000000E+000
        118  0.00000000E+000
        119 -0.85798035E-012
        120  0.00000000E+000
        121  0.00000000E+000
        122  0.00000000E+000
        123 -0.69455552E-012
        124 -0.83133500E-012
        125 -0.85087493E-012
        126 -0.74429352E-012
        127  0.00000000E+000
        128 -0.26822988E-012
        129 -0.39079850E-012
        130 -0.44586557E-012
        131 -0.38191672E-012
        132 -0.25934810E-012
        133 -0.32684966E-012
        134  0.00000000E+000
        135  0.00000000E+000
        136  0.00000000E+000
        137 -0.61106675E-012
        138 -0.22026825E-012
        139 -0.38546943E-012
        140 -0.35615955E-012
        141 -0.42987836E-012
        142 -0.57021055E-012
        143  0.00000000E+000
        144 -0.83133500E-012
        145 -0.90505381E-012
        146  0.00000000E+000
        147  0.00000000E+000
        148  0.00000000E+000
        149  0.00000000E+000
        150  0.00000000E+000
        151 -0.79669604E-012
        152 -0.30375702E-012
        153 -0.19717561E-012
        154 -0.24424907E-012
        155 -0.36237680E-012
        156 -0.44053650E-012
        157 -0.30020431E-012
        158 -0.51869620E-012
        159  0.00000000E+000
        160  0.00000000E+000
        161  0.00000000E+000
        162 -0.76560980E-012
        163 -0.65991657E-012
        164  0.00000000E+000
        165  0.00000000E+000
        166  0.00000000E+000
        167  0.00000000E+000
        168  0.00000000E+000
        169  0.00000000E+000
        170 -0.47428728E-012
        171 -0.39257486E-012
        172 -0.20250468E-012
        173 -0.15987212E-012
        174 -0.58886229E-012
        175 -0.56044058E-012
        176 -0.46451731E-012
        177 -0.61284311E-012
        178 -0.14654944E-012
        179  0.00000000E+000
        180  0.00000000E+000
        181  0.00000000E+000
        182  0.00000000E+000
        183  0.00000000E+000
        184  0.00000000E+000
        185 -0.77982065E-012
        186 -0.21671553E-012
        187  0.00000000E+000
        188 -0.58797411E-012
        189 -0.27711167E-012
        190  0.00000000E+000
        191  0.00000000E+000
        192  0.00000000E+000
        193 -0.35971226E-012
        194  0.00000000E+000
        195  0.00000000E+000
        196 -0.82511775E-012
        197 -0.26822988E-012
        198 -0.21405100E-012
        199 -0.25579538E-012
        200 -0.31397107E-012
        201 -0.35349501E-012
        202 -0.49737992E-013
        203 -0.69277917E-013
        204 -0.25224267E-012
        205 -0.32152059E-012
        206 -0.52047255E-012
        207 -0.36770587E-012
        208 -0.50359716E-012
        209 -0.27178260E-012
        210 -0.38724579E-012
        211 -0.32152059E-012
        212  0.00000000E+000
        213  0.00000000E+000
        214  0.00000000E+000
        215 -0.13500312E-012
        216  0.00000000E+000
        217 -0.11901591E-012
        218  0.00000000E+000
        219 -0.57465144E-012
        220 -0.46096460E-012
        221 -0.60884631E-012
        222 -0.53645977E-012
        223  0.00000000E+000
        224 -0.14388490E-012
        225 -0.29487524E-012
        226 -0.32684966E-012
        227 -0.15365487E-012
        228 -0.26822988E-012
        229 -0.11812773E-012
        230 -0.58175686E-012
        231 -0.23447910E-012
        232  0.00000000E+000
        233 -0.39790393E-012
        234  0.00000000E+000
        235  0.00000000E+000
        236 -0.24868996E-012
        237 -0.37347903E-012
        238 -0.35349501E-012
        239 -0.19095836E-012
        240 -0.49737992E-012
        241  0.00000000E+000
        242 -0.51070259E-012
        243 -0.57909233E-012
        244  0.00000000E+000
        245  0.00000000E+000
        246  0.00000000E+000
        247 -0.20072832E-012
        248  0.00000000E+000
        249  0.00000000E+000
        250 -0.18651747E-012
        251  0.00000000E+000
        252  0.00000000E+000
        253 -0.62971850E-012
        254  0.00000000E+000
        255  0.95923269E-013
        256 -0.28954616E-012
        257 -0.24868996E-012
        258 -0.87041485E-013
        259 -0.10391688E-012
        260 -0.78159701E-013
        261  0.00000000E+000
        262  0.00000000E+000
        263  0.00000000E+000
        264  0.00000000E+000
        265  0.00000000E+000
        266  0.00000000E+000
        267  0.00000000E+000
        268  0.00000000E+000
        269  0.42632564E-013
        270 -0.36015635E-012
        271  0.00000000E+000
        272 -0.25579538E-012
        273 -0.14654944E-012
        274  0.00000000E+000
        275  0.00000000E+000
        276  0.21316282E-013
        277 -0.35926817E-012
        278  0.00000000E+000
        279 -0.26645353E-012
        280  0.17941204E-012
        281 -0.25934810E-012
        282 -0.15942803E-012
        283 -0.17896795E-012
        284 -0.11635137E-012
        285 -0.59019456E-012
        286 -0.12789769E-012
        287 -0.12434498E-012
        288 -0.95923269E-013
        289 -0.37481129E-012
        290 -0.21671553E-012
        291 -0.38546943E-012
        292  0.74606987E-013
        293 -0.19007018E-012
        294 -0.47117865E-012
        295 -0.51958438E-012
        296  0.10391688E-012
        297 -0.29842795E-012
        298 -0.22648550E-012
        299 -0.36681769E-012
        300 -0.54889426E-012
        301 -0.20694557E-012
        302 -0.14566126E-012
        303  0.00000000E+000
        304  0.00000000E+000
        305  0.00000000E+000
        306  0.00000000E+000
        307  0.00000000E+000
        308  0.00000000E+000
        309 -0.32507330E-012
        310 -0.49737992E-013
        311  0.22470914E-012
        312 -0.33750780E-013
        313 -0.46052051E-012
        314 -0.15276669E-012
        315 -0.13766766E-012
        316 -0.35527137E-013
        317 -0.14566126E-012
        318 -0.26822988E-012
        319  0.00000000E+000
        320 -0.22293278E-012
        321  0.74606987E-013
        322  0.00000000E+000
        323  0.00000000E+000
        324  0.00000000E+000
        325  0.00000000E+000
        326  0.00000000E+000
        327 -0.42410520E-012
        328  0.90594199E-013
        329 -0.43209880E-012
        330 -0.83488771E-013
        331  0.19895197E-012
        332 -0.96811448E-013
        333 -0.38902215E-012
        334  0.20605739E-012
        335 -0.15454305E-012
        336 -0.21671553E-012
        337 -0.24691360E-012
        338 -0.85265128E-013
        339 -0.18740565E-012
        340 -0.43742787E-012
        341 -0.19539925E-012
        342  0.00000000E+000
        343  0.00000000E+000
        344  0.00000000E+000
        345  0.36060044E-012
        346  0.00000000E+000
        347  0.00000000E+000
        348  0.00000000E+000
        349  0.00000000E+000
        350  0.00000000E+000
        351  0.00000000E+000
        352  0.00000000E+000
        353 -0.60440541E-012
        354  0.40500936E-012
        355  0.00000000E+000
        356  0.00000000E+000
        357 -0.31974423E-012
        358  0.00000000E+000
        359  0.00000000E+000
        360 -0.68256512E-012
        361  0.00000000E+000
        362 -0.19539925E-012
        363 -0.79936058E-014
        364  0.84376950E-013
        365 -0.79936058E-014
        366  0.00000000E+000
        367 -0.47517545E-012
        368 -0.20006219E-012
        369 -0.33573144E-012
        370  0.00000000E+000
        371  0.00000000E+000
        372 -0.11723955E-012
        373 -0.24713565E-012
        374  0.85265128E-013
        375 -0.10480505E-012
        376 -0.37747583E-013
        377 -0.69277917E-013
        378 -0.26201263E-012
        379  0.00000000E+000
        380 -0.71054274E-013
        381  0.00000000E+000
        382  0.00000000E+000
        383  0.00000000E+000
        384  0.00000000E+000
        385  0.00000000E+000
        386 -0.43520743E-013
        387  0.14210855E-012
        388  0.00000000E+000
        389  0.00000000E+000
        390  0.00000000E+000
        391  0.00000000E+000
        392  0.00000000E+000
        393 -0.38591352E-012
        394  0.00000000E+000
        395 -0.97699626E-014
        396 -0.17763568E-012
        397 -0.28155256E-012
        398  0.12967405E-012
        399  0.38369308E-012
        400 -0.28599345E-012
        401 -0.18651747E-012
        402 -0.56843419E-012
        403  0.44941828E-012
        404 -0.60706995E-012
        405  0.00000000E+000
        406  0.00000000E+000
        407  0.00000000E+000
        408  0.00000000E+000
        409  0.00000000E+000
        410  0.00000000E+000
        411  0.00000000E+000
        412  0.00000000E+000
        413  0.00000000E+000
        414  0.00000000E+000
        415  0.00000000E+000
        416  0.00000000E+000
        417  0.25757174E-012
        418 -0.18474111E-012
        419 -0.53868021E-012
        420 -0.97699626E-013
        421  0.14654944E-012
        422 -0.31086245E-013
        423  0.00000000E+000
        424  0.00000000E+000
        425  0.00000000E+000
        426  0.00000000E+000
        427 -0.23403501E-012
        428  0.00000000E+000
        429  0.00000000E+000
        430  0.00000000E+000
        431  0.00000000E+000
        432  0.00000000E+000
        433 -0.18118840E-012
        434  0.00000000E+000
        435  0.00000000E+000
        436  0.00000000E+000
        437  0.13855583E-012
        438  0.15276669E-012
        439 -0.12700951E-012
        440 -0.48849813E-013
        441  0.16697754E-012
        442 -0.22137847E-012
        443 -0.27333691E-012
        444 -0.12256862E-012
        445  0.54711791E-012
        446 -0.21316282E-012
        447 -0.85109697E-012
        448  0.19362290E-012
        449  0.00000000E+000
        450  0.00000000E+000
        451  0.20516921E-012
        452  0.00000000E+000
        453  0.00000000E+000
        454 -0.51469939E-012
        455 -0.29043434E-012
        456 -0.21405100E-012
        457  0.00000000E+000
        458  0.00000000E+000
        459 -0.43298698E-012
        460  0.26645353E-012
        461 -0.40811798E-012
        462  0.29043434E-012
        463 -0.50692783E-012
        464 -0.85265128E-013
        465 -0.18829382E-012
        466  0.00000000E+000
        467  0.00000000E+000
        468  0.00000000E+000
        469  0.00000000E+000
        470  0.00000000E+000
        471  0.00000000E+000
        472 -0.23270275E-012
        473  0.45297099E-013
        474  0.00000000E+000
        475  0.56665783E-012
        476  0.00000000E+000
        477  0.00000000E+000
        478  0.00000000E+000
        479  0.00000000E+000
        480 -0.87929664E-013
        481  0.00000000E+000
        482 -0.75539575E-012
        483  0.90594199E-013
        484  0.00000000E+000
        485  0.00000000E+000
        486  0.00000000E+000
        487 -0.53290705E-013
        488  0.28066438E-012
        489 -0.14921397E-012
        490  0.36504133E-012
        491 -0.28599345E-012
        492 -0.34461323E-012
        493  0.00000000E+000
        494  0.00000000E+000
        495  0.00000000E+000
        496  0.00000000E+000
        497  0.00000000E+000
        498  0.00000000E+000
        499  0.00000000E+000
        500  0.00000000E+000
        501  0.00000000E+000
        502  0.00000000E+000
        503  0.00000000E+000
        504  0.00000000E+000
        505  0.17941204E-012
        506 -0.11102230E-012
        507 -0.35971226E-012
        508 -0.94146912E-013
        509 -0.39090953E-012
        510 -0.13322676E-012
        511 -0.95923269E-013
        512 -0.37081449E-012
        513  0.21316282E-012
        514  0.34461323E-012
        515 -0.28865799E-012
        516 -0.62394534E-012
        517  0.34994230E-012
        518  0.00000000E+000
        519  0.00000000E+000
        520  0.00000000E+000
        521  0.00000000E+000
        522  0.00000000E+000
        523  0.00000000E+000
        524  0.00000000E+000
        525 -0.14832580E-012
        526  0.00000000E+000
        527  0.00000000E+000
        528 -0.64437344E-012
        529  0.00000000E+000
        530  0.00000000E+000
        531 -0.19007018E-012
        532  0.00000000E+000
        533 -0.59574568E-012
        534  0.33573144E-012
        535  0.20783375E-012
        536 -0.24780178E-012
        537  0.00000000E+000
        538  0.00000000E+000
        539 -0.15898394E-012
        540  0.00000000E+000
        541 -0.31841196E-012
        542  0.00000000E+000
        543  0.00000000E+000
        544  0.00000000E+000
        545  0.20872193E-012
        546 -0.85265128E-013
        547  0.00000000E+000
        548  0.00000000E+000
        549  0.00000000E+000
        550  0.00000000E+000
        551  0.00000000E+000
        552  0.00000000E+000
        553 -0.17408297E-012
        554  0.37569947E-012
        555 -0.15987212E-012
        556 -0.57798211E-012
        557  0.38724579E-012
        558 -0.53468341E-012
        559  0.00000000E+000
        560  0.00000000E+000
        561  0.00000000E+000
        562 -0.33661962E-012
        563 -0.42232884E-012
        564 -0.34638958E-013
        565  0.00000000E+000
        566  0.00000000E+000
        567  0.00000000E+000
        568  0.00000000E+000
        569  0.00000000E+000
        570  0.00000000E+000
        571  0.00000000E+000
        572  0.00000000E+000
        573  0.00000000E+000
        574  0.12256862E-012
        575 -0.17763568E-014
        576 -0.23625546E-012
        577 -0.19984014E-013
        578 -0.24624747E-012
        579 -0.63948846E-013
        580  0.00000000E+000
        581  0.00000000E+000
        582  0.00000000E+000
        583  0.00000000E+000
        584  0.00000000E+000
        585  0.00000000E+000
        586  0.27711167E-012
        587 -0.49205084E-012
        588  0.00000000E+000
        589  0.00000000E+000
        590  0.00000000E+000
        591  0.00000000E+000
        592 -0.20516921E-012
        593  0.00000000E+000
        594  0.00000000E+000
        595 -0.50848215E-012
        596  0.23359092E-012
        597 -0.22293278E-012
        598  0.22026825E-012
        599 -0.11990409E-012
        600 -0.43209880E-012
        601  0.00000000E+000
        602  0.00000000E+000
        603  0.00000000E+000
        604  0.00000000E+000
        605  0.00000000E+000
        606  0.00000000E+000
        607  0.00000000E+000
        608  0.00000000E+000
        609  0.00000000E+000
        610  0.00000000E+000
        611  0.00000000E+000
        612  0.00000000E+000
        613  0.26467717E-012
        614 -0.11013412E-012
        615 -0.34905412E-012
        616 -0.38458126E-012
        617  0.00000000E+000
        618  0.00000000E+000
        619  0.00000000E+000
        620  0.00000000E+000
        621  0.00000000E+000
        622  0.00000000E+000
        623 -0.21849189E-012
        624 -0.11546319E-013
        625 -0.30109248E-012
        626 -0.39657166E-012
        627 -0.30997427E-012
        628  0.12434498E-013
        629  0.00000000E+000
        630  0.00000000E+000
        631  0.00000000E+000
        632  0.00000000E+000
        633  0.00000000E+000
        634  0.00000000E+000
        635  0.19984014E-012
        636  0.00000000E+000
        637 -0.35726977E-012
        638  0.00000000E+000
        639  0.00000000E+000
        640  0.00000000E+000
        641  0.00000000E+000
        642  0.00000000E+000
        643  0.00000000E+000
        644  0.00000000E+000
        645 -0.13677948E-012
        646  0.00000000E+000
        647  0.00000000E+000
        648  0.00000000E+000
        649  0.00000000E+000
        650  0.00000000E+000
        651  0.00000000E+000
        652  0.00000000E+000
        653  0.00000000E+000
        654  0.00000000E+000
        655  0.00000000E+000
        656  0.00000000E+000
        657  0.00000000E+000
        658  0.00000000E+000
        659 -0.26556535E-012
        660 -0.38680170E-012
        661 -0.22470914E-012
        662  0.00000000E+000
        663  0.00000000E+000
        664  0.00000000E+000
        665  0.00000000E+000
        666  0.00000000E+000
        667  0.00000000E+000
        668  0.50626170E-013
        669 -0.16076029E-012
        670 -0.24558133E-012
        671  0.00000000E+000
        672  0.00000000E+000
        673  0.00000000E+000
        674  0.00000000E+000
        675  0.00000000E+000
        676  0.00000000E+000
        677  0.00000000E+000
        678  0.00000000E+000
        679  0.00000000E+000
        680  0.00000000E+000
        681  0.00000000E+000
        682  0.00000000E+000
        683  0.00000000E+000
        684  0.00000000E+000
        685  0.00000000E+000
        686  0.00000000E+000
        687  0.00000000E+000
        688  0.00000000E+000
        689  0.00000000E+000
        690  0.00000000E+000
        691  0.00000000E+000
        692 -0.13367085E-012
        693 -0.25224267E-012
        694 -0.20872193E-012
        695  0.00000000E+000
        696  0.00000000E+000
        697  0.00000000E+000
        698  0.00000000E+000
        699  0.00000000E+000
        700  0.00000000E+000
        701  0.00000000E+000
        702  0.00000000E+000
        703  0.00000000E+000
        704  0.00000000E+000
        705  0.00000000E+000
        706  0.00000000E+000
        707  0.00000000E+000
        708  0.00000000E+000
        709  0.00000000E+000
        710 -0.12789769E-012
        711  0.00000000E+000
        712  0.00000000E+000
        713  0.00000000E+000
        714  0.00000000E+000
        715  0.00000000E+000
        716  0.00000000E+000
        717  0.00000000E+000
        718  0.00000000E+000
        719  0.00000000E+000
        720  0.00000000E+000
        721  0.00000000E+000
        722  0.00000000E+000
        723  0.00000000E+000
        724  0.00000000E+000
        725  0.00000000E+000
        726  0.00000000E+000
        727  0.00000000E+000
        728  0.00000000E+000
        729  0.00000000E+000
End values

