# 
# ALYA alya-sets output file 
# 
#    Adding 1 sets 
#    Set List: 1 
# 
# Time  , Column : 1 
# SIZES , Column  : 2  
# DIBOX , Column  : 3  
# FRBOX , Column  : 4  
# START 
  0.00000000E+000         0.037636     0     0     0    
  0.10457905E-004         0.037636     -1.351069e-07     -0.00022519177     0    
  0.20915810E-004         0.037636     -1.0638471e-06     -0.0017713972     0    
  0.31373714E-004         0.037636     -3.5335678e-06     -0.0058744002     0    
  0.41831619E-004         0.037636     -8.2421051e-06     -0.01368275     0    
  0.52289524E-004         0.037636     -1.5838864e-05     -0.026269523     0    
  0.62747429E-004         0.037636     -2.6925901e-05     -0.044637573     0    
  0.73205334E-004         0.037636     -4.2059003e-05     -0.069714117     0    
  0.83663239E-004         0.037636     -6.1748767e-05     -0.10234435     0    
  0.94121143E-004         0.037636     -8.6461686e-05     -0.1432946     0    
  0.10457905E-003         0.037636     -0.00011662122     -0.1932629     0    
  0.11503695E-003         0.037636     -0.0001526089     -0.25288535     0    
  0.12549486E-003         0.037636     -0.00019476536     -0.32273272     0    
  0.13595276E-003         0.037636     -0.00024339149     -0.40330426     0    
  0.14641067E-003         0.037636     -0.00029874944     -0.4950291     0    
  0.15686857E-003         0.037636     -0.00036106377     -0.59827545     0    
  0.16732648E-003         0.037636     -0.00043052246     -0.71335766     0    
  0.17778438E-003         0.037636     -0.00050727806     -0.84053467     0    
  0.18824229E-003         0.037636     -0.00059144874     -0.98000435     0    
  0.19870019E-003         0.037636     -0.00068311934     -1.1319035     0    
  0.20915810E-003         0.037636     -0.00078234252     -1.2963157     0    
  0.21961600E-003         0.037636     -0.00088913977     -1.4732784     0    
  0.23007391E-003         0.037636     -0.0010035025     -1.6627833     0    
  0.24053181E-003         0.037636     -0.0011253933     -1.8647714     0    
  0.25098972E-003         0.037636     -0.0012547466     -2.0791318     0    
  0.26144762E-003         0.037636     -0.0013914703     -2.3057085     0    
  0.27190553E-003         0.037636     -0.0015354463     -2.5443068     0    
  0.28236343E-003         0.037636     -0.001686532     -2.7946957     0    
  0.29282133E-003         0.037636     -0.0018445612     -3.0566037     0    
  0.30327924E-003         0.037636     -0.0020093453     -3.3297169     0    
  0.31373714E-003         0.037636     -0.0021806741     -3.6136842     0    
  0.32419505E-003         0.037636     -0.0023583171     -3.9081238     0    
  0.33465295E-003         0.037636     -0.0025420248     -4.2126263     0    
  0.34511086E-003         0.037636     -0.0027315292     -4.526752     0    
  0.35556876E-003         0.037636     -0.0029265454     -4.8500284     0    
  0.36602667E-003         0.037636     -0.0031267725     -5.1819542     0    
  0.37648457E-003         0.037636     -0.0033318946     -5.5220051     0    
  0.38694248E-003         0.037636     -0.0035415819     -5.8696379     0    
  0.39740038E-003         0.037636     -0.003755492     -6.2242887     0    
  0.40785829E-003         0.037636     -0.0039732708     -6.5853712     0    
  0.41831619E-003         0.037636     -0.0041945534     -6.9522782     0    
  0.42877410E-003         0.037636     -0.0044189655     -7.324388     0    
  0.43923200E-003         0.037636     -0.0046461244     -7.701068     0    
  0.44968991E-003         0.037636     -0.0048756401     -8.0816747     0    
  0.46014781E-003         0.037636     -0.0051071161     -8.4655521     0    
  0.47060572E-003         0.037636     -0.0053401509     -8.8520323     0    
  0.48106362E-003         0.037636     -0.0055743387     -9.2404407     0    
  0.49152153E-003         0.037636     -0.0058092709     -9.1886816     0    
  0.50197943E-003         0.037636     -0.0060445367     -8.7768967     0    
  0.51243734E-003         0.037636     -0.0062797246     -8.3594637     0    
  0.52289524E-003         0.037636     -0.0065144233     -7.9424599     0    
  0.53335315E-003         0.037636     -0.0067482226     -7.5322431     0    
  0.54381105E-003         0.037636     -0.0069807148     -7.1285922     0    
  0.55426896E-003         0.037636     -0.0072114957     -6.726183     0    
  0.56472686E-003         0.037636     -0.0074401655     -6.322151     0    
  0.57518476E-003         0.037636     -0.0076663301     -5.9202696     0    
  0.58564267E-003         0.037636     -0.0078896022     -5.5268865     0    
  0.59610057E-003         0.037636     -0.0081096019     -5.1439631     0    
  0.60655848E-003         0.037636     -0.0083259585     -4.7677386     0    
  0.61701638E-003         0.037636     -0.0085383112     -4.3943154     0    
  0.62747429E-003         0.037636     -0.0087463099     -4.0250966     0    
  0.63793219E-003         0.037636     -0.008949617     -3.6655686     0    
  0.64839010E-003         0.037636     -0.0091479079     -3.3192382     0    
  0.65884800E-003         0.037636     -0.0093408722     -2.9842192     0    
  0.66930591E-003         0.037636     -0.0095282148     -2.6563957     0    
  0.67976381E-003         0.037636     -0.0097096573     -2.3350513     0    
  0.69022172E-003         0.037636     -0.0098849384     -2.0241332     0    
  0.70067962E-003         0.037636     -0.010053816     -1.7278697     0    
  0.71113753E-003         0.037636     -0.010216066     -1.4462338     0    
  0.72159543E-003         0.037636     -0.010371488     -1.1756386     0    
  0.73205334E-003         0.037636     -0.010519901     -0.91377696     0    
  0.74251124E-003         0.037636     -0.010661147     -0.66266645     0    
  0.75296915E-003         0.037636     -0.010795093     -0.42637878     0    
  0.76342705E-003         0.037636     -0.010921631     -0.20639776     0    
  0.77388496E-003         0.037636     -0.011040678     -0.018290397     0    
  0.78434286E-003         0.037636     -0.01115218     -0.018475907     0    
  0.79480077E-003         0.037636     -0.011256109     -0.018649716     0    
  0.80525867E-003         0.037636     -0.011352469     -0.018809875     0    
  0.81571658E-003         0.037636     -0.011441293     -0.018955892     0    
  0.82617448E-003         0.037636     -0.011522644     -0.019089316     0    
  0.83663239E-003         0.037636     -0.011596622     -0.019211942     0    
  0.84709029E-003         0.037636     -0.011663356     -0.019323866     0    
  0.85754819E-003         0.037636     -0.011723013     -0.019423706     0    
  0.86800610E-003         0.037636     -0.011775795     -0.019510634     0    
  0.87846400E-003         0.037636     -0.011821939     -0.019585737     0    
  0.88892191E-003         0.037636     -0.011861722     -0.019651118     0    
  0.89937981E-003         0.037636     -0.011895462     -0.01970791     0    
  0.90983772E-003         0.037636     -0.011923512     -0.019755597     0    
  0.92029562E-003         0.037636     -0.011946271     -0.019793398     0    
  0.93075353E-003         0.037636     -0.011964179     -0.019821986     0    
  0.94121143E-003         0.037636     -0.011977718     -0.019843504     0    
  0.95166934E-003         0.037636     -0.011987416     -0.019859914     0    
  0.96212724E-003         0.037636     -0.011993846     -0.019871722     0    
  0.97258515E-003         0.037636     -0.011997628     -0.019878565     0    
  0.98304305E-003         0.037636     -0.01199943     -0.019880899     0    
  0.99350096E-003         0.037636     -0.011999967     -0.019880744     0    
