 0.00000000E+000
 0.84531268E-008
 0.73638109E-008
 0.00000000E+000
 0.00000000E+000
 0.84531268E-008
 0.73638109E-008
 0.00000000E+000
 0.12676148E-007
 0.12677838E-007
 0.12133262E-007
 0.11588449E-007
 0.11043871E-007
 0.11042254E-007
 0.00000000E+000
 0.00000000E+000
 0.12676148E-007
 0.12677838E-007
 0.12133262E-007
 0.11588449E-007
 0.11043871E-007
 0.11042254E-007
 0.00000000E+000
 0.00000000E+000
 0.00000000E+000
 0.00000000E+000
 0.12677838E-007
 0.12677838E-007
 0.11043871E-007
 0.11043871E-007
 0.00000000E+000
 0.00000000E+000
 0.97468132E-008
 0.10019029E-007
 0.97483393E-008
 0.10020518E-007
 0.97468132E-008
 0.10019029E-007
 0.97483393E-008
 0.10020518E-007
 0.10563682E-007
 0.10563682E-007
 0.10565214E-007
 0.10565214E-007
 0.97483395E-008
 0.97483395E-008
 0.10020518E-007
 0.10020518E-007
 0.92036391E-008
 0.92036391E-008
 0.92021554E-008
 0.92021554E-008
 0.00000000E+000
 0.00000000E+000
 0.00000000E+000
 0.00000000E+000
 0.56030343E-004
 0.56030343E-004
 0.46247074E-004
 0.46247074E-004
 0.56030345E-004
 0.56030345E-004
 0.46247075E-004
 0.46247075E-004
