0.00000000E+000
-1.04638310E-004
-3.86687840E-004
-7.90581217E-004
-1.27569719E-003
-1.81253361E-003
-2.37886652E-003
-2.95786316E-003
-3.53713540E-003
-4.10782897E-003
-4.66376794E-003
-5.20073593E-003
-5.71591243E-003
-6.20744935E-003
-6.67416234E-003
-7.11531110E-003
-7.53044658E-003
-7.91930702E-003
-8.28174904E-003
-8.61770345E-003
-8.92714785E-003
