GiD Post Results File 1.0
 
Result TEMPE ALYA  0.10000000E+00 Scalar OnNodes
ComponentNames TEMPE
Values
          1  0.20000000E+001
          2  0.20000000E+001
          3  0.16300081E+001
          4  0.16311563E+001
          5  0.20000000E+001
          6  0.12577059E+001
          7  0.12600231E+001
          8  0.16345605E+001
          9  0.12669526E+001
         10  0.20000000E+001
         11  0.88077515E+000
         12  0.88425258E+000
         13  0.16400312E+001
         14  0.89477355E+000
         15  0.12783209E+001
         16  0.49696773E+000
         17  0.20000000E+001
         18  0.50148814E+000
         19  0.16469884E+001
         20  0.91250309E+000
         21  0.51533447E+000
         22  0.12934270E+001
         23  0.20000000E+001
         24  0.53931351E+000
         25  0.10431790E+000
         26  0.93733055E+000
         27  0.10958366E+000
         28  0.16539104E+001
         29  0.12590005E+000
         30  0.13102175E+001
         31  0.57457211E+000
         32  0.15486121E+000
         33  0.96811452E+000
         34 -0.29852626E+000
         35  0.20000000E+001
         36 -0.29302094E+000
         37  0.16570808E+001
         38 -0.27579177E+000
         39  0.13235692E+001
         40  0.19923309E+000
         41  0.62217575E+000
         42 -0.24456788E+000
         43  0.10013189E+001
         44 -0.71193277E+000
         45  0.20000000E+001
         46 -0.70686033E+000
         47  0.16472163E+001
         48  0.26304513E+000
         49 -0.19510393E+000
         50  0.68230522E+000
         51 -0.69085802E+000
         52  0.13217335E+001
         53 -0.66137191E+000
         54  0.10289614E+001
         55  0.35148647E+000
         56 -0.12043118E+000
         57  0.20000000E+001
         58 -0.11350004E+001
         59 -0.11310865E+001
         60  0.15988880E+001
         61  0.75347415E+000
         62 -0.61341174E+000
         63 -0.11186659E+001
         64  0.12764588E+001
         65 -0.98764384E-002
         66 -0.10954989E+001
         67  0.10403748E+001
         68  0.46986548E+000
         69 -0.53818819E+000
         70 -0.10570771E+001
         71  0.83245642E+000
         72 -0.15654829E+001
         73  0.20000000E+001
         74 -0.15633470E+001
         75  0.13801158E+001
         76 -0.15565444E+001
         77  0.11655797E+001
         78  0.15133362E+000
         79 -0.42063382E+000
         80  0.62102456E+000
         81 -0.99505486E+000
         82 -0.15437605E+001
         83  0.10288005E+001
         84 -0.15223019E+001
         85  0.91553408E+000
         86 -0.23548902E+000
         87  0.10000000E+001
         88 -0.19999987E+001
         89  0.37671981E+000
         90 -0.89391649E+000
         91  0.10000000E+001
         92 -0.19999987E+001
         93 -0.19999987E+001
         94  0.10000000E+001
         95  0.80161642E+000
         96 -0.14870284E+001
         97 -0.19999986E+001
         98  0.10000000E+001
         99 -0.72344800E+000
        100  0.57571964E-001
        101 -0.19999986E+001
        102  0.10000000E+001
        103  0.66719647E+000
        104 -0.14278813E+001
        105  0.10000000E+001
        106 -0.19999984E+001
        107 -0.42166283E+000
        108  0.48063901E+000
        109 -0.13236083E+001
        110  0.10000000E+001
        111 -0.19999983E+001
        112  0.16528665E+000
        113 -0.11219641E+001
        114 -0.19999978E+001
        115  0.10000000E+001
        116 -0.67229082E+000
        117  0.10000000E+001
        118 -0.19999977E+001
        119  0.10000000E+001
        120 -0.19999942E+001
        121 -0.19999944E+001
End values

