1	 0.00000000E+000
2	 0.69155495E-003
3	 0.69155495E-003
4	 0.00000000E+000
5	 0.58361531E-079
6	-0.21476172E-075
7	 0.67760684E-072
8	-0.18636301E-068
9	 0.45226831E-065
10	-0.97701541E-062
11	 0.18925899E-058
12	-0.32999321E-055
13	 0.52148122E-052
14	-0.74314547E-049
15	 0.97460023E-046
16	-0.11248508E-042
17	 0.12752166E-039
18	-0.10831013E-036
19	 0.12967413E-033
20	-0.38699243E-031
21	 0.13875648E-027
22	 0.79033612E-025
23	 0.18033748E-021
24	 0.17194330E-018
25	 0.18818829E-015
26	 0.15481783E-012
27	 0.13058007E-009
28	 0.17661610E-006
29	 0.29714539E-004
30	 0.20596263E-003
31	 0.49456064E-003
32	 0.64450904E-003
33	 0.68373787E-003
34	 0.69055067E-003
35	 0.69144938E-003
36	 0.69154557E-003
37	 0.69155423E-003
38	 0.69155490E-003
39	 0.69155495E-003
40	 0.69155495E-003
41	 0.69155495E-003
42	 0.69155495E-003
43	 0.69155495E-003
44	 0.69155495E-003
45	 0.69155495E-003
46	 0.69155495E-003
47	 0.69155495E-003
48	 0.69155495E-003
49	 0.69155495E-003
50	 0.69155495E-003
51	 0.69155495E-003
52	 0.69155495E-003
53	 0.69155495E-003
54	 0.69155495E-003
55	 0.69155495E-003
56	 0.69155495E-003
57	 0.69155495E-003
58	 0.69155495E-003
59	 0.69155495E-003
60	 0.69155495E-003
61	 0.69155495E-003
62	 0.69155495E-003
63	 0.69155495E-003
64	 0.69155495E-003
65	 0.69155495E-003
66	 0.69155495E-003
67	 0.69155495E-003
68	 0.69155495E-003
69	 0.69155490E-003
70	 0.69155423E-003
71	 0.69154557E-003
72	 0.69144938E-003
73	 0.69055067E-003
74	 0.68373787E-003
75	 0.64450896E-003
76	 0.49456142E-003
77	 0.20595665E-003
78	 0.29709127E-004
79	 0.17641938E-006
80	 0.12950186E-009
81	 0.15830039E-012
82	 0.17829671E-015
83	 0.19450680E-018
84	 0.13552101E-021
85	 0.15729074E-024
86	 0.17298643E-028
87	 0.13015883E-030
88	-0.81704992E-034
89	 0.13091624E-036
90	-0.11791206E-039
91	 0.11617917E-042
92	-0.96173587E-046
93	 0.74720909E-049
94	-0.52031596E-052
95	 0.33029675E-055
96	-0.18918711E-058
97	 0.97717025E-062
98	-0.45223794E-065
99	 0.18636844E-068
100	-0.67759802E-072
101	 0.21476301E-075
102	-0.58361361E-079
