1	 0.26806042E-001
2	 0.13328880E+000
3	 0.13328880E+000
4	 0.26806042E-001
5	 0.26806042E-001
6	 0.26806042E-001
7	 0.26806042E-001
8	 0.26806042E-001
9	 0.26806042E-001
10	 0.26806042E-001
11	 0.26806042E-001
12	 0.26806042E-001
13	 0.26806042E-001
14	 0.26806042E-001
15	 0.26806042E-001
16	 0.26806042E-001
17	 0.26806042E-001
18	 0.26806042E-001
19	 0.26806042E-001
20	 0.26806042E-001
21	 0.26806042E-001
22	 0.26806042E-001
23	 0.26806042E-001
24	 0.26806042E-001
25	 0.26806043E-001
26	 0.26807050E-001
27	 0.27074052E-001
28	 0.31564564E-001
29	 0.55091174E-001
30	 0.99625759E-001
31	 0.12430790E+000
32	 0.13146651E+000
33	 0.13297548E+000
34	 0.13324465E+000
35	 0.13328368E+000
36	 0.13328830E+000
37	 0.13328876E+000
38	 0.13328880E+000
39	 0.13328880E+000
40	 0.13328880E+000
41	 0.13328880E+000
42	 0.13328880E+000
43	 0.13328880E+000
44	 0.13328880E+000
45	 0.13328880E+000
46	 0.13328880E+000
47	 0.13328880E+000
48	 0.13328880E+000
49	 0.13328880E+000
50	 0.13328880E+000
51	 0.13328880E+000
52	 0.13328880E+000
53	 0.13328880E+000
54	 0.13328880E+000
55	 0.13328880E+000
56	 0.13328880E+000
57	 0.13328880E+000
58	 0.13328880E+000
59	 0.13328880E+000
60	 0.13328880E+000
61	 0.13328880E+000
62	 0.13328880E+000
63	 0.13328880E+000
64	 0.13328880E+000
65	 0.13328880E+000
66	 0.13328880E+000
67	 0.13328880E+000
68	 0.13328880E+000
69	 0.13328880E+000
70	 0.13328876E+000
71	 0.13328830E+000
72	 0.13328368E+000
73	 0.13324465E+000
74	 0.13297548E+000
75	 0.13146651E+000
76	 0.12430789E+000
77	 0.99625689E-001
78	 0.55091068E-001
79	 0.31564519E-001
80	 0.27074046E-001
81	 0.26807050E-001
82	 0.26806043E-001
83	 0.26806042E-001
84	 0.26806042E-001
85	 0.26806042E-001
86	 0.26806042E-001
87	 0.26806042E-001
88	 0.26806042E-001
89	 0.26806042E-001
90	 0.26806042E-001
91	 0.26806042E-001
92	 0.26806042E-001
93	 0.26806042E-001
94	 0.26806042E-001
95	 0.26806042E-001
96	 0.26806042E-001
97	 0.26806042E-001
98	 0.26806042E-001
99	 0.26806042E-001
100	 0.26806042E-001
101	 0.26806042E-001
102	 0.26806042E-001
