{
    "authors": [
        "gerard.guillamet@bsc.es"
    ],
    "comparisons": [
        {
            "file": "cook_3d-node.sld.set",
            "method": "power",
            "tolerance": 6
        },
        {
            "file": "cook_3d-boundary.sld.set",
            "method": "absolute",
            "tolerance": 0
        },
        {
            "file": "cook_3d.sld.wit",
            "method": "power",
            "tolerance": 6
        }
    ],
    "description": "This is the Cook's membrane problem. It is a standard test for combined bending and shear response with moderate distortion. We use an hyperelastic Neo-Hookean model for continuum shell elements.",
    "exclude": [
        "special"
    ],
    "executions": [
        {
            "mpi": 4,
            "openmp": 0
        }
    ],
    "modules": [
        "solidz"
    ],
    "name": "cook_3d",
    "postprocess": "alya2pos",
	"timeout": "00:02:00"
}
