GiD Post Results File 1.0
 
Result MASSM ALYA  0.00000000E+00 Scalar OnNodes
ComponentNames MASSM
Values
          1  0.10000000E-001
          2  0.10000000E-001
          3  0.10000000E-001
          4  0.10000000E-001
          5  0.10000000E-001
          6  0.10000000E-001
          7  0.10000000E-001
          8  0.10000000E-001
          9  0.10000000E-001
         10  0.62500000E-002
         11  0.25000000E-002
         12  0.25000000E-002
         13  0.25000000E-002
         14  0.25000000E-002
         15  0.25000000E-002
         16  0.25000000E-002
         17  0.25000000E-002
         18  0.25000000E-002
         19  0.10000000E-001
         20  0.50000000E-002
         21  0.12500000E-002
         22  0.12500000E-001
         23  0.12500000E-001
         24  0.12500000E-001
         25  0.12500000E-001
         26  0.12500000E-001
         27  0.12500000E-001
         28  0.12500000E-001
         29  0.12500000E-001
         30  0.12500000E-001
         31  0.50000000E-002
         32  0.50000000E-002
         33  0.50000000E-002
         34  0.50000000E-002
         35  0.50000000E-002
         36  0.50000000E-002
         37  0.50000000E-002
         38  0.50000000E-002
         39  0.12500000E-001
         40  0.25000000E-002
         41  0.50000000E-002
         42  0.50000000E-002
         43  0.50000000E-002
         44  0.50000000E-002
         45  0.50000000E-002
         46  0.50000000E-002
         47  0.50000000E-002
         48  0.50000000E-002
         49  0.50000000E-002
         50  0.50000000E-002
         51  0.50000000E-002
         52  0.50000000E-002
         53  0.50000000E-002
         54  0.50000000E-002
         55  0.50000000E-002
         56  0.50000000E-002
         57  0.25000000E-002
         58  0.50000000E-002
         59  0.50000000E-002
         60  0.50000000E-002
         61  0.50000000E-002
         62  0.50000000E-002
         63  0.50000000E-002
         64  0.50000000E-002
         65  0.50000000E-002
         66  0.50000000E-002
         67  0.50000000E-002
         68  0.50000000E-002
         69  0.50000000E-002
         70  0.50000000E-002
         71  0.50000000E-002
         72  0.25000000E-002
         73  0.50000000E-002
         74  0.50000000E-002
         75  0.50000000E-002
         76  0.50000000E-002
         77  0.50000000E-002
         78  0.50000000E-002
         79  0.50000000E-002
         80  0.50000000E-002
         81  0.50000000E-002
         82  0.50000000E-002
         83  0.50000000E-002
         84  0.50000000E-002
         85  0.25000000E-002
         86  0.50000000E-002
         87  0.50000000E-002
         88  0.50000000E-002
         89  0.50000000E-002
         90  0.50000000E-002
         91  0.50000000E-002
         92  0.50000000E-002
         93  0.50000000E-002
         94  0.50000000E-002
         95  0.50000000E-002
         96  0.25000000E-002
         97  0.50000000E-002
         98  0.50000000E-002
         99  0.50000000E-002
        100  0.50000000E-002
        101  0.50000000E-002
        102  0.50000000E-002
        103  0.50000000E-002
        104  0.50000000E-002
        105  0.25000000E-002
        106  0.50000000E-002
        107  0.50000000E-002
        108  0.50000000E-002
        109  0.50000000E-002
        110  0.50000000E-002
        111  0.50000000E-002
        112  0.25000000E-002
        113  0.50000000E-002
        114  0.50000000E-002
        115  0.50000000E-002
        116  0.50000000E-002
        117  0.25000000E-002
        118  0.50000000E-002
        119  0.50000000E-002
        120  0.25000000E-002
        121  0.25000000E-002
        122  0.10000000E-001
        123  0.10000000E-001
        124  0.10000000E-001
        125  0.10000000E-001
        126  0.10000000E-001
        127  0.10000000E-001
        128  0.10000000E-001
        129  0.10000000E-001
        130  0.10000000E-001
        131  0.12500000E-001
        132  0.50000000E-002
        133  0.50000000E-002
        134  0.50000000E-002
        135  0.50000000E-002
        136  0.50000000E-002
        137  0.50000000E-002
        138  0.50000000E-002
        139  0.50000000E-002
        140  0.50000000E-002
        141  0.10000000E-001
        142  0.25000000E-002
        143  0.12500000E-001
        144  0.12500000E-001
        145  0.12500000E-001
        146  0.12500000E-001
        147  0.12500000E-001
        148  0.12500000E-001
        149  0.12500000E-001
        150  0.12500000E-001
        151  0.12500000E-001
        152  0.50000000E-002
        153  0.50000000E-002
        154  0.50000000E-002
        155  0.50000000E-002
        156  0.50000000E-002
        157  0.50000000E-002
        158  0.50000000E-002
        159  0.50000000E-002
        160  0.62500000E-002
        161  0.25000000E-002
        162  0.50000000E-002
        163  0.50000000E-002
        164  0.50000000E-002
        165  0.50000000E-002
        166  0.50000000E-002
        167  0.50000000E-002
        168  0.50000000E-002
        169  0.50000000E-002
        170  0.50000000E-002
        171  0.50000000E-002
        172  0.50000000E-002
        173  0.50000000E-002
        174  0.50000000E-002
        175  0.50000000E-002
        176  0.50000000E-002
        177  0.25000000E-002
        178  0.25000000E-002
        179  0.50000000E-002
        180  0.50000000E-002
        181  0.50000000E-002
        182  0.50000000E-002
        183  0.50000000E-002
        184  0.50000000E-002
        185  0.50000000E-002
        186  0.50000000E-002
        187  0.50000000E-002
        188  0.50000000E-002
        189  0.50000000E-002
        190  0.50000000E-002
        191  0.50000000E-002
        192  0.25000000E-002
        193  0.25000000E-002
        194  0.50000000E-002
        195  0.50000000E-002
        196  0.50000000E-002
        197  0.50000000E-002
        198  0.50000000E-002
        199  0.50000000E-002
        200  0.50000000E-002
        201  0.50000000E-002
        202  0.50000000E-002
        203  0.50000000E-002
        204  0.50000000E-002
        205  0.25000000E-002
        206  0.25000000E-002
        207  0.50000000E-002
        208  0.50000000E-002
        209  0.50000000E-002
        210  0.50000000E-002
        211  0.50000000E-002
        212  0.50000000E-002
        213  0.50000000E-002
        214  0.50000000E-002
        215  0.50000000E-002
        216  0.25000000E-002
        217  0.25000000E-002
        218  0.50000000E-002
        219  0.50000000E-002
        220  0.50000000E-002
        221  0.50000000E-002
        222  0.50000000E-002
        223  0.50000000E-002
        224  0.50000000E-002
        225  0.25000000E-002
        226  0.25000000E-002
        227  0.50000000E-002
        228  0.50000000E-002
        229  0.50000000E-002
        230  0.50000000E-002
        231  0.50000000E-002
        232  0.25000000E-002
        233  0.25000000E-002
        234  0.50000000E-002
        235  0.50000000E-002
        236  0.50000000E-002
        237  0.25000000E-002
        238  0.25000000E-002
        239  0.50000000E-002
        240  0.25000000E-002
        241  0.25000000E-002
        242  0.12500000E-002
End values

Result TEMPE ALYA  0.00000000E+00 Scalar OnNodes
ComponentNames TEMPE
Values
          1  0.92500000E+001
          2  0.96900000E+001
          3  0.10140000E+002
          4  0.10600000E+002
          5  0.11070000E+002
          6  0.11550000E+002
          7  0.12040000E+002
          8  0.12540000E+002
          9  0.13050000E+002
         10  0.89300000E+001
         11  0.79200000E+001
         12  0.69700000E+001
         13  0.60800000E+001
         14  0.52500000E+001
         15  0.44800000E+001
         16  0.37700000E+001
         17  0.31200000E+001
         18  0.25300000E+001
         19  0.88200000E+001
         20  0.13570000E+002
         21  0.20000000E+001
         22  0.00000000E+000
         23  0.00000000E+000
         24  0.00000000E+000
         25  0.00000000E+000
         26  0.00000000E+000
         27  0.00000000E+000
         28  0.00000000E+000
         29  0.00000000E+000
         30  0.00000000E+000
         31  0.00000000E+000
         32  0.00000000E+000
         33  0.00000000E+000
         34  0.00000000E+000
         35  0.00000000E+000
         36  0.00000000E+000
         37  0.00000000E+000
         38  0.00000000E+000
         39  0.00000000E+000
         40  0.18050000E+001
         41  0.00000000E+000
         42  0.00000000E+000
         43  0.00000000E+000
         44  0.00000000E+000
         45  0.00000000E+000
         46  0.00000000E+000
         47  0.00000000E+000
         48  0.00000000E+000
         49  0.00000000E+000
         50  0.00000000E+000
         51  0.00000000E+000
         52  0.00000000E+000
         53  0.00000000E+000
         54  0.00000000E+000
         55  0.00000000E+000
         56  0.00000000E+000
         57  0.16200000E+001
         58  0.00000000E+000
         59  0.00000000E+000
         60  0.00000000E+000
         61  0.00000000E+000
         62  0.00000000E+000
         63  0.00000000E+000
         64  0.00000000E+000
         65  0.00000000E+000
         66  0.00000000E+000
         67  0.00000000E+000
         68  0.00000000E+000
         69  0.00000000E+000
         70  0.00000000E+000
         71  0.00000000E+000
         72  0.14450000E+001
         73  0.00000000E+000
         74  0.00000000E+000
         75  0.00000000E+000
         76  0.00000000E+000
         77  0.00000000E+000
         78  0.00000000E+000
         79  0.00000000E+000
         80  0.00000000E+000
         81  0.00000000E+000
         82  0.00000000E+000
         83  0.00000000E+000
         84  0.00000000E+000
         85  0.12800000E+001
         86  0.00000000E+000
         87  0.00000000E+000
         88  0.00000000E+000
         89  0.00000000E+000
         90  0.00000000E+000
         91  0.00000000E+000
         92  0.00000000E+000
         93  0.00000000E+000
         94  0.00000000E+000
         95  0.00000000E+000
         96  0.11250000E+001
         97  0.00000000E+000
         98  0.00000000E+000
         99  0.00000000E+000
        100  0.00000000E+000
        101  0.00000000E+000
        102  0.00000000E+000
        103  0.00000000E+000
        104  0.00000000E+000
        105  0.98000000E+000
        106  0.00000000E+000
        107  0.00000000E+000
        108  0.00000000E+000
        109  0.00000000E+000
        110  0.00000000E+000
        111  0.00000000E+000
        112  0.84500000E+000
        113  0.00000000E+000
        114  0.00000000E+000
        115  0.00000000E+000
        116  0.00000000E+000
        117  0.72000000E+000
        118  0.00000000E+000
        119  0.00000000E+000
        120  0.60500000E+000
        121  0.50000000E+000
        122  0.54000000E+001
        123  0.57400000E+001
        124  0.60900000E+001
        125  0.64500000E+001
        126  0.68200000E+001
        127  0.72000000E+001
        128  0.75900000E+001
        129  0.79900000E+001
        130  0.84000000E+001
        131  0.00000000E+000
        132  0.00000000E+000
        133  0.00000000E+000
        134  0.00000000E+000
        135  0.00000000E+000
        136  0.00000000E+000
        137  0.00000000E+000
        138  0.00000000E+000
        139  0.00000000E+000
        140  0.50700000E+001
        141  0.88200000E+001
        142  0.50000000E+000
        143  0.00000000E+000
        144  0.00000000E+000
        145  0.00000000E+000
        146  0.00000000E+000
        147  0.00000000E+000
        148  0.00000000E+000
        149  0.00000000E+000
        150  0.00000000E+000
        151  0.00000000E+000
        152  0.00000000E+000
        153  0.00000000E+000
        154  0.00000000E+000
        155  0.00000000E+000
        156  0.00000000E+000
        157  0.00000000E+000
        158  0.00000000E+000
        159  0.00000000E+000
        160  0.24300000E+001
        161  0.40500000E+000
        162  0.00000000E+000
        163  0.00000000E+000
        164  0.00000000E+000
        165  0.00000000E+000
        166  0.00000000E+000
        167  0.00000000E+000
        168  0.00000000E+000
        169  0.00000000E+000
        170  0.00000000E+000
        171  0.00000000E+000
        172  0.00000000E+000
        173  0.00000000E+000
        174  0.00000000E+000
        175  0.00000000E+000
        176  0.00000000E+000
        177  0.19200000E+001
        178  0.32000000E+000
        179  0.00000000E+000
        180  0.00000000E+000
        181  0.00000000E+000
        182  0.00000000E+000
        183  0.00000000E+000
        184  0.00000000E+000
        185  0.00000000E+000
        186  0.00000000E+000
        187  0.00000000E+000
        188  0.00000000E+000
        189  0.00000000E+000
        190  0.00000000E+000
        191  0.00000000E+000
        192  0.14700000E+001
        193  0.24500000E+000
        194  0.00000000E+000
        195  0.00000000E+000
        196  0.00000000E+000
        197  0.00000000E+000
        198  0.00000000E+000
        199  0.00000000E+000
        200  0.00000000E+000
        201  0.00000000E+000
        202  0.00000000E+000
        203  0.00000000E+000
        204  0.00000000E+000
        205  0.10800000E+001
        206  0.18000000E+000
        207  0.00000000E+000
        208  0.00000000E+000
        209  0.00000000E+000
        210  0.00000000E+000
        211  0.00000000E+000
        212  0.00000000E+000
        213  0.00000000E+000
        214  0.00000000E+000
        215  0.00000000E+000
        216  0.75000000E+000
        217  0.12500000E+000
        218  0.00000000E+000
        219  0.00000000E+000
        220  0.00000000E+000
        221  0.00000000E+000
        222  0.00000000E+000
        223  0.00000000E+000
        224  0.00000000E+000
        225  0.48000000E+000
        226  0.80000000E-001
        227  0.00000000E+000
        228  0.00000000E+000
        229  0.00000000E+000
        230  0.00000000E+000
        231  0.00000000E+000
        232  0.27000000E+000
        233  0.45000000E-001
        234  0.00000000E+000
        235  0.00000000E+000
        236  0.00000000E+000
        237  0.12000000E+000
        238  0.20000000E-001
        239  0.00000000E+000
        240  0.30000000E-001
        241  0.50000000E-002
        242  0.00000000E+000
End values

Result TEMPE ALYA  0.10000000E+00 Scalar OnNodes
ComponentNames TEMPE
Values
          1  0.92500000E+001
          2  0.96900000E+001
          3  0.10140000E+002
          4  0.10600000E+002
          5  0.11070000E+002
          6  0.11550000E+002
          7  0.12040000E+002
          8  0.12540000E+002
          9  0.13050000E+002
         10  0.89300000E+001
         11  0.79200000E+001
         12  0.69700000E+001
         13  0.60800000E+001
         14  0.52500000E+001
         15  0.44800000E+001
         16  0.37700000E+001
         17  0.31200000E+001
         18  0.25300000E+001
         19  0.88200000E+001
         20  0.13570000E+002
         21  0.20000000E+001
         22  0.85100000E+001
         23  0.81000000E+001
         24  0.77000000E+001
         25  0.73100000E+001
         26  0.69300000E+001
         27  0.65600000E+001
         28  0.62000000E+001
         29  0.58500000E+001
         30  0.55100000E+001
         31  0.75250000E+001
         32  0.66000000E+001
         33  0.57350000E+001
         34  0.49300000E+001
         35  0.41850000E+001
         36  0.35000000E+001
         37  0.28750000E+001
         38  0.23100000E+001
         39  0.51800000E+001
         40  0.18050000E+001
         41  0.71400000E+001
         42  0.67650000E+001
         43  0.64000000E+001
         44  0.60450000E+001
         45  0.57000000E+001
         46  0.53650000E+001
         47  0.50400000E+001
         48  0.47250000E+001
         49  0.62400000E+001
         50  0.54000000E+001
         51  0.46200000E+001
         52  0.39000000E+001
         53  0.32400000E+001
         54  0.26400000E+001
         55  0.21000000E+001
         56  0.44200000E+001
         57  0.16200000E+001
         58  0.58900000E+001
         59  0.55500000E+001
         60  0.52200000E+001
         61  0.49000000E+001
         62  0.45900000E+001
         63  0.42900000E+001
         64  0.40000000E+001
         65  0.50750000E+001
         66  0.43200000E+001
         67  0.36250000E+001
         68  0.29900000E+001
         69  0.24150000E+001
         70  0.19000000E+001
         71  0.37200000E+001
         72  0.14450000E+001
         73  0.47600000E+001
         74  0.44550000E+001
         75  0.41600000E+001
         76  0.38750000E+001
         77  0.36000000E+001
         78  0.33350000E+001
         79  0.40300000E+001
         80  0.33600000E+001
         81  0.27500000E+001
         82  0.22000000E+001
         83  0.17100000E+001
         84  0.30800000E+001
         85  0.12800000E+001
         86  0.37500000E+001
         87  0.34800000E+001
         88  0.32200000E+001
         89  0.29700000E+001
         90  0.27300000E+001
         91  0.31050000E+001
         92  0.25200000E+001
         93  0.19950000E+001
         94  0.15300000E+001
         95  0.25000000E+001
         96  0.11250000E+001
         97  0.28600000E+001
         98  0.26250000E+001
         99  0.24000000E+001
        100  0.21850000E+001
        101  0.23000000E+001
        102  0.18000000E+001
        103  0.13600000E+001
        104  0.19800000E+001
        105  0.98000000E+000
        106  0.20900000E+001
        107  0.18900000E+001
        108  0.17000000E+001
        109  0.16150000E+001
        110  0.12000000E+001
        111  0.15200000E+001
        112  0.84500000E+000
        113  0.14400000E+001
        114  0.12750000E+001
        115  0.10500000E+001
        116  0.11200000E+001
        117  0.72000000E+000
        118  0.91000000E+000
        119  0.78000000E+000
        120  0.60500000E+000
        121  0.50000000E+000
        122  0.54000000E+001
        123  0.57400000E+001
        124  0.60900000E+001
        125  0.64500000E+001
        126  0.68200000E+001
        127  0.72000000E+001
        128  0.75900000E+001
        129  0.79900000E+001
        130  0.84000000E+001
        131  0.51800000E+001
        132  0.44200000E+001
        133  0.37200000E+001
        134  0.30800000E+001
        135  0.25000000E+001
        136  0.19800000E+001
        137  0.15200000E+001
        138  0.11200000E+001
        139  0.78000000E+000
        140  0.50700000E+001
        141  0.88200000E+001
        142  0.50000000E+000
        143  0.48600000E+001
        144  0.45500000E+001
        145  0.42500000E+001
        146  0.39600000E+001
        147  0.36800000E+001
        148  0.34100000E+001
        149  0.31500000E+001
        150  0.29000000E+001
        151  0.26600000E+001
        152  0.41250000E+001
        153  0.34500000E+001
        154  0.28350000E+001
        155  0.22800000E+001
        156  0.17850000E+001
        157  0.13500000E+001
        158  0.97500000E+000
        159  0.66000000E+000
        160  0.24300000E+001
        161  0.40500000E+000
        162  0.38400000E+001
        163  0.35650000E+001
        164  0.33000000E+001
        165  0.30450000E+001
        166  0.28000000E+001
        167  0.25650000E+001
        168  0.23400000E+001
        169  0.21250000E+001
        170  0.31900000E+001
        171  0.26000000E+001
        172  0.20700000E+001
        173  0.16000000E+001
        174  0.11900000E+001
        175  0.84000000E+000
        176  0.55000000E+000
        177  0.19200000E+001
        178  0.32000000E+000
        179  0.29400000E+001
        180  0.27000000E+001
        181  0.24700000E+001
        182  0.22500000E+001
        183  0.20400000E+001
        184  0.18400000E+001
        185  0.16500000E+001
        186  0.23750000E+001
        187  0.18700000E+001
        188  0.14250000E+001
        189  0.10400000E+001
        190  0.71500000E+000
        191  0.45000000E+000
        192  0.14700000E+001
        193  0.24500000E+000
        194  0.21600000E+001
        195  0.19550000E+001
        196  0.17600000E+001
        197  0.15750000E+001
        198  0.14000000E+001
        199  0.12350000E+001
        200  0.16800000E+001
        201  0.12600000E+001
        202  0.90000000E+000
        203  0.60000000E+000
        204  0.36000000E+000
        205  0.10800000E+001
        206  0.18000000E+000
        207  0.15000000E+001
        208  0.13300000E+001
        209  0.11700000E+001
        210  0.10200000E+001
        211  0.88000000E+000
        212  0.11050000E+001
        213  0.77000000E+000
        214  0.49500000E+000
        215  0.28000000E+000
        216  0.75000000E+000
        217  0.12500000E+000
        218  0.96000000E+000
        219  0.82500000E+000
        220  0.70000000E+000
        221  0.58500000E+000
        222  0.65000000E+000
        223  0.40000000E+000
        224  0.21000000E+000
        225  0.48000000E+000
        226  0.80000000E-001
        227  0.54000000E+000
        228  0.44000000E+000
        229  0.35000000E+000
        230  0.31500000E+000
        231  0.15000000E+000
        232  0.27000000E+000
        233  0.45000000E-001
        234  0.24000000E+000
        235  0.17500000E+000
        236  0.10000000E+000
        237  0.12000000E+000
        238  0.20000000E-001
        239  0.60000000E-001
        240  0.30000000E-001
        241  0.50000000E-002
        242  0.00000000E+000
End values

