GiD Post Results File 1.0
 
Result ISOCH ALYA  0.10000000E-01 Scalar OnNodes
ComponentNames ISOCH
Values
          1  0.12860000E-002
          2 -0.10000000E+001
          3 -0.10000000E+001
          4 -0.10000000E+001
End values

Result REPOL ALYA  0.10000000E-01 Scalar OnNodes
ComponentNames REPOL
Values
          1 -0.10000000E+001
          2 -0.10000000E+001
          3 -0.10000000E+001
          4 -0.10000000E+001
End values

