 0.90962417E+000
 0.63622568E+000
 0.63622568E+000
 0.90962417E+000
 0.90962417E+000
 0.63622568E+000
 0.63622568E+000
 0.90962417E+000
 0.66896477E+000
 0.47416873E+000
 0.38484417E+000
 0.33635273E+000
 0.29414272E+000
 0.25512659E+000
 0.21676017E+000
 0.20394125E+000
 0.33998950E+000
 0.63622568E+000
 0.63622568E+000
 0.33998950E+000
 0.20394125E+000
 0.21676017E+000
 0.25512659E+000
 0.29414272E+000
 0.33635273E+000
 0.38484417E+000
 0.47416873E+000
 0.66896477E+000
 0.90962417E+000
 0.90962417E+000
 0.66896477E+000
 0.47416873E+000
 0.38484417E+000
 0.33635273E+000
 0.29414272E+000
 0.25512659E+000
 0.21676017E+000
 0.20394125E+000
 0.33998950E+000
 0.63622568E+000
 0.63622568E+000
 0.33998950E+000
 0.20394125E+000
 0.21676017E+000
 0.25512659E+000
 0.29414272E+000
 0.33635273E+000
 0.38484417E+000
 0.47416873E+000
 0.66896477E+000
 0.90962417E+000
 0.90962417E+000
 0.90962417E+000
 0.90962417E+000
 0.63622568E+000
 0.63622568E+000
 0.63622568E+000
 0.63622568E+000
 0.90962417E+000
 0.90962417E+000
 0.66896477E+000
 0.66896477E+000
 0.47416873E+000
 0.47416873E+000
 0.38484417E+000
 0.38484417E+000
 0.33635273E+000
 0.33635273E+000
 0.29414272E+000
 0.29414272E+000
 0.25512659E+000
 0.25512659E+000
 0.21676017E+000
 0.21676017E+000
 0.20394125E+000
 0.20394125E+000
 0.33998950E+000
 0.33998950E+000
 0.66896477E+000
 0.66896477E+000
 0.47416873E+000
 0.47416873E+000
 0.38484417E+000
 0.38484417E+000
 0.33635273E+000
 0.33635273E+000
 0.29414272E+000
 0.29414272E+000
 0.25512659E+000
 0.25512659E+000
 0.21676017E+000
 0.21676017E+000
 0.20394125E+000
 0.20394125E+000
 0.33998950E+000
 0.33998950E+000
 0.66896477E+000
 0.66896477E+000
 0.47416873E+000
 0.47416873E+000
 0.38484417E+000
 0.38484417E+000
 0.33635273E+000
 0.33635273E+000
 0.29414272E+000
 0.29414272E+000
 0.25512659E+000
 0.25512659E+000
 0.21676017E+000
 0.21676017E+000
 0.20394125E+000
 0.20394125E+000
 0.33998950E+000
 0.33998950E+000
 0.63622568E+000
 0.63622568E+000
 0.63622568E+000
 0.63622568E+000
 0.33998950E+000
 0.33998950E+000
 0.20394125E+000
 0.20394125E+000
 0.21676017E+000
 0.21676017E+000
 0.25512659E+000
 0.25512659E+000
 0.29414272E+000
 0.29414272E+000
 0.33635273E+000
 0.33635273E+000
 0.38484417E+000
 0.38484417E+000
 0.47416873E+000
 0.47416873E+000
 0.66896477E+000
 0.66896477E+000
 0.90962417E+000
 0.90962417E+000
 0.90962417E+000
 0.90962417E+000
 0.66896477E+000
 0.66896477E+000
 0.66896477E+000
 0.66896477E+000
 0.47416873E+000
 0.47416873E+000
 0.47416873E+000
 0.47416873E+000
 0.38484417E+000
 0.38484417E+000
 0.38484417E+000
 0.38484417E+000
 0.33635273E+000
 0.33635273E+000
 0.33635273E+000
 0.33635273E+000
 0.29414272E+000
 0.29414272E+000
 0.29414272E+000
 0.29414272E+000
 0.25512659E+000
 0.25512659E+000
 0.25512659E+000
 0.25512659E+000
 0.21676017E+000
 0.21676017E+000
 0.21676017E+000
 0.21676017E+000
 0.20394125E+000
 0.20394125E+000
 0.20394125E+000
 0.20394125E+000
 0.33998950E+000
 0.33998950E+000
 0.33998950E+000
 0.33998950E+000
