 0.99973510E+000
 0.10000000E+001
 0.10000000E+001
 0.99973537E+000
 0.34017634E-009
 0.00000000E+000
 0.00000000E+000
 0.34050767E-009
 0.99976423E+000
 0.99977682E+000
 0.99978774E+000
 0.99983669E+000
 0.99994041E+000
 0.99999322E+000
 0.99999291E+000
 0.99999258E+000
 0.99999227E+000
 0.99999157E+000
 0.99998967E+000
 0.99997799E+000
 0.99983256E+000
 0.99799218E+000
 0.10000000E+001
 0.10000000E+001
 0.10000000E+001
 0.10000000E+001
 0.10000000E+001
 0.10000000E+001
 0.10000000E+001
 0.10000000E+001
 0.99799119E+000
 0.99983235E+000
 0.99997794E+000
 0.99998965E+000
 0.99999156E+000
 0.99999227E+000
 0.99999257E+000
 0.99999291E+000
 0.99999322E+000
 0.99994045E+000
 0.99983675E+000
 0.99978775E+000
 0.99977682E+000
 0.99976430E+000
 0.99849993E+000
 0.98853138E+000
 0.93760049E+000
 0.77135311E+000
 0.47047949E+000
 0.19323904E+000
 0.54460648E-001
 0.10896396E-001
 0.15943842E-002
 0.17855794E-003
 0.16030242E-004
 0.11937206E-005
 0.74687071E-007
 0.39519254E-008
 0.30063379E-009
 0.25482054E-009
 0.19460885E-009
 0.11091767E-009
 0.29771819E-010
 0.12687532E-012
 0.81276751E-014
 0.24413229E-012
 0.82868022E-011
 0.25058017E-009
 0.64925054E-008
 0.14445453E-006
 0.28457030E-005
 0.53366660E-004
 0.00000000E+000
 0.00000000E+000
 0.00000000E+000
 0.00000000E+000
 0.00000000E+000
 0.00000000E+000
 0.00000000E+000
 0.00000000E+000
 0.53286292E-004
 0.28371015E-005
 0.14391879E-006
 0.64653474E-008
 0.24937649E-009
 0.82416563E-011
 0.24267240E-012
 0.80840653E-014
 0.13104539E-012
 0.29803427E-010
 0.11097781E-009
 0.19466386E-009
 0.25486643E-009
 0.30075630E-009
 0.39583587E-008
 0.74700619E-007
 0.11938619E-005
 0.16031166E-004
 0.17856562E-003
 0.15944373E-002
 0.10896754E-001
 0.54462531E-001
 0.19324538E+000
 0.47049047E+000
 0.77136166E+000
 0.93760078E+000
 0.98853048E+000
 0.99849764E+000
 0.93297169E+000
 0.89333319E+000
 0.84426773E+000
 0.64987451E+000
 0.35419137E+000
 0.13863135E+000
 0.47755912E-001
 0.11775709E-001
 0.35687836E-002
 0.30152280E-002
 0.35698823E-002
 0.41030942E-002
 0.43730084E-002
 0.25988609E-002
 0.93337479E+000
 0.89406270E+000
 0.84481772E+000
 0.65001078E+000
 0.35394380E+000
 0.13830699E+000
 0.47540106E-001
 0.11703352E-001
 0.35384013E-002
 0.29860984E-002
 0.35351524E-002
 0.40651998E-002
 0.43392011E-002
 0.25835351E-002
 0.15600037E-003
 0.27860617E-003
 0.29536806E-003
 0.26929275E-003
 0.26032049E-003
 0.65851064E-003
 0.42760086E-002
 0.27342676E-001
 0.12916090E+000
 0.38859172E+000
 0.72705538E+000
 0.93272560E+000
 0.98464736E+000
 0.99389895E+000
 0.90752921E-005
 0.17979334E-004
 0.21551642E-004
 0.22026101E-004
 0.34831026E-004
 0.25950765E-003
 0.27932069E-002
 0.23799915E-001
 0.13751078E+000
 0.43316744E+000
 0.77497850E+000
 0.95229895E+000
 0.99414805E+000
 0.99925442E+000
 0.49288539E-006
 0.10001639E-005
 0.12711465E-005
 0.16516672E-005
 0.93641431E-005
 0.16195110E-003
 0.24733313E-002
 0.26011207E-001
 0.15412873E+000
 0.46956764E+000
 0.80541411E+000
 0.96230820E+000
 0.99606296E+000
 0.99975367E+000
 0.22771656E-007
 0.46953917E-007
 0.65568976E-007
 0.23190347E-006
 0.51884249E-005
 0.13069034E-003
 0.24327368E-002
 0.27444404E-001
 0.16234683E+000
 0.48626988E+000
 0.81961123E+000
 0.96741632E+000
 0.99690243E+000
 0.99983277E+000
 0.88805987E-009
 0.18922185E-008
 0.47717472E-008
 0.10645669E-006
 0.40082471E-005
 0.12075290E-003
 0.24366502E-002
 0.28075927E-001
 0.16560606E+000
 0.49273584E+000
 0.82522310E+000
 0.96952706E+000
 0.99725713E+000
 0.99985951E+000
 0.29950554E-010
 0.86943524E-010
 0.15714861E-008
 0.80508061E-007
 0.35944322E-005
 0.11747395E-003
 0.24490915E-002
 0.28397112E-001
 0.16709894E+000
 0.49559841E+000
 0.82765717E+000
 0.97041314E+000
 0.99740241E+000
 0.99987070E+000
 0.10726115E-011
 0.17771636E-010
 0.11339305E-008
 0.69933067E-007
 0.33945942E-005
 0.11601017E-003
 0.24647380E-002
 0.28671754E-001
 0.16832785E+000
 0.49791295E+000
 0.82960760E+000
 0.97112365E+000
 0.99750834E+000
 0.99987610E+000
 0.17077235E-012
 0.13098998E-010
 0.10231107E-008
 0.65140332E-007
 0.32622862E-005
 0.11520879E-003
 0.24928456E-002
 0.29076068E-001
 0.17011574E+000
 0.50129651E+000
 0.83234625E+000
 0.97194838E+000
 0.99760261E+000
 0.99988245E+000
 0.00000000E+000
 0.00000000E+000
 0.00000000E+000
 0.00000000E+000
 0.11444318E-005
 0.90143089E-004
 0.23651155E-002
 0.29130961E-001
 0.17263045E+000
 0.50879132E+000
 0.84025319E+000
 0.97514287E+000
 0.99808684E+000
 0.99989824E+000
 0.28127644E-009
 0.56733605E-008
 0.11427255E-006
 0.21597814E-005
 0.36527833E-004
 0.52080071E-003
 0.56252272E-002
 0.40894323E-001
 0.18531311E+000
 0.49960964E+000
 0.82127535E+000
 0.96647412E+000
 0.99632574E+000
 0.99967855E+000
 0.12148995E-008
 0.24868217E-007
 0.47437498E-006
 0.80271754E-005
 0.11314250E-003
 0.12399572E-002
 0.98549130E-002
 0.53862259E-001
 0.19855444E+000
 0.48702746E+000
 0.79199566E+000
 0.94970874E+000
 0.99211796E+000
 0.99909289E+000
 0.21980992E-008
 0.44680386E-007
 0.80422093E-006
 0.12347473E-004
 0.15437213E-003
 0.14950895E-002
 0.10709187E-001
 0.54864046E-001
 0.19701683E+000
 0.48034262E+000
 0.78318248E+000
 0.94452949E+000
 0.99059653E+000
 0.99884480E+000
 0.28437029E-008
 0.56414496E-007
 0.97365442E-006
 0.14122190E-004
 0.16642545E-003
 0.15377386E-002
 0.10713193E-001
 0.54264551E-001
 0.19454030E+000
 0.47588070E+000
 0.77957041E+000
 0.94325630E+000
 0.99036417E+000
 0.99880905E+000
 0.32878357E-008
 0.63559334E-007
 0.10637328E-005
 0.14920340E-004
 0.17098624E-003
 0.15503017E-002
 0.10692375E-001
 0.53972342E-001
 0.19345739E+000
 0.47365931E+000
 0.77723278E+000
 0.94217104E+000
 0.99013225E+000
 0.99876762E+000
 0.29140327E-001
 0.37892187E-001
 0.39356051E-001
 0.38703758E-001
 0.37567460E-001
 0.37509494E-001
 0.43234194E-001
 0.60526325E-001
 0.86912148E-001
 0.11146873E+000
 0.13075664E+000
 0.14855620E+000
 0.17362534E+000
 0.29099889E+000
 0.28655738E-001
 0.42369253E-001
 0.46821837E-001
 0.47752704E-001
 0.47831614E-001
 0.48365294E-001
 0.50308001E-001
 0.53710401E-001
 0.57700507E-001
 0.61846825E-001
 0.66773958E-001
 0.78854525E-001
 0.12425556E+000
 0.30454938E+000
 0.28633053E-001
 0.42565909E-001
 0.47789706E-001
 0.49309379E-001
 0.49690746E-001
 0.49903440E-001
 0.50208889E-001
 0.50642872E-001
 0.51245652E-001
 0.52346508E-001
 0.56199208E-001
 0.71014660E-001
 0.12176989E+000
 0.30449838E+000
 0.28553396E-001
 0.42527145E-001
 0.47851424E-001
 0.49482480E-001
 0.49889369E-001
 0.49988441E-001
 0.50035937E-001
 0.50101247E-001
 0.50285144E-001
 0.51137371E-001
 0.55112890E-001
 0.70557565E-001
 0.12217333E+000
 0.30643114E+000
 0.28553577E-001
 0.42526725E-001
 0.47851753E-001
 0.49483412E-001
 0.49890335E-001
 0.49988819E-001
 0.50035158E-001
 0.50098979E-001
 0.50281506E-001
 0.51133563E-001
 0.55111832E-001
 0.70565440E-001
 0.12220022E+000
 0.30647423E+000
 0.28629823E-001
 0.42564260E-001
 0.47794242E-001
 0.49318211E-001
 0.49701017E-001
 0.49911193E-001
 0.50208306E-001
 0.50628860E-001
 0.51217546E-001
 0.52308594E-001
 0.56163801E-001
 0.71010656E-001
 0.12184073E+000
 0.30465240E+000
 0.28648149E-001
 0.42379268E-001
 0.46857263E-001
 0.47803116E-001
 0.47890413E-001
 0.48424691E-001
 0.50347307E-001
 0.53690663E-001
 0.57587259E-001
 0.61649734E-001
 0.66531239E-001
 0.78642804E-001
 0.12423502E+000
 0.30479562E+000
 0.29156090E-001
 0.37970693E-001
 0.39474115E-001
 0.38840765E-001
 0.37715716E-001
 0.37668432E-001
 0.43409628E-001
 0.60667241E-001
 0.86839771E-001
 0.11095927E+000
 0.12967819E+000
 0.14717018E+000
 0.17245243E+000
 0.29074410E+000
 0.32854910E-008
 0.63542312E-007
 0.10635661E-005
 0.14919083E-004
 0.17097799E-003
 0.15502617E-002
 0.10692196E-001
 0.53971731E-001
 0.19345618E+000
 0.47365861E+000
 0.77723370E+000
 0.94217330E+000
 0.99013329E+000
 0.99876823E+000
 0.28428597E-008
 0.56402118E-007
 0.97350642E-006
 0.14120896E-004
 0.16641739E-003
 0.15377016E-002
 0.10713037E-001
 0.54264021E-001
 0.19453918E+000
 0.47587920E+000
 0.77956970E+000
 0.94325629E+000
 0.99036416E+000
 0.99880904E+000
 0.21970216E-008
 0.44664140E-007
 0.80399795E-006
 0.12345188E-004
 0.15435530E-003
 0.14949947E-002
 0.10708811E-001
 0.54862963E-001
 0.19701428E+000
 0.48033813E+000
 0.78317873E+000
 0.94452825E+000
 0.99059649E+000
 0.99884489E+000
 0.12137003E-008
 0.24848726E-007
 0.47406802E-006
 0.80231713E-005
 0.11310269E-003
 0.12396730E-002
 0.98535977E-002
 0.53858498E-001
 0.19854792E+000
 0.48702167E+000
 0.79199504E+000
 0.94971097E+000
 0.99211939E+000
 0.99909334E+000
 0.28069605E-009
 0.56624968E-008
 0.11408268E-006
 0.21568441E-005
 0.36492148E-004
 0.52050267E-003
 0.56237177E-002
 0.40889747E-001
 0.18530490E+000
 0.49960239E+000
 0.82127300E+000
 0.96647581E+000
 0.99632712E+000
 0.99967883E+000
 0.00000000E+000
 0.00000000E+000
 0.00000000E+000
 0.00000000E+000
 0.11377847E-005
 0.90066306E-004
 0.23645563E-002
 0.29128274E-001
 0.17262166E+000
 0.50877796E+000
 0.84024348E+000
 0.97513994E+000
 0.99808666E+000
 0.99989824E+000
 0.17118105E-012
 0.13111466E-010
 0.10237902E-008
 0.65148477E-007
 0.32612656E-005
 0.11517537E-003
 0.24924122E-002
 0.29073523E-001
 0.17010635E+000
 0.50127857E+000
 0.83233228E+000
 0.97194279E+000
 0.99760176E+000
 0.99988239E+000
 0.10794608E-011
 0.17788819E-010
 0.11335606E-008
 0.69897246E-007
 0.33925846E-005
 0.11595940E-003
 0.24640858E-002
 0.28667539E-001
 0.16831409E+000
 0.49788649E+000
 0.82958858E+000
 0.97111607E+000
 0.99750719E+000
 0.99987603E+000
 0.30154251E-010
 0.87389187E-010
 0.15716127E-008
 0.80448189E-007
 0.35917374E-005
 0.11740434E-003
 0.24481195E-002
 0.28390617E-001
 0.16707710E+000
 0.49555500E+000
 0.82762438E+000
 0.97040005E+000
 0.99740047E+000
 0.99987057E+000
 0.89343048E-009
 0.19035780E-008
 0.47869051E-008
 0.10639866E-006
 0.40043391E-005
 0.12064844E-003
 0.24351607E-002
 0.28065563E-001
 0.16556960E+000
 0.49266519E+000
 0.82516438E+000
 0.96950404E+000
 0.99725368E+000
 0.99985929E+000
 0.22891266E-007
 0.47203563E-007
 0.65895510E-007
 0.23220327E-006
 0.51835917E-005
 0.13053309E-003
 0.24303386E-002
 0.27427303E-001
 0.16228406E+000
 0.48614909E+000
 0.81950810E+000
 0.96737667E+000
 0.99689621E+000
 0.99983236E+000
 0.49512312E-006
 0.10046628E-005
 0.12767170E-005
 0.16575976E-005
 0.93644086E-005
 0.16170465E-003
 0.24691335E-002
 0.25981907E-001
 0.15402865E+000
 0.46938029E+000
 0.80524910E+000
 0.96224414E+000
 0.99605250E+000
 0.99975290E+000
 0.91056394E-005
 0.18030880E-004
 0.21605753E-004
 0.22078353E-004
 0.34869897E-004
 0.25901339E-003
 0.27852273E-002
 0.23755249E-001
 0.13737809E+000
 0.43292136E+000
 0.77476127E+000
 0.95220989E+000
 0.99413243E+000
 0.99925309E+000
 0.15597101E-003
 0.27816200E-003
 0.29472895E-003
 0.26872522E-003
 0.25975147E-003
 0.65561570E-003
 0.42581322E-002
 0.27293009E-001
 0.12902049E+000
 0.38834321E+000
 0.72686466E+000
 0.93265556E+000
 0.98465850E+000
 0.99390857E+000
