GiD Post Results File 1.0
 
Result VELOC ALYA  0.00000000E+00 Vector OnNodes
ComponentNames VELOC_X,VELOC_Y,VELOC_Z
Values
          1  0.00000000E+000  0.00000000E+000
          2  0.00000000E+000  0.00000000E+000
          3  0.00000000E+000  0.00000000E+000
          4  0.00000000E+000  0.00000000E+000
          5  0.00000000E+000  0.00000000E+000
          6  0.00000000E+000  0.00000000E+000
          7  0.00000000E+000  0.00000000E+000
          8  0.00000000E+000  0.00000000E+000
          9  0.00000000E+000  0.00000000E+000
         10  0.00000000E+000  0.00000000E+000
         11  0.00000000E+000  0.00000000E+000
         12  0.00000000E+000  0.00000000E+000
         13  0.00000000E+000  0.00000000E+000
         14  0.00000000E+000  0.00000000E+000
         15  0.00000000E+000  0.00000000E+000
         16  0.00000000E+000  0.00000000E+000
         17  0.00000000E+000  0.00000000E+000
         18  0.00000000E+000  0.00000000E+000
         19  0.00000000E+000  0.00000000E+000
         20  0.00000000E+000  0.00000000E+000
         21  0.00000000E+000  0.00000000E+000
         22  0.00000000E+000  0.00000000E+000
         23  0.00000000E+000  0.00000000E+000
         24  0.00000000E+000  0.00000000E+000
         25  0.00000000E+000  0.00000000E+000
         26  0.00000000E+000  0.00000000E+000
         27  0.00000000E+000  0.00000000E+000
         28  0.00000000E+000  0.00000000E+000
         29  0.00000000E+000  0.00000000E+000
         30  0.00000000E+000  0.00000000E+000
         31  0.00000000E+000  0.00000000E+000
         32  0.00000000E+000  0.00000000E+000
         33  0.00000000E+000  0.00000000E+000
         34  0.00000000E+000  0.00000000E+000
         35  0.00000000E+000  0.00000000E+000
         36  0.00000000E+000  0.00000000E+000
         37  0.00000000E+000  0.00000000E+000
         38  0.00000000E+000  0.00000000E+000
         39  0.00000000E+000  0.00000000E+000
         40  0.00000000E+000  0.00000000E+000
         41  0.00000000E+000  0.00000000E+000
         42  0.00000000E+000  0.00000000E+000
         43  0.00000000E+000  0.00000000E+000
         44  0.00000000E+000  0.00000000E+000
         45  0.00000000E+000  0.00000000E+000
         46  0.00000000E+000  0.00000000E+000
         47  0.00000000E+000  0.00000000E+000
         48  0.00000000E+000  0.00000000E+000
         49  0.00000000E+000  0.00000000E+000
         50  0.00000000E+000  0.00000000E+000
         51  0.00000000E+000  0.00000000E+000
         52  0.00000000E+000  0.00000000E+000
         53  0.00000000E+000  0.00000000E+000
         54  0.00000000E+000  0.00000000E+000
         55  0.00000000E+000  0.00000000E+000
         56  0.00000000E+000  0.00000000E+000
         57  0.00000000E+000  0.00000000E+000
         58  0.00000000E+000  0.00000000E+000
         59  0.00000000E+000  0.00000000E+000
         60  0.00000000E+000  0.00000000E+000
         61  0.00000000E+000  0.00000000E+000
         62  0.00000000E+000  0.00000000E+000
         63  0.00000000E+000  0.00000000E+000
         64  0.00000000E+000  0.00000000E+000
         65  0.00000000E+000  0.00000000E+000
         66  0.00000000E+000  0.00000000E+000
         67  0.00000000E+000  0.00000000E+000
         68  0.00000000E+000  0.00000000E+000
         69  0.00000000E+000  0.00000000E+000
         70  0.00000000E+000  0.00000000E+000
         71  0.00000000E+000  0.00000000E+000
         72  0.00000000E+000  0.00000000E+000
         73  0.00000000E+000  0.00000000E+000
         74  0.00000000E+000  0.00000000E+000
         75  0.00000000E+000  0.00000000E+000
         76  0.00000000E+000  0.00000000E+000
         77  0.00000000E+000  0.00000000E+000
         78  0.00000000E+000  0.00000000E+000
         79  0.00000000E+000  0.00000000E+000
         80  0.00000000E+000  0.00000000E+000
         81  0.00000000E+000  0.00000000E+000
         82  0.00000000E+000  0.00000000E+000
         83  0.00000000E+000  0.00000000E+000
         84  0.00000000E+000  0.00000000E+000
         85  0.00000000E+000  0.00000000E+000
         86  0.00000000E+000  0.00000000E+000
         87  0.00000000E+000  0.00000000E+000
         88  0.00000000E+000  0.00000000E+000
         89  0.00000000E+000  0.00000000E+000
         90  0.00000000E+000  0.00000000E+000
         91  0.00000000E+000  0.00000000E+000
         92  0.10000000E+001  0.00000000E+000
         93  0.10000000E+001  0.00000000E+000
         94  0.00000000E+000  0.00000000E+000
         95  0.00000000E+000  0.00000000E+000
         96  0.00000000E+000  0.00000000E+000
         97  0.00000000E+000  0.00000000E+000
         98  0.10000000E+001  0.00000000E+000
         99  0.00000000E+000  0.00000000E+000
        100  0.00000000E+000  0.00000000E+000
        101  0.00000000E+000  0.00000000E+000
        102  0.10000000E+001  0.00000000E+000
        103  0.00000000E+000  0.00000000E+000
        104  0.00000000E+000  0.00000000E+000
        105  0.00000000E+000  0.00000000E+000
        106  0.10000000E+001  0.00000000E+000
        107  0.00000000E+000  0.00000000E+000
        108  0.00000000E+000  0.00000000E+000
        109  0.00000000E+000  0.00000000E+000
        110  0.10000000E+001  0.00000000E+000
        111  0.00000000E+000  0.00000000E+000
        112  0.00000000E+000  0.00000000E+000
        113  0.00000000E+000  0.00000000E+000
        114  0.00000000E+000  0.00000000E+000
        115  0.10000000E+001  0.00000000E+000
        116  0.00000000E+000  0.00000000E+000
        117  0.10000000E+001  0.00000000E+000
        118  0.00000000E+000  0.00000000E+000
        119  0.10000000E+001  0.00000000E+000
        120  0.00000000E+000  0.00000000E+000
        121  0.00000000E+000  0.00000000E+000
End values

Result PRESS ALYA  0.00000000E+00 Scalar OnNodes
ComponentNames PRESS
Values
          1  0.00000000E+000
          2  0.00000000E+000
          3  0.00000000E+000
          4  0.00000000E+000
          5  0.00000000E+000
          6  0.00000000E+000
          7  0.00000000E+000
          8  0.00000000E+000
          9  0.00000000E+000
         10  0.00000000E+000
         11  0.00000000E+000
         12  0.00000000E+000
         13  0.00000000E+000
         14  0.00000000E+000
         15  0.00000000E+000
         16  0.00000000E+000
         17  0.00000000E+000
         18  0.00000000E+000
         19  0.00000000E+000
         20  0.00000000E+000
         21  0.00000000E+000
         22  0.00000000E+000
         23  0.00000000E+000
         24  0.00000000E+000
         25  0.00000000E+000
         26  0.00000000E+000
         27  0.00000000E+000
         28  0.00000000E+000
         29  0.00000000E+000
         30  0.00000000E+000
         31  0.00000000E+000
         32  0.00000000E+000
         33  0.00000000E+000
         34  0.00000000E+000
         35  0.00000000E+000
         36  0.00000000E+000
         37  0.00000000E+000
         38  0.00000000E+000
         39  0.00000000E+000
         40  0.00000000E+000
         41  0.00000000E+000
         42  0.00000000E+000
         43  0.00000000E+000
         44  0.00000000E+000
         45  0.00000000E+000
         46  0.00000000E+000
         47  0.00000000E+000
         48  0.00000000E+000
         49  0.00000000E+000
         50  0.00000000E+000
         51  0.00000000E+000
         52  0.00000000E+000
         53  0.00000000E+000
         54  0.00000000E+000
         55  0.00000000E+000
         56  0.00000000E+000
         57  0.00000000E+000
         58  0.00000000E+000
         59  0.00000000E+000
         60  0.00000000E+000
         61  0.00000000E+000
         62  0.00000000E+000
         63  0.00000000E+000
         64  0.00000000E+000
         65  0.00000000E+000
         66  0.00000000E+000
         67  0.00000000E+000
         68  0.00000000E+000
         69  0.00000000E+000
         70  0.00000000E+000
         71  0.00000000E+000
         72  0.00000000E+000
         73  0.00000000E+000
         74  0.00000000E+000
         75  0.00000000E+000
         76  0.00000000E+000
         77  0.00000000E+000
         78  0.00000000E+000
         79  0.00000000E+000
         80  0.00000000E+000
         81  0.00000000E+000
         82  0.00000000E+000
         83  0.00000000E+000
         84  0.00000000E+000
         85  0.00000000E+000
         86  0.00000000E+000
         87  0.00000000E+000
         88  0.00000000E+000
         89  0.00000000E+000
         90  0.00000000E+000
         91  0.00000000E+000
         92  0.00000000E+000
         93  0.00000000E+000
         94  0.00000000E+000
         95  0.00000000E+000
         96  0.00000000E+000
         97  0.00000000E+000
         98  0.00000000E+000
         99  0.00000000E+000
        100  0.00000000E+000
        101  0.00000000E+000
        102  0.00000000E+000
        103  0.00000000E+000
        104  0.00000000E+000
        105  0.00000000E+000
        106  0.00000000E+000
        107  0.00000000E+000
        108  0.00000000E+000
        109  0.00000000E+000
        110  0.00000000E+000
        111  0.00000000E+000
        112  0.00000000E+000
        113  0.00000000E+000
        114  0.00000000E+000
        115  0.00000000E+000
        116  0.00000000E+000
        117  0.00000000E+000
        118  0.00000000E+000
        119  0.00000000E+000
        120  0.00000000E+000
        121  0.00000000E+000
End values

Result VELOC ALYA  0.42427746E+02 Vector OnNodes
ComponentNames VELOC_X,VELOC_Y,VELOC_Z
Values
          1  0.00000000E+000  0.00000000E+000
          2  0.00000000E+000  0.00000000E+000
          3  0.00000000E+000  0.00000000E+000
          4 -0.56715337E-002  0.61837078E-002
          5  0.00000000E+000  0.00000000E+000
          6  0.00000000E+000  0.00000000E+000
          7 -0.21615234E-001  0.97372835E-002
          8 -0.12545838E-001  0.24885929E-001
          9 -0.41942415E-001  0.35340485E-001
         10  0.00000000E+000  0.00000000E+000
         11  0.00000000E+000  0.00000000E+000
         12 -0.40146970E-001  0.90636425E-002
         13 -0.18118145E-001  0.55374327E-001
         14 -0.74293692E-001  0.32251047E-001
         15 -0.59132386E-001  0.74759194E-001
         16  0.00000000E+000  0.00000000E+000
         17  0.00000000E+000  0.00000000E+000
         18 -0.54128303E-001  0.53101572E-002
         19 -0.21819869E-001  0.94735608E-001
         20 -0.10368130E+000  0.67937403E-001
         21 -0.98808164E-001  0.18828873E-001
         22 -0.70832384E-001  0.12446219E+000
         23  0.00000000E+000  0.00000000E+000
         24  0.00000000E+000  0.00000000E+000
         25 -0.13921050E+000  0.41514972E-001
         26 -0.12397643E+000  0.11370945E+000
         27 -0.58572447E-001 -0.57408668E-003
         28 -0.23486179E-001  0.13874502E+000
         29 -0.10788600E+000 -0.17386417E-002
         30 -0.74186536E-001  0.17825671E+000
         31 -0.16913479E+000  0.74312047E-001
         32 -0.15672677E+000  0.34911703E-003
         33 -0.12712868E+000  0.16347629E+000
         34  0.00000000E+000  0.00000000E+000
         35  0.00000000E+000  0.00000000E+000
         36 -0.51276621E-001 -0.66554952E-002
         37 -0.25423995E-001  0.18258675E+000
         38 -0.97295295E-001 -0.23168042E-001
         39 -0.69557337E-001  0.22634315E+000
         40 -0.19828416E+000  0.11134590E-001
         41 -0.17333461E+000  0.11405144E+000
         42 -0.14840841E+000 -0.45025842E-001
         43 -0.10835088E+000  0.20544529E+000
         44  0.00000000E+000  0.00000000E+000
         45  0.00000000E+000  0.00000000E+000
         46 -0.34540651E-001 -0.99154164E-002
         47 -0.37568850E-001  0.22710874E+000
         48 -0.20951855E+000  0.33945900E-001
         49 -0.20055716E+000 -0.64786910E-001
         50 -0.13946992E+000  0.14961664E+000
         51 -0.69298442E-001 -0.35928490E-001
         52 -0.66002751E-001  0.25794164E+000
         53 -0.11260476E+000 -0.76125352E-001
         54 -0.73492807E-001  0.22390374E+000
         55 -0.22715289E+000 -0.71255321E-001
         56 -0.16745364E+000  0.62735240E-001
         57  0.00000000E+000  0.00000000E+000
         58  0.00000000E+000  0.00000000E+000
         59 -0.15316698E-001 -0.81437257E-002
         60 -0.16628399E+000 -0.12715173E+000
         61 -0.99474484E-001  0.28110235E+000
         62 -0.70163432E-001  0.16323287E+000
         63 -0.34256258E-001 -0.32637656E-001
         64 -0.87290856E-001  0.24752794E+000
         65 -0.19218488E+000 -0.57304462E-001
         66 -0.60339002E-001 -0.75298457E-001
         67 -0.28207254E-001  0.19096754E+000
         68 -0.21147430E+000 -0.17735824E+000
         69 -0.69903787E-001  0.80211253E-001
         70 -0.99662802E-001 -0.14029279E+000
         71  0.35171849E-001  0.13167443E+000
         72  0.00000000E+000  0.00000000E+000
         73  0.00000000E+000  0.00000000E+000
         74 -0.22605907E-002 -0.26120981E-002
         75 -0.97501034E-001  0.30344416E+000
         76 -0.72876682E-002 -0.15612407E-001
         77 -0.20597975E+000 -0.20263668E+000
         78 -0.82970233E-001 -0.31976415E-001
         79  0.14916326E-001  0.17029496E+000
         80 -0.14959382E+000 -0.22761169E+000
         81  0.82264261E-001  0.66119147E-001
         82 -0.14576882E-001 -0.42033263E-001
         83  0.16982556E+000  0.93619865E-001
         84 -0.28181748E-001 -0.89377337E-001
         85  0.29072002E+000  0.53978727E-001
         86 -0.11588643E+000 -0.18476050E+000
         87  0.00000000E+000  0.00000000E+000
         88  0.00000000E+000  0.00000000E+000
         89 -0.18484895E+000 -0.31375516E+000
         90  0.97531971E-001 -0.14298756E-001
         91  0.00000000E+000  0.00000000E+000
         92  0.10000000E+001  0.00000000E+000
         93  0.10000000E+001  0.00000000E+000
         94  0.00000000E+000  0.00000000E+000
         95 -0.52930742E-001 -0.17018226E+000
         96  0.36967390E+000  0.24045636E-001
         97  0.00000000E+000  0.00000000E+000
         98  0.10000000E+001  0.00000000E+000
         99 -0.16320373E+000 -0.34268467E+000
        100  0.67117582E-001 -0.13114403E+000
        101  0.00000000E+000  0.00000000E+000
        102  0.10000000E+001  0.00000000E+000
        103 -0.86111601E-001 -0.28975723E+000
        104  0.40041495E+000 -0.80630424E-002
        105  0.00000000E+000  0.00000000E+000
        106  0.10000000E+001  0.00000000E+000
        107 -0.45217264E-001 -0.26628666E+000
        108 -0.10563977E+000 -0.41857245E+000
        109  0.37631422E+000 -0.54461719E-001
        110  0.10000000E+001  0.00000000E+000
        111  0.00000000E+000  0.00000000E+000
        112 -0.54437831E-001 -0.47644688E+000
        113  0.22767352E+000 -0.12519592E+000
        114  0.00000000E+000  0.00000000E+000
        115  0.10000000E+001  0.00000000E+000
        116  0.23383277E+000 -0.34703383E+000
        117  0.10000000E+001  0.00000000E+000
        118  0.00000000E+000  0.00000000E+000
        119  0.10000000E+001  0.00000000E+000
        120  0.00000000E+000  0.00000000E+000
        121  0.00000000E+000  0.00000000E+000
End values

Result PRESS ALYA  0.42427746E+02 Scalar OnNodes
ComponentNames PRESS
Values
          1 -0.53810600E+000
          2 -0.53627268E+000
          3 -0.53988537E+000
          4 -0.53827783E+000
          5 -0.53469364E+000
          6 -0.54111499E+000
          7 -0.53944278E+000
          8 -0.53751075E+000
          9 -0.53894441E+000
         10 -0.54064211E+000
         11 -0.53569264E+000
         12 -0.53928579E+000
         13 -0.53942146E+000
         14 -0.53915020E+000
         15 -0.54142849E+000
         16 -0.54083316E+000
         17 -0.53853819E+000
         18 -0.53802735E+000
         19 -0.54536029E+000
         20 -0.54227795E+000
         21 -0.53859199E+000
         22 -0.54813218E+000
         23 -0.53540559E+000
         24 -0.55099551E+000
         25 -0.54247969E+000
         26 -0.55023126E+000
         27 -0.53593953E+000
         28 -0.55630376E+000
         29 -0.53714131E+000
         30 -0.55979396E+000
         31 -0.55202746E+000
         32 -0.54123277E+000
         33 -0.56366749E+000
         34 -0.53239895E+000
         35 -0.56650174E+000
         36 -0.53372561E+000
         37 -0.57248049E+000
         38 -0.53512219E+000
         39 -0.57532160E+000
         40 -0.55150416E+000
         41 -0.56831231E+000
         42 -0.53829030E+000
         43 -0.58021785E+000
         44 -0.53083595E+000
         45 -0.58950773E+000
         46 -0.53239841E+000
         47 -0.59313910E+000
         48 -0.57023475E+000
         49 -0.54692945E+000
         50 -0.58810559E+000
         51 -0.53361729E+000
         52 -0.59082825E+000
         53 -0.53526288E+000
         54 -0.59403295E+000
         55 -0.56504886E+000
         56 -0.59420102E+000
         57 -0.53124214E+000
         58 -0.64484200E+000
         59 -0.53254025E+000
         60 -0.54033166E+000
         61 -0.61982896E+000
         62 -0.60392038E+000
         63 -0.53366044E+000
         64 -0.60143975E+000
         65 -0.59122390E+000
         66 -0.53462902E+000
         67 -0.59940213E+000
         68 -0.55366886E+000
         69 -0.61390372E+000
         70 -0.53708815E+000
         71 -0.60897517E+000
         72 -0.81332860E+000
         73 -0.53282979E+000
         74 -0.53384718E+000
         75 -0.67083435E+000
         76 -0.53538065E+000
         77 -0.57680637E+000
         78 -0.61426576E+000
         79 -0.59716150E+000
         80 -0.54449384E+000
         81 -0.62005877E+000
         82 -0.53723943E+000
         83 -0.58689104E+000
         84 -0.53991732E+000
         85 -0.59686621E+000
         86 -0.59824923E+000
         87 -0.53397748E+000
         88 -0.98128175E+000
         89 -0.55895507E+000
         90 -0.62058162E+000
         91 -0.53512517E+000
         92 -0.77574766E+000
         93 -0.58178847E+000
         94 -0.53761081E+000
         95 -0.54354169E+000
         96 -0.60800036E+000
         97 -0.54130107E+000
         98 -0.55632119E+000
         99 -0.56976406E+000
        100 -0.59781717E+000
        101 -0.54643577E+000
        102 -0.57175441E+000
        103 -0.54409825E+000
        104 -0.60563238E+000
        105 -0.55161265E+000
        106 -0.58844501E+000
        107 -0.55247739E+000
        108 -0.52285457E+000
        109 -0.57336095E+000
        110 -0.58863089E+000
        111 -0.54860305E+000
        112 -0.44340963E+000
        113 -0.50006239E+000
        114 -0.51327619E+000
        115 -0.55463238E+000
        116 -0.30289882E+000
        117 -0.45707369E+000
        118 -0.40300440E+000
        119 -0.22853956E+000
        120 -0.19304846E+000
        121  0.52747690E-015
End values

