GiD Post Results File 1.0
 
Result VELOC ALYA  0.37447361E+01 Vector OnNodes
ComponentNames VELOC_X,VELOC_Y,VELOC_Z
Values
          1  0.00000000E+000  0.00000000E+000
          2  0.00000000E+000  0.00000000E+000
          3  0.00000000E+000  0.00000000E+000
          4  0.00000000E+000  0.00000000E+000
          5  0.00000000E+000  0.00000000E+000
          6  0.00000000E+000  0.00000000E+000
          7  0.00000000E+000  0.00000000E+000
          8  0.00000000E+000  0.00000000E+000
          9  0.00000000E+000  0.00000000E+000
         10  0.43989936E+000 -0.10707238E-014
         11  0.78078745E+000 -0.31992913E-014
         12  0.10235562E+001 -0.54139838E-014
         13  0.11689134E+001 -0.67326979E-014
         14  0.12173136E+001 -0.70889692E-014
         15  0.11689134E+001 -0.60185829E-014
         16  0.10235562E+001 -0.44317931E-014
         17  0.78078745E+000 -0.26073249E-014
         18  0.43989936E+000 -0.11355768E-014
         19  0.00000000E+000  0.00000000E+000
         20  0.00000000E+000  0.00000000E+000
         21  0.00000000E+000  0.00000000E+000
         22  0.43989936E+000 -0.14141357E-014
         23  0.43989936E+000 -0.11570534E-014
         24  0.43989936E+000 -0.78585411E-015
         25  0.43989936E+000  0.18521063E-015
         26  0.43989936E+000  0.27396774E-014
         27  0.43989936E+000  0.88729782E-015
         28  0.43989936E+000  0.92013922E-016
         29  0.43989936E+000 -0.32482598E-015
         30  0.43989936E+000 -0.78173915E-015
         31  0.78078745E+000 -0.36636320E-014
         32  0.10235562E+001 -0.58169429E-014
         33  0.11689134E+001 -0.71122440E-014
         34  0.12173136E+001 -0.76153725E-014
         35  0.11689134E+001 -0.67771327E-014
         36  0.10235562E+001 -0.50895490E-014
         37  0.78078745E+000 -0.29704675E-014
         38  0.43989936E+000 -0.11977056E-014
         39  0.43989936E+000 -0.10707238E-014
         40  0.00000000E+000  0.00000000E+000
         41  0.78078745E+000 -0.30723072E-014
         42  0.78078745E+000 -0.18955815E-014
         43  0.78078745E+000 -0.84579726E-015
         44  0.78078745E+000  0.16557431E-016
         45  0.78078745E+000  0.60798425E-015
         46  0.78078745E+000  0.59069724E-015
         47  0.78078745E+000 -0.58001432E-015
         48  0.78078745E+000 -0.21227908E-014
         49  0.10235562E+001 -0.46797220E-014
         50  0.11689134E+001 -0.55932249E-014
         51  0.12173136E+001 -0.58594888E-014
         52  0.11689134E+001 -0.54921916E-014
         53  0.10235562E+001 -0.44928652E-014
         54  0.78078745E+000 -0.25180209E-014
         55  0.43989936E+000 -0.82396289E-015
         56  0.78078745E+000 -0.31992913E-014
         57  0.00000000E+000  0.00000000E+000
         58  0.10235562E+001 -0.24858580E-014
         59  0.10235562E+001 -0.88707389E-016
         60  0.10235562E+001  0.17325324E-014
         61  0.10235562E+001  0.24497445E-014
         62  0.10235562E+001  0.13942117E-014
         63  0.10235562E+001 -0.90713405E-015
         64  0.10235562E+001 -0.34690253E-014
         65  0.11689134E+001 -0.29793171E-014
         66  0.12173136E+001 -0.28899282E-014
         67  0.11689134E+001 -0.26596909E-014
         68  0.10235562E+001 -0.24288307E-014
         69  0.78078745E+000 -0.12616877E-014
         70  0.43989936E+000 -0.37924950E-015
         71  0.10235562E+001 -0.54139838E-014
         72  0.00000000E+000  0.00000000E+000
         73  0.11689134E+001  0.17711055E-015
         74  0.11689134E+001  0.27225022E-014
         75  0.11689134E+001  0.34246676E-014
         76  0.11689134E+001  0.18699129E-014
         77  0.11689134E+001 -0.98769372E-015
         78  0.11689134E+001 -0.42100759E-014
         79  0.12173136E+001  0.40171124E-015
         80  0.11689134E+001  0.60726309E-015
         81  0.10235562E+001  0.24226368E-015
         82  0.78078745E+000 -0.17051466E-016
         83  0.43989936E+000  0.24595825E-016
         84  0.11689134E+001 -0.67326979E-014
         85  0.00000000E+000  0.00000000E+000
         86  0.12173136E+001  0.29045387E-014
         87  0.12173136E+001  0.34701831E-014
         88  0.12173136E+001  0.18502975E-014
         89  0.12173136E+001 -0.11613630E-014
         90  0.12173136E+001 -0.46072507E-014
         91  0.11689134E+001  0.28252121E-014
         92  0.10235562E+001  0.21098902E-014
         93  0.78078745E+000  0.92053090E-015
         94  0.43989936E+000  0.19185358E-017
         95  0.12173136E+001 -0.70882144E-014
         96  0.00000000E+000  0.00000000E+000
         97  0.11689134E+001  0.33849396E-014
         98  0.11689134E+001  0.18673637E-014
         99  0.11689134E+001 -0.76895567E-015
        100  0.11689134E+001 -0.38834470E-014
        101  0.10235562E+001  0.25663529E-014
        102  0.78078745E+000  0.11844302E-014
        103  0.43989936E+000 -0.58747374E-016
        104  0.11689134E+001 -0.60185829E-014
        105  0.00000000E+000  0.00000000E+000
        106  0.10235562E+001  0.15846246E-014
        107  0.10235562E+001 -0.41002121E-015
        108  0.10235562E+001 -0.26897395E-014
        109  0.78078745E+000  0.75515945E-015
        110  0.43989936E+000 -0.75596368E-016
        111  0.10235562E+001 -0.44317931E-014
        112  0.00000000E+000  0.00000000E+000
        113  0.78078745E+000 -0.48784176E-015
        114  0.78078745E+000 -0.15327656E-014
        115  0.43989936E+000 -0.41963122E-015
        116  0.78078745E+000 -0.26073249E-014
        117  0.00000000E+000  0.00000000E+000
        118  0.43989936E+000 -0.83199879E-015
        119  0.43989936E+000 -0.11355768E-014
        120  0.00000000E+000  0.00000000E+000
        121  0.00000000E+000  0.00000000E+000
End values

Result PRESS ALYA  0.37447361E+01 Scalar OnNodes
ComponentNames PRESS
Values
          1  0.10816870E-013
          2  0.87867880E-014
          3  0.63232243E-014
          4  0.15644919E-014
          5 -0.50000385E-013
          6 -0.10400753E-014
          7 -0.20775972E-014
          8 -0.45896415E-015
          9  0.86835175E-014
         10  0.76980935E-013
         11  0.27710598E-012
         12  0.58246029E-012
         13  0.97331173E-012
         14  0.14112915E-011
         15  0.18587714E-011
         16  0.22697744E-011
         17  0.25988478E-011
         18  0.28117544E-011
         19  0.92308869E-014
         20  0.92308869E-014
         21  0.28852194E-011
         22  0.75301958E-013
         23  0.69551679E-013
         24  0.68114656E-013
         25  0.68309540E-013
         26  0.69274531E-013
         27  0.71703084E-013
         28  0.74145433E-013
         29  0.76280523E-013
         30  0.77831132E-013
         31  0.27446475E-012
         32  0.58164760E-012
         33  0.97565507E-012
         34  0.14151166E-011
         35  0.18598075E-011
         36  0.22675337E-011
         37  0.25953102E-011
         38  0.28087137E-011
         39  0.76980935E-013
         40  0.28813101E-011
         41  0.27057014E-012
         42  0.26973359E-012
         43  0.26911654E-012
         44  0.27021796E-012
         45  0.27088935E-012
         46  0.27513646E-012
         47  0.27653562E-012
         48  0.27690381E-012
         49  0.58098024E-012
         50  0.97582115E-012
         51  0.14165931E-011
         52  0.18619625E-011
         53  0.22652496E-011
         54  0.25896415E-011
         55  0.28023095E-011
         56  0.27710598E-012
         57  0.28774193E-011
         58  0.58153705E-012
         59  0.58259456E-012
         60  0.58254459E-012
         61  0.58370384E-012
         62  0.58704494E-012
         63  0.58527546E-012
         64  0.58269104E-012
         65  0.97729620E-012
         66  0.14140640E-011
         67  0.18594741E-011
         68  0.22610422E-011
         69  0.25858324E-011
         70  0.27993810E-011
         71  0.58246029E-012
         72  0.28725074E-011
         73  0.97703545E-012
         74  0.97815214E-012
         75  0.98148021E-012
         76  0.98147225E-012
         77  0.97685071E-012
         78  0.97465536E-012
         79  0.14144301E-011
         80  0.18576692E-011
         81  0.22633703E-011
         82  0.25872543E-011
         83  0.27980079E-011
         84  0.97331173E-012
         85  0.28729454E-011
         86  0.14178979E-011
         87  0.14214040E-011
         88  0.14195571E-011
         89  0.14166552E-011
         90  0.14134042E-011
         91  0.18601982E-011
         92  0.22657777E-011
         93  0.25910210E-011
         94  0.28003305E-011
         95  0.14112668E-011
         96  0.28707838E-011
         97  0.18640501E-011
         98  0.18630799E-011
         99  0.18607705E-011
        100  0.18589649E-011
        101  0.22715935E-011
        102  0.25958177E-011
        103  0.28055201E-011
        104  0.18587714E-011
        105  0.28745943E-011
        106  0.22681533E-011
        107  0.22724421E-011
        108  0.22681142E-011
        109  0.25968519E-011
        110  0.28074545E-011
        111  0.22697744E-011
        112  0.28800162E-011
        113  0.25987754E-011
        114  0.25993172E-011
        115  0.28107088E-011
        116  0.25988478E-011
        117  0.28836272E-011
        118  0.28133967E-011
        119  0.28117544E-011
        120  0.28854269E-011
        121  0.28852194E-011
End values

