-0.17517916E+006
-0.17517916E+006
-0.17517916E+006
-0.17517916E+006
-0.17517916E+006
-0.17517916E+006
-0.17517916E+006
-0.17517916E+006
-0.17517916E+006
-0.17517916E+006
-0.17517916E+006
-0.17517916E+006
-0.17517916E+006
-0.17517916E+006
-0.17517916E+006
-0.17517916E+006
-0.17517916E+006
-0.17517916E+006
-0.17517916E+006
-0.17517916E+006
-0.17517916E+006
-0.17517916E+006
-0.17517916E+006
-0.17517916E+006
-0.17517916E+006
-0.17517916E+006
-0.17517916E+006
-0.17517916E+006
-0.17517916E+006
-0.17517916E+006
-0.17517916E+006
-0.17517916E+006
-0.17517916E+006
-0.17517916E+006
-0.17517916E+006
-0.17517916E+006
-0.17517916E+006
-0.17517916E+006
-0.17517916E+006
-0.17517916E+006
-0.17517916E+006
-0.17517916E+006
-0.17517916E+006
-0.17517916E+006
-0.17517916E+006
-0.17517916E+006
-0.17517916E+006
-0.17517916E+006
-0.17517916E+006
-0.17517916E+006
-0.17517916E+006
-0.17517916E+006
-0.17517916E+006
-0.17517916E+006
-0.17517916E+006
-0.17517916E+006
-0.17517916E+006
-0.17517916E+006
-0.17517916E+006
-0.17517916E+006
-0.17517916E+006
-0.17517916E+006
-0.17517916E+006
-0.17517916E+006
-0.17517916E+006
-0.17517916E+006
-0.17517916E+006
-0.17517916E+006
-0.17517916E+006
-0.17517916E+006
-0.17517916E+006
-0.17517916E+006
-0.17517916E+006
-0.17517916E+006
-0.17517916E+006
-0.17517916E+006
-0.17517916E+006
-0.17517916E+006
-0.17517916E+006
-0.17517916E+006
-0.17517916E+006
-0.17517916E+006
-0.17517916E+006
-0.17517916E+006
-0.17517916E+006
-0.17517916E+006
-0.17517916E+006
-0.17517916E+006
-0.17517916E+006
-0.17517916E+006
-0.17517916E+006
-0.17517916E+006
-0.17517916E+006
-0.17517916E+006
-0.17517916E+006
-0.17517916E+006
-0.17517916E+006
-0.17517916E+006
-0.17517916E+006
-0.17517916E+006
-0.17517916E+006
-0.17517916E+006
