{
    "authors": [
        "eduardo.perez@bsc.es"
    ],
    "comparisons": [
        {
            "file": "CMC_1D_inert_only_diff_solve_mixing_var.ensi.CON03-000002",
            "method": "absolute",
            "tolerance": "1.0e-10"
        },
        {
            "file": "CMC_1D_inert_only_diff_solve_mixing_var.ensi.CON04-000002",
            "method": "absolute",
            "tolerance": "1.0e-12"
        },
        {
            "file": "CMC_1D_inert_only_diff_solve_mixing_var.ensi.XZR-000002",
            "method": "absolute",
            "tolerance": "1.0e-6"
        }
    ],
    "description": "1D diffusion problem by solving mixing variable transport equations in the frame of CMC model.",
    "enabled": true,
    "executions": [
        {
            "mpi": 4,
            "openmp": 0
        }
    ],
    "include": [
        "cantera"
    ],
    "modules": [
        "chemic"
    ],
    "name": "CMC_1D_inert_only_diff_solve_mixing_var",
    "postprocess": "alya2pos"
}
