GiD Post Results File 1.0
 
Result VELOC ALYA  0.43949802E+01 Vector OnNodes
ComponentNames VELOC_X,VELOC_Y,VELOC_Z
Values
          1  0.00000000E+000  0.00000000E+000
          2  0.00000000E+000  0.00000000E+000
          3  0.00000000E+000  0.00000000E+000
          4 -0.23740021E-002 -0.28809981E-002
          5  0.00000000E+000  0.00000000E+000
          6 -0.50001844E-002 -0.35036736E-002
          7  0.00000000E+000  0.00000000E+000
          8 -0.37777336E-002 -0.83023951E-002
          9 -0.10397954E-001 -0.11580761E-001
         10 -0.12580443E-001 -0.60463071E-002
         11  0.00000000E+000  0.00000000E+000
         12  0.00000000E+000  0.00000000E+000
         13 -0.17328155E-001 -0.26370132E-001
         14 -0.63138929E-002 -0.17637869E-001
         15 -0.27745359E-001 -0.24831476E-001
         16 -0.17410444E-001 -0.59278687E-002
         17  0.00000000E+000  0.00000000E+000
         18 -0.34928772E-001 -0.18320884E-001
         19  0.00000000E+000  0.00000000E+000
         20 -0.25725689E-001 -0.47496417E-001
         21 -0.42058924E-001 -0.46972998E-001
         22 -0.28668794E-001 -0.48663166E-002
         23 -0.92405338E-002 -0.31863586E-001
         24 -0.56930739E-001 -0.36802268E-001
         25  0.00000000E+000  0.00000000E+000
         26  0.00000000E+000  0.00000000E+000
         27 -0.60123012E-001 -0.76783620E-001
         28 -0.36866893E-001 -0.78295287E-001
         29 -0.61250025E-001 -0.18677844E-001
         30 -0.44127491E-001 -0.70641196E-002
         31 -0.12913990E-001 -0.52789814E-001
         32 -0.84966116E-001 -0.64539535E-001
         33 -0.92053510E-001 -0.37637296E-001
         34  0.00000000E+000  0.00000000E+000
         35 -0.82674449E-001 -0.11735056E+000
         36  0.00000000E+000  0.00000000E+000
         37 -0.50882353E-001 -0.12192863E+000
         38 -0.41383360E-001 -0.14143567E-002
         39 -0.67688065E-001 -0.60764511E-002
         40 -0.11841674E+000 -0.10037752E+000
         41 -0.92622961E-001 -0.15858751E-001
         42 -0.19221175E-001 -0.82622712E-001
         43 -0.12982069E+000 -0.55697379E-001
         44 -0.12482539E+000 -0.13606117E+000
         45 -0.99140091E-001 -0.16821992E+000
         46  0.00000000E+000  0.00000000E+000
         47 -0.12424179E+000 -0.22843656E-001
         48 -0.72400333E-001 -0.17926659E+000
         49  0.00000000E+000  0.00000000E+000
         50 -0.89748330E-001 -0.15057697E-002
         51 -0.16362140E+000 -0.12553368E+000
         52 -0.27136475E-001 -0.12576996E+000
         53 -0.16925839E+000 -0.70556266E-001
         54 -0.11367675E+000 -0.14973951E-002
         55 -0.15925897E+000 -0.18351016E+000
         56 -0.34943942E-001  0.23124944E-002
         57 -0.70833082E-001  0.52598777E-002
         58 -0.16254692E+000 -0.30866346E-001
         59 -0.13860631E+000 -0.22674258E+000
         60  0.00000000E+000  0.00000000E+000
         61 -0.14452048E+000 -0.15682109E-002
         62 -0.91466511E-001 -0.25112354E+000
         63  0.00000000E+000  0.00000000E+000
         64 -0.97234444E-001  0.11848895E-001
         65 -0.20299678E+000 -0.14376724E+000
         66 -0.55588727E-001  0.73515973E-002
         67 -0.20462884E+000 -0.81503915E-001
         68 -0.35243341E-001 -0.18171802E+000
         69 -0.19235417E+000 -0.31138225E-001
         70 -0.12605386E+000  0.18141283E-001
         71 -0.19475089E+000 -0.21145237E+000
         72 -0.30190109E-001  0.34607051E-002
         73 -0.75087593E-001  0.14468694E-001
         74 -0.17310230E+000  0.78461352E-002
         75 -0.16090162E+000 -0.28709788E+000
         76  0.00000000E+000  0.00000000E+000
         77 -0.10081398E+000  0.25563677E-001
         78 -0.10578553E+000 -0.32974371E+000
         79 -0.14842180E+000  0.29530035E-001
         80  0.00000000E+000  0.00000000E+000
         81 -0.22035715E+000 -0.85271303E-001
         82 -0.21463451E+000 -0.16073929E+000
         83 -0.21263136E+000 -0.22287551E-001
         84 -0.55942938E-001  0.14122945E-001
         85 -0.40786883E-001 -0.24725576E+000
         86 -0.19481553E+000  0.20461005E-001
         87 -0.19575495E+000 -0.24152364E+000
         88 -0.12200667E+000  0.43146908E-001
         89 -0.77420541E-001  0.27744144E-001
         90 -0.20955062E-001  0.37340260E-002
         91 -0.15997157E+000 -0.33552278E+000
         92 -0.17100288E+000  0.50842177E-001
         93  0.00000000E+000  0.00000000E+000
         94 -0.10468613E+000 -0.40670107E+000
         95 -0.94862063E-001  0.43437013E-001
         96 -0.20658018E+000 -0.64348174E-002
         97 -0.14246072E+000  0.63532231E-001
         98 -0.20201804E+000 -0.71060140E-001
         99 -0.18863634E+000 -0.15766605E+000
        100  0.00000000E+000  0.00000000E+000
        101 -0.19649774E+000  0.45510007E-001
        102 -0.37004107E-001  0.12399881E-001
        103 -0.53589597E-001  0.22755507E-001
        104 -0.17829966E+000  0.72932248E-001
        105 -0.38140228E-001 -0.31192811E+000
        106 -0.14905768E+000 -0.24893018E+000
        107 -0.11390638E+000  0.69658403E-001
        108 -0.17920774E-001  0.52995889E-002
        109 -0.68318685E-001  0.40420223E-001
        110 -0.11852012E+000 -0.35566364E+000
        111 -0.15227663E+000  0.92586905E-001
        112  0.00000000E+000  0.00000000E+000
        113 -0.16319644E+000  0.15024916E-001
        114 -0.13441798E+000 -0.52274848E-001
        115 -0.17062760E+000  0.68240344E-001
        116 -0.71887099E-001 -0.46476374E+000
        117 -0.12354803E+000  0.92507643E-001
        118 -0.84321590E-001  0.62687162E-001
        119 -0.16906207E+000  0.99713604E-001
        120 -0.33452101E-001  0.16943343E-001
        121  0.00000000E+000  0.00000000E+000
        122 -0.47798308E-001  0.33347838E-001
        123 -0.85067976E-001 -0.11624260E+000
        124 -0.15144230E+000  0.12026839E+000
        125 -0.26055709E-001 -0.35519991E+000
        126 -0.50321524E-001 -0.22561488E+000
        127 -0.93097145E-001  0.90515892E-001
        128 -0.13016018E+000  0.12354877E+000
        129 -0.57834968E-001  0.54406008E-001
        130 -0.10172966E-001 -0.32252476E+000
        131 -0.77097763E-001  0.40546485E-001
        132 -0.16572949E-001  0.92621802E-002
        133 -0.11177007E+000  0.93687091E-001
        134  0.00000000E+000  0.00000000E+000
        135 -0.21861943E-001 -0.24947161E-001
        136 -0.13172402E+000  0.12911521E+000
        137 -0.27290968E-001  0.21986174E-001
        138 -0.58142071E-002 -0.47745848E+000
        139 -0.64671156E-001  0.74508259E-001
        140 -0.10086340E+000  0.11928498E+000
        141 -0.13056653E+000  0.15106350E+000
        142  0.20739651E-001 -0.33738820E+000
        143  0.76118075E-001 -0.76243949E-001
        144  0.00000000E+000  0.00000000E+000
        145 -0.34187371E-001  0.39259142E-001
        146 -0.74523366E-001  0.10366867E+000
        147 -0.11792517E+000  0.15904641E+000
        148  0.14113506E+000 -0.16848965E+000
        149 -0.41821363E-002  0.18259596E-002
        150 -0.10048311E+000  0.15097555E+000
        151 -0.11914009E-001  0.11112499E-001
        152 -0.72344881E-001  0.14131484E+000
        153  0.55998465E-001  0.51009120E-001
        154 -0.38556263E-001  0.60041784E-001
        155 -0.15414455E-001  0.10021421E+000
        156 -0.93350684E-001  0.17079740E+000
        157  0.00000000E+000  0.00000000E+000
        158 -0.16641415E-001  0.24204082E-001
        159  0.10393860E+000 -0.46243438E+000
        160 -0.75900844E-001  0.13493956E+000
        161  0.18941500E+000 -0.25156196E-002
        162 -0.46276284E-001  0.86526294E-001
        163 -0.97267486E-001  0.18372393E+000
        164  0.00000000E+000  0.00000000E+000
        165  0.27419843E+000 -0.15078787E+000
        166  0.96041197E-001 -0.44196317E+000
        167 -0.21686882E-001  0.43109476E-001
        168  0.00000000E+000  0.00000000E+000
        169  0.00000000E+000  0.00000000E+000
        170 -0.49186982E-001  0.11079187E+000
        171  0.37480895E+000 -0.11371992E+000
        172  0.12280240E+000 -0.39748152E+000
        173 -0.72055754E-001  0.16076764E+000
        174 -0.23989523E-002  0.31824228E-002
        175  0.20453288E-001  0.13728609E+000
        176  0.22169888E+000  0.47669406E-001
        177 -0.48755731E-001  0.17456223E+000
        178  0.40777814E+000 -0.19455409E-001
        179  0.00000000E+000  0.00000000E+000
        180  0.11714468E+000  0.89005915E-001
        181 -0.70834579E-001  0.19050770E+000
        182 -0.22726450E-001  0.61627575E-001
        183  0.48663609E+000 -0.73790591E-001
        184 -0.45304932E-002  0.95160093E-002
        185  0.18922869E+000 -0.33123744E+000
        186 -0.78911839E-001  0.19025910E+000
        187  0.49761747E+000 -0.92793361E-002
        188 -0.51560002E-001  0.13996005E+000
        189  0.00000000E+000  0.00000000E+000
        190 -0.59811738E-002  0.18460352E-001
        191  0.61409892E+000 -0.34459117E-001
        192  0.31537393E+000 -0.24205205E+000
        193 -0.24515312E-001  0.78689282E-001
        194 -0.72737562E-001  0.20266086E+000
        195  0.59013441E+000 -0.31845790E-002
        196  0.00000000E+000  0.00000000E+000
        197  0.42508316E+000  0.11276052E-001
        198  0.75696082E+000 -0.15393118E-002
        199  0.54680660E+000 -0.12978626E+000
        200 -0.69404534E-002  0.29510405E-001
        201  0.68376092E+000 -0.87203680E-003
        202  0.00000000E+000  0.00000000E+000
        203  0.00000000E+000  0.00000000E+000
        204  0.50496078E+000  0.69149007E-002
        205  0.00000000E+000  0.00000000E+000
        206  0.90413137E+000  0.15726194E-001
        207  0.15870001E+000  0.10484087E+000
        208  0.10000000E+001  0.00000000E+000
        209 -0.49637868E-001  0.17134808E+000
        210 -0.25279051E-001  0.10413325E+000
        211  0.00000000E+000  0.00000000E+000
        212  0.77743422E+000 -0.19370709E-002
        213 -0.17248002E-001  0.18994016E+000
        214  0.59221375E+000  0.29056637E-002
        215  0.70702143E-001  0.13672841E+000
        216 -0.50529818E-001  0.20842277E+000
        217  0.10000000E+001  0.00000000E+000
        218  0.00000000E+000  0.00000000E+000
        219 -0.63885263E-002  0.37715369E-001
        220  0.87337020E+000 -0.43971875E-002
        221  0.37589759E+000  0.44036853E-001
        222  0.68661554E+000  0.11082401E-003
        223 -0.55487391E-001  0.21661131E+000
        224 -0.27090926E-001  0.13320285E+000
        225  0.00000000E+000  0.00000000E+000
        226 -0.79478594E-002  0.59637931E-001
        227  0.10000000E+001  0.00000000E+000
        228  0.45881130E+000  0.32465249E-001
        229  0.78804523E+000 -0.62918000E-003
        230 -0.45160901E-001  0.19839179E+000
        231  0.55224260E+000  0.21954552E-001
        232  0.00000000E+000  0.00000000E+000
        233  0.89623649E+000  0.63317612E-003
        234  0.76830883E-001  0.15425635E+000
        235  0.65601536E+000  0.12998711E-001
        236 -0.87117084E-002  0.77497056E-001
        237 -0.25535711E-001  0.15826928E+000
        238 -0.18860283E-001  0.19199425E+000
        239  0.10000000E+001  0.00000000E+000
        240 -0.46584841E-001  0.22446535E+000
        241  0.28798991E+000  0.70012096E-001
        242  0.00000000E+000  0.00000000E+000
        243  0.76806314E+000  0.59600398E-002
        244  0.37258162E+000  0.51589643E-001
        245 -0.38566083E-001  0.21536559E+000
        246  0.88324762E+000  0.13413958E-002
        247 -0.79649386E-002  0.92249661E-001
        248  0.47342763E+000  0.34967200E-001
        249 -0.24297704E-001  0.17242959E+000
        250  0.00000000E+000  0.00000000E+000
        251  0.10000000E+001  0.00000000E+000
        252  0.58912011E+000  0.20654039E-001
        253  0.71789368E+000  0.93659052E-002
        254  0.16336850E+000  0.10270189E+000
        255 -0.77587912E-002  0.98917365E-001
        256 -0.28930704E-001  0.21895801E+000
        257  0.00000000E+000  0.00000000E+000
        258  0.85852795E+000  0.16246803E-002
        259  0.24811874E+000  0.78643640E-001
        260 -0.38102354E-001  0.22886615E+000
        261  0.10000000E+001  0.00000000E+000
        262  0.35442125E+000  0.54195358E-001
        263  0.00000000E+000  0.00000000E+000
        264 -0.20227106E-001  0.17929179E+000
        265 -0.48025963E-002  0.10316768E+000
        266  0.48680858E+000  0.31595455E-001
        267  0.64316722E+000  0.14523782E-001
        268  0.00000000E+000  0.00000000E+000
        269  0.46721860E-001  0.16841255E+000
        270 -0.43459848E-001  0.23863343E+000
        271 -0.82072821E-002  0.10363727E+000
        272  0.81231281E+000  0.59793617E-002
        273  0.93750393E-001  0.14620370E+000
        274  0.10000000E+001  0.00000000E+000
        275  0.17538658E+000  0.11576817E+000
        276  0.00000000E+000  0.00000000E+000
        277 -0.35964409E-004  0.10416822E+000
        278  0.30523612E+000  0.76820856E-001
        279 -0.15032706E-001  0.20702183E+000
        280  0.49861650E+000  0.33128567E-001
        281  0.00000000E+000  0.00000000E+000
        282 -0.44988625E-002  0.99192012E-001
        283  0.75685207E+000 -0.25832987E-002
        284 -0.22027768E-001  0.26354501E+000
        285  0.10000000E+001  0.00000000E+000
        286  0.00000000E+000  0.00000000E+000
        287 -0.21437078E-001  0.26458249E+000
        288 -0.51306152E-002  0.91828553E-001
        289 -0.61441654E-002  0.11878036E+000
        290 -0.11697468E-001  0.25558081E+000
        291  0.00000000E+000  0.00000000E+000
        292  0.26290776E-001  0.23310447E+000
        293  0.13250236E+000  0.18921653E+000
        294  0.00000000E+000  0.00000000E+000
        295  0.39361228E+000  0.11299131E+000
        296  0.10000000E+001  0.00000000E+000
        297  0.00000000E+000  0.00000000E+000
        298  0.00000000E+000  0.00000000E+000
        299  0.00000000E+000  0.00000000E+000
        300  0.00000000E+000  0.00000000E+000
        301  0.00000000E+000  0.00000000E+000
        302  0.00000000E+000  0.00000000E+000
        303  0.00000000E+000  0.00000000E+000
End values

Result PRESS ALYA  0.43949802E+01 Scalar OnNodes
ComponentNames PRESS
Values
          1 -0.16978811E+001
          2 -0.16982873E+001
          3 -0.16974486E+001
          4 -0.16983231E+001
          5 -0.16992262E+001
          6 -0.16973293E+001
          7 -0.16966462E+001
          8 -0.16991001E+001
          9 -0.16978749E+001
         10 -0.16970007E+001
         11 -0.17002957E+001
         12 -0.16962966E+001
         13 -0.16984980E+001
         14 -0.16999994E+001
         15 -0.16976252E+001
         16 -0.16969818E+001
         17 -0.17015258E+001
         18 -0.16974072E+001
         19 -0.16969534E+001
         20 -0.16990141E+001
         21 -0.16980321E+001
         22 -0.16978505E+001
         23 -0.17008799E+001
         24 -0.16979437E+001
         25 -0.17028199E+001
         26 -0.16984868E+001
         27 -0.16985794E+001
         28 -0.16994882E+001
         29 -0.16987703E+001
         30 -0.16991262E+001
         31 -0.17017223E+001
         32 -0.16989296E+001
         33 -0.16998561E+001
         34 -0.17042091E+001
         35 -0.16995793E+001
         36 -0.16998682E+001
         37 -0.17000680E+001
         38 -0.17004073E+001
         39 -0.17005233E+001
         40 -0.17008916E+001
         41 -0.17009302E+001
         42 -0.17023812E+001
         43 -0.17024374E+001
         44 -0.17021976E+001
         45 -0.17010546E+001
         46 -0.17051051E+001
         47 -0.17030703E+001
         48 -0.17003415E+001
         49 -0.17019545E+001
         50 -0.17022532E+001
         51 -0.17063586E+001
         52 -0.17019335E+001
         53 -0.17074074E+001
         54 -0.17036088E+001
         55 -0.17067481E+001
         56 -0.17026970E+001
         57 -0.17027028E+001
         58 -0.17073622E+001
         59 -0.17044862E+001
         60 -0.17039724E+001
         61 -0.17064776E+001
         62 -0.17004652E+001
         63 -0.17037254E+001
         64 -0.17040213E+001
         65 -0.17162839E+001
         66 -0.17036186E+001
         67 -0.17164665E+001
         68 -0.16985103E+001
         69 -0.17143024E+001
         70 -0.17061689E+001
         71 -0.17176049E+001
         72 -0.17042217E+001
         73 -0.17042314E+001
         74 -0.17122949E+001
         75 -0.17107100E+001
         76 -0.16974078E+001
         77 -0.17055046E+001
         78 -0.16982862E+001
         79 -0.17099293E+001
         80 -0.17049599E+001
         81 -0.17303651E+001
         82 -0.17325067E+001
         83 -0.17268969E+001
         84 -0.17046648E+001
         85 -0.16882376E+001
         86 -0.17215440E+001
         87 -0.17308849E+001
         88 -0.17083801E+001
         89 -0.17054241E+001
         90 -0.17051154E+001
         91 -0.17169037E+001
         92 -0.17174464E+001
         93 -0.16796359E+001
         94 -0.16905180E+001
         95 -0.17070443E+001
         96 -0.17425322E+001
         97 -0.17133395E+001
         98 -0.17495350E+001
         99 -0.17505273E+001
        100 -0.17058602E+001
        101 -0.17350625E+001
        102 -0.17052137E+001
        103 -0.17053970E+001
        104 -0.17268774E+001
        105 -0.16653875E+001
        106 -0.17452155E+001
        107 -0.17107635E+001
        108 -0.17056499E+001
        109 -0.17063194E+001
        110 -0.17187093E+001
        111 -0.17209368E+001
        112 -0.16434098E+001
        113 -0.17619501E+001
        114 -0.17689745E+001
        115 -0.17518341E+001
        116 -0.16695273E+001
        117 -0.17155830E+001
        118 -0.17085178E+001
        119 -0.17403546E+001
        120 -0.17054621E+001
        121 -0.17060765E+001
        122 -0.17059003E+001
        123 -0.17706750E+001
        124 -0.17314523E+001
        125 -0.16241063E+001
        126 -0.17516217E+001
        127 -0.17122790E+001
        128 -0.17234742E+001
        129 -0.17072438E+001
        130 -0.17077696E+001
        131 -0.17787332E+001
        132 -0.17055407E+001
        133 -0.17681031E+001
        134 -0.15771853E+001
        135 -0.17834520E+001
        136 -0.17547523E+001
        137 -0.17054884E+001
        138 -0.16294358E+001
        139 -0.17094297E+001
        140 -0.17181006E+001
        141 -0.17432621E+001
        142 -0.15622906E+001
        143 -0.17763810E+001
        144 -0.17060026E+001
        145 -0.17061825E+001
        146 -0.17134772E+001
        147 -0.17337733E+001
        148 -0.17384903E+001
        149 -0.17056716E+001
        150 -0.17258398E+001
        151 -0.17052668E+001
        152 -0.17679814E+001
        153 -0.17871755E+001
        154 -0.17078271E+001
        155 -0.17795252E+001
        156 -0.17551252E+001
        157 -0.14865390E+001
        158 -0.17054527E+001
        159 -0.15447883E+001
        160 -0.17193540E+001
        161 -0.17847763E+001
        162 -0.17109153E+001
        163 -0.17435924E+001
        164 -0.12457945E+001
        165 -0.16745389E+001
        166 -0.15047911E+001
        167 -0.17065468E+001
        168 -0.17055183E+001
        169 -0.10000254E+001
        170 -0.17149745E+001
        171 -0.16679325E+001
        172 -0.14870998E+001
        173 -0.17257033E+001
        174 -0.17051090E+001
        175 -0.17727639E+001
        176 -0.17846280E+001
        177 -0.17632104E+001
        178 -0.17556102E+001
        179 -0.73109147E+000
        180 -0.17813771E+001
        181 -0.17541925E+001
        182 -0.17088000E+001
        183 -0.16542872E+001
        184 -0.17048711E+001
        185 -0.14813280E+001
        186 -0.17355005E+001
        187 -0.17567756E+001
        188 -0.17206458E+001
        189 -0.43834391E+000
        190 -0.17053142E+001
        191 -0.16401081E+001
        192 -0.14869634E+001
        193 -0.17119424E+001
        194 -0.17454584E+001
        195 -0.17587119E+001
        196 -0.15466881E+000
        197 -0.17801275E+001
        198 -0.16280202E+001
        199 -0.15055314E+001
        200 -0.17066838E+001
        201 -0.17616231E+001
        202  0.00000000E+000
        203 -0.17052649E+001
        204 -0.17784923E+001
        205 -0.17050075E+001
        206 -0.16195539E+001
        207 -0.17710300E+001
        208 -0.15231164E+001
        209 -0.17287539E+001
        210 -0.17167017E+001
        211 -0.17045785E+001
        212 -0.17657103E+001
        213 -0.17596732E+001
        214 -0.17764223E+001
        215 -0.17656242E+001
        216 -0.17519835E+001
        217 -0.16229000E+001
        218 -0.17045215E+001
        219 -0.17092896E+001
        220 -0.17705078E+001
        221 -0.17739584E+001
        222 -0.17743070E+001
        223 -0.17448665E+001
        224 -0.17232738E+001
        225 -0.17053211E+001
        226 -0.17135950E+001
        227 -0.17702556E+001
        228 -0.17703234E+001
        229 -0.17721813E+001
        230 -0.17375112E+001
        231 -0.17670114E+001
        232 -0.17071990E+001
        233 -0.17698630E+001
        234 -0.17578332E+001
        235 -0.17639726E+001
        236 -0.17190899E+001
        237 -0.17311408E+001
        238 -0.17565645E+001
        239 -0.17699343E+001
        240 -0.17512133E+001
        241 -0.17581377E+001
        242 -0.17106896E+001
        243 -0.17613256E+001
        244 -0.17521626E+001
        245 -0.17461303E+001
        246 -0.17594174E+001
        247 -0.17255379E+001
        248 -0.17474564E+001
        249 -0.17391074E+001
        250 -0.17153616E+001
        251 -0.17582367E+001
        252 -0.17436280E+001
        253 -0.17402494E+001
        254 -0.17485237E+001
        255 -0.17323141E+001
        256 -0.17555456E+001
        257 -0.17208960E+001
        258 -0.17371568E+001
        259 -0.17394391E+001
        260 -0.17550169E+001
        261 -0.17332960E+001
        262 -0.17319380E+001
        263 -0.17273722E+001
        264 -0.17495088E+001
        265 -0.17399052E+001
        266 -0.17240591E+001
        267 -0.17158611E+001
        268 -0.17345400E+001
        269 -0.17492041E+001
        270 -0.17620118E+001
        271 -0.17461337E+001
        272 -0.17093155E+001
        273 -0.17460277E+001
        274 -0.17100995E+001
        275 -0.17437968E+001
        276 -0.17414111E+001
        277 -0.17550986E+001
        278 -0.17417281E+001
        279 -0.17656437E+001
        280 -0.17382786E+001
        281 -0.17494012E+001
        282 -0.17609355E+001
        283 -0.17286460E+001
        284 -0.17816195E+001
        285 -0.17060173E+001
        286 -0.17573901E+001
        287 -0.17932939E+001
        288 -0.17679356E+001
        289 -0.17785293E+001
        290 -0.17889708E+001
        291 -0.17647487E+001
        292 -0.17728986E+001
        293 -0.17456415E+001
        294 -0.17814212E+001
        295 -0.17133544E+001
        296 -0.16990433E+001
        297 -0.18108401E+001
        298 -0.18810287E+001
        299 -0.19809487E+001
        300 -0.21243334E+001
        301 -0.23194227E+001
        302 -0.25463417E+001
        303 -0.26880039E+001
End values

