GiD Post Results File 1.0
 
Result MASSM ALYA  0.00000000E+00 Scalar OnNodes
ComponentNames MASSM
Values
          1  0.39062500E-002
          2  0.39062500E-002
          3  0.39062500E-002
          4  0.39062500E-002
          5  0.39062500E-002
          6  0.39062500E-002
          7  0.39062500E-002
          8  0.39062500E-002
          9  0.39062500E-002
         10  0.39062500E-002
         11  0.39062500E-002
         12  0.39062500E-002
         13  0.39062500E-002
         14  0.39062500E-002
         15  0.39062500E-002
         16  0.39062500E-002
         17  0.39062500E-002
         18  0.39062500E-002
         19  0.39062500E-002
         20  0.39062500E-002
         21  0.39062500E-002
         22  0.39062500E-002
         23  0.39062500E-002
         24  0.39062500E-002
         25  0.39062500E-002
         26  0.19531250E-002
         27  0.19531250E-002
         28  0.19531250E-002
         29  0.19531250E-002
         30  0.19531250E-002
         31  0.19531250E-002
         32  0.19531250E-002
         33  0.19531250E-002
         34  0.19531250E-002
         35  0.19531250E-002
         36  0.19531250E-002
         37  0.19531250E-002
         38  0.19531250E-002
         39  0.19531250E-002
         40  0.97656250E-003
         41  0.97656250E-003
         42  0.97656250E-003
         43  0.39062500E-002
         44  0.39062500E-002
         45  0.39062500E-002
         46  0.39062500E-002
         47  0.39062500E-002
         48  0.39062500E-002
         49  0.39062500E-002
         50  0.39062500E-002
         51  0.39062500E-002
         52  0.39062500E-002
         53  0.39062500E-002
         54  0.39062500E-002
         55  0.39062500E-002
         56  0.19531250E-002
         57  0.19531250E-002
         58  0.39062500E-002
         59  0.39062500E-002
         60  0.39062500E-002
         61  0.39062500E-002
         62  0.39062500E-002
         63  0.39062500E-002
         64  0.39062500E-002
         65  0.39062500E-002
         66  0.39062500E-002
         67  0.39062500E-002
         68  0.39062500E-002
         69  0.19531250E-002
         70  0.19531250E-002
         71  0.10000000E+001
         72  0.10000000E+001
         73  0.10000000E+001
         74  0.39062500E-002
         75  0.39062500E-002
         76  0.10000000E+001
         77  0.10000000E+001
         78  0.39062500E-002
         79  0.39062500E-002
         80  0.19531250E-002
         81  0.19531250E-002
         82  0.10000000E+001
         83  0.10000000E+001
         84  0.39062500E-002
         85  0.39062500E-002
         86  0.10000000E+001
         87  0.39062500E-002
         88  0.39062500E-002
         89  0.19531250E-002
         90  0.19531250E-002
         91  0.10000000E+001
         92  0.39062500E-002
         93  0.39062500E-002
         94  0.39062500E-002
         95  0.39062500E-002
         96  0.19531250E-002
         97  0.19531250E-002
         98  0.39062500E-002
         99  0.39062500E-002
        100  0.39062500E-002
        101  0.19531250E-002
        102  0.19531250E-002
        103  0.39062500E-002
        104  0.19531250E-002
        105  0.19531250E-002
        106  0.97656250E-003
End values

Result LNSUB ALYA  0.00000000E+00 Scalar OnNodes
ComponentNames LNSUB
Values
          1  0.20000000E+001
          2  0.20000000E+001
          3  0.20000000E+001
          4  0.20000000E+001
          5  0.20000000E+001
          6  0.20000000E+001
          7  0.20000000E+001
          8  0.20000000E+001
          9  0.20000000E+001
         10  0.20000000E+001
         11  0.20000000E+001
         12  0.20000000E+001
         13  0.20000000E+001
         14  0.20000000E+001
         15  0.20000000E+001
         16  0.20000000E+001
         17  0.20000000E+001
         18  0.20000000E+001
         19  0.20000000E+001
         20  0.20000000E+001
         21  0.20000000E+001
         22  0.20000000E+001
         23  0.20000000E+001
         24  0.20000000E+001
         25  0.20000000E+001
         26  0.10000000E+001
         27  0.10000000E+001
         28  0.10000000E+001
         29  0.10000000E+001
         30  0.10000000E+001
         31  0.10000000E+001
         32  0.10000000E+001
         33  0.10000000E+001
         34  0.10000000E+001
         35  0.10000000E+001
         36  0.10000000E+001
         37  0.10000000E+001
         38  0.10000000E+001
         39  0.10000000E+001
         40  0.10000000E+001
         41  0.10000000E+001
         42  0.10000000E+001
         43  0.10000000E+001
         44  0.10000000E+001
         45  0.10000000E+001
         46  0.10000000E+001
         47  0.10000000E+001
         48  0.10000000E+001
         49  0.10000000E+001
         50  0.10000000E+001
         51  0.10000000E+001
         52  0.10000000E+001
         53  0.10000000E+001
         54  0.10000000E+001
         55  0.10000000E+001
         56  0.10000000E+001
         57  0.10000000E+001
         58  0.10000000E+001
         59  0.10000000E+001
         60  0.10000000E+001
         61  0.10000000E+001
         62  0.10000000E+001
         63  0.10000000E+001
         64  0.10000000E+001
         65  0.10000000E+001
         66  0.10000000E+001
         67  0.10000000E+001
         68  0.10000000E+001
         69  0.10000000E+001
         70  0.10000000E+001
         71  0.10000000E+001
         72  0.10000000E+001
         73  0.10000000E+001
         74  0.10000000E+001
         75  0.10000000E+001
         76  0.10000000E+001
         77  0.10000000E+001
         78  0.10000000E+001
         79  0.10000000E+001
         80  0.10000000E+001
         81  0.10000000E+001
         82  0.10000000E+001
         83  0.10000000E+001
         84  0.10000000E+001
         85  0.10000000E+001
         86  0.10000000E+001
         87  0.10000000E+001
         88  0.10000000E+001
         89  0.10000000E+001
         90  0.10000000E+001
         91  0.10000000E+001
         92  0.10000000E+001
         93  0.10000000E+001
         94  0.10000000E+001
         95  0.10000000E+001
         96  0.10000000E+001
         97  0.10000000E+001
         98  0.10000000E+001
         99  0.10000000E+001
        100  0.10000000E+001
        101  0.10000000E+001
        102  0.10000000E+001
        103  0.10000000E+001
        104  0.10000000E+001
        105  0.10000000E+001
        106  0.10000000E+001
End values

Result WETNO ALYA  0.00000000E+00 Scalar OnNodes
ComponentNames WETNO
Values
          1  0.20000000E+001
          2  0.20000000E+001
          3  0.20000000E+001
          4  0.20000000E+001
          5  0.20000000E+001
          6  0.20000000E+001
          7  0.20000000E+001
          8  0.20000000E+001
          9  0.20000000E+001
         10  0.00000000E+000
         11  0.00000000E+000
         12  0.00000000E+000
         13  0.00000000E+000
         14  0.00000000E+000
         15  0.20000000E+001
         16  0.20000000E+001
         17  0.00000000E+000
         18  0.00000000E+000
         19  0.00000000E+000
         20  0.20000000E+001
         21  0.20000000E+001
         22  0.00000000E+000
         23  0.20000000E+001
         24  0.20000000E+001
         25  0.20000000E+001
         26  0.00000000E+000
         27  0.00000000E+000
         28  0.00000000E+000
         29  0.00000000E+000
         30  0.00000000E+000
         31  0.00000000E+000
         32  0.00000000E+000
         33  0.00000000E+000
         34  0.00000000E+000
         35  0.00000000E+000
         36  0.00000000E+000
         37  0.00000000E+000
         38  0.00000000E+000
         39  0.00000000E+000
         40  0.00000000E+000
         41  0.00000000E+000
         42  0.00000000E+000
         43  0.00000000E+000
         44  0.00000000E+000
         45  0.00000000E+000
         46  0.00000000E+000
         47  0.00000000E+000
         48  0.00000000E+000
         49  0.00000000E+000
         50  0.00000000E+000
         51  0.00000000E+000
         52  0.00000000E+000
         53  0.00000000E+000
         54  0.00000000E+000
         55  0.00000000E+000
         56  0.00000000E+000
         57  0.00000000E+000
         58  0.10000000E+001
         59  0.10000000E+001
         60  0.10000000E+001
         61  0.10000000E+001
         62  0.10000000E+001
         63  0.00000000E+000
         64  0.10000000E+001
         65  0.10000000E+001
         66  0.10000000E+001
         67  0.10000000E+001
         68  0.00000000E+000
         69  0.00000000E+000
         70  0.00000000E+000
         71  0.00000000E+000
         72  0.00000000E+000
         73  0.00000000E+000
         74  0.10000000E+001
         75  0.00000000E+000
         76  0.00000000E+000
         77  0.00000000E+000
         78  0.10000000E+001
         79  0.00000000E+000
         80  0.00000000E+000
         81  0.00000000E+000
         82  0.00000000E+000
         83  0.00000000E+000
         84  0.10000000E+001
         85  0.00000000E+000
         86  0.00000000E+000
         87  0.10000000E+001
         88  0.00000000E+000
         89  0.00000000E+000
         90  0.00000000E+000
         91  0.00000000E+000
         92  0.10000000E+001
         93  0.00000000E+000
         94  0.10000000E+001
         95  0.00000000E+000
         96  0.00000000E+000
         97  0.00000000E+000
         98  0.10000000E+001
         99  0.00000000E+000
        100  0.00000000E+000
        101  0.00000000E+000
        102  0.00000000E+000
        103  0.00000000E+000
        104  0.00000000E+000
        105  0.00000000E+000
        106  0.00000000E+000
End values

Result TEMPE ALYA  0.00000000E+00 Scalar OnNodes
ComponentNames TEMPE
Values
          1  0.30000000E+001
          2  0.32500000E+001
          3  0.35000000E+001
          4  0.33750000E+001
          5  0.30000000E+001
          6  0.26250000E+001
          7  0.27500000E+001
          8  0.37500000E+001
          9  0.22500000E+001
         10  0.31250000E+001
         11  0.28750000E+001
         12  0.26250000E+001
         13  0.27500000E+001
         14  0.23750000E+001
         15  0.23750000E+001
         16  0.20000000E+001
         17  0.25000000E+001
         18  0.22500000E+001
         19  0.21250000E+001
         20  0.20000000E+001
         21  0.17500000E+001
         22  0.18750000E+001
         23  0.16250000E+001
         24  0.15000000E+001
         25  0.12500000E+001
         26  0.32500000E+001
         27  0.35000000E+001
         28  0.37500000E+001
         29  0.40000000E+001
         30  0.42500000E+001
         31  0.45000000E+001
         32  0.47500000E+001
         33  0.46250000E+001
         34  0.42500000E+001
         35  0.38750000E+001
         36  0.35000000E+001
         37  0.31250000E+001
         38  0.27500000E+001
         39  0.23750000E+001
         40  0.30000000E+001
         41  0.50000000E+001
         42  0.20000000E+001
         43  0.43750000E+001
         44  0.41250000E+001
         45  0.38750000E+001
         46  0.36250000E+001
         47  0.33750000E+001
         48  0.31250000E+001
         49  0.28750000E+001
         50  0.40000000E+001
         51  0.36250000E+001
         52  0.32500000E+001
         53  0.28750000E+001
         54  0.25000000E+001
         55  0.21250000E+001
         56  0.26250000E+001
         57  0.17500000E+001
         58  0.37500000E+001
         59  0.35000000E+001
         60  0.32500000E+001
         61  0.30000000E+001
         62  0.27500000E+001
         63  0.25000000E+001
         64  0.33750000E+001
         65  0.30000000E+001
         66  0.26250000E+001
         67  0.22500000E+001
         68  0.18750000E+001
         69  0.22500000E+001
         70  0.15000000E+001
         71  0.00000000E+000
         72  0.00000000E+000
         73  0.00000000E+000
         74  0.23750000E+001
         75  0.21250000E+001
         76  0.00000000E+000
         77  0.00000000E+000
         78  0.20000000E+001
         79  0.16250000E+001
         80  0.18750000E+001
         81  0.12500000E+001
         82  0.00000000E+000
         83  0.00000000E+000
         84  0.20000000E+001
         85  0.17500000E+001
         86  0.00000000E+000
         87  0.17500000E+001
         88  0.13750000E+001
         89  0.15000000E+001
         90  0.10000000E+001
         91  0.00000000E+000
         92  0.16250000E+001
         93  0.13750000E+001
         94  0.15000000E+001
         95  0.11250000E+001
         96  0.11250000E+001
         97  0.75000000E+000
         98  0.12500000E+001
         99  0.10000000E+001
        100  0.87500000E+000
        101  0.75000000E+000
        102  0.50000000E+000
        103  0.62500000E+000
        104  0.37500000E+000
        105  0.25000000E+000
        106  0.00000000E+000
End values

