 0.11672877E+008
 0.40942062E+005
 0.40941961E+005
 0.11672877E+008
 0.11673955E+008
 0.34599259E+007
 0.34599261E+007
 0.11673955E+008
 0.11672327E+008
 0.11670341E+008
 0.11665561E+008
 0.11654893E+008
 0.11629134E+008
 0.11563043E+008
 0.11420385E+008
 0.11128826E+008
 0.10550499E+008
 0.94571103E+007
 0.76241918E+007
 0.50416869E+007
 0.23493934E+007
 0.63449855E+006
 0.31553979E+004
 0.20288947E+004
 0.17943976E+004
 0.17311779E+004
 0.17311785E+004
 0.17943993E+004
 0.20288961E+004
 0.31553959E+004
 0.63449689E+006
 0.23493883E+007
 0.50416807E+007
 0.76241876E+007
 0.94571083E+007
 0.10550498E+008
 0.11128826E+008
 0.11420385E+008
 0.11563043E+008
 0.11629134E+008
 0.11654893E+008
 0.11665561E+008
 0.11670341E+008
 0.11672327E+008
 0.11672902E+008
 0.11672970E+008
 0.11673068E+008
 0.11673184E+008
 0.11673309E+008
 0.11673435E+008
 0.11673554E+008
 0.11673662E+008
 0.11673755E+008
 0.11673831E+008
 0.11673887E+008
 0.11673925E+008
 0.11673946E+008
 0.11673954E+008
 0.11673901E+008
 0.11673796E+008
 0.11673686E+008
 0.11673715E+008
 0.11674451E+008
 0.11677623E+008
 0.11687520E+008
 0.11716046E+008
 0.11793860E+008
 0.12015635E+008
 0.12719553E+008
 0.15849290E+008
 0.27749554E+008
 0.26960525E+008
 0.10313836E+007
 0.12084788E+007
 0.13804745E+007
 0.14487959E+007
 0.14487957E+007
 0.13804741E+007
 0.12084785E+007
 0.10313837E+007
 0.26960537E+008
 0.27749568E+008
 0.15849294E+008
 0.12719554E+008
 0.12015636E+008
 0.11793860E+008
 0.11716046E+008
 0.11687520E+008
 0.11677623E+008
 0.11674451E+008
 0.11673715E+008
 0.11673686E+008
 0.11673796E+008
 0.11673901E+008
 0.11673954E+008
 0.11673946E+008
 0.11673925E+008
 0.11673887E+008
 0.11673831E+008
 0.11673755E+008
 0.11673662E+008
 0.11673554E+008
 0.11673435E+008
 0.11673309E+008
 0.11673184E+008
 0.11673068E+008
 0.11672970E+008
 0.11672902E+008
 0.95360726E+005
 0.25523571E+006
 0.58068864E+006
 0.11431405E+007
 0.20221986E+007
 0.33007125E+007
 0.50967788E+007
 0.76786688E+007
 0.11856054E+008
 0.19543371E+008
 0.30001811E+008
 0.37333496E+008
 0.27635310E+008
 0.10792357E+008
 0.95360486E+005
 0.25523510E+006
 0.58068752E+006
 0.11431388E+007
 0.20221963E+007
 0.33007096E+007
 0.50967753E+007
 0.76786644E+007
 0.11856048E+008
 0.19543362E+008
 0.30001800E+008
 0.37333489E+008
 0.27635308E+008
 0.10792357E+008
 0.30031768E+008
 0.34547207E+008
 0.31314744E+008
 0.23296167E+008
 0.15852863E+008
 0.11187518E+008
 0.83767457E+007
 0.63174371E+007
 0.46579157E+007
 0.32952504E+007
 0.22244716E+007
 0.14459041E+007
 0.93615610E+006
 0.67487353E+006
 0.26174221E+008
 0.24011286E+008
 0.20410658E+008
 0.16165404E+008
 0.12996010E+008
 0.10864728E+008
 0.92101949E+007
 0.77926057E+007
 0.64869557E+007
 0.52827738E+007
 0.42252036E+007
 0.33679878E+007
 0.27878975E+007
 0.24663659E+007
 0.15443980E+008
 0.14763510E+008
 0.13841961E+008
 0.12800655E+008
 0.11802980E+008
 0.10887405E+008
 0.10014300E+008
 0.91480017E+007
 0.82923625E+007
 0.74449125E+007
 0.66530201E+007
 0.59656851E+007
 0.54632800E+007
 0.51504053E+007
 0.12670607E+008
 0.12488677E+008
 0.12208627E+008
 0.11870659E+008
 0.11492740E+008
 0.11086333E+008
 0.10651630E+008
 0.10185874E+008
 0.96914841E+007
 0.91833434E+007
 0.86947390E+007
 0.82610907E+007
 0.79201148E+007
 0.76985905E+007
 0.11989329E+008
 0.11919808E+008
 0.11809117E+008
 0.11664317E+008
 0.11493640E+008
 0.11301024E+008
 0.11087512E+008
 0.10852620E+008
 0.10598314E+008
 0.10331692E+008
 0.10065590E+008
 0.98222769E+007
 0.96272541E+007
 0.95008389E+007
 0.11783622E+008
 0.11751921E+008
 0.11701503E+008
 0.11634877E+008
 0.11554202E+008
 0.11461181E+008
 0.11356670E+008
 0.11241314E+008
 0.11116443E+008
 0.10985410E+008
 0.10854564E+008
 0.10733967E+008
 0.10635886E+008
 0.10572224E+008
 0.11711104E+008
 0.11696853E+008
 0.11673825E+008
 0.11643037E+008
 0.11605362E+008
 0.11561363E+008
 0.11511449E+008
 0.11456107E+008
 0.11396302E+008
 0.11333925E+008
 0.11272143E+008
 0.11215416E+008
 0.11169304E+008
 0.11139242E+008
 0.11685399E+008
 0.11679083E+008
 0.11668887E+008
 0.11655123E+008
 0.11638083E+008
 0.11617999E+008
 0.11595072E+008
 0.11569600E+008
 0.11542127E+008
 0.11513604E+008
 0.11485508E+008
 0.11459842E+008
 0.11438955E+008
 0.11425196E+008
 0.11676719E+008
 0.11674064E+008
 0.11669742E+008
 0.11663864E+008
 0.11656529E+008
 0.11647834E+008
 0.11637883E+008
 0.11626838E+008
 0.11614972E+008
 0.11602727E+008
 0.11590747E+008
 0.11579869E+008
 0.11571037E+008
 0.11565161E+008
 0.11674098E+008
 0.11673048E+008
 0.11671333E+008
 0.11668990E+008
 0.11666060E+008
 0.11662582E+008
 0.11658606E+008
 0.11654209E+008
 0.11649509E+008
 0.11644685E+008
 0.11639989E+008
 0.11635735E+008
 0.11632277E+008
 0.11629967E+008
 0.11673567E+008
 0.11673127E+008
 0.11672407E+008
 0.11671421E+008
 0.11670186E+008
 0.11668722E+008
 0.11667053E+008
 0.11665215E+008
 0.11663260E+008
 0.11661265E+008
 0.11659331E+008
 0.11657584E+008
 0.11656166E+008
 0.11655226E+008
 0.11673622E+008
 0.11673431E+008
 0.11673118E+008
 0.11672688E+008
 0.11672150E+008
 0.11671512E+008
 0.11670786E+008
 0.11669988E+008
 0.11669142E+008
 0.11668282E+008
 0.11667451E+008
 0.11666703E+008
 0.11666099E+008
 0.11665701E+008
 0.11673769E+008
 0.11673689E+008
 0.11673558E+008
 0.11673377E+008
 0.11673149E+008
 0.11672878E+008
 0.11672568E+008
 0.11672227E+008
 0.11671866E+008
 0.11671499E+008
 0.11671145E+008
 0.11670827E+008
 0.11670570E+008
 0.11670401E+008
 0.11673892E+008
 0.11673862E+008
 0.11673811E+008
 0.11673737E+008
 0.11673639E+008
 0.11673519E+008
 0.11673380E+008
 0.11673223E+008
 0.11673055E+008
 0.11672883E+008
 0.11672715E+008
 0.11672563E+008
 0.11672439E+008
 0.11672357E+008
 0.76742371E+007
 0.23927175E+008
 0.38242286E+008
 0.34861192E+008
 0.22278501E+008
 0.12641957E+008
 0.72054711E+007
 0.42681559E+007
 0.24759399E+007
 0.13603468E+007
 0.67400483E+006
 0.28298936E+006
 0.92507182E+005
 0.19665400E+005
 0.90354943E+007
 0.26824189E+008
 0.40123896E+008
 0.37517519E+008
 0.23820807E+008
 0.13178538E+008
 0.69170008E+007
 0.37844720E+007
 0.20527501E+007
 0.10556762E+007
 0.49107050E+006
 0.19272218E+006
 0.58917580E+005
 0.11536473E+005
 0.10631289E+008
 0.29439931E+008
 0.43804709E+008
 0.39182699E+008
 0.24785776E+008
 0.13518872E+008
 0.67600577E+007
 0.35000407E+007
 0.18231854E+007
 0.91264700E+006
 0.41406156E+006
 0.16098882E+006
 0.49860222E+005
 0.97558640E+004
 0.11269524E+008
 0.30505682E+008
 0.45344797E+008
 0.40020941E+008
 0.25221279E+008
 0.13669136E+008
 0.66999137E+007
 0.33838311E+007
 0.17231705E+007
 0.85170225E+006
 0.38442510E+006
 0.15162048E+006
 0.47287323E+005
 0.93232898E+004
 0.11269523E+008
 0.30505678E+008
 0.45344791E+008
 0.40020936E+008
 0.25221276E+008
 0.13669134E+008
 0.66999132E+007
 0.33838310E+007
 0.17231704E+007
 0.85170220E+006
 0.38442504E+006
 0.15162044E+006
 0.47287304E+005
 0.93232859E+004
 0.10631284E+008
 0.29439923E+008
 0.43804699E+008
 0.39182691E+008
 0.24785770E+008
 0.13518869E+008
 0.67600567E+007
 0.35000404E+007
 0.18231853E+007
 0.91264694E+006
 0.41406146E+006
 0.16098875E+006
 0.49860184E+005
 0.97558536E+004
 0.90354916E+007
 0.26824182E+008
 0.40123888E+008
 0.37517515E+008
 0.23820805E+008
 0.13178537E+008
 0.69170008E+007
 0.37844724E+007
 0.20527505E+007
 0.10556764E+007
 0.49107055E+006
 0.19272217E+006
 0.58917563E+005
 0.11536465E+005
 0.76742366E+007
 0.23927175E+008
 0.38242284E+008
 0.34861196E+008
 0.22278505E+008
 0.12641960E+008
 0.72054733E+007
 0.42681576E+007
 0.24759413E+007
 0.13603477E+007
 0.67400533E+006
 0.28298962E+006
 0.92507269E+005
 0.19665418E+005
 0.11673892E+008
 0.11673862E+008
 0.11673811E+008
 0.11673737E+008
 0.11673639E+008
 0.11673519E+008
 0.11673380E+008
 0.11673223E+008
 0.11673055E+008
 0.11672883E+008
 0.11672715E+008
 0.11672563E+008
 0.11672439E+008
 0.11672357E+008
 0.11673769E+008
 0.11673689E+008
 0.11673558E+008
 0.11673377E+008
 0.11673149E+008
 0.11672878E+008
 0.11672568E+008
 0.11672227E+008
 0.11671866E+008
 0.11671499E+008
 0.11671145E+008
 0.11670827E+008
 0.11670570E+008
 0.11670401E+008
 0.11673622E+008
 0.11673431E+008
 0.11673118E+008
 0.11672688E+008
 0.11672150E+008
 0.11671512E+008
 0.11670786E+008
 0.11669988E+008
 0.11669142E+008
 0.11668282E+008
 0.11667451E+008
 0.11666703E+008
 0.11666099E+008
 0.11665701E+008
 0.11673567E+008
 0.11673127E+008
 0.11672407E+008
 0.11671421E+008
 0.11670186E+008
 0.11668722E+008
 0.11667053E+008
 0.11665215E+008
 0.11663260E+008
 0.11661265E+008
 0.11659331E+008
 0.11657584E+008
 0.11656166E+008
 0.11655226E+008
 0.11674098E+008
 0.11673048E+008
 0.11671333E+008
 0.11668990E+008
 0.11666060E+008
 0.11662582E+008
 0.11658606E+008
 0.11654209E+008
 0.11649509E+008
 0.11644685E+008
 0.11639989E+008
 0.11635735E+008
 0.11632277E+008
 0.11629967E+008
 0.11676719E+008
 0.11674064E+008
 0.11669742E+008
 0.11663864E+008
 0.11656529E+008
 0.11647834E+008
 0.11637883E+008
 0.11626838E+008
 0.11614972E+008
 0.11602727E+008
 0.11590747E+008
 0.11579869E+008
 0.11571037E+008
 0.11565161E+008
 0.11685399E+008
 0.11679083E+008
 0.11668887E+008
 0.11655123E+008
 0.11638083E+008
 0.11617998E+008
 0.11595072E+008
 0.11569600E+008
 0.11542127E+008
 0.11513604E+008
 0.11485508E+008
 0.11459841E+008
 0.11438955E+008
 0.11425196E+008
 0.11711103E+008
 0.11696853E+008
 0.11673825E+008
 0.11643037E+008
 0.11605362E+008
 0.11561363E+008
 0.11511449E+008
 0.11456107E+008
 0.11396301E+008
 0.11333924E+008
 0.11272143E+008
 0.11215416E+008
 0.11169303E+008
 0.11139242E+008
 0.11783622E+008
 0.11751921E+008
 0.11701503E+008
 0.11634877E+008
 0.11554201E+008
 0.11461180E+008
 0.11356669E+008
 0.11241313E+008
 0.11116442E+008
 0.10985409E+008
 0.10854563E+008
 0.10733966E+008
 0.10635885E+008
 0.10572223E+008
 0.11989328E+008
 0.11919807E+008
 0.11809116E+008
 0.11664317E+008
 0.11493639E+008
 0.11301023E+008
 0.11087511E+008
 0.10852619E+008
 0.10598312E+008
 0.10331690E+008
 0.10065588E+008
 0.98222749E+007
 0.96272521E+007
 0.95008369E+007
 0.12670605E+008
 0.12488676E+008
 0.12208626E+008
 0.11870658E+008
 0.11492738E+008
 0.11086331E+008
 0.10651628E+008
 0.10185871E+008
 0.96914809E+007
 0.91833398E+007
 0.86947352E+007
 0.82610869E+007
 0.79201108E+007
 0.76985864E+007
 0.15443976E+008
 0.14763506E+008
 0.13841958E+008
 0.12800652E+008
 0.11802977E+008
 0.10887401E+008
 0.10014296E+008
 0.91479974E+007
 0.82923577E+007
 0.74449073E+007
 0.66530144E+007
 0.59656792E+007
 0.54632743E+007
 0.51503993E+007
 0.26174209E+008
 0.24011275E+008
 0.20410648E+008
 0.16165396E+008
 0.12996004E+008
 0.10864723E+008
 0.92101899E+007
 0.77926003E+007
 0.64869500E+007
 0.52827681E+007
 0.42251979E+007
 0.33679823E+007
 0.27878923E+007
 0.24663608E+007
 0.30031766E+008
 0.34547197E+008
 0.31314730E+008
 0.23296155E+008
 0.15852854E+008
 0.11187512E+008
 0.83767404E+007
 0.63174319E+007
 0.46579107E+007
 0.32952461E+007
 0.22244680E+007
 0.14459011E+007
 0.93615362E+006
 0.67487174E+006
