 0.34151125E+007
 0.82944000E+005
 0.82944000E+005
 0.34151125E+007
 0.34151644E+007
 0.82944000E+005
 0.82944000E+005
 0.34151644E+007
 0.34150869E+007
 0.34149891E+007
 0.34147467E+007
 0.34141939E+007
 0.34128266E+007
 0.34092286E+007
 0.34011888E+007
 0.33840816E+007
 0.33488399E+007
 0.32783571E+007
 0.31411511E+007
 0.28782229E+007
 0.24021121E+007
 0.14646815E+007
 0.82944000E+005
 0.82944000E+005
 0.82944000E+005
 0.82944000E+005
 0.82944000E+005
 0.82944000E+005
 0.82944000E+005
 0.82944000E+005
 0.14646807E+007
 0.24021112E+007
 0.28782224E+007
 0.31411509E+007
 0.32783571E+007
 0.33488398E+007
 0.33840816E+007
 0.34011888E+007
 0.34092286E+007
 0.34128266E+007
 0.34141939E+007
 0.34147467E+007
 0.34149891E+007
 0.34150869E+007
 0.34151133E+007
 0.34151155E+007
 0.34151189E+007
 0.34151234E+007
 0.34151284E+007
 0.34151338E+007
 0.34151392E+007
 0.34151444E+007
 0.34151492E+007
 0.34151534E+007
 0.34151571E+007
 0.34151601E+007
 0.34151624E+007
 0.34151639E+007
 0.34151634E+007
 0.34151601E+007
 0.34151558E+007
 0.34151585E+007
 0.34151978E+007
 0.34153629E+007
 0.34158720E+007
 0.34173087E+007
 0.34210876E+007
 0.34302979E+007
 0.34509515E+007
 0.34847460E+007
 0.34821919E+007
 0.29350522E+007
 0.82944000E+005
 0.82944000E+005
 0.82944000E+005
 0.82944000E+005
 0.82944000E+005
 0.82944000E+005
 0.82944000E+005
 0.82944000E+005
 0.29350521E+007
 0.34821919E+007
 0.34847461E+007
 0.34509515E+007
 0.34302979E+007
 0.34210877E+007
 0.34173087E+007
 0.34158720E+007
 0.34153629E+007
 0.34151978E+007
 0.34151585E+007
 0.34151558E+007
 0.34151601E+007
 0.34151634E+007
 0.34151639E+007
 0.34151624E+007
 0.34151601E+007
 0.34151571E+007
 0.34151534E+007
 0.34151492E+007
 0.34151444E+007
 0.34151392E+007
 0.34151338E+007
 0.34151284E+007
 0.34151234E+007
 0.34151189E+007
 0.34151155E+007
 0.34151133E+007
 0.71994023E+006
 0.12302590E+007
 0.16889459E+007
 0.20867188E+007
 0.24147438E+007
 0.26801603E+007
 0.28972131E+007
 0.30800554E+007
 0.32363921E+007
 0.33504826E+007
 0.34093592E+007
 0.33518131E+007
 0.30118970E+007
 0.20661384E+007
 0.71993994E+006
 0.12302586E+007
 0.16889456E+007
 0.20867187E+007
 0.24147437E+007
 0.26801602E+007
 0.28972131E+007
 0.30800554E+007
 0.32363920E+007
 0.33504826E+007
 0.34093591E+007
 0.33518132E+007
 0.30118972E+007
 0.20661387E+007
 0.31286536E+007
 0.33381048E+007
 0.34228845E+007
 0.34171825E+007
 0.33665700E+007
 0.32716026E+007
 0.31531290E+007
 0.30151115E+007
 0.28513003E+007
 0.26533417E+007
 0.24149895E+007
 0.21386272E+007
 0.18447193E+007
 0.15854278E+007
 0.34775165E+007
 0.34676502E+007
 0.34554541E+007
 0.34283290E+007
 0.33776405E+007
 0.33108848E+007
 0.32327917E+007
 0.31423998E+007
 0.30368855E+007
 0.29139917E+007
 0.27752617E+007
 0.26305643E+007
 0.25026703E+007
 0.24229298E+007
 0.34825056E+007
 0.34696625E+007
 0.34484834E+007
 0.34204680E+007
 0.33862906E+007
 0.33463207E+007
 0.33003974E+007
 0.32479427E+007
 0.31883068E+007
 0.31219924E+007
 0.30520260E+007
 0.29849268E+007
 0.29294572E+007
 0.28923676E+007
 0.34483019E+007
 0.34409731E+007
 0.34292629E+007
 0.34137490E+007
 0.33950639E+007
 0.33734458E+007
 0.33487945E+007
 0.33209618E+007
 0.32900240E+007
 0.32566725E+007
 0.32225999E+007
 0.31905750E+007
 0.31640650E+007
 0.31467841E+007
 0.34290922E+007
 0.34254437E+007
 0.34196189E+007
 0.34119035E+007
 0.34025296E+007
 0.33916333E+007
 0.33792340E+007
 0.33653170E+007
 0.33499947E+007
 0.33336767E+007
 0.33171913E+007
 0.33018511E+007
 0.32893360E+007
 0.32812038E+007
 0.34205037E+007
 0.34187993E+007
 0.34160528E+007
 0.34123897E+007
 0.34079139E+007
 0.34026811E+007
 0.33967104E+007
 0.33900204E+007
 0.33826876E+007
 0.33749194E+007
 0.33671138E+007
 0.33598868E+007
 0.33539883E+007
 0.33501467E+007
 0.34170482E+007
 0.34162767E+007
 0.34150336E+007
 0.34133647E+007
 0.34113088E+007
 0.34088887E+007
 0.34061159E+007
 0.34030075E+007
 0.33996110E+007
 0.33960318E+007
 0.33924554E+007
 0.33891528E+007
 0.33864571E+007
 0.33846944E+007
 0.34157587E+007
 0.34154249E+007
 0.34148842E+007
 0.34141528E+007
 0.34132438E+007
 0.34121662E+007
 0.34109272E+007
 0.34095389E+007
 0.34080279E+007
 0.34064451E+007
 0.34048732E+007
 0.34034273E+007
 0.34022445E+007
 0.34014625E+007
 0.34153162E+007
 0.34151781E+007
 0.34149534E+007
 0.34146472E+007
 0.34142642E+007
 0.34138081E+007
 0.34132832E+007
 0.34126965E+007
 0.34120615E+007
 0.34114010E+007
 0.34107500E+007
 0.34101551E+007
 0.34096697E+007
 0.34093457E+007
 0.34151795E+007
 0.34151257E+007
 0.34150379E+007
 0.34149180E+007
 0.34147678E+007
 0.34145889E+007
 0.34143835E+007
 0.34141550E+007
 0.34139092E+007
 0.34136553E+007
 0.34134065E+007
 0.34131799E+007
 0.34129950E+007
 0.34128712E+007
 0.34151511E+007
 0.34151289E+007
 0.34150926E+007
 0.34150430E+007
 0.34149809E+007
 0.34149069E+007
 0.34148223E+007
 0.34147287E+007
 0.34146285E+007
 0.34145257E+007
 0.34144255E+007
 0.34143345E+007
 0.34142605E+007
 0.34142113E+007
 0.34151526E+007
 0.34151432E+007
 0.34151277E+007
 0.34151065E+007
 0.34150798E+007
 0.34150481E+007
 0.34150119E+007
 0.34149720E+007
 0.34149294E+007
 0.34148858E+007
 0.34148435E+007
 0.34148053E+007
 0.34147744E+007
 0.34147539E+007
 0.34151587E+007
 0.34151548E+007
 0.34151483E+007
 0.34151393E+007
 0.34151281E+007
 0.34151148E+007
 0.34150995E+007
 0.34150827E+007
 0.34150649E+007
 0.34150467E+007
 0.34150292E+007
 0.34150133E+007
 0.34150005E+007
 0.34149921E+007
 0.34151628E+007
 0.34151609E+007
 0.34151579E+007
 0.34151537E+007
 0.34151486E+007
 0.34151425E+007
 0.34151356E+007
 0.34151280E+007
 0.34151200E+007
 0.34151119E+007
 0.34151042E+007
 0.34150973E+007
 0.34150918E+007
 0.34150882E+007
 0.15641543E+007
 0.27627959E+007
 0.32657472E+007
 0.34038327E+007
 0.33384216E+007
 0.32090962E+007
 0.30252791E+007
 0.28086785E+007
 0.25543172E+007
 0.22457096E+007
 0.18663760E+007
 0.14098142E+007
 0.89938088E+006
 0.41515642E+006
 0.14724278E+007
 0.26703155E+007
 0.32318703E+007
 0.33986249E+007
 0.33346389E+007
 0.31925254E+007
 0.29923673E+007
 0.27558851E+007
 0.24824526E+007
 0.21567438E+007
 0.17641588E+007
 0.13026622E+007
 0.80477141E+006
 0.36180596E+006
 0.14495788E+007
 0.26538291E+007
 0.32268755E+007
 0.33975649E+007
 0.33349913E+007
 0.31843541E+007
 0.29752754E+007
 0.27285424E+007
 0.24473252E+007
 0.21179125E+007
 0.17270149E+007
 0.12734919E+007
 0.78816842E+006
 0.35646256E+006
 0.14417450E+007
 0.26518952E+007
 0.32281431E+007
 0.33987337E+007
 0.33359153E+007
 0.31814177E+007
 0.29686256E+007
 0.27180166E+007
 0.24347692E+007
 0.21060188E+007
 0.17186198E+007
 0.12703549E+007
 0.78903780E+006
 0.35769818E+006
 0.14417450E+007
 0.26518952E+007
 0.32281431E+007
 0.33987337E+007
 0.33359152E+007
 0.31814176E+007
 0.29686255E+007
 0.27180166E+007
 0.24347691E+007
 0.21060186E+007
 0.17186196E+007
 0.12703547E+007
 0.78903759E+006
 0.35769807E+006
 0.14495787E+007
 0.26538291E+007
 0.32268755E+007
 0.33975649E+007
 0.33349912E+007
 0.31843540E+007
 0.29752752E+007
 0.27285422E+007
 0.24473249E+007
 0.21179121E+007
 0.17270144E+007
 0.12734913E+007
 0.78816789E+006
 0.35646228E+006
 0.14724278E+007
 0.26703154E+007
 0.32318702E+007
 0.33986248E+007
 0.33346388E+007
 0.31925252E+007
 0.29923671E+007
 0.27558848E+007
 0.24824523E+007
 0.21567434E+007
 0.17641582E+007
 0.13026616E+007
 0.80477084E+006
 0.36180565E+006
 0.15641542E+007
 0.27627958E+007
 0.32657471E+007
 0.34038326E+007
 0.33384215E+007
 0.32090962E+007
 0.30252790E+007
 0.28086783E+007
 0.25543170E+007
 0.22457093E+007
 0.18663757E+007
 0.14098139E+007
 0.89938066E+006
 0.41515631E+006
 0.34151628E+007
 0.34151609E+007
 0.34151579E+007
 0.34151537E+007
 0.34151486E+007
 0.34151425E+007
 0.34151356E+007
 0.34151280E+007
 0.34151200E+007
 0.34151119E+007
 0.34151042E+007
 0.34150973E+007
 0.34150918E+007
 0.34150882E+007
 0.34151587E+007
 0.34151548E+007
 0.34151483E+007
 0.34151393E+007
 0.34151281E+007
 0.34151148E+007
 0.34150995E+007
 0.34150827E+007
 0.34150649E+007
 0.34150467E+007
 0.34150292E+007
 0.34150133E+007
 0.34150005E+007
 0.34149921E+007
 0.34151526E+007
 0.34151432E+007
 0.34151277E+007
 0.34151065E+007
 0.34150798E+007
 0.34150481E+007
 0.34150119E+007
 0.34149720E+007
 0.34149294E+007
 0.34148858E+007
 0.34148435E+007
 0.34148053E+007
 0.34147744E+007
 0.34147539E+007
 0.34151511E+007
 0.34151289E+007
 0.34150926E+007
 0.34150430E+007
 0.34149809E+007
 0.34149069E+007
 0.34148223E+007
 0.34147287E+007
 0.34146285E+007
 0.34145257E+007
 0.34144255E+007
 0.34143345E+007
 0.34142605E+007
 0.34142113E+007
 0.34151795E+007
 0.34151257E+007
 0.34150379E+007
 0.34149180E+007
 0.34147678E+007
 0.34145889E+007
 0.34143835E+007
 0.34141550E+007
 0.34139092E+007
 0.34136553E+007
 0.34134065E+007
 0.34131799E+007
 0.34129950E+007
 0.34128712E+007
 0.34153162E+007
 0.34151781E+007
 0.34149534E+007
 0.34146472E+007
 0.34142642E+007
 0.34138081E+007
 0.34132832E+007
 0.34126965E+007
 0.34120614E+007
 0.34114010E+007
 0.34107500E+007
 0.34101551E+007
 0.34096697E+007
 0.34093457E+007
 0.34157587E+007
 0.34154249E+007
 0.34148842E+007
 0.34141528E+007
 0.34132438E+007
 0.34121662E+007
 0.34109272E+007
 0.34095389E+007
 0.34080279E+007
 0.34064451E+007
 0.34048732E+007
 0.34034273E+007
 0.34022445E+007
 0.34014625E+007
 0.34170482E+007
 0.34162767E+007
 0.34150336E+007
 0.34133646E+007
 0.34113088E+007
 0.34088887E+007
 0.34061159E+007
 0.34030075E+007
 0.33996110E+007
 0.33960318E+007
 0.33924554E+007
 0.33891527E+007
 0.33864571E+007
 0.33846944E+007
 0.34205037E+007
 0.34187992E+007
 0.34160528E+007
 0.34123897E+007
 0.34079139E+007
 0.34026811E+007
 0.33967103E+007
 0.33900203E+007
 0.33826875E+007
 0.33749194E+007
 0.33671138E+007
 0.33598868E+007
 0.33539883E+007
 0.33501467E+007
 0.34290922E+007
 0.34254437E+007
 0.34196189E+007
 0.34119034E+007
 0.34025296E+007
 0.33916333E+007
 0.33792340E+007
 0.33653169E+007
 0.33499946E+007
 0.33336766E+007
 0.33171912E+007
 0.33018510E+007
 0.32893359E+007
 0.32812037E+007
 0.34483019E+007
 0.34409730E+007
 0.34292628E+007
 0.34137489E+007
 0.33950638E+007
 0.33734457E+007
 0.33487944E+007
 0.33209617E+007
 0.32900239E+007
 0.32566723E+007
 0.32225997E+007
 0.31905748E+007
 0.31640649E+007
 0.31467839E+007
 0.34825056E+007
 0.34696624E+007
 0.34484833E+007
 0.34204679E+007
 0.33862905E+007
 0.33463206E+007
 0.33003972E+007
 0.32479425E+007
 0.31883066E+007
 0.31219921E+007
 0.30520257E+007
 0.29849264E+007
 0.29294568E+007
 0.28923672E+007
 0.34775165E+007
 0.34676501E+007
 0.34554540E+007
 0.34283289E+007
 0.33776404E+007
 0.33108847E+007
 0.32327915E+007
 0.31423995E+007
 0.30368852E+007
 0.29139913E+007
 0.27752612E+007
 0.26305637E+007
 0.25026695E+007
 0.24229289E+007
 0.31286538E+007
 0.33381049E+007
 0.34228844E+007
 0.34171825E+007
 0.33665699E+007
 0.32716025E+007
 0.31531289E+007
 0.30151114E+007
 0.28513001E+007
 0.26533414E+007
 0.24149891E+007
 0.21386265E+007
 0.18447184E+007
 0.15854269E+007
