 0.32402473E-001
 0.10000000E+001
 0.10000000E+001
 0.32402473E-001
 0.32400235E-001
 0.00000000E+000
 0.00000000E+000
 0.32400235E-001
 0.32403616E-001
 0.32407949E-001
 0.32418729E-001
 0.32443406E-001
 0.32497579E-001
 0.32657841E-001
 0.33007703E-001
 0.33741671E-001
 0.35230808E-001
 0.38153903E-001
 0.44027238E-001
 0.55708166E-001
 0.86065712E-001
 0.14737644E+000
 0.10000000E+001
 0.10000000E+001
 0.10000000E+001
 0.10000000E+001
 0.10000000E+001
 0.10000000E+001
 0.10000000E+001
 0.10000000E+001
 0.14737670E+000
 0.86065806E-001
 0.55708203E-001
 0.44027252E-001
 0.38153908E-001
 0.35230810E-001
 0.33741672E-001
 0.33007703E-001
 0.32657841E-001
 0.32497579E-001
 0.32443406E-001
 0.32418729E-001
 0.32407949E-001
 0.32403616E-001
 0.32402436E-001
 0.32402331E-001
 0.32402170E-001
 0.32401968E-001
 0.32401740E-001
 0.32401501E-001
 0.32401265E-001
 0.32401041E-001
 0.32400837E-001
 0.32400658E-001
 0.32400509E-001
 0.32400390E-001
 0.32400304E-001
 0.32400253E-001
 0.32400294E-001
 0.32400462E-001
 0.32400669E-001
 0.32400570E-001
 0.32398982E-001
 0.32391150E-001
 0.32367369E-001
 0.32299838E-001
 0.32120077E-001
 0.31679514E-001
 0.30625977E-001
 0.28409094E-001
 0.23367838E-001
 0.16696906E-001
 0.00000000E+000
 0.00000000E+000
 0.00000000E+000
 0.00000000E+000
 0.00000000E+000
 0.00000000E+000
 0.00000000E+000
 0.00000000E+000
 0.16696898E-001
 0.23367832E-001
 0.28409090E-001
 0.30625975E-001
 0.31679512E-001
 0.32120076E-001
 0.32299837E-001
 0.32367369E-001
 0.32391150E-001
 0.32398982E-001
 0.32400570E-001
 0.32400669E-001
 0.32400462E-001
 0.32400294E-001
 0.32400253E-001
 0.32400304E-001
 0.32400390E-001
 0.32400509E-001
 0.32400658E-001
 0.32400837E-001
 0.32401041E-001
 0.32401265E-001
 0.32401501E-001
 0.32401740E-001
 0.32401968E-001
 0.32402170E-001
 0.32402331E-001
 0.32402436E-001
 0.45196217E+000
 0.27153092E+000
 0.17847791E+000
 0.12575305E+000
 0.93737034E-001
 0.72848193E-001
 0.58125891E-001
 0.46931444E-001
 0.37799069E-001
 0.29910330E-001
 0.22821251E-001
 0.16381890E-001
 0.10469188E-001
 0.48635246E-002
 0.45196255E+000
 0.27153118E+000
 0.17847805E+000
 0.12575313E+000
 0.93737085E-001
 0.72848226E-001
 0.58125913E-001
 0.46931459E-001
 0.37799079E-001
 0.29910338E-001
 0.22821258E-001
 0.16381896E-001
 0.10469193E-001
 0.48635277E-002
 0.15251274E-001
 0.18128559E-001
 0.22086063E-001
 0.26625573E-001
 0.31590233E-001
 0.37038497E-001
 0.43191869E-001
 0.50481664E-001
 0.59610764E-001
 0.71637307E-001
 0.88076991E-001
 0.11068195E+000
 0.13983397E+000
 0.16784500E+000
 0.24293211E-001
 0.25306214E-001
 0.27243425E-001
 0.29788914E-001
 0.32738615E-001
 0.36028187E-001
 0.39716254E-001
 0.43960235E-001
 0.48988429E-001
 0.55040723E-001
 0.62212959E-001
 0.70096405E-001
 0.77177239E-001
 0.80879615E-001
 0.28520883E-001
 0.29225085E-001
 0.30241526E-001
 0.31570288E-001
 0.33154933E-001
 0.34957843E-001
 0.36982845E-001
 0.39268113E-001
 0.41857535E-001
 0.44754395E-001
 0.47857808E-001
 0.50904322E-001
 0.53532332E-001
 0.55595518E-001
 0.30758720E-001
 0.31072164E-001
 0.31596905E-001
 0.32280927E-001
 0.33097947E-001
 0.34033965E-001
 0.35087055E-001
 0.36262765E-001
 0.37562245E-001
 0.38965356E-001
 0.40413051E-001
 0.41799639E-001
 0.42970727E-001
 0.43681937E-001
 0.31729173E-001
 0.31891958E-001
 0.32146601E-001
 0.32484116E-001
 0.32890922E-001
 0.33359417E-001
 0.33887572E-001
 0.34475419E-001
 0.35119423E-001
 0.35805554E-001
 0.36502231E-001
 0.37154715E-001
 0.37688527E-001
 0.38049982E-001
 0.32146419E-001
 0.32221192E-001
 0.32342414E-001
 0.32502819E-001
 0.32697597E-001
 0.32923754E-001
 0.33180174E-001
 0.33466090E-001
 0.33778592E-001
 0.34109564E-001
 0.34442783E-001
 0.34752850E-001
 0.35008098E-001
 0.35171656E-001
 0.32311245E-001
 0.32345450E-001
 0.32400152E-001
 0.32473380E-001
 0.32563189E-001
 0.32668485E-001
 0.32788684E-001
 0.32923017E-001
 0.33069502E-001
 0.33223786E-001
 0.33378179E-001
 0.33521213E-001
 0.33638176E-001
 0.33715516E-001
 0.32372392E-001
 0.32387062E-001
 0.32410811E-001
 0.32442845E-001
 0.32482599E-001
 0.32529646E-001
 0.32583640E-001
 0.32644023E-001
 0.32709642E-001
 0.32778313E-001
 0.32846524E-001
 0.32909369E-001
 0.32961137E-001
 0.32995525E-001
 0.32393211E-001
 0.32399251E-001
 0.32409060E-001
 0.32422429E-001
 0.32439139E-001
 0.32459010E-001
 0.32481847E-001
 0.32507331E-001
 0.32534877E-001
 0.32563486E-001
 0.32591653E-001
 0.32617376E-001
 0.32638306E-001
 0.32652420E-001
 0.32399749E-001
 0.32402009E-001
 0.32405687E-001
 0.32410695E-001
 0.32416958E-001
 0.32424399E-001
 0.32432926E-001
 0.32442394E-001
 0.32452565E-001
 0.32463064E-001
 0.32473357E-001
 0.32482757E-001
 0.32490481E-001
 0.32495691E-001
 0.32400904E-001
 0.32401892E-001
 0.32403508E-001
 0.32405718E-001
 0.32408485E-001
 0.32411771E-001
 0.32415528E-001
 0.32419682E-001
 0.32424120E-001
 0.32428675E-001
 0.32433115E-001
 0.32437150E-001
 0.32440438E-001
 0.32442626E-001
 0.32400809E-001
 0.32401226E-001
 0.32401909E-001
 0.32402845E-001
 0.32404020E-001
 0.32405416E-001
 0.32407011E-001
 0.32408772E-001
 0.32410648E-001
 0.32412569E-001
 0.32414435E-001
 0.32416123E-001
 0.32417494E-001
 0.32418404E-001
 0.32400520E-001
 0.32400692E-001
 0.32400975E-001
 0.32401364E-001
 0.32401853E-001
 0.32402434E-001
 0.32403099E-001
 0.32403832E-001
 0.32404612E-001
 0.32405408E-001
 0.32406180E-001
 0.32406876E-001
 0.32407441E-001
 0.32407816E-001
 0.32400319E-001
 0.32400396E-001
 0.32400522E-001
 0.32400696E-001
 0.32400915E-001
 0.32401177E-001
 0.32401475E-001
 0.32401804E-001
 0.32402152E-001
 0.32402505E-001
 0.32402846E-001
 0.32403151E-001
 0.32403396E-001
 0.32403558E-001
 0.23118536E-002
 0.70204070E-002
 0.13022360E-001
 0.20163818E-001
 0.28484024E-001
 0.38144128E-001
 0.49677250E-001
 0.64225883E-001
 0.83911046E-001
 0.11288844E+000
 0.15933115E+000
 0.24086392E+000
 0.39392891E+000
 0.67906338E+000
 0.18504440E-002
 0.57428711E-002
 0.11308508E-001
 0.18527515E-001
 0.27463006E-001
 0.38333225E-001
 0.51730778E-001
 0.68998741E-001
 0.92706840E-001
 0.12780727E+000
 0.18384999E+000
 0.28028245E+000
 0.45043583E+000
 0.72508480E+000
 0.16788487E-002
 0.52788625E-002
 0.10557331E-001
 0.17697492E-001
 0.26867352E-001
 0.38405129E-001
 0.52968816E-001
 0.72029290E-001
 0.98298788E-001
 0.13696959E+000
 0.19775166E+000
 0.29938717E+000
 0.47158871E+000
 0.73966571E+000
 0.16138170E-002
 0.51164499E-002
 0.10295712E-001
 0.17379402E-001
 0.26619696E-001
 0.38434666E-001
 0.53540929E-001
 0.73431778E-001
 0.10084458E+000
 0.14094423E+000
 0.20327369E+000
 0.30600471E+000
 0.47790057E+000
 0.74359090E+000
 0.16138171E-002
 0.51164503E-002
 0.10295713E-001
 0.17379404E-001
 0.26619699E-001
 0.38434669E-001
 0.53540932E-001
 0.73431781E-001
 0.10084458E+000
 0.14094424E+000
 0.20327371E+000
 0.30600475E+000
 0.47790066E+000
 0.74359096E+000
 0.16788489E-002
 0.52788636E-002
 0.10557334E-001
 0.17697496E-001
 0.26867358E-001
 0.38405135E-001
 0.52968821E-001
 0.72029293E-001
 0.98298791E-001
 0.13696960E+000
 0.19775169E+000
 0.29938724E+000
 0.47158887E+000
 0.73966587E+000
 0.18504441E-002
 0.57428718E-002
 0.11308510E-001
 0.18527517E-001
 0.27463009E-001
 0.38333227E-001
 0.51730779E-001
 0.68998739E-001
 0.92706834E-001
 0.12780727E+000
 0.18384999E+000
 0.28028248E+000
 0.45043594E+000
 0.72508497E+000
 0.23118527E-002
 0.70204052E-002
 0.13022358E-001
 0.20163816E-001
 0.28484022E-001
 0.38144124E-001
 0.49677242E-001
 0.64225870E-001
 0.83911025E-001
 0.11288841E+000
 0.15933110E+000
 0.24086384E+000
 0.39392879E+000
 0.67906330E+000
 0.32400319E-001
 0.32400396E-001
 0.32400522E-001
 0.32400696E-001
 0.32400915E-001
 0.32401177E-001
 0.32401475E-001
 0.32401804E-001
 0.32402152E-001
 0.32402505E-001
 0.32402846E-001
 0.32403151E-001
 0.32403396E-001
 0.32403558E-001
 0.32400520E-001
 0.32400692E-001
 0.32400975E-001
 0.32401364E-001
 0.32401853E-001
 0.32402434E-001
 0.32403099E-001
 0.32403832E-001
 0.32404612E-001
 0.32405408E-001
 0.32406180E-001
 0.32406876E-001
 0.32407441E-001
 0.32407816E-001
 0.32400809E-001
 0.32401226E-001
 0.32401909E-001
 0.32402845E-001
 0.32404020E-001
 0.32405416E-001
 0.32407011E-001
 0.32408772E-001
 0.32410648E-001
 0.32412569E-001
 0.32414435E-001
 0.32416123E-001
 0.32417494E-001
 0.32418404E-001
 0.32400904E-001
 0.32401892E-001
 0.32403508E-001
 0.32405718E-001
 0.32408485E-001
 0.32411771E-001
 0.32415528E-001
 0.32419682E-001
 0.32424120E-001
 0.32428675E-001
 0.32433115E-001
 0.32437150E-001
 0.32440438E-001
 0.32442626E-001
 0.32399749E-001
 0.32402009E-001
 0.32405687E-001
 0.32410695E-001
 0.32416958E-001
 0.32424399E-001
 0.32432926E-001
 0.32442394E-001
 0.32452565E-001
 0.32463064E-001
 0.32473357E-001
 0.32482757E-001
 0.32490481E-001
 0.32495692E-001
 0.32393211E-001
 0.32399251E-001
 0.32409060E-001
 0.32422429E-001
 0.32439139E-001
 0.32459010E-001
 0.32481848E-001
 0.32507331E-001
 0.32534877E-001
 0.32563486E-001
 0.32591654E-001
 0.32617376E-001
 0.32638307E-001
 0.32652420E-001
 0.32372392E-001
 0.32387062E-001
 0.32410811E-001
 0.32442845E-001
 0.32482599E-001
 0.32529646E-001
 0.32583640E-001
 0.32644023E-001
 0.32709642E-001
 0.32778313E-001
 0.32846524E-001
 0.32909370E-001
 0.32961137E-001
 0.32995525E-001
 0.32311245E-001
 0.32345450E-001
 0.32400152E-001
 0.32473380E-001
 0.32563189E-001
 0.32668486E-001
 0.32788685E-001
 0.32923018E-001
 0.33069503E-001
 0.33223787E-001
 0.33378181E-001
 0.33521214E-001
 0.33638177E-001
 0.33715517E-001
 0.32146420E-001
 0.32221193E-001
 0.32342415E-001
 0.32502820E-001
 0.32697598E-001
 0.32923755E-001
 0.33180176E-001
 0.33466092E-001
 0.33778594E-001
 0.34109566E-001
 0.34442786E-001
 0.34752853E-001
 0.35008100E-001
 0.35171658E-001
 0.31729174E-001
 0.31891960E-001
 0.32146603E-001
 0.32484118E-001
 0.32890924E-001
 0.33359419E-001
 0.33887575E-001
 0.34475423E-001
 0.35119428E-001
 0.35805560E-001
 0.36502237E-001
 0.37154720E-001
 0.37688532E-001
 0.38049987E-001
 0.30758722E-001
 0.31072167E-001
 0.31596908E-001
 0.32280931E-001
 0.33097951E-001
 0.34033970E-001
 0.35087062E-001
 0.36262772E-001
 0.37562254E-001
 0.38965366E-001
 0.40413063E-001
 0.41799651E-001
 0.42970740E-001
 0.43681950E-001
 0.28520887E-001
 0.29225089E-001
 0.30241531E-001
 0.31570293E-001
 0.33154939E-001
 0.34957851E-001
 0.36982855E-001
 0.39268126E-001
 0.41857552E-001
 0.44754415E-001
 0.47857832E-001
 0.50904351E-001
 0.53532365E-001
 0.55595554E-001
 0.24293217E-001
 0.25306220E-001
 0.27243432E-001
 0.29788922E-001
 0.32738624E-001
 0.36028198E-001
 0.39716268E-001
 0.43960254E-001
 0.48988455E-001
 0.55040758E-001
 0.62213006E-001
 0.70096469E-001
 0.77177319E-001
 0.80879708E-001
 0.15251280E-001
 0.18128567E-001
 0.22086071E-001
 0.26625581E-001
 0.31590244E-001
 0.37038510E-001
 0.43191887E-001
 0.50481688E-001
 0.59610799E-001
 0.71637357E-001
 0.88077067E-001
 0.11068207E+000
 0.13983416E+000
 0.16784524E+000
