 0.11683024E+008
 0.42082571E+005
 0.42082472E+005
 0.11683024E+008
 0.11683950E+008
 0.49464852E+007
 0.49464861E+007
 0.11683950E+008
 0.11682540E+008
 0.11680780E+008
 0.11676485E+008
 0.11666758E+008
 0.11642924E+008
 0.11580991E+008
 0.11445538E+008
 0.11165632E+008
 0.10605936E+008
 0.95386501E+007
 0.77307838E+007
 0.51514520E+007
 0.24193816E+007
 0.65379980E+006
 0.33181645E+004
 0.22078053E+004
 0.19745291E+004
 0.19100699E+004
 0.19100706E+004
 0.19745309E+004
 0.22078068E+004
 0.33181627E+004
 0.65379801E+006
 0.24193766E+007
 0.51514460E+007
 0.77307797E+007
 0.95386482E+007
 0.10605935E+008
 0.11165631E+008
 0.11445538E+008
 0.11580991E+008
 0.11642924E+008
 0.11666758E+008
 0.11676485E+008
 0.11680780E+008
 0.11682540E+008
 0.11683046E+008
 0.11683106E+008
 0.11683192E+008
 0.11683293E+008
 0.11683401E+008
 0.11683510E+008
 0.11683612E+008
 0.11683705E+008
 0.11683784E+008
 0.11683848E+008
 0.11683896E+008
 0.11683927E+008
 0.11683944E+008
 0.11683949E+008
 0.11683906E+008
 0.11683826E+008
 0.11683757E+008
 0.11683838E+008
 0.11684632E+008
 0.11687854E+008
 0.11697675E+008
 0.11725413E+008
 0.11798855E+008
 0.11995990E+008
 0.12558682E+008
 0.14898395E+008
 0.25521829E+008
 0.29136621E+008
 0.20130719E+007
 0.25697528E+007
 0.28839841E+007
 0.30446812E+007
 0.30446807E+007
 0.28839830E+007
 0.25697522E+007
 0.20130721E+007
 0.29136634E+008
 0.25521840E+008
 0.14898398E+008
 0.12558683E+008
 0.11995991E+008
 0.11798855E+008
 0.11725413E+008
 0.11697675E+008
 0.11687854E+008
 0.11684632E+008
 0.11683838E+008
 0.11683757E+008
 0.11683826E+008
 0.11683906E+008
 0.11683949E+008
 0.11683944E+008
 0.11683927E+008
 0.11683896E+008
 0.11683848E+008
 0.11683784E+008
 0.11683705E+008
 0.11683612E+008
 0.11683510E+008
 0.11683401E+008
 0.11683293E+008
 0.11683192E+008
 0.11683106E+008
 0.11683046E+008
 0.98754553E+005
 0.26770027E+006
 0.60907821E+006
 0.11946556E+007
 0.20937510E+007
 0.33741515E+007
 0.51120996E+007
 0.74716828E+007
 0.10940422E+008
 0.17156022E+008
 0.28098601E+008
 0.41727050E+008
 0.40400092E+008
 0.17195324E+008
 0.98754318E+005
 0.26769965E+006
 0.60907714E+006
 0.11946540E+007
 0.20937487E+007
 0.33741486E+007
 0.51120962E+007
 0.74716791E+007
 0.10940418E+008
 0.17156016E+008
 0.28098591E+008
 0.41727037E+008
 0.40400081E+008
 0.17195321E+008
 0.34463289E+008
 0.37080851E+008
 0.30141060E+008
 0.20896141E+008
 0.14326902E+008
 0.10681766E+008
 0.82689947E+007
 0.63626169E+007
 0.47515722E+007
 0.33894992E+007
 0.23014872E+007
 0.14973106E+007
 0.97006711E+006
 0.69615375E+006
 0.24423744E+008
 0.22208865E+008
 0.18528316E+008
 0.14931777E+008
 0.12423926E+008
 0.10660068E+008
 0.91888373E+007
 0.78580756E+007
 0.65874013E+007
 0.53941126E+007
 0.43299676E+007
 0.34620308E+007
 0.28664617E+007
 0.25383361E+007
 0.14555145E+008
 0.14041143E+008
 0.13340744E+008
 0.12497226E+008
 0.11650078E+008
 0.10843204E+008
 0.10041307E+008
 0.92178539E+007
 0.83863976E+007
 0.75553014E+007
 0.67677746E+007
 0.60799858E+007
 0.55701623E+007
 0.52590610E+007
 0.12521400E+008
 0.12362519E+008
 0.12117898E+008
 0.11819022E+008
 0.11476775E+008
 0.11101010E+008
 0.10691873E+008
 0.10246999E+008
 0.97691141E+007
 0.92730170E+007
 0.87917687E+007
 0.83602563E+007
 0.80228714E+007
 0.78042922E+007
 0.11971084E+008
 0.11907198E+008
 0.11804293E+008
 0.11669134E+008
 0.11508949E+008
 0.11326850E+008
 0.11123699E+008
 0.10899005E+008
 0.10654214E+008
 0.10395992E+008
 0.10136847E+008
 0.98979349E+007
 0.97061634E+007
 0.95817607E+007
 0.11789247E+008
 0.11759245E+008
 0.11711670E+008
 0.11648701E+008
 0.11572388E+008
 0.11484241E+008
 0.11384900E+008
 0.11274829E+008
 0.11155158E+008
 0.11029053E+008
 0.10902447E+008
 0.10785309E+008
 0.10689590E+008
 0.10627243E+008
 0.11720756E+008
 0.11707336E+008
 0.11685655E+008
 0.11656704E+008
 0.11621273E+008
 0.11579855E+008
 0.11532763E+008
 0.11480361E+008
 0.11423470E+008
 0.11363824E+008
 0.11304445E+008
 0.11249706E+008
 0.11205010E+008
 0.11175778E+008
 0.11695694E+008
 0.11689806E+008
 0.11680310E+008
 0.11667500E+008
 0.11651645E+008
 0.11632938E+008
 0.11611533E+008
 0.11587663E+008
 0.11561793E+008
 0.11534790E+008
 0.11508047E+008
 0.11483494E+008
 0.11463432E+008
 0.11450179E+008
 0.11687022E+008
 0.11684579E+008
 0.11680606E+008
 0.11675205E+008
 0.11668465E+008
 0.11660464E+008
 0.11651285E+008
 0.11641055E+008
 0.11630012E+008
 0.11618553E+008
 0.11607280E+008
 0.11596991E+008
 0.11588605E+008
 0.11583010E+008
 0.11684311E+008
 0.11683359E+008
 0.11681804E+008
 0.11679682E+008
 0.11677026E+008
 0.11673868E+008
 0.11670247E+008
 0.11666226E+008
 0.11661906E+008
 0.11657449E+008
 0.11653087E+008
 0.11649116E+008
 0.11645877E+008
 0.11643708E+008
 0.11683706E+008
 0.11683313E+008
 0.11682669E+008
 0.11681789E+008
 0.11680685E+008
 0.11679374E+008
 0.11677874E+008
 0.11676216E+008
 0.11674444E+008
 0.11672625E+008
 0.11670853E+008
 0.11669246E+008
 0.11667937E+008
 0.11667067E+008
 0.11683700E+008
 0.11683532E+008
 0.11683256E+008
 0.11682878E+008
 0.11682404E+008
 0.11681840E+008
 0.11681196E+008
 0.11680485E+008
 0.11679729E+008
 0.11678955E+008
 0.11678204E+008
 0.11677526E+008
 0.11676976E+008
 0.11676613E+008
 0.11683803E+008
 0.11683734E+008
 0.11683620E+008
 0.11683463E+008
 0.11683265E+008
 0.11683028E+008
 0.11682757E+008
 0.11682458E+008
 0.11682140E+008
 0.11681815E+008
 0.11681500E+008
 0.11681215E+008
 0.11680986E+008
 0.11680834E+008
 0.11683898E+008
 0.11683873E+008
 0.11683829E+008
 0.11683765E+008
 0.11683682E+008
 0.11683579E+008
 0.11683458E+008
 0.11683323E+008
 0.11683177E+008
 0.11683027E+008
 0.11682881E+008
 0.11682747E+008
 0.11682639E+008
 0.11682566E+008
 0.16999074E+008
 0.46790743E+008
 0.51000696E+008
 0.34264092E+008
 0.19873651E+008
 0.11353639E+008
 0.69093864E+007
 0.42580576E+007
 0.25331962E+007
 0.14146724E+007
 0.70828334E+006
 0.30013703E+006
 0.98756436E+005
 0.21057593E+005
 0.22622997E+008
 0.58536253E+008
 0.59528981E+008
 0.38415207E+008
 0.21631960E+008
 0.11699086E+008
 0.65565887E+007
 0.37585331E+007
 0.20955666E+007
 0.10972904E+007
 0.51796955E+006
 0.20677731E+006
 0.63705358E+005
 0.12736204E+005
 0.27604173E+008
 0.71859181E+008
 0.67062157E+008
 0.40759638E+008
 0.22632131E+008
 0.11921678E+008
 0.63582107E+007
 0.34631346E+007
 0.18657093E+007
 0.95345021E+006
 0.44062986E+006
 0.17316889E+006
 0.54281803E+005
 0.10931932E+005
 0.30262040E+008
 0.78330974E+008
 0.70557745E+008
 0.41758262E+008
 0.23065145E+008
 0.12020549E+008
 0.62789959E+007
 0.33409562E+007
 0.17629166E+007
 0.89310359E+006
 0.41072133E+006
 0.16247117E+006
 0.51565483E+005
 0.10430333E+005
 0.30262033E+008
 0.78330957E+008
 0.70557732E+008
 0.41758257E+008
 0.23065143E+008
 0.12020548E+008
 0.62789954E+007
 0.33409560E+007
 0.17629165E+007
 0.89310353E+006
 0.41072126E+006
 0.16247113E+006
 0.51565463E+005
 0.10430328E+005
 0.27604160E+008
 0.71859143E+008
 0.67062133E+008
 0.40759629E+008
 0.22632126E+008
 0.11921676E+008
 0.63582097E+007
 0.34631343E+007
 0.18657092E+007
 0.95345014E+006
 0.44062976E+006
 0.17316881E+006
 0.54281762E+005
 0.10931920E+005
 0.22622989E+008
 0.58536230E+008
 0.59528967E+008
 0.38415202E+008
 0.21631958E+008
 0.11699085E+008
 0.65565886E+007
 0.37585333E+007
 0.20955668E+007
 0.10972905E+007
 0.51796959E+006
 0.20677729E+006
 0.63705337E+005
 0.12736195E+005
 0.16999074E+008
 0.46790745E+008
 0.51000700E+008
 0.34264096E+008
 0.19873653E+008
 0.11353641E+008
 0.69093882E+007
 0.42580592E+007
 0.25331975E+007
 0.14146733E+007
 0.70828381E+006
 0.30013728E+006
 0.98756526E+005
 0.21057611E+005
 0.11683898E+008
 0.11683873E+008
 0.11683829E+008
 0.11683765E+008
 0.11683682E+008
 0.11683579E+008
 0.11683458E+008
 0.11683323E+008
 0.11683177E+008
 0.11683027E+008
 0.11682881E+008
 0.11682747E+008
 0.11682639E+008
 0.11682566E+008
 0.11683803E+008
 0.11683734E+008
 0.11683620E+008
 0.11683463E+008
 0.11683265E+008
 0.11683028E+008
 0.11682757E+008
 0.11682458E+008
 0.11682140E+008
 0.11681815E+008
 0.11681500E+008
 0.11681215E+008
 0.11680986E+008
 0.11680834E+008
 0.11683700E+008
 0.11683532E+008
 0.11683256E+008
 0.11682878E+008
 0.11682404E+008
 0.11681840E+008
 0.11681196E+008
 0.11680485E+008
 0.11679729E+008
 0.11678955E+008
 0.11678204E+008
 0.11677526E+008
 0.11676976E+008
 0.11676613E+008
 0.11683706E+008
 0.11683313E+008
 0.11682669E+008
 0.11681789E+008
 0.11680685E+008
 0.11679374E+008
 0.11677874E+008
 0.11676216E+008
 0.11674443E+008
 0.11672625E+008
 0.11670853E+008
 0.11669246E+008
 0.11667937E+008
 0.11667067E+008
 0.11684311E+008
 0.11683359E+008
 0.11681804E+008
 0.11679682E+008
 0.11677026E+008
 0.11673868E+008
 0.11670247E+008
 0.11666226E+008
 0.11661906E+008
 0.11657449E+008
 0.11653087E+008
 0.11649116E+008
 0.11645877E+008
 0.11643708E+008
 0.11687022E+008
 0.11684579E+008
 0.11680606E+008
 0.11675205E+008
 0.11668465E+008
 0.11660464E+008
 0.11651285E+008
 0.11641055E+008
 0.11630012E+008
 0.11618552E+008
 0.11607280E+008
 0.11596991E+008
 0.11588604E+008
 0.11583010E+008
 0.11695694E+008
 0.11689806E+008
 0.11680310E+008
 0.11667500E+008
 0.11651645E+008
 0.11632938E+008
 0.11611533E+008
 0.11587663E+008
 0.11561793E+008
 0.11534790E+008
 0.11508046E+008
 0.11483493E+008
 0.11463432E+008
 0.11450179E+008
 0.11720756E+008
 0.11707336E+008
 0.11685655E+008
 0.11656704E+008
 0.11621272E+008
 0.11579855E+008
 0.11532763E+008
 0.11480361E+008
 0.11423469E+008
 0.11363824E+008
 0.11304444E+008
 0.11249706E+008
 0.11205010E+008
 0.11175777E+008
 0.11789247E+008
 0.11759245E+008
 0.11711670E+008
 0.11648701E+008
 0.11572387E+008
 0.11484240E+008
 0.11384899E+008
 0.11274829E+008
 0.11155157E+008
 0.11029052E+008
 0.10902446E+008
 0.10785309E+008
 0.10689589E+008
 0.10627242E+008
 0.11971083E+008
 0.11907197E+008
 0.11804292E+008
 0.11669133E+008
 0.11508948E+008
 0.11326849E+008
 0.11123698E+008
 0.10899003E+008
 0.10654212E+008
 0.10395990E+008
 0.10136845E+008
 0.98979329E+007
 0.97061615E+007
 0.95817587E+007
 0.12521399E+008
 0.12362518E+008
 0.12117897E+008
 0.11819021E+008
 0.11476773E+008
 0.11101008E+008
 0.10691871E+008
 0.10246996E+008
 0.97691109E+007
 0.92730135E+007
 0.87917650E+007
 0.83602526E+007
 0.80228676E+007
 0.78042882E+007
 0.14555142E+008
 0.14041140E+008
 0.13340741E+008
 0.12497223E+008
 0.11650076E+008
 0.10843201E+008
 0.10041304E+008
 0.92178497E+007
 0.83863929E+007
 0.75552961E+007
 0.67677691E+007
 0.60799800E+007
 0.55701567E+007
 0.52590552E+007
 0.24423734E+008
 0.22208856E+008
 0.18528308E+008
 0.14931771E+008
 0.12423922E+008
 0.10660064E+008
 0.91888327E+007
 0.78580705E+007
 0.65873958E+007
 0.53941069E+007
 0.43299620E+007
 0.34620251E+007
 0.28664565E+007
 0.25383310E+007
 0.34463280E+008
 0.37080836E+008
 0.30141046E+008
 0.20896131E+008
 0.14326895E+008
 0.10681760E+008
 0.82689898E+007
 0.63626119E+007
 0.47515674E+007
 0.33894949E+007
 0.23014835E+007
 0.14973076E+007
 0.97006468E+006
 0.69615192E+006
