 0.18000814E+000
 0.10000000E+001
 0.10000000E+001
 0.18000814E+000
 0.18000084E+000
 0.00000000E+000
 0.00000000E+000
 0.18000084E+000
 0.18001177E+000
 0.18002546E+000
 0.18005904E+000
 0.18013477E+000
 0.18029858E+000
 0.18077619E+000
 0.18179954E+000
 0.18390253E+000
 0.18805676E+000
 0.19590422E+000
 0.21072087E+000
 0.23744751E+000
 0.29554821E+000
 0.38742166E+000
 0.10000000E+001
 0.10000000E+001
 0.10000000E+001
 0.10000000E+001
 0.10000000E+001
 0.10000000E+001
 0.10000000E+001
 0.10000000E+001
 0.38742199E+000
 0.29554838E+000
 0.23744759E+000
 0.21072091E+000
 0.19590423E+000
 0.18805676E+000
 0.18390253E+000
 0.18179954E+000
 0.18077619E+000
 0.18029858E+000
 0.18013477E+000
 0.18005904E+000
 0.18002546E+000
 0.18001177E+000
 0.18000802E+000
 0.18000768E+000
 0.18000717E+000
 0.18000652E+000
 0.18000578E+000
 0.18000501E+000
 0.18000424E+000
 0.18000351E+000
 0.18000284E+000
 0.18000225E+000
 0.18000175E+000
 0.18000136E+000
 0.18000107E+000
 0.18000090E+000
 0.18000105E+000
 0.18000167E+000
 0.18000253E+000
 0.18000265E+000
 0.17999863E+000
 0.17997718E+000
 0.17991059E+000
 0.17971871E+000
 0.17920308E+000
 0.17792741E+000
 0.17483841E+000
 0.16817294E+000
 0.15224829E+000
 0.12836827E+000
 0.00000000E+000
 0.00000000E+000
 0.00000000E+000
 0.00000000E+000
 0.00000000E+000
 0.00000000E+000
 0.00000000E+000
 0.00000000E+000
 0.12836824E+000
 0.15224827E+000
 0.16817293E+000
 0.17483840E+000
 0.17792741E+000
 0.17920308E+000
 0.17971870E+000
 0.17991059E+000
 0.17997718E+000
 0.17999863E+000
 0.18000265E+000
 0.18000253E+000
 0.18000167E+000
 0.18000105E+000
 0.18000090E+000
 0.18000107E+000
 0.18000136E+000
 0.18000175E+000
 0.18000225E+000
 0.18000284E+000
 0.18000351E+000
 0.18000424E+000
 0.18000501E+000
 0.18000578E+000
 0.18000652E+000
 0.18000717E+000
 0.18000768E+000
 0.18000802E+000
 0.67589535E+000
 0.52626167E+000
 0.42726925E+000
 0.35846890E+000
 0.30899184E+000
 0.27179324E+000
 0.24217433E+000
 0.21703787E+000
 0.19428376E+000
 0.17243426E+000
 0.15034528E+000
 0.12736318E+000
 0.10175872E+000
 0.69268874E-001
 0.67589564E+000
 0.52626193E+000
 0.42726943E+000
 0.35846902E+000
 0.30899193E+000
 0.27179331E+000
 0.24217438E+000
 0.21703790E+000
 0.19428379E+000
 0.17243429E+000
 0.15034531E+000
 0.12736320E+000
 0.10175874E+000
 0.69268898E-001
 0.12284722E+000
 0.13399374E+000
 0.14796358E+000
 0.16265893E+000
 0.17746784E+000
 0.19251441E+000
 0.20830802E+000
 0.22564377E+000
 0.24564478E+000
 0.26970853E+000
 0.29938198E+000
 0.33569075E+000
 0.37705645E+000
 0.41281806E+000
 0.15522397E+000
 0.15851991E+000
 0.16462112E+000
 0.17232128E+000
 0.18087494E+000
 0.19000691E+000
 0.19977594E+000
 0.21046355E+000
 0.22244927E+000
 0.23603823E+000
 0.25114403E+000
 0.26671190E+000
 0.27993940E+000
 0.28664106E+000
 0.16852971E+000
 0.17065247E+000
 0.17369133E+000
 0.17759641E+000
 0.18215271E+000
 0.18720933E+000
 0.19273299E+000
 0.19877596E+000
 0.20539389E+000
 0.21253338E+000
 0.21990265E+000
 0.22688542E+000
 0.23272325E+000
 0.23717421E+000
 0.17522807E+000
 0.17615541E+000
 0.17769488E+000
 0.17968565E+000
 0.18203837E+000
 0.18469796E+000
 0.18764285E+000
 0.19087053E+000
 0.19436510E+000
 0.19805570E+000
 0.20177862E+000
 0.20526730E+000
 0.20815744E+000
 0.20989428E+000
 0.17807376E+000
 0.17855051E+000
 0.17929549E+000
 0.18027925E+000
 0.18145902E+000
 0.18280834E+000
 0.18431569E+000
 0.18597462E+000
 0.18776847E+000
 0.18965270E+000
 0.19153816E+000
 0.19327985E+000
 0.19468840E+000
 0.19563206E+000
 0.17928045E+000
 0.17950040E+000
 0.17985665E+000
 0.18032764E+000
 0.18089835E+000
 0.18155857E+000
 0.18230297E+000
 0.18312683E+000
 0.18401923E+000
 0.18495502E+000
 0.18588766E+000
 0.18674723E+000
 0.18744887E+000
 0.18789613E+000
 0.17975256E+000
 0.17985400E+000
 0.18001633E+000
 0.18023364E+000
 0.18049996E+000
 0.18081152E+000
 0.18116580E+000
 0.18155952E+000
 0.18198589E+000
 0.18243150E+000
 0.18287392E+000
 0.18328078E+000
 0.18361146E+000
 0.18382901E+000
 0.17992565E+000
 0.17996968E+000
 0.18004102E+000
 0.18013731E+000
 0.18025676E+000
 0.18039789E+000
 0.18055934E+000
 0.18073904E+000
 0.18093316E+000
 0.18113497E+000
 0.18133407E+000
 0.18151637E+000
 0.18166574E+000
 0.18176462E+000
 0.17998345E+000
 0.18000183E+000
 0.18003172E+000
 0.18007247E+000
 0.18012338E+000
 0.18018383E+000
 0.18025309E+000
 0.18033004E+000
 0.18041275E+000
 0.18049814E+000
 0.18058169E+000
 0.18065756E+000
 0.18071902E+000
 0.18076033E+000
 0.18000099E+000
 0.18000798E+000
 0.18001936E+000
 0.18003485E+000
 0.18005421E+000
 0.18007717E+000
 0.18010340E+000
 0.18013240E+000
 0.18016339E+000
 0.18019519E+000
 0.18022620E+000
 0.18025438E+000
 0.18027744E+000
 0.18029296E+000
 0.18000370E+000
 0.18000680E+000
 0.18001187E+000
 0.18001880E+000
 0.18002747E+000
 0.18003774E+000
 0.18004945E+000
 0.18006233E+000
 0.18007603E+000
 0.18009001E+000
 0.18010357E+000
 0.18011584E+000
 0.18012580E+000
 0.18013241E+000
 0.18000298E+000
 0.18000430E+000
 0.18000648E+000
 0.18000946E+000
 0.18001320E+000
 0.18001762E+000
 0.18002266E+000
 0.18002820E+000
 0.18003407E+000
 0.18004005E+000
 0.18004583E+000
 0.18005104E+000
 0.18005525E+000
 0.18005804E+000
 0.18000186E+000
 0.18000242E+000
 0.18000334E+000
 0.18000459E+000
 0.18000617E+000
 0.18000805E+000
 0.18001018E+000
 0.18001252E+000
 0.18001499E+000
 0.18001751E+000
 0.18001993E+000
 0.18002211E+000
 0.18002387E+000
 0.18002504E+000
 0.18000114E+000
 0.18000139E+000
 0.18000180E+000
 0.18000238E+000
 0.18000310E+000
 0.18000395E+000
 0.18000492E+000
 0.18000599E+000
 0.18000711E+000
 0.18000825E+000
 0.18000933E+000
 0.18001030E+000
 0.18001108E+000
 0.18001159E+000
 0.47423983E-001
 0.83159018E-001
 0.11347163E+000
 0.14125323E+000
 0.16809118E+000
 0.19502866E+000
 0.22319617E+000
 0.25456591E+000
 0.29185010E+000
 0.33944676E+000
 0.40418658E+000
 0.49763402E+000
 0.63607501E+000
 0.83170041E+000
 0.42302300E-001
 0.75112410E-001
 0.10564714E+000
 0.13536537E+000
 0.16494308E+000
 0.19540831E+000
 0.22767788E+000
 0.26382424E+000
 0.30682269E+000
 0.36137273E+000
 0.43457071E+000
 0.53749485E+000
 0.68101573E+000
 0.85976800E+000
 0.40283036E-001
 0.71989749E-001
 0.10202915E+000
 0.13227186E+000
 0.16309852E+000
 0.19553342E+000
 0.23033109E+000
 0.26951959E+000
 0.31594249E+000
 0.37416039E+000
 0.45083899E+000
 0.55572007E+000
 0.69697340E+000
 0.86823950E+000
 0.39493083E-001
 0.70868101E-001
 0.10076082E+000
 0.13106940E+000
 0.16233269E+000
 0.19558941E+000
 0.23155092E+000
 0.27211255E+000
 0.31999913E+000
 0.37955276E+000
 0.45709395E+000
 0.56180148E+000
 0.70152172E+000
 0.87044642E+000
 0.39493084E-001
 0.70868104E-001
 0.10076082E+000
 0.13106940E+000
 0.16233270E+000
 0.19558941E+000
 0.23155093E+000
 0.27211255E+000
 0.31999914E+000
 0.37955276E+000
 0.45709396E+000
 0.56180152E+000
 0.70152178E+000
 0.87044645E+000
 0.40283038E-001
 0.71989756E-001
 0.10202916E+000
 0.13227187E+000
 0.16309853E+000
 0.19553343E+000
 0.23033110E+000
 0.26951960E+000
 0.31594249E+000
 0.37416040E+000
 0.45083902E+000
 0.55572014E+000
 0.69697351E+000
 0.86823958E+000
 0.42302301E-001
 0.75112413E-001
 0.10564715E+000
 0.13536538E+000
 0.16494309E+000
 0.19540831E+000
 0.22767788E+000
 0.26382424E+000
 0.30682268E+000
 0.36137272E+000
 0.43457071E+000
 0.53749487E+000
 0.68101580E+000
 0.85976809E+000
 0.47423972E-001
 0.83159005E-001
 0.11347162E+000
 0.14125322E+000
 0.16809117E+000
 0.19502865E+000
 0.22319615E+000
 0.25456588E+000
 0.29185006E+000
 0.33944671E+000
 0.40418652E+000
 0.49763392E+000
 0.63607490E+000
 0.83170035E+000
 0.18000114E+000
 0.18000139E+000
 0.18000180E+000
 0.18000238E+000
 0.18000310E+000
 0.18000395E+000
 0.18000492E+000
 0.18000599E+000
 0.18000711E+000
 0.18000825E+000
 0.18000933E+000
 0.18001030E+000
 0.18001108E+000
 0.18001159E+000
 0.18000186E+000
 0.18000242E+000
 0.18000334E+000
 0.18000459E+000
 0.18000617E+000
 0.18000805E+000
 0.18001018E+000
 0.18001252E+000
 0.18001499E+000
 0.18001751E+000
 0.18001993E+000
 0.18002211E+000
 0.18002387E+000
 0.18002504E+000
 0.18000298E+000
 0.18000430E+000
 0.18000648E+000
 0.18000946E+000
 0.18001320E+000
 0.18001762E+000
 0.18002266E+000
 0.18002820E+000
 0.18003407E+000
 0.18004005E+000
 0.18004583E+000
 0.18005104E+000
 0.18005525E+000
 0.18005804E+000
 0.18000370E+000
 0.18000680E+000
 0.18001187E+000
 0.18001880E+000
 0.18002747E+000
 0.18003774E+000
 0.18004945E+000
 0.18006233E+000
 0.18007603E+000
 0.18009001E+000
 0.18010357E+000
 0.18011584E+000
 0.18012580E+000
 0.18013241E+000
 0.18000099E+000
 0.18000798E+000
 0.18001936E+000
 0.18003485E+000
 0.18005421E+000
 0.18007717E+000
 0.18010340E+000
 0.18013240E+000
 0.18016339E+000
 0.18019519E+000
 0.18022620E+000
 0.18025438E+000
 0.18027744E+000
 0.18029296E+000
 0.17998345E+000
 0.18000183E+000
 0.18003172E+000
 0.18007247E+000
 0.18012338E+000
 0.18018383E+000
 0.18025309E+000
 0.18033004E+000
 0.18041275E+000
 0.18049814E+000
 0.18058169E+000
 0.18065756E+000
 0.18071902E+000
 0.18076033E+000
 0.17992565E+000
 0.17996968E+000
 0.18004102E+000
 0.18013731E+000
 0.18025676E+000
 0.18039789E+000
 0.18055934E+000
 0.18073904E+000
 0.18093316E+000
 0.18113497E+000
 0.18133407E+000
 0.18151637E+000
 0.18166574E+000
 0.18176462E+000
 0.17975256E+000
 0.17985400E+000
 0.18001633E+000
 0.18023364E+000
 0.18049996E+000
 0.18081153E+000
 0.18116580E+000
 0.18155952E+000
 0.18198589E+000
 0.18243150E+000
 0.18287393E+000
 0.18328078E+000
 0.18361146E+000
 0.18382901E+000
 0.17928045E+000
 0.17950041E+000
 0.17985665E+000
 0.18032764E+000
 0.18089835E+000
 0.18155857E+000
 0.18230297E+000
 0.18312683E+000
 0.18401924E+000
 0.18495502E+000
 0.18588767E+000
 0.18674724E+000
 0.18744888E+000
 0.18789614E+000
 0.17807376E+000
 0.17855052E+000
 0.17929549E+000
 0.18027926E+000
 0.18145903E+000
 0.18280835E+000
 0.18431570E+000
 0.18597463E+000
 0.18776849E+000
 0.18965271E+000
 0.19153817E+000
 0.19327987E+000
 0.19468842E+000
 0.19563207E+000
 0.17522808E+000
 0.17615542E+000
 0.17769489E+000
 0.17968566E+000
 0.18203838E+000
 0.18469797E+000
 0.18764287E+000
 0.19087055E+000
 0.19436513E+000
 0.19805573E+000
 0.20177865E+000
 0.20526733E+000
 0.20815747E+000
 0.20989432E+000
 0.16852973E+000
 0.17065249E+000
 0.17369134E+000
 0.17759642E+000
 0.18215273E+000
 0.18720935E+000
 0.19273302E+000
 0.19877599E+000
 0.20539393E+000
 0.21253343E+000
 0.21990271E+000
 0.22688549E+000
 0.23272332E+000
 0.23717429E+000
 0.15522399E+000
 0.15851993E+000
 0.16462114E+000
 0.17232130E+000
 0.18087497E+000
 0.19000694E+000
 0.19977598E+000
 0.21046360E+000
 0.22244933E+000
 0.23603830E+000
 0.25114413E+000
 0.26671203E+000
 0.27993955E+000
 0.28664123E+000
 0.12284725E+000
 0.13399377E+000
 0.14796361E+000
 0.16265896E+000
 0.17746787E+000
 0.19251444E+000
 0.20830807E+000
 0.22564382E+000
 0.24564485E+000
 0.26970862E+000
 0.29938211E+000
 0.33569094E+000
 0.37705671E+000
 0.41281836E+000
