-0.17136755E+006
-0.46725096E+007
-0.46725096E+007
-0.17136755E+006
-0.17136034E+006
-0.10205808E+005
-0.10205808E+005
-0.17136034E+006
-0.17137121E+006
-0.17138510E+006
-0.17141969E+006
-0.17149957E+006
-0.17167891E+006
-0.17223137E+006
-0.17353671E+006
-0.17659642E+006
-0.18381984E+006
-0.20042192E+006
-0.24047712E+006
-0.32798396E+006
-0.57798402E+006
-0.10028655E+007
-0.46725096E+007
-0.46725096E+007
-0.46725096E+007
-0.46725096E+007
-0.46725096E+007
-0.46725096E+007
-0.46725096E+007
-0.46725096E+007
-0.10028667E+007
-0.57798445E+006
-0.32798409E+006
-0.24047713E+006
-0.20042191E+006
-0.18381984E+006
-0.17659642E+006
-0.17353671E+006
-0.17223137E+006
-0.17167891E+006
-0.17149957E+006
-0.17141969E+006
-0.17138510E+006
-0.17137121E+006
-0.17136743E+006
-0.17136710E+006
-0.17136658E+006
-0.17136594E+006
-0.17136521E+006
-0.17136445E+006
-0.17136368E+006
-0.17136296E+006
-0.17136230E+006
-0.17136172E+006
-0.17136123E+006
-0.17136084E+006
-0.17136057E+006
-0.17136040E+006
-0.17136059E+006
-0.17136136E+006
-0.17136262E+006
-0.17136380E+006
-0.17136244E+006
-0.17135019E+006
-0.17130832E+006
-0.17117948E+006
-0.17081415E+006
-0.16986678E+006
-0.16744711E+006
-0.16200417E+006
-0.14833048E+006
-0.12739642E+006
-0.10205808E+005
-0.10205808E+005
-0.10205808E+005
-0.10205808E+005
-0.10205808E+005
-0.10205808E+005
-0.10205808E+005
-0.10205808E+005
-0.12739640E+006
-0.14833047E+006
-0.16200417E+006
-0.16744711E+006
-0.16986678E+006
-0.17081415E+006
-0.17117948E+006
-0.17130832E+006
-0.17135019E+006
-0.17136244E+006
-0.17136380E+006
-0.17136262E+006
-0.17136136E+006
-0.17136059E+006
-0.17136040E+006
-0.17136057E+006
-0.17136084E+006
-0.17136123E+006
-0.17136172E+006
-0.17136230E+006
-0.17136296E+006
-0.17136368E+006
-0.17136445E+006
-0.17136521E+006
-0.17136594E+006
-0.17136658E+006
-0.17136710E+006
-0.17136743E+006
-0.26466591E+007
-0.17331001E+007
-0.11658877E+007
-0.80711098E+006
-0.57940710E+006
-0.43312521E+006
-0.33692933E+006
-0.27147816E+006
-0.22470364E+006
-0.18894490E+006
-0.15923533E+006
-0.13262638E+006
-0.10597994E+006
-0.74511058E+005
-0.26466602E+007
-0.17331008E+007
-0.11658880E+007
-0.80711098E+006
-0.57940703E+006
-0.43312514E+006
-0.33692926E+006
-0.27147811E+006
-0.22470360E+006
-0.18894488E+006
-0.15923532E+006
-0.13262639E+006
-0.10597995E+006
-0.74511073E+005
-0.12274585E+006
-0.13426936E+006
-0.14954609E+006
-0.16729625E+006
-0.18798522E+006
-0.21333016E+006
-0.24629863E+006
-0.29134516E+006
-0.35495961E+006
-0.44601079E+006
-0.57542469E+006
-0.75247258E+006
-0.97166056E+006
-0.11705077E+007
-0.15132099E+006
-0.15520847E+006
-0.16246887E+006
-0.17235273E+006
-0.18475670E+006
-0.20030414E+006
-0.22028570E+006
-0.24660896E+006
-0.28161198E+006
-0.32746624E+006
-0.38458690E+006
-0.44825770E+006
-0.50371557E+006
-0.52794392E+006
-0.16249349E+006
-0.16495039E+006
-0.16869805E+006
-0.17386964E+006
-0.18053947E+006
-0.18894688E+006
-0.19954363E+006
-0.21292105E+006
-0.22959231E+006
-0.24958764E+006
-0.27188577E+006
-0.29404412E+006
-0.31326996E+006
-0.33004912E+006
-0.16788720E+006
-0.16900027E+006
-0.17089474E+006
-0.17349564E+006
-0.17682638E+006
-0.18097289E+006
-0.18607078E+006
-0.19226119E+006
-0.19960369E+006
-0.20796192E+006
-0.21690969E+006
-0.22573075E+006
-0.23336847E+006
-0.23753424E+006
-0.17003920E+006
-0.17059481E+006
-0.17149109E+006
-0.17272595E+006
-0.17429537E+006
-0.17621848E+006
-0.17853035E+006
-0.18126267E+006
-0.18441372E+006
-0.18791241E+006
-0.19157827E+006
-0.19507828E+006
-0.19793892E+006
-0.20001956E+006
-0.17090062E+006
-0.17115004E+006
-0.17156086E+006
-0.17212105E+006
-0.17282776E+006
-0.17368470E+006
-0.17470042E+006
-0.17588089E+006
-0.17721816E+006
-0.17867568E+006
-0.18017404E+006
-0.18158901E+006
-0.18277705E+006
-0.18350936E+006
-0.17121624E+006
-0.17132675E+006
-0.17150610E+006
-0.17175118E+006
-0.17205976E+006
-0.17243223E+006
-0.17286995E+006
-0.17337238E+006
-0.17393283E+006
-0.17453390E+006
-0.17514395E+006
-0.17571522E+006
-0.17618188E+006
-0.17649897E+006
-0.17132409E+006
-0.17137043E+006
-0.17144625E+006
-0.17155009E+006
-0.17168123E+006
-0.17183933E+006
-0.17202404E+006
-0.17223390E+006
-0.17246495E+006
-0.17270923E+006
-0.17295363E+006
-0.17317975E+006
-0.17336753E+006
-0.17349085E+006
-0.17135656E+006
-0.17137542E+006
-0.17140631E+006
-0.17144883E+006
-0.17150256E+006
-0.17156719E+006
-0.17164221E+006
-0.17172665E+006
-0.17181849E+006
-0.17191427E+006
-0.17200882E+006
-0.17209534E+006
-0.17216557E+006
-0.17221337E+006
-0.17136481E+006
-0.17137185E+006
-0.17138337E+006
-0.17139916E+006
-0.17141905E+006
-0.17144282E+006
-0.17147020E+006
-0.17150071E+006
-0.17153354E+006
-0.17156746E+006
-0.17160070E+006
-0.17163103E+006
-0.17165598E+006
-0.17167276E+006
-0.17136484E+006
-0.17136793E+006
-0.17137301E+006
-0.17137997E+006
-0.17138873E+006
-0.17139916E+006
-0.17141111E+006
-0.17142433E+006
-0.17143845E+006
-0.17145292E+006
-0.17146701E+006
-0.17147979E+006
-0.17149019E+006
-0.17149711E+006
-0.17136306E+006
-0.17136437E+006
-0.17136653E+006
-0.17136950E+006
-0.17137323E+006
-0.17137766E+006
-0.17138273E+006
-0.17138832E+006
-0.17139426E+006
-0.17140033E+006
-0.17140621E+006
-0.17141152E+006
-0.17141582E+006
-0.17141867E+006
-0.17136154E+006
-0.17136209E+006
-0.17136299E+006
-0.17136424E+006
-0.17136580E+006
-0.17136766E+006
-0.17136978E+006
-0.17137211E+006
-0.17137459E+006
-0.17137711E+006
-0.17137955E+006
-0.17138174E+006
-0.17138351E+006
-0.17138469E+006
-0.17136067E+006
-0.17136092E+006
-0.17136132E+006
-0.17136189E+006
-0.17136260E+006
-0.17136344E+006
-0.17136440E+006
-0.17136546E+006
-0.17136657E+006
-0.17136770E+006
-0.17136878E+006
-0.17136975E+006
-0.17137052E+006
-0.17137103E+006
-0.54747976E+005
-0.89450544E+005
-0.12080908E+006
-0.15255949E+006
-0.18794420E+006
-0.23090210E+006
-0.28723509E+006
-0.36697769E+006
-0.48617628E+006
-0.67243509E+006
-0.97247028E+006
-0.14688038E+007
-0.22860196E+007
-0.35340195E+007
-0.50111607E+005
-0.82249154E+005
-0.11398452E+006
-0.14784318E+006
-0.18631572E+006
-0.23368078E+006
-0.29601102E+006
-0.38441636E+006
-0.51706815E+006
-0.72484440E+006
-0.10592017E+007
-0.16062283E+007
-0.24703179E+007
-0.36621204E+007
-0.48264742E+005
-0.79408323E+005
-0.11070064E+006
-0.14507174E+006
-0.18473537E+006
-0.23407486E+006
-0.29916731E+006
-0.39143450E+006
-0.52938250E+006
-0.74448391E+006
-0.10883728E+007
-0.16441839E+007
-0.25067954E+007
-0.36829728E+007
-0.47527037E+005
-0.78364174E+005
-0.10950320E+006
-0.14387310E+006
-0.18383487E+006
-0.23378433E+006
-0.29978710E+006
-0.39310469E+006
-0.53213224E+006
-0.74801131E+006
-0.10917987E+007
-0.16455414E+007
-0.25048440E+007
-0.36815296E+007
-0.47527039E+005
-0.78364179E+005
-0.10950321E+006
-0.14387312E+006
-0.18383489E+006
-0.23378436E+006
-0.29978714E+006
-0.39310475E+006
-0.53213233E+006
-0.74801146E+006
-0.10917989E+007
-0.16455418E+007
-0.25048445E+007
-0.36815300E+007
-0.48264747E+005
-0.79408336E+005
-0.11070066E+006
-0.14507177E+006
-0.18473543E+006
-0.23407494E+006
-0.29916742E+006
-0.39143466E+006
-0.52938274E+006
-0.74448428E+006
-0.10883734E+007
-0.16441848E+007
-0.25067966E+007
-0.36829737E+007
-0.50111613E+005
-0.82249168E+005
-0.11398455E+006
-0.14784322E+006
-0.18631578E+006
-0.23368087E+006
-0.29601115E+006
-0.38441655E+006
-0.51706844E+006
-0.72484483E+006
-0.10592024E+007
-0.16062292E+007
-0.24703191E+007
-0.36621215E+007
-0.54747971E+005
-0.89450544E+005
-0.12080909E+006
-0.15255952E+006
-0.18794424E+006
-0.23090216E+006
-0.28723519E+006
-0.36697784E+006
-0.48617649E+006
-0.67243537E+006
-0.97247063E+006
-0.14688041E+007
-0.22860198E+007
-0.35340196E+007
-0.17136067E+006
-0.17136092E+006
-0.17136132E+006
-0.17136189E+006
-0.17136260E+006
-0.17136344E+006
-0.17136440E+006
-0.17136546E+006
-0.17136657E+006
-0.17136770E+006
-0.17136878E+006
-0.17136975E+006
-0.17137052E+006
-0.17137103E+006
-0.17136154E+006
-0.17136209E+006
-0.17136299E+006
-0.17136424E+006
-0.17136580E+006
-0.17136766E+006
-0.17136978E+006
-0.17137211E+006
-0.17137459E+006
-0.17137711E+006
-0.17137955E+006
-0.17138174E+006
-0.17138351E+006
-0.17138469E+006
-0.17136306E+006
-0.17136437E+006
-0.17136653E+006
-0.17136950E+006
-0.17137323E+006
-0.17137766E+006
-0.17138273E+006
-0.17138832E+006
-0.17139426E+006
-0.17140033E+006
-0.17140621E+006
-0.17141152E+006
-0.17141582E+006
-0.17141867E+006
-0.17136484E+006
-0.17136793E+006
-0.17137301E+006
-0.17137997E+006
-0.17138873E+006
-0.17139916E+006
-0.17141111E+006
-0.17142433E+006
-0.17143845E+006
-0.17145292E+006
-0.17146701E+006
-0.17147979E+006
-0.17149019E+006
-0.17149711E+006
-0.17136481E+006
-0.17137185E+006
-0.17138337E+006
-0.17139916E+006
-0.17141905E+006
-0.17144282E+006
-0.17147020E+006
-0.17150071E+006
-0.17153354E+006
-0.17156746E+006
-0.17160070E+006
-0.17163103E+006
-0.17165598E+006
-0.17167276E+006
-0.17135656E+006
-0.17137542E+006
-0.17140631E+006
-0.17144883E+006
-0.17150256E+006
-0.17156719E+006
-0.17164221E+006
-0.17172665E+006
-0.17181849E+006
-0.17191427E+006
-0.17200882E+006
-0.17209534E+006
-0.17216557E+006
-0.17221337E+006
-0.17132409E+006
-0.17137043E+006
-0.17144625E+006
-0.17155009E+006
-0.17168123E+006
-0.17183933E+006
-0.17202404E+006
-0.17223390E+006
-0.17246495E+006
-0.17270923E+006
-0.17295363E+006
-0.17317975E+006
-0.17336753E+006
-0.17349085E+006
-0.17121624E+006
-0.17132675E+006
-0.17150610E+006
-0.17175118E+006
-0.17205977E+006
-0.17243223E+006
-0.17286996E+006
-0.17337238E+006
-0.17393283E+006
-0.17453390E+006
-0.17514395E+006
-0.17571522E+006
-0.17618188E+006
-0.17649897E+006
-0.17090062E+006
-0.17115004E+006
-0.17156086E+006
-0.17212106E+006
-0.17282776E+006
-0.17368470E+006
-0.17470042E+006
-0.17588089E+006
-0.17721816E+006
-0.17867568E+006
-0.18017404E+006
-0.18158901E+006
-0.18277705E+006
-0.18350935E+006
-0.17003920E+006
-0.17059481E+006
-0.17149109E+006
-0.17272595E+006
-0.17429538E+006
-0.17621848E+006
-0.17853036E+006
-0.18126267E+006
-0.18441373E+006
-0.18791241E+006
-0.19157827E+006
-0.19507828E+006
-0.19793892E+006
-0.20001955E+006
-0.16788720E+006
-0.16900027E+006
-0.17089475E+006
-0.17349565E+006
-0.17682638E+006
-0.18097290E+006
-0.18607079E+006
-0.19226121E+006
-0.19960371E+006
-0.20796194E+006
-0.21690971E+006
-0.22573077E+006
-0.23336848E+006
-0.23753425E+006
-0.16249350E+006
-0.16495039E+006
-0.16869805E+006
-0.17386965E+006
-0.18053947E+006
-0.18894689E+006
-0.19954364E+006
-0.21292107E+006
-0.22959234E+006
-0.24958769E+006
-0.27188583E+006
-0.29404421E+006
-0.31327006E+006
-0.33004923E+006
-0.15132100E+006
-0.15520848E+006
-0.16246888E+006
-0.17235274E+006
-0.18475670E+006
-0.20030414E+006
-0.22028571E+006
-0.24660898E+006
-0.28161203E+006
-0.32746633E+006
-0.38458706E+006
-0.44825797E+006
-0.50371594E+006
-0.52794436E+006
-0.12274587E+006
-0.13426937E+006
-0.14954610E+006
-0.16729625E+006
-0.18798521E+006
-0.21333015E+006
-0.24629863E+006
-0.29134516E+006
-0.35495964E+006
-0.44601087E+006
-0.57542490E+006
-0.75247305E+006
-0.97166138E+006
-0.11705088E+007
