 0.18480023E+004
 0.28800000E+003
 0.28800000E+003
 0.18480023E+004
 0.18480163E+004
 0.28800000E+003
 0.28800000E+003
 0.18480163E+004
 0.18479953E+004
 0.18479689E+004
 0.18479033E+004
 0.18477537E+004
 0.18473837E+004
 0.18464096E+004
 0.18442312E+004
 0.18395873E+004
 0.18299834E+004
 0.18106230E+004
 0.17723279E+004
 0.16965287E+004
 0.15498653E+004
 0.12102269E+004
 0.28800000E+003
 0.28800000E+003
 0.28800000E+003
 0.28800000E+003
 0.28800000E+003
 0.28800000E+003
 0.28800000E+003
 0.28800000E+003
 0.12102266E+004
 0.15498650E+004
 0.16965285E+004
 0.17723279E+004
 0.18106230E+004
 0.18299834E+004
 0.18395873E+004
 0.18442312E+004
 0.18464096E+004
 0.18473837E+004
 0.18477537E+004
 0.18479033E+004
 0.18479689E+004
 0.18479953E+004
 0.18480025E+004
 0.18480031E+004
 0.18480040E+004
 0.18480052E+004
 0.18480066E+004
 0.18480080E+004
 0.18480095E+004
 0.18480109E+004
 0.18480122E+004
 0.18480133E+004
 0.18480143E+004
 0.18480152E+004
 0.18480158E+004
 0.18480162E+004
 0.18480160E+004
 0.18480151E+004
 0.18480140E+004
 0.18480147E+004
 0.18480253E+004
 0.18480700E+004
 0.18482077E+004
 0.18485964E+004
 0.18496182E+004
 0.18521063E+004
 0.18576736E+004
 0.18667467E+004
 0.18660495E+004
 0.17131150E+004
 0.28800000E+003
 0.28800000E+003
 0.28800000E+003
 0.28800000E+003
 0.28800000E+003
 0.28800000E+003
 0.28800000E+003
 0.28800000E+003
 0.17131150E+004
 0.18660495E+004
 0.18667468E+004
 0.18576736E+004
 0.18521063E+004
 0.18496182E+004
 0.18485964E+004
 0.18482077E+004
 0.18480700E+004
 0.18480253E+004
 0.18480147E+004
 0.18480140E+004
 0.18480151E+004
 0.18480160E+004
 0.18480162E+004
 0.18480158E+004
 0.18480152E+004
 0.18480143E+004
 0.18480133E+004
 0.18480122E+004
 0.18480109E+004
 0.18480095E+004
 0.18480080E+004
 0.18480066E+004
 0.18480052E+004
 0.18480040E+004
 0.18480031E+004
 0.18480025E+004
 0.84847323E+003
 0.11091378E+004
 0.12995624E+004
 0.14445237E+004
 0.15539290E+004
 0.16371106E+004
 0.17021154E+004
 0.17550056E+004
 0.17989928E+004
 0.18304102E+004
 0.18464090E+004
 0.18306724E+004
 0.17351813E+004
 0.14370216E+004
 0.84847306E+003
 0.11091377E+004
 0.12995623E+004
 0.14445237E+004
 0.15539290E+004
 0.16371106E+004
 0.17021153E+004
 0.17550056E+004
 0.17989928E+004
 0.18304101E+004
 0.18464090E+004
 0.18306724E+004
 0.17351814E+004
 0.14370217E+004
 0.17687138E+004
 0.18269837E+004
 0.18500770E+004
 0.18485418E+004
 0.18348151E+004
 0.18087553E+004
 0.17757034E+004
 0.17364047E+004
 0.16885741E+004
 0.16288995E+004
 0.15540110E+004
 0.14623889E+004
 0.13581882E+004
 0.12591233E+004
 0.18647993E+004
 0.18621535E+004
 0.18588782E+004
 0.18515719E+004
 0.18378349E+004
 0.18195830E+004
 0.17979956E+004
 0.17726800E+004
 0.17426636E+004
 0.17070377E+004
 0.16659059E+004
 0.16218942E+004
 0.15819746E+004
 0.15565670E+004
 0.18661467E+004
 0.18627026E+004
 0.18570090E+004
 0.18494505E+004
 0.18401875E+004
 0.18292949E+004
 0.18166992E+004
 0.18022043E+004
 0.17855819E+004
 0.17669144E+004
 0.17470025E+004
 0.17276911E+004
 0.17115622E+004
 0.17006924E+004
 0.18569604E+004
 0.18549860E+004
 0.18518269E+004
 0.18476333E+004
 0.18425698E+004
 0.18366941E+004
 0.18299710E+004
 0.18223503E+004
 0.18138419E+004
 0.18046247E+004
 0.17951593E+004
 0.17862170E+004
 0.17787807E+004
 0.17739164E+004
 0.18517808E+004
 0.18507954E+004
 0.18492211E+004
 0.18471338E+004
 0.18445947E+004
 0.18416387E+004
 0.18382692E+004
 0.18344799E+004
 0.18302989E+004
 0.18258357E+004
 0.18213155E+004
 0.18170993E+004
 0.18136523E+004
 0.18114089E+004
 0.18494603E+004
 0.18489995E+004
 0.18482567E+004
 0.18472654E+004
 0.18460536E+004
 0.18446357E+004
 0.18430166E+004
 0.18412007E+004
 0.18392083E+004
 0.18370953E+004
 0.18349696E+004
 0.18329993E+004
 0.18313896E+004
 0.18303405E+004
 0.18485259E+004
 0.18483172E+004
 0.18479809E+004
 0.18475293E+004
 0.18469728E+004
 0.18463176E+004
 0.18455665E+004
 0.18447242E+004
 0.18438034E+004
 0.18428325E+004
 0.18418619E+004
 0.18409651E+004
 0.18402328E+004
 0.18397538E+004
 0.18481771E+004
 0.18480868E+004
 0.18479405E+004
 0.18477426E+004
 0.18474966E+004
 0.18472049E+004
 0.18468695E+004
 0.18464936E+004
 0.18460844E+004
 0.18456557E+004
 0.18452298E+004
 0.18448380E+004
 0.18445174E+004
 0.18443054E+004
 0.18480574E+004
 0.18480200E+004
 0.18479592E+004
 0.18478764E+004
 0.18477727E+004
 0.18476493E+004
 0.18475073E+004
 0.18473485E+004
 0.18471766E+004
 0.18469978E+004
 0.18468216E+004
 0.18466605E+004
 0.18465290E+004
 0.18464413E+004
 0.18480204E+004
 0.18480058E+004
 0.18479821E+004
 0.18479496E+004
 0.18479090E+004
 0.18478606E+004
 0.18478050E+004
 0.18477432E+004
 0.18476767E+004
 0.18476079E+004
 0.18475406E+004
 0.18474793E+004
 0.18474292E+004
 0.18473957E+004
 0.18480127E+004
 0.18480067E+004
 0.18479969E+004
 0.18479835E+004
 0.18479666E+004
 0.18479466E+004
 0.18479237E+004
 0.18478984E+004
 0.18478713E+004
 0.18478435E+004
 0.18478164E+004
 0.18477918E+004
 0.18477717E+004
 0.18477584E+004
 0.18480131E+004
 0.18480106E+004
 0.18480064E+004
 0.18480006E+004
 0.18479934E+004
 0.18479848E+004
 0.18479751E+004
 0.18479642E+004
 0.18479527E+004
 0.18479409E+004
 0.18479295E+004
 0.18479192E+004
 0.18479108E+004
 0.18479052E+004
 0.18480148E+004
 0.18480137E+004
 0.18480119E+004
 0.18480095E+004
 0.18480065E+004
 0.18480029E+004
 0.18479988E+004
 0.18479942E+004
 0.18479894E+004
 0.18479845E+004
 0.18479797E+004
 0.18479754E+004
 0.18479720E+004
 0.18479697E+004
 0.18480159E+004
 0.18480154E+004
 0.18480145E+004
 0.18480134E+004
 0.18480120E+004
 0.18480104E+004
 0.18480085E+004
 0.18480065E+004
 0.18480043E+004
 0.18480021E+004
 0.18480000E+004
 0.18479981E+004
 0.18479967E+004
 0.18479957E+004
 0.12498746E+004
 0.16615645E+004
 0.18068614E+004
 0.18448838E+004
 0.18271003E+004
 0.17913851E+004
 0.17393285E+004
 0.16759046E+004
 0.15982105E+004
 0.14985458E+004
 0.13661144E+004
 0.11872976E+004
 0.94828493E+003
 0.64426948E+003
 0.12125482E+004
 0.16333700E+004
 0.17973190E+004
 0.18434376E+004
 0.18260601E+004
 0.17867487E+004
 0.17298404E+004
 0.16600779E+004
 0.15755647E+004
 0.14685561E+004
 0.13281647E+004
 0.11412614E+004
 0.89698409E+003
 0.60141403E+003
 0.12030913E+004
 0.16282673E+004
 0.17958927E+004
 0.18431321E+004
 0.18261548E+004
 0.17844570E+004
 0.17248923E+004
 0.16518213E+004
 0.15643759E+004
 0.14552719E+004
 0.13141005E+004
 0.11283976E+004
 0.88766540E+003
 0.59694350E+003
 0.11997923E+004
 0.16276528E+004
 0.17962444E+004
 0.18434439E+004
 0.18264072E+004
 0.17836323E+004
 0.17229632E+004
 0.16486318E+004
 0.15603571E+004
 0.14511784E+004
 0.13108998E+004
 0.11270026E+004
 0.88814995E+003
 0.59797370E+003
 0.11997923E+004
 0.16276528E+004
 0.17962444E+004
 0.18434439E+004
 0.18264072E+004
 0.17836323E+004
 0.17229632E+004
 0.16486318E+004
 0.15603570E+004
 0.14511784E+004
 0.13108997E+004
 0.11270025E+004
 0.88814982E+003
 0.59797361E+003
 0.12030913E+004
 0.16282673E+004
 0.17958927E+004
 0.18431321E+004
 0.18261547E+004
 0.17844569E+004
 0.17248922E+004
 0.16518213E+004
 0.15643758E+004
 0.14552718E+004
 0.13141003E+004
 0.11283973E+004
 0.88766510E+003
 0.59694327E+003
 0.12125482E+004
 0.16333699E+004
 0.17973190E+004
 0.18434375E+004
 0.18260600E+004
 0.17867486E+004
 0.17298404E+004
 0.16600779E+004
 0.15755646E+004
 0.14685560E+004
 0.13281644E+004
 0.11412611E+004
 0.89698377E+003
 0.60141378E+003
 0.12498746E+004
 0.16615644E+004
 0.18068614E+004
 0.18448837E+004
 0.18271003E+004
 0.17913850E+004
 0.17393285E+004
 0.16759046E+004
 0.15982104E+004
 0.14985457E+004
 0.13661143E+004
 0.11872975E+004
 0.94828481E+003
 0.64426939E+003
 0.18480159E+004
 0.18480154E+004
 0.18480145E+004
 0.18480134E+004
 0.18480120E+004
 0.18480104E+004
 0.18480085E+004
 0.18480065E+004
 0.18480043E+004
 0.18480021E+004
 0.18480000E+004
 0.18479981E+004
 0.18479967E+004
 0.18479957E+004
 0.18480148E+004
 0.18480137E+004
 0.18480119E+004
 0.18480095E+004
 0.18480065E+004
 0.18480029E+004
 0.18479988E+004
 0.18479942E+004
 0.18479894E+004
 0.18479845E+004
 0.18479797E+004
 0.18479754E+004
 0.18479720E+004
 0.18479697E+004
 0.18480131E+004
 0.18480106E+004
 0.18480064E+004
 0.18480006E+004
 0.18479934E+004
 0.18479848E+004
 0.18479751E+004
 0.18479642E+004
 0.18479527E+004
 0.18479409E+004
 0.18479295E+004
 0.18479192E+004
 0.18479108E+004
 0.18479052E+004
 0.18480127E+004
 0.18480067E+004
 0.18479969E+004
 0.18479835E+004
 0.18479666E+004
 0.18479466E+004
 0.18479237E+004
 0.18478984E+004
 0.18478713E+004
 0.18478435E+004
 0.18478164E+004
 0.18477918E+004
 0.18477717E+004
 0.18477584E+004
 0.18480204E+004
 0.18480058E+004
 0.18479821E+004
 0.18479496E+004
 0.18479090E+004
 0.18478606E+004
 0.18478050E+004
 0.18477432E+004
 0.18476767E+004
 0.18476079E+004
 0.18475406E+004
 0.18474793E+004
 0.18474292E+004
 0.18473957E+004
 0.18480574E+004
 0.18480200E+004
 0.18479592E+004
 0.18478764E+004
 0.18477727E+004
 0.18476493E+004
 0.18475073E+004
 0.18473485E+004
 0.18471766E+004
 0.18469978E+004
 0.18468216E+004
 0.18466605E+004
 0.18465290E+004
 0.18464413E+004
 0.18481771E+004
 0.18480868E+004
 0.18479405E+004
 0.18477426E+004
 0.18474966E+004
 0.18472049E+004
 0.18468695E+004
 0.18464936E+004
 0.18460844E+004
 0.18456557E+004
 0.18452298E+004
 0.18448380E+004
 0.18445174E+004
 0.18443054E+004
 0.18485259E+004
 0.18483172E+004
 0.18479809E+004
 0.18475293E+004
 0.18469728E+004
 0.18463176E+004
 0.18455665E+004
 0.18447242E+004
 0.18438033E+004
 0.18428325E+004
 0.18418619E+004
 0.18409651E+004
 0.18402328E+004
 0.18397538E+004
 0.18494603E+004
 0.18489995E+004
 0.18482567E+004
 0.18472654E+004
 0.18460536E+004
 0.18446357E+004
 0.18430166E+004
 0.18412007E+004
 0.18392083E+004
 0.18370953E+004
 0.18349696E+004
 0.18329993E+004
 0.18313896E+004
 0.18303404E+004
 0.18517808E+004
 0.18507954E+004
 0.18492211E+004
 0.18471338E+004
 0.18445946E+004
 0.18416387E+004
 0.18382692E+004
 0.18344799E+004
 0.18302989E+004
 0.18258356E+004
 0.18213155E+004
 0.18170993E+004
 0.18136523E+004
 0.18114089E+004
 0.18569603E+004
 0.18549859E+004
 0.18518268E+004
 0.18476333E+004
 0.18425698E+004
 0.18366941E+004
 0.18299710E+004
 0.18223503E+004
 0.18138419E+004
 0.18046246E+004
 0.17951592E+004
 0.17862170E+004
 0.17787806E+004
 0.17739163E+004
 0.18661467E+004
 0.18627025E+004
 0.18570090E+004
 0.18494505E+004
 0.18401874E+004
 0.18292948E+004
 0.18166991E+004
 0.18022042E+004
 0.17855819E+004
 0.17669143E+004
 0.17470025E+004
 0.17276910E+004
 0.17115621E+004
 0.17006922E+004
 0.18647993E+004
 0.18621535E+004
 0.18588782E+004
 0.18515719E+004
 0.18378348E+004
 0.18195829E+004
 0.17979956E+004
 0.17726799E+004
 0.17426635E+004
 0.17070376E+004
 0.16659058E+004
 0.16218940E+004
 0.15819743E+004
 0.15565668E+004
 0.17687138E+004
 0.18269837E+004
 0.18500769E+004
 0.18485418E+004
 0.18348150E+004
 0.18087553E+004
 0.17757033E+004
 0.17364046E+004
 0.16885741E+004
 0.16288994E+004
 0.15540109E+004
 0.14623886E+004
 0.13581879E+004
 0.12591230E+004
