$MeshFormat
2.2 0 8
$EndMeshFormat
$PhysicalNames
4
2 1 "Left"
2 2 "Right"
2 3 "Wall"
3 4 "Fluid"
$EndPhysicalNames
$Nodes
64
1 -0.5 -0.5 -0.5
2 0.5 -0.5 -0.5
3 0.5 0.5 -0.5
4 -0.5 0.5 -0.5
5 -0.5 -0.5 0.5
6 0.5 -0.5 0.5
7 0.5 0.5 0.5
8 -0.5 0.5 0.5
9 -0.1666666666675909 -0.5 -0.5
10 0.1666666666657427 -0.5 -0.5
11 0.5 -0.1666666666675909 -0.5
12 0.5 0.1666666666657427 -0.5
13 0.1666666666675909 0.5 -0.5
14 -0.1666666666657427 0.5 -0.5
15 -0.5 0.1666666666675909 -0.5
16 -0.5 -0.1666666666657427 -0.5
17 -0.1666666666675909 -0.5 0.5
18 0.1666666666657427 -0.5 0.5
19 0.5 -0.1666666666675909 0.5
20 0.5 0.1666666666657427 0.5
21 0.1666666666675909 0.5 0.5
22 -0.1666666666657427 0.5 0.5
23 -0.5 0.1666666666675909 0.5
24 -0.5 -0.1666666666657427 0.5
25 -0.5 -0.5 -0.1666666666675909
26 -0.5 -0.5 0.1666666666657427
27 0.5 -0.5 -0.1666666666675909
28 0.5 -0.5 0.1666666666657427
29 0.5 0.5 -0.1666666666675909
30 0.5 0.5 0.1666666666657427
31 -0.5 0.5 -0.1666666666675909
32 -0.5 0.5 0.1666666666657427
33 -0.1666666666669748 -0.1666666666663588 -0.5
34 -0.1666666666663588 0.1666666666669748 -0.5
35 0.1666666666663588 -0.1666666666669748 -0.5
36 0.1666666666669748 0.1666666666663588 -0.5
37 -0.1666666666669748 -0.1666666666663588 0.5
38 -0.1666666666663588 0.1666666666669748 0.5
39 0.1666666666663588 -0.1666666666669748 0.5
40 0.1666666666669748 0.1666666666663588 0.5
41 -0.1666666666675909 -0.5 -0.1666666666675909
42 -0.1666666666675909 -0.5 0.1666666666657427
43 0.1666666666657427 -0.5 -0.1666666666675909
44 0.1666666666657426 -0.5 0.1666666666657427
45 0.5 -0.1666666666675909 -0.1666666666675909
46 0.5 -0.1666666666675909 0.1666666666657427
47 0.5 0.1666666666657427 -0.1666666666675909
48 0.5 0.1666666666657426 0.1666666666657427
49 0.1666666666675909 0.5 -0.1666666666675909
50 0.1666666666675909 0.5 0.1666666666657427
51 -0.1666666666657427 0.5 -0.1666666666675909
52 -0.1666666666657426 0.5 0.1666666666657427
53 -0.5 0.1666666666675909 -0.1666666666675909
54 -0.5 0.1666666666675909 0.1666666666657427
55 -0.5 -0.1666666666657427 -0.1666666666675909
56 -0.5 -0.1666666666657426 0.1666666666657427
57 -0.1666666666669749 -0.1666666666663588 -0.1666666666675909
58 -0.1666666666669748 -0.1666666666663588 0.1666666666657427
59 -0.1666666666663588 0.1666666666669748 -0.1666666666675909
60 -0.1666666666663587 0.1666666666669749 0.1666666666657427
61 0.1666666666663588 -0.1666666666669748 -0.1666666666675908
62 0.1666666666663588 -0.1666666666669748 0.1666666666657427
63 0.1666666666669748 0.1666666666663588 -0.1666666666675909
64 0.1666666666669748 0.1666666666663588 0.1666666666657427
$EndNodes
$Elements
81
1 3 2 3 1 1 9 33 16
2 3 2 3 1 16 33 34 15
3 3 2 3 1 15 34 14 4
4 3 2 3 1 9 10 35 33
5 3 2 3 1 33 35 36 34
6 3 2 3 1 34 36 13 14
7 3 2 3 1 10 2 11 35
8 3 2 3 1 35 11 12 36
9 3 2 3 1 36 12 3 13
10 3 2 3 2 5 24 37 17
11 3 2 3 2 24 23 38 37
12 3 2 3 2 23 8 22 38
13 3 2 3 2 17 37 39 18
14 3 2 3 2 37 38 40 39
15 3 2 3 2 38 22 21 40
16 3 2 3 2 18 39 19 6
17 3 2 3 2 39 40 20 19
18 3 2 3 2 40 21 7 20
19 3 2 3 3 1 25 41 9
20 3 2 3 3 25 26 42 41
21 3 2 3 3 26 5 17 42
22 3 2 3 3 9 41 43 10
23 3 2 3 3 41 42 44 43
24 3 2 3 3 42 17 18 44
25 3 2 3 3 10 43 27 2
26 3 2 3 3 43 44 28 27
27 3 2 3 3 44 18 6 28
28 3 2 2 4 2 27 45 11
29 3 2 2 4 27 28 46 45
30 3 2 2 4 28 6 19 46
31 3 2 2 4 11 45 47 12
32 3 2 2 4 45 46 48 47
33 3 2 2 4 46 19 20 48
34 3 2 2 4 12 47 29 3
35 3 2 2 4 47 48 30 29
36 3 2 2 4 48 20 7 30
37 3 2 3 5 3 29 49 13
38 3 2 3 5 29 30 50 49
39 3 2 3 5 30 7 21 50
40 3 2 3 5 13 49 51 14
41 3 2 3 5 49 50 52 51
42 3 2 3 5 50 21 22 52
43 3 2 3 5 14 51 31 4
44 3 2 3 5 51 52 32 31
45 3 2 3 5 52 22 8 32
46 3 2 1 6 4 31 53 15
47 3 2 1 6 31 32 54 53
48 3 2 1 6 32 8 23 54
49 3 2 1 6 15 53 55 16
50 3 2 1 6 53 54 56 55
51 3 2 1 6 54 23 24 56
52 3 2 1 6 16 55 25 1
53 3 2 1 6 55 56 26 25
54 3 2 1 6 56 24 5 26
55 5 2 4 1 1 9 33 16 25 41 57 55
56 5 2 4 1 25 41 57 55 26 42 58 56
57 5 2 4 1 26 42 58 56 5 17 37 24
58 5 2 4 1 16 33 34 15 55 57 59 53
59 5 2 4 1 55 57 59 53 56 58 60 54
60 5 2 4 1 56 58 60 54 24 37 38 23
61 5 2 4 1 15 34 14 4 53 59 51 31
62 5 2 4 1 53 59 51 31 54 60 52 32
63 5 2 4 1 54 60 52 32 23 38 22 8
64 5 2 4 1 9 10 35 33 41 43 61 57
65 5 2 4 1 41 43 61 57 42 44 62 58
66 5 2 4 1 42 44 62 58 17 18 39 37
67 5 2 4 1 33 35 36 34 57 61 63 59
68 5 2 4 1 57 61 63 59 58 62 64 60
69 5 2 4 1 58 62 64 60 37 39 40 38
70 5 2 4 1 34 36 13 14 59 63 49 51
71 5 2 4 1 59 63 49 51 60 64 50 52
72 5 2 4 1 60 64 50 52 38 40 21 22
73 5 2 4 1 10 2 11 35 43 27 45 61
74 5 2 4 1 43 27 45 61 44 28 46 62
75 5 2 4 1 44 28 46 62 18 6 19 39
76 5 2 4 1 35 11 12 36 61 45 47 63
77 5 2 4 1 61 45 47 63 62 46 48 64
78 5 2 4 1 62 46 48 64 39 19 20 40
79 5 2 4 1 36 12 3 13 63 47 29 49
80 5 2 4 1 63 47 29 49 64 48 30 50
81 5 2 4 1 64 48 30 50 40 20 7 21
$EndElements
