GiD Post Results File 1.0
 
Result VELOC ALYA  0.30171374E+03 Vector OnNodes
ComponentNames VELOC_X,VELOC_Y,VELOC_Z
Values
          1  0.00000000E+000  0.00000000E+000
          2  0.00000000E+000  0.00000000E+000
          3  0.00000000E+000  0.00000000E+000
          4 -0.77756127E-002  0.10648450E-001
          5  0.00000000E+000  0.00000000E+000
          6  0.00000000E+000  0.00000000E+000
          7 -0.45102557E-001  0.25323777E-001
          8 -0.23896434E-001  0.61500844E-001
          9 -0.97126374E-001  0.73416778E-001
         10  0.00000000E+000  0.00000000E+000
         11  0.00000000E+000  0.00000000E+000
         12 -0.10142487E+000  0.28134452E-001
         13 -0.45327278E-001  0.10321957E+000
         14 -0.14003281E+000  0.69561273E-001
         15 -0.84044266E-001  0.11987517E+000
         16  0.00000000E+000  0.00000000E+000
         17  0.00000000E+000  0.00000000E+000
         18 -0.14448687E+000  0.23187128E-001
         19  0.66854293E-002  0.18995147E+000
         20 -0.10949144E+000  0.92055081E-001
         21 -0.16647796E+000  0.43366347E-001
         22 -0.70072635E-001  0.14311589E+000
         23  0.00000000E+000  0.00000000E+000
         24  0.00000000E+000  0.00000000E+000
         25 -0.10946976E+000  0.50801984E-001
         26 -0.57140599E-001  0.90348063E-001
         27 -0.16688533E+000  0.54333942E-002
         28 -0.67033656E-001  0.17596407E+000
         29 -0.17150490E+000  0.24921187E-002
         30 -0.28768378E-001  0.13035289E+000
         31 -0.56550006E-001  0.59576439E-001
         32 -0.11198776E+000  0.13435410E-001
         33 -0.25136439E-001  0.11318685E+000
         34  0.00000000E+000  0.00000000E+000
         35  0.00000000E+000  0.00000000E+000
         36 -0.15295122E+000 -0.19565772E-001
         37  0.98982441E-001  0.22242571E+000
         38 -0.16981501E+000 -0.50024574E-001
         39 -0.62602029E-002  0.21482218E+000
         40 -0.48994445E-001  0.13673041E-001
         41 -0.27300292E-001  0.41062947E-001
         42 -0.12015863E+000 -0.35487527E-001
         43 -0.14631025E-001  0.73331928E-001
         44  0.00000000E+000  0.00000000E+000
         45  0.00000000E+000  0.00000000E+000
         46 -0.99612657E-001 -0.30959241E-001
         47 -0.16849285E+000  0.24700897E+000
         48 -0.71881636E-002  0.36442563E-002
         49 -0.57672144E-001 -0.15763750E-001
         50 -0.16188566E-001  0.59385946E-001
         51 -0.14875566E+000 -0.10248926E+000
         52 -0.64078631E-001  0.98644338E-001
         53 -0.12783748E+000 -0.10642233E+000
         54 -0.13307039E-001  0.11505742E+000
         55  0.18109653E-002 -0.74211474E-002
         56 -0.13836251E-001 -0.19039892E-001
         57  0.00000000E+000  0.00000000E+000
         58  0.00000000E+000  0.00000000E+000
         59 -0.35740656E-001 -0.20870535E-001
         60 -0.78792060E-001 -0.87028475E-001
         61  0.25780036E+000  0.14752207E+000
         62 -0.28351092E-001  0.30097173E-001
         63 -0.86577556E-001 -0.96415646E-001
         64  0.13691317E+000  0.24076759E+000
         65  0.48129661E-002 -0.31503979E-001
         66 -0.11077832E+000 -0.16831802E+000
         67  0.68019149E-001  0.84793359E-001
         68  0.59363187E-004 -0.33176775E-001
         69 -0.83021740E-002 -0.27219074E-002
         70 -0.98258490E-001 -0.20306418E+000
         71  0.24339592E-001  0.52838283E-001
         72  0.00000000E+000  0.00000000E+000
         73  0.00000000E+000  0.00000000E+000
         74  0.29719451E-003 -0.41897692E-003
         75 -0.54021202E+000  0.27627971E+000
         76 -0.12213998E-001 -0.26299255E-001
         77  0.52461482E-001 -0.78253236E-002
         78 -0.67646879E-001 -0.71587091E-001
         79 -0.19153483E+000  0.17118715E+000
         80 -0.76988173E-001 -0.17884426E+000
         81  0.56563843E-001  0.28192636E-001
         82 -0.35561002E-001 -0.97933098E-001
         83 -0.10687843E+000  0.97886878E-001
         84 -0.48570820E-001 -0.19995742E+000
         85 -0.78811279E-001 -0.58764387E-002
         86 -0.25795262E-002 -0.69789188E-001
         87  0.00000000E+000  0.00000000E+000
         88  0.00000000E+000  0.00000000E+000
         89 -0.69921112E-001 -0.12409533E+000
         90 -0.34699276E-001  0.68876815E-002
         91  0.00000000E+000  0.00000000E+000
         92  0.10000000E+001  0.00000000E+000
         93  0.10000000E+001  0.00000000E+000
         94  0.00000000E+000  0.00000000E+000
         95 -0.57623494E-001 -0.28528028E+000
         96  0.11055734E+000  0.29373850E-001
         97  0.00000000E+000  0.00000000E+000
         98  0.10000000E+001  0.00000000E+000
         99 -0.65427005E-001 -0.12653783E-001
        100 -0.13833841E+000 -0.13649444E+000
        101  0.00000000E+000  0.00000000E+000
        102  0.10000000E+001  0.00000000E+000
        103 -0.67757658E-001 -0.36464097E+000
        104 -0.75615155E-001  0.14186527E-002
        105  0.00000000E+000  0.00000000E+000
        106  0.10000000E+001  0.00000000E+000
        107 -0.13983479E+000  0.71168016E-001
        108 -0.46312165E-001 -0.41745273E+000
        109  0.24603948E+000 -0.29038634E-001
        110  0.10000000E+001  0.00000000E+000
        111  0.00000000E+000  0.00000000E+000
        112 -0.18145152E-001 -0.40197981E+000
        113 -0.16222632E+000 -0.19365014E-001
        114  0.00000000E+000  0.00000000E+000
        115  0.10000000E+001  0.00000000E+000
        116  0.40710111E+000 -0.38108642E+000
        117  0.10000000E+001  0.00000000E+000
        118  0.00000000E+000  0.00000000E+000
        119  0.10000000E+001  0.00000000E+000
        120  0.00000000E+000  0.00000000E+000
        121  0.00000000E+000  0.00000000E+000
End values

Result PRESS ALYA  0.30171374E+03 Scalar OnNodes
ComponentNames PRESS
Values
          1 -0.16485222E+000
          2 -0.16420911E+000
          3 -0.16547905E+000
          4 -0.16479424E+000
          5 -0.16295515E+000
          6 -0.16682873E+000
          7 -0.16573525E+000
          8 -0.16502635E+000
          9 -0.16731386E+000
         10 -0.16860155E+000
         11 -0.16681392E+000
         12 -0.16777850E+000
         13 -0.16854158E+000
         14 -0.17105006E+000
         15 -0.17172333E+000
         16 -0.16993944E+000
         17 -0.16901045E+000
         18 -0.16952940E+000
         19 -0.17273411E+000
         20 -0.17639963E+000
         21 -0.17438880E+000
         22 -0.17651677E+000
         23 -0.16721238E+000
         24 -0.17842195E+000
         25 -0.18042413E+000
         26 -0.18140464E+000
         27 -0.16919151E+000
         28 -0.17904764E+000
         29 -0.17564148E+000
         30 -0.18215611E+000
         31 -0.18405234E+000
         32 -0.18227901E+000
         33 -0.18403122E+000
         34 -0.16441685E+000
         35 -0.18492443E+000
         36 -0.16687705E+000
         37 -0.18453746E+000
         38 -0.17365358E+000
         39 -0.18353161E+000
         40 -0.18550473E+000
         41 -0.18589791E+000
         42 -0.18181886E+000
         43 -0.18568464E+000
         44 -0.16265464E+000
         45 -0.18513427E+000
         46 -0.16424276E+000
         47 -0.18712192E+000
         48 -0.18575531E+000
         49 -0.18621700E+000
         50 -0.18611055E+000
         51 -0.16874724E+000
         52 -0.18845240E+000
         53 -0.17691934E+000
         54 -0.18577120E+000
         55 -0.18686835E+000
         56 -0.18552285E+000
         57 -0.16270302E+000
         58 -0.20024216E+000
         59 -0.16334862E+000
         60 -0.18338459E+000
         61 -0.19820666E+000
         62 -0.18812975E+000
         63 -0.16462365E+000
         64 -0.18661870E+000
         65 -0.18677961E+000
         66 -0.17018023E+000
         67 -0.18262624E+000
         68 -0.18578388E+000
         69 -0.18643486E+000
         70 -0.17858608E+000
         71 -0.18711419E+000
         72 -0.19926168E+000
         73 -0.16327805E+000
         74 -0.16354418E+000
         75 -0.18698992E+000
         76 -0.16382564E+000
         77 -0.18844204E+000
         78 -0.18858492E+000
         79 -0.18448362E+000
         80 -0.18616749E+000
         81 -0.18530587E+000
         82 -0.16680574E+000
         83 -0.17729648E+000
         84 -0.17412537E+000
         85 -0.18692108E+000
         86 -0.19337579E+000
         87 -0.16360812E+000
         88 -0.26029275E+000
         89 -0.19430153E+000
         90 -0.19247571E+000
         91 -0.16393818E+000
         92 -0.19969545E+000
         93 -0.17357672E+000
         94 -0.16500930E+000
         95 -0.18314844E+000
         96 -0.18723522E+000
         97 -0.16866348E+000
         98 -0.16546954E+000
         99 -0.20446995E+000
        100 -0.19068697E+000
        101 -0.17590031E+000
        102 -0.17869297E+000
        103 -0.18908109E+000
        104 -0.19240296E+000
        105 -0.18478136E+000
        106 -0.18844567E+000
        107 -0.20452789E+000
        108 -0.18767718E+000
        109 -0.19084627E+000
        110 -0.18381568E+000
        111 -0.18817572E+000
        112 -0.16416742E+000
        113 -0.18257908E+000
        114 -0.17730187E+000
        115 -0.19133347E+000
        116 -0.12688189E+000
        117 -0.15323990E+000
        118 -0.13876336E+000
        119 -0.10741029E+000
        120 -0.59371217E-001
        121  0.83390752E-001
End values

