# ALYA Lagrangian postprocess  
#
# HEADER
# T , Column :   1
# ILAGR , Column :   2
# ITYPE , Column :   3
# EXIST , Column :   4
# COORX , Column :   5
# COORY , Column :   6
# COORZ , Column :   7
# VELOX , Column :   8
# VELOY , Column :   9
# VELOZ , Column :  10
# DTK , Column :  11
# CD , Column :  12
# TEMPK , Column :  13
# MASSK , Column :  14
# DIAMK , Column :  15
# TEMPF , Column :  16
# YVAPF , Column :  17
#               T            ILAGR            ITYPE            EXIST            COORX            COORY            COORZ            VELOX            VELOY            VELOZ              DTK               CD            TEMPK            MASSK            DIAMK            TEMPF            YVAPF            
  0.00000000E+000                1                1               -5  0.00000000E+000  0.00000000E+000  0.00000000E+000  0.00000000E+000  0.00000000E+000  0.00000000E+000  1.00000000E-002  0.00000000E+000  2.88000000E+002  5.21033142E-010  1.00000000E-004  0.00000000E+000  0.00000000E+000
  1.00000000E-002                1                1               -1  0.00000000E+000 -4.13732554E-004  0.00000000E+000  0.00000000E+000 -8.27465107E-002  0.00000000E+000  1.00000000E-002  5.27982166E+001  2.94053832E+002  5.24748827E-010  1.00237150E-004  3.23150000E+002  3.55187508E-002
  2.00000000E-002                1                1               -1  0.00000000E+000 -1.52305581E-003  0.00000000E+000  0.00000000E+000 -1.39118140E-001  0.00000000E+000  1.00000000E-002  3.21634950E+001  2.99171289E+002  5.27623721E-010  1.00419870E-004  3.23150000E+002  3.55187508E-002
  3.00000000E-002                1                1               -1  0.00000000E+000 -3.10320041E-003  0.00000000E+000  0.00000000E+000 -1.76910779E-001  0.00000000E+000  1.00000000E-002  2.56352888E+001  3.02726596E+002  5.29210437E-010  1.00520433E-004  3.23150000E+002  3.55187508E-002
  4.00000000E-002                1                1               -1  0.00000000E+000 -4.99794158E-003  0.00000000E+000  0.00000000E+000 -2.02037456E-001  0.00000000E+000  1.00000000E-002  2.26371265E+001  3.05033283E+002  5.29747695E-010  1.00554438E-004  3.23150000E+002  3.55187508E-002
  5.00000000E-002                1                1               -1  0.00000000E+000 -7.10126385E-003  0.00000000E+000  0.00000000E+000 -2.18627000E-001  0.00000000E+000  1.00000000E-002  2.10369850E+001  3.06472508E+002  5.29548404E-010  1.00541827E-004  3.23150000E+002  3.55187508E-002
  6.00000000E-002                1                1               -1  0.00000000E+000 -9.34188291E-003  0.00000000E+000  0.00000000E+000 -2.29496812E-001  0.00000000E+000  1.00000000E-002  2.01187342E+001  3.07350355E+002  5.28870470E-010  1.00498903E-004  3.23150000E+002  3.55187508E-002
  7.00000000E-002                1                1               -1  0.00000000E+000 -1.16721202E-002  0.00000000E+000  0.00000000E+000 -2.36550653E-001  0.00000000E+000  1.00000000E-002  1.95735820E+001  3.07878658E+002  5.27894346E-010  1.00437036E-004  3.23150000E+002  3.55187508E-002
  8.00000000E-002                1                1               -1  0.00000000E+000 -1.40602120E-002  0.00000000E+000  0.00000000E+000 -2.41067707E-001  0.00000000E+000  1.00000000E-002  1.92470543E+001  3.08194013E+002  5.26736957E-010  1.00363581E-004  3.23150000E+002  3.55187508E-002
  9.00000000E-002                1                1               -1  0.00000000E+000 -1.64850691E-002  0.00000000E+000  0.00000000E+000 -2.43903705E-001  0.00000000E+000  1.00000000E-002  1.90541771E+001  3.08381286E+002  5.25471110E-010  1.00283119E-004  3.23150000E+002  3.55187508E-002
  1.00000000E-001                1                1               -1  0.00000000E+000 -1.89327320E-002  0.00000000E+000  0.00000000E+000 -2.45628875E-001  0.00000000E+000  1.00000000E-002  1.89452078E+001  3.08492122E+002  5.24141163E-010  1.00198443E-004  3.23150000E+002  3.55187508E-002
  1.10000000E-001                1                1               -1  0.00000000E+000 -2.13939858E-002  0.00000000E+000  0.00000000E+000 -2.46621876E-001  0.00000000E+000  1.00000000E-002  1.88898136E+001  3.08557565E+002  5.22773803E-010  1.00111236E-004  3.23150000E+002  3.55187508E-002
  1.20000000E-001                1                1               -1  0.00000000E+000 -2.38627620E-002  0.00000000E+000  0.00000000E+000 -2.47133375E-001  0.00000000E+000  1.00000000E-002  1.88689988E+001  3.08596137E+002  5.21384966E-010  1.00022503E-004  3.23150000E+002  3.55187508E-002
  1.30000000E-001                1                1               -1  0.00000000E+000 -2.63350732E-002  0.00000000E+000  0.00000000E+000 -2.47328858E-001  0.00000000E+000  1.00000000E-002  1.88706623E+001  3.08618839E+002  5.19984126E-010  9.99328436E-005  3.23150000E+002  3.55187508E-002
  1.40000000E-001                1                1               -1  0.00000000E+000 -2.88083040E-002  0.00000000E+000  0.00000000E+000 -2.47317311E-001  0.00000000E+000  1.00000000E-002  1.88870114E+001  3.08632180E+002  5.18576897E-010  9.98426130E-005  3.23150000E+002  3.55187508E-002
  1.50000000E-001                1                1               -1  0.00000000E+000 -3.12807424E-002  0.00000000E+000  0.00000000E+000 -2.47170356E-001  0.00000000E+000  1.00000000E-002  1.89129949E+001  3.08640009E+002  5.17166602E-010  9.97520220E-005  3.23150000E+002  3.55187508E-002
  1.60000000E-001                1                1               -1  0.00000000E+000 -3.37512690E-002  0.00000000E+000  0.00000000E+000 -2.46934969E-001  0.00000000E+000  1.00000000E-002  1.89453258E+001  3.08644594E+002  5.15755207E-010  9.96611951E-005  3.23150000E+002  3.55187508E-002
  1.70000000E-001                1                1               -1  0.00000000E+000 -3.62191534E-002  0.00000000E+000  0.00000000E+000 -2.46641909E-001  0.00000000E+000  1.00000000E-002  1.89818610E+001  3.08647270E+002  5.14343870E-010  9.95702062E-005  3.23150000E+002  3.55187508E-002
  1.80000000E-001                1                1               -1  0.00000000E+000 -3.86839193E-002  0.00000000E+000  0.00000000E+000 -2.46311281E-001  0.00000000E+000  1.00000000E-002  1.90212017E+001  3.08648826E+002  5.12933278E-010  9.94790988E-005  3.23150000E+002  3.55187508E-002
  1.90000000E-001                1                1               -1  0.00000000E+000 -4.11452568E-002  0.00000000E+000  0.00000000E+000 -2.45956210E-001  0.00000000E+000  1.00000000E-002  1.90624352E+001  3.08649723E+002  5.11523834E-010  9.93878986E-005  3.23150000E+002  3.55187508E-002
  2.00000000E-001                1                1               -1  0.00000000E+000 -4.36029641E-002  0.00000000E+000  0.00000000E+000 -2.45585249E-001  0.00000000E+000  1.00000000E-002  1.91049660E+001  3.08650234E+002  5.10115777E-010  9.92966208E-005  3.23150000E+002  3.55187508E-002
  2.10000000E-001                1                1               -1  0.00000000E+000 -4.60569102E-002  0.00000000E+000  0.00000000E+000 -2.45203969E-001  0.00000000E+000  1.00000000E-002  1.91484059E+001  3.08650518E+002  5.08709248E-010  9.92052741E-005  3.23150000E+002  3.55187508E-002
  2.20000000E-001                1                1               -1  0.00000000E+000 -4.85070100E-002  0.00000000E+000  0.00000000E+000 -2.44815990E-001  0.00000000E+000  1.00000000E-002  1.91925023E+001  3.08650669E+002  5.07304331E-010  9.91138639E-005  3.23150000E+002  3.55187508E-002
  2.30000000E-001                1                1               -1  0.00000000E+000 -5.09532082E-002  0.00000000E+000  0.00000000E+000 -2.44423663E-001  0.00000000E+000  1.00000000E-002  1.92370911E+001  3.08650742E+002  5.05901076E-010  9.90223931E-005  3.23150000E+002  3.55187508E-002
  2.40000000E-001                1                1               -1  0.00000000E+000 -5.33954691E-002  0.00000000E+000  0.00000000E+000 -2.44028514E-001  0.00000000E+000  1.00000000E-002  1.92820656E+001  3.08650769E+002  5.04499510E-010  9.89308635E-005  3.23150000E+002  3.55187508E-002
  2.50000000E-001                1                1               -1  0.00000000E+000 -5.58337693E-002  0.00000000E+000  0.00000000E+000 -2.43631531E-001  0.00000000E+000  1.00000000E-002  1.93273571E+001  3.08650770E+002  5.03099651E-010  9.88392761E-005  3.23150000E+002  3.55187508E-002
  2.60000000E-001                1                1               -1  0.00000000E+000 -5.82680938E-002  0.00000000E+000  0.00000000E+000 -2.43233354E-001  0.00000000E+000  1.00000000E-002  1.93729213E+001  3.08650755E+002  5.01701510E-010  9.87476313E-005  3.23150000E+002  3.55187508E-002
  2.70000000E-001                1                1               -1  0.00000000E+000 -6.06984325E-002  0.00000000E+000  0.00000000E+000 -2.42834398E-001  0.00000000E+000  1.00000000E-002  1.94187296E+001  3.08650730E+002  5.00305093E-010  9.86559293E-005  3.23150000E+002  3.55187508E-002
  2.80000000E-001                1                1               -1  0.00000000E+000 -6.31247791E-002  0.00000000E+000  0.00000000E+000 -2.42434928E-001  0.00000000E+000  1.00000000E-002  1.94647642E+001  3.08650701E+002  4.98910404E-010  9.85641703E-005  3.23150000E+002  3.55187508E-002
  2.90000000E-001                1                1               -1  0.00000000E+000 -6.55471294E-002  0.00000000E+000  0.00000000E+000 -2.42035119E-001  0.00000000E+000  1.00000000E-002  1.95110137E+001  3.08650668E+002  4.97517444E-010  9.84723543E-005  3.23150000E+002  3.55187508E-002
  3.00000000E-001                1                1               -1  0.00000000E+000 -6.79654804E-002  0.00000000E+000  0.00000000E+000 -2.41635081E-001  0.00000000E+000  1.00000000E-002  1.95574713E+001  3.08650633E+002  4.96126216E-010  9.83804812E-005  3.23150000E+002  3.55187508E-002
