{
    "authors": [
        "alfonso.santiago@bsc.es",
        "beatriz.eguzkitza@bsc.es"
    ],
    "comparisons": [
        {
            "file": "Y_pump_hvad.ensi.PRESS-000002",
            "method": "absolute",
            "tolerance": "1.0e-12"
        },
        {
            "file": "Y_pump_hvad.ensi.VELOC-000002",
            "method": "absolute",
            "tolerance": "1.0e-12"
        },
        {
            "file": "Y_pump_hvad-boundary.nsi.set",
            "method": "absolute",
            "tolerance": "1.0e-12"
        }
    ],
    "description": "Test pump boundary condition, hvad version. \n",
    "exclude": [
        "special"
    ],
    "executions": [
        {
            "mpi": 3,
            "openmp": 0
        }
    ],
    "modules": [
        "nastin"
    ],
    "name": "Y_pump_hvad",
    "timeout": "00:02:00",
    "postprocess": "alya2pos"
}
