 0.31329142E+000
 0.31277509E+000
 0.31414714E+000
 0.31453915E+000
 0.31290225E+000
 0.31349625E+000
 0.30922441E+000
 0.31176528E+000
 0.31285474E+000
 0.32972602E+000
 0.33294241E+000
 0.32535577E+000
 0.32634268E+000
 0.32941364E+000
 0.32679540E+000
 0.33201232E+000
 0.33530888E+000
 0.31330725E+000
 0.30557447E+000
 0.28947721E+000
 0.27081362E+000
 0.26214147E+000
 0.26569655E+000
 0.25943651E+000
 0.27551222E+000
 0.33312370E+000
 0.31335797E+000
 0.30711036E+000
 0.31625620E+000
 0.30897912E+000
 0.29429483E+000
 0.30161948E+000
 0.30763645E+000
 0.28014186E+000
 0.32287089E+000
 0.31618389E+000
 0.28774518E+000
 0.29843404E+000
 0.31985398E+000
 0.30930535E+000
 0.31261488E+000
 0.32307678E+000
 0.27678641E+000
 0.30765981E+000
 0.31870537E+000
 0.29699798E+000
 0.30018237E+000
 0.30294950E+000
 0.29689340E+000
 0.30090928E+000
 0.31446919E+000
 0.27863856E+000
 0.31621433E+000
 0.31641772E+000
 0.31648619E+000
 0.29445134E+000
 0.27078779E+000
 0.25948385E+000
 0.25976890E+000
 0.28834894E+000
 0.29175448E+000
 0.32975423E+000
 0.31405495E+000
 0.33007018E+000
 0.33132400E+000
 0.32594474E+000
 0.32487282E+000
 0.32763180E+000
 0.33453229E+000
 0.33269204E+000
 0.33331910E+000
 0.31266958E+000
 0.31068041E+000
 0.31212958E+000
 0.31426321E+000
 0.31441780E+000
 0.31380820E+000
 0.31158005E+000
 0.31154073E+000
 0.31106914E+000
 0.31245470E+000
 0.31910624E+000
 0.31910624E+000
 0.31910624E+000
 0.31910624E+000
 0.31910624E+000
 0.31910624E+000
 0.31910624E+000
 0.31910625E+000
 0.31910624E+000
 0.31910624E+000
 0.31910624E+000
 0.31910624E+000
 0.31910625E+000
 0.31910624E+000
 0.31910624E+000
 0.31106592E+000
 0.31305556E+000
 0.31253576E+000
 0.31275760E+000
 0.31228825E+000
 0.31231935E+000
 0.31247557E+000
 0.31227029E+000
 0.31266271E+000
 0.31266164E+000
 0.31256539E+000
 0.31274791E+000
 0.31263141E+000
 0.31910624E+000
 0.31214035E+000
 0.31174338E+000
 0.31410436E+000
 0.31473072E+000
 0.31910624E+000
 0.30919606E+000
 0.33070697E+000
 0.31326828E+000
 0.31429779E+000
 0.31910624E+000
 0.30850385E+000
 0.33163789E+000
 0.31323678E+000
 0.31450291E+000
 0.31910624E+000
 0.30780211E+000
 0.33598091E+000
 0.31334602E+000
 0.31443884E+000
 0.31910625E+000
 0.30941659E+000
 0.33326895E+000
 0.31303147E+000
 0.31452942E+000
 0.31910624E+000
 0.30919015E+000
 0.33449805E+000
 0.31293010E+000
 0.31453333E+000
 0.31910625E+000
 0.30844331E+000
 0.32578912E+000
 0.31309895E+000
 0.31453754E+000
 0.31910625E+000
 0.31081768E+000
 0.32773314E+000
 0.31312941E+000
 0.31432859E+000
 0.31910624E+000
 0.31190548E+000
 0.31268938E+000
 0.31419434E+000
 0.31470039E+000
 0.31910624E+000
 0.31107980E+000
 0.31293214E+000
 0.31242084E+000
 0.31255650E+000
 0.31232235E+000
 0.31227456E+000
 0.31239718E+000
 0.31274953E+000
 0.31260708E+000
 0.31262595E+000
 0.31257669E+000
 0.31274957E+000
 0.31262772E+000
 0.31910624E+000
 0.31910624E+000
 0.31910624E+000
 0.31910625E+000
 0.31910625E+000
 0.31910624E+000
 0.31910624E+000
 0.31910624E+000
 0.31910624E+000
 0.31910625E+000
 0.31910625E+000
 0.31910624E+000
 0.31910624E+000
 0.31910624E+000
 0.31829260E+000
 0.31798780E+000
 0.32657344E+000
 0.32463432E+000
 0.31885903E+000
 0.32340659E+000
 0.31918104E+000
 0.32445745E+000
 0.31862970E+000
 0.32509487E+000
 0.31890975E+000
 0.32380275E+000
 0.31667530E+000
 0.32469636E+000
 0.31838877E+000
 0.32957834E+000
 0.31803296E+000
 0.32039351E+000
 0.31322130E+000
 0.31855609E+000
 0.31014006E+000
 0.31072037E+000
 0.31375182E+000
 0.30940259E+000
 0.31158146E+000
 0.32529086E+000
 0.31803549E+000
 0.32188322E+000
 0.31914047E+000
 0.31792900E+000
 0.31861982E+000
 0.32129409E+000
 0.32019163E+000
 0.31449198E+000
 0.32221161E+000
 0.32144540E+000
 0.31608914E+000
 0.31164242E+000
 0.31761110E+000
 0.32222315E+000
 0.31944020E+000
 0.32182550E+000
 0.31433747E+000
 0.31541829E+000
 0.32225843E+000
 0.31892295E+000
 0.31350376E+000
 0.31940114E+000
 0.31966845E+000
 0.31939195E+000
 0.32058179E+000
 0.31450851E+000
 0.31900659E+000
 0.32116035E+000
 0.31228897E+000
 0.31872556E+000
 0.31278503E+000
 0.31067422E+000
 0.30858742E+000
 0.31275391E+000
 0.31641945E+000
 0.32488680E+000
 0.31989219E+000
 0.32585006E+000
 0.32543208E+000
 0.32409251E+000
 0.32360964E+000
 0.32411340E+000
 0.32600277E+000
 0.32640349E+000
 0.32792000E+000
 0.31933015E+000
 0.31831586E+000
 0.31854437E+000
 0.31944723E+000
 0.31973416E+000
 0.31950770E+000
 0.31893318E+000
 0.31849895E+000
 0.31823429E+000
 0.31791130E+000
 0.31910624E+000
 0.31910624E+000
 0.31951774E+000
 0.31910625E+000
 0.31910624E+000
 0.31935838E+000
 0.31910624E+000
 0.31921636E+000
 0.31910624E+000
 0.31930114E+000
 0.31910624E+000
 0.31916441E+000
 0.31910624E+000
 0.31919390E+000
 0.31910625E+000
 0.31921019E+000
 0.31910624E+000
 0.31911632E+000
 0.31910625E+000
 0.31920389E+000
 0.31910624E+000
 0.31923875E+000
 0.31910624E+000
 0.31936496E+000
 0.31910624E+000
 0.31938786E+000
 0.31910624E+000
 0.31941579E+000
 0.31833619E+000
 0.31910624E+000
 0.31797759E+000
 0.31888906E+000
 0.31939947E+000
 0.31720110E+000
 0.31910624E+000
 0.32807221E+000
 0.31891171E+000
 0.31945417E+000
 0.31696778E+000
 0.31910624E+000
 0.32527449E+000
 0.31826829E+000
 0.31957830E+000
 0.31719633E+000
 0.31910624E+000
 0.32700722E+000
 0.31885223E+000
 0.31946358E+000
 0.31795942E+000
 0.31910625E+000
 0.32601098E+000
 0.31875942E+000
 0.31946814E+000
 0.31762325E+000
 0.31910624E+000
 0.32752869E+000
 0.31856189E+000
 0.31951004E+000
 0.31645073E+000
 0.31910624E+000
 0.32347197E+000
 0.31857333E+000
 0.31951849E+000
 0.31788559E+000
 0.31910625E+000
 0.32636429E+000
 0.31871552E+000
 0.31948485E+000
 0.31830674E+000
 0.31910625E+000
 0.31788221E+000
 0.31892625E+000
 0.31938277E+000
 0.31952087E+000
 0.31910624E+000
 0.31932757E+000
 0.31922928E+000
 0.31926684E+000
 0.31921804E+000
 0.31920199E+000
 0.31921288E+000
 0.31926256E+000
 0.31921807E+000
 0.31927267E+000
 0.31936320E+000
 0.31938859E+000
 0.31941185E+000
 0.31910624E+000
 0.31910625E+000
 0.31910625E+000
 0.31910624E+000
 0.31910624E+000
 0.31910624E+000
 0.31910624E+000
 0.31910624E+000
 0.31910625E+000
 0.31910624E+000
 0.31910624E+000
 0.31910625E+000
 0.31910624E+000
 0.31910624E+000
 0.31798124E+000
 0.31798433E+000
 0.32060347E+000
 0.32097212E+000
 0.31825338E+000
 0.32072938E+000
 0.31855461E+000
 0.32109201E+000
 0.31834347E+000
 0.32100903E+000
 0.31874156E+000
 0.31992084E+000
 0.31757396E+000
 0.32135285E+000
 0.31883548E+000
 0.32200246E+000
 0.31838480E+000
 0.31917725E+000
 0.30801055E+000
 0.31369892E+000
 0.30650210E+000
 0.30849976E+000
 0.30949878E+000
 0.30980619E+000
 0.30446895E+000
 0.31829908E+000
 0.31761475E+000
 0.30558462E+000
 0.31316691E+000
 0.30349324E+000
 0.31617391E+000
 0.31525333E+000
 0.30896466E+000
 0.30499192E+000
 0.32248054E+000
 0.31868998E+000
 0.31041459E+000
 0.31371260E+000
 0.30636672E+000
 0.32169503E+000
 0.31829868E+000
 0.30826187E+000
 0.30654668E+000
 0.32127405E+000
 0.31869642E+000
 0.30672316E+000
 0.31288047E+000
 0.30424800E+000
 0.31555595E+000
 0.31475259E+000
 0.30843050E+000
 0.30507131E+000
 0.32151602E+000
 0.31836661E+000
 0.30730016E+000
 0.31330838E+000
 0.30740098E+000
 0.31039957E+000
 0.30938067E+000
 0.30826528E+000
 0.30483251E+000
 0.32114302E+000
 0.31836224E+000
 0.32098629E+000
 0.32119202E+000
 0.32054829E+000
 0.32051747E+000
 0.32054552E+000
 0.32020903E+000
 0.32234311E+000
 0.32046541E+000
 0.31816123E+000
 0.31814112E+000
 0.31861735E+000
 0.31856014E+000
 0.31873932E+000
 0.31864880E+000
 0.31880763E+000
 0.31814969E+000
 0.31861512E+000
 0.31808374E+000
 0.31910624E+000
 0.31910624E+000
 0.31876794E+000
 0.31910624E+000
 0.31910624E+000
 0.31880943E+000
 0.31910624E+000
 0.31890267E+000
 0.31910624E+000
 0.31885792E+000
 0.31910624E+000
 0.31893121E+000
 0.31910624E+000
 0.31897273E+000
 0.31910624E+000
 0.31894019E+000
 0.31910624E+000
 0.31880204E+000
 0.31910625E+000
 0.31881034E+000
 0.31910624E+000
 0.31878598E+000
 0.31910624E+000
 0.31876648E+000
 0.31910624E+000
 0.31881855E+000
 0.31910624E+000
 0.31876832E+000
 0.31802860E+000
 0.31910624E+000
 0.31892014E+000
 0.31857736E+000
 0.31890451E+000
 0.31852571E+000
 0.31910624E+000
 0.32145340E+000
 0.31914419E+000
 0.31883641E+000
 0.31791880E+000
 0.31910625E+000
 0.32133305E+000
 0.31820815E+000
 0.31897346E+000
 0.31864461E+000
 0.31910625E+000
 0.32037706E+000
 0.31909734E+000
 0.31880488E+000
 0.31947284E+000
 0.31910624E+000
 0.31894514E+000
 0.31901434E+000
 0.31882205E+000
 0.31879332E+000
 0.31910624E+000
 0.32036982E+000
 0.31885350E+000
 0.31883547E+000
 0.31802783E+000
 0.31910624E+000
 0.32020060E+000
 0.31876609E+000
 0.31888156E+000
 0.31834416E+000
 0.31910625E+000
 0.32134194E+000
 0.31880550E+000
 0.31887363E+000
 0.31816647E+000
 0.31910624E+000
 0.31818541E+000
 0.31859556E+000
 0.31888541E+000
 0.31876151E+000
 0.31910624E+000
 0.31882287E+000
 0.31889024E+000
 0.31892153E+000
 0.31895058E+000
 0.31897547E+000
 0.31894001E+000
 0.31884240E+000
 0.31887249E+000
 0.31880184E+000
 0.31880402E+000
 0.31881645E+000
 0.31876464E+000
 0.31910625E+000
 0.31910624E+000
 0.31910624E+000
 0.31910624E+000
 0.31910625E+000
 0.31910625E+000
 0.31910625E+000
 0.31910624E+000
 0.31910625E+000
 0.31910624E+000
 0.31910624E+000
 0.31910624E+000
 0.31910624E+000
 0.31910624E+000
 0.31934268E+000
 0.31931898E+000
 0.31740889E+000
 0.31781765E+000
 0.31959844E+000
 0.31772072E+000
 0.31977465E+000
 0.31800129E+000
 0.31965504E+000
 0.31757573E+000
 0.31964291E+000
 0.31741975E+000
 0.31947831E+000
 0.31697398E+000
 0.31956285E+000
 0.31854563E+000
 0.31878184E+000
 0.31934139E+000
 0.31940816E+000
 0.31542952E+000
 0.31974205E+000
 0.31592392E+000
 0.31955989E+000
 0.31664850E+000
 0.31946377E+000
 0.31603522E+000
 0.31957723E+000
 0.31688428E+000
 0.31885839E+000
 0.31722337E+000
 0.31877444E+000
 0.31779933E+000
 0.31923225E+000
 0.31926959E+000
 0.31782776E+000
 0.31948876E+000
 0.31794811E+000
 0.31954033E+000
 0.31780513E+000
 0.31946885E+000
 0.31783615E+000
 0.31940169E+000
 0.31812733E+000
 0.31931169E+000
 0.31943147E+000
 0.31826133E+000
 0.31910624E+000
 0.31910624E+000
 0.31900001E+000
 0.31910625E+000
 0.31910624E+000
 0.31905150E+000
 0.31910624E+000
 0.31906133E+000
 0.31910624E+000
 0.31902087E+000
 0.31910624E+000
 0.31910464E+000
 0.31910624E+000
 0.31916776E+000
 0.31910624E+000
 0.31910348E+000
 0.31910624E+000
 0.31902653E+000
 0.31910624E+000
 0.31890913E+000
 0.31910624E+000
 0.31900354E+000
 0.31910625E+000
 0.31901519E+000
 0.31910624E+000
 0.31899364E+000
 0.31910624E+000
 0.31895703E+000
 0.31856978E+000
 0.31910624E+000
 0.31918281E+000
 0.31879908E+000
 0.31900907E+000
 0.31945528E+000
 0.31910624E+000
 0.31897451E+000
 0.31920537E+000
 0.31903579E+000
 0.31927687E+000
 0.31910624E+000
 0.31816588E+000
 0.31860829E+000
 0.31906413E+000
 0.31943359E+000
 0.31910624E+000
 0.31875389E+000
 0.31893799E+000
 0.31905338E+000
 0.31980418E+000
 0.31910624E+000
 0.31821186E+000
 0.31891047E+000
 0.31904839E+000
 0.31923403E+000
 0.31910624E+000
 0.31858114E+000
 0.31876228E+000
 0.31905213E+000
 0.31923518E+000
 0.31910624E+000
 0.31896769E+000
 0.31884622E+000
 0.31905268E+000
 0.31931298E+000
 0.31910624E+000
 0.31840422E+000
 0.31883323E+000
 0.31905623E+000
 0.31858058E+000
 0.31910624E+000
 0.31903753E+000
 0.31880587E+000
 0.31899348E+000
 0.31902068E+000
 0.31910624E+000
 0.31898754E+000
 0.31907852E+000
 0.31905180E+000
 0.31908962E+000
 0.31911188E+000
 0.31907778E+000
 0.31899707E+000
 0.31895005E+000
 0.31893039E+000
 0.31907657E+000
 0.31899551E+000
 0.31895251E+000
 0.31910625E+000
 0.31910624E+000
 0.31910624E+000
 0.31910624E+000
 0.31910624E+000
 0.31910624E+000
 0.31910624E+000
 0.31910624E+000
 0.31910624E+000
 0.31910624E+000
 0.31910624E+000
 0.31910624E+000
 0.31910624E+000
 0.31910624E+000
 0.31921893E+000
 0.31914197E+000
 0.31818615E+000
 0.31861127E+000
 0.31963910E+000
 0.31775139E+000
 0.31957130E+000
 0.31828753E+000
 0.31947644E+000
 0.31809164E+000
 0.31945128E+000
 0.31791430E+000
 0.31935813E+000
 0.31780221E+000
 0.31936053E+000
 0.31900960E+000
 0.31883995E+000
 0.31897507E+000
 0.31946988E+000
 0.31702720E+000
 0.31944866E+000
 0.31635278E+000
 0.31936231E+000
 0.31670933E+000
 0.31938194E+000
 0.31606216E+000
 0.31964103E+000
 0.31638222E+000
 0.31874502E+000
 0.31882418E+000
 0.31924791E+000
 0.31798588E+000
 0.31929638E+000
 0.31914513E+000
 0.31837910E+000
 0.31932993E+000
 0.31795400E+000
 0.31953882E+000
 0.31806421E+000
 0.31942007E+000
 0.31825581E+000
 0.31912999E+000
 0.31872758E+000
 0.31911249E+000
 0.31900187E+000
 0.31845682E+000
 0.31910625E+000
 0.31910624E+000
 0.31902185E+000
 0.31910624E+000
 0.31910624E+000
 0.31905301E+000
 0.31910624E+000
 0.31906655E+000
 0.31910624E+000
 0.31907011E+000
 0.31910624E+000
 0.31909596E+000
 0.31910624E+000
 0.31919483E+000
 0.31910625E+000
 0.31914489E+000
 0.31910624E+000
 0.31905446E+000
 0.31910625E+000
 0.31897374E+000
 0.31910624E+000
 0.31903291E+000
 0.31910624E+000
 0.31904953E+000
 0.31910624E+000
 0.31901629E+000
 0.31910625E+000
 0.31896351E+000
 0.31877496E+000
 0.31910624E+000
 0.31911149E+000
 0.31885130E+000
 0.31900462E+000
 0.31941615E+000
 0.31910624E+000
 0.31897477E+000
 0.31883915E+000
 0.31906261E+000
 0.31894371E+000
 0.31910624E+000
 0.31876930E+000
 0.31874285E+000
 0.31902892E+000
 0.31912372E+000
 0.31910624E+000
 0.31905690E+000
 0.31870801E+000
 0.31903271E+000
 0.31890641E+000
 0.31910624E+000
 0.31926984E+000
 0.31866343E+000
 0.31902287E+000
 0.31883581E+000
 0.31910624E+000
 0.31925649E+000
 0.31852417E+000
 0.31903318E+000
 0.31898625E+000
 0.31910624E+000
 0.31914944E+000
 0.31874805E+000
 0.31902634E+000
 0.31911017E+000
 0.31910625E+000
 0.31890589E+000
 0.31864422E+000
 0.31904820E+000
 0.31883933E+000
 0.31910625E+000
 0.31900231E+000
 0.31885135E+000
 0.31899552E+000
 0.31902892E+000
 0.31910625E+000
 0.31903047E+000
 0.31910722E+000
 0.31904174E+000
 0.31911521E+000
 0.31911275E+000
 0.31909232E+000
 0.31900679E+000
 0.31897463E+000
 0.31898088E+000
 0.31907618E+000
 0.31902651E+000
 0.31895870E+000
 0.31910624E+000
 0.31910625E+000
 0.31910625E+000
 0.31910624E+000
 0.31910624E+000
 0.31910624E+000
 0.31910624E+000
 0.31910624E+000
 0.31910624E+000
 0.31910624E+000
 0.31910624E+000
 0.31910624E+000
 0.31910624E+000
 0.31910624E+000
 0.31912031E+000
 0.31891552E+000
 0.31917583E+000
 0.31860316E+000
 0.31891292E+000
 0.31883127E+000
 0.31922944E+000
 0.31770992E+000
 0.31916714E+000
 0.31820361E+000
 0.31908103E+000
 0.31823305E+000
 0.31947781E+000
 0.31768339E+000
 0.31902822E+000
 0.31885498E+000
 0.31868213E+000
 0.31841386E+000
 0.31944927E+000
 0.31739881E+000
 0.31940133E+000
 0.31629257E+000
 0.31940302E+000
 0.31598677E+000
 0.31929795E+000
 0.31661739E+000
 0.31972887E+000
 0.31541070E+000
 0.31854919E+000
 0.31932625E+000
 0.31909371E+000
 0.31889387E+000
 0.31880238E+000
 0.31915960E+000
 0.31840883E+000
 0.31905752E+000
 0.31829415E+000
 0.31918721E+000
 0.31821069E+000
 0.31906794E+000
 0.31841272E+000
 0.31882092E+000
 0.31830550E+000
 0.31909142E+000
 0.31861510E+000
 0.31847116E+000
 0.31910624E+000
 0.31910624E+000
 0.31904555E+000
 0.31910624E+000
 0.31910625E+000
 0.31910095E+000
 0.31910624E+000
 0.31910984E+000
 0.31910624E+000
 0.31917896E+000
 0.31910625E+000
 0.31918942E+000
 0.31910624E+000
 0.31916048E+000
 0.31910624E+000
 0.31915988E+000
 0.31910624E+000
 0.31910165E+000
 0.31910625E+000
 0.31900050E+000
 0.31910624E+000
 0.31909565E+000
 0.31910624E+000
 0.31911077E+000
 0.31910624E+000
 0.31904586E+000
 0.31910624E+000
 0.31898280E+000
 0.31900584E+000
 0.31910624E+000
 0.31888820E+000
 0.31886731E+000
 0.31901763E+000
 0.31887259E+000
 0.31910624E+000
 0.31866784E+000
 0.31843900E+000
 0.31903335E+000
 0.31892012E+000
 0.31910624E+000
 0.31906845E+000
 0.31883393E+000
 0.31902724E+000
 0.31884374E+000
 0.31910624E+000
 0.31937488E+000
 0.31857266E+000
 0.31898040E+000
 0.31834817E+000
 0.31910624E+000
 0.31902683E+000
 0.31842927E+000
 0.31896523E+000
 0.31851728E+000
 0.31910624E+000
 0.31939893E+000
 0.31843950E+000
 0.31895601E+000
 0.31890413E+000
 0.31910624E+000
 0.31921858E+000
 0.31867996E+000
 0.31902630E+000
 0.31880235E+000
 0.31910624E+000
 0.31852544E+000
 0.31850271E+000
 0.31900115E+000
 0.31906554E+000
 0.31910624E+000
 0.31872520E+000
 0.31887671E+000
 0.31900913E+000
 0.31905458E+000
 0.31910624E+000
 0.31908282E+000
 0.31914370E+000
 0.31913381E+000
 0.31911943E+000
 0.31916786E+000
 0.31913955E+000
 0.31904776E+000
 0.31899739E+000
 0.31905039E+000
 0.31909452E+000
 0.31905947E+000
 0.31898123E+000
 0.31910624E+000
 0.31910625E+000
 0.31910624E+000
 0.31910624E+000
 0.31910624E+000
 0.31910625E+000
 0.31910624E+000
 0.31910624E+000
 0.31910624E+000
 0.31910624E+000
 0.31910624E+000
 0.31910624E+000
 0.31910624E+000
 0.31910624E+000
 0.31903893E+000
 0.31897132E+000
 0.31913890E+000
 0.31894049E+000
 0.31855056E+000
 0.31896284E+000
 0.31892070E+000
 0.31780361E+000
 0.31898044E+000
 0.31853964E+000
 0.31897935E+000
 0.31841497E+000
 0.31937406E+000
 0.31790248E+000
 0.31899949E+000
 0.31897076E+000
 0.31855351E+000
 0.31854806E+000
 0.31962373E+000
 0.31755145E+000
 0.31965674E+000
 0.31682453E+000
 0.31962543E+000
 0.31695533E+000
 0.31961198E+000
 0.31655487E+000
 0.31958166E+000
 0.31684021E+000
 0.31862136E+000
 0.31912320E+000
 0.31925389E+000
 0.31902357E+000
 0.31864080E+000
 0.31923809E+000
 0.31831239E+000
 0.31893615E+000
 0.31853517E+000
 0.31903739E+000
 0.31839184E+000
 0.31891944E+000
 0.31866212E+000
 0.31889152E+000
 0.31820737E+000
 0.31935869E+000
 0.31882733E+000
 0.31843044E+000
 0.31910624E+000
 0.31910624E+000
 0.31907039E+000
 0.31910624E+000
 0.31910624E+000
 0.31912965E+000
 0.31910624E+000
 0.31912858E+000
 0.31910624E+000
 0.31921540E+000
 0.31910624E+000
 0.31923871E+000
 0.31910624E+000
 0.31914184E+000
 0.31910624E+000
 0.31916241E+000
 0.31910624E+000
 0.31912382E+000
 0.31910624E+000
 0.31903470E+000
 0.31910624E+000
 0.31909424E+000
 0.31910625E+000
 0.31915080E+000
 0.31910624E+000
 0.31907105E+000
 0.31910624E+000
 0.31899021E+000
 0.31910714E+000
 0.31910624E+000
 0.31882479E+000
 0.31883013E+000
 0.31902459E+000
 0.31865600E+000
 0.31910624E+000
 0.31834097E+000
 0.31824235E+000
 0.31891123E+000
 0.31912615E+000
 0.31910624E+000
 0.31931517E+000
 0.31895085E+000
 0.31899906E+000
 0.31882364E+000
 0.31910625E+000
 0.31950650E+000
 0.31869715E+000
 0.31889600E+000
 0.31835265E+000
 0.31910625E+000
 0.31903761E+000
 0.31856656E+000
 0.31885047E+000
 0.31846130E+000
 0.31910624E+000
 0.31926750E+000
 0.31853958E+000
 0.31884969E+000
 0.31895127E+000
 0.31910624E+000
 0.31948972E+000
 0.31883394E+000
 0.31898335E+000
 0.31863794E+000
 0.31910624E+000
 0.31812011E+000
 0.31826819E+000
 0.31890502E+000
 0.31911965E+000
 0.31910624E+000
 0.31869161E+000
 0.31885480E+000
 0.31901723E+000
 0.31908713E+000
 0.31910624E+000
 0.31910345E+000
 0.31914032E+000
 0.31916679E+000
 0.31910258E+000
 0.31918423E+000
 0.31916917E+000
 0.31907911E+000
 0.31903952E+000
 0.31906247E+000
 0.31912020E+000
 0.31908239E+000
 0.31899340E+000
 0.31910624E+000
 0.31910624E+000
 0.31910624E+000
 0.31910625E+000
 0.31910625E+000
 0.31910624E+000
 0.31910624E+000
 0.31910624E+000
 0.31910624E+000
 0.31910625E+000
 0.31910624E+000
 0.31910624E+000
 0.31910624E+000
 0.31910624E+000
 0.31880472E+000
 0.31880137E+000
 0.31945390E+000
 0.31938328E+000
 0.31848701E+000
 0.31932567E+000
 0.31886388E+000
 0.31840286E+000
 0.31888516E+000
 0.31908541E+000
 0.31886590E+000
 0.31898407E+000
 0.31925623E+000
 0.31846948E+000
 0.31898192E+000
 0.31931487E+000
 0.31865395E+000
 0.31882531E+000
 0.31961620E+000
 0.31759148E+000
 0.31993299E+000
 0.31754307E+000
 0.31992198E+000
 0.31768426E+000
 0.31979020E+000
 0.31770899E+000
 0.31987099E+000
 0.31766305E+000
 0.31860820E+000
 0.31933674E+000
 0.31966027E+000
 0.31937931E+000
 0.31861471E+000
 0.31889388E+000
 0.31857551E+000
 0.31895514E+000
 0.31902710E+000
 0.31899243E+000
 0.31886647E+000
 0.31891007E+000
 0.31904704E+000
 0.31898838E+000
 0.31822589E+000
 0.31942675E+000
 0.31885813E+000
 0.31847121E+000
 0.31910625E+000
 0.31910624E+000
 0.31908477E+000
 0.31910624E+000
 0.31910624E+000
 0.31913277E+000
 0.31910624E+000
 0.31914644E+000
 0.31910625E+000
 0.31921889E+000
 0.31910624E+000
 0.31925099E+000
 0.31910625E+000
 0.31915492E+000
 0.31910624E+000
 0.31920750E+000
 0.31910624E+000
 0.31917975E+000
 0.31910624E+000
 0.31907208E+000
 0.31910624E+000
 0.31909631E+000
 0.31910625E+000
 0.31914765E+000
 0.31910624E+000
 0.31909084E+000
 0.31910624E+000
 0.31899310E+000
 0.31915778E+000
 0.31910624E+000
 0.31894660E+000
 0.31881847E+000
 0.31902230E+000
 0.31871278E+000
 0.31910624E+000
 0.31869627E+000
 0.31823434E+000
 0.31876593E+000
 0.31904034E+000
 0.31910624E+000
 0.31947171E+000
 0.31897001E+000
 0.31897334E+000
 0.31885860E+000
 0.31910624E+000
 0.31972682E+000
 0.31902021E+000
 0.31884969E+000
 0.31871277E+000
 0.31910624E+000
 0.31956884E+000
 0.31895884E+000
 0.31881286E+000
 0.31859638E+000
 0.31910624E+000
 0.31971092E+000
 0.31883147E+000
 0.31880129E+000
 0.31893728E+000
 0.31910624E+000
 0.31968802E+000
 0.31907393E+000
 0.31892089E+000
 0.31873238E+000
 0.31910624E+000
 0.31853132E+000
 0.31808895E+000
 0.31878337E+000
 0.31913086E+000
 0.31910624E+000
 0.31890914E+000
 0.31884822E+000
 0.31902546E+000
 0.31910549E+000
 0.31910624E+000
 0.31910375E+000
 0.31918461E+000
 0.31919804E+000
 0.31911008E+000
 0.31922033E+000
 0.31922235E+000
 0.31916568E+000
 0.31910374E+000
 0.31910067E+000
 0.31913019E+000
 0.31909786E+000
 0.31899936E+000
 0.31910624E+000
 0.31910624E+000
 0.31910624E+000
 0.31910624E+000
 0.31910625E+000
 0.31910624E+000
 0.31910625E+000
 0.31910624E+000
 0.31910625E+000
 0.31910624E+000
 0.31910624E+000
 0.31910624E+000
 0.31910625E+000
 0.31910624E+000
 0.31868372E+000
 0.31878598E+000
 0.31964893E+000
 0.31961417E+000
 0.31883532E+000
 0.31935483E+000
 0.31893087E+000
 0.31893189E+000
 0.31892791E+000
 0.31946300E+000
 0.31898167E+000
 0.31941273E+000
 0.31935568E+000
 0.31812034E+000
 0.31893966E+000
 0.31952217E+000
 0.31884477E+000
 0.31909992E+000
 0.31959604E+000
 0.31853225E+000
 0.32009929E+000
 0.31803217E+000
 0.32004236E+000
 0.31850397E+000
 0.31989465E+000
 0.31885439E+000
 0.31975632E+000
 0.31830513E+000
 0.31882788E+000
 0.31928304E+000
 0.32007732E+000
 0.31951980E+000
 0.31866753E+000
 0.31860637E+000
 0.31874329E+000
 0.31910787E+000
 0.31919962E+000
 0.31907516E+000
 0.31942599E+000
 0.31889492E+000
 0.31918122E+000
 0.31907550E+000
 0.31912085E+000
 0.31916858E+000
 0.31889814E+000
 0.31865539E+000
 0.31910625E+000
 0.31910624E+000
 0.31909588E+000
 0.31910624E+000
 0.31910625E+000
 0.31913443E+000
 0.31910625E+000
 0.31918318E+000
 0.31910624E+000
 0.31920742E+000
 0.31910625E+000
 0.31924999E+000
 0.31910624E+000
 0.31925904E+000
 0.31910624E+000
 0.31931717E+000
 0.31910624E+000
 0.31930327E+000
 0.31910624E+000
 0.31912956E+000
 0.31910624E+000
 0.31915406E+000
 0.31910624E+000
 0.31916360E+000
 0.31910624E+000
 0.31910907E+000
 0.31910624E+000
 0.31900030E+000
 0.31909476E+000
 0.31910625E+000
 0.31906414E+000
 0.31893133E+000
 0.31902975E+000
 0.31883207E+000
 0.31910624E+000
 0.31885921E+000
 0.31838996E+000
 0.31872745E+000
 0.31890051E+000
 0.31910624E+000
 0.31960906E+000
 0.31909155E+000
 0.31894929E+000
 0.31854793E+000
 0.31910624E+000
 0.31981941E+000
 0.31935620E+000
 0.31887224E+000
 0.31910349E+000
 0.31910624E+000
 0.31962150E+000
 0.31939364E+000
 0.31888135E+000
 0.31888543E+000
 0.31910624E+000
 0.32001745E+000
 0.31924763E+000
 0.31885591E+000
 0.31891957E+000
 0.31910624E+000
 0.31983096E+000
 0.31905400E+000
 0.31886355E+000
 0.31905255E+000
 0.31910624E+000
 0.31883004E+000
 0.31831866E+000
 0.31877380E+000
 0.31908326E+000
 0.31910624E+000
 0.31908493E+000
 0.31894040E+000
 0.31904245E+000
 0.31911537E+000
 0.31910624E+000
 0.31908958E+000
 0.31923186E+000
 0.31923184E+000
 0.31914238E+000
 0.31927802E+000
 0.31932354E+000
 0.31926110E+000
 0.31922900E+000
 0.31916722E+000
 0.31914237E+000
 0.31910958E+000
 0.31900913E+000
 0.31910625E+000
 0.31910624E+000
 0.31910625E+000
 0.31910624E+000
 0.31910625E+000
 0.31910624E+000
 0.31910624E+000
 0.31910624E+000
 0.31910624E+000
 0.31910624E+000
 0.31910625E+000
 0.31910624E+000
 0.31910624E+000
 0.31910624E+000
 0.31888281E+000
 0.31902990E+000
 0.31925337E+000
 0.31982164E+000
 0.31908554E+000
 0.32000716E+000
 0.31931521E+000
 0.31946979E+000
 0.31916944E+000
 0.32048414E+000
 0.31915811E+000
 0.31981454E+000
 0.31910943E+000
 0.31887251E+000
 0.31907179E+000
 0.31966989E+000
 0.31919728E+000
 0.31932108E+000
 0.31977575E+000
 0.31871363E+000
 0.31968954E+000
 0.31915931E+000
 0.31958496E+000
 0.31942715E+000
 0.31956084E+000
 0.32022709E+000
 0.31915635E+000
 0.32046157E+000
 0.31936031E+000
 0.31903676E+000
 0.32049641E+000
 0.31936557E+000
 0.31889946E+000
 0.31864772E+000
 0.31894856E+000
 0.31914660E+000
 0.31985528E+000
 0.31919138E+000
 0.32053580E+000
 0.31890897E+000
 0.31934878E+000
 0.31911624E+000
 0.31966786E+000
 0.31905611E+000
 0.31918920E+000
 0.31904905E+000
 0.31910624E+000
 0.31910624E+000
 0.31911706E+000
 0.31910624E+000
 0.31910625E+000
 0.31911398E+000
 0.31910624E+000
 0.31920742E+000
 0.31910624E+000
 0.31921589E+000
 0.31910625E+000
 0.31929813E+000
 0.31910624E+000
 0.31937216E+000
 0.31910624E+000
 0.31947195E+000
 0.31910624E+000
 0.31945360E+000
 0.31910624E+000
 0.31934734E+000
 0.31910624E+000
 0.31929412E+000
 0.31910624E+000
 0.31921328E+000
 0.31910624E+000
 0.31914478E+000
 0.31910624E+000
 0.31901649E+000
 0.31903059E+000
 0.31910625E+000
 0.31924875E+000
 0.31911658E+000
 0.31905925E+000
 0.31918211E+000
 0.31910624E+000
 0.31899902E+000
 0.31889297E+000
 0.31888846E+000
 0.31874010E+000
 0.31910624E+000
 0.31987833E+000
 0.31916591E+000
 0.31892876E+000
 0.31857603E+000
 0.31910624E+000
 0.32041261E+000
 0.31941044E+000
 0.31893795E+000
 0.31938925E+000
 0.31910624E+000
 0.31966419E+000
 0.31950444E+000
 0.31898662E+000
 0.31910650E+000
 0.31910624E+000
 0.32006503E+000
 0.31942844E+000
 0.31897683E+000
 0.31889935E+000
 0.31910624E+000
 0.32010228E+000
 0.31888590E+000
 0.31881748E+000
 0.31942275E+000
 0.31910624E+000
 0.31892422E+000
 0.31894430E+000
 0.31896376E+000
 0.31905261E+000
 0.31910624E+000
 0.31922078E+000
 0.31909649E+000
 0.31906975E+000
 0.31912697E+000
 0.31910625E+000
 0.31908605E+000
 0.31925605E+000
 0.31928037E+000
 0.31922405E+000
 0.31934866E+000
 0.31944128E+000
 0.31937001E+000
 0.31934229E+000
 0.31923451E+000
 0.31915998E+000
 0.31912938E+000
 0.31902559E+000
 0.31910624E+000
 0.31910624E+000
 0.31910625E+000
 0.31910624E+000
 0.31910624E+000
 0.31910624E+000
 0.31910625E+000
 0.31910624E+000
 0.31910624E+000
 0.31910624E+000
 0.31910624E+000
 0.31910624E+000
 0.31910624E+000
 0.31910624E+000
 0.31918698E+000
 0.31914140E+000
 0.31923339E+000
 0.31902547E+000
 0.31913691E+000
 0.31946134E+000
 0.31912386E+000
 0.31945824E+000
 0.31917114E+000
 0.31921202E+000
 0.31893081E+000
 0.32025692E+000
 0.31886631E+000
 0.32066257E+000
 0.31943064E+000
 0.31896773E+000
 0.31952231E+000
 0.31960017E+000
 0.31927395E+000
 0.32105127E+000
 0.31918708E+000
 0.31988029E+000
 0.31906591E+000
 0.31880848E+000
 0.31914449E+000
 0.31918296E+000
 0.31915987E+000
 0.31982957E+000
 0.31964023E+000
 0.31917959E+000
 0.32052180E+000
 0.31958130E+000
 0.31922557E+000
 0.31893902E+000
 0.31930760E+000
 0.31909445E+000
 0.31938816E+000
 0.31899577E+000
 0.31908350E+000
 0.31912780E+000
 0.31938735E+000
 0.31904355E+000
 0.31950177E+000
 0.31890797E+000
 0.31925078E+000
 0.31929317E+000
 0.31910625E+000
 0.31910624E+000
 0.31913150E+000
 0.31910624E+000
 0.31910624E+000
 0.31911736E+000
 0.31910624E+000
 0.31917987E+000
 0.31910624E+000
 0.31923504E+000
 0.31910624E+000
 0.31932796E+000
 0.31910624E+000
 0.31947240E+000
 0.31910624E+000
 0.31955861E+000
 0.31910624E+000
 0.31958335E+000
 0.31910625E+000
 0.31951067E+000
 0.31910624E+000
 0.31935473E+000
 0.31910624E+000
 0.31927064E+000
 0.31910624E+000
 0.31920296E+000
 0.31910625E+000
 0.31904674E+000
 0.31908600E+000
 0.31910624E+000
 0.31929516E+000
 0.31928062E+000
 0.31910548E+000
 0.31930478E+000
 0.31910624E+000
 0.31934287E+000
 0.31938490E+000
 0.31910263E+000
 0.31891279E+000
 0.31910624E+000
 0.31947781E+000
 0.31924169E+000
 0.31897005E+000
 0.31933325E+000
 0.31910624E+000
 0.31894179E+000
 0.31922072E+000
 0.31893770E+000
 0.31932658E+000
 0.31910624E+000
 0.31910781E+000
 0.31927827E+000
 0.31898695E+000
 0.31912217E+000
 0.31910624E+000
 0.31907848E+000
 0.31939824E+000
 0.31905571E+000
 0.31876651E+000
 0.31910625E+000
 0.32025513E+000
 0.31908029E+000
 0.31889784E+000
 0.31943033E+000
 0.31910625E+000
 0.31887161E+000
 0.31942287E+000
 0.31917826E+000
 0.31906836E+000
 0.31910624E+000
 0.31937780E+000
 0.31921692E+000
 0.31911236E+000
 0.31914896E+000
 0.31910624E+000
 0.31909051E+000
 0.31925512E+000
 0.31927927E+000
 0.31929712E+000
 0.31942069E+000
 0.31944442E+000
 0.31944081E+000
 0.31942956E+000
 0.31932152E+000
 0.31920637E+000
 0.31916763E+000
 0.31904867E+000
 0.31910624E+000
 0.31910624E+000
 0.31910624E+000
 0.31910624E+000
 0.31910624E+000
 0.31910624E+000
 0.31910625E+000
 0.31910624E+000
 0.31910624E+000
 0.31910624E+000
 0.31910624E+000
 0.31910624E+000
 0.31910624E+000
 0.31910624E+000
 0.31918554E+000
 0.31922426E+000
 0.31901971E+000
 0.31929076E+000
 0.31920321E+000
 0.31890330E+000
 0.31922011E+000
 0.31903357E+000
 0.31933954E+000
 0.31923888E+000
 0.31907354E+000
 0.31883109E+000
 0.31892509E+000
 0.31906634E+000
 0.31929590E+000
 0.31922790E+000
 0.31937921E+000
 0.31953057E+000
 0.31933552E+000
 0.31941116E+000
 0.31939079E+000
 0.31955479E+000
 0.31942660E+000
 0.31933324E+000
 0.31943527E+000
 0.31926715E+000
 0.31941282E+000
 0.31947385E+000
 0.31945750E+000
 0.31917555E+000
 0.31901265E+000
 0.31909081E+000
 0.31915549E+000
 0.31923869E+000
 0.31894178E+000
 0.31918750E+000
 0.31917606E+000
 0.31930092E+000
 0.31917077E+000
 0.31927420E+000
 0.31884845E+000
 0.31930849E+000
 0.31915203E+000
 0.31918832E+000
 0.31929774E+000
 0.31926247E+000
 0.31910624E+000
 0.31910624E+000
 0.31914128E+000
 0.31910624E+000
 0.31910624E+000
 0.31915128E+000
 0.31910624E+000
 0.31917032E+000
 0.31910624E+000
 0.31921490E+000
 0.31910624E+000
 0.31926133E+000
 0.31910624E+000
 0.31931891E+000
 0.31910624E+000
 0.31941898E+000
 0.31910624E+000
 0.31950938E+000
 0.31910625E+000
 0.31947951E+000
 0.31910624E+000
 0.31937406E+000
 0.31910624E+000
 0.31931388E+000
 0.31910625E+000
 0.31926147E+000
 0.31910625E+000
 0.31908711E+000
 0.31916746E+000
 0.31910624E+000
 0.31917399E+000
 0.31926503E+000
 0.31911940E+000
 0.31922218E+000
 0.31910624E+000
 0.31928083E+000
 0.31933276E+000
 0.31909043E+000
 0.31936549E+000
 0.31910624E+000
 0.31911430E+000
 0.31935868E+000
 0.31903842E+000
 0.31945304E+000
 0.31910625E+000
 0.31895112E+000
 0.31929080E+000
 0.31892389E+000
 0.31934587E+000
 0.31910624E+000
 0.31889048E+000
 0.31927483E+000
 0.31892262E+000
 0.31929056E+000
 0.31910624E+000
 0.31927441E+000
 0.31936660E+000
 0.31902670E+000
 0.31927506E+000
 0.31910624E+000
 0.31891058E+000
 0.31939329E+000
 0.31906722E+000
 0.31913668E+000
 0.31910625E+000
 0.31934913E+000
 0.31931851E+000
 0.31914929E+000
 0.31914506E+000
 0.31910624E+000
 0.31922006E+000
 0.31923304E+000
 0.31914157E+000
 0.31915948E+000
 0.31910625E+000
 0.31913221E+000
 0.31918474E+000
 0.31926683E+000
 0.31924511E+000
 0.31931867E+000
 0.31938569E+000
 0.31937701E+000
 0.31939795E+000
 0.31935891E+000
 0.31926501E+000
 0.31921829E+000
 0.31908249E+000
 0.31910624E+000
 0.31910624E+000
 0.31910625E+000
 0.31910624E+000
 0.31910625E+000
 0.31910624E+000
 0.31910624E+000
 0.31910624E+000
 0.31910625E+000
 0.31910624E+000
 0.31910624E+000
 0.31910625E+000
 0.31910624E+000
 0.31910624E+000
 0.31912866E+000
 0.31916853E+000
 0.31915232E+000
 0.31920203E+000
 0.31907315E+000
 0.31892749E+000
 0.31894598E+000
 0.31937035E+000
 0.31914850E+000
 0.31921131E+000
 0.31921397E+000
 0.31908735E+000
 0.31922036E+000
 0.31869694E+000
 0.31918709E+000
 0.31906797E+000
 0.31918393E+000
 0.31930114E+000
 0.31945019E+000
 0.31936125E+000
 0.31943115E+000
 0.31996154E+000
 0.31932428E+000
 0.32055101E+000
 0.31934890E+000
 0.31974158E+000
 0.31933695E+000
 0.31953588E+000
 0.31930494E+000
 0.31916664E+000
 0.31913912E+000
 0.31899446E+000
 0.31921360E+000
 0.31917471E+000
 0.31902606E+000
 0.31915199E+000
 0.31922888E+000
 0.31915896E+000
 0.31917651E+000
 0.31914609E+000
 0.31913342E+000
 0.31915307E+000
 0.31903851E+000
 0.31924680E+000
 0.31930095E+000
 0.31921597E+000
 0.31910624E+000
 0.31910624E+000
 0.31915639E+000
 0.31910624E+000
 0.31910625E+000
 0.31916752E+000
 0.31910624E+000
 0.31916569E+000
 0.31910624E+000
 0.31918857E+000
 0.31910624E+000
 0.31923501E+000
 0.31910624E+000
 0.31927111E+000
 0.31910625E+000
 0.31933081E+000
 0.31910624E+000
 0.31939903E+000
 0.31910624E+000
 0.31942158E+000
 0.31910624E+000
 0.31940639E+000
 0.31910624E+000
 0.31936306E+000
 0.31910624E+000
 0.31931836E+000
 0.31910625E+000
 0.31913476E+000
 0.31919880E+000
 0.31910624E+000
 0.31916599E+000
 0.31916396E+000
 0.31908495E+000
 0.31917236E+000
 0.31910624E+000
 0.31914961E+000
 0.31916577E+000
 0.31897959E+000
 0.31924437E+000
 0.31910624E+000
 0.31916631E+000
 0.31933853E+000
 0.31902198E+000
 0.31928720E+000
 0.31910625E+000
 0.31916948E+000
 0.31938629E+000
 0.31898189E+000
 0.31932053E+000
 0.31910624E+000
 0.31914470E+000
 0.31932621E+000
 0.31894590E+000
 0.31927212E+000
 0.31910624E+000
 0.31911898E+000
 0.31932219E+000
 0.31898029E+000
 0.31920808E+000
 0.31910624E+000
 0.31922834E+000
 0.31934311E+000
 0.31906731E+000
 0.31916123E+000
 0.31910624E+000
 0.31916571E+000
 0.31914418E+000
 0.31900544E+000
 0.31920108E+000
 0.31910625E+000
 0.31909719E+000
 0.31918074E+000
 0.31911704E+000
 0.31916725E+000
 0.31910625E+000
 0.31917125E+000
 0.31916505E+000
 0.31917982E+000
 0.31917758E+000
 0.31925691E+000
 0.31933900E+000
 0.31937875E+000
 0.31939675E+000
 0.31938190E+000
 0.31931515E+000
 0.31927537E+000
 0.31912737E+000
 0.31910625E+000
 0.31910624E+000
 0.31910625E+000
 0.31910625E+000
 0.31910624E+000
 0.31910624E+000
 0.31910624E+000
 0.31910624E+000
 0.31910624E+000
 0.31910624E+000
 0.31910625E+000
 0.31910624E+000
 0.31910624E+000
 0.31910624E+000
 0.31908866E+000
 0.31907238E+000
 0.31915437E+000
 0.31920454E+000
 0.31914870E+000
 0.31926819E+000
 0.31905613E+000
 0.31908425E+000
 0.31907328E+000
 0.31930541E+000
 0.31918417E+000
 0.31924024E+000
 0.31921140E+000
 0.31914006E+000
 0.31923794E+000
 0.31913924E+000
 0.31922840E+000
 0.31932202E+000
 0.31944883E+000
 0.31990620E+000
 0.31946962E+000
 0.32020538E+000
 0.31951899E+000
 0.32137763E+000
 0.31948391E+000
 0.32070875E+000
 0.31938947E+000
 0.31969631E+000
 0.31927781E+000
 0.31920234E+000
 0.31923336E+000
 0.31922847E+000
 0.31908740E+000
 0.31909928E+000
 0.31915808E+000
 0.31910143E+000
 0.31921934E+000
 0.31912893E+000
 0.31912215E+000
 0.31915425E+000
 0.31924725E+000
 0.31919403E+000
 0.31932192E+000
 0.31922065E+000
 0.31923608E+000
 0.31920502E+000
 0.31910624E+000
 0.31910624E+000
 0.31917191E+000
 0.31910625E+000
 0.31910624E+000
 0.31918292E+000
 0.31910624E+000
 0.31917813E+000
 0.31910624E+000
 0.31918408E+000
 0.31910625E+000
 0.31917170E+000
 0.31910624E+000
 0.31919491E+000
 0.31910624E+000
 0.31928884E+000
 0.31910624E+000
 0.31937396E+000
 0.31910624E+000
 0.31944549E+000
 0.31910624E+000
 0.31945744E+000
 0.31910625E+000
 0.31942585E+000
 0.31910624E+000
 0.31938877E+000
 0.31910624E+000
 0.31919699E+000
 0.31920824E+000
 0.31910624E+000
 0.31919237E+000
 0.31918867E+000
 0.31909073E+000
 0.31921353E+000
 0.31910624E+000
 0.31916838E+000
 0.31923686E+000
 0.31900312E+000
 0.31923188E+000
 0.31910624E+000
 0.31923829E+000
 0.31939969E+000
 0.31904005E+000
 0.31927079E+000
 0.31910624E+000
 0.31917768E+000
 0.31945126E+000
 0.31905277E+000
 0.31930235E+000
 0.31910624E+000
 0.31920306E+000
 0.31945031E+000
 0.31902691E+000
 0.31931369E+000
 0.31910624E+000
 0.31917044E+000
 0.31941320E+000
 0.31902744E+000
 0.31922933E+000
 0.31910624E+000
 0.31920081E+000
 0.31930785E+000
 0.31901320E+000
 0.31921343E+000
 0.31910624E+000
 0.31915509E+000
 0.31918599E+000
 0.31899886E+000
 0.31922198E+000
 0.31910624E+000
 0.31916236E+000
 0.31916105E+000
 0.31909196E+000
 0.31918307E+000
 0.31910624E+000
 0.31918910E+000
 0.31917912E+000
 0.31916787E+000
 0.31912896E+000
 0.31916386E+000
 0.31925664E+000
 0.31933566E+000
 0.31940499E+000
 0.31941918E+000
 0.31936744E+000
 0.31933342E+000
 0.31917724E+000
 0.31910625E+000
 0.31910624E+000
 0.31910624E+000
 0.31910625E+000
 0.31910624E+000
 0.31910625E+000
 0.31910624E+000
 0.31910624E+000
 0.31910625E+000
 0.31910624E+000
 0.31910624E+000
 0.31910625E+000
 0.31910624E+000
 0.31910624E+000
 0.31911785E+000
 0.31912940E+000
 0.31923616E+000
 0.31920752E+000
 0.31907549E+000
 0.31914000E+000
 0.31903025E+000
 0.31927275E+000
 0.31909025E+000
 0.31921367E+000
 0.31919917E+000
 0.31918794E+000
 0.31923725E+000
 0.31928006E+000
 0.31927516E+000
 0.31923700E+000
 0.31931962E+000
 0.31932263E+000
 0.31948187E+000
 0.31991557E+000
 0.31952337E+000
 0.32035646E+000
 0.31968130E+000
 0.32113633E+000
 0.31962055E+000
 0.32093412E+000
 0.31942854E+000
 0.31985355E+000
 0.31929149E+000
 0.31924927E+000
 0.31919896E+000
 0.31926232E+000
 0.31909354E+000
 0.31913039E+000
 0.31911602E+000
 0.31905469E+000
 0.31906572E+000
 0.31906547E+000
 0.31913973E+000
 0.31913161E+000
 0.31916546E+000
 0.31923591E+000
 0.31925652E+000
 0.31923378E+000
 0.31924338E+000
 0.31925227E+000
 0.31910624E+000
 0.31910625E+000
 0.31917842E+000
 0.31910624E+000
 0.31910624E+000
 0.31919481E+000
 0.31910624E+000
 0.31918740E+000
 0.31910625E+000
 0.31916526E+000
 0.31910624E+000
 0.31916401E+000
 0.31910624E+000
 0.31917161E+000
 0.31910624E+000
 0.31924215E+000
 0.31910625E+000
 0.31935385E+000
 0.31910625E+000
 0.31945902E+000
 0.31910625E+000
 0.31951013E+000
 0.31910624E+000
 0.31949579E+000
 0.31910624E+000
 0.31946836E+000
 0.31910624E+000
 0.31927351E+000
 0.31921245E+000
 0.31910624E+000
 0.31921019E+000
 0.31928519E+000
 0.31915410E+000
 0.31922668E+000
 0.31910624E+000
 0.31917479E+000
 0.31931387E+000
 0.31908559E+000
 0.31926407E+000
 0.31910624E+000
 0.31918865E+000
 0.31947575E+000
 0.31912781E+000
 0.31932055E+000
 0.31910624E+000
 0.31917307E+000
 0.31951362E+000
 0.31913658E+000
 0.31935083E+000
 0.31910625E+000
 0.31920363E+000
 0.31961525E+000
 0.31916395E+000
 0.31932748E+000
 0.31910624E+000
 0.31921286E+000
 0.31955842E+000
 0.31915141E+000
 0.31928079E+000
 0.31910624E+000
 0.31917882E+000
 0.31941334E+000
 0.31909904E+000
 0.31924188E+000
 0.31910624E+000
 0.31920169E+000
 0.31925716E+000
 0.31906138E+000
 0.31922467E+000
 0.31910624E+000
 0.31921425E+000
 0.31921777E+000
 0.31912403E+000
 0.31919273E+000
 0.31910624E+000
 0.31920572E+000
 0.31919787E+000
 0.31916963E+000
 0.31913220E+000
 0.31912874E+000
 0.31919163E+000
 0.31928489E+000
 0.31938657E+000
 0.31943082E+000
 0.31940719E+000
 0.31938645E+000
 0.31923150E+000
 0.31910624E+000
 0.31910624E+000
 0.31910625E+000
 0.31910624E+000
 0.31910624E+000
 0.31910624E+000
 0.31910625E+000
 0.31910624E+000
 0.31910624E+000
 0.31910624E+000
 0.31910624E+000
 0.31910624E+000
 0.31910624E+000
 0.31910624E+000
 0.31913575E+000
 0.31911365E+000
 0.31925261E+000
 0.31922050E+000
 0.31911041E+000
 0.31920339E+000
 0.31906811E+000
 0.31909536E+000
 0.31908126E+000
 0.31911059E+000
 0.31918722E+000
 0.31922153E+000
 0.31926510E+000
 0.31927782E+000
 0.31932487E+000
 0.31928187E+000
 0.31941814E+000
 0.31934509E+000
 0.31944964E+000
 0.31972133E+000
 0.31960212E+000
 0.32061222E+000
 0.31979527E+000
 0.32131029E+000
 0.31964761E+000
 0.32056223E+000
 0.31947185E+000
 0.31975819E+000
 0.31930363E+000
 0.31924807E+000
 0.31921149E+000
 0.31920315E+000
 0.31910372E+000
 0.31915268E+000
 0.31910621E+000
 0.31905653E+000
 0.31902001E+000
 0.31899865E+000
 0.31903452E+000
 0.31904044E+000
 0.31913943E+000
 0.31915674E+000
 0.31921883E+000
 0.31921630E+000
 0.31926785E+000
 0.31931559E+000
 0.31910624E+000
 0.31910624E+000
 0.31917707E+000
 0.31910624E+000
 0.31910624E+000
 0.31919551E+000
 0.31910624E+000
 0.31919510E+000
 0.31910624E+000
 0.31917294E+000
 0.31910625E+000
 0.31915538E+000
 0.31910625E+000
 0.31916135E+000
 0.31910624E+000
 0.31921904E+000
 0.31910624E+000
 0.31933070E+000
 0.31910624E+000
 0.31945706E+000
 0.31910624E+000
 0.31954209E+000
 0.31910625E+000
 0.31955295E+000
 0.31910624E+000
 0.31953921E+000
 0.31910624E+000
 0.31935089E+000
 0.31920469E+000
 0.31910624E+000
 0.31922442E+000
 0.31940866E+000
 0.31926003E+000
 0.31923328E+000
 0.31910624E+000
 0.31920274E+000
 0.31938389E+000
 0.31917425E+000
 0.31928594E+000
 0.31910624E+000
 0.31918974E+000
 0.31950689E+000
 0.31921325E+000
 0.31933239E+000
 0.31910624E+000
 0.31923422E+000
 0.31958291E+000
 0.31923643E+000
 0.31937157E+000
 0.31910624E+000
 0.31925067E+000
 0.31973951E+000
 0.31932449E+000
 0.31935181E+000
 0.31910624E+000
 0.31923109E+000
 0.31964636E+000
 0.31928712E+000
 0.31930188E+000
 0.31910624E+000
 0.31919740E+000
 0.31949054E+000
 0.31920660E+000
 0.31925001E+000
 0.31910624E+000
 0.31921123E+000
 0.31931752E+000
 0.31913477E+000
 0.31922235E+000
 0.31910624E+000
 0.31924920E+000
 0.31930614E+000
 0.31919399E+000
 0.31919491E+000
 0.31910625E+000
 0.31921658E+000
 0.31921471E+000
 0.31918174E+000
 0.31913688E+000
 0.31911496E+000
 0.31914599E+000
 0.31923927E+000
 0.31935286E+000
 0.31942833E+000
 0.31944117E+000
 0.31943787E+000
 0.31928906E+000
 0.31910624E+000
 0.31910624E+000
 0.31910624E+000
 0.31910624E+000
 0.31910624E+000
 0.31910624E+000
 0.31910624E+000
 0.31910625E+000
 0.31910624E+000
 0.31910624E+000
 0.31910624E+000
 0.31910624E+000
 0.31910624E+000
 0.31910625E+000
 0.31915242E+000
 0.31913259E+000
 0.31920004E+000
 0.31917031E+000
 0.31910865E+000
 0.31909062E+000
 0.31907343E+000
 0.31896351E+000
 0.31909683E+000
 0.31895044E+000
 0.31920234E+000
 0.31907615E+000
 0.31929832E+000
 0.31918113E+000
 0.31937851E+000
 0.31922154E+000
 0.31944949E+000
 0.31930159E+000
 0.31937631E+000
 0.31943234E+000
 0.31962207E+000
 0.32010622E+000
 0.31986016E+000
 0.32091698E+000
 0.31974073E+000
 0.32036128E+000
 0.31953343E+000
 0.31978470E+000
 0.31938116E+000
 0.31931032E+000
 0.31919469E+000
 0.31921647E+000
 0.31913324E+000
 0.31917917E+000
 0.31913459E+000
 0.31908591E+000
 0.31904457E+000
 0.31904174E+000
 0.31905503E+000
 0.31908343E+000
 0.31919264E+000
 0.31919036E+000
 0.31925430E+000
 0.31927889E+000
 0.31935721E+000
 0.31948495E+000
 0.31910624E+000
 0.31910624E+000
 0.31916349E+000
 0.31910624E+000
 0.31910625E+000
 0.31917502E+000
 0.31910625E+000
 0.31917164E+000
 0.31910625E+000
 0.31915330E+000
 0.31910624E+000
 0.31914501E+000
 0.31910624E+000
 0.31915722E+000
 0.31910624E+000
 0.31921301E+000
 0.31910624E+000
 0.31931737E+000
 0.31910624E+000
 0.31944093E+000
 0.31910625E+000
 0.31953200E+000
 0.31910624E+000
 0.31955965E+000
 0.31910625E+000
 0.31954875E+000
 0.31910625E+000
 0.31938969E+000
 0.31918867E+000
 0.31910625E+000
 0.31921057E+000
 0.31943466E+000
 0.31929401E+000
 0.31921629E+000
 0.31910624E+000
 0.31918981E+000
 0.31929911E+000
 0.31911998E+000
 0.31926125E+000
 0.31910625E+000
 0.31917944E+000
 0.31938052E+000
 0.31914959E+000
 0.31932537E+000
 0.31910624E+000
 0.31924700E+000
 0.31966997E+000
 0.31939225E+000
 0.31935674E+000
 0.31910624E+000
 0.31927915E+000
 0.31989403E+000
 0.31956198E+000
 0.31933999E+000
 0.31910624E+000
 0.31925221E+000
 0.31980482E+000
 0.31951309E+000
 0.31929436E+000
 0.31910624E+000
 0.31919876E+000
 0.31961992E+000
 0.31939643E+000
 0.31924088E+000
 0.31910625E+000
 0.31921628E+000
 0.31945684E+000
 0.31931442E+000
 0.31921081E+000
 0.31910624E+000
 0.31925272E+000
 0.31950303E+000
 0.31938676E+000
 0.31918252E+000
 0.31910624E+000
 0.31920187E+000
 0.31920246E+000
 0.31917735E+000
 0.31914591E+000
 0.31913214E+000
 0.31916576E+000
 0.31926008E+000
 0.31938270E+000
 0.31947642E+000
 0.31950249E+000
 0.31950882E+000
 0.31937461E+000
 0.31910624E+000
 0.31910624E+000
 0.31910624E+000
 0.31910624E+000
 0.31910624E+000
 0.31910625E+000
 0.31910624E+000
 0.31910624E+000
 0.31910625E+000
 0.31910625E+000
 0.31910624E+000
 0.31910624E+000
 0.31910624E+000
 0.31910624E+000
 0.31916954E+000
 0.31912786E+000
 0.31903123E+000
 0.31910803E+000
 0.31905784E+000
 0.31888796E+000
 0.31897670E+000
 0.31874933E+000
 0.31893433E+000
 0.31869183E+000
 0.31896313E+000
 0.31874663E+000
 0.31901956E+000
 0.31879705E+000
 0.31903001E+000
 0.31883774E+000
 0.31900039E+000
 0.31876859E+000
 0.31889822E+000
 0.31901970E+000
 0.31949429E+000
 0.31956487E+000
 0.31972580E+000
 0.31984806E+000
 0.31960564E+000
 0.31965647E+000
 0.31949480E+000
 0.31952180E+000
 0.31949681E+000
 0.31941905E+000
 0.31925754E+000
 0.31927287E+000
 0.31927908E+000
 0.31926205E+000
 0.31924542E+000
 0.31927531E+000
 0.31919500E+000
 0.31925104E+000
 0.31919589E+000
 0.31926274E+000
 0.31926459E+000
 0.31933980E+000
 0.31937069E+000
 0.31943240E+000
 0.31950892E+000
 0.31956298E+000
 0.31910624E+000
 0.31910625E+000
 0.31914638E+000
 0.31910624E+000
 0.31910624E+000
 0.31916134E+000
 0.31910624E+000
 0.31917180E+000
 0.31910624E+000
 0.31918081E+000
 0.31910624E+000
 0.31918752E+000
 0.31910624E+000
 0.31919178E+000
 0.31910625E+000
 0.31920656E+000
 0.31910625E+000
 0.31924070E+000
 0.31910624E+000
 0.31928228E+000
 0.31910624E+000
 0.31931429E+000
 0.31910625E+000
 0.31931472E+000
 0.31910624E+000
 0.31928837E+000
 0.31910624E+000
 0.31913485E+000
 0.31915761E+000
 0.31910624E+000
 0.31919331E+000
 0.31896521E+000
 0.31879099E+000
 0.31919328E+000
 0.31910625E+000
 0.31916687E+000
 0.31870767E+000
 0.31847731E+000
 0.31924037E+000
 0.31910624E+000
 0.31916620E+000
 0.31881611E+000
 0.31857593E+000
 0.31929295E+000
 0.31910624E+000
 0.31927217E+000
 0.31945894E+000
 0.31922591E+000
 0.31931467E+000
 0.31910624E+000
 0.31930479E+000
 0.31969216E+000
 0.31945673E+000
 0.31930655E+000
 0.31910624E+000
 0.31928981E+000
 0.31961105E+000
 0.31941398E+000
 0.31927760E+000
 0.31910625E+000
 0.31924864E+000
 0.31952278E+000
 0.31936388E+000
 0.31922238E+000
 0.31910625E+000
 0.31925406E+000
 0.31952625E+000
 0.31939524E+000
 0.31918215E+000
 0.31910624E+000
 0.31925289E+000
 0.31954762E+000
 0.31942508E+000
 0.31916681E+000
 0.31910624E+000
 0.31920098E+000
 0.31922216E+000
 0.31923222E+000
 0.31922965E+000
 0.31922534E+000
 0.31923902E+000
 0.31927870E+000
 0.31933579E+000
 0.31937981E+000
 0.31938953E+000
 0.31938433E+000
 0.31926833E+000
 0.31910624E+000
 0.31910624E+000
 0.31910624E+000
 0.31910624E+000
 0.31910624E+000
 0.31910625E+000
 0.31910624E+000
 0.31910624E+000
 0.31910625E+000
 0.31910624E+000
 0.31910624E+000
 0.31910624E+000
 0.31910624E+000
 0.31910624E+000
 0.31899646E+000
 0.31882520E+000
 0.31894972E+000
 0.31906052E+000
 0.31863141E+000
 0.31881038E+000
 0.31845032E+000
 0.31867617E+000
 0.31833473E+000
 0.31862008E+000
 0.31832251E+000
 0.31867830E+000
 0.31840722E+000
 0.31880399E+000
 0.31854324E+000
 0.31896394E+000
 0.31868078E+000
 0.31905755E+000
 0.31910952E+000
 0.31914342E+000
 0.31902683E+000
 0.31908678E+000
 0.31894277E+000
 0.31893179E+000
 0.31880538E+000
 0.31886010E+000
 0.31877245E+000
 0.31887295E+000
 0.31885633E+000
 0.31896132E+000
 0.31893703E+000
 0.31906246E+000
 0.31922549E+000
 0.31930437E+000
 0.31937393E+000
 0.31937061E+000
 0.31901320E+000
 0.31910513E+000
 0.31940730E+000
 0.31885830E+000
 0.31911391E+000
 0.31869607E+000
 0.31898513E+000
 0.31865417E+000
 0.31930992E+000
 0.31875575E+000
 0.31956889E+000
 0.31888239E+000
 0.31899949E+000
 0.31914789E+000
 0.31955544E+000
 0.31939991E+000
 0.31894654E+000
 0.31907325E+000
 0.31958697E+000
 0.31876042E+000
 0.31912405E+000
 0.31852094E+000
 0.31894365E+000
 0.31843316E+000
 0.31932365E+000
 0.31853207E+000
 0.31975228E+000
 0.31868095E+000
 0.31878849E+000
 0.31896059E+000
 0.31956472E+000
 0.31937981E+000
 0.31893220E+000
 0.31905095E+000
 0.31947790E+000
 0.31874139E+000
 0.31908596E+000
 0.31854316E+000
 0.31893816E+000
 0.31846484E+000
 0.31927409E+000
 0.31853931E+000
 0.31954398E+000
 0.31867168E+000
 0.31879309E+000
 0.31893632E+000
 0.31942100E+000
 0.31934037E+000
 0.31892843E+000
 0.31904453E+000
 0.31930418E+000
 0.31877639E+000
 0.31908850E+000
 0.31862809E+000
 0.31903838E+000
 0.31856517E+000
 0.31924109E+000
 0.31860714E+000
 0.31938862E+000
 0.31870963E+000
 0.31880603E+000
 0.31893884E+000
 0.31898194E+000
 0.31906222E+000
 0.31886764E+000
 0.31875263E+000
 0.31868977E+000
 0.31871323E+000
 0.31880265E+000
 0.31890107E+000
 0.31898999E+000
 0.31892368E+000
 0.31903637E+000
 0.31879404E+000
 0.31866871E+000
 0.31858741E+000
 0.31858251E+000
 0.31864630E+000
 0.31874388E+000
 0.31881835E+000
 0.31910625E+000
 0.31910624E+000
 0.31910459E+000
 0.31910625E+000
 0.31910624E+000
 0.31905060E+000
 0.31910624E+000
 0.31897825E+000
 0.31910625E+000
 0.31886314E+000
 0.31910624E+000
 0.31874844E+000
 0.31910624E+000
 0.31865500E+000
 0.31910625E+000
 0.31859601E+000
 0.31910624E+000
 0.31857957E+000
 0.31910624E+000
 0.31860508E+000
 0.31910624E+000
 0.31866479E+000
 0.31910624E+000
 0.31874479E+000
 0.31910624E+000
 0.31882831E+000
 0.31910624E+000
 0.31891644E+000
 0.31911747E+000
 0.31910624E+000
 0.31908330E+000
 0.31881358E+000
 0.31894294E+000
 0.31912718E+000
 0.31910624E+000
 0.31911926E+000
 0.31913336E+000
 0.31923518E+000
 0.31914086E+000
 0.31910624E+000
 0.31913569E+000
 0.31934682E+000
 0.31940796E+000
 0.31915759E+000
 0.31910624E+000
 0.31916750E+000
 0.31921911E+000
 0.31923578E+000
 0.31916259E+000
 0.31910624E+000
 0.31915962E+000
 0.31905907E+000
 0.31907924E+000
 0.31916074E+000
 0.31910624E+000
 0.31914783E+000
 0.31902360E+000
 0.31904473E+000
 0.31914850E+000
 0.31910624E+000
 0.31912905E+000
 0.31902308E+000
 0.31904168E+000
 0.31913550E+000
 0.31910624E+000
 0.31911481E+000
 0.31904881E+000
 0.31905051E+000
 0.31912654E+000
 0.31910624E+000
 0.31909148E+000
 0.31888216E+000
 0.31889200E+000
 0.31911589E+000
 0.31910624E+000
 0.31907046E+000
 0.31900368E+000
 0.31889429E+000
 0.31878187E+000
 0.31868937E+000
 0.31863120E+000
 0.31861356E+000
 0.31863455E+000
 0.31868492E+000
 0.31875398E+000
 0.31882693E+000
 0.31887520E+000
 0.31910624E+000
 0.31910624E+000
 0.31910624E+000
 0.31910624E+000
 0.31910624E+000
 0.31910624E+000
 0.31910625E+000
 0.31910624E+000
 0.31910624E+000
 0.31910624E+000
 0.31910625E+000
 0.31910625E+000
 0.31910625E+000
 0.31910624E+000
 0.31910624E+000
 0.31910624E+000
 0.31910625E+000
 0.31910624E+000
 0.31910624E+000
 0.31910624E+000
 0.31910624E+000
 0.31910624E+000
 0.31910624E+000
 0.31910624E+000
 0.31910624E+000
 0.31910624E+000
 0.31910624E+000
 0.31910624E+000
 0.31910624E+000
 0.31910624E+000
 0.31910624E+000
 0.31910624E+000
 0.31910625E+000
 0.31910625E+000
 0.31910624E+000
 0.31910624E+000
 0.31910624E+000
 0.31910624E+000
 0.31910624E+000
 0.31910624E+000
 0.31910625E+000
 0.31910625E+000
 0.31910624E+000
 0.31910624E+000
 0.31910624E+000
 0.31910624E+000
 0.31910624E+000
 0.31910624E+000
 0.31910624E+000
 0.31910624E+000
 0.31910624E+000
 0.31910624E+000
 0.31910624E+000
 0.31910625E+000
 0.31910624E+000
 0.31910624E+000
 0.31910624E+000
 0.31910624E+000
 0.31910624E+000
 0.31910624E+000
 0.31910624E+000
 0.31910624E+000
 0.31910624E+000
 0.31910624E+000
 0.31910624E+000
 0.31910624E+000
 0.31910624E+000
 0.31910624E+000
 0.31910624E+000
 0.31910624E+000
 0.31910625E+000
 0.31910624E+000
 0.31910625E+000
 0.31910624E+000
 0.31910624E+000
 0.31910624E+000
 0.31910624E+000
 0.31910624E+000
 0.31910624E+000
 0.31910624E+000
 0.31910624E+000
 0.31910624E+000
 0.31910624E+000
 0.31910624E+000
 0.31910624E+000
 0.31910624E+000
 0.31910624E+000
 0.31910625E+000
 0.31910624E+000
 0.31910624E+000
 0.31910624E+000
 0.31910625E+000
 0.31910624E+000
 0.31910624E+000
 0.31910625E+000
 0.31910624E+000
 0.31910624E+000
 0.31910624E+000
 0.31910624E+000
 0.31910624E+000
 0.31910624E+000
 0.31910624E+000
 0.31910625E+000
 0.31910624E+000
 0.31910624E+000
 0.31910624E+000
 0.31910624E+000
 0.31910624E+000
 0.31910624E+000
 0.31910624E+000
 0.31910624E+000
 0.31910624E+000
 0.31910624E+000
 0.31910624E+000
 0.31910625E+000
 0.31910624E+000
 0.31910624E+000
 0.31910624E+000
 0.31910624E+000
 0.31910624E+000
 0.31910624E+000
 0.31910624E+000
 0.31910624E+000
 0.31910624E+000
 0.31910624E+000
 0.31910624E+000
 0.31910624E+000
 0.31910624E+000
 0.31910624E+000
 0.31910624E+000
 0.31910624E+000
 0.31910624E+000
 0.31910624E+000
 0.31910624E+000
 0.31910625E+000
 0.31910625E+000
 0.31910624E+000
 0.31910624E+000
 0.31910624E+000
 0.31910624E+000
 0.31910624E+000
 0.31910624E+000
 0.31910624E+000
 0.31910624E+000
 0.31910624E+000
 0.31910624E+000
 0.31910625E+000
 0.31910624E+000
 0.31910624E+000
 0.31910624E+000
 0.31910625E+000
 0.31910624E+000
 0.31910624E+000
 0.31910624E+000
 0.31910624E+000
 0.31910624E+000
 0.31910624E+000
 0.31910624E+000
 0.31910624E+000
 0.31910624E+000
 0.31910624E+000
 0.31910624E+000
 0.31910624E+000
 0.31910624E+000
 0.31910624E+000
 0.31910624E+000
 0.31910624E+000
 0.31910624E+000
 0.31910625E+000
 0.31910624E+000
 0.31910624E+000
 0.31910624E+000
 0.31910625E+000
 0.31910624E+000
 0.31910624E+000
 0.31910624E+000
 0.31910624E+000
 0.31910624E+000
 0.31910624E+000
 0.31910624E+000
 0.31910624E+000
 0.31910624E+000
 0.31910624E+000
 0.31910624E+000
 0.31910624E+000
 0.31910624E+000
 0.31910624E+000
 0.31910625E+000
 0.31910625E+000
 0.31910624E+000
 0.31910624E+000
 0.31910624E+000
 0.31910624E+000
 0.31910624E+000
 0.31910624E+000
 0.31910624E+000
 0.32120704E+000
 0.31821375E+000
 0.32146244E+000
 0.32184788E+000
 0.32137219E+000
 0.32247388E+000
 0.31985625E+000
 0.32396726E+000
 0.32310046E+000
 0.33058557E+000
 0.33087579E+000
 0.32608172E+000
 0.32568061E+000
 0.32091795E+000
 0.32270280E+000
 0.32188480E+000
 0.32943471E+000
 0.33265518E+000
 0.32490758E+000
 0.32215343E+000
 0.32031775E+000
 0.32342440E+000
 0.32355150E+000
 0.32747624E+000
 0.33409642E+000
 0.32405680E+000
 0.32126924E+000
 0.32059499E+000
 0.32175468E+000
 0.32389298E+000
 0.32754101E+000
 0.33270293E+000
 0.32590233E+000
 0.32148622E+000
 0.32067370E+000
 0.32024602E+000
 0.31853827E+000
 0.32137211E+000
 0.32258155E+000
 0.32012335E+000
 0.31962122E+000
 0.31835836E+000
 0.31885851E+000
 0.32092530E+000
 0.31860485E+000
 0.31872418E+000
 0.32017153E+000
 0.32033450E+000
 0.31792187E+000
 0.31799642E+000
 0.31827543E+000
 0.31832873E+000
 0.31824720E+000
 0.31789046E+000
 0.31765830E+000
 0.31750352E+000
 0.31740428E+000
 0.31791445E+000
 0.31784035E+000
 0.31782023E+000
 0.31794247E+000
 0.31812486E+000
 0.31804646E+000
 0.31816796E+000
 0.31820000E+000
 0.31811552E+000
 0.31786874E+000
 0.31794946E+000
 0.31825547E+000
 0.31816828E+000
 0.31811141E+000
 0.31822123E+000
 0.31818264E+000
 0.31832957E+000
 0.31844554E+000
 0.31824167E+000
 0.31867472E+000
 0.31866964E+000
 0.31880209E+000
 0.31875390E+000
 0.31879646E+000
 0.31884156E+000
 0.31876042E+000
 0.31885675E+000
 0.31893278E+000
 0.31882263E+000
 0.31879915E+000
 0.31871945E+000
 0.31881666E+000
 0.31885313E+000
 0.31862862E+000
 0.31878009E+000
 0.31881712E+000
 0.31876720E+000
 0.31869917E+000
 0.31883446E+000
 0.31891758E+000
 0.31887148E+000
 0.31879388E+000
 0.31882089E+000
 0.31876368E+000
 0.31880302E+000
 0.31893696E+000
 0.31894038E+000
 0.31908513E+000
 0.31913063E+000
 0.31911784E+000
 0.31902692E+000
 0.31903391E+000
 0.31903721E+000
 0.31901460E+000
 0.31902852E+000
 0.31893240E+000
 0.31872752E+000
 0.31880857E+000
 0.31874700E+000
 0.31890494E+000
 0.31918117E+000
 0.31911128E+000
 0.31902304E+000
 0.31903246E+000
 0.31901004E+000
 0.31894779E+000
 0.31896476E+000
 0.31913373E+000
 0.31901127E+000
 0.31884479E+000
 0.31885606E+000
 0.31892374E+000
 0.31894988E+000
 0.31907256E+000
 0.31913247E+000
 0.31895876E+000
 0.31903661E+000
 0.31848159E+000
 0.31835905E+000
 0.31863829E+000
 0.31848615E+000
 0.31849554E+000
 0.31832897E+000
 0.31763379E+000
 0.31724124E+000
 0.31712623E+000
 0.31715816E+000
 0.31840008E+000
 0.31912956E+000
 0.31855933E+000
 0.31868043E+000
 0.31856444E+000
 0.31856449E+000
 0.31856390E+000
 0.31863323E+000
 0.31847833E+000
 0.31882906E+000
 0.31929625E+000
 0.31896330E+000
 0.31883996E+000
 0.31916777E+000
 0.31863054E+000
 0.31843838E+000
 0.31930231E+000
 0.31931302E+000
 0.31879392E+000
 0.31883827E+000
 0.31906071E+000
 0.31883702E+000
 0.31888250E+000
 0.31880486E+000
 0.31802024E+000
 0.31794523E+000
 0.31792372E+000
 0.31795252E+000
 0.31897171E+000
 0.31944175E+000
 0.31879870E+000
 0.31897252E+000
 0.31896336E+000
 0.31900670E+000
 0.31888945E+000
 0.31889692E+000
 0.31892214E+000
 0.31905867E+000
 0.31953808E+000
 0.31947056E+000
 0.31943518E+000
 0.31952172E+000
 0.31902996E+000
 0.31871833E+000
 0.31948156E+000
 0.31951807E+000
 0.31907428E+000
 0.31921326E+000
 0.31940884E+000
 0.31907138E+000
 0.31892172E+000
 0.31913921E+000
 0.31840811E+000
 0.31835632E+000
 0.31856244E+000
 0.31858105E+000
 0.31904639E+000
 0.31970481E+000
 0.31902075E+000
 0.31921596E+000
 0.31929716E+000
 0.31927672E+000
 0.31914151E+000
 0.31910943E+000
 0.31917720E+000
 0.31917133E+000
 0.31962597E+000
 0.31970076E+000
 0.31973233E+000
 0.31975216E+000
 0.31918166E+000
 0.31908019E+000
 0.31956067E+000
 0.31941633E+000
 0.31931785E+000
 0.31960759E+000
 0.31962563E+000
 0.31929760E+000
 0.31911000E+000
 0.31926316E+000
 0.31873076E+000
 0.31899884E+000
 0.31934019E+000
 0.31959271E+000
 0.31956745E+000
 0.31981563E+000
 0.31906354E+000
 0.31927245E+000
 0.31955168E+000
 0.31971654E+000
 0.31926536E+000
 0.31927267E+000
 0.31924315E+000
 0.31920897E+000
 0.31980002E+000
 0.31972815E+000
 0.31980968E+000
 0.31992350E+000
 0.31930985E+000
 0.31931547E+000
 0.31957233E+000
 0.31942666E+000
 0.32053790E+000
 0.32053519E+000
 0.32038447E+000
 0.31997996E+000
 0.31956069E+000
 0.32005215E+000
 0.32088153E+000
 0.31956992E+000
 0.32029537E+000
 0.32052041E+000
 0.31942901E+000
 0.31988198E+000
 0.31907043E+000
 0.32030953E+000
 0.32018691E+000
 0.32006283E+000
 0.31984777E+000
 0.31935407E+000
 0.31923150E+000
 0.31934810E+000
 0.31993898E+000
 0.31931275E+000
 0.31947944E+000
 0.31984939E+000
 0.31949967E+000
 0.31944455E+000
 0.31914110E+000
 0.31903731E+000
 0.31911600E+000
 0.31914742E+000
 0.31923160E+000
 0.32048266E+000
 0.31937421E+000
 0.31935538E+000
 0.31978061E+000
 0.31909065E+000
 0.31918928E+000
 0.31972000E+000
 0.31927849E+000
 0.31994722E+000
 0.31912508E+000
 0.31914700E+000
 0.31919120E+000
 0.31896228E+000
 0.31906551E+000
 0.31919496E+000
 0.31933847E+000
 0.31923810E+000
 0.31887260E+000
 0.31895847E+000
 0.31913416E+000
 0.31897562E+000
 0.31901557E+000
 0.31932698E+000
 0.31917317E+000
 0.31900842E+000
 0.31902704E+000
 0.31935151E+000
 0.31905232E+000
 0.31873950E+000
 0.31885266E+000
 0.31910861E+000
 0.31944471E+000
 0.31962996E+000
 0.31943762E+000
 0.31950774E+000
 0.31927669E+000
 0.31905506E+000
 0.31897456E+000
 0.31912681E+000
 0.31926472E+000
 0.31911262E+000
 0.31902637E+000
 0.31908819E+000
 0.31919136E+000
 0.31915532E+000
 0.31913631E+000
 0.31897429E+000
 0.31910308E+000
 0.31916494E+000
 0.31915577E+000
 0.31917711E+000
 0.31921288E+000
 0.31920104E+000
 0.31903795E+000
 0.31930314E+000
 0.31915176E+000
 0.31910312E+000
 0.31897444E+000
 0.31916413E+000
 0.31970879E+000
 0.32060525E+000
 0.32049130E+000
 0.31999089E+000
 0.31935329E+000
 0.31915332E+000
 0.31911119E+000
 0.31918629E+000
 0.31918922E+000
 0.31919330E+000
 0.31921356E+000
 0.31920583E+000
 0.31915589E+000
 0.31916577E+000
 0.31915341E+000
 0.31914992E+000
 0.31914128E+000
 0.31915983E+000
 0.31916685E+000
 0.31920213E+000
 0.31917838E+000
 0.31924922E+000
 0.31934685E+000
 0.31927006E+000
 0.31921007E+000
 0.31921374E+000
 0.31926629E+000
 0.31952786E+000
 0.32023800E+000
 0.32063929E+000
 0.32137952E+000
 0.32030848E+000
 0.31952701E+000
 0.31919687E+000
 0.31922507E+000
 0.31914065E+000
 0.31916020E+000
 0.31913498E+000
 0.31914877E+000
 0.31925750E+000
 0.31915489E+000
 0.31917053E+000
 0.31915705E+000
 0.31914772E+000
 0.31918931E+000
 0.31917522E+000
 0.31916125E+000
 0.31917867E+000
 0.31924961E+000
 0.31924423E+000
 0.31922271E+000
 0.31918534E+000
 0.31924879E+000
 0.31925705E+000
 0.31924981E+000
 0.31951789E+000
 0.32012437E+000
 0.32098649E+000
 0.32089037E+000
 0.32031139E+000
 0.31947307E+000
 0.31924278E+000
 0.31918689E+000
 0.31907678E+000
 0.31905107E+000
 0.31909738E+000
 0.31914664E+000
 0.31928618E+000
 0.31918700E+000
 0.31915745E+000
 0.31918448E+000
 0.31919710E+000
 0.31920149E+000
 0.31919537E+000
 0.31917623E+000
 0.31920024E+000
 0.31920814E+000
 0.31919100E+000
 0.31905641E+000
 0.31900521E+000
 0.31908223E+000
 0.31921871E+000
 0.31924758E+000
 0.31942450E+000
 0.31990030E+000
 0.32055324E+000
 0.32083992E+000
 0.32014961E+000
 0.31950098E+000
 0.31917506E+000
 0.31916246E+000
 0.31905427E+000
 0.31900923E+000
 0.31907894E+000
 0.31916925E+000
 0.31923921E+000
 0.31918317E+000
 0.31918764E+000
 0.31919957E+000
 0.31925290E+000
 0.31924707E+000
 0.31921287E+000
 0.31918368E+000
 0.31918457E+000
 0.31913486E+000
 0.31907623E+000
 0.31895990E+000
 0.31885150E+000
 0.31892083E+000
 0.31900426E+000
 0.31908599E+000
 0.31918890E+000
 0.31960117E+000
 0.32033936E+000
 0.32033002E+000
 0.31992575E+000
 0.31954576E+000
 0.31923757E+000
 0.31922714E+000
 0.31914687E+000
 0.31911544E+000
 0.31917498E+000
 0.31927428E+000
 0.31936248E+000
 0.31915237E+000
 0.31917126E+000
 0.31921270E+000
 0.31926545E+000
 0.31928872E+000
 0.31926063E+000
 0.31922436E+000
 0.31922360E+000
 0.31908826E+000
 0.31896809E+000
 0.31879344E+000
 0.31867471E+000
 0.31872105E+000
 0.31876642E+000
 0.31880726E+000
 0.31927489E+000
 0.31921733E+000
 0.31911340E+000
 0.31893827E+000
 0.31901954E+000
 0.31920001E+000
 0.31924981E+000
 0.31943924E+000
 0.31948288E+000
 0.31928408E+000
 0.31893763E+000
 0.31918540E+000
 0.31951374E+000
 0.31972459E+000
 0.31948940E+000
 0.31956843E+000
 0.31936297E+000
 0.31894875E+000
 0.31911892E+000
 0.31955093E+000
 0.31972254E+000
 0.31942541E+000
 0.31943287E+000
 0.31924041E+000
 0.31896578E+000
 0.31908935E+000
 0.31933592E+000
 0.31954745E+000
 0.31936113E+000
 0.31932912E+000
 0.31923185E+000
 0.31915223E+000
 0.31921508E+000
 0.31936743E+000
 0.31943169E+000
 0.31914070E+000
 0.31923089E+000
 0.31932226E+000
 0.31932020E+000
 0.31930238E+000
 0.31927619E+000
 0.31978272E+000
 0.31956967E+000
 0.32003678E+000
 0.31992077E+000
 0.32047870E+000
 0.32042411E+000
 0.31943899E+000
 0.32030673E+000
 0.31940945E+000
 0.31922249E+000
 0.31991624E+000
 0.32083855E+000
 0.32036460E+000
 0.32030369E+000
 0.32076861E+000
 0.31948298E+000
 0.32028139E+000
 0.31898752E+000
 0.32087528E+000
 0.31751580E+000
 0.31799157E+000
 0.32085791E+000
 0.32057968E+000
 0.32057518E+000
 0.31943667E+000
 0.32011730E+000
 0.31890681E+000
 0.32067690E+000
 0.31844703E+000
 0.32053124E+000
 0.32033501E+000
 0.31983600E+000
 0.31942135E+000
 0.32041086E+000
 0.31965365E+000
 0.32051701E+000
 0.32036770E+000
 0.31885454E+000
 0.32061944E+000
 0.31094489E+000
 0.31377893E+000
 0.32055807E+000
 0.32058056E+000
 0.31741186E+000
 0.32054895E+000
 0.32041337E+000
 0.31921278E+000
 0.32032520E+000
 0.32079109E+000
 0.32008929E+000
 0.32105828E+000
 0.31990292E+000
 0.32102786E+000
 0.32072962E+000
 0.31996900E+000
 0.32073801E+000
 0.31924657E+000
 0.31901897E+000
 0.31890844E+000
 0.32091859E+000
 0.32043172E+000
 0.32058989E+000
 0.32091385E+000
 0.31987532E+000
 0.32074127E+000
 0.31902920E+000
 0.32091446E+000
 0.31898925E+000
 0.31883489E+000
 0.32093670E+000
 0.32102433E+000
 0.32095441E+000
 0.32006242E+000
 0.32104297E+000
 0.31922194E+000
 0.32106874E+000
 0.31884924E+000
 0.32043567E+000
 0.32061433E+000
 0.31991134E+000
 0.32057789E+000
 0.32078601E+000
 0.32028030E+000
 0.32041665E+000
 0.32134195E+000
 0.31847552E+000
 0.32148871E+000
 0.31042229E+000
 0.31298532E+000
 0.32162454E+000
 0.32166802E+000
 0.31797246E+000
 0.32154677E+000
 0.32065564E+000
 0.31988446E+000
 0.32126266E+000
 0.32441289E+000
 0.32675350E+000
 0.32901373E+000
 0.32311844E+000
 0.32933546E+000
 0.32424102E+000
 0.32474582E+000
 0.32680109E+000
 0.32500576E+000
 0.32339852E+000
 0.32113875E+000
 0.32731286E+000
 0.32888979E+000
 0.32432127E+000
 0.32869636E+000
 0.32469837E+000
 0.32676638E+000
 0.32358006E+000
 0.32728924E+000
 0.32078797E+000
 0.32026410E+000
 0.32864440E+000
 0.32445993E+000
 0.32448117E+000
 0.32681129E+000
 0.32899761E+000
 0.32492517E+000
 0.32931832E+000
 0.32139984E+000
 0.32880506E+000
 0.32433777E+000
 0.32320190E+000
 0.32440039E+000
 0.32425736E+000
 0.32186539E+000
 0.32121972E+000
 0.32280453E+000
 0.31991252E+000
 0.32344010E+000
 0.31342444E+000
 0.31506302E+000
 0.32368432E+000
 0.32324449E+000
 0.31937176E+000
 0.32312188E+000
 0.32160767E+000
 0.32179593E+000
 0.32282560E+000
 0.33003768E+000
 0.33954128E+000
 0.34290410E+000
 0.32877882E+000
 0.34260012E+000
 0.32919734E+000
 0.33415391E+000
 0.33761285E+000
 0.33794351E+000
 0.33424193E+000
 0.32735682E+000
 0.33723238E+000
 0.34221200E+000
 0.32911391E+000
 0.34086322E+000
 0.33415358E+000
 0.33755867E+000
 0.33448887E+000
 0.33721944E+000
 0.32677822E+000
 0.32589603E+000
 0.34066949E+000
 0.32855258E+000
 0.32880595E+000
 0.33957805E+000
 0.34290228E+000
 0.33774405E+000
 0.34251572E+000
 0.32739364E+000
 0.34226179E+000
 0.32890049E+000
 0.32872114E+000
 0.32996849E+000
 0.32936991E+000
 0.32418250E+000
 0.32374692E+000
 0.32508994E+000
 0.32303653E+000
 0.32504291E+000
 0.31626388E+000
 0.31737462E+000
 0.32551383E+000
 0.32519942E+000
 0.32134609E+000
 0.32537446E+000
 0.32389771E+000
 0.32428250E+000
 0.32451299E+000
 0.33667570E+000
 0.35993628E+000
 0.36282083E+000
 0.33654078E+000
 0.36210797E+000
 0.33527395E+000
 0.34666954E+000
 0.35047831E+000
 0.36045053E+000
 0.35348380E+000
 0.33790448E+000
 0.34889052E+000
 0.36381626E+000
 0.33515026E+000
 0.35949623E+000
 0.34667912E+000
 0.35044663E+000
 0.35376299E+000
 0.34884736E+000
 0.33708293E+000
 0.33615205E+000
 0.35930286E+000
 0.33367966E+000
 0.33411749E+000
 0.35995739E+000
 0.36276547E+000
 0.36062488E+000
 0.36205447E+000
 0.33787417E+000
 0.36404121E+000
 0.33487164E+000
 0.33651394E+000
 0.33649508E+000
 0.33544043E+000
 0.32688687E+000
 0.32730504E+000
 0.32715602E+000
 0.32588548E+000
 0.32756594E+000
 0.31887043E+000
 0.31967550E+000
 0.32806313E+000
 0.32733744E+000
 0.32332534E+000
 0.32717374E+000
 0.32625606E+000
 0.32696549E+000
 0.32704905E+000
 0.34567164E+000
 0.39411181E+000
 0.39209401E+000
 0.34885993E+000
 0.39264188E+000
 0.34421234E+000
 0.35974622E+000
 0.36189854E+000
 0.41105938E+000
 0.38939530E+000
 0.35741070E+000
 0.35944518E+000
 0.40831774E+000
 0.34583770E+000
 0.38983743E+000
 0.35974114E+000
 0.36191143E+000
 0.38962475E+000
 0.35939151E+000
 0.35608494E+000
 0.35524573E+000
 0.38964750E+000
 0.34213720E+000
 0.34247741E+000
 0.39396504E+000
 0.39200236E+000
 0.41169890E+000
 0.39256018E+000
 0.35657726E+000
 0.40843645E+000
 0.34565474E+000
 0.34889124E+000
 0.34545526E+000
 0.34443585E+000
 0.32909540E+000
 0.33067858E+000
 0.32940711E+000
 0.32987744E+000
 0.32905726E+000
 0.32364483E+000
 0.32527486E+000
 0.32892248E+000
 0.32916616E+000
 0.33053632E+000
 0.32840366E+000
 0.33027799E+000
 0.32945349E+000
 0.32847440E+000
 0.34190084E+000
 0.43441000E+000
 0.42233729E+000
 0.34677302E+000
 0.42363028E+000
 0.34175134E+000
 0.37360969E+000
 0.36889623E+000
 0.48625925E+000
 0.43858444E+000
 0.36392943E+000
 0.36849430E+000
 0.46107650E+000
 0.34679532E+000
 0.42225215E+000
 0.37358995E+000
 0.36886500E+000
 0.43871220E+000
 0.36840743E+000
 0.35976962E+000
 0.35914869E+000
 0.42205250E+000
 0.34032380E+000
 0.34029678E+000
 0.43396621E+000
 0.42241117E+000
 0.48658388E+000
 0.42351740E+000
 0.36243910E+000
 0.46129588E+000
 0.34650002E+000
 0.34754749E+000
 0.34179926E+000
 0.34182199E+000
 0.33108692E+000
 0.33448901E+000
 0.32982815E+000
 0.33277884E+000
 0.32874104E+000
 0.32922257E+000
 0.33075700E+000
 0.32939147E+000
 0.32931605E+000
 0.33344413E+000
 0.32901814E+000
 0.33221137E+000
 0.33193682E+000
 0.32980894E+000
 0.33146440E+000
 0.44639345E+000
 0.42725563E+000
 0.33630658E+000
 0.42904759E+000
 0.33372912E+000
 0.37940217E+000
 0.36271636E+000
 0.53151624E+000
 0.46436208E+000
 0.35286945E+000
 0.36754589E+000
 0.48078006E+000
 0.34090426E+000
 0.43178430E+000
 0.37919347E+000
 0.36270623E+000
 0.46424085E+000
 0.36738692E+000
 0.34507865E+000
 0.34486909E+000
 0.43174168E+000
 0.33370618E+000
 0.33356504E+000
 0.44626812E+000
 0.42727534E+000
 0.53067037E+000
 0.42905865E+000
 0.35079551E+000
 0.48091210E+000
 0.34074693E+000
 0.33606714E+000
 0.33164368E+000
 0.33350493E+000
 0.33186382E+000
 0.33196426E+000
 0.32896642E+000
 0.33417146E+000
 0.32598872E+000
 0.33245081E+000
 0.33299660E+000
 0.32773600E+000
 0.32840838E+000
 0.33628678E+000
 0.32606025E+000
 0.33311726E+000
 0.33135014E+000
 0.32961689E+000
 0.32572975E+000
 0.45960037E+000
 0.43137869E+000
 0.32907776E+000
 0.43613968E+000
 0.32857456E+000
 0.38828537E+000
 0.35865916E+000
 0.55260783E+000
 0.48604144E+000
 0.34017346E+000
 0.36890521E+000
 0.48960508E+000
 0.33378885E+000
 0.44065197E+000
 0.38824252E+000
 0.35862991E+000
 0.48592670E+000
 0.36884300E+000
 0.33405965E+000
 0.33403253E+000
 0.44062586E+000
 0.32937663E+000
 0.32955858E+000
 0.45947558E+000
 0.43146030E+000
 0.55035311E+000
 0.43600843E+000
 0.33818256E+000
 0.48975258E+000
 0.33356496E+000
 0.32922206E+000
 0.32562136E+000
 0.32866672E+000
 0.33128791E+000
 0.33146584E+000
 0.32834199E+000
 0.33365877E+000
 0.32569533E+000
 0.33505984E+000
 0.33598507E+000
 0.32681940E+000
 0.32687956E+000
 0.33655347E+000
 0.32598692E+000
 0.33259431E+000
 0.33122025E+000
 0.32834063E+000
 0.32877335E+000
 0.46339695E+000
 0.43083677E+000
 0.32959401E+000
 0.43791435E+000
 0.33007511E+000
 0.39147102E+000
 0.35507239E+000
 0.53040074E+000
 0.48719981E+000
 0.33379723E+000
 0.36571455E+000
 0.47760927E+000
 0.33087857E+000
 0.44073717E+000
 0.39142584E+000
 0.35502181E+000
 0.48714682E+000
 0.36566613E+000
 0.33351575E+000
 0.33287986E+000
 0.44084224E+000
 0.33035592E+000
 0.33047472E+000
 0.46315816E+000
 0.43091827E+000
 0.52841590E+000
 0.43789668E+000
 0.33229685E+000
 0.47759956E+000
 0.33135296E+000
 0.33071838E+000
 0.32768421E+000
 0.33021178E+000
 0.33041772E+000
 0.33330538E+000
 0.32860430E+000
 0.33526648E+000
 0.32752423E+000
 0.33484269E+000
 0.33671163E+000
 0.32678256E+000
 0.32701580E+000
 0.33588259E+000
 0.32763104E+000
 0.33244085E+000
 0.33248557E+000
 0.32885844E+000
 0.33233971E+000
 0.45670703E+000
 0.43069045E+000
 0.33157236E+000
 0.43542083E+000
 0.33156466E+000
 0.39125603E+000
 0.35428954E+000
 0.48593132E+000
 0.47243648E+000
 0.33137627E+000
 0.36698200E+000
 0.45117911E+000
 0.33001663E+000
 0.43416397E+000
 0.39116720E+000
 0.35428034E+000
 0.47223528E+000
 0.36702221E+000
 0.33642996E+000
 0.33613280E+000
 0.43422533E+000
 0.33095059E+000
 0.33131836E+000
 0.45651793E+000
 0.43067701E+000
 0.48515517E+000
 0.43539856E+000
 0.33105771E+000
 0.45117930E+000
 0.33056445E+000
 0.33250900E+000
 0.33150525E+000
 0.33174250E+000
 0.32947418E+000
 0.33228131E+000
 0.32853027E+000
 0.33573418E+000
 0.32841710E+000
 0.33097687E+000
 0.33226946E+000
 0.32743649E+000
 0.32656826E+000
 0.33643234E+000
 0.32801674E+000
 0.33260785E+000
 0.33104518E+000
 0.32824770E+000
 0.33336207E+000
 0.44114795E+000
 0.42948260E+000
 0.33205183E+000
 0.42657143E+000
 0.33142477E+000
 0.39159585E+000
 0.35965816E+000
 0.43713509E+000
 0.44596218E+000
 0.32985728E+000
 0.37256123E+000
 0.41805609E+000
 0.32942341E+000
 0.41909416E+000
 0.39132737E+000
 0.35966455E+000
 0.44620694E+000
 0.37261795E+000
 0.33304614E+000
 0.33319148E+000
 0.41906944E+000
 0.33018285E+000
 0.33041186E+000
 0.44156615E+000
 0.42954497E+000
 0.43829506E+000
 0.42642054E+000
 0.32945902E+000
 0.41789420E+000
 0.32924694E+000
 0.33253374E+000
 0.33281556E+000
 0.33145982E+000
 0.32826129E+000
 0.33142848E+000
 0.32747027E+000
 0.33319185E+000
 0.32812478E+000
 0.32891350E+000
 0.33054835E+000
 0.32738394E+000
 0.32736414E+000
 0.33269182E+000
 0.32810708E+000
 0.33105804E+000
 0.32911358E+000
 0.32786991E+000
 0.33122133E+000
 0.41939979E+000
 0.42217593E+000
 0.32961953E+000
 0.41147120E+000
 0.32921673E+000
 0.39216573E+000
 0.36912365E+000
 0.39657872E+000
 0.41399927E+000
 0.32759732E+000
 0.37792689E+000
 0.38900618E+000
 0.32754456E+000
 0.39961057E+000
 0.39199552E+000
 0.36897136E+000
 0.41453287E+000
 0.37801852E+000
 0.32788513E+000
 0.32829799E+000
 0.39954083E+000
 0.32790930E+000
 0.32840767E+000
 0.41981703E+000
 0.42228899E+000
 0.39728845E+000
 0.41120317E+000
 0.32681901E+000
 0.38893526E+000
 0.32743656E+000
 0.32991362E+000
 0.33069093E+000
 0.32900366E+000
 0.32737098E+000
 0.32946053E+000
 0.32727814E+000
 0.32995333E+000
 0.32770025E+000
 0.32583818E+000
 0.32763742E+000
 0.32724728E+000
 0.32702686E+000
 0.32852069E+000
 0.32807205E+000
 0.32798413E+000
 0.32733869E+000
 0.32822706E+000
 0.32960221E+000
 0.37751791E+000
 0.39167025E+000
 0.32757848E+000
 0.37579972E+000
 0.32731129E+000
 0.37817221E+000
 0.37118250E+000
 0.35134933E+000
 0.36880538E+000
 0.32443284E+000
 0.37078740E+000
 0.34915477E+000
 0.32586139E+000
 0.36212476E+000
 0.37789643E+000
 0.37181518E+000
 0.36800944E+000
 0.37053271E+000
 0.32544243E+000
 0.32553374E+000
 0.36185685E+000
 0.32616828E+000
 0.32657479E+000
 0.37742925E+000
 0.39132095E+000
 0.35145158E+000
 0.37559099E+000
 0.32380712E+000
 0.34916040E+000
 0.32550713E+000
 0.32749235E+000
 0.32933187E+000
 0.32704640E+000
 0.32606244E+000
 0.32742026E+000
 0.32669538E+000
 0.32636959E+000
 0.32732253E+000
 0.32207914E+000
 0.32367146E+000
 0.32714103E+000
 0.32665807E+000
 0.32840510E+000
 0.32686027E+000
 0.32570699E+000
 0.32540342E+000
 0.32749607E+000
 0.32525622E+000
 0.32643804E+000
 0.33174383E+000
 0.32382031E+000
 0.32808276E+000
 0.32491114E+000
 0.32791627E+000
 0.33357455E+000
 0.32074927E+000
 0.32223930E+000
 0.32011619E+000
 0.32897928E+000
 0.32122257E+000
 0.32229540E+000
 0.32320334E+000
 0.32813483E+000
 0.33227620E+000
 0.32422040E+000
 0.32932969E+000
 0.32057836E+000
 0.32035882E+000
 0.32416764E+000
 0.32348511E+000
 0.32343693E+000
 0.32653705E+000
 0.33193289E+000
 0.32052198E+000
 0.32819311E+000
 0.32055444E+000
 0.32147202E+000
 0.32258403E+000
 0.32346405E+000
 0.32475733E+000
 0.32490864E+000
 0.32557228E+000
 0.32479736E+000
 0.32647160E+000
 0.32242174E+000
 0.32614637E+000
 0.31861486E+000
 0.32007547E+000
 0.32692789E+000
 0.32620801E+000
 0.32399050E+000
 0.32617613E+000
 0.32496848E+000
 0.32554393E+000
 0.32681736E+000
 0.32038478E+000
 0.32067667E+000
 0.32012177E+000
 0.31941810E+000
 0.31961857E+000
 0.32072109E+000
 0.32043869E+000
 0.32059611E+000
 0.32027261E+000
 0.31940001E+000
 0.32087437E+000
 0.31879663E+000
 0.31830212E+000
 0.32086468E+000
 0.32035250E+000
 0.32086161E+000
 0.32009884E+000
 0.31926065E+000
 0.32079575E+000
 0.31872647E+000
 0.32071452E+000
 0.32040751E+000
 0.31930386E+000
 0.32026718E+000
 0.32071855E+000
 0.32045956E+000
 0.32018975E+000
 0.32051662E+000
 0.31927037E+000
 0.32088448E+000
 0.31700770E+000
 0.31633068E+000
 0.32096190E+000
 0.32104417E+000
 0.31727338E+000
 0.32094553E+000
 0.31892402E+000
 0.31991675E+000
 0.32032965E+000
 0.32086817E+000
 0.32113216E+000
 0.32165619E+000
 0.31981128E+000
 0.32192051E+000
 0.31797035E+000
 0.31704605E+000
 0.32215455E+000
 0.32225884E+000
 0.31806583E+000
 0.32208209E+000
 0.31992350E+000
 0.32120041E+000
 0.32155336E+000
 0.32192990E+000
 0.32365494E+000
 0.32414887E+000
 0.32250264E+000
 0.32453310E+000
 0.32088041E+000
 0.31998619E+000
 0.32445811E+000
 0.32449913E+000
 0.32070069E+000
 0.32459900E+000
 0.32252086E+000
 0.32370630E+000
 0.32412179E+000
 0.32438545E+000
 0.32722895E+000
 0.32696418E+000
 0.32715455E+000
 0.32699513E+000
 0.32601954E+000
 0.32527572E+000
 0.32692791E+000
 0.32676733E+000
 0.32489758E+000
 0.32674610E+000
 0.32612792E+000
 0.32682726E+000
 0.32717660E+000
 0.32681771E+000
 0.33026406E+000
 0.32935381E+000
 0.33041030E+000
 0.32853429E+000
 0.32963809E+000
 0.32982129E+000
 0.32784004E+000
 0.32812108E+000
 0.33012584E+000
 0.32820281E+000
 0.33049172E+000
 0.33009442E+000
 0.32923145E+000
 0.32843706E+000
 0.33352198E+000
 0.33184552E+000
 0.33605584E+000
 0.33068636E+000
 0.33931006E+000
 0.34168865E+000
 0.33008377E+000
 0.32963839E+000
 0.33856407E+000
 0.32964243E+000
 0.33423167E+000
 0.33331551E+000
 0.33169661E+000
 0.33039592E+000
 0.32964796E+000
 0.32802924E+000
 0.33277628E+000
 0.32821536E+000
 0.33360797E+000
 0.33448893E+000
 0.32776700E+000
 0.32677713E+000
 0.33373281E+000
 0.32797078E+000
 0.33154206E+000
 0.32989506E+000
 0.32816852E+000
 0.32817992E+000
 0.32299784E+000
 0.32254070E+000
 0.32465628E+000
 0.32294350E+000
 0.32510427E+000
 0.32363417E+000
 0.32272977E+000
 0.32208292E+000
 0.32495701E+000
 0.32260823E+000
 0.32478328E+000
 0.32294952E+000
 0.32258941E+000
 0.32296132E+000
 0.32308254E+000
 0.32280262E+000
 0.32453172E+000
 0.32302763E+000
 0.32576773E+000
 0.32523732E+000
 0.32297314E+000
 0.32241931E+000
 0.32603200E+000
 0.32313904E+000
 0.32543710E+000
 0.32325805E+000
 0.32266583E+000
 0.32345033E+000
 0.32478591E+000
 0.32442920E+000
 0.32678353E+000
 0.32493583E+000
 0.32880099E+000
 0.32984456E+000
 0.32475924E+000
 0.32404552E+000
 0.32893022E+000
 0.32516131E+000
 0.32704723E+000
 0.32502505E+000
 0.32460989E+000
 0.32524984E+000
 0.32550002E+000
 0.32493746E+000
 0.32715157E+000
 0.32550726E+000
 0.32748320E+000
 0.32769706E+000
 0.32550061E+000
 0.32471099E+000
 0.32824121E+000
 0.32535499E+000
 0.32747937E+000
 0.32547208E+000
 0.32500112E+000
 0.32544697E+000
 0.32537298E+000
 0.32480016E+000
 0.32648179E+000
 0.32501193E+000
 0.32556585E+000
 0.32505777E+000
 0.32494619E+000
 0.32472659E+000
 0.32562863E+000
 0.32515089E+000
 0.32566782E+000
 0.32521756E+000
 0.32482162E+000
 0.32496241E+000
 0.32431661E+000
 0.32403201E+000
 0.32426959E+000
 0.32430550E+000
 0.32311213E+000
 0.32263351E+000
 0.32444311E+000
 0.32422798E+000
 0.32280597E+000
 0.32451864E+000
 0.32334411E+000
 0.32388025E+000
 0.32406657E+000
 0.32435579E+000
 0.33269308E+000
 0.33290536E+000
 0.34031952E+000
 0.32934020E+000
 0.32508632E+000
 0.34054249E+000
 0.32492794E+000
 0.32887286E+000
 0.33986802E+000
 0.33499040E+000
 0.33951243E+000
 0.32416399E+000
 0.32723343E+000
 0.33352520E+000
 0.32319582E+000
 0.32605884E+000
 0.34030819E+000
 0.32908950E+000
 0.34025205E+000
 0.32395665E+000
 0.32861276E+000
 0.32305041E+000
 0.32499274E+000
 0.33264671E+000
 0.33268978E+000
 0.32487985E+000
 0.32477342E+000
 0.32470434E+000
 0.32332240E+000
 0.32467963E+000
 0.32089367E+000
 0.32064752E+000
 0.32439490E+000
 0.32438787E+000
 0.32147803E+000
 0.32422220E+000
 0.32365176E+000
 0.32439917E+000
 0.32468487E+000
 0.32436428E+000
 0.32065237E+000
 0.31963908E+000
 0.31990570E+000
 0.32057284E+000
 0.32123181E+000
 0.32040589E+000
 0.31931480E+000
 0.32001472E+000
 0.31950198E+000
 0.31965527E+000
 0.32142403E+000
 0.31927613E+000
 0.31909717E+000
 0.32059326E+000
 0.32352838E+000
 0.32066451E+000
 0.31943022E+000
 0.31940754E+000
 0.32051427E+000
 0.31888317E+000
 0.31959976E+000
 0.32079566E+000
 0.31964189E+000
 0.32123517E+000
 0.32050014E+000
 0.32153394E+000
 0.31941760E+000
 0.32078447E+000
 0.31934876E+000
 0.31972242E+000
 0.31954134E+000
 0.31975702E+000
 0.32006240E+000
 0.32653827E+000
 0.32081781E+000
 0.32159382E+000
 0.32003278E+000
 0.31970112E+000
 0.31968613E+000
 0.31891489E+000
 0.31968622E+000
 0.31902608E+000
 0.32023890E+000
 0.31905459E+000
 0.32029629E+000
 0.32157950E+000
 0.32015457E+000
 0.31840233E+000
 0.32263520E+000
 0.32149505E+000
 0.32291070E+000
 0.32186434E+000
 0.31952032E+000
 0.31951020E+000
 0.32076238E+000
 0.32225370E+000
 0.32199348E+000
 0.32540965E+000
 0.32175352E+000
 0.31984874E+000
 0.31967003E+000
 0.32008146E+000
 0.31941512E+000
 0.32630695E+000
 0.31933722E+000
 0.33047241E+000
 0.32098836E+000
 0.32096612E+000
 0.32004656E+000
 0.32431939E+000
 0.32131047E+000
 0.31956732E+000
 0.31987381E+000
 0.31888568E+000
 0.32174139E+000
 0.31987975E+000
 0.31972061E+000
 0.31974752E+000
 0.32426130E+000
 0.32050813E+000
 0.32090463E+000
 0.32529648E+000
 0.32055805E+000
 0.31972705E+000
 0.31954321E+000
 0.32220500E+000
 0.32101673E+000
 0.31965533E+000
 0.31943156E+000
 0.31968813E+000
 0.31957634E+000
 0.32379256E+000
 0.31999599E+000
 0.31962998E+000
 0.32156892E+000
 0.31917698E+000
 0.31995720E+000
 0.32142815E+000
 0.31991760E+000
 0.32216661E+000
 0.32021238E+000
 0.31939024E+000
 0.32042421E+000
 0.31995122E+000
 0.31958052E+000
 0.32398204E+000
 0.32036976E+000
 0.32382987E+000
 0.32491775E+000
 0.31964223E+000
 0.31959504E+000
 0.32081878E+000
 0.31961804E+000
 0.31910927E+000
 0.32377674E+000
 0.31912669E+000
 0.31915872E+000
 0.32345285E+000
 0.32190274E+000
 0.31940861E+000
 0.32005266E+000
 0.32098080E+000
 0.31639024E+000
 0.32466434E+000
 0.32040294E+000
 0.31967914E+000
 0.32162319E+000
 0.32467804E+000
 0.32007724E+000
 0.31989125E+000
 0.32310267E+000
 0.32202640E+000
 0.32074555E+000
 0.31949876E+000
 0.32261730E+000
 0.31922684E+000
 0.31972333E+000
 0.32055663E+000
 0.31934555E+000
 0.32059268E+000
 0.32463331E+000
 0.31944969E+000
 0.32095930E+000
 0.32062444E+000
 0.32573951E+000
 0.31391709E+000
 0.31969070E+000
 0.31924141E+000
 0.32256362E+000
 0.31919579E+000
 0.32471221E+000
 0.32333356E+000
 0.32051013E+000
 0.32159344E+000
 0.31989979E+000
 0.32040439E+000
 0.32586944E+000
 0.32047041E+000
 0.32813984E+000
 0.32010579E+000
 0.32023794E+000
 0.31942980E+000
 0.31938048E+000
 0.32628193E+000
 0.32008205E+000
 0.31910946E+000
 0.32120486E+000
 0.31944585E+000
 0.31955146E+000
 0.31974479E+000
 0.32484418E+000
 0.32082833E+000
 0.32002583E+000
 0.31932007E+000
 0.31197990E+000
 0.31987707E+000
 0.32484660E+000
 0.32058762E+000
 0.31998566E+000
 0.32299229E+000
 0.31989920E+000
 0.32004280E+000
 0.32641410E+000
 0.32066302E+000
 0.32025975E+000
 0.32586118E+000
 0.32222357E+000
 0.32635130E+000
 0.31899024E+000
 0.31900720E+000
 0.31944220E+000
 0.32407719E+000
 0.31938932E+000
 0.31908763E+000
 0.32095470E+000
 0.31932227E+000
 0.31939008E+000
 0.31987912E+000
 0.32042840E+000
 0.32292258E+000
 0.32031245E+000
 0.31897100E+000
 0.32304646E+000
 0.31924141E+000
 0.32001500E+000
 0.32005369E+000
 0.32032375E+000
 0.31990818E+000
 0.31933612E+000
 0.32007001E+000
 0.32003841E+000
 0.31987831E+000
 0.33505072E+000
 0.31961040E+000
 0.32697974E+000
 0.31963593E+000
 0.31953376E+000
 0.32577191E+000
 0.32086444E+000
 0.32747978E+000
 0.31957258E+000
 0.31979880E+000
 0.32064035E+000
 0.31924581E+000
 0.32437660E+000
 0.33362559E+000
 0.31982605E+000
 0.32860999E+000
 0.31933248E+000
 0.31928615E+000
 0.32656220E+000
 0.32283596E+000
 0.31893469E+000
 0.31947611E+000
 0.33009024E+000
 0.32431874E+000
 0.31972713E+000
 0.32443901E+000
 0.32476336E+000
 0.31931445E+000
 0.32246754E+000
 0.31965680E+000
 0.32791838E+000
 0.32571153E+000
 0.32360386E+000
 0.32197524E+000
 0.32140340E+000
 0.32622862E+000
 0.31918996E+000
 0.33321128E+000
 0.31923588E+000
 0.33123080E+000
 0.31986232E+000
 0.32094433E+000
 0.31920861E+000
 0.31936186E+000
 0.31892350E+000
 0.32452588E+000
 0.31947049E+000
 0.32286452E+000
 0.32894071E+000
 0.31940014E+000
 0.32396356E+000
 0.31923506E+000
 0.32587373E+000
 0.32160991E+000
 0.32513885E+000
 0.32011737E+000
 0.31941616E+000
 0.31993856E+000
 0.31983278E+000
 0.33074606E+000
 0.31966949E+000
 0.31930372E+000
 0.31986737E+000
 0.31954603E+000
 0.32502050E+000
 0.32000113E+000
 0.31969440E+000
 0.31964472E+000
 0.32480390E+000
 0.32285764E+000
 0.31905186E+000
 0.32425045E+000
 0.31910458E+000
 0.32434924E+000
 0.32019020E+000
 0.32513697E+000
 0.32748229E+000
 0.31893884E+000
 0.32006025E+000
 0.32105120E+000
 0.31945430E+000
 0.32001574E+000
 0.31926422E+000
 0.32694344E+000
 0.31966636E+000
 0.31658032E+000
 0.32322216E+000
 0.31955841E+000
 0.32012410E+000
 0.31977053E+000
 0.32036890E+000
 0.31960140E+000
 0.31940326E+000
 0.31932803E+000
 0.31990489E+000
 0.31906883E+000
 0.32054063E+000
 0.31935252E+000
 0.31869915E+000
 0.32209397E+000
 0.33267793E+000
 0.32566080E+000
 0.32060544E+000
 0.32062561E+000
 0.32917212E+000
 0.32222305E+000
 0.33168640E+000
 0.32709935E+000
 0.31942327E+000
 0.32670092E+000
 0.31623534E+000
 0.32475056E+000
 0.32025091E+000
 0.32101212E+000
 0.31849458E+000
 0.32143090E+000
 0.32948262E+000
 0.32057237E+000
 0.32663302E+000
 0.33100619E+000
 0.32015477E+000
 0.32432895E+000
 0.32868398E+000
 0.32514009E+000
 0.31927424E+000
 0.31951500E+000
 0.32294047E+000
 0.32038709E+000
 0.31927901E+000
 0.32865766E+000
 0.31926122E+000
 0.31260332E+000
 0.32389594E+000
 0.31326522E+000
 0.32081613E+000
 0.32164956E+000
 0.31957481E+000
 0.32066428E+000
 0.32523948E+000
 0.31948472E+000
 0.31961151E+000
 0.32000996E+000
 0.31967022E+000
 0.32343017E+000
 0.31965328E+000
 0.31900347E+000
 0.32300181E+000
 0.31998133E+000
 0.31967694E+000
 0.32971969E+000
 0.31257361E+000
 0.32438168E+000
 0.31951348E+000
 0.32014384E+000
 0.32209785E+000
 0.32433762E+000
 0.32850505E+000
 0.32173282E+000
 0.32417035E+000
 0.32882000E+000
 0.32014384E+000
 0.32468500E+000
 0.32467916E+000
 0.32588327E+000
 0.32109546E+000
 0.33113958E+000
 0.32701365E+000
 0.31926279E+000
 0.32522661E+000
 0.32003926E+000
 0.31981376E+000
 0.31940200E+000
 0.31969040E+000
 0.31968990E+000
 0.32085471E+000
 0.32322911E+000
 0.32050531E+000
 0.32006294E+000
 0.31936877E+000
 0.32855818E+000
 0.31973024E+000
 0.31974033E+000
 0.32080902E+000
 0.31959211E+000
 0.31929570E+000
 0.32932081E+000
 0.31959352E+000
 0.31899300E+000
 0.32066395E+000
 0.31958501E+000
 0.31989254E+000
 0.32404997E+000
 0.32149620E+000
 0.32076963E+000
 0.32137103E+000
 0.32217960E+000
 0.32878897E+000
 0.33128679E+000
 0.31977101E+000
 0.32027860E+000
 0.32115781E+000
 0.32955602E+000
 0.32717317E+000
 0.31958002E+000
 0.31974929E+000
 0.32617736E+000
 0.32150147E+000
 0.31967723E+000
 0.32001639E+000
 0.32206439E+000
 0.31909987E+000
 0.32813129E+000
 0.32455160E+000
 0.32515267E+000
 0.31926402E+000
 0.32052394E+000
 0.31937448E+000
 0.32316919E+000
 0.32032762E+000
 0.31868025E+000
 0.32011799E+000
 0.32173718E+000
 0.31932627E+000
 0.31949346E+000
 0.31904417E+000
 0.31963193E+000
 0.32022540E+000
 0.31931607E+000
 0.32611070E+000
 0.32639538E+000
 0.31743867E+000
 0.32001777E+000
 0.32027215E+000
 0.31939271E+000
 0.32362061E+000
 0.31921046E+000
 0.32160843E+000
 0.32926204E+000
 0.31945869E+000
 0.31987252E+000
 0.32233973E+000
 0.31934336E+000
 0.32967220E+000
 0.32614773E+000
 0.32537128E+000
 0.32950494E+000
 0.32062328E+000
 0.31918965E+000
 0.32167860E+000
 0.31892714E+000
 0.32200495E+000
 0.31950393E+000
 0.33740046E+000
 0.31971472E+000
 0.31932994E+000
 0.32918870E+000
 0.31907616E+000
 0.31802044E+000
 0.32129096E+000
 0.31915213E+000
 0.32260580E+000
 0.32477041E+000
 0.31972167E+000
 0.32815361E+000
 0.32029221E+000
 0.32013616E+000
 0.32937118E+000
 0.31969581E+000
 0.31801319E+000
 0.31961035E+000
 0.32056126E+000
 0.32022875E+000
 0.31879537E+000
 0.32260833E+000
 0.32884565E+000
 0.32214336E+000
 0.32448427E+000
 0.31985778E+000
 0.31941779E+000
 0.32354776E+000
 0.32154796E+000
 0.32735582E+000
 0.32322931E+000
 0.31940486E+000
 0.31949113E+000
 0.33286520E+000
 0.32044655E+000
 0.32570420E+000
 0.32622633E+000
 0.32182565E+000
 0.31922094E+000
 0.32019413E+000
 0.32037818E+000
 0.32000726E+000
 0.31922430E+000
 0.31951789E+000
 0.31914754E+000
 0.33041199E+000
 0.31917835E+000
 0.31922160E+000
 0.32703342E+000
 0.32624956E+000
 0.31997136E+000
 0.31796396E+000
 0.32002370E+000
 0.31911840E+000
 0.32105813E+000
 0.32159239E+000
 0.32630845E+000
 0.32859507E+000
 0.31897768E+000
 0.32109970E+000
 0.32014219E+000
 0.31964233E+000
 0.32011451E+000
 0.32778122E+000
 0.32184604E+000
 0.33498518E+000
 0.32819441E+000
 0.32124002E+000
 0.31900646E+000
 0.32308049E+000
 0.32845306E+000
 0.32227348E+000
 0.31959327E+000
 0.32010094E+000
 0.31995815E+000
 0.32127577E+000
 0.31947886E+000
 0.31993147E+000
 0.32073471E+000
 0.32667835E+000
 0.32251519E+000
 0.33126527E+000
 0.32287630E+000
 0.31917930E+000
 0.31946090E+000
 0.32163624E+000
 0.32218851E+000
 0.32031239E+000
 0.31943478E+000
 0.31984772E+000
 0.32595515E+000
 0.32110562E+000
 0.31930533E+000
 0.31941010E+000
 0.31925807E+000
 0.32283129E+000
 0.31964955E+000
 0.31811470E+000
 0.32927107E+000
 0.31906881E+000
 0.32204838E+000
 0.31914865E+000
 0.31968069E+000
 0.31924160E+000
 0.33530150E+000
 0.31938192E+000
 0.31936586E+000
 0.32230247E+000
 0.32299912E+000
 0.31905457E+000
 0.31929811E+000
 0.31954568E+000
 0.32018489E+000
 0.32615932E+000
 0.32488755E+000
 0.31984619E+000
 0.32061694E+000
 0.32358802E+000
 0.32528751E+000
 0.32795659E+000
 0.32550942E+000
 0.31954269E+000
 0.31972231E+000
 0.32835100E+000
 0.32038819E+000
 0.33531343E+000
 0.31504781E+000
 0.31967014E+000
 0.31948709E+000
 0.32011557E+000
 0.32007365E+000
 0.32300766E+000
 0.31997263E+000
 0.32119663E+000
 0.32211541E+000
 0.32305153E+000
 0.32421426E+000
 0.32857321E+000
 0.32828813E+000
 0.31954254E+000
 0.32009972E+000
 0.32573754E+000
 0.32125848E+000
 0.32158634E+000
 0.32033125E+000
 0.31939515E+000
 0.32003284E+000
 0.31955694E+000
 0.31945531E+000
 0.32007097E+000
 0.32383168E+000
 0.31976937E+000
 0.31950673E+000
 0.31915687E+000
 0.31982334E+000
 0.31991012E+000
 0.31959102E+000
 0.31987697E+000
 0.32452580E+000
 0.31430737E+000
 0.32425696E+000
 0.32394039E+000
 0.31951959E+000
 0.31943303E+000
 0.32122883E+000
 0.32197677E+000
 0.32252192E+000
 0.32826153E+000
 0.32907398E+000
 0.31944930E+000
 0.31947205E+000
 0.32022552E+000
 0.31954001E+000
 0.31919920E+000
 0.32186204E+000
 0.32227390E+000
 0.32090989E+000
 0.31881214E+000
 0.32361083E+000
 0.33872581E+000
 0.31914570E+000
 0.32915818E+000
 0.32718576E+000
 0.32093414E+000
 0.32142032E+000
 0.32859929E+000
 0.31953545E+000
 0.31988384E+000
 0.32032325E+000
 0.31931523E+000
 0.32296493E+000
 0.32029531E+000
 0.32260539E+000
 0.31965406E+000
 0.32194755E+000
 0.31966777E+000
 0.32515647E+000
 0.32039355E+000
 0.31950076E+000
 0.32420022E+000
 0.32405324E+000
 0.32135095E+000
 0.31803830E+000
 0.32050276E+000
 0.32454147E+000
 0.31270453E+000
 0.32510193E+000
 0.32526051E+000
 0.32126596E+000
 0.32058294E+000
 0.32035433E+000
 0.32257151E+000
 0.32042461E+000
 0.31954798E+000
 0.32536361E+000
 0.31935607E+000
 0.32104087E+000
 0.33312377E+000
 0.32352056E+000
 0.32543123E+000
 0.31940254E+000
 0.32523558E+000
 0.31967050E+000
 0.32029024E+000
 0.31966768E+000
 0.32875681E+000
 0.31879505E+000
 0.33105656E+000
 0.32226196E+000
 0.32023900E+000
 0.32303724E+000
 0.31932498E+000
 0.31955802E+000
 0.32262536E+000
 0.32376880E+000
 0.31949638E+000
 0.31918092E+000
 0.32051047E+000
 0.31929200E+000
 0.33404549E+000
 0.31937824E+000
 0.31609426E+000
 0.33116690E+000
 0.31957778E+000
 0.31925781E+000
 0.32453036E+000
 0.32534542E+000
 0.31893707E+000
 0.32753613E+000
 0.32820851E+000
 0.32054867E+000
 0.31900373E+000
 0.31917507E+000
 0.31980773E+000
 0.33095844E+000
 0.32812124E+000
 0.31943690E+000
 0.32045120E+000
 0.31881401E+000
 0.32102134E+000
 0.31934061E+000
 0.32857833E+000
 0.32457247E+000
 0.32236523E+000
 0.31920177E+000
 0.32220420E+000
 0.32182316E+000
 0.31946188E+000
 0.31930255E+000
 0.31900125E+000
 0.32004167E+000
 0.31971146E+000
 0.32056019E+000
 0.32007161E+000
 0.31967858E+000
 0.31926553E+000
 0.32365522E+000
 0.32112862E+000
 0.32107459E+000
 0.31882094E+000
 0.32180343E+000
 0.31968047E+000
 0.32707594E+000
 0.31903133E+000
 0.32557802E+000
 0.31952925E+000
 0.32198333E+000
 0.32046215E+000
 0.31925754E+000
 0.31987614E+000
 0.32028399E+000
 0.32807051E+000
 0.32122878E+000
 0.32080016E+000
 0.32048192E+000
 0.32040794E+000
 0.33250315E+000
 0.32339378E+000
 0.31844873E+000
 0.32137679E+000
 0.31934198E+000
 0.31898145E+000
 0.32250210E+000
 0.32037472E+000
 0.32669273E+000
 0.31948542E+000
 0.32026382E+000
 0.31893933E+000
 0.33091500E+000
 0.31957334E+000
 0.33259824E+000
 0.32190507E+000
 0.31986182E+000
 0.32149811E+000
 0.32075953E+000
 0.32792971E+000
 0.31929215E+000
 0.31508777E+000
 0.32576054E+000
 0.31913018E+000
 0.32033440E+000
 0.32250046E+000
 0.32058264E+000
 0.31930755E+000
 0.31998335E+000
 0.32262279E+000
 0.33033773E+000
 0.32032047E+000
 0.32321941E+000
 0.32372909E+000
 0.31916143E+000
 0.31871519E+000
 0.32328490E+000
 0.32034184E+000
 0.32365055E+000
 0.33287355E+000
 0.31995485E+000
 0.31906994E+000
 0.32582631E+000
 0.32469049E+000
 0.32618326E+000
 0.31941581E+000
 0.33064760E+000
 0.31968231E+000
 0.31819119E+000
 0.31927969E+000
 0.31866613E+000
 0.32160477E+000
 0.32049172E+000
 0.32848839E+000
 0.31981695E+000
 0.31929111E+000
 0.31612400E+000
 0.31949614E+000
 0.31009860E+000
 0.32025359E+000
 0.31975733E+000
 0.32139766E+000
 0.32077746E+000
 0.32421341E+000
 0.32836822E+000
 0.32009157E+000
 0.32391428E+000
 0.32114233E+000
 0.32327947E+000
 0.31951461E+000
 0.32475338E+000
 0.31923166E+000
 0.33197495E+000
 0.31980440E+000
 0.32307562E+000
 0.31991045E+000
 0.31907285E+000
 0.31933243E+000
 0.31918407E+000
 0.32060854E+000
 0.31970606E+000
 0.31930470E+000
 0.32082660E+000
 0.32106802E+000
 0.31960421E+000
 0.31933115E+000
 0.32121730E+000
 0.32160115E+000
 0.31984430E+000
 0.32287990E+000
 0.32012957E+000
 0.32016907E+000
 0.31917949E+000
 0.32018974E+000
 0.31980585E+000
 0.32348837E+000
 0.32000465E+000
 0.32186983E+000
 0.31784720E+000
 0.32005586E+000
 0.32411291E+000
 0.32742884E+000
 0.31939990E+000
 0.31631341E+000
 0.31981093E+000
 0.32226034E+000
 0.32021623E+000
 0.32010652E+000
 0.32003145E+000
 0.32011002E+000
 0.31956492E+000
 0.31973551E+000
 0.32824367E+000
 0.32386246E+000
 0.31916711E+000
 0.31974962E+000
 0.32229320E+000
 0.32498039E+000
 0.31988815E+000
 0.32000761E+000
 0.31947076E+000
 0.31915980E+000
 0.31895041E+000
 0.32148702E+000
 0.33119207E+000
 0.32444906E+000
 0.31965023E+000
 0.32129995E+000
 0.32035804E+000
 0.33132268E+000
 0.31973026E+000
 0.32386890E+000
 0.31721483E+000
 0.32260181E+000
 0.31998303E+000
 0.33001772E+000
 0.32070190E+000
 0.32493675E+000
 0.31928852E+000
 0.31952902E+000
 0.31963591E+000
 0.33086722E+000
 0.32006851E+000
 0.31914064E+000
 0.31924324E+000
 0.31989676E+000
 0.32419464E+000
 0.31957116E+000
 0.32000011E+000
 0.32863698E+000
 0.32589516E+000
 0.31922847E+000
 0.32152768E+000
 0.31935701E+000
 0.31937362E+000
 0.31919101E+000
 0.32339187E+000
 0.31928403E+000
 0.33734463E+000
 0.31950269E+000
 0.32676783E+000
 0.32006876E+000
 0.31928038E+000
 0.31915690E+000
 0.31989692E+000
 0.31937995E+000
 0.32033775E+000
 0.32138930E+000
 0.32060264E+000
 0.31991809E+000
 0.32049135E+000
 0.31959656E+000
 0.32119253E+000
 0.32329363E+000
 0.32513043E+000
 0.31938919E+000
 0.31985454E+000
 0.32655123E+000
 0.32022339E+000
 0.32219380E+000
 0.32226041E+000
 0.31910924E+000
 0.31946469E+000
 0.32010587E+000
 0.33316486E+000
 0.32187959E+000
 0.32029059E+000
 0.31967098E+000
 0.31990175E+000
 0.32197192E+000
 0.32188551E+000
 0.31920907E+000
 0.32212026E+000
 0.32566228E+000
 0.31968236E+000
 0.31949341E+000
 0.32127728E+000
 0.31935034E+000
 0.32381792E+000
 0.31962047E+000
 0.32095941E+000
 0.31944401E+000
 0.31902547E+000
 0.32780556E+000
 0.31953763E+000
 0.31779050E+000
 0.32243337E+000
 0.31891057E+000
 0.31952099E+000
 0.31994080E+000
 0.32832003E+000
 0.32197938E+000
 0.31995926E+000
 0.31938569E+000
 0.31969729E+000
 0.32341945E+000
 0.31918717E+000
 0.32269194E+000
 0.32018711E+000
 0.31980707E+000
 0.31960427E+000
 0.31988057E+000
 0.31900343E+000
 0.32032397E+000
 0.31933497E+000
 0.31972852E+000
 0.31953997E+000
 0.31994411E+000
 0.31944196E+000
 0.32090175E+000
 0.32544981E+000
 0.32670037E+000
 0.31973205E+000
 0.32010906E+000
 0.31919073E+000
 0.32175788E+000
 0.32009932E+000
 0.32502908E+000
 0.32262984E+000
 0.32387026E+000
 0.31921544E+000
 0.32187232E+000
 0.31964075E+000
 0.32712871E+000
 0.32337873E+000
 0.31956132E+000
 0.32487167E+000
 0.32730376E+000
 0.32063177E+000
 0.32310444E+000
 0.31936602E+000
 0.32025524E+000
 0.32135099E+000
 0.31984798E+000
 0.32041815E+000
 0.31922352E+000
 0.32256474E+000
 0.31978290E+000
 0.31915490E+000
 0.31947962E+000
 0.31950789E+000
 0.32594630E+000
 0.32587394E+000
 0.31996640E+000
 0.32358454E+000
 0.31981972E+000
 0.32598159E+000
 0.31969241E+000
 0.31952485E+000
 0.31939487E+000
 0.32392386E+000
 0.32114759E+000
 0.32154062E+000
 0.32150940E+000
 0.32116245E+000
 0.31932336E+000
 0.31943884E+000
 0.32401670E+000
 0.32473236E+000
 0.31922032E+000
 0.32355028E+000
 0.32055789E+000
 0.32027460E+000
 0.31932645E+000
 0.31937728E+000
 0.32305008E+000
 0.31929170E+000
 0.32355444E+000
 0.31936254E+000
 0.32223155E+000
 0.31975883E+000
 0.31951219E+000
 0.31933175E+000
 0.31932034E+000
 0.31960968E+000
 0.31949213E+000
 0.31944469E+000
 0.31968351E+000
 0.31957038E+000
 0.31949366E+000
