{
    "authors": [
        "eduardo.perez@bsc.es"
    ],
    "comparisons": [
        {
            "file": "fluid.ensi.CON03-000002",
            "method": "absolute",
            "tolerance": "1.0e-8"
        },
        {
            "file": "fluid.ensi.DENSI-000002",
            "method": "absolute",
            "tolerance": "1.0e-6"
        },
        {
            "file": "fluid.ensi.DRHOD-000002",
            "method": "absolute",
            "tolerance": "1.0e-3"
        },
        {
            "file": "fluid.ensi.VELOC-000002",
            "method": "absolute",
            "tolerance": "1.0e-5"
        },
        {
            "file": "react.ensi.Y01-000002",
            "method": "absolute",
            "tolerance": "1.0e-8"
        },
        {
            "file": "react.ensi.Y02-000002",
            "method": "absolute",
            "tolerance": "1.0e-8"
        },
        {
            "file": "react.ensi.Y03-000002",
            "method": "absolute",
            "tolerance": "1.0e-8"
        },
        {
            "file": "react.ensi.Y04-000002",
            "method": "absolute",
            "tolerance": "1.0e-8"
        },
        {
            "file": "react.ensi.TEMUN-000002",
            "method": "absolute",
            "tolerance": "1.0e-3"
        },
        {
            "file": "react.ensi.VISCO-000002",
            "method": "absolute",
            "tolerance": "1.0e-8"
        },
        {
            "file": "react.ensi.AU01-000002",
            "method": "absolute",
            "tolerance": "1.0e-8"
        },
        {
            "file": "react.ensi.AU02-000002",
            "method": "absolute",
            "tolerance": "1.0e-8"
        },
        {
            "file": "react.ensi.AU03-000002",
            "method": "absolute",
            "tolerance": "1.0e-8"
        },
        {
            "file": "react.ensi.AU04-000002",
            "method": "absolute",
            "tolerance": "1.0e-8"
        },
        {
            "file": "react.ensi.AVTUN-000002",
            "method": "absolute",
            "tolerance": "1.0e-3"
        },
        {
            "file": "react.ensi.02_07-000002",
            "method": "absolute",
            "tolerance": "1.0e-8"
        },
        {
            "file": "react.ensi.04_07-000002",
            "method": "absolute",
            "tolerance": "1.0e-8"
        },
        {
            "file": "react.ensi.T_07-000002",
            "method": "absolute",
            "tolerance": "1.0e-3"
        },
        {
            "file": "react.ensi.A0207-000002",
            "method": "absolute",
            "tolerance": "1.0e-8"
        },
        {
            "file": "react.ensi.A0407-000002",
            "method": "absolute",
            "tolerance": "1.0e-8"
        },
        {
            "file": "react.ensi.ATC07-000002",
            "method": "absolute",
            "tolerance": "1.0e-3"
        }
    ],
    "description": "1D diffusion-convection problem with no chemistry by solving species CMC model transport equations. Nastin-Chemic and Chemic coupled by two instances of Alya that run on two different meshes. Trasnfer of information is done through conditional values. The PDF is not included in the CMC equations. Averages are computed. Only some species and mixture fractions are postprocessed. Critical time step is not computed. All the fields (conditional and unconditional) are filtered and smoothed with the Gauss points.",
    "enabled": true,
    "executions": [
        {
"commands": {
                "alya": "[RUN] [NP] 3 [ALYA] fluid [SEP] [NP] 3 [ALYA] react",
                "postprocess": "[POST] fluid; [POST] react"
            },
            "mpi": 6,
            "openmp": 0
        }
    ],
    "include": [
        "cantera"
    ],
    "modules": [
        "chemic",
        "nastin"
    ],
    "name": "CMC_1D_inert_no_enthalpy_coupling_2meshes_cond",
    "postprocess": "alya2pos",
    "timeout": "00:02:00"
}
