{
    "authors": [
        "alfonso.santiago@bsc.es"
    ],
    "comparisons": [
        {
            "file": "resid_time.ensi.TEMPE-000001",
            "method": "absolute",
            "tolerance": "1.0e-6"
        }
    ],
    "description": "Residence time calculation with extenal field",
    "enabled": true,
    "exclude": [
        "special"
    ],
    "executions": [
        {
            "mpi": 1,
            "openmp": 0
        },
        {
            "mpi": 3,
            "openmp": 0
        }
    ],
    "modules": [
        "temper"
    ],
    "name": "resid_time",
    "postprocess": "alya2pos",
    "timeout": "00:01:00"
}
