 0.65000000E+000  0.00000000E+000
 0.70844675E+000  0.66278141E+000
 0.70844675E+000 -0.66278141E+000
 0.65000000E+000  0.00000000E+000
 0.65000010E+000  0.00000000E+000
 0.64999976E+000  0.00000000E+000
 0.65000046E+000  0.00000000E+000
 0.64999931E+000  0.00000000E+000
 0.65000102E+000  0.00000000E+000
 0.64999906E+000  0.00000000E+000
 0.65000016E+000  0.00000000E+000
 0.65000298E+000  0.00000000E+000
 0.64998977E+000  0.00000000E+000
 0.65002571E+000  0.00000000E+000
 0.64994616E+000  0.00000000E+000
 0.65010171E+000  0.00000000E+000
 0.64982463E+000  0.00000000E+000
 0.65028123E+000  0.00000000E+000
 0.64957900E+000  0.00000000E+000
 0.65058864E+000  0.00000000E+000
 0.64921449E+000  0.00000000E+000
 0.65096185E+000  0.00000000E+000
 0.64872812E+000  0.00000000E+000
 0.65139455E+000  0.00000000E+000
 0.64930514E+000  0.00000000E+000
 0.66536652E+000  0.00000000E+000
 0.73391652E+000  0.00000000E+000
 0.91938628E+000  0.00000000E+000
 0.11290897E+001  0.00000000E+000
 0.13215006E+001  0.00000000E+000
 0.14355532E+001  0.00000000E+000
 0.14976184E+001  0.00000000E+000
 0.15131924E+001  0.00000000E+000
 0.15048387E+001  0.00000000E+000
 0.14893237E+001  0.00000000E+000
 0.14724497E+001  0.00000000E+000
 0.14519783E+001  0.00000000E+000
 0.14309858E+001  0.00000000E+000
 0.14113822E+001  0.00000000E+000
 0.13938565E+001  0.00000000E+000
 0.13788888E+001  0.00000000E+000
 0.13666417E+001  0.00000000E+000
 0.13571409E+001  0.00000000E+000
 0.13499963E+001  0.00000000E+000
 0.13448178E+001  0.00000000E+000
 0.13413125E+001  0.00000000E+000
 0.13390146E+001  0.00000000E+000
 0.13375837E+001  0.00000000E+000
 0.13366907E+001  0.00000000E+000
 0.13366452E+001  0.00000000E+000
 0.13358118E+001  0.00000000E+000
 0.13421545E+001  0.00000000E+000
 0.13464615E+001  0.00000000E+000
 0.13464615E+001  0.00000000E+000
 0.13421545E+001  0.00000000E+000
 0.13358118E+001  0.00000000E+000
 0.13366452E+001  0.00000000E+000
 0.13366907E+001  0.00000000E+000
 0.13375837E+001  0.00000000E+000
 0.13390146E+001  0.00000000E+000
 0.13413125E+001  0.00000000E+000
 0.13448178E+001  0.00000000E+000
 0.13499963E+001  0.00000000E+000
 0.13571409E+001  0.00000000E+000
 0.13666417E+001  0.00000000E+000
 0.13788888E+001  0.00000000E+000
 0.13938565E+001  0.00000000E+000
 0.14113822E+001  0.00000000E+000
 0.14309858E+001  0.00000000E+000
 0.14519784E+001  0.00000000E+000
 0.14724494E+001  0.00000000E+000
 0.14893244E+001  0.00000000E+000
 0.15048344E+001  0.00000000E+000
 0.15132186E+001  0.00000000E+000
 0.14975775E+001  0.00000000E+000
 0.14359392E+001  0.00000000E+000
 0.13216236E+001  0.00000000E+000
 0.11323202E+001  0.00000000E+000
 0.91954880E+000  0.00000000E+000
 0.73841788E+000  0.00000000E+000
 0.66400009E+000  0.00000000E+000
 0.65244014E+000  0.00000000E+000
 0.65026196E+000  0.00000000E+000
 0.64970808E+000  0.00000000E+000
 0.65057546E+000  0.00000000E+000
 0.64942781E+000  0.00000000E+000
 0.65050365E+000  0.00000000E+000
 0.64961634E+000  0.00000000E+000
 0.65026692E+000  0.00000000E+000
 0.64983010E+000  0.00000000E+000
 0.65009974E+000  0.00000000E+000
 0.64994685E+000  0.00000000E+000
 0.65002547E+000  0.00000000E+000
 0.64998985E+000  0.00000000E+000
 0.65000295E+000  0.00000000E+000
 0.65000016E+000  0.00000000E+000
 0.64999906E+000  0.00000000E+000
 0.65000102E+000  0.00000000E+000
 0.64999931E+000  0.00000000E+000
 0.65000046E+000  0.00000000E+000
 0.64999976E+000  0.00000000E+000
 0.65000010E+000  0.00000000E+000
