GiD Post Results File 1.0
 
Result TEMPE ALYA  0.10000000E+00 Scalar OnNodes
ComponentNames TEMPE
Values
          1  0.32000000E+001
          2  0.34000000E+001
          3  0.36000000E+001
          4  0.38000000E+001
          5  0.30000000E+001
          6  0.40000000E+001
          7  0.35000000E+001
          8  0.33000000E+001
          9  0.31000000E+001
         10  0.29000000E+001
         11  0.27000000E+001
         12  0.37000000E+001
         13  0.32000000E+001
         14  0.30000000E+001
         15  0.28000000E+001
         16  0.26000000E+001
         17  0.24000000E+001
         18  0.34000000E+001
         19  0.29000000E+001
         20  0.27000000E+001
         21  0.25000000E+001
         22  0.23000000E+001
         23  0.21000000E+001
         24  0.31000000E+001
         25  0.26000000E+001
         26  0.24000000E+001
         27  0.22000000E+001
         28  0.20000000E+001
         29  0.18000000E+001
         30  0.28000000E+001
         31  0.23000000E+001
         32  0.21000000E+001
         33  0.19000000E+001
         34  0.17000000E+001
         35  0.15000000E+001
         36  0.25000000E+001
         37  0.22000000E+001
         38  0.19000000E+001
         39  0.16000000E+001
         40  0.13000000E+001
         41  0.10000000E+001
         42  0.20000000E+001
         43  0.18000000E+001
         44  0.16000000E+001
         45  0.14000000E+001
         46  0.17000000E+001
         47  0.14000000E+001
         48  0.11000000E+001
         49  0.12000000E+001
         50  0.80000000E+000
         51  0.15000000E+001
         52  0.13000000E+001
         53  0.11000000E+001
         54  0.12000000E+001
         55  0.90000000E+000
         56  0.90000000E+000
         57  0.60000000E+000
         58  0.10000000E+001
         59  0.80000000E+000
         60  0.70000000E+000
         61  0.60000000E+000
         62  0.40000000E+000
         63  0.50000000E+000
         64  0.30000000E+000
         65  0.20000000E+000
         66  0.00000000E+000
End values

