GiD Post Results File 1.0
 
Result TEMPE ALYA  0.10000000E+00 Scalar OnNodes
ComponentNames TEMPE
Values
          1  0.42000000E+001
          2  0.44000000E+001
          3  0.46000000E+001
          4  0.48000000E+001
          5  0.40000000E+001
          6  0.50000000E+001
          7  0.45000000E+001
          8  0.43000000E+001
          9  0.41000000E+001
         10  0.39000000E+001
         11  0.37000000E+001
         12  0.47000000E+001
         13  0.42000000E+001
         14  0.40000000E+001
         15  0.38000000E+001
         16  0.36000000E+001
         17  0.34000000E+001
         18  0.44000000E+001
         19  0.39000000E+001
         20  0.37000000E+001
         21  0.35000000E+001
         22  0.33000000E+001
         23  0.31000000E+001
         24  0.41000000E+001
         25  0.36000000E+001
         26  0.34000000E+001
         27  0.32000000E+001
         28  0.30000000E+001
         29  0.28000000E+001
         30  0.38000000E+001
         31  0.33000000E+001
         32  0.31000000E+001
         33  0.29000000E+001
         34  0.27000000E+001
         35  0.25000000E+001
         36  0.35000000E+001
         37  0.32000000E+001
         38  0.29000000E+001
         39  0.26000000E+001
         40  0.23000000E+001
         41  0.20000000E+001
         42  0.30000000E+001
         43  0.28000000E+001
         44  0.26000000E+001
         45  0.24000000E+001
         46  0.27000000E+001
         47  0.24000000E+001
         48  0.21000000E+001
         49  0.22000000E+001
         50  0.18000000E+001
         51  0.25000000E+001
         52  0.23000000E+001
         53  0.21000000E+001
         54  0.22000000E+001
         55  0.19000000E+001
         56  0.19000000E+001
         57  0.16000000E+001
         58  0.20000000E+001
         59  0.18000000E+001
         60  0.17000000E+001
         61  0.16000000E+001
         62  0.14000000E+001
         63  0.15000000E+001
         64  0.13000000E+001
         65  0.12000000E+001
         66  0.10000000E+001
End values

