 0.00000000E+000
 0.10000000E+001
 0.10000000E+001
 0.00000000E+000
 0.00000000E+000
 0.10000000E+001
 0.10000000E+001
 0.00000000E+000
 0.95761186E-001
 0.59822600E+000
 0.10000000E+001
 0.10000000E+001
 0.10000000E+001
 0.10000000E+001
 0.10000000E+001
 0.10000000E+001
 0.10000000E+001
 0.10000000E+001
 0.10000000E+001
 0.10000000E+001
 0.10000000E+001
 0.10000000E+001
 0.10000000E+001
 0.10000000E+001
 0.10000000E+001
 0.10000000E+001
 0.60008633E+000
 0.95778068E-001
 0.00000000E+000
 0.00000000E+000
 0.95758402E-001
 0.59861269E+000
 0.10000000E+001
 0.10000000E+001
 0.10000000E+001
 0.10000000E+001
 0.10000000E+001
 0.10000000E+001
 0.10000000E+001
 0.10000000E+001
 0.10000000E+001
 0.10000000E+001
 0.10000000E+001
 0.10000000E+001
 0.10000000E+001
 0.10000000E+001
 0.10000000E+001
 0.10000000E+001
 0.59957398E+000
 0.95770876E-001
 0.00000000E+000
 0.00000000E+000
 0.00000000E+000
 0.00000000E+000
 0.10000000E+001
 0.10000000E+001
 0.10000000E+001
 0.10000000E+001
 0.00000000E+000
 0.00000000E+000
 0.87124467E-001
 0.87127676E-001
 0.53471703E+000
 0.53614362E+000
 0.10000000E+001
 0.10000000E+001
 0.10000000E+001
 0.10000000E+001
 0.99999999E+000
 0.99999999E+000
 0.10000000E+001
 0.10000000E+001
 0.10000000E+001
 0.10000000E+001
 0.10000000E+001
 0.10000000E+001
 0.10000000E+001
 0.10000000E+001
 0.87093242E-001
 0.87091822E-001
 0.53479451E+000
 0.53545988E+000
 0.10000000E+001
 0.10000000E+001
 0.10000000E+001
 0.10000000E+001
 0.10000000E+001
 0.10000000E+001
 0.10000000E+001
 0.10000000E+001
 0.10000000E+001
 0.10000000E+001
 0.10000000E+001
 0.10000000E+001
 0.10000000E+001
 0.10000000E+001
 0.87114543E-001
 0.87099336E-001
 0.53419752E+000
 0.53441462E+000
 0.10000000E+001
 0.10000000E+001
 0.10000000E+001
 0.10000000E+001
 0.99999999E+000
 0.99999999E+000
 0.10000000E+001
 0.10000000E+001
 0.10000000E+001
 0.10000000E+001
 0.10000000E+001
 0.10000000E+001
 0.10000000E+001
 0.10000000E+001
 0.10000000E+001
 0.10000000E+001
 0.10000000E+001
 0.10000000E+001
 0.10000000E+001
 0.10000000E+001
 0.10000000E+001
 0.10000000E+001
 0.10000000E+001
 0.10000000E+001
 0.10000000E+001
 0.10000000E+001
 0.10000000E+001
 0.10000000E+001
 0.10000000E+001
 0.10000000E+001
 0.10000000E+001
 0.10000000E+001
 0.53642326E+000
 0.53584838E+000
 0.87112759E-001
 0.87091490E-001
 0.00000000E+000
 0.00000000E+000
 0.00000000E+000
 0.00000000E+000
 0.77560053E-001
 0.77520661E-001
 0.77568011E-001
 0.77515428E-001
 0.45410741E+000
 0.45404851E+000
 0.45550416E+000
 0.45486064E+000
 0.10000000E+001
 0.10000000E+001
 0.10000000E+001
 0.10000000E+001
 0.99999996E+000
 0.99999996E+000
 0.99999996E+000
 0.99999996E+000
 0.99999671E+000
 0.99999672E+000
 0.99999675E+000
 0.99999679E+000
 0.99999871E+000
 0.99999871E+000
 0.99999873E+000
 0.99999873E+000
 0.99999981E+000
 0.99999981E+000
 0.99999981E+000
 0.99999981E+000
 0.10000000E+001
 0.10000000E+001
 0.10000000E+001
 0.10000000E+001
 0.10000000E+001
 0.10000000E+001
 0.10000000E+001
 0.10000000E+001
