GiD Post Results File 1.0
 
Result VELOC ALYA  0.14218587E+02 Vector OnNodes
ComponentNames VELOC_X,VELOC_Y,VELOC_Z
Values
          1  0.00000000E+000  0.00000000E+000
          2  0.00000000E+000  0.00000000E+000
          3  0.00000000E+000  0.00000000E+000
          4  0.00000000E+000  0.00000000E+000
          5  0.00000000E+000  0.00000000E+000
          6  0.00000000E+000  0.00000000E+000
          7  0.00000000E+000  0.00000000E+000
          8  0.00000000E+000  0.00000000E+000
          9  0.00000000E+000  0.00000000E+000
         10  0.44999999E+000 -0.99950094E-014
         11  0.79999999E+000 -0.17211936E-013
         12  0.10500000E+001 -0.14311792E-013
         13  0.12000000E+001  0.96468461E-014
         14  0.12500000E+001  0.23470724E-013
         15  0.12000000E+001 -0.39399708E-014
         16  0.10500000E+001 -0.18501855E-013
         17  0.79999999E+000 -0.11493316E-013
         18  0.44999999E+000 -0.10598745E-013
         19  0.00000000E+000  0.00000000E+000
         20  0.00000000E+000  0.00000000E+000
         21  0.00000000E+000  0.00000000E+000
         22  0.44999999E+000 -0.97527587E-014
         23  0.44999999E+000 -0.10765824E-013
         24  0.44999999E+000 -0.55284869E-014
         25  0.44999999E+000  0.68502148E-013
         26  0.44999999E+000  0.21982780E-012
         27  0.44999999E+000  0.56784607E-013
         28  0.44999999E+000 -0.93671070E-014
         29  0.44999999E+000 -0.12056965E-013
         30  0.44999999E+000 -0.10739415E-013
         31  0.79999999E+000 -0.13064851E-013
         32  0.10500000E+001 -0.70474540E-014
         33  0.12000000E+001  0.45883200E-014
         34  0.12500000E+001 -0.31097116E-013
         35  0.12000000E+001 -0.54801998E-013
         36  0.10500000E+001 -0.29241692E-013
         37  0.79999999E+000 -0.18692217E-013
         38  0.44999999E+000 -0.11631244E-013
         39  0.44999999E+000 -0.99950094E-014
         40  0.00000000E+000  0.00000000E+000
         41  0.79999999E+000 -0.79054452E-014
         42  0.79999999E+000  0.99171141E-014
         43  0.79999999E+000  0.55311312E-013
         44  0.79999999E+000  0.67543978E-013
         45  0.79999999E+000  0.41909170E-013
         46  0.79999999E+000 -0.35674643E-014
         47  0.79999999E+000 -0.18416637E-013
         48  0.79999999E+000 -0.20063103E-013
         49  0.10500000E+001 -0.25643644E-014
         50  0.12000000E+001 -0.97860045E-014
         51  0.12500000E+001 -0.24512755E-013
         52  0.12000000E+001 -0.35533345E-013
         53  0.10500000E+001 -0.34592200E-013
         54  0.79999999E+000 -0.23715408E-013
         55  0.44999999E+000 -0.12890841E-013
         56  0.79999999E+000 -0.17211936E-013
         57  0.00000000E+000  0.00000000E+000
         58  0.10500000E+001  0.10331312E-013
         59  0.10500000E+001  0.25959977E-013
         60  0.10500000E+001  0.27838468E-013
         61  0.10500000E+001  0.14341021E-013
         62  0.10500000E+001 -0.41614525E-014
         63  0.10500000E+001 -0.22729515E-013
         64  0.10500000E+001 -0.27550159E-013
         65  0.12000000E+001 -0.16872241E-014
         66  0.12500000E+001 -0.16652791E-013
         67  0.12000000E+001 -0.27513641E-013
         68  0.10500000E+001 -0.29632035E-013
         69  0.79999999E+000 -0.24148260E-013
         70  0.44999999E+000 -0.13256132E-013
         71  0.10500000E+001 -0.14311792E-013
         72  0.00000000E+000  0.00000000E+000
         73  0.12000000E+001  0.80362428E-014
         74  0.12000000E+001  0.11482589E-013
         75  0.12000000E+001  0.34769075E-014
         76  0.12000000E+001 -0.59562526E-014
         77  0.12000000E+001 -0.12473553E-013
         78  0.12000000E+001 -0.11608799E-013
         79  0.12500000E+001 -0.11153905E-013
         80  0.12000000E+001 -0.23584399E-013
         81  0.10500000E+001 -0.27987351E-013
         82  0.79999999E+000 -0.23875576E-013
         83  0.44999999E+000 -0.13307524E-013
         84  0.12000000E+001  0.96468461E-014
         85  0.00000000E+000  0.00000000E+000
         86  0.12500000E+001 -0.10108760E-013
         87  0.12500000E+001 -0.12693303E-013
         88  0.12500000E+001 -0.16886645E-013
         89  0.12500000E+001 -0.17052688E-013
         90  0.12500000E+001 -0.42368984E-013
         91  0.12000000E+001 -0.24206338E-013
         92  0.10500000E+001 -0.30062757E-013
         93  0.79999999E+000 -0.25670674E-013
         94  0.44999999E+000 -0.13622647E-013
         95  0.12500000E+001  0.23470724E-013
         96  0.00000000E+000  0.00000000E+000
         97  0.12000000E+001 -0.29235358E-013
         98  0.12000000E+001 -0.37516474E-013
         99  0.12000000E+001 -0.51756493E-013
        100  0.12000000E+001 -0.74769067E-013
        101  0.10500000E+001 -0.35907873E-013
        102  0.79999999E+000 -0.29158926E-013
        103  0.44999999E+000 -0.14590913E-013
        104  0.12000000E+001 -0.39399708E-014
        105  0.00000000E+000  0.00000000E+000
        106  0.10500000E+001 -0.44712861E-013
        107  0.10500000E+001 -0.55227871E-013
        108  0.10500000E+001 -0.41331635E-013
        109  0.79999999E+000 -0.33010523E-013
        110  0.44999999E+000 -0.15406659E-013
        111  0.10500000E+001 -0.18501855E-013
        112  0.00000000E+000  0.00000000E+000
        113  0.79999999E+000 -0.31260800E-013
        114  0.79999999E+000 -0.20315042E-013
        115  0.44999999E+000 -0.14387961E-013
        116  0.79999999E+000 -0.11493316E-013
        117  0.00000000E+000  0.00000000E+000
        118  0.44999999E+000 -0.11662194E-013
        119  0.44999999E+000 -0.10598745E-013
        120  0.00000000E+000  0.00000000E+000
        121  0.00000000E+000  0.00000000E+000
End values

Result PRESS ALYA  0.14218587E+02 Scalar OnNodes
ComponentNames PRESS
Values
          1  0.28094428E-011
          2  0.28035016E-011
          3  0.28546896E-011
          4  0.28076290E-011
          5  0.60058830E-012
          6  0.29924094E-011
          7  0.30360996E-011
          8  0.29130904E-011
          9  0.28583288E-011
         10  0.27467017E-011
         11  0.25058808E-011
         12  0.20949200E-011
         13  0.15908982E-011
         14  0.13494985E-011
         15  0.47473884E-012
         16 -0.13579948E-012
         17 -0.45861109E-012
         18 -0.73835481E-012
         19  0.28350216E-011
         20  0.28350216E-011
         21 -0.84458373E-012
         22  0.27718717E-011
         23  0.28000070E-011
         24  0.28945623E-011
         25  0.27663841E-011
         26  0.27930427E-011
         27  0.26050592E-011
         28  0.27349963E-011
         29  0.27014370E-011
         30  0.27193801E-011
         31  0.25220081E-011
         32  0.21272932E-011
         33  0.16612252E-011
         34  0.11776106E-011
         35  0.47911480E-012
         36 -0.45677829E-013
         37 -0.45016179E-012
         38 -0.73077709E-012
         39  0.27467017E-011
         40 -0.83114771E-012
         41  0.25455338E-011
         42  0.25432513E-011
         43  0.25380969E-011
         44  0.25178029E-011
         45  0.24690201E-011
         46  0.24324076E-011
         47  0.24587669E-011
         48  0.24830888E-011
         49  0.21475487E-011
         50  0.16577485E-011
         51  0.10916503E-011
         52  0.52395776E-012
         53 -0.12937530E-013
         54 -0.43597236E-012
         55 -0.71461904E-012
         56  0.25058808E-011
         57 -0.81484718E-012
         58  0.21479853E-011
         59  0.21004562E-011
         60  0.20309527E-011
         61  0.20540675E-011
         62  0.20715217E-011
         63  0.20721500E-011
         64  0.20822307E-011
         65  0.16433124E-011
         66  0.10916206E-011
         67  0.51975205E-012
         68 -0.13935419E-014
         69 -0.42455253E-012
         70 -0.70318103E-012
         71  0.20949200E-011
         72 -0.80031147E-012
         73  0.16344862E-011
         74  0.16205140E-011
         75  0.15944846E-011
         76  0.15951842E-011
         77  0.15609681E-011
         78  0.14674971E-011
         79  0.10797323E-011
         80  0.51668038E-012
         81 -0.13430544E-014
         82 -0.42173456E-012
         83 -0.69721573E-012
         84  0.15908982E-011
         85 -0.79497925E-012
         86  0.10678897E-011
         87  0.10628804E-011
         88  0.10700934E-011
         89  0.10826647E-011
         90  0.12012356E-011
         91  0.51016829E-012
         92 -0.37372533E-014
         93 -0.42635284E-012
         94 -0.69920732E-012
         95  0.13494985E-011
         96 -0.78967771E-012
         97  0.51064127E-012
         98  0.51404885E-012
         99  0.56705049E-012
        100  0.63028616E-012
        101 -0.11650221E-013
        102 -0.43342745E-012
        103 -0.70656926E-012
        104  0.47473884E-012
        105 -0.79354521E-012
        106 -0.10725510E-013
        107 -0.95335190E-014
        108 -0.45679961E-013
        109 -0.43816058E-012
        110 -0.71294694E-012
        111 -0.13579948E-012
        112 -0.80448520E-012
        113 -0.44648007E-012
        114 -0.46070431E-012
        115 -0.72503579E-012
        116 -0.45861109E-012
        117 -0.82076545E-012
        118 -0.73634087E-012
        119 -0.73835481E-012
        120 -0.83840760E-012
        121 -0.84458373E-012
End values

