  NODES_PER_ELEMENT
   1 6
   2 6
   3 6
   4 6
   5 6
   6 6
   7 6
   8 6
   9 6
   10 6
   11 6
   12 6
   13 6
   14 6
   15 6
   16 6
   17 6
   18 6
   19 6
   20 6
   21 6
   22 6
   23 6
   24 6
   25 6
   26 6
   27 6
   28 6
   29 6
   30 6
   31 6
   32 6
   33 6
   34 6
   35 6
   36 6
   37 6
   38 6
   39 6
   40 6
   41 6
   42 6
   43 6
   44 6
   45 6
   46 6
   47 6
   48 6
   49 6
   50 6
   51 6
   52 6
   53 6
   54 6
   55 6
   56 6
   57 6
   58 6
   59 6
   60 6
   61 6
   62 6
   63 6
   64 6
   65 6
   66 6
   67 6
   68 6
   69 6
   70 6
   71 6
   72 6
   73 6
   74 6
   75 6
   76 6
   77 6
   78 6
   79 6
   80 6
   81 6
   82 6
   83 6
   84 6
   85 6
   86 6
   87 6
   88 6
   89 6
   90 6
   91 6
   92 6
   93 6
   94 6
   95 6
   96 6
   97 6
   98 6
   99 6
   100 6
  END_NODES_PER_ELEMENT
  ELEMENTS
  1 176 139 166 157 154 170  
  2 116 139 176 129 157 145  
  3 110 139 116 122 129 112  
  4 166 139 110 154 122 136  
  5 190 152 176 175 160 181  
  6 135 152 190 142 175 162  
  7 116 152 135 133 142 125  
  8 176 152 116 160 133 145  
  9 204 179 190 193 182 196  
  10 168 179 204 174 193 191  
  11 135 179 168 158 174 149  
  12 190 179 135 182 158 162  
  13 217 201 204 209 203 211  
  14 197 201 217 199 209 207  
  15 168 201 197 188 199 185  
  16 204 201 168 203 188 191  
  17 221 213 217 218 214 219  
  18 216 213 221 215 218 220  
  19 197 213 216 206 215 208  
  20 217 213 197 214 206 207  
  21 116 86 110 101 97 112  
  22 69 86 116 78 101 93  
  23 63 86 69 74 78 67  
  24 110 86 63 97 74 84  
  25 135 99 116 118 108 125  
  26 91 99 135 95 118 113  
  27 69 99 91 82 95 80  
  28 116 99 69 108 82 93  
  29 168 126 135 147 131 149  
  30 119 126 168 121 147 144  
  31 91 126 119 107 121 103  
  32 135 126 91 131 107 113  
  33 197 163 168 184 165 185  
  34 169 163 197 164 184 186  
  35 119 163 169 141 164 146  
  36 168 163 119 165 141 144  
  37 216 200 197 210 198 208  
  38 205 200 216 202 210 212  
  39 169 200 205 187 202 192  
  40 197 200 169 198 187 186  
  41 69 48 63 57 53 67  
  42 37 48 69 40 57 52  
  43 29 48 37 38 40 32  
  44 63 48 29 53 38 44  
  45 91 61 69 76 64 80  
  46 55 61 91 56 76 72  
  47 37 61 55 49 56 46  
  48 69 61 37 64 49 52  
  49 119 87 91 102 89 103  
  50 90 87 119 88 102 104  
  51 55 87 90 70 88 71  
  52 91 87 55 89 70 72  
  53 169 127 119 148 123 146  
  54 134 127 169 130 148 150  
  55 90 127 134 106 130 114  
  56 119 127 90 123 106 104  
  57 205 178 169 194 172 192  
  58 189 178 205 183 194 195  
  59 134 178 189 155 183 161  
  60 169 178 134 172 155 150  
  61 37 21 29 28 24 32  
  62 15 21 37 17 28 26  
  63 9 21 15 14 17 12  
  64 29 21 9 24 14 18  
  65 55 33 37 42 34 46  
  66 36 33 55 35 42 43  
  67 15 33 36 23 35 25  
  68 37 33 15 34 23 26  
  69 90 60 55 75 58 71  
  70 68 60 90 65 75 79  
  71 36 60 68 50 65 51  
  72 55 60 36 58 50 43  
  73 134 98 90 117 94 114  
  74 115 98 134 105 117 124  
  75 68 98 115 81 105 92  
  76 90 98 68 94 81 79  
  77 189 151 134 173 140 161  
  78 177 151 189 159 173 180  
  79 115 151 177 132 159 143  
  80 134 151 115 140 132 124  
  81 15 5 9 10 7 12  
  82 8 5 15 6 10 11  
  83 1 5 8 2 6 3  
  84 9 5 1 7 2 4  
  85 36 20 15 27 16 25  
  86 30 20 36 22 27 31  
  87 8 20 30 13 22 19  
  88 15 20 8 16 13 11  
  89 68 47 36 59 41 51  
  90 62 47 68 54 59 66  
  91 30 47 62 39 54 45  
  92 36 47 30 41 39 31  
  93 115 85 68 100 77 92  
  94 109 85 115 96 100 111  
  95 62 85 109 73 96 83  
  96 68 85 62 77 73 66  
  97 177 138 115 156 128 143  
  98 167 138 177 153 156 171  
  99 109 138 167 120 153 137  
  100 115 138 109 128 120 111  
  END_ELEMENTS  
  COORDINATES  
   1   0.000000e+00  1.000000e+00   
   2   5.000000e-02  9.500000e-01   
   3   1.000000e-01  1.000000e+00   
   4   0.000000e+00  9.000000e-01   
   5   1.000000e-01  9.000000e-01   
   6   1.500000e-01  9.500000e-01   
   7   5.000000e-02  8.500000e-01   
   8   2.000000e-01  1.000000e+00   
   9   0.000000e+00  8.000000e-01   
   10   1.500000e-01  8.500000e-01   
   11   2.000000e-01  9.000000e-01   
   12   1.000000e-01  8.000000e-01   
   13   2.500000e-01  9.500000e-01   
   14   5.000000e-02  7.500000e-01   
   15   2.000000e-01  8.000000e-01   
   16   2.500000e-01  8.500000e-01   
   17   1.500000e-01  7.500000e-01   
   18   0.000000e+00  7.000000e-01   
   19   3.000000e-01  1.000000e+00   
   20   3.000000e-01  9.000000e-01   
   21   1.000000e-01  7.000000e-01   
   22   3.500000e-01  9.500000e-01   
   23   2.500000e-01  7.500000e-01   
   24   5.000000e-02  6.500000e-01   
   25   3.000000e-01  8.000000e-01   
   26   2.000000e-01  7.000000e-01   
   27   3.500000e-01  8.500000e-01   
   28   1.500000e-01  6.500000e-01   
   29   0.000000e+00  6.000000e-01   
   30   4.000000e-01  1.000000e+00   
   31   4.000000e-01  9.000000e-01   
   32   1.000000e-01  6.000000e-01   
   33   3.000000e-01  7.000000e-01   
   34   2.500000e-01  6.500000e-01   
   35   3.500000e-01  7.500000e-01   
   36   4.000000e-01  8.000000e-01   
   37   2.000000e-01  6.000000e-01   
   38   5.000000e-02  5.500000e-01   
   39   4.500000e-01  9.500000e-01   
   40   1.500000e-01  5.500000e-01   
   41   4.500000e-01  8.500000e-01   
   42   3.500000e-01  6.500000e-01   
   43   4.000000e-01  7.000000e-01   
   44   0.000000e+00  5.000000e-01   
   45   5.000000e-01  1.000000e+00   
   46   3.000000e-01  6.000000e-01   
   47   5.000000e-01  9.000000e-01   
   48   1.000000e-01  5.000000e-01   
   49   2.500000e-01  5.500000e-01   
   50   4.500000e-01  7.500000e-01   
   51   5.000000e-01  8.000000e-01   
   52   2.000000e-01  5.000000e-01   
   53   5.000000e-02  4.500000e-01   
   54   5.500000e-01  9.500000e-01   
   55   4.000000e-01  6.000000e-01   
   56   3.500000e-01  5.500000e-01   
   57   1.500000e-01  4.500000e-01   
   58   4.500000e-01  6.500000e-01   
   59   5.500000e-01  8.500000e-01   
   60   5.000000e-01  7.000000e-01   
   61   3.000000e-01  5.000000e-01   
   62   6.000000e-01  1.000000e+00   
   63   0.000000e+00  4.000000e-01   
   64   2.500000e-01  4.500000e-01   
   65   5.500000e-01  7.500000e-01   
   66   6.000000e-01  9.000000e-01   
   67   1.000000e-01  4.000000e-01   
   68   6.000000e-01  8.000000e-01   
   69   2.000000e-01  4.000000e-01   
   70   4.500000e-01  5.500000e-01   
   71   5.000000e-01  6.000000e-01   
   72   4.000000e-01  5.000000e-01   
   73   6.500000e-01  9.500000e-01   
   74   5.000000e-02  3.500000e-01   
   75   5.500000e-01  6.500000e-01   
   76   3.500000e-01  4.500000e-01   
   77   6.500000e-01  8.500000e-01   
   78   1.500000e-01  3.500000e-01   
   79   6.000000e-01  7.000000e-01   
   80   3.000000e-01  4.000000e-01   
   81   6.500000e-01  7.500000e-01   
   82   2.500000e-01  3.500000e-01   
   83   7.000000e-01  1.000000e+00   
   84   0.000000e+00  3.000000e-01   
   85   7.000000e-01  9.000000e-01   
   86   1.000000e-01  3.000000e-01   
   87   5.000000e-01  5.000000e-01   
   88   5.500000e-01  5.500000e-01   
   89   4.500000e-01  4.500000e-01   
   90   6.000000e-01  6.000000e-01   
   91   4.000000e-01  4.000000e-01   
   92   7.000000e-01  8.000000e-01   
   93   2.000000e-01  3.000000e-01   
   94   6.500000e-01  6.500000e-01   
   95   3.500000e-01  3.500000e-01   
   96   7.500000e-01  9.500000e-01   
   97   5.000000e-02  2.500000e-01   
   98   7.000000e-01  7.000000e-01   
   99   3.000000e-01  3.000000e-01   
   100   7.500000e-01  8.500000e-01   
   101   1.500000e-01  2.500000e-01   
   102   5.500000e-01  4.500000e-01   
   103   5.000000e-01  4.000000e-01   
   104   6.000000e-01  5.000000e-01   
   105   7.500000e-01  7.500000e-01   
   106   6.500000e-01  5.500000e-01   
   107   4.500000e-01  3.500000e-01   
   108   2.500000e-01  2.500000e-01   
   109   8.000000e-01  1.000000e+00   
   110   0.000000e+00  2.000000e-01   
   111   8.000000e-01  9.000000e-01   
   112   1.000000e-01  2.000000e-01   
   113   4.000000e-01  3.000000e-01   
   114   7.000000e-01  6.000000e-01   
   115   8.000000e-01  8.000000e-01   
   116   2.000000e-01  2.000000e-01   
   117   7.500000e-01  6.500000e-01   
   118   3.500000e-01  2.500000e-01   
   119   6.000000e-01  4.000000e-01   
   120   8.500000e-01  9.500000e-01   
   121   5.500000e-01  3.500000e-01   
   122   5.000000e-02  1.500000e-01   
   123   6.500000e-01  4.500000e-01   
   124   8.000000e-01  7.000000e-01   
   125   3.000000e-01  2.000000e-01   
   126   5.000000e-01  3.000000e-01   
   127   7.000000e-01  5.000000e-01   
   128   8.500000e-01  8.500000e-01   
   129   1.500000e-01  1.500000e-01   
   130   7.500000e-01  5.500000e-01   
   131   4.500000e-01  2.500000e-01   
   132   8.500000e-01  7.500000e-01   
   133   2.500000e-01  1.500000e-01   
   134   8.000000e-01  6.000000e-01   
   135   4.000000e-01  2.000000e-01   
   136   0.000000e+00  1.000000e-01   
   137   9.000000e-01  1.000000e+00   
   138   9.000000e-01  9.000000e-01   
   139   1.000000e-01  1.000000e-01   
   140   8.500000e-01  6.500000e-01   
   141   6.500000e-01  3.500000e-01   
   142   3.500000e-01  1.500000e-01   
   143   9.000000e-01  8.000000e-01   
   144   6.000000e-01  3.000000e-01   
   145   2.000000e-01  1.000000e-01   
   146   7.000000e-01  4.000000e-01   
   147   5.500000e-01  2.500000e-01   
   148   7.500000e-01  4.500000e-01   
   149   5.000000e-01  2.000000e-01   
   150   8.000000e-01  5.000000e-01   
   151   9.000000e-01  7.000000e-01   
   152   3.000000e-01  1.000000e-01   
   153   9.500000e-01  9.500000e-01   
   154   5.000000e-02  5.000000e-02   
   155   8.500000e-01  5.500000e-01   
   156   9.500000e-01  8.500000e-01   
   157   1.500000e-01  5.000000e-02   
   158   4.500000e-01  1.500000e-01   
   159   9.500000e-01  7.500000e-01   
   160   2.500000e-01  5.000000e-02   
   161   9.000000e-01  6.000000e-01   
   162   4.000000e-01  1.000000e-01   
   163   7.000000e-01  3.000000e-01   
   164   7.500000e-01  3.500000e-01   
   165   6.500000e-01  2.500000e-01   
   166   0.000000e+00  0.000000e+00   
   167   1.000000e+00  1.000000e+00   
   168   6.000000e-01  2.000000e-01   
   169   8.000000e-01  4.000000e-01   
   170   1.000000e-01  0.000000e+00   
   171   1.000000e+00  9.000000e-01   
   172   8.500000e-01  4.500000e-01   
   173   9.500000e-01  6.500000e-01   
   174   5.500000e-01  1.500000e-01   
   175   3.500000e-01  5.000000e-02   
   176   2.000000e-01  0.000000e+00   
   177   1.000000e+00  8.000000e-01   
   178   9.000000e-01  5.000000e-01   
   179   5.000000e-01  1.000000e-01   
   180   1.000000e+00  7.000000e-01   
   181   3.000000e-01  0.000000e+00   
   182   4.500000e-01  5.000000e-02   
   183   9.500000e-01  5.500000e-01   
   184   7.500000e-01  2.500000e-01   
   185   7.000000e-01  2.000000e-01   
   186   8.000000e-01  3.000000e-01   
   187   8.500000e-01  3.500000e-01   
   188   6.500000e-01  1.500000e-01   
   189   1.000000e+00  6.000000e-01   
   190   4.000000e-01  0.000000e+00   
   191   6.000000e-01  1.000000e-01   
   192   9.000000e-01  4.000000e-01   
   193   5.500000e-01  5.000000e-02   
   194   9.500000e-01  4.500000e-01   
   195   1.000000e+00  5.000000e-01   
   196   5.000000e-01  0.000000e+00   
   197   8.000000e-01  2.000000e-01   
   198   8.500000e-01  2.500000e-01   
   199   7.500000e-01  1.500000e-01   
   200   9.000000e-01  3.000000e-01   
   201   7.000000e-01  1.000000e-01   
   202   9.500000e-01  3.500000e-01   
   203   6.500000e-01  5.000000e-02   
   204   6.000000e-01  0.000000e+00   
   205   1.000000e+00  4.000000e-01   
   206   8.500000e-01  1.500000e-01   
   207   8.000000e-01  1.000000e-01   
   208   9.000000e-01  2.000000e-01   
   209   7.500000e-01  5.000000e-02   
   210   9.500000e-01  2.500000e-01   
   211   7.000000e-01  0.000000e+00   
   212   1.000000e+00  3.000000e-01   
   213   9.000000e-01  1.000000e-01   
   214   8.500000e-01  5.000000e-02   
   215   9.500000e-01  1.500000e-01   
   216   1.000000e+00  2.000000e-01   
   217   8.000000e-01  0.000000e+00   
   218   9.500000e-01  5.000000e-02   
   219   9.000000e-01  0.000000e+00   
   220   1.000000e+00  1.000000e-01   
   221   1.000000e+00  0.000000e+00   
  END_COORDINATES
  BOUNDARIES, ELEMENT
1  166 176 170   1 
2  110 166 136   4 
3  176 190 181   5 
4  190 204 196   9 
5  204 217 211   13 
6  217 221 219   17 
7  221 216 220   18 
8  63 110 84   24 
9  216 205 212   38 
10  29 63 44   44 
11  205 189 195   58 
12  9 29 18   64 
13  189 177 180   78 
14  8 1 3   83 
15  1 9 4   84 
16  30 8 19   87 
17  62 30 45   91 
18  109 62 83   95 
19  177 167 171   98 
20  167 109 137   99 
  END_BOUNDARIES

  MATERIALS, NUMBER=1, DEFAULT=1
  END_MATERIALS
  CHARACTERISTICS
  END_CHARACTERISTICS
