$-------------------------------------------------------------------
RUN_DATA
  ALYA:                   cavity
END_RUN_DATA
$-------------------------------------------------------------------
PROBLEM_DATA
  TIME_COUPLING:          Global, Prescribed
  TIME_INTERVAL=          0.0, 1.0  
  TIME_STEP_SIZE=         0.1  
  NUMBER_OF_STEPS=        2
  MAXIMUM_NUMBER_GLOBAL=  1
  NASTIN_MODULE:          On
  END_NASTIN_MODULE
  PARALL_SERVICE:         On
    PARTITION_TYPE:       FACES
    OPENMP
      ELEMENT_CHUNK=10
      COLORING: MIN_COLOR
    END_OPENMP
  END_PARALL_SERVICE
END_PROBLEM_DATA
$-------------------------------------------------------------------
MPI_IO: On
  GEOMETRY:    Off
  RESTART:     Off
  POSTPROCESS: On
END_MPI_IO
$-------------------------------------------------------------------
