{
    "authors": [
        "guillaume.houzeaux@bsc.es"
    ],
    "comparisons": [],
    "description": "Testing the postprocess on different witness meshes.",
    "exclude": [
        "special"
    ],
    "executions": [
        {
            "mpi": 4
        }
    ],
    "modules": [
        "nastin"
    ],
    "name": "cavhex08-witness-mesh",
    "postprocess": "alya2pos",
    "timeout": "00:02:00"
}
