 0.00000000E+000
 0.00000000E+000
 0.00000000E+000
 0.00000000E+000
 0.00000000E+000
 0.00000000E+000
 0.00000000E+000
 0.00000000E+000
 0.00000000E+000
 0.00000000E+000
 0.00000000E+000
 0.00000000E+000
 0.00000000E+000
 0.00000000E+000
 0.00000000E+000
 0.00000000E+000
 0.00000000E+000
 0.00000000E+000
 0.00000000E+000
 0.00000000E+000
 0.00000000E+000
 0.00000000E+000
 0.00000000E+000
 0.00000000E+000
 0.00000000E+000
 0.00000000E+000
 0.00000000E+000
 0.00000000E+000
 0.00000000E+000
 0.00000000E+000
 0.00000000E+000
 0.00000000E+000
 0.00000000E+000
 0.00000000E+000
 0.00000000E+000
 0.00000000E+000
 0.00000000E+000
 0.00000000E+000
 0.00000000E+000
 0.00000000E+000
 0.00000000E+000
 0.00000000E+000
 0.00000000E+000
 0.00000000E+000
 0.00000000E+000
 0.00000000E+000
 0.00000000E+000
 0.65639228E-014
 0.29657686E-011
 0.87601625E-008
 0.54376111E-006
 0.78587263E-005
 0.90537608E-004
 0.30903149E-003
 0.44532354E-004
 0.51021828E-008
 0.15389822E-011
 0.17808869E-017
 0.45189697E-018
 0.18709725E-020
 0.21109162E-022
 0.65881140E-026
 0.00000000E+000
 0.00000000E+000
 0.00000000E+000
 0.00000000E+000
 0.00000000E+000
 0.00000000E+000
 0.00000000E+000
 0.00000000E+000
 0.00000000E+000
 0.00000000E+000
 0.00000000E+000
 0.00000000E+000
 0.00000000E+000
 0.00000000E+000
 0.00000000E+000
 0.00000000E+000
 0.00000000E+000
 0.00000000E+000
 0.00000000E+000
 0.00000000E+000
 0.00000000E+000
 0.00000000E+000
 0.00000000E+000
 0.00000000E+000
 0.00000000E+000
 0.00000000E+000
 0.00000000E+000
 0.00000000E+000
 0.00000000E+000
 0.00000000E+000
 0.00000000E+000
 0.00000000E+000
 0.00000000E+000
 0.00000000E+000
 0.00000000E+000
 0.00000000E+000
 0.00000000E+000
 0.00000000E+000
 0.00000000E+000
 0.00000000E+000
 0.00000000E+000
 0.00000000E+000
 0.00000000E+000
 0.00000000E+000
 0.00000000E+000
 0.00000000E+000
 0.00000000E+000
 0.00000000E+000
 0.00000000E+000
 0.00000000E+000
 0.00000000E+000
 0.00000000E+000
 0.00000000E+000
 0.00000000E+000
 0.00000000E+000
 0.00000000E+000
 0.00000000E+000
 0.00000000E+000
 0.00000000E+000
 0.00000000E+000
 0.00000000E+000
 0.00000000E+000
 0.00000000E+000
 0.00000000E+000
 0.00000000E+000
 0.00000000E+000
 0.00000000E+000
 0.00000000E+000
 0.00000000E+000
 0.00000000E+000
 0.00000000E+000
 0.00000000E+000
 0.00000000E+000
 0.23627617E-011
 0.89855498E-009
 0.48227894E-007
 0.86804173E-006
 0.14639179E-004
 0.58188899E-004
 0.73600555E-005
 0.29014405E-009
 0.38308567E-012
 0.12146985E-015
 0.94591835E-018
 0.12159064E-020
 0.19912973E-023
 0.00000000E+000
 0.00000000E+000
 0.00000000E+000
 0.00000000E+000
 0.00000000E+000
 0.00000000E+000
 0.00000000E+000
 0.00000000E+000
 0.00000000E+000
 0.00000000E+000
 0.00000000E+000
 0.00000000E+000
 0.00000000E+000
 0.00000000E+000
 0.00000000E+000
 0.00000000E+000
 0.00000000E+000
 0.00000000E+000
 0.00000000E+000
 0.00000000E+000
 0.00000000E+000
 0.00000000E+000
 0.00000000E+000
 0.00000000E+000
 0.00000000E+000
 0.00000000E+000
 0.00000000E+000
 0.00000000E+000
 0.00000000E+000
 0.00000000E+000
 0.00000000E+000
 0.00000000E+000
 0.00000000E+000
 0.00000000E+000
 0.00000000E+000
 0.00000000E+000
 0.00000000E+000
 0.00000000E+000
 0.00000000E+000
 0.00000000E+000
 0.00000000E+000
 0.00000000E+000
 0.00000000E+000
 0.00000000E+000
 0.00000000E+000
 0.00000000E+000
 0.00000000E+000
 0.00000000E+000
 0.00000000E+000
 0.00000000E+000
 0.00000000E+000
 0.00000000E+000
 0.00000000E+000
 0.00000000E+000
 0.00000000E+000
 0.00000000E+000
 0.00000000E+000
 0.00000000E+000
 0.00000000E+000
 0.00000000E+000
 0.00000000E+000
 0.00000000E+000
 0.00000000E+000
 0.00000000E+000
 0.00000000E+000
 0.00000000E+000
 0.00000000E+000
 0.00000000E+000
 0.00000000E+000
 0.00000000E+000
 0.00000000E+000
 0.00000000E+000
 0.00000000E+000
 0.00000000E+000
 0.00000000E+000
 0.00000000E+000
 0.00000000E+000
 0.00000000E+000
 0.00000000E+000
 0.00000000E+000
 0.00000000E+000
 0.00000000E+000
 0.00000000E+000
 0.00000000E+000
 0.00000000E+000
 0.00000000E+000
 0.00000000E+000
 0.00000000E+000
 0.00000000E+000
 0.00000000E+000
 0.00000000E+000
 0.00000000E+000
 0.00000000E+000
 0.00000000E+000
 0.00000000E+000
 0.00000000E+000
 0.00000000E+000
 0.00000000E+000
 0.00000000E+000
 0.00000000E+000
 0.00000000E+000
 0.00000000E+000
 0.00000000E+000
 0.00000000E+000
 0.00000000E+000
 0.00000000E+000
 0.00000000E+000
 0.00000000E+000
 0.00000000E+000
 0.00000000E+000
 0.00000000E+000
 0.00000000E+000
 0.00000000E+000
 0.00000000E+000
 0.00000000E+000
 0.00000000E+000
 0.00000000E+000
 0.00000000E+000
 0.00000000E+000
 0.00000000E+000
 0.00000000E+000
 0.00000000E+000
 0.00000000E+000
 0.00000000E+000
 0.00000000E+000
 0.00000000E+000
 0.00000000E+000
 0.00000000E+000
 0.00000000E+000
 0.00000000E+000
 0.00000000E+000
 0.00000000E+000
 0.00000000E+000
 0.00000000E+000
 0.00000000E+000
 0.00000000E+000
 0.00000000E+000
 0.00000000E+000
 0.00000000E+000
 0.00000000E+000
 0.00000000E+000
 0.00000000E+000
 0.00000000E+000
 0.00000000E+000
 0.00000000E+000
 0.00000000E+000
 0.00000000E+000
 0.00000000E+000
 0.00000000E+000
 0.00000000E+000
 0.00000000E+000
 0.00000000E+000
 0.00000000E+000
 0.00000000E+000
 0.00000000E+000
 0.00000000E+000
 0.00000000E+000
 0.00000000E+000
 0.00000000E+000
 0.00000000E+000
 0.00000000E+000
 0.00000000E+000
 0.00000000E+000
 0.00000000E+000
 0.00000000E+000
 0.00000000E+000
 0.00000000E+000
 0.00000000E+000
 0.00000000E+000
 0.00000000E+000
 0.00000000E+000
 0.00000000E+000
 0.00000000E+000
 0.00000000E+000
 0.00000000E+000
 0.00000000E+000
 0.00000000E+000
 0.00000000E+000
 0.00000000E+000
 0.00000000E+000
 0.00000000E+000
 0.00000000E+000
 0.00000000E+000
 0.00000000E+000
 0.00000000E+000
 0.00000000E+000
 0.00000000E+000
 0.00000000E+000
 0.00000000E+000
 0.00000000E+000
 0.00000000E+000
 0.00000000E+000
 0.00000000E+000
 0.00000000E+000
 0.00000000E+000
 0.00000000E+000
 0.00000000E+000
 0.00000000E+000
 0.00000000E+000
 0.00000000E+000
 0.00000000E+000
 0.00000000E+000
 0.00000000E+000
 0.00000000E+000
 0.00000000E+000
 0.00000000E+000
 0.00000000E+000
 0.00000000E+000
 0.00000000E+000
 0.00000000E+000
 0.00000000E+000
 0.00000000E+000
 0.00000000E+000
 0.00000000E+000
 0.00000000E+000
 0.00000000E+000
 0.00000000E+000
 0.00000000E+000
 0.00000000E+000
 0.00000000E+000
 0.00000000E+000
 0.00000000E+000
 0.00000000E+000
 0.00000000E+000
 0.00000000E+000
 0.00000000E+000
 0.00000000E+000
 0.00000000E+000
 0.00000000E+000
 0.00000000E+000
 0.00000000E+000
 0.00000000E+000
 0.00000000E+000
 0.00000000E+000
 0.00000000E+000
 0.00000000E+000
 0.00000000E+000
 0.00000000E+000
 0.00000000E+000
 0.00000000E+000
 0.00000000E+000
 0.00000000E+000
 0.00000000E+000
 0.00000000E+000
 0.00000000E+000
 0.00000000E+000
 0.00000000E+000
 0.00000000E+000
 0.00000000E+000
 0.00000000E+000
 0.00000000E+000
 0.00000000E+000
 0.00000000E+000
 0.00000000E+000
 0.00000000E+000
 0.00000000E+000
 0.00000000E+000
 0.00000000E+000
 0.00000000E+000
 0.00000000E+000
 0.00000000E+000
 0.00000000E+000
 0.00000000E+000
 0.00000000E+000
 0.00000000E+000
 0.00000000E+000
 0.00000000E+000
 0.00000000E+000
 0.00000000E+000
 0.00000000E+000
 0.00000000E+000
 0.00000000E+000
 0.00000000E+000
 0.00000000E+000
 0.00000000E+000
 0.00000000E+000
 0.00000000E+000
 0.00000000E+000
 0.00000000E+000
 0.00000000E+000
 0.00000000E+000
 0.00000000E+000
 0.00000000E+000
 0.00000000E+000
 0.52759063E-029
 0.47686416E-029
 0.22969935E-029
 0.52033656E-030
 0.97778394E-031
 0.58733998E-032
 0.41864471E-034
 0.00000000E+000
 0.00000000E+000
 0.00000000E+000
 0.00000000E+000
 0.00000000E+000
 0.00000000E+000
 0.00000000E+000
 0.00000000E+000
 0.00000000E+000
 0.00000000E+000
 0.00000000E+000
 0.12604079E-028
 0.40424856E-027
 0.19376121E-026
 0.52362249E-026
 0.62852571E-026
 0.34108110E-026
 0.13157229E-026
 0.41934059E-027
 0.10500619E-027
 0.20615812E-028
 0.27365494E-029
 0.14110869E-030
 0.11494267E-032
 0.16197233E-035
 0.00000000E+000
 0.00000000E+000
 0.00000000E+000
 0.00000000E+000
 0.00000000E+000
 0.00000000E+000
 0.00000000E+000
 0.00000000E+000
 0.00000000E+000
 0.00000000E+000
 0.63640018E-027
 0.20337403E-025
 0.10829430E-024
 0.31129131E-024
 0.31882800E-024
 0.14904582E-024
 0.52489713E-025
 0.14709132E-025
 0.32305690E-026
 0.53772576E-027
 0.59381000E-028
 0.24606554E-029
 0.14738315E-031
 0.22822949E-034
 0.00000000E+000
 0.00000000E+000
 0.00000000E+000
 0.00000000E+000
 0.00000000E+000
 0.00000000E+000
 0.00000000E+000
 0.00000000E+000
 0.00000000E+000
 0.00000000E+000
 0.27555358E-025
 0.87344749E-024
 0.45671634E-023
 0.12641106E-022
 0.12419103E-022
 0.54103268E-023
 0.17352421E-023
 0.43109618E-024
 0.81176748E-025
 0.11144745E-025
 0.97436636E-027
 0.30047162E-028
 0.11630159E-030
 0.94847723E-034
 0.00000000E+000
 0.00000000E+000
 0.00000000E+000
 0.00000000E+000
 0.00000000E+000
 0.00000000E+000
 0.00000000E+000
 0.00000000E+000
 0.00000000E+000
 0.00000000E+000
 0.10702773E-023
 0.33615198E-022
 0.17193738E-021
 0.45701747E-021
 0.42610676E-021
 0.17085032E-021
 0.48853168E-022
 0.10452308E-022
 0.16241665E-023
 0.17423517E-024
 0.11143469E-025
 0.22514317E-027
 0.45650711E-030
 0.15454923E-033
 0.00000000E+000
 0.00000000E+000
 0.00000000E+000
 0.00000000E+000
 0.00000000E+000
 0.00000000E+000
 0.00000000E+000
 0.00000000E+000
 0.00000000E+000
 0.00000000E+000
 0.37075966E-022
 0.11524096E-020
 0.57457337E-020
 0.14552204E-019
 0.12732474E-019
 0.46089023E-020
 0.11417753E-020
 0.20208463E-021
 0.24482571E-022
 0.18890826E-023
 0.77723134E-025
 0.83000508E-027
 0.70661030E-030
 0.34970177E-034
 0.00000000E+000
 0.00000000E+000
 0.00000000E+000
 0.00000000E+000
 0.00000000E+000
 0.00000000E+000
 0.00000000E+000
 0.00000000E+000
 0.00000000E+000
 0.00000000E+000
 0.11357539E-020
 0.34880350E-019
 0.16880865E-018
 0.40302372E-018
 0.32565076E-018
 0.10352865E-018
 0.21316073E-019
 0.29404476E-020
 0.25457697E-021
 0.12370496E-022
 0.26513581E-024
 0.12013977E-026
 0.15773616E-030
 0.00000000E+000
 0.00000000E+000
 0.00000000E+000
 0.00000000E+000
 0.00000000E+000
 0.00000000E+000
 0.00000000E+000
 0.00000000E+000
 0.00000000E+000
 0.00000000E+000
 0.00000000E+000
 0.30548971E-019
 0.92230388E-018
 0.43154690E-017
 0.95658913E-017
 0.69548988E-017
 0.18621082E-017
 0.29916645E-018
 0.29319920E-019
 0.15779286E-020
 0.39101031E-022
 0.35391936E-024
 0.26384585E-027
 0.00000000E+000
 0.00000000E+000
 0.00000000E+000
 0.00000000E+000
 0.00000000E+000
 0.00000000E+000
 0.00000000E+000
 0.00000000E+000
 0.00000000E+000
 0.00000000E+000
 0.00000000E+000
 0.00000000E+000
 0.74038304E-018
 0.21217153E-016
 0.96413656E-016
 0.19441459E-015
 0.11998227E-015
 0.25165574E-016
 0.28538816E-017
 0.17134133E-018
 0.46196349E-020
 0.47532742E-022
 0.76865547E-025
 0.00000000E+000
 0.00000000E+000
 0.00000000E+000
 0.00000000E+000
 0.00000000E+000
 0.00000000E+000
 0.00000000E+000
 0.00000000E+000
 0.00000000E+000
 0.00000000E+000
 0.00000000E+000
 0.00000000E+000
 0.00000000E+000
 0.16360983E-016
 0.42407630E-015
 0.19395976E-014
 0.36230944E-014
 0.18198197E-014
 0.28320811E-015
 0.20106252E-016
 0.54731352E-018
 0.50105649E-020
 0.10143026E-022
 0.00000000E+000
 0.00000000E+000
 0.00000000E+000
 0.00000000E+000
 0.00000000E+000
 0.00000000E+000
 0.00000000E+000
 0.00000000E+000
 0.00000000E+000
 0.00000000E+000
 0.00000000E+000
 0.00000000E+000
 0.00000000E+000
 0.00000000E+000
 0.29495132E-015
 0.71951432E-014
 0.33817324E-013
 0.60736637E-013
 0.25981944E-013
 0.30760817E-014
 0.12501279E-015
 0.77855253E-018
 0.12174713E-020
 0.00000000E+000
 0.00000000E+000
 0.00000000E+000
 0.00000000E+000
 0.00000000E+000
 0.00000000E+000
 0.00000000E+000
 0.00000000E+000
 0.00000000E+000
 0.00000000E+000
 0.00000000E+000
 0.00000000E+000
 0.00000000E+000
 0.00000000E+000
 0.00000000E+000
 0.46034130E-014
 0.10564008E-012
 0.49990232E-012
 0.85722762E-012
 0.31915138E-012
 0.26819883E-013
 0.41434995E-015
 0.17589947E-018
 0.90513304E-021
 0.00000000E+000
 0.00000000E+000
 0.00000000E+000
 0.00000000E+000
 0.00000000E+000
 0.00000000E+000
 0.00000000E+000
 0.00000000E+000
 0.00000000E+000
 0.00000000E+000
 0.00000000E+000
 0.00000000E+000
 0.22983342E-012
 0.39690631E-011
 0.22612529E-010
 0.13966671E-009
 0.59108699E-009
 0.47364763E-009
 0.30227905E-010
 0.30662488E-011
 0.14427434E-012
 0.49459487E-015
 0.23909137E-018
 0.95633922E-021
 0.49746952E-024
 0.00000000E+000
 0.00000000E+000
 0.00000000E+000
 0.00000000E+000
 0.00000000E+000
 0.00000000E+000
 0.00000000E+000
 0.00000000E+000
 0.00000000E+000
 0.00000000E+000
 0.00000000E+000
 0.25469921E-010
 0.35623361E-006
 0.87297783E-005
 0.59476297E-004
 0.40244311E-003
 0.12862246E-002
 0.18912891E-003
 0.50162303E-008
 0.57532803E-012
 0.13558872E-017
 0.35588798E-018
 0.45303993E-020
 0.40957515E-023
 0.00000000E+000
 0.00000000E+000
 0.00000000E+000
 0.00000000E+000
 0.00000000E+000
 0.00000000E+000
 0.00000000E+000
 0.00000000E+000
 0.00000000E+000
 0.00000000E+000
 0.20114320E-015
 0.29407746E-010
 0.52637682E-006
 0.18376632E-004
 0.22640241E-003
 0.17577535E-002
 0.25309370E-002
 0.22898378E-003
 0.11159736E-007
 0.85195626E-012
 0.16427101E-017
 0.41778888E-018
 0.19584836E-020
 0.14428175E-022
 0.59558664E-026
 0.00000000E+000
 0.00000000E+000
 0.00000000E+000
 0.00000000E+000
 0.00000000E+000
 0.00000000E+000
 0.00000000E+000
 0.00000000E+000
 0.00000000E+000
 0.14098379E-014
 0.25367218E-010
 0.47631949E-006
 0.20335860E-004
 0.34218505E-003
 0.25433646E-002
 0.28832626E-002
 0.22863635E-003
 0.12310045E-007
 0.99946831E-012
 0.41329266E-018
 0.11490686E-018
 0.31150464E-020
 0.70597364E-023
 0.24156489E-025
 0.16197132E-029
 0.00000000E+000
 0.00000000E+000
 0.00000000E+000
 0.00000000E+000
 0.00000000E+000
 0.00000000E+000
 0.00000000E+000
 0.00000000E+000
 0.10373816E-013
 0.24646796E-010
 0.46362041E-006
 0.20565008E-004
 0.35414974E-003
 0.26295861E-002
 0.31647215E-002
 0.28446322E-003
 0.13909405E-007
 0.10814173E-011
 0.15229371E-015
 0.31030824E-020
 0.82585150E-021
 0.13452974E-022
 0.14704035E-025
 0.69641227E-029
 0.38280570E-034
 0.00000000E+000
 0.00000000E+000
 0.00000000E+000
 0.00000000E+000
 0.00000000E+000
 0.00000000E+000
 0.00000000E+000
 0.24369911E-013
 0.23516510E-010
 0.43927981E-006
 0.20121480E-004
 0.34995601E-003
 0.26206288E-002
 0.32529954E-002
 0.30219613E-003
 0.14903377E-007
 0.11679606E-011
 0.11846398E-014
 0.39258124E-019
 0.67726905E-022
 0.35048599E-023
 0.34494567E-025
 0.68457559E-029
 0.17140639E-033
 0.00000000E+000
 0.00000000E+000
 0.00000000E+000
 0.00000000E+000
 0.00000000E+000
 0.00000000E+000
 0.00000000E+000
 0.50727793E-013
 0.22268794E-010
 0.41072080E-006
 0.19574808E-004
 0.34535895E-003
 0.26066671E-002
 0.32731185E-002
 0.30661663E-003
 0.15312941E-007
 0.12613089E-011
 0.34962767E-014
 0.27340277E-017
 0.28214708E-020
 0.35504683E-023
 0.10433257E-025
 0.21259518E-028
 0.44207155E-033
 0.00000000E+000
 0.00000000E+000
 0.00000000E+000
 0.00000000E+000
 0.00000000E+000
 0.00000000E+000
 0.00000000E+000
 0.17215078E-012
 0.21504039E-010
 0.38542121E-006
 0.19118780E-004
 0.34181669E-003
 0.25958182E-002
 0.32822087E-002
 0.30902850E-003
 0.15537661E-007
 0.13445270E-011
 0.60127483E-014
 0.14584429E-016
 0.18600474E-019
 0.20880296E-022
 0.12179633E-025
 0.76568185E-029
 0.16973949E-032
 0.00000000E+000
 0.00000000E+000
 0.00000000E+000
 0.00000000E+000
 0.00000000E+000
 0.00000000E+000
 0.00000000E+000
 0.27006601E-012
 0.21349176E-010
 0.37475334E-006
 0.18935504E-004
 0.34044947E-003
 0.25917123E-002
 0.32854433E-002
 0.30988979E-003
 0.15618584E-007
 0.13802503E-011
 0.71595594E-014
 0.22102545E-016
 0.37717891E-019
 0.34352800E-022
 0.26694915E-025
 0.36786334E-029
 0.10416298E-032
 0.00000000E+000
 0.00000000E+000
 0.00000000E+000
 0.00000000E+000
 0.00000000E+000
 0.00000000E+000
 0.00000000E+000
 0.17215078E-012
 0.21504039E-010
 0.38542115E-006
 0.19118776E-004
 0.34181658E-003
 0.25958176E-002
 0.32822097E-002
 0.30902874E-003
 0.15537687E-007
 0.13445280E-011
 0.60127619E-014
 0.14584762E-016
 0.18601619E-019
 0.20879611E-022
 0.12184574E-025
 0.81950282E-029
 0.21346416E-032
 0.33675162E-037
 0.00000000E+000
 0.00000000E+000
 0.00000000E+000
 0.00000000E+000
 0.00000000E+000
 0.00000000E+000
 0.50727772E-013
 0.22268787E-010
 0.41072033E-006
 0.19574781E-004
 0.34535783E-003
 0.26066604E-002
 0.32731275E-002
 0.30661877E-003
 0.15313238E-007
 0.12613183E-011
 0.34964803E-014
 0.27351936E-017
 0.28211283E-020
 0.35478666E-023
 0.99134709E-026
 0.23504522E-028
 0.18531572E-032
 0.24004319E-036
 0.00000000E+000
 0.00000000E+000
 0.00000000E+000
 0.00000000E+000
 0.00000000E+000
 0.00000000E+000
 0.24369477E-013
 0.23516631E-010
 0.43927252E-006
 0.20121133E-004
 0.34995159E-003
 0.26206063E-002
 0.32530902E-002
 0.30221277E-003
 0.14905279E-007
 0.11680594E-011
 0.11853053E-014
 0.39546050E-019
 0.64392627E-022
 0.27115745E-023
 0.32451277E-025
 0.16654881E-028
 0.48634348E-032
 0.30644216E-037
 0.00000000E+000
 0.00000000E+000
 0.00000000E+000
 0.00000000E+000
 0.00000000E+000
 0.00000000E+000
 0.10385820E-013
 0.24645598E-010
 0.46357863E-006
 0.20564868E-004
 0.35410873E-003
 0.26292389E-002
 0.31645462E-002
 0.28442826E-003
 0.13924026E-007
 0.10813268E-011
 0.15245735E-015
 0.18446492E-020
 0.49964556E-021
 0.10362602E-022
 0.24084185E-025
 0.41168496E-028
 0.10823748E-032
 0.00000000E+000
 0.00000000E+000
 0.00000000E+000
 0.00000000E+000
 0.00000000E+000
 0.00000000E+000
 0.00000000E+000
 0.13824905E-014
 0.25374457E-010
 0.47610140E-006
 0.20321755E-004
 0.34245113E-003
 0.25452158E-002
 0.28856787E-002
 0.22909920E-003
 0.12252938E-007
 0.10040118E-011
 0.17894289E-018
 0.51618125E-019
 0.18642545E-020
 0.80678850E-023
 0.61930647E-025
 0.95656118E-029
 0.00000000E+000
 0.00000000E+000
 0.00000000E+000
 0.00000000E+000
 0.00000000E+000
 0.00000000E+000
 0.00000000E+000
 0.00000000E+000
 0.00000000E+000
 0.28456447E-010
 0.50871895E-006
 0.18131216E-004
 0.22983861E-003
 0.18014749E-002
 0.25630319E-002
 0.22720882E-003
 0.12001788E-007
 0.94051680E-012
 0.70978387E-018
 0.18252222E-018
 0.14352726E-020
 0.20928769E-022
 0.19237969E-025
 0.00000000E+000
 0.00000000E+000
 0.00000000E+000
 0.00000000E+000
 0.00000000E+000
 0.00000000E+000
 0.00000000E+000
 0.00000000E+000
 0.00000000E+000
 0.87939890E-015
 0.22935240E-010
 0.33139512E-006
 0.90623148E-005
 0.66222987E-004
 0.49502049E-003
 0.16496284E-002
 0.24029584E-003
 0.10649191E-007
 0.10773072E-011
 0.62545809E-018
 0.16976220E-018
 0.36127725E-020
 0.10545362E-022
 0.14454213E-025
 0.00000000E+000
 0.00000000E+000
 0.00000000E+000
 0.00000000E+000
 0.00000000E+000
 0.00000000E+000
 0.00000000E+000
