 0.59539606E-047
 0.00000000E+000
 0.00000000E+000
 0.00000000E+000
 0.00000000E+000
 0.21247162E-051
 0.61390211E-045
 0.10460969E-042
 0.15133403E-040
 0.18858123E-038
 0.20434073E-036
 0.20260585E-034
 0.17771833E-032
 0.13814563E-030
 0.95167972E-029
 0.57974937E-027
 0.31094916E-025
 0.14577635E-023
 0.59101200E-022
 0.20369597E-020
 0.58205392E-019
 0.13259944E-017
 0.22550895E-016
 0.25275685E-015
 0.13862630E-014
 0.65612528E-015
 0.00000000E+000
 0.00000000E+000
 0.00000000E+000
 0.00000000E+000
 0.00000000E+000
 0.00000000E+000
 0.00000000E+000
 0.00000000E+000
 0.00000000E+000
 0.00000000E+000
 0.00000000E+000
 0.00000000E+000
 0.00000000E+000
 0.00000000E+000
 0.00000000E+000
 0.00000000E+000
 0.00000000E+000
 0.00000000E+000
 0.00000000E+000
 0.00000000E+000
 0.00000000E+000
 0.00000000E+000
 0.76719960E-004
 0.10053051E-002
 0.16943062E-002
 0.18663920E-002
 0.18383880E-002
 0.17081553E-002
 0.61966032E-003
 0.26555714E-004
 0.00000000E+000
 0.95896842E-011
 0.00000000E+000
 0.46890966E-015
 0.00000000E+000
 0.00000000E+000
 0.63092771E-028
 0.00000000E+000
 0.00000000E+000
 0.00000000E+000
 0.00000000E+000
 0.00000000E+000
 0.00000000E+000
 0.00000000E+000
 0.00000000E+000
 0.00000000E+000
 0.00000000E+000
 0.00000000E+000
 0.00000000E+000
 0.00000000E+000
 0.00000000E+000
 0.00000000E+000
 0.00000000E+000
 0.00000000E+000
 0.00000000E+000
 0.00000000E+000
 0.00000000E+000
 0.00000000E+000
 0.00000000E+000
 0.00000000E+000
 0.00000000E+000
 0.00000000E+000
 0.00000000E+000
 0.00000000E+000
 0.00000000E+000
 0.00000000E+000
 0.00000000E+000
 0.00000000E+000
 0.00000000E+000
 0.00000000E+000
 0.00000000E+000
 0.00000000E+000
 0.91079076E-038
 0.23191716E-038
 0.23877308E-039
 0.14326385E-040
 0.58038706E-042
 0.17605819E-043
 0.74152709E-045
 0.22528993E-046
 0.50663648E-048
 0.85242879E-050
 0.57015386E-051
 0.25239458E-050
 0.10181258E-049
 0.36604182E-049
 0.11785384E-048
 0.34150438E-048
 0.89450222E-048
 0.21258039E-047
 0.45976752E-047
 0.90686531E-047
 0.16326794E-046
 0.26807027E-046
 0.40028856E-046
 0.54111870E-046
 0.65872183E-046
 0.71937363E-046
 0.70533544E-046
 0.62559518E-046
 0.50774385E-046
 0.38126110E-046
 0.26794349E-046
 0.17754501E-046
 0.11210546E-046
 0.72668583E-047
 0.00000000E+000
 0.22043692E-011
 0.00000000E+000
 0.35460601E-004
 0.36780202E-003
 0.59639530E-003
 0.67462280E-003
 0.81473234E-003
 0.67365635E-003
 0.17144968E-003
 0.61522630E-005
 0.00000000E+000
 0.20292082E-010
 0.00000000E+000
 0.43820869E-016
 0.00000000E+000
 0.00000000E+000
 0.00000000E+000
 0.00000000E+000
 0.00000000E+000
 0.00000000E+000
 0.00000000E+000
 0.00000000E+000
 0.00000000E+000
 0.76273834E-045
 0.12118981E-044
 0.19613676E-044
 0.29970624E-044
 0.42801326E-044
 0.56677618E-044
 0.68825217E-044
 0.75999406E-044
 0.75652406E-044
 0.67472488E-044
 0.53885217E-044
 0.38670050E-044
 0.25057390E-044
 0.14718508E-044
 0.78531503E-045
 0.38061677E-045
 0.16730302E-045
 0.66512174E-046
 0.23830590E-046
 0.76625471E-047
 0.22004301E-047
 0.56121300E-048
 0.12638672E-048
 0.25527168E-049
 0.13267181E-042
 0.21788567E-042
 0.36123451E-042
 0.56002540E-042
 0.80415109E-042
 0.10600682E-041
 0.12686991E-041
 0.13704236E-041
 0.13287069E-041
 0.11513224E-041
 0.89145248E-042
 0.61879375E-042
 0.38669778E-042
 0.21822705E-042
 0.11132804E-042
 0.51293421E-043
 0.21294182E-043
 0.79389211E-044
 0.26473367E-044
 0.78589680E-045
 0.20657776E-045
 0.47780689E-046
 0.96571337E-047
 0.17213076E-047
 0.19654507E-040
 0.33494278E-040
 0.57031547E-040
 0.89896445E-040
 0.13005379E-039
 0.17092521E-039
 0.20162091E-039
 0.21271269E-039
 0.20036305E-039
 0.16817669E-039
 0.12585913E-039
 0.84231090E-040
 0.50578096E-040
 0.27298288E-040
 0.13240497E-040
 0.57605332E-041
 0.22413384E-041
 0.77694171E-042
 0.23886902E-042
 0.64798276E-043
 0.15415959E-043
 0.31936756E-044
 0.57136828E-045
 0.88533154E-046
 0.25176700E-038
 0.44719863E-038
 0.78426140E-038
 0.12596949E-037
 0.18401958E-037
 0.24160169E-037
 0.28097987E-037
 0.28893121E-037
 0.26353885E-037
 0.21351350E-037
 0.15391977E-037
 0.98965531E-038
 0.56849718E-038
 0.29179094E-038
 0.13362395E-038
 0.54452743E-039
 0.19677236E-039
 0.62790948E-040
 0.17606741E-040
 0.43131109E-041
 0.91671759E-042
 0.16764932E-042
 0.26115697E-043
 0.34531843E-044
 0.28171781E-036
 0.52421391E-036
 0.94989894E-036
 0.15578547E-035
 0.23023326E-035
 0.30276951E-035
 0.34771862E-035
 0.34768113E-035
 0.30559162E-035
 0.23797820E-035
 0.16469635E-035
 0.10132816E-035
 0.55374275E-036
 0.26833991E-036
 0.11502775E-036
 0.43481258E-037
 0.14438858E-037
 0.41929381E-038
 0.10589773E-038
 0.23108074E-039
 0.43214051E-040
 0.68562050E-041
 0.91117210E-042
 0.10036520E-042
 0.28792307E-034
 0.55887043E-034
 0.10435202E-033
 0.17472408E-033
 0.26201043E-033
 0.34811921E-033
 0.40209967E-033
 0.40222163E-033
 0.35145839E-033
 0.27039003E-033
 0.18378363E-033
 0.11042511E-033
 0.58588905E-034
 0.27391740E-034
 0.11250546E-034
 0.40442807E-035
 0.12666222E-035
 0.34372710E-036
 0.80288894E-037
 0.16011135E-037
 0.26982208E-038
 0.37929234E-039
 0.43728400E-040
 0.40572282E-041
 0.26145278E-032
 0.53160599E-032
 0.10257027E-031
 0.17575678E-031
 0.26787547E-031
 0.35971539E-031
 0.41759208E-031
 0.41738645E-031
 0.36214880E-031
 0.27495636E-031
 0.18332098E-031
 0.10738104E-031
 0.55181417E-032
 0.24811126E-032
 0.97254159E-033
 0.33084384E-033
 0.97146757E-034
 0.24459925E-034
 0.52380914E-035
 0.94441870E-036
 0.14151260E-036
 0.17326492E-037
 0.16944546E-038
 0.12849048E-039
 0.21151837E-030
 0.45275104E-030
 0.90563039E-030
 0.15923128E-029
 0.24713956E-029
 0.33568981E-029
 0.39164875E-029
 0.39085704E-029
 0.33642710E-029
 0.25176973E-029
 0.16437510E-029
 0.93632459E-030
 0.46444504E-030
 0.19995260E-030
 0.74387895E-031
 0.23785580E-031
 0.64938960E-032
 0.15016306E-032
 0.29113055E-033
 0.46715298E-034
 0.60999444E-035
 0.63355201E-036
 0.50692933E-037
 0.29833839E-038
 0.15264187E-028
 0.34592247E-028
 0.71999523E-028
 0.13024850E-027
 0.20624983E-027
 0.28369219E-027
 0.33278709E-027
 0.33154764E-027
 0.28287363E-027
 0.20835124E-027
 0.13290394E-027
 0.73392218E-028
 0.34995424E-028
 0.14349944E-028
 0.50333833E-029
 0.15003554E-029
 0.37700664E-030
 0.79056912E-031
 0.13657143E-031
 0.19110069E-032
 0.21170071E-033
 0.17979744E-034
 0.11161791E-035
 0.46926570E-037
 0.98198289E-027
 0.23722085E-026
 0.51606982E-026
 0.96368768E-026
 0.15603611E-025
 0.21761892E-025
 0.25679581E-025
 0.25534314E-025
 0.21574200E-025
 0.15612738E-025
 0.97047711E-026
 0.51762313E-026
 0.23609435E-026
 0.91622267E-027
 0.30056135E-027
 0.82676396E-028
 0.18878876E-028
 0.35328243E-029
 0.53269230E-030
 0.63256241E-031
 0.57273249E-032
 0.37680318E-033
 0.16668856E-034
 0.42964473E-036
 0.56184346E-025
 0.14584977E-024
 0.33345004E-024
 0.64527970E-024
 0.10711017E-023
 0.15169145E-023
 0.18016264E-023
 0.17874899E-023
 0.14940067E-023
 0.10601531E-023
 0.64015641E-024
 0.32832376E-024
 0.14239191E-024
 0.51890563E-025
 0.15761609E-025
 0.39505198E-026
 0.80662013E-027
 0.13191259E-027
 0.16888129E-028
 0.16383356E-029
 0.11471831E-030
 0.53594884E-032
 0.14438786E-033
 0.15702841E-035
 0.28464441E-023
 0.80184683E-023
 0.19397619E-022
 0.39089369E-022
 0.66725431E-022
 0.96123557E-022
 0.11498035E-021
 0.11379104E-021
 0.93962635E-022
 0.65221478E-022
 0.38113314E-022
 0.18695150E-022
 0.76528534E-023
 0.25935174E-023
 0.72025910E-024
 0.16184902E-024
 0.28927376E-025
 0.40198428E-026
 0.42029073E-027
 0.31477315E-028
 0.15591709E-029
 0.44017159E-031
 0.49112231E-033
 0.00000000E+000
 0.12680864E-021
 0.39246288E-021
 0.10130372E-020
 0.21387699E-020
 0.37688530E-020
 0.55339047E-020
 0.66718211E-020
 0.65838294E-020
 0.53628882E-020
 0.36307394E-020
 0.20437882E-020
 0.95236886E-021
 0.36457143E-021
 0.11348030E-021
 0.28353718E-022
 0.55904119E-023
 0.84996603E-024
 0.96437098E-025
 0.77701366E-026
 0.40992885E-027
 0.12162632E-028
 0.13917221E-030
 0.00000000E+000
 0.00000000E+000
 0.49140239E-020
 0.16977265E-019
 0.47293392E-019
 0.10542637E-018
 0.19270384E-018
 0.28912090E-018
 0.35161473E-018
 0.34585240E-018
 0.27734869E-018
 0.18244895E-018
 0.98375353E-019
 0.43179580E-019
 0.15272909E-019
 0.42966207E-020
 0.94502379E-021
 0.15876977E-021
 0.19712104E-022
 0.17203735E-023
 0.97185823E-025
 0.30406150E-026
 0.35655296E-028
 0.00000000E+000
 0.00000000E+000
 0.00000000E+000
 0.16297952E-018
 0.64206327E-018
 0.19594307E-017
 0.46585248E-017
 0.88856759E-017
 0.13663016E-016
 0.16778323E-016
 0.16440761E-016
 0.12954287E-016
 0.82457356E-017
 0.42268433E-017
 0.17280846E-017
 0.55595670E-018
 0.13831597E-018
 0.25992750E-019
 0.35683552E-020
 0.34017464E-021
 0.20706940E-022
 0.68577081E-024
 0.82304707E-026
 0.00000000E+000
 0.00000000E+000
 0.00000000E+000
 0.00000000E+000
 0.45157714E-017
 0.20899406E-016
 0.71338296E-016
 0.18335277E-015
 0.36777912E-015
 0.58164100E-015
 0.72203505E-015
 0.70447715E-015
 0.54403727E-015
 0.33323883E-015
 0.16084574E-015
 0.60349357E-016
 0.17284601E-016
 0.36893907E-017
 0.56735918E-018
 0.59707318E-019
 0.39467287E-020
 0.13896918E-021
 0.17035264E-023
 0.00000000E+000
 0.00000000E+000
 0.00000000E+000
 0.00000000E+000
 0.00000000E+000
 0.10059637E-015
 0.57183163E-015
 0.22497932E-014
 0.63707365E-014
 0.13578627E-013
 0.22183456E-013
 0.27872611E-013
 0.27064843E-013
 0.20423740E-013
 0.11952571E-013
 0.53619747E-014
 0.18086650E-014
 0.44731509E-015
 0.78352826E-016
 0.92246638E-017
 0.66867994E-018
 0.25167273E-019
 0.31406202E-021
 0.00000000E+000
 0.00000000E+000
 0.00000000E+000
 0.00000000E+000
 0.00000000E+000
 0.00000000E+000
 0.16870893E-014
 0.12664488E-013
 0.60141324E-013
 0.19296001E-012
 0.44346162E-012
 0.75247143E-012
 0.95820914E-012
 0.92562128E-012
 0.68008384E-012
 0.37659753E-012
 0.15414762E-012
 0.45365791E-013
 0.92553593E-014
 0.12405513E-014
 0.99846371E-016
 0.40436549E-017
 0.51119380E-019
 0.00000000E+000
 0.00000000E+000
 0.00000000E+000
 0.00000000E+000
 0.00000000E+000
 0.00000000E+000
 0.00000000E+000
 0.18742343E-013
 0.21255444E-012
 0.13158850E-011
 0.50009415E-011
 0.12668596E-010
 0.22480817E-010
 0.29049777E-010
 0.27914288E-010
 0.19881816E-010
 0.10274586E-010
 0.37325684E-011
 0.91499346E-012
 0.14302730E-012
 0.12993164E-013
 0.57078572E-015
 0.72567271E-017
 0.00000000E+000
 0.00000000E+000
 0.00000000E+000
 0.00000000E+000
 0.00000000E+000
 0.00000000E+000
 0.00000000E+000
 0.00000000E+000
 0.10099596E-012
 0.23667056E-011
 0.22123778E-010
 0.10768475E-009
 0.31180240E-009
 0.58389977E-009
 0.76623821E-009
 0.73298938E-009
 0.50340796E-009
 0.23771764E-009
 0.73289421E-010
 0.13838915E-010
 0.14517627E-011
 0.69881950E-013
 0.88286113E-015
 0.00000000E+000
 0.00000000E+000
 0.00000000E+000
 0.00000000E+000
 0.00000000E+000
 0.00000000E+000
 0.00000000E+000
 0.00000000E+000
 0.00000000E+000
 0.55196565E-013
 0.12496215E-010
 0.24883267E-009
 0.18258436E-008
 0.64687519E-008
 0.12948454E-007
 0.17250631E-007
 0.16479391E-007
 0.10842946E-007
 0.45149188E-008
 0.10890623E-008
 0.13648554E-009
 0.72943129E-011
 0.89777059E-013
 0.00000000E+000
 0.00000000E+000
 0.00000000E+000
 0.00000000E+000
 0.00000000E+000
 0.00000000E+000
 0.00000000E+000
 0.00000000E+000
 0.00000000E+000
 0.00000000E+000
 0.00000000E+000
 0.18923137E-010
 0.20853266E-008
 0.26842621E-007
 0.11742028E-006
 0.24250950E-006
 0.32168334E-006
 0.31124221E-006
 0.20144172E-006
 0.74981189E-007
 0.13741939E-007
 0.99178373E-009
 0.14858877E-010
 0.00000000E+000
 0.00000000E+000
 0.00000000E+000
 0.00000000E+000
 0.00000000E+000
 0.00000000E+000
 0.00000000E+000
 0.00000000E+000
 0.00000000E+000
 0.00000000E+000
 0.00000000E+000
 0.00000000E+000
 0.00000000E+000
 0.16796736E-007
 0.37733720E-006
 0.19293902E-005
 0.38370596E-005
 0.49248381E-005
 0.49382044E-005
 0.32985474E-005
 0.11597005E-005
 0.16709486E-006
 0.64103565E-008
 0.00000000E+000
 0.15353337E-013
 0.00000000E+000
 0.00000000E+000
 0.00000000E+000
 0.00000000E+000
 0.00000000E+000
 0.00000000E+000
 0.00000000E+000
 0.00000000E+000
 0.00000000E+000
 0.00000000E+000
 0.00000000E+000
 0.00000000E+000
 0.61899495E-007
 0.43612025E-005
 0.28226059E-004
 0.51844670E-004
 0.63286834E-004
 0.67640923E-004
 0.48090177E-004
 0.15847048E-004
 0.14880539E-005
 0.90404539E-008
 0.00000000E+000
 0.16768174E-013
 0.00000000E+000
 0.00000000E+000
 0.00000000E+000
 0.00000000E+000
 0.00000000E+000
 0.00000000E+000
 0.00000000E+000
 0.00000000E+000
 0.00000000E+000
 0.00000000E+000
 0.71797778E-014
 0.00000000E+000
 0.00000000E+000
 0.30172689E-004
 0.28825962E-002
 0.33816261E-002
 0.34199317E-002
 0.34581029E-002
 0.32094009E-002
 0.71349529E-003
 0.76561012E-005
 0.00000000E+000
 0.00000000E+000
 0.97453596E-013
 0.00000000E+000
 0.00000000E+000
 0.00000000E+000
 0.00000000E+000
 0.00000000E+000
 0.00000000E+000
 0.00000000E+000
 0.00000000E+000
 0.00000000E+000
 0.00000000E+000
 0.00000000E+000
 0.00000000E+000
 0.00000000E+000
 0.68839770E-004
 0.27236374E-002
 0.35398456E-002
 0.36435562E-002
 0.32623019E-002
 0.23399068E-002
 0.75125783E-003
 0.12838241E-004
 0.00000000E+000
 0.88441750E-011
 0.00000000E+000
 0.31599007E-015
 0.00000000E+000
 0.00000000E+000
 0.00000000E+000
 0.00000000E+000
 0.00000000E+000
 0.00000000E+000
 0.00000000E+000
 0.00000000E+000
 0.00000000E+000
 0.00000000E+000
 0.00000000E+000
 0.00000000E+000
 0.67796075E-004
 0.27412083E-002
 0.35321923E-002
 0.35966630E-002
 0.32343273E-002
 0.23855760E-002
 0.73587409E-003
 0.14461602E-004
 0.00000000E+000
 0.00000000E+000
 0.66638375E-013
 0.00000000E+000
 0.66021785E-018
 0.00000000E+000
 0.00000000E+000
 0.00000000E+000
 0.00000000E+000
 0.00000000E+000
 0.00000000E+000
 0.00000000E+000
 0.00000000E+000
 0.00000000E+000
 0.00000000E+000
 0.00000000E+000
 0.71781888E-004
 0.27294009E-002
 0.35291446E-002
 0.36000909E-002
 0.32621259E-002
 0.24609338E-002
 0.76154643E-003
 0.15507136E-004
 0.00000000E+000
 0.00000000E+000
 0.00000000E+000
 0.29293957E-015
 0.00000000E+000
 0.79211667E-021
 0.00000000E+000
 0.00000000E+000
 0.00000000E+000
 0.00000000E+000
 0.00000000E+000
 0.00000000E+000
 0.00000000E+000
 0.00000000E+000
 0.00000000E+000
 0.00000000E+000
 0.76890225E-004
 0.27167249E-002
 0.35261771E-002
 0.36029590E-002
 0.32709662E-002
 0.24941339E-002
 0.76992562E-003
 0.16716204E-004
 0.13133586E-007
 0.00000000E+000
 0.00000000E+000
 0.00000000E+000
 0.89915899E-018
 0.00000000E+000
 0.37354557E-024
 0.00000000E+000
 0.00000000E+000
 0.00000000E+000
 0.00000000E+000
 0.00000000E+000
 0.00000000E+000
 0.00000000E+000
 0.00000000E+000
 0.00000000E+000
 0.84012122E-004
 0.27017317E-002
 0.35224899E-002
 0.36041071E-002
 0.32745916E-002
 0.25085929E-002
 0.77293910E-003
 0.17941620E-004
 0.49614268E-007
 0.33669491E-011
 0.46762439E-014
 0.00000000E+000
 0.00000000E+000
 0.18795550E-020
 0.00000000E+000
 0.31771690E-028
 0.00000000E+000
 0.00000000E+000
 0.00000000E+000
 0.00000000E+000
 0.00000000E+000
 0.00000000E+000
 0.00000000E+000
 0.00000000E+000
 0.92563122E-004
 0.26868272E-002
 0.35188287E-002
 0.36046959E-002
 0.32766479E-002
 0.25180540E-002
 0.77468047E-003
 0.19087090E-004
 0.88984877E-007
 0.22136664E-009
 0.22365138E-012
 0.30595706E-015
 0.15827795E-018
 0.12208604E-021
 0.25699912E-023
 0.00000000E+000
 0.10197615E-029
 0.00000000E+000
 0.17328221E-035
 0.00000000E+000
 0.19039728E-042
 0.00000000E+000
 0.00000000E+000
 0.16105663E-006
 0.97216663E-004
 0.26798521E-002
 0.35172428E-002
 0.36048890E-002
 0.32773892E-002
 0.25215881E-002
 0.77531705E-003
 0.19603508E-004
 0.10797155E-006
 0.36264505E-009
 0.69920408E-012
 0.59388585E-015
 0.59544779E-018
 0.23987644E-021
 0.10908978E-024
 0.43331637E-026
 0.00000000E+000
 0.13060819E-031
 0.00000000E+000
 0.16302297E-038
 0.00000000E+000
 0.00000000E+000
 0.00000000E+000
 0.00000000E+000
 0.92563122E-004
 0.26868272E-002
 0.35188287E-002
 0.36046959E-002
 0.32766480E-002
 0.25180543E-002
 0.77468059E-003
 0.19087095E-004
 0.88984958E-007
 0.22136748E-009
 0.22367976E-012
 0.30594208E-015
 0.15828215E-018
 0.11791980E-021
 0.32474919E-023
 0.00000000E+000
 0.21009072E-028
 0.00000000E+000
 0.17328221E-035
 0.00000000E+000
 0.19039728E-042
 0.00000000E+000
 0.00000000E+000
 0.00000000E+000
 0.84012121E-004
 0.27017316E-002
 0.35224897E-002
 0.36041069E-002
 0.32745920E-002
 0.25085967E-002
 0.77294046E-003
 0.17941684E-004
 0.49615002E-007
 0.33919086E-011
 0.46617836E-014
 0.00000000E+000
 0.00000000E+000
 0.20790596E-020
 0.00000000E+000
 0.17619369E-025
 0.00000000E+000
 0.00000000E+000
 0.00000000E+000
 0.00000000E+000
 0.00000000E+000
 0.00000000E+000
 0.00000000E+000
 0.00000000E+000
 0.76890200E-004
 0.27167241E-002
 0.35261725E-002
 0.36029504E-002
 0.32709693E-002
 0.24941618E-002
 0.76994096E-003
 0.16716683E-004
 0.13147725E-007
 0.00000000E+000
 0.00000000E+000
 0.00000000E+000
 0.84324009E-018
 0.00000000E+000
 0.10275168E-022
 0.00000000E+000
 0.00000000E+000
 0.00000000E+000
 0.27043340E-036
 0.00000000E+000
 0.00000000E+000
 0.00000000E+000
 0.00000000E+000
 0.00000000E+000
 0.71781076E-004
 0.27293763E-002
 0.35291147E-002
 0.35999921E-002
 0.32619978E-002
 0.24611576E-002
 0.76161490E-003
 0.15513445E-004
 0.00000000E+000
 0.00000000E+000
 0.00000000E+000
 0.22438724E-015
 0.00000000E+000
 0.46801660E-020
 0.00000000E+000
 0.00000000E+000
 0.00000000E+000
 0.16638221E-033
 0.00000000E+000
 0.00000000E+000
 0.00000000E+000
 0.00000000E+000
 0.00000000E+000
 0.00000000E+000
 0.67824564E-004
 0.27411068E-002
 0.35314956E-002
 0.35957360E-002
 0.32339807E-002
 0.23844736E-002
 0.73662346E-003
 0.14428026E-004
 0.00000000E+000
 0.00000000E+000
 0.39563444E-013
 0.00000000E+000
 0.16918602E-017
 0.00000000E+000
 0.00000000E+000
 0.00000000E+000
 0.65046688E-031
 0.00000000E+000
 0.00000000E+000
 0.00000000E+000
 0.00000000E+000
 0.00000000E+000
 0.00000000E+000
 0.00000000E+000
 0.68282245E-004
 0.27244313E-002
 0.35406888E-002
 0.36360612E-002
 0.32497670E-002
 0.23476729E-002
 0.74356752E-003
 0.13358063E-004
 0.00000000E+000
 0.38185426E-011
 0.00000000E+000
 0.45758351E-015
 0.00000000E+000
 0.00000000E+000
 0.00000000E+000
 0.15640325E-028
 0.00000000E+000
 0.00000000E+000
 0.00000000E+000
 0.00000000E+000
 0.00000000E+000
 0.00000000E+000
 0.00000000E+000
 0.00000000E+000
 0.35018281E-004
 0.28623162E-002
 0.33633643E-002
 0.34642883E-002
 0.35072453E-002
 0.30566826E-002
 0.78924498E-003
 0.13247665E-004
 0.00000000E+000
 0.00000000E+000
 0.77103854E-013
 0.00000000E+000
 0.49219212E-018
 0.00000000E+000
 0.16831716E-026
 0.00000000E+000
 0.00000000E+000
 0.00000000E+000
 0.00000000E+000
 0.00000000E+000
 0.00000000E+000
