 0.00000000E+000 -0.49999999E-001
 0.00000000E+000 -0.39999999E-001
 0.00000000E+000 -0.49999999E-001
 0.00000000E+000 -0.40000000E-001
 0.00000000E+000 -0.29999999E-001
 0.00000000E+000 -0.49999999E-001
 0.00000000E+000 -0.39999999E-001
 0.00000000E+000 -0.30000000E-001
 0.00000000E+000 -0.30000000E-001
 0.00000000E+000 -0.19999999E-001
 0.00000000E+000 -0.49999999E-001
 0.00000000E+000 -0.40000000E-001
 0.00000000E+000 -0.19999999E-001
 0.00000000E+000 -0.29999999E-001
 0.00000000E+000 -0.20000000E-001
 0.00000000E+000 -0.49999999E-001
 0.00000000E+000 -0.10000000E-001
 0.00000000E+000 -0.39999999E-001
 0.00000000E+000 -0.10000000E-001
 0.00000000E+000 -0.20000000E-001
 0.00000000E+000 -0.29999999E-001
 0.00000000E+000 -0.10000000E-001
 0.00000000E+000  0.00000000E+000
 0.00000000E+000 -0.99999999E-002
 0.00000000E+000 -0.49999999E-001
 0.00000000E+000 -0.19999999E-001
 0.00000000E+000  0.00000000E+000
 0.00000000E+000 -0.40000000E-001
 0.00000000E+000 -0.30000000E-001
 0.00000000E+000  0.00000000E+000
 0.00000000E+000 -0.10000000E-001
 0.00000000E+000 -0.20000000E-001
 0.00000000E+000  0.00000000E+000
 0.00000000E+000 -0.10000000E-001
 0.00000000E+000  0.00000000E+000
 0.00000000E+000  0.00000000E+000
