GiD Post Results File 1.0
 
Result DISPM ALYA  0.10000000E+02 Vector OnNodes
ComponentNames DISPM_X,DISPM_Y,DISPM_Z
Values
          1  0.00000000E+000 -0.50000000E+000
          2  0.00000000E+000 -0.40000000E+000
          3  0.00000000E+000 -0.50000000E+000
          4  0.00000000E+000 -0.40000000E+000
          5  0.00000000E+000 -0.30000000E+000
          6  0.00000000E+000 -0.50000000E+000
          7  0.00000000E+000 -0.40000000E+000
          8  0.00000000E+000 -0.30000000E+000
          9  0.00000000E+000 -0.30000000E+000
         10  0.00000000E+000 -0.20000000E+000
         11  0.00000000E+000 -0.50000000E+000
         12  0.00000000E+000 -0.40000000E+000
         13  0.00000000E+000 -0.20000000E+000
         14  0.00000000E+000 -0.30000000E+000
         15  0.00000000E+000 -0.20000000E+000
         16  0.00000000E+000 -0.50000000E+000
         17  0.00000000E+000 -0.10000000E+000
         18  0.00000000E+000 -0.40000000E+000
         19  0.00000000E+000 -0.10000000E+000
         20  0.00000000E+000 -0.20000000E+000
         21  0.00000000E+000 -0.30000000E+000
         22  0.00000000E+000 -0.10000000E+000
         23  0.00000000E+000  0.00000000E+000
         24  0.00000000E+000 -0.10000000E+000
         25  0.00000000E+000 -0.50000000E+000
         26  0.00000000E+000 -0.20000000E+000
         27  0.00000000E+000  0.00000000E+000
         28  0.00000000E+000 -0.40000000E+000
         29  0.00000000E+000 -0.30000000E+000
         30  0.00000000E+000  0.00000000E+000
         31  0.00000000E+000 -0.10000000E+000
         32  0.00000000E+000 -0.20000000E+000
         33  0.00000000E+000  0.00000000E+000
         34  0.00000000E+000 -0.10000000E+000
         35  0.00000000E+000  0.00000000E+000
         36  0.00000000E+000  0.00000000E+000
End values

Result VELOM ALYA  0.10000000E+02 Vector OnNodes
ComponentNames VELOM_X,VELOM_Y,VELOM_Z
Values
          1  0.00000000E+000 -0.50000000E-001
          2  0.00000000E+000 -0.40000000E-001
          3  0.00000000E+000 -0.50000000E-001
          4  0.00000000E+000 -0.40000000E-001
          5  0.00000000E+000 -0.30000000E-001
          6  0.00000000E+000 -0.50000000E-001
          7  0.00000000E+000 -0.40000000E-001
          8  0.00000000E+000 -0.30000000E-001
          9  0.00000000E+000 -0.30000000E-001
         10  0.00000000E+000 -0.20000000E-001
         11  0.00000000E+000 -0.50000000E-001
         12  0.00000000E+000 -0.40000000E-001
         13  0.00000000E+000 -0.20000000E-001
         14  0.00000000E+000 -0.30000000E-001
         15  0.00000000E+000 -0.20000000E-001
         16  0.00000000E+000 -0.50000000E-001
         17  0.00000000E+000 -0.10000000E-001
         18  0.00000000E+000 -0.40000000E-001
         19  0.00000000E+000 -0.10000000E-001
         20  0.00000000E+000 -0.20000000E-001
         21  0.00000000E+000 -0.30000000E-001
         22  0.00000000E+000 -0.10000000E-001
         23  0.00000000E+000  0.00000000E+000
         24  0.00000000E+000 -0.10000000E-001
         25  0.00000000E+000 -0.50000000E-001
         26  0.00000000E+000 -0.20000000E-001
         27  0.00000000E+000  0.00000000E+000
         28  0.00000000E+000 -0.40000000E-001
         29  0.00000000E+000 -0.30000000E-001
         30  0.00000000E+000  0.00000000E+000
         31  0.00000000E+000 -0.10000000E-001
         32  0.00000000E+000 -0.20000000E-001
         33  0.00000000E+000  0.00000000E+000
         34  0.00000000E+000 -0.10000000E-001
         35  0.00000000E+000  0.00000000E+000
         36  0.00000000E+000  0.00000000E+000
End values

