 0.68144438E+001
 0.69500550E+001
 0.18273056E+002
 0.12830839E+002
 0.91131489E+001
 0.22415245E+002
 0.15481898E+002
 0.15976098E+002
 0.61787770E+001
 0.65329152E+001
 0.12974387E+002
 0.13147130E+002
 0.13130440E+002
 0.13055074E+002
 0.12930987E+002
 0.12757890E+002
 0.12551089E+002
 0.12297859E+002
 0.11996487E+002
 0.11640092E+002
 0.11196744E+002
 0.10661748E+002
 0.97996262E+001
 0.21993348E+002
 0.21520218E+002
 0.21103998E+002
 0.20708416E+002
 0.20362157E+002
 0.20050611E+002
 0.19772192E+002
 0.19525830E+002
 0.19298652E+002
 0.19106419E+002
 0.18930623E+002
 0.18748750E+002
 0.18453321E+002
 0.18709025E+002
 0.18731406E+002
 0.18363156E+002
 0.18367587E+002
 0.18415806E+002
 0.18109079E+002
 0.18022774E+002
 0.17413516E+002
 0.17027029E+002
 0.16625960E+002
 0.16420004E+002
 0.16094920E+002
 0.15110255E+002
 0.13601950E+002
 0.11546462E+002
 0.15724614E+000
-0.38774864E+000
 0.66454398E+000
 0.12915497E+002
 0.18257611E+002
 0.22236474E+002
 0.24977427E+002
 0.26927426E+002
 0.28444871E+002
 0.29197563E+002
 0.29809448E+002
 0.29605044E+002
 0.30004254E+002
 0.29906664E+002
 0.29764370E+002
 0.29108183E+002
 0.28395386E+002
 0.26863235E+002
 0.24978202E+002
 0.22040277E+002
 0.17901611E+002
 0.12673515E+002
 0.46446061E+000
-0.28346720E+000
 0.16708243E+000
 0.10808461E+002
 0.12628499E+002
 0.13795682E+002
 0.14467970E+002
 0.14456148E+002
 0.14292330E+002
 0.14295754E+002
 0.14276090E+002
 0.14461661E+002
 0.14123905E+002
 0.14034035E+002
 0.13618079E+002
 0.13316260E+002
 0.13465448E+002
 0.13301701E+002
 0.22388213E+002
 0.22367274E+002
 0.22066782E+002
 0.21842052E+002
 0.21496471E+002
 0.21022166E+002
 0.20726750E+002
 0.20219314E+002
 0.19927458E+002
 0.19417428E+002
 0.18912710E+002
 0.18416247E+002
 0.18165413E+002
 0.17689078E+002
 0.17228340E+002
 0.17013460E+002
 0.16564394E+002
 0.16344024E+002
 0.16308404E+002
 0.16046044E+002
 0.16096430E+002
 0.15997046E+002
 0.15708480E+002
 0.15128556E+002
 0.17162125E+002
 0.17505440E+002
 0.17503287E+002
 0.17269467E+002
 0.17111994E+002
 0.16612589E+002
 0.16209645E+002
 0.15961069E+002
 0.15411484E+002
 0.15079066E+002
 0.14713361E+002
 0.14086111E+002
 0.13712239E+002
 0.13329777E+002
 0.12935165E+002
 0.12332824E+002
 0.11989818E+002
 0.11447709E+002
 0.11163529E+002
 0.10774519E+002
 0.10351620E+002
 0.10076142E+002
 0.95326093E+001
 0.13719220E+002
 0.18715459E+002
 0.17566547E+002
 0.15315704E+002
 0.17832787E+002
 0.18435877E+002
 0.22776113E+002
 0.12642695E+002
 0.19824451E+002
 0.16879330E+002
 0.17648096E+002
 0.18170922E+002
 0.14568988E+002
 0.19787358E+002
 0.19216331E+002
 0.15913990E+002
 0.17344709E+002
 0.15605529E+002
 0.17102534E+002
 0.19131112E+002
 0.13487603E+002
 0.23288602E+002
 0.23098373E+002
 0.17884539E+002
 0.14445387E+002
 0.17380791E+002
 0.18843697E+002
 0.13358304E+002
 0.17802345E+002
 0.19245121E+002
 0.14779441E+002
 0.17215952E+002
 0.16771066E+002
 0.17048053E+002
 0.14801915E+002
 0.15840375E+002
 0.20852021E+002
 0.11573336E+002
 0.17600090E+002
 0.15298638E+002
 0.18407416E+002
 0.13878562E+002
 0.19345872E+002
 0.12969846E+002
 0.25968695E+002
 0.17803474E+002
 0.18367343E+002
 0.14365628E+002
 0.20182333E+002
 0.12383108E+002
 0.17366727E+002
 0.17924657E+002
 0.14717773E+002
 0.26215218E+002
 0.18604845E+002
 0.20071677E+002
 0.12309000E+002
 0.22540932E+002
 0.17731234E+002
 0.15177427E+002
 0.18186429E+002
 0.18008117E+002
 0.16059095E+002
 0.17464263E+002
 0.22250202E+002
 0.19132850E+002
 0.13368751E+002
 0.20540156E+002
 0.19920942E+002
 0.17652364E+002
 0.18663871E+002
 0.13932135E+002
 0.19634801E+002
 0.19560664E+002
 0.14756769E+002
 0.16533802E+002
 0.16572985E+002
 0.16828621E+002
 0.16686873E+002
 0.23402298E+002
 0.12487559E+002
 0.23918085E+002
 0.19967295E+002
 0.19011596E+002
 0.13669693E+002
 0.13184218E+002
 0.13677792E+002
 0.17517007E+002
 0.15717760E+002
 0.17398643E+002
 0.14144052E+002
 0.16071113E+002
 0.16969508E+002
 0.16604226E+002
 0.17652490E+002
 0.14811963E+002
 0.19066195E+002
 0.13322833E+002
 0.19761072E+002
 0.12912448E+002
 0.18252622E+002
 0.14197545E+002
 0.16144698E+002
 0.18767190E+002
 0.13308460E+002
 0.16884020E+002
 0.17261417E+002
 0.17232025E+002
 0.19077739E+002
 0.13117819E+002
 0.18566250E+002
 0.13516856E+002
 0.17512448E+002
 0.14463865E+002
 0.18714359E+002
 0.13588678E+002
 0.20957269E+002
 0.11576426E+002
 0.10855121E+002
 0.21478179E+002
 0.18096647E+002
 0.14207010E+002
 0.27291731E+002
 0.19600347E+002
 0.12943235E+002
 0.20616530E+002
 0.26902900E+002
 0.25813074E+002
 0.17340143E+002
 0.17041040E+002
 0.17839387E+002
 0.14943261E+002
 0.18255578E+002
 0.14368620E+002
 0.15173197E+002
 0.17364423E+002
 0.18615233E+002
 0.14056526E+002
 0.20981749E+002
 0.19705165E+002
 0.12629005E+002
 0.20318681E+002
 0.14229283E+002
 0.15593854E+002
 0.17443716E+002
 0.15638718E+002
 0.17522555E+002
 0.19690065E+002
 0.12698354E+002
 0.20642049E+002
 0.11727049E+002
 0.17583858E+002
 0.15414989E+002
 0.16596127E+002
 0.20389719E+002
 0.12101390E+002
 0.18160615E+002
 0.16318620E+002
 0.17283353E+002
 0.15111611E+002
 0.17019339E+002
 0.15120682E+002
 0.20905655E+002
 0.17565896E+002
 0.16463050E+002
 0.16348225E+002
 0.28646830E+002
 0.24073869E+002
 0.17010351E+002
 0.21199228E+002
 0.13021803E+002
 0.19409024E+002
 0.16994709E+002
 0.15526098E+002
 0.17328360E+002
 0.12710061E+002
 0.18025825E+002
 0.14769851E+002
 0.23955741E+002
 0.13658076E+002
 0.17089861E+002
 0.14522076E+002
 0.16733641E+002
 0.19031602E+002
 0.13253858E+002
 0.18496312E+002
 0.13873001E+002
 0.19245911E+002
 0.20257275E+002
 0.12172848E+002
 0.19379093E+002
 0.12887530E+002
 0.18946864E+002
 0.18352041E+002
 0.14352984E+002
 0.17973445E+002
 0.18208453E+002
 0.14135049E+002
 0.20436294E+002
 0.12140458E+002
 0.23978469E+002
 0.15030725E+002
 0.17738104E+002
 0.18358590E+002
 0.13836648E+002
 0.24131587E+002
 0.94841025E+001
 0.18037446E+002
 0.14691204E+002
 0.26874015E+002
 0.18905959E+002
 0.13189089E+002
 0.89001051E+001
 0.18506355E+002
 0.14019049E+002
 0.21459494E+002
 0.11009047E+002
 0.17411430E+002
 0.18318782E+002
 0.19023364E+002
 0.17460712E+002
 0.17221379E+002
 0.16652370E+002
 0.16507380E+002
 0.18046685E+002
 0.20425202E+002
 0.22199258E+002
 0.28894118E+002
 0.19157961E+002
 0.19713226E+002
 0.12887604E+002
 0.21795954E+002
 0.16673641E+002
 0.21832910E+002
 0.18612700E+002
 0.17173083E+002
 0.15036204E+002
 0.17830162E+002
 0.16922739E+002
 0.17504814E+002
 0.14660186E+002
 0.19067158E+002
 0.13500100E+002
 0.19534134E+002
 0.21391842E+002
 0.28483295E+002
 0.17992434E+002
 0.20934933E+002
 0.18824127E+002
 0.18377758E+002
 0.22290615E+002
 0.26850826E+002
 0.18642631E+002
 0.13575301E+002
 0.18029204E+002
 0.14428302E+002
 0.19452383E+002
 0.22071470E+002
 0.21030955E+002
 0.11296770E+002
 0.19088721E+002
 0.21311349E+002
 0.19586641E+002
 0.13206788E+002
 0.16131560E+002
 0.17158527E+002
 0.15974702E+002
 0.18862183E+002
 0.13645564E+002
 0.16158424E+002
 0.28730255E+002
 0.15159184E+002
 0.14838429E+002
 0.16597297E+002
 0.20007707E+002
 0.12507297E+002
 0.16375494E+002
 0.17123507E+002
 0.17461723E+002
 0.15541458E+002
 0.18776838E+002
 0.13899929E+002
 0.15716875E+002
 0.17479785E+002
 0.18582575E+002
 0.13394177E+002
 0.16540990E+002
 0.17538018E+002
 0.20174860E+002
 0.12181978E+002
 0.18927217E+002
 0.13522567E+002
 0.14489094E+002
 0.17460333E+002
 0.17815184E+002
 0.14385095E+002
 0.14384079E+002
 0.17072856E+002
 0.16815112E+002
 0.19296306E+002
 0.13361233E+002
 0.19351270E+002
 0.20137235E+002
 0.20041098E+002
 0.10611999E+002
 0.18706487E+002
 0.13403094E+002
 0.18646637E+002
 0.13936361E+002
 0.17441047E+002
 0.18854584E+002
 0.16600659E+002
 0.17641396E+002
 0.17506391E+002
 0.25008529E+002
 0.15128927E+002
 0.20650428E+002
 0.18158483E+002
 0.14391371E+002
 0.16360116E+002
 0.10730130E+002
 0.14491601E+002
 0.19228536E+002
 0.16740643E+002
 0.20239152E+002
 0.12385183E+002
 0.24244209E+002
 0.19405718E+002
 0.12970727E+002
 0.17874075E+002
 0.24537905E+002
 0.15467902E+002
 0.18138234E+002
 0.18482641E+002
 0.12976831E+002
 0.19507688E+002
 0.20908687E+002
 0.11638095E+002
 0.16094491E+002
 0.10396838E+002
 0.21788055E+002
 0.15486907E+002
 0.17216902E+002
 0.15896245E+002
 0.16990582E+002
 0.18450183E+002
 0.14214715E+002
 0.14506309E+002
 0.16134274E+002
 0.16923624E+002
 0.17151105E+002
 0.10268411E+002
 0.17366527E+002
 0.18311879E+002
 0.14420371E+002
 0.18704430E+002
 0.13199483E+002
 0.16818614E+002
 0.18838367E+002
 0.13537221E+002
 0.24186046E+002
 0.16993004E+002
 0.16908773E+002
 0.18020378E+002
 0.14801533E+002
 0.17837940E+002
 0.14383036E+002
 0.17486892E+002
 0.17508190E+002
 0.15605538E+002
 0.16814462E+002
 0.15104121E+002
 0.17520689E+002
 0.18928169E+002
 0.13238265E+002
 0.20733414E+002
 0.13298357E+002
 0.11529883E+002
 0.15974144E+002
 0.17396045E+002
 0.24094670E+002
 0.20569302E+002
 0.11980191E+002
 0.16516140E+002
 0.19223806E+002
 0.12991654E+002
 0.18146709E+002
 0.17411451E+002
 0.14928487E+002
 0.19878618E+002
 0.12459383E+002
 0.17788179E+002
 0.14808312E+002
 0.17639162E+002
 0.15305751E+002
 0.15428751E+002
 0.17440529E+002
 0.18484286E+002
 0.13965857E+002
 0.14465473E+002
 0.19166449E+002
 0.13100326E+002
 0.17037332E+002
 0.18266088E+002
 0.14062865E+002
 0.19975529E+002
 0.12634390E+002
 0.79459644E+001
 0.19959295E+002
 0.12465957E+002
 0.16910071E+002
 0.14804581E+002
 0.17511284E+002
 0.15207693E+002
 0.16709148E+002
 0.21180845E+002
 0.80163014E+001
 0.25013122E+002
 0.18623750E+002
 0.14060356E+002
 0.22559020E+002
 0.18764865E+002
 0.13382970E+002
 0.19796085E+002
 0.12568525E+002
 0.16758175E+002
 0.17414996E+002
 0.16959360E+002
 0.15642917E+002
 0.17313692E+002
 0.15743336E+002
 0.14567639E+002
 0.16496285E+002
 0.26234595E+002
 0.18849467E+002
 0.13766824E+002
 0.16737335E+002
 0.21883594E+002
 0.10536457E+002
 0.17899813E+002
 0.18289717E+002
 0.13995599E+002
 0.19730391E+002
 0.16160400E+002
 0.19301966E+002
 0.13267809E+002
 0.17280538E+002
 0.14577408E+002
 0.17726258E+002
 0.20447859E+002
 0.18489290E+002
 0.13712212E+002
 0.24226587E+002
 0.16337391E+002
 0.16934217E+002
 0.18095862E+002
 0.14685908E+002
 0.16974629E+002
 0.17717116E+002
 0.14604681E+002
 0.29363648E+002
 0.18843114E+002
 0.13409658E+002
 0.20249862E+002
 0.14735153E+002
 0.21406173E+002
 0.10841575E+002
 0.26381993E+002
 0.21185107E+002
 0.11231078E+002
 0.18109609E+002
 0.14280882E+002
 0.19935002E+002
 0.12756751E+002
 0.16221820E+002
 0.18043660E+002
 0.14258109E+002
 0.20522052E+002
 0.11881152E+002
 0.21408804E+002
 0.11149106E+002
 0.26934766E+002
 0.19589813E+002
 0.12711354E+002
 0.16435883E+002
 0.26582112E+002
 0.20749446E+002
 0.11734854E+002
 0.15862611E+002
 0.19917386E+002
 0.21262949E+002
 0.15577586E+002
 0.17854868E+002
 0.14925780E+002
 0.17718473E+002
 0.19156762E+002
 0.13544811E+002
 0.18532895E+002
 0.13781252E+002
 0.15098824E+002
 0.18540494E+002
 0.19052165E+002
 0.13096237E+002
 0.26847779E+002
 0.15577749E+002
 0.17527842E+002
 0.17163630E+002
 0.16290705E+002
 0.16597218E+002
 0.18390032E+002
 0.13616994E+002
 0.18941775E+002
 0.13382687E+002
 0.14680787E+002
 0.17387530E+002
 0.14378222E+002
 0.20134621E+002
 0.12330162E+002
 0.17996362E+002
 0.19772354E+002
 0.20502623E+002
 0.11856136E+002
 0.16573079E+002
 0.19472878E+002
 0.12830433E+002
 0.17413784E+002
 0.22277393E+002
 0.24969291E+002
 0.29187936E+002
 0.18092919E+002
 0.14279399E+002
 0.28638759E+002
 0.16033990E+002
 0.17863152E+002
 0.14979476E+002
 0.15220806E+002
 0.17615393E+002
 0.18392154E+002
 0.18986525E+002
 0.13241294E+002
 0.13894357E+002
 0.15015274E+002
 0.17194540E+002
 0.15260972E+002
 0.17663552E+002
 0.18236912E+002
 0.14448371E+002
 0.11552806E+002
 0.20828007E+002
 0.17738212E+002
 0.17253190E+002
 0.19649373E+002
 0.12778281E+002
 0.18064485E+002
 0.14593137E+002
 0.25387155E+002
 0.84568959E+001
 0.19175030E+002
 0.13163265E+002
 0.18474119E+002
 0.14117805E+002
 0.15732289E+002
 0.17392134E+002
 0.19190322E+002
 0.13256844E+002
 0.19027049E+002
 0.13629880E+002
 0.15620188E+002
 0.16543276E+002
 0.17244032E+002
 0.16641685E+002
 0.17045589E+002
 0.19883318E+002
 0.12676531E+002
 0.14055299E+002
 0.15936956E+002
 0.17827737E+002
 0.14623791E+002
 0.22996784E+002
 0.16338240E+002
 0.19327292E+002
 0.13203197E+002
 0.18143536E+002
 0.14627471E+002
 0.26854900E+002
 0.17675691E+002
 0.17216155E+002
 0.20486696E+002
 0.11965263E+002
 0.19571368E+002
 0.12776283E+002
 0.17831142E+002
 0.14990618E+002
 0.19983638E+002
 0.12375981E+002
 0.78944793E+001
 0.16257137E+002
 0.18647176E+002
 0.19123805E+002
 0.15011788E+002
 0.17654503E+002
 0.21666370E+002
 0.18814166E+002
 0.13184784E+002
 0.17365367E+002
 0.18358951E+002
 0.13975492E+002
 0.17209132E+002
 0.15612537E+002
 0.16244775E+002
 0.16952155E+002
 0.14038398E+002
 0.15438112E+002
 0.23073693E+002
 0.18658988E+002
 0.13724207E+002
 0.17684897E+002
 0.14511024E+002
 0.17288956E+002
 0.29891809E+002
 0.17689260E+002
 0.19504857E+002
 0.22057998E+002
 0.15368400E+002
 0.16922643E+002
 0.13752567E+002
 0.27836293E+002
 0.17146699E+002
 0.17446277E+002
 0.28648896E+002
 0.12942550E+002
 0.23375187E+002
 0.19434892E+002
 0.13163330E+002
 0.18393630E+002
 0.24830463E+002
 0.25283569E+002
 0.16547268E+002
 0.19136020E+002
 0.14605382E+002
 0.17038658E+002
 0.22513793E+002
 0.29871243E+002
 0.21097200E+002
 0.11384618E+002
 0.17189033E+002
 0.20793178E+002
 0.11549407E+002
 0.20308164E+002
 0.12067555E+002
 0.15840555E+002
 0.25792747E+002
 0.21873007E+002
 0.15408619E+002
 0.17329582E+002
 0.17462197E+002
 0.16152665E+002
 0.17268676E+002
 0.23023937E+002
 0.14063780E+002
 0.18324077E+002
 0.18580256E+002
 0.13135184E+002
 0.15869092E+002
 0.17466352E+002
 0.18819613E+002
 0.13302591E+002
 0.17987185E+002
 0.18779954E+002
 0.17040954E+002
 0.19414816E+002
 0.13287093E+002
 0.14260230E+002
 0.16679960E+002
 0.23398179E+002
 0.21125401E+002
 0.18645792E+002
 0.13992293E+002
 0.17615026E+002
 0.15402147E+002
 0.14096892E+002
 0.18214543E+002
 0.18519696E+002
 0.17318790E+002
 0.18347282E+002
 0.14206910E+002
 0.18998932E+002
 0.16394792E+002
 0.15594128E+002
 0.12768145E+002
 0.19734136E+002
 0.16579789E+002
 0.15272041E+002
 0.17683039E+002
 0.20337748E+002
 0.12188761E+002
 0.19255860E+002
 0.12998016E+002
 0.15925001E+002
 0.15333393E+002
 0.17021909E+002
 0.17075813E+002
 0.20316828E+002
 0.12072263E+002
 0.15781099E+002
 0.18538626E+002
 0.21356039E+002
 0.18423620E+002
 0.13439469E+002
 0.29695874E+002
 0.18160315E+002
 0.17715816E+002
 0.18302962E+002
 0.14374497E+002
 0.16794279E+002
 0.17904097E+002
 0.21352837E+002
 0.14395896E+002
 0.16513091E+002
 0.18047773E+002
 0.14739338E+002
 0.21693466E+002
 0.18419406E+002
 0.17449926E+002
 0.19562609E+002
 0.20656174E+002
 0.11924680E+002
 0.19600768E+002
 0.13041482E+002
 0.19900170E+002
 0.18342458E+002
 0.14367223E+002
 0.21737365E+002
 0.22589082E+002
 0.17865739E+002
 0.17887626E+002
 0.17487838E+002
 0.21124366E+002
 0.11238814E+002
 0.20724782E+002
 0.16060220E+002
 0.12825695E+002
 0.18304899E+002
 0.17150791E+002
 0.19772667E+002
 0.22937507E+002
 0.21415829E+002
 0.12918869E+002
 0.14956006E+002
 0.16795162E+002
 0.16515404E+002
 0.19261003E+002
 0.13139794E+002
 0.18028205E+002
 0.14745499E+002
 0.12021757E+002
 0.18717694E+002
 0.13456381E+002
 0.16602728E+002
 0.20197210E+002
 0.12204721E+002
 0.25119065E+002
 0.19962942E+002
 0.18859365E+002
 0.13696749E+002
 0.12500827E+002
 0.17837304E+002
 0.15013665E+002
 0.19403359E+002
 0.12856702E+002
 0.16231874E+002
 0.18786092E+002
 0.18489268E+002
 0.21052875E+002
 0.22326592E+002
 0.21382783E+002
 0.20489186E+002
 0.18806059E+002
 0.18522730E+002
 0.14180348E+002
 0.15897173E+002
 0.17206316E+002
 0.18670948E+002
 0.13875094E+002
 0.20915197E+002
 0.21731572E+002
 0.10814952E+002
 0.78268781E+001
 0.16845014E+002
 0.18687235E+002
 0.13802829E+002
 0.17797823E+002
 0.17275824E+002
 0.18347320E+002
 0.13815434E+002
 0.83926720E+001
 0.18499432E+002
 0.50303750E+001
 0.14794028E+002
 0.17944774E+002
 0.14596962E+002
 0.21288957E+002
 0.11271497E+002
 0.20162710E+002
 0.19833722E+002
 0.14592002E+002
 0.16386217E+002
 0.15239872E+002
 0.17204578E+002
 0.51217260E+001
 0.16813235E+002
 0.18870719E+002
 0.13776814E+002
 0.18862577E+002
 0.19844360E+002
 0.17671115E+002
 0.12476144E+002
 0.19914157E+002
 0.17408239E+002
 0.21920205E+002
 0.21884243E+002
 0.18807488E+002
 0.11741956E+002
 0.24942908E+002
 0.18341512E+002
 0.16469755E+002
 0.16700065E+002
 0.98002058E+001
 0.22066916E+002
 0.14680447E+002
 0.16674249E+002
 0.49933545E+001
 0.27750958E+002
 0.24271560E+002
 0.27944689E+002
 0.52866934E+001
 0.10084751E+002
 0.22136551E+002
 0.19768117E+002
 0.20567030E+002
 0.21753374E+002
 0.10318667E+002
 0.16259589E+002
 0.18554363E+002
 0.13709943E+002
 0.20599341E+002
 0.11916882E+002
 0.19099762E+002
 0.14159743E+002
 0.18340346E+002
 0.18898631E+002
