GiD Post Results File 1.0
 
Result INTRA ALYA  0.11000000E+00 Scalar OnNodes
ComponentNames INTRA
Values
          1  0.42141260E+001
          2 -0.79960261E+001
          3  0.21489943E+000
          4 -0.12614838E+002
          5 -0.89374633E+001
          6 -0.20633977E+002
          7 -0.23003190E+002
          8 -0.19556061E+002
          9 -0.34119776E+002
         10  0.50340578E+002
         11  0.46910648E+002
         12  0.55546873E+002
         13  0.32827814E+002
         14 -0.51933683E+002
         15 -0.51759050E+002
         16 -0.48639679E+002
         17 -0.46738013E+002
         18  0.37925465E+002
         19  0.35459021E+002
         20  0.35432410E+002
         21  0.37670770E+002
         22  0.54321593E+002
         23  0.49229917E+002
         24  0.81400044E+002
         25  0.72007886E+002
         26  0.62917707E+002
         27 -0.30653656E+002
         28 -0.31692180E+002
         29  0.77829094E+002
         30  0.65337443E+002
         31 -0.47334135E+002
         32 -0.49721298E+002
         33 -0.45218806E+002
         34 -0.49479611E+002
         35 -0.50521217E+002
         36 -0.41079750E+002
         37 -0.45009097E+002
         38 -0.32603200E+002
         39 -0.36746309E+002
         40 -0.35850875E+002
         41 -0.44122674E+002
         42  0.48583176E+002
         43  0.52037109E+002
         44  0.54053808E+002
         45  0.35156991E+002
         46  0.36324650E+002
         47  0.33174350E+002
         48  0.79606640E+002
         49  0.80042309E+002
         50  0.68802845E+002
         51 -0.48383575E+002
         52 -0.46697125E+002
         53 -0.46830540E+002
         54 -0.44662128E+002
         55  0.76524216E+002
         56  0.53090755E+002
         57 -0.49029429E+002
         58  0.52225410E+002
         59  0.36981036E+002
         60 -0.49561139E+002
         61  0.87435673E+002
         62  0.83542064E+002
         63  0.77901714E+002
         64  0.71177861E+002
         65 -0.53348955E+002
         66 -0.50528931E+002
         67 -0.48197787E+002
         68 -0.18804097E+002
         69 -0.20199160E+002
         70 -0.19341542E+002
         71 -0.31223234E+002
         72 -0.30232230E+002
         73 -0.47839198E+002
         74 -0.45815272E+002
         75 -0.46439365E+002
         76 -0.31784837E+002
         77 -0.31083146E+002
         78 -0.32589022E+002
         79 -0.41330015E+002
         80 -0.46946971E+002
         81 -0.40261564E+002
         82  0.19551618E+002
         83  0.21403915E+002
         84  0.20112848E+002
         85  0.19972965E+002
         86  0.21930252E+002
         87  0.23185587E+002
         88 -0.39677982E+002
         89  0.22452373E+002
         90  0.23411421E+002
         91 -0.45920514E+002
         92 -0.44254305E+002
         93 -0.25459656E+002
         94 -0.21402555E+002
         95 -0.50859104E+002
         96 -0.32089487E+002
         97 -0.34304299E+002
         98 -0.43401463E+002
         99  0.60961688E+001
        100  0.74012971E+001
        101  0.65852547E+001
        102  0.23286969E+002
        103  0.49802224E+002
        104  0.56298853E+002
        105  0.37612205E+002
        106  0.33046723E+002
        107  0.76048983E+002
        108  0.18149683E+002
        109  0.22327335E+002
        110 -0.48336789E+002
        111 -0.46279500E+002
        112  0.33220197E+002
        113  0.32128991E+002
        114  0.35114959E+002
        115  0.47037750E+002
        116 -0.40792783E+002
        117  0.51934994E+002
        118  0.50306573E+002
        119  0.76406155E+002
        120 -0.19652393E+002
        121 -0.21180280E+002
        122 -0.31673456E+002
        123  0.70648059E+002
        124 -0.32195705E+002
        125 -0.33381981E+002
        126 -0.44220367E+002
        127  0.59013245E+002
        128  0.52729875E+002
        129  0.36621056E+002
        130 -0.20752966E+002
        131  0.79135247E+002
        132  0.83664937E+002
        133  0.54409821E+002
        134  0.77745689E+002
        135  0.18929121E+002
        136  0.17956704E+002
        137 -0.33112087E+002
        138 -0.43523469E+002
        139 -0.52715622E+002
        140 -0.48807242E+002
        141 -0.50476549E+002
        142 -0.41336087E+002
        143  0.66748949E+001
        144  0.52987621E+001
        145 -0.45016857E+002
        146  0.20517524E+002
        147 -0.33918136E+002
        148 -0.47639276E+002
        149 -0.47743628E+002
        150 -0.45265044E+002
        151 -0.22514128E+002
        152  0.21570061E+002
        153  0.39193406E+002
        154 -0.77704844E+001
        155 -0.45220513E+002
        156 -0.68124719E+001
        157 -0.79505463E+001
        158 -0.45811840E+002
        159 -0.43042743E+002
        160 -0.43241327E+002
        161 -0.37540472E+002
        162 -0.37894259E+002
        163 -0.40243714E+002
        164  0.79128772E+002
        165  0.53086716E+002
        166 -0.86923547E+001
        167 -0.43198542E+002
        168 -0.44156212E+002
        169 -0.74121235E+001
        170 -0.38417208E+002
        171 -0.37608916E+002
        172 -0.19940261E+002
        173 -0.20812109E+002
        174 -0.55393369E+001
        175 -0.75281568E+001
        176 -0.51964215E+001
        177 -0.18398363E+002
        178 -0.18435825E+002
        179 -0.48221674E+001
        180 -0.51226469E+001
        181 -0.18367227E+002
        182 -0.18490223E+002
        183  0.66222229E+001
        184  0.87221916E+001
        185  0.93880900E+001
        186  0.97040006E+001
        187  0.92934581E+001
        188 -0.20754142E+002
        189 -0.21813805E+002
        190 -0.51075154E+001
        191 -0.46571340E+002
        192 -0.44910275E+002
        193 -0.44372833E+002
        194  0.99491163E+001
        195  0.47094206E+001
        196  0.82918864E+001
        197 -0.97759157E+001
        198 -0.62418619E+001
        199 -0.20657014E+002
        200 -0.21755750E+002
        201 -0.21324927E+002
        202  0.31480295E+002
        203  0.34267489E+002
        204  0.32540353E+002
        205  0.48353888E+002
        206  0.53430766E+002
        207  0.46703331E+002
        208  0.81061078E+001
        209  0.23663073E+002
        210  0.79551568E+002
        211  0.63842924E+002
        212  0.70937178E+002
        213 -0.54192543E+001
        214 -0.65156533E+001
        215  0.15577692E+002
        216  0.18246997E+002
        217  0.17710478E+002
        218  0.41582615E+002
        219  0.35066673E+002
        220  0.28415363E+002
        221  0.58280803E+002
        222  0.15457553E+002
        223  0.20154820E+002
        224  0.43767556E+001
        225  0.29589911E+001
        226  0.44659566E+001
        227  0.61182064E+001
        228 -0.10153175E+002
        229 -0.91722510E+001
        230 -0.89019243E+001
        231  0.56409913E+002
        232  0.44713936E+002
        233  0.31839006E+002
        234 -0.22324643E+002
        235 -0.65020281E+001
        236 -0.86102899E+001
        237  0.60717755E+002
        238 -0.44091482E+002
        239 -0.38621550E+002
        240 -0.29209857E+002
        241 -0.29420935E+002
        242 -0.48014606E+002
        243  0.19207403E+002
        244  0.37479108E+002
        245 -0.29734122E+002
        246 -0.29248595E+002
        247 -0.39184336E+002
        248 -0.42616528E+002
        249 -0.44705301E+002
        250 -0.45610471E+002
        251 -0.46394486E+002
        252 -0.45205429E+002
        253 -0.52078631E+002
        254  0.41254810E+001
        255  0.22086168E+002
        256 -0.38333967E+002
        257  0.35428255E+002
        258 -0.39717207E+002
        259  0.20134091E+002
        260 -0.29882194E+002
        261  0.61876051E+001
        262 -0.43603043E+002
        263 -0.77824501E+001
        264 -0.38995860E+002
        265 -0.39807090E+002
        266 -0.30614934E+002
        267 -0.39193798E+002
        268 -0.30633451E+002
        269 -0.19503641E+002
        270 -0.62252238E+001
        271  0.82402845E+001
        272  0.80219878E+001
        273  0.94111928E+001
        274  0.22168165E+002
        275  0.37070560E+002
End values

Result DISPL ALYA  0.11000000E+00 Vector OnNodes
ComponentNames DISPL_X,DISPL_Y,DISPL_Z
Values
          1  0.43409519E-002  0.71560621E-002 -0.64215373E-001
          2  0.46866761E-002  0.35226528E-002 -0.79110470E-001
          3  0.70044002E-002  0.73558305E-002 -0.61896591E-001
          4  0.75856447E-002  0.10310406E-001 -0.75979924E-001
          5  0.33823301E-002  0.62988148E-002 -0.78655271E-001
          6  0.84588615E-002  0.14181114E-003 -0.92416772E-001
          7  0.90884395E-002  0.41195059E-002 -0.91818884E-001
          8  0.43707072E-002  0.36566596E-003 -0.95111100E-001
          9  0.91624955E-002  0.43123170E-002 -0.10590307E+000
         10  0.12242313E-001 -0.84855346E-002 -0.15112263E-001
         11  0.11049104E-001 -0.39227844E-002 -0.15476248E-001
         12  0.81892703E-002 -0.92091593E-002 -0.15615201E-001
         13  0.10526699E-001 -0.30740157E-002 -0.31008476E-001
         14  0.32481673E-002 -0.10361926E-001 -0.13908779E+000
         15  0.14717662E-002 -0.78547748E-002 -0.14147874E+000
         16  0.42219462E-002 -0.92210802E-002 -0.16000000E+000
         17 -0.14968186E-002  0.16630679E-003 -0.14131061E+000
         18  0.71581780E-002 -0.76608802E-002 -0.31292365E-001
         19  0.11164452E-001 -0.74668391E-002 -0.30491787E-001
         20  0.11289376E-001 -0.11599982E-001 -0.29015720E-001
         21  0.69670722E-002 -0.11687670E-001 -0.30124602E-001
         22  0.82303535E-002 -0.13426317E-001 -0.14922836E-001
         23  0.12992147E-001 -0.13162579E-001 -0.14261981E-001
         24  0.89732547E-002 -0.10162624E-001  0.00000000E+000
         25  0.13149294E-001 -0.91737445E-002  0.00000000E+000
         26  0.10658975E-001 -0.59408337E-002  0.00000000E+000
         27  0.40624500E-002  0.65781777E-003 -0.11105540E+000
         28  0.78334671E-002  0.29421307E-003 -0.10742598E+000
         29  0.94381422E-002 -0.14710101E-001  0.00000000E+000
         30  0.14313901E-001 -0.14170054E-001  0.00000000E+000
         31  0.18514091E-002 -0.34424276E-002 -0.16000000E+000
         32  0.00000000E+000  0.00000000E+000 -0.14390476E+000
         33 -0.30072086E-002 -0.22953667E-003 -0.14390737E+000
         34  0.24510453E-002  0.46006101E-002 -0.13143841E+000
         35  0.54863901E-002  0.57135958E-002 -0.12745571E+000
         36  0.39257524E-002  0.45106970E-002 -0.12598013E+000
         37  0.81757492E-002  0.88824696E-002 -0.11599754E+000
         38  0.51014652E-002  0.41173346E-002 -0.11030237E+000
         39  0.92688021E-002  0.88526865E-002 -0.10352763E+000
         40  0.49785256E-002  0.70823191E-002 -0.10551330E+000
         41  0.40167969E-002  0.82608769E-002 -0.11884724E+000
         42 -0.21079458E-002 -0.38104553E-002 -0.23490906E-001
         43 -0.23324420E-002 -0.83971754E-002 -0.23379855E-001
         44  0.56046836E-003 -0.52031650E-002 -0.16413939E-001
         45 -0.43190450E-002 -0.59934267E-002 -0.36717996E-001
         46 -0.60191842E-003 -0.38284393E-002 -0.32487987E-001
         47 -0.45339940E-002 -0.22428336E-002 -0.36654471E-001
         48  0.32450885E-002 -0.58933249E-002  0.00000000E+000
         49  0.18459179E-002 -0.29958746E-002  0.00000000E+000
         50  0.00000000E+000  0.00000000E+000 -0.16578075E-001
         51 -0.10551088E-002 -0.50888941E-002 -0.16000000E+000
         52 -0.21989686E-002 -0.22233334E-002 -0.16000000E+000
         53 -0.27087088E-003 -0.35366756E-002 -0.16000000E+000
         54  0.21021072E-002  0.40646762E-003 -0.14345446E+000
         55  0.28135134E-002 -0.46872880E-002  0.00000000E+000
         56  0.93810875E-003 -0.21735678E-002 -0.15957430E-001
         57  0.16761067E-003  0.41108368E-002 -0.13106531E+000
         58  0.40646531E-002 -0.13357554E-001 -0.15320697E-001
         59  0.28288782E-002 -0.11246421E-001 -0.30711735E-001
         60 -0.20388341E-002  0.24428991E-002 -0.12811273E+000
         61  0.56368786E-002 -0.99506557E-002  0.00000000E+000
         62  0.72937403E-002 -0.67627837E-002  0.00000000E+000
         63  0.13445642E-002 -0.10097137E-001 -0.12969390E-001
         64  0.58699517E-002 -0.14181792E-001  0.00000000E+000
         65  0.00000000E+000  0.00000000E+000 -0.13567426E+000
         66  0.00000000E+000  0.00000000E+000 -0.14303866E+000
         67  0.45147289E-002  0.33473464E-002 -0.13309625E+000
         68 -0.34723569E-003 -0.21513398E-002 -0.95394652E-001
         69 -0.44900384E-002 -0.60926234E-002 -0.94771545E-001
         70 -0.58363796E-003 -0.49510364E-002 -0.94833118E-001
         71 -0.47815450E-002 -0.64674880E-002 -0.11023508E+000
         72 -0.91840293E-003 -0.60260828E-002 -0.11091821E+000
         73  0.00000000E+000  0.00000000E+000 -0.14894974E+000
         74 -0.68828027E-002 -0.13811058E-002 -0.13735256E+000
         75  0.21525721E-002  0.19141025E-002 -0.14237180E+000
         76 -0.88517058E-002 -0.28119540E-002 -0.10959426E+000
         77 -0.37896028E-002  0.63795729E-004 -0.11167818E+000
         78 -0.81113879E-002 -0.12664045E-004 -0.10853271E+000
         79 -0.80625011E-002  0.10625267E-002 -0.12244047E+000
         80 -0.56068204E-002  0.44963556E-004 -0.13585575E+000
         81 -0.82967932E-002 -0.21753817E-002 -0.12387792E+000
         82 -0.65085168E-002 -0.63417448E-003 -0.51067041E-001
         83 -0.19989604E-002 -0.12481178E-002 -0.48346291E-001
         84 -0.48950516E-002 -0.29512907E-002 -0.50947912E-001
         85  0.98858763E-002 -0.21020012E-002 -0.46448461E-001
         86  0.99029089E-002 -0.61384736E-002 -0.46109973E-001
         87  0.60031545E-002 -0.58168526E-002 -0.47094663E-001
         88 -0.39665473E-002  0.50031199E-003 -0.12753668E+000
         89  0.93951797E-002 -0.98566888E-002 -0.44327058E-001
         90  0.55403098E-002 -0.95724906E-002 -0.45643385E-001
         91 -0.77908679E-003 -0.26879054E-002 -0.16000000E+000
         92 -0.38479499E-002 -0.25780622E-002 -0.14370832E+000
         93  0.60527062E-002  0.78026655E-002 -0.90333789E-001
         94  0.45656970E-002  0.29433981E-002 -0.94721771E-001
         95  0.37968585E-002 -0.95641841E-002 -0.14323477E+000
         96  0.13680637E-002  0.38614810E-002 -0.11086153E+000
         97  0.23784746E-002  0.72533884E-002 -0.10637326E+000
         98  0.28661077E-003  0.84888257E-002 -0.11896201E+000
         99 -0.77160455E-002  0.76369683E-003 -0.65540454E-001
        100 -0.31948204E-002  0.58515261E-003 -0.64142089E-001
        101 -0.69669619E-002 -0.25819232E-002 -0.65715629E-001
        102  0.19512267E-002 -0.86962856E-002 -0.46404878E-001
        103  0.78641079E-002 -0.56704419E-003 -0.19754902E-001
        104  0.71299532E-002 -0.56091375E-002 -0.15858801E-001
        105  0.65057152E-002 -0.42170278E-002 -0.31654941E-001
        106  0.73803196E-002  0.88339865E-003 -0.33558920E-001
        107  0.71818452E-002 -0.73549234E-003 -0.88128578E-002
        108  0.83009263E-002  0.16682977E-002 -0.48173966E-001
        109  0.57043208E-002 -0.24892011E-002 -0.47509426E-001
        110  0.12371762E-002 -0.68924841E-002 -0.16000000E+000
        111 -0.27521397E-003  0.10173388E-002 -0.14251776E+000
        112  0.16540985E-002  0.35502563E-002 -0.36584054E-001
        113  0.27623993E-002  0.41842228E-002 -0.35330002E-001
        114  0.25278673E-002 -0.70840579E-003 -0.32435318E-001
        115  0.20027765E-002  0.12480285E-002 -0.20890610E-001
        116  0.31819168E-003  0.42440176E-002 -0.12631604E+000
        117  0.26393447E-002 -0.25455763E-002 -0.16370122E-001
        118  0.13558311E-002  0.13506833E-002 -0.23201086E-001
        119 -0.15980566E-002 -0.15844698E-002 -0.16304269E-001
        120 -0.44072806E-002 -0.26430848E-002 -0.95690609E-001
        121 -0.85251798E-002 -0.61989248E-002 -0.95322356E-001
        122 -0.87463068E-002 -0.61535609E-002 -0.11107932E+000
        123  0.00000000E+000  0.00000000E+000 -0.10398998E-001
        124 -0.11608940E-002  0.24070888E-002 -0.11048596E+000
        125  0.00000000E+000  0.00000000E+000 -0.10575395E+000
        126 -0.33848651E-002  0.70970330E-002 -0.11659836E+000
        127  0.43941051E-002 -0.91704607E-002 -0.15808835E-001
        128  0.50494976E-004 -0.11970825E-001 -0.17750936E-001
        129 -0.11840759E-002 -0.99740975E-002 -0.32258652E-001
        130 -0.88863418E-002 -0.27745889E-002 -0.95016662E-001
        131  0.47148160E-002 -0.68263274E-002  0.00000000E+000
        132  0.30252227E-002 -0.96442380E-002  0.00000000E+000
        133  0.36560255E-002 -0.57503615E-002 -0.16063250E-001
        134  0.21427484E-002 -0.13104952E-001 -0.54847135E-002
        135  0.10203943E-002  0.59110787E-002 -0.50661576E-001
        136  0.26022746E-002  0.43591267E-002 -0.49610217E-001
        137  0.00000000E+000  0.00000000E+000 -0.10701725E+000
        138 -0.64903962E-002  0.38959337E-002 -0.11861579E+000
        139 -0.45740126E-003 -0.76886819E-002 -0.13066779E+000
        140 -0.45619791E-002  0.54922998E-003 -0.13122345E+000
        141 -0.65730000E-002  0.41018765E-002 -0.12184690E+000
        142 -0.30064934E-002  0.37239050E-002 -0.12519332E+000
        143  0.66798419E-003  0.38375824E-002 -0.63980416E-001
        144  0.75888305E-003  0.94630382E-002 -0.64652028E-001
        145 -0.73665135E-002  0.83195051E-002 -0.11375452E+000
        146  0.12960723E-002  0.14831271E-002 -0.48320913E-001
        147 -0.38866445E-002  0.29718481E-002 -0.10235416E+000
        148 -0.25459007E-002 -0.22992244E-002 -0.16000000E+000
        149  0.00000000E+000  0.00000000E+000 -0.15359252E+000
        150 -0.43246478E-002 -0.52622701E-002 -0.14044632E+000
        151  0.00000000E+000  0.00000000E+000 -0.92808549E-001
        152 -0.11994943E-002 -0.70947448E-002 -0.47597507E-001
        153  0.33121047E-002 -0.74204447E-002 -0.31655424E-001
        154 -0.86386966E-002 -0.20934817E-002 -0.80407429E-001
        155 -0.66029367E-002 -0.35521834E-002 -0.14317874E+000
        156 -0.40220732E-002  0.12630203E-002 -0.79916511E-001
        157 -0.90343810E-002  0.17668074E-002 -0.79808408E-001
        158  0.45938993E-002  0.31594233E-003 -0.13648700E+000
        159  0.00000000E+000  0.00000000E+000 -0.14314209E+000
        160  0.65821266E-003 -0.16309676E-002 -0.14355645E+000
        161  0.41602921E-002 -0.18923597E-002 -0.12643643E+000
        162  0.18602513E-002 -0.21615449E-002 -0.12716075E+000
        163  0.64729532E-002  0.63685904E-003 -0.12221070E+000
        164  0.44386702E-002 -0.34647206E-002  0.00000000E+000
        165  0.48359268E-002 -0.24120524E-002 -0.16107470E-001
        166  0.27581175E-003  0.97253149E-002 -0.78554104E-001
        167  0.23194252E-002 -0.19578953E-002 -0.14196527E+000
        168  0.87527294E-003 -0.43909322E-002 -0.13929551E+000
        169  0.30435483E-003  0.50591325E-002 -0.79475787E-001
        170  0.18468701E-002 -0.58203689E-002 -0.12435828E+000
        171  0.45056752E-002 -0.49264505E-002 -0.12501328E+000
        172 -0.40864765E-002  0.43203555E-003 -0.95753412E-001
        173 -0.86607110E-002  0.57138309E-003 -0.94242224E-001
        174  0.76398484E-002 -0.35615000E-002 -0.77867357E-001
        175  0.88372736E-002  0.51391464E-003 -0.77217936E-001
        176  0.40322202E-002 -0.25957444E-002 -0.78938555E-001
        177  0.34650060E-002 -0.26836041E-002 -0.94953047E-001
        178  0.70431759E-002 -0.33809018E-002 -0.93878751E-001
        179  0.23570814E-002 -0.55293456E-002 -0.77456876E-001
        180  0.61558433E-002 -0.70506931E-002 -0.76504532E-001
        181  0.60855804E-002 -0.70565003E-002 -0.92639917E-001
        182  0.26227736E-002 -0.61341724E-002 -0.93313493E-001
        183  0.91045861E-002 -0.95663348E-003 -0.61877610E-001
        184  0.85602061E-002 -0.46608533E-002 -0.61902241E-001
        185  0.48460408E-002 -0.38852698E-002 -0.62982984E-001
        186  0.40833678E-002 -0.73894492E-002 -0.61443446E-001
        187  0.75586635E-002 -0.81640268E-002 -0.60325640E-001
        188  0.93000724E-004  0.34911631E-002 -0.95157011E-001
        189  0.13915548E-003  0.74349216E-002 -0.92532818E-001
        190  0.00000000E+000  0.00000000E+000 -0.78754554E-001
        191  0.00000000E+000  0.00000000E+000 -0.15150128E+000
        192 -0.78267998E-003 -0.13465362E-002 -0.16000000E+000
        193  0.13072631E-002 -0.72764769E-003 -0.16000000E+000
        194  0.65979747E-003 -0.59451143E-002 -0.62368517E-001
        195  0.90442563E-002  0.31114018E-002 -0.62811980E-001
        196  0.49755624E-002 -0.60900299E-003 -0.63322086E-001
        197  0.91025228E-002  0.50106951E-002 -0.77338238E-001
        198  0.46597068E-002  0.49521747E-003 -0.79184834E-001
        199 -0.35597436E-002  0.36937381E-002 -0.94543490E-001
        200 -0.32515745E-002  0.79543579E-002 -0.91040316E-001
        201 -0.77646880E-002  0.45846366E-002 -0.92217889E-001
        202  0.00000000E+000  0.00000000E+000 -0.33848786E-001
        203  0.00000000E+000  0.00000000E+000 -0.32963737E-001
        204  0.00000000E+000  0.00000000E+000 -0.33150205E-001
        205  0.00000000E+000  0.00000000E+000 -0.16418936E-001
        206  0.00000000E+000  0.00000000E+000 -0.16480981E-001
        207 -0.15535101E-002  0.15354312E-002 -0.16818677E-001
        208 -0.28146845E-002 -0.61356624E-002 -0.63271440E-001
        209  0.22612368E-002 -0.51014126E-002 -0.47576730E-001
        210  0.00000000E+000  0.00000000E+000  0.00000000E+000
        211 -0.15725305E-002  0.15665044E-002  0.00000000E+000
        212  0.00000000E+000  0.00000000E+000  0.00000000E+000
        213  0.92266897E-004 -0.11331072E-002 -0.79478282E-001
        214 -0.40149130E-002 -0.53453971E-002 -0.79094845E-001
        215 -0.56158421E-002  0.69411935E-002 -0.50375721E-001
        216 -0.20406240E-002  0.59051520E-002 -0.48576119E-001
        217 -0.54926973E-002  0.29527678E-002 -0.48731558E-001
        218  0.00000000E+000  0.00000000E+000 -0.14933340E-001
        219  0.45715370E-002 -0.80110473E-003 -0.32122798E-001
        220  0.00000000E+000  0.00000000E+000 -0.31510487E-001
        221  0.00000000E+000  0.00000000E+000  0.00000000E+000
        222  0.00000000E+000  0.00000000E+000 -0.47760826E-001
        223  0.42299554E-002  0.28753905E-003 -0.47866991E-001
        224 -0.79784792E-002  0.49400138E-002 -0.63770905E-001
        225 -0.87541749E-002  0.10283193E-001 -0.63753874E-001
        226 -0.33547252E-002  0.94360020E-002 -0.62994260E-001
        227  0.45729020E-002  0.27578639E-002 -0.63473889E-001
        228 -0.93394806E-002  0.10989172E-001 -0.76721166E-001
        229 -0.39666391E-002  0.99814407E-002 -0.77065667E-001
        230 -0.92961468E-002  0.58232592E-002 -0.77904713E-001
        231  0.76644631E-003 -0.84537609E-002 -0.16258299E-001
        232 -0.24308054E-002 -0.10836985E-001 -0.15444722E-001
        233 -0.34213173E-002 -0.75188601E-002 -0.31732795E-001
        234 -0.83803655E-002  0.93255894E-002 -0.89092564E-001
        235 -0.40582808E-002 -0.19189538E-002 -0.79896257E-001
        236 -0.77375054E-002 -0.54591319E-002 -0.79537662E-001
        237  0.12582208E-002 -0.12827049E-001  0.00000000E+000
        238 -0.13286509E-002 -0.58528618E-002 -0.14324836E+000
        239 -0.12291823E-002 -0.60876543E-002 -0.12699940E+000
        240  0.60901321E-002 -0.29249646E-002 -0.11001513E+000
        241  0.28367672E-002 -0.26353153E-002 -0.11099946E+000
        242  0.00000000E+000  0.00000000E+000 -0.14870330E+000
        243  0.00000000E+000  0.00000000E+000 -0.48017692E-001
        244 -0.41190051E-003 -0.66769466E-002 -0.32369919E-001
        245  0.24016606E-002 -0.63012480E-002 -0.10894091E+000
        246  0.57239773E-002 -0.65199662E-002 -0.10872453E+000
        247  0.32349344E-002  0.95977206E-003 -0.12710057E+000
        248  0.74513169E-002  0.46213246E-002 -0.11979127E+000
        249 -0.31864536E-003 -0.15502682E-003 -0.14398563E+000
        250  0.30951034E-002 -0.16137097E-003 -0.16000000E+000
        251 -0.21026499E-003 -0.43291245E-002 -0.16000000E+000
        252  0.10080858E-003 -0.30317481E-002 -0.16000000E+000
        253 -0.36290367E-003 -0.52996833E-002 -0.14232665E+000
        254 -0.62532956E-002 -0.52768266E-002 -0.63618150E-001
        255 -0.11617988E-002 -0.40397954E-002 -0.48187399E-001
        256 -0.10726976E-002 -0.25670582E-002 -0.12732730E+000
        257  0.49482295E-003 -0.14074116E-002 -0.32140183E-001
        258 -0.49387762E-002 -0.61415386E-002 -0.12549857E+000
        259 -0.18324344E-002  0.18587574E-002 -0.47889571E-001
        260 -0.66998102E-003 -0.26164692E-002 -0.11133395E+000
        261 -0.33752948E-002  0.42532853E-002 -0.63490268E-001
        262 -0.10341289E-002 -0.28624935E-002 -0.14346954E+000
        263 -0.39805365E-002  0.50348841E-002 -0.78912350E-001
        264 -0.45801316E-002 -0.25256374E-002 -0.12751616E+000
        265 -0.83749225E-002 -0.51618009E-002 -0.12694963E+000
        266 -0.45286299E-002 -0.28729884E-002 -0.11154474E+000
        267 -0.25750035E-003  0.69694655E-003 -0.12765639E+000
        268  0.17218590E-003  0.57442622E-003 -0.11163627E+000
        269  0.73767146E-004  0.66498876E-003 -0.95676544E-001
        270  0.25030637E-003  0.11912773E-002 -0.79727788E-001
        271  0.84459080E-003  0.19209507E-003 -0.63840924E-001
        272 -0.28295734E-002 -0.27729159E-002 -0.64044709E-001
        273  0.97312091E-003 -0.28822691E-002 -0.63519721E-001
        274  0.18228430E-002 -0.19178529E-002 -0.47970650E-001
        275  0.29245433E-002 -0.41329094E-002 -0.32048839E-001
End values

Result FIBER ALYA  0.11000000E+00 Vector OnNodes
ComponentNames FIBER_X,FIBER_Y,FIBER_Z
Values
          1  0.11265605E-001  0.46619368E-001  0.62771736E+000
          2 -0.12269259E-001 -0.13539675E-001  0.62093621E+000
          3  0.42215819E-001  0.76083592E-001  0.62977643E+000
          4 -0.26018083E-001 -0.26093301E-001  0.64388511E+000
          5 -0.46998258E-001 -0.84852072E-001  0.64372056E+000
          6 -0.11010372E-001  0.25601876E-003  0.61533898E+000
          7  0.73148733E-002  0.13990696E-002  0.63103977E+000
          8 -0.51430338E-002  0.59539645E-003  0.60757102E+000
          9 -0.19995324E-001  0.63722287E-002  0.63616583E+000
         10 -0.26174994E-001  0.29031926E-001  0.61781989E+000
         11 -0.52439369E-002  0.28481945E-001  0.62077553E+000
         12 -0.22823443E-001  0.33099246E-001  0.60934093E+000
         13 -0.15073626E-001  0.30088031E-001  0.61438199E+000
         14  0.14162614E+000 -0.27931779E+000  0.67268753E+000
         15  0.48627587E-001 -0.25122359E+000  0.64227565E+000
         16  0.12139218E+000 -0.16387433E+000  0.59294979E+000
         17  0.82201934E-001 -0.16394354E+000  0.61706763E+000
         18 -0.25111433E-001  0.42830602E-001  0.60761201E+000
         19 -0.30660005E-001  0.36822717E-001  0.61169455E+000
         20 -0.37113182E-001  0.37895210E-001  0.62096020E+000
         21 -0.31374759E-001  0.43726787E-001  0.61400103E+000
         22 -0.31193237E-001  0.35164073E-001  0.62029617E+000
         23 -0.32120596E-001  0.28387911E-001  0.63093237E+000
         24 -0.21006763E-001  0.27409547E-001  0.61543696E+000
         25 -0.18262849E-001  0.25450768E-001  0.62462490E+000
         26  0.97532222E-002  0.50451233E-001  0.61309380E+000
         27 -0.17292239E-001  0.48807708E-002  0.60718873E+000
         28 -0.24028034E-001  0.61470304E-002  0.61752181E+000
         29 -0.28162846E-001  0.25980191E-001  0.62810409E+000
         30 -0.33043846E-001  0.25186867E-001  0.64345047E+000
         31  0.10239706E+000 -0.48954413E-001  0.61591199E+000
         32  0.13925208E+000 -0.21581529E-001  0.71696049E+000
         33  0.67451818E-001 -0.61001073E-001  0.60915279E+000
         34 -0.40119745E-001 -0.14054732E+000  0.67188206E+000
         35 -0.80151239E-001 -0.10666375E+000  0.69896877E+000
         36 -0.34715784E-001 -0.33191737E-001  0.61997326E+000
         37 -0.41228688E-001 -0.27633488E-001  0.66971545E+000
         38 -0.10750563E-001  0.13931614E-001  0.62287156E+000
         39  0.13843593E-001  0.18371407E-001  0.65654120E+000
         40  0.34992262E-001  0.62826246E-001  0.65318982E+000
         41 -0.27595133E-001 -0.21336531E-001  0.65705611E+000
         42 -0.47958707E-001  0.52493241E-002  0.67118739E+000
         43 -0.63336666E-001  0.44069387E-001  0.65254915E+000
         44 -0.42625045E-001  0.32407081E-001  0.60177077E+000
         45 -0.26904390E-001  0.64160865E-001  0.62891141E+000
         46 -0.33734736E-001  0.48130108E-001  0.60988307E+000
         47 -0.50490620E-001  0.42804710E-001  0.62728060E+000
         48 -0.53288538E-001  0.10442874E-001  0.64681190E+000
         49 -0.67053054E-002  0.56843512E-002  0.66220765E+000
         50 -0.52698645E-001 -0.95261384E-001  0.82717924E+000
         51 -0.76629473E-001 -0.12653244E+000  0.60255447E+000
         52 -0.74179510E-001 -0.33709036E-001  0.60488780E+000
         53  0.19186712E-003 -0.54391022E-001  0.59412173E+000
         54 -0.56289310E-001 -0.48681423E-001  0.60604684E+000
         55  0.14693121E-001  0.47627600E-001  0.65643239E+000
         56 -0.19834075E-001  0.28031446E-001  0.60697472E+000
         57  0.18977614E-001 -0.16471760E+000  0.67551157E+000
         58 -0.34382419E-001  0.32092264E-001  0.62133912E+000
         59 -0.24677426E-001  0.52496660E-001  0.61074860E+000
         60  0.68274752E-001 -0.17157090E+000  0.69616169E+000
         61 -0.33031142E-001  0.24090287E-001  0.61441950E+000
         62 -0.27015248E-002  0.27279796E-001  0.61943557E+000
         63 -0.84139955E-001  0.16397467E-001  0.73205526E+000
         64 -0.41398029E-001  0.23478098E-001  0.61946919E+000
         65 -0.10951436E+000 -0.14390266E+000  0.69182048E+000
         66 -0.11141766E+000 -0.65073266E-001  0.68693917E+000
         67 -0.80000858E-001 -0.72939769E-001  0.66624752E+000
         68 -0.79404526E-002 -0.12533690E-001  0.60231606E+000
         69 -0.97534708E-002 -0.24493068E-001  0.60692153E+000
         70 -0.99884515E-002 -0.44312760E-001  0.60068159E+000
         71 -0.45787155E-002 -0.33752043E-002  0.60890968E+000
         72 -0.87853037E-002 -0.85097116E-002  0.60133087E+000
         73  0.13393067E+000  0.19618156E-001  0.66312554E+000
         74  0.95282991E-001  0.25073108E-002  0.65696810E+000
         75 -0.53877277E-001 -0.11458696E+000  0.61534010E+000
         76  0.33173524E-002  0.89120784E-002  0.62544351E+000
         77 -0.51564415E-002  0.54615452E-002  0.61289399E+000
         78 -0.16163713E-001  0.15060734E-001  0.64159344E+000
         79  0.26380195E-001 -0.18290443E-001  0.63997494E+000
         80  0.98576124E-001 -0.68210813E-001  0.66666883E+000
         81  0.24895938E-001  0.85825077E-002  0.62999273E+000
         82 -0.38516142E-001  0.49997235E-001  0.62740579E+000
         83 -0.28301643E-001  0.56837447E-001  0.61111431E+000
         84 -0.40200191E-001  0.31867497E-001  0.62438890E+000
         85 -0.17816911E-001  0.34525141E-001  0.61230516E+000
         86 -0.31413954E-001  0.40437668E-001  0.60673346E+000
         87 -0.28634356E-001  0.47571082E-001  0.60491969E+000
         88  0.12068453E-001 -0.15782071E-001  0.60688116E+000
         89 -0.38411094E-001  0.43917339E-001  0.60816992E+000
         90 -0.33581082E-001  0.49978680E-001  0.60736104E+000
         91  0.64634543E-001 -0.31174012E-002  0.59121570E+000
         92  0.65859547E-001  0.10824082E-002  0.60986370E+000
         93  0.25277497E-001  0.66161944E-002  0.64530183E+000
         94  0.21321729E-001  0.18207655E-001  0.62180317E+000
         95  0.17550360E+000 -0.20483325E+000  0.66057616E+000
         96 -0.68594968E-002  0.13967727E-001  0.62172453E+000
         97  0.19549691E-001  0.32309170E-001  0.65389433E+000
         98 -0.25081735E-001 -0.19801095E-001  0.66823291E+000
         99 -0.32015549E-001  0.27256314E-001  0.62744987E+000
        100 -0.29754172E-001  0.28377490E-001  0.60909130E+000
        101 -0.42559748E-001  0.17037776E-001  0.62050932E+000
        102 -0.29085370E-001  0.56883959E-001  0.60497859E+000
        103 -0.13625357E-002  0.24812096E-001  0.64366300E+000
        104 -0.15605866E-001  0.31411316E-001  0.60542589E+000
        105 -0.13081735E-001  0.37765107E-001  0.61033778E+000
        106  0.20523434E-003  0.25219185E-001  0.62165891E+000
        107  0.12184585E-001  0.12616969E-001  0.68382139E+000
        108  0.21746858E-001  0.48766996E-001  0.62446312E+000
        109 -0.15269060E-001  0.45796930E-001  0.60774955E+000
        110  0.25982842E-001 -0.15552919E+000  0.57424193E+000
        111  0.12689455E-001 -0.14341920E+000  0.60388635E+000
        112 -0.70767459E-002  0.57769139E-001  0.63139761E+000
        113  0.41599640E-002  0.41764705E-001  0.64201305E+000
        114 -0.15533106E-001  0.49068992E-001  0.61231444E+000
        115  0.16520287E-001  0.45547634E-001  0.64593209E+000
        116 -0.14348445E-001 -0.39949754E-001  0.61804825E+000
        117 -0.11659776E-001  0.41457961E-001  0.60125279E+000
        118  0.15817729E-001  0.44442116E-001  0.66987875E+000
        119  0.67902749E-001  0.62834300E-001  0.80511212E+000
        120 -0.40276153E-002 -0.98041761E-002  0.60719913E+000
        121 -0.10744916E-001 -0.13329543E-001  0.60950640E+000
        122 -0.62204625E-003  0.37569097E-002  0.60936268E+000
        123  0.37552061E-001  0.23400535E-001  0.70994890E+000
        124 -0.17054407E-001  0.24451950E-001  0.63978967E+000
        125  0.38930529E-001 -0.19059215E-001  0.65958627E+000
        126 -0.50180926E-001  0.30775013E-001  0.70756398E+000
        127 -0.29508374E-001  0.37431413E-001  0.60839819E+000
        128 -0.40850194E-001  0.37845530E-001  0.63467236E+000
        129 -0.12677333E-001  0.65233115E-001  0.61430819E+000
        130 -0.86475850E-003 -0.10164254E-001  0.62282045E+000
        131 -0.23491266E-001  0.29635158E-001  0.59549465E+000
        132 -0.62431332E-001  0.31755344E-001  0.62695782E+000
        133 -0.24834876E-001  0.33590652E-001  0.60036082E+000
        134 -0.58855427E-001  0.31083414E-001  0.66217957E+000
        135 -0.19636088E-001  0.64255556E-001  0.62675052E+000
        136  0.36111460E-002  0.35172436E-001  0.62234992E+000
        137 -0.22493784E-002  0.29829727E-001  0.66987853E+000
        138 -0.28838904E-001 -0.17019549E-001  0.69362037E+000
        139  0.16467865E+000 -0.28923999E+000  0.73493950E+000
        140  0.11047166E+000 -0.17898609E+000  0.68692124E+000
        141  0.63647254E-001 -0.15005641E+000  0.74352932E+000
        142  0.20203017E-002 -0.35847770E-001  0.63766652E+000
        143 -0.12247614E-001  0.41781491E-001  0.61441430E+000
        144 -0.12999259E-001  0.48496868E-001  0.64947771E+000
        145 -0.78510107E-001  0.75768721E-001  0.73790193E+000
        146 -0.18691265E-001  0.56166932E-001  0.60826032E+000
        147  0.75188218E-001 -0.84656745E-001  0.66140661E+000
        148  0.10608020E+000  0.37206699E-001  0.62096143E+000
        149  0.70312284E-001  0.52351101E-001  0.61926719E+000
        150  0.42323745E-001  0.40034682E-001  0.62078977E+000
        151  0.10063127E-001 -0.96525186E-002  0.64301365E+000
        152 -0.32550636E-001  0.38960377E-001  0.60873013E+000
        153 -0.22020501E-001  0.51383050E-001  0.60466365E+000
        154 -0.19210718E-001 -0.35690057E-002  0.62226477E+000
        155  0.47345395E-001  0.22793275E-001  0.60341417E+000
        156 -0.91230544E-002 -0.32450654E-002  0.61298842E+000
        157 -0.62272976E-002 -0.42737765E-002  0.63196095E+000
        158 -0.81458564E-001 -0.15758357E-001  0.64164933E+000
        159 -0.35436750E-001  0.29844678E-001  0.60783249E+000
        160 -0.40845857E-001  0.14868870E-001  0.60526435E+000
        161 -0.55589526E-001  0.31963668E-001  0.59734375E+000
        162 -0.26062254E-001  0.94587939E-002  0.59989398E+000
        163 -0.39174621E-001 -0.69844482E-003  0.62095894E+000
        164  0.13223716E-001  0.23986405E-001  0.63907310E+000
        165 -0.60533764E-002  0.33364693E-001  0.60482683E+000
        166 -0.84176710E-002 -0.10338296E-001  0.63772536E+000
        167 -0.40890382E-001  0.50542975E-001  0.58356492E+000
        168 -0.29940017E-001  0.53390089E-001  0.61996232E+000
        169 -0.14515926E-001 -0.25102865E-001  0.62010249E+000
        170 -0.26411653E-001  0.24889679E-001  0.60535432E+000
        171 -0.36807392E-001  0.37972219E-001  0.59325374E+000
        172  0.86405470E-002 -0.14644957E-001  0.60921910E+000
        173  0.31156073E-001 -0.30915472E-001  0.62679119E+000
        174 -0.16103436E-001  0.14479967E-001  0.60252308E+000
        175 -0.64639607E-002  0.13026617E-001  0.61624496E+000
        176 -0.14715735E-001  0.13528742E-001  0.60242508E+000
        177 -0.12490222E-001 -0.25016920E-002  0.60250120E+000
        178 -0.15280938E-001  0.49186846E-002  0.60232333E+000
        179 -0.15820781E-001  0.13205838E-001  0.59941630E+000
        180 -0.25748296E-001  0.25418647E-001  0.59816984E+000
        181 -0.47677898E-002  0.66561515E-003  0.59944994E+000
        182 -0.60216751E-002 -0.55598801E-002  0.60276338E+000
        183 -0.19480704E-001  0.35139454E-001  0.60884667E+000
        184 -0.31339119E-001  0.32927865E-001  0.60171990E+000
        185 -0.25549574E-001  0.38250933E-001  0.60222168E+000
        186 -0.33214081E-001  0.41455617E-001  0.60184296E+000
        187 -0.40491706E-001  0.35074947E-001  0.59778157E+000
        188  0.25928958E-001  0.17636261E-003  0.61657951E+000
        189  0.13741898E-001 -0.57264966E-001  0.63552268E+000
        190 -0.16892689E-001  0.94539777E-002  0.59720653E+000
        191 -0.10332422E-001  0.43879872E-001  0.63135629E+000
        192 -0.18846343E-001  0.78528994E-003  0.58632143E+000
        193  0.32681577E-001 -0.18191193E-001  0.57855221E+000
        194 -0.27057371E-001  0.69548172E-001  0.59944779E+000
        195 -0.15271693E-002  0.38774886E-001  0.62163935E+000
        196 -0.17338227E-001  0.39080387E-001  0.60512261E+000
        197 -0.17365713E-002  0.80046161E-002  0.62926317E+000
        198 -0.53091894E-002  0.95636227E-002  0.60946364E+000
        199  0.45442546E-001 -0.50413110E-001  0.61661209E+000
        200  0.42003096E-001 -0.91141656E-001  0.63917961E+000
        201  0.83542848E-001 -0.90854067E-001  0.63391132E+000
        202 -0.25389576E-001  0.33786015E-001  0.58268081E+000
        203 -0.25679205E-001  0.59142783E-001  0.59995133E+000
        204 -0.72708840E-001  0.76693893E-001  0.59808454E+000
        205 -0.55855127E-002  0.50142448E-002  0.59398104E+000
        206 -0.72807835E-003  0.30328455E-003  0.58934393E+000
        207  0.98283157E-002 -0.97906525E-002  0.58282059E+000
        208 -0.32075605E-001  0.40816599E-001  0.60302732E+000
        209 -0.30111208E-001  0.50887155E-001  0.60297289E+000
        210  0.10617529E-001  0.10371714E-001  0.62144174E+000
        211  0.47550989E-003 -0.77682908E-003  0.57953307E+000
        212 -0.10444627E-001 -0.19207643E-001  0.63505841E+000
        213 -0.15364446E-001  0.75114042E-002  0.60178119E+000
        214 -0.22806082E-001 -0.24780670E-002  0.60561086E+000
        215 -0.83697416E-001  0.10274671E+000  0.62268203E+000
        216 -0.54150915E-001  0.86597204E-001  0.62171700E+000
        217 -0.84901322E-001  0.63780663E-001  0.61729597E+000
        218  0.56067833E-002  0.18623072E-001  0.63067217E+000
        219 -0.53368514E-002  0.31747034E-001  0.60671573E+000
        220  0.24979086E-002  0.12962910E-001  0.60677258E+000
        221  0.00000000E+000  0.00000000E+000  0.62666649E+000
        222  0.49952879E-001  0.63971198E-001  0.62037250E+000
        223  0.14867909E-001  0.58149812E-001  0.61490616E+000
        224 -0.35844564E-001  0.41062870E-001  0.63662370E+000
        225 -0.46545482E-001  0.50599730E-001  0.67068194E+000
        226 -0.29692763E-001  0.50865140E-001  0.65058096E+000
        227 -0.92790024E-003  0.39877683E-001  0.61181821E+000
        228 -0.97235756E-002  0.29442537E-002  0.66535059E+000
        229 -0.63756725E-002 -0.52428111E-002  0.64682620E+000
        230  0.84183831E-002 -0.18844110E-001  0.65093987E+000
        231 -0.39414573E-001  0.43501677E-001  0.60736868E+000
        232 -0.61393403E-001  0.49473190E-001  0.62919100E+000
        233 -0.22383025E-002  0.92587736E-001  0.60870300E+000
        234  0.48120997E-001 -0.70518934E-001  0.66299486E+000
        235 -0.19159718E-001 -0.56633615E-003  0.60798439E+000
        236 -0.28398553E-001 -0.11526228E-001  0.60369741E+000
        237 -0.92225656E-001  0.49751592E-001  0.61388195E+000
        238  0.85059644E-002  0.25911626E-001  0.59966434E+000
        239 -0.81872311E-002  0.60961950E-002  0.60069821E+000
        240 -0.29771000E-001  0.17314765E-001  0.60020034E+000
        241 -0.19215883E-001  0.65321535E-002  0.60191396E+000
        242 -0.63984252E-001 -0.46108833E-002  0.64002533E+000
        243 -0.24234932E-001  0.48999557E-001  0.60945487E+000
        244 -0.15052598E-001  0.64678246E-001  0.60477266E+000
        245 -0.14623661E-001  0.72537637E-002  0.60443772E+000
        246 -0.17212888E-001  0.15118196E-001  0.59914272E+000
        247 -0.27899351E-001 -0.96057692E-002  0.60382827E+000
        248 -0.48322010E-001 -0.21480043E-001  0.64021645E+000
        249  0.57523723E-002 -0.66099463E-001  0.58974536E+000
        250  0.10063903E-001  0.45498408E-001  0.60751322E+000
        251  0.58374201E-002  0.28726555E-001  0.59872277E+000
        252  0.12274498E-001 -0.13958283E-002  0.58728172E+000
        253 -0.54121309E-001 -0.20387536E+000  0.65279948E+000
        254 -0.57972998E-001 -0.84779665E-002  0.60955309E+000
        255 -0.42538324E-001  0.29220763E-001  0.60697113E+000
        256 -0.42001877E-002 -0.12665500E-002  0.59866649E+000
        257 -0.41196639E-001  0.58289296E-001  0.60550262E+000
        258  0.40072115E-002  0.12410883E-001  0.61068009E+000
        259 -0.46748739E-001  0.63374626E-001  0.61188481E+000
        260 -0.95444557E-002 -0.33888135E-003  0.60161306E+000
        261 -0.22899373E-001  0.40479736E-001  0.62356737E+000
        262  0.13702240E-001 -0.41412070E-003  0.59757660E+000
        263  0.59713336E-003 -0.15878737E-001  0.62609996E+000
        264  0.13203380E-001  0.54906864E-002  0.60450934E+000
        265  0.14316932E-001  0.21437434E-001  0.60722241E+000
        266 -0.14142990E-002  0.50011060E-002  0.60684994E+000
        267 -0.86697393E-002 -0.16755760E-001  0.59578731E+000
        268 -0.86430913E-002  0.18862656E-002  0.60277492E+000
        269  0.16580031E-002 -0.53051121E-002  0.60297434E+000
        270 -0.78881575E-002  0.23014144E-002  0.60511945E+000
        271 -0.22557659E-001  0.38335326E-001  0.60300575E+000
        272 -0.33932551E-001  0.32283845E-001  0.60303709E+000
        273 -0.26493263E-001  0.47268827E-001  0.60141077E+000
        274 -0.21506292E-001  0.54827239E-001  0.60410056E+000
        275 -0.20850459E-001  0.46210142E-001  0.60132319E+000
End values

