-0.99771300E+000 -0.18981199E-008
-0.98983470E+000 -0.22773525E-008
-0.98984241E+000  0.11482348E-004
-0.98202489E+000  0.15670107E-001
-0.96635546E+000  0.23638074E-004
-0.96633767E+000 -0.26506297E-008
-0.95871154E+000  0.31083690E-001
-0.95871954E+000  0.31094885E-001
-0.93595462E+000  0.61679848E-001
-0.92762445E+000  0.36785744E-004
-0.92759285E+000 -0.30120540E-008
-0.92027048E+000  0.46009111E-001
-0.92028871E+000  0.46032399E-001
-0.89842043E+000  0.91296139E-001
-0.89842910E+000  0.91308013E-001
-0.87426283E+000  0.50640983E-004
-0.87421267E+000 -0.33559165E-008
-0.86734196E+000  0.60247590E-001
-0.86730947E+000  0.60210784E-001
-0.86239150E+000  0.13514960E+000
-0.84673131E+000  0.11950194E+000
-0.84671073E+000  0.11947632E+000
-0.81275767E+000  0.17687931E+000
-0.80704154E+000 -0.36767779E-008
-0.80711491E+000  0.64223637E-004
-0.81274665E+000  0.17686526E+000
-0.80071795E+000  0.73515833E-001
-0.80066641E+000  0.73464447E-001
-0.78168125E+000  0.14581678E+000
-0.78164408E+000  0.14577542E+000
-0.76596002E+000  0.23147422E+000
-0.75030761E+000  0.21582704E+000
-0.75028115E+000  0.21579635E+000
-0.72724196E+000  0.75947605E-004
-0.72714245E+000 -0.39695763E-008
-0.72147039E+000  0.85626550E-001
-0.72139611E+000  0.85560780E-001
-0.70430871E+000  0.16983617E+000
-0.70425083E+000  0.16977814E+000
-0.70708086E+000  0.28242469E+000
-0.70709585E+000  0.28244177E+000
-0.67598500E+000  0.25132810E+000
-0.67603098E+000  0.25137704E+000
-0.63590506E+000  0.83865129E-004
-0.63578015E+000 -0.42296914E-008
-0.65273280E+000  0.34460921E+000
-0.63075352E+000  0.96308779E-001
-0.63085094E+000  0.96386769E-001
-0.63708813E+000  0.32896233E+000
-0.63705439E+000  0.32892615E+000
-0.61575672E+000  0.19110547E+000
-0.61583624E+000  0.19117906E+000
-0.59110206E+000  0.28296607E+000
-0.59103569E+000  0.28289949E+000
-0.58808198E+000  0.40134760E+000
-0.58810029E+000  0.40136697E+000
-0.53440087E+000 -0.44530192E-008
-0.53454494E+000  0.86011384E-004
-0.55704416E+000  0.37029916E+000
-0.55699124E+000  0.37024432E+000
-0.53017364E+000  0.10553881E+000
-0.53028912E+000  0.10562450E+000
-0.51756324E+000  0.20942084E+000
-0.51765968E+000  0.20950609E+000
-0.52984638E+000  0.46744754E+000
-0.49686091E+000  0.31009264E+000
-0.49677921E+000  0.31001215E+000
-0.51416935E+000  0.45176092E+000
-0.51420593E+000  0.45179933E+000
-0.46822697E+000  0.40579647E+000
-0.46816042E+000  0.40572677E+000
-0.42475936E+000  0.80784301E-004
-0.42460906E+000 -0.46360619E-008
-0.42136984E+000  0.11319183E+000
-0.42124840E+000  0.11310536E+000
-0.41132612E+000  0.22452531E+000
-0.46325095E+000  0.52616048E+000
-0.46326888E+000  0.52617966E+000
-0.41122499E+000  0.22443533E+000
-0.43216631E+000  0.49505296E+000
-0.43221549E+000  0.49510665E+000
-0.39479244E+000  0.33232521E+000
-0.39470818E+000  0.33223810E+000
-0.37203575E+000  0.43489009E+000
-0.37196838E+000  0.43481305E+000
-0.40504107E+000  0.59226571E+000
-0.30827799E+000  0.67294096E-004
-0.30814114E+000 -0.47759294E-008
-0.38936882E+000  0.57657852E+000
-0.38939925E+000  0.57661330E+000
-0.30570068E+000  0.11888921E+000
-0.30580858E+000  0.11896753E+000
-0.29842423E+000  0.23591204E+000
-0.29850997E+000  0.23599695E+000
-0.34342002E+000  0.53060131E+000
-0.34337034E+000  0.53053974E+000
-0.28643708E+000  0.34922612E+000
-0.28650367E+000  0.34930928E+000
-0.34045675E+000  0.64902993E+000
-0.34044382E+000  0.64901401E+000
-0.26993547E+000  0.45704312E+000
-0.26998451E+000  0.45711676E+000
-0.30939988E+000  0.61794865E+000
-0.30936775E+000  0.61790517E+000
-0.18683654E+000 -0.48704350E-008
-0.18693538E+000  0.45593825E-004
-0.18535562E+000  0.12279920E+000
-0.18542482E+000  0.12285918E+000
-0.18094265E+000  0.24366932E+000
-0.24918338E+000  0.55765997E+000
-0.24921638E+000  0.55771911E+000
-0.18098735E+000  0.24373734E+000
-0.28616131E+000  0.71121343E+000
-0.17369938E+000  0.36077324E+000
-0.27051347E+000  0.69555394E+000
-0.17367478E+000  0.36070657E+000
-0.27049688E+000  0.69552831E+000
-0.22450939E+000  0.64948705E+000
-0.22452839E+000  0.64952973E+000
-0.16367914E+000  0.47212207E+000
-0.16367031E+000  0.47206414E+000
-0.62605768E-001 -0.49180770E-008
-0.62642316E-001  0.16470199E-004
-0.62108728E-001  0.12477297E+000
-0.22736901E+000  0.76218203E+000
-0.22737422E+000  0.76219251E+000
-0.62114129E-001  0.12480447E+000
-0.15108599E+000  0.57602877E+000
-0.15108875E+000  0.57598372E+000
-0.60629823E-001  0.24758199E+000
-0.60609818E-001  0.24762185E+000
-0.19630225E+000  0.73107362E+000
-0.19631008E+000  0.73110048E+000
-0.58194711E-001  0.36649474E+000
-0.58156067E-001  0.36653373E+000
-0.13612905E+000  0.67082421E+000
-0.13611861E+000  0.67085527E+000
-0.54842704E-001  0.47963587E+000
-0.54792459E-001  0.47966706E+000
-0.18066149E+000  0.81681243E+000
-0.16500574E+000  0.80114429E+000
-0.16500534E+000  0.80113066E+000
-0.50571950E-001  0.58523944E+000
 0.62605800E-001 -0.49177546E-008
 0.62642256E-001 -0.16387541E-004
-0.50627134E-001  0.58521940E+000
-0.11901226E+000  0.75510611E+000
-0.11902680E+000  0.75508783E+000
 0.62177508E-001  0.12477214E+000
 0.62108759E-001  0.12477297E+000
 0.60629853E-001  0.24758199E+000
 0.60724742E-001  0.24758903E+000
 0.58194737E-001  0.36649474E+000
 0.58306837E-001  0.36650003E+000
-0.45614626E-001  0.68157822E+000
-0.45560196E-001  0.68158697E+000
-0.13111011E+000  0.85855109E+000
-0.13110767E+000  0.85855547E+000
-0.10003542E+000  0.82745197E+000
 0.54842725E-001  0.47963587E+000
 0.54962242E-001  0.47963283E+000
-0.10005079E+000  0.82744376E+000
-0.39834778E-001  0.76719037E+000
-0.39884114E-001  0.76719081E+000
 0.50627150E-001  0.58521939E+000
 0.50744786E-001  0.58520569E+000
 0.18683657E+000 -0.48694750E-008
 0.18693532E+000 -0.45512539E-004
 0.18535566E+000  0.12279920E+000
 0.18548843E+000  0.12276789E+000
-0.95148765E-001  0.90242725E+000
 0.18094268E+000  0.24366932E+000
 0.18110500E+000  0.24364356E+000
-0.79499015E-001  0.88674897E+000
-0.79485860E-001  0.88675063E+000
 0.45614635E-001  0.68157821E+000
 0.45722683E-001  0.68155514E+000
 0.17367480E+000  0.36070657E+000
 0.17385592E+000  0.36067598E+000
-0.33484310E-001  0.84069886E+000
-0.33525669E-001  0.84070521E+000
 0.16367033E+000  0.47206413E+000
 0.16385750E+000  0.47202250E+000
 0.39977167E-001  0.76716196E+000
 0.39884115E-001  0.76719081E+000
 0.15108877E+000  0.57598371E+000
-0.57694201E-001  0.93206629E+000
-0.57686173E-001  0.93206519E+000
 0.15126959E+000  0.57592997E+000
 0.30827793E+000 -0.67215524E-004
 0.30814116E+000 -0.47743559E-008
-0.26607371E-001  0.90095149E+000
-0.26639151E-001  0.90096028E+000
 0.30570071E+000  0.11888921E+000
 0.30587398E+000  0.11883094E+000
 0.29863267E+000  0.23585434E+000
 0.29842426E+000  0.23591204E+000
 0.13612906E+000  0.67082420E+000
 0.13629322E+000  0.67076153E+000
 0.33600857E-001  0.84067508E+000
 0.33525661E-001  0.84070521E+000
 0.28643710E+000  0.34922611E+000
 0.28666978E+000  0.34915904E+000
 0.27017718E+000  0.45696078E+000
 0.26993549E+000  0.45704311E+000
-0.34978898E-001  0.96267920E+000
-0.19311213E-001  0.94699580E+000
-0.19332711E-001  0.94700395E+000
 0.11902680E+000  0.75508782E+000
 0.11916716E+000  0.75502197E+000
 0.24941839E+000  0.55756240E+000
 0.26639134E-001  0.90096027E+000
 0.26695953E-001  0.90093298E+000
 0.24918339E+000  0.55765996E+000
 0.42460908E+000 -0.46339163E-008
 0.42475930E+000 -0.80709743E-004
 0.42124843E+000  0.11310535E+000
 0.42143702E+000  0.11302658E+000
 0.41122501E+000  0.22443532E+000
 0.10005078E+000  0.82744374E+000
 0.10016385E+000  0.82738115E+000
 0.41145375E+000  0.22435001E+000
 0.22472419E+000  0.64937937E+000
 0.22450940E+000  0.64948704E+000
 0.39470820E+000  0.33223809E+000
-0.11710220E-001  0.97810321E+000
-0.11721142E-001  0.97810830E+000
 0.39496818E+000  0.33213714E+000
 0.19372337E-001  0.94698234E+000
 0.19332684E-001  0.94700394E+000
 0.37196839E+000  0.43481303E+000
 0.37224365E+000  0.43469124E+000
 0.19648723E+000  0.73096405E+000
 0.19630225E+000  0.73107360E+000
 0.79584750E-001  0.88669509E+000
 0.79498997E-001  0.88674895E+000
 0.34337035E+000  0.53053972E+000
 0.34364268E+000  0.53039809E+000
-0.39241160E-002  0.99378111E+000
 0.16515559E+000  0.80102816E+000
 0.53440089E+000 -0.44503618E-008
 0.53454488E+000 -0.85942074E-004
 0.16500533E+000  0.80113064E+000
 0.53017366E+000  0.10553881E+000
 0.11745685E-001  0.97809375E+000
 0.11721104E-001  0.97810829E+000
 0.53035667E+000  0.10544747E+000
 0.30936775E+000  0.61790514E+000
 0.30962054E+000  0.61775053E+000
 0.51756326E+000  0.20942083E+000
 0.51778934E+000  0.20931540E+000
 0.57694173E-001  0.93206628E+000
 0.57755243E-001  0.93202447E+000
 0.49677923E+000  0.31001214E+000
 0.49704226E+000  0.30988396E+000
 0.46844570E+000  0.40557119E+000
 0.46816043E+000  0.40572675E+000
 0.27049688E+000  0.69552828E+000
 0.27071766E+000  0.69537137E+000
 0.13122535E+000  0.85846321E+000
 0.13111009E+000  0.85855107E+000
 0.39240672E-002  0.99378111E+000
 0.39356669E-002  0.99377387E+000
 0.43245489E+000  0.49487168E+000
 0.43216632E+000  0.49505293E+000
 0.34978860E-001  0.96267918E+000
 0.35019365E-001  0.96265023E+000
 0.22736900E+000  0.76218200E+000
 0.22755081E+000  0.76203460E+000
 0.63578016E+000 -0.42265803E-008
 0.63590500E+000 -0.83802220E-004
 0.95232417E-001  0.90235845E+000
 0.38964201E+000  0.57637969E+000
 0.38936882E+000  0.57657849E+000
 0.95148737E-001  0.90242723E+000
 0.63075353E+000  0.96308772E-001
 0.63091632E+000  0.96213114E-001
 0.61596289E+000  0.19098906E+000
 0.61575673E+000  0.19110546E+000
 0.59128174E+000  0.28275383E+000
 0.59103569E+000  0.28289947E+000
 0.18066147E+000  0.81681240E+000
 0.18080306E+000  0.81668464E+000
 0.34044381E+000  0.64901397E+000
 0.34068664E+000  0.64881043E+000
-0.39357265E-002  0.99377386E+000
 0.55726489E+000  0.37006485E+000
 0.55699124E+000  0.37024430E+000
 0.11710172E-001  0.97810319E+000
 0.11734399E-001  0.97808584E+000
 0.57686134E-001  0.93206517E+000
 0.57743887E-001  0.93201628E+000
 0.51416934E+000  0.45176088E+000
 0.51445274E+000  0.45154942E+000
 0.28616130E+000  0.71121339E+000
 0.28636458E+000  0.71101970E+000
 0.13121256E+000  0.85845361E+000
 0.13110764E+000  0.85855544E+000
 0.46325094E+000  0.52616044E+000
 0.46352496E+000  0.52592560E+000
 0.72724191E+000 -0.75892145E-004
 0.72714245E+000 -0.39660959E-008
 0.72153058E+000  0.85468295E-001
 0.72139612E+000  0.85560772E-001
 0.70442628E+000  0.16966018E+000
 0.70425083E+000  0.16977812E+000
-0.11745744E-001  0.97809373E+000
-0.11734469E-001  0.97808584E+000
 0.19349120E-001  0.94696439E+000
 0.19311164E-001  0.94699577E+000
 0.67620004E+000  0.25117622E+000
 0.22737420E+000  0.76219247E+000
 0.22753527E+000  0.76202170E+000
 0.67598500E+000  0.25132808E+000
 0.40528926E+000  0.59202161E+000
 0.40504106E+000  0.59226567E+000
 0.63729951E+000  0.32873548E+000
 0.79560690E-001  0.88667610E+000
 0.63705438E+000  0.32892612E+000
 0.79485821E-001  0.88675059E+000
 0.58834165E+000  0.40111933E+000
 0.58808197E+000  0.40134756E+000
 0.34045673E+000  0.64902988E+000
 0.34066819E+000  0.64879349E+000
 0.16500571E+000  0.80114424E+000
 0.16512769E+000  0.80100507E+000
-0.35019435E-001  0.96265022E+000
-0.19349201E-001  0.94696438E+000
-0.19372397E-001  0.94698231E+000
 0.53010265E+000  0.46718984E+000
 0.52984637E+000  0.46744750E+000
 0.80704153E+000 -0.36730125E-008
 0.80711485E+000 -0.64176559E-004
 0.26607322E-001  0.90095146E+000
 0.26659675E-001  0.90090120E+000
 0.80066641E+000  0.73464438E-001
 0.80077013E+000  0.73381107E-001
 0.78178404E+000  0.14566439E+000
 0.78164407E+000  0.14577541E+000
 0.27068406E+000  0.69534113E+000
 0.27051345E+000  0.69555389E+000
 0.75045738E+000  0.21564934E+000
 0.75028114E+000  0.21579633E+000
 0.46350530E+000  0.52590688E+000
 0.10003538E+000  0.82745193E+000
 0.10012533E+000  0.82734695E+000
 0.46326887E+000  0.52617961E+000
 0.70728648E+000  0.28223644E+000
 0.70708085E+000  0.28242465E+000
-0.57755312E-001  0.93202445E+000
-0.57743967E-001  0.93201627E+000
 0.19644223E+000  0.73092276E+000
 0.19631005E+000  0.73110042E+000
 0.38939923E+000  0.57661325E+000
 0.38960409E+000  0.57634357E+000
-0.26659766E-001  0.90090119E+000
-0.26696012E-001  0.90093294E+000
 0.65273279E+000  0.34460917E+000
 0.65295516E+000  0.34437989E+000
 0.33550639E-001  0.84062473E+000
 0.33484260E-001  0.84069881E+000
 0.58810027E+000  0.40136693E+000
 0.58832374E+000  0.40110338E+000
 0.87426277E+000 -0.50603086E-004
 0.87421266E+000 -0.33519535E-008
 0.30956807E+000  0.61770026E+000
 0.86738420E+000  0.60140610E-001
 0.86730946E+000  0.60210774E-001
 0.30939985E+000  0.61794859E+000
 0.84671072E+000  0.11947630E+000
 0.84681528E+000  0.11937882E+000
 0.11901222E+000  0.75510606E+000
 0.11911306E+000  0.75496792E+000
 0.51441535E+000  0.45151472E+000
 0.51420591E+000  0.45179928E+000
 0.81288184E+000  0.17673266E+000
 0.81274663E+000  0.17686524E+000
-0.95232497E-001  0.90235843E+000
-0.79560781E-001  0.88667608E+000
-0.79584819E-001  0.88669506E+000
 0.76612112E+000  0.23130108E+000
 0.76596000E+000  0.23147418E+000
-0.33600916E-001  0.84067504E+000
-0.33550740E-001  0.84062472E+000
 0.22466170E+000  0.64931698E+000
 0.22452836E+000  0.64952967E+000
 0.43239951E+000  0.49481890E+000
 0.43221546E+000  0.49510659E+000
 0.70727310E+000  0.28222720E+000
 0.70709583E+000  0.28244173E+000
 0.39913182E-001  0.76708872E+000
 0.39834728E-001  0.76719032E+000
 0.63708810E+000  0.32896228E+000
 0.63726875E+000  0.32871130E+000
 0.34357339E+000  0.53032982E+000
-0.13122542E+000  0.85846317E+000
-0.13121265E+000  0.85845359E+000
 0.34341999E+000  0.53060124E+000
 0.13622401E+000  0.67068497E+000
 0.13611856E+000  0.67085521E+000
 0.92759282E+000 -0.30079860E-008
 0.92762440E+000 -0.36757684E-004
 0.92027046E+000  0.46009101E-001
 0.92032052E+000  0.45954148E-001
-0.10016392E+000  0.82738111E+000
-0.10012543E+000  0.82734694E+000
 0.89842040E+000  0.91296119E-001
 0.89849308E+000  0.91216441E-001
 0.55721525E+000  0.37002277E+000
 0.55704413E+000  0.37029910E+000
 0.86248780E+000  0.13503837E+000
-0.39913291E-001  0.76708872E+000
 0.86239148E+000  0.13514957E+000
-0.39977225E-001  0.76716190E+000
 0.81287442E+000  0.17673143E+000
 0.81275765E+000  0.17687927E+000
 0.24921635E+000  0.55771904E+000
 0.24934063E+000  0.55748054E+000
 0.46837852E+000  0.40551085E+000
 0.45646819E-001  0.68145713E+000
 0.45560146E-001  0.68158691E+000
 0.46822694E+000  0.40579641E+000
 0.75043759E+000  0.21564090E+000
 0.75030758E+000  0.21582699E+000
-0.18080315E+000  0.81668461E+000
-0.16515567E+000  0.80102812E+000
-0.16512778E+000  0.80100505E+000
 0.67616435E+000  0.25115588E+000
 0.67603095E+000  0.25137699E+000
-0.11916723E+000  0.75502192E+000
-0.11911316E+000  0.75496791E+000
 0.15118806E+000  0.57583266E+000
 0.15108594E+000  0.57602871E+000
 0.37216312E+000  0.43461401E+000
 0.37203571E+000  0.43489002E+000
 0.96633763E+000 -0.26465649E-008
 0.96635541E+000 -0.23620351E-004
-0.45646936E-001  0.68145712E+000
 0.95871151E+000  0.31083680E-001
-0.45722741E-001  0.68155507E+000
 0.95874216E+000  0.31044294E-001
 0.59122856E+000  0.28271840E+000
 0.93595459E+000  0.61679827E-001
 0.59110203E+000  0.28296601E+000
 0.93600083E+000  0.61619790E-001
 0.89842907E+000  0.91307982E-001
 0.89849159E+000  0.91222000E-001
 0.27008956E+000  0.45686799E+000
 0.26998446E+000  0.45711669E+000
 0.50571899E-001  0.58523937E+000
 0.50661032E-001  0.58508553E+000
 0.84680780E+000  0.11938575E+000
 0.84673127E+000  0.11950190E+000
-0.22755090E+000  0.76203455E+000
-0.22753537E+000  0.76202167E+000
 0.49686087E+000  0.31009257E+000
 0.49697248E+000  0.30983174E+000
-0.19644233E+000  0.73092274E+000
-0.19648731E+000  0.73096400E+000
 0.78176651E+000  0.14566875E+000
 0.78168122E+000  0.14581673E+000
-0.13622412E+000  0.67068495E+000
-0.13629329E+000  0.67076147E+000
 0.16376915E+000  0.47191271E+000
 0.16367909E+000  0.47212200E+000
 0.70439548E+000  0.16965830E+000
 0.70430867E+000  0.16983611E+000
 0.39488561E+000  0.33206755E+000
 0.39479240E+000  0.33232513E+000
-0.50661157E-001  0.58508553E+000
-0.50744844E-001  0.58520562E+000
 0.98983465E+000 -0.22734025E-008
 0.98984236E+000 -0.11475300E-004
 0.98204119E+000  0.15645425E-001
 0.98202484E+000  0.15670096E-001
 0.61591697E+000  0.19097758E+000
-0.28636468E+000  0.71101966E+000
 0.61583620E+000  0.19117899E+000
-0.27068416E+000  0.69534111E+000
 0.95871950E+000  0.31094864E-001
-0.27071774E+000  0.69537132E+000
 0.95874548E+000  0.31054099E-001
 0.28658102E+000  0.34907184E+000
 0.28650362E+000  0.34930920E+000
 0.54876721E-001  0.47949938E+000
 0.92032414E+000  0.45972185E-001
 0.92028867E+000  0.46032368E-001
 0.54792407E-001  0.47966699E+000
-0.22466182E+000  0.64931696E+000
-0.22472427E+000  0.64937931E+000
 0.86738488E+000  0.60165231E-001
 0.86734192E+000  0.60247549E-001
 0.51772854E+000  0.20929122E+000
 0.51765964E+000  0.20950602E+000
-0.15118819E+000  0.57583265E+000
-0.15126966E+000  0.57592990E+000
 0.80071790E+000  0.73515783E-001
 0.80076441E+000  0.73410314E-001
 0.17369933E+000  0.36077316E+000
 0.17376893E+000  0.36056967E+000
 0.41138106E+000  0.22431023E+000
-0.54876851E-001  0.47949938E+000
 0.41132607E+000  0.22452523E+000
-0.54962299E-001  0.47963276E+000
 0.72151521E+000  0.85499445E-001
 0.72147034E+000  0.85626491E-001
-0.34066829E+000  0.64879346E+000
-0.34068673E+000  0.64881038E+000
-0.30956819E+000  0.61770023E+000
-0.30962062E+000  0.61775047E+000
 0.63088891E+000  0.96242711E-001
 0.63085089E+000  0.96386702E-001
 0.99771294E+000 -0.18981766E-008
 0.99771294E+000 -0.18943739E-008
-0.24934075E+000  0.55748053E+000
-0.24941846E+000  0.55756233E+000
 0.98984236E+000  0.11471507E-004
 0.98984875E+000 -0.15187622E-008
 0.58227458E-001  0.36636929E+000
 0.58156015E-001  0.36653365E+000
 0.96635541E+000  0.23616558E-004
 0.96636722E+000 -0.11453607E-008
 0.29855428E+000  0.23579610E+000
 0.29850992E+000  0.23599687E+000
 0.92762440E+000  0.36753890E-004
 0.92764023E+000 -0.78386374E-009
-0.16385756E+000  0.47202243E+000
-0.16376928E+000  0.47191270E+000
 0.53028907E+000  0.10562443E+000
 0.53031664E+000  0.10547112E+000
 0.87426278E+000  0.50599292E-004
 0.87428027E+000 -0.43995434E-009
-0.40528936E+000  0.59202157E+000
 0.80711486E+000  0.64172764E-004
-0.38960420E+000  0.57634354E+000
 0.18102968E+000  0.24356381E+000
 0.80713064E+000 -0.11902696E-009
 0.18098730E+000  0.24373726E+000
-0.38964210E+000  0.57637963E+000
-0.58227592E-001  0.36636928E+000
-0.58306893E-001  0.36649995E+000
-0.34357351E+000  0.53032980E+000
-0.34364276E+000  0.53039803E+000
 0.42138650E+000  0.11303913E+000
 0.42136979E+000  0.11319175E+000
 0.72724191E+000  0.75888349E-004
 0.72725213E+000  0.17389337E-009
-0.27008968E+000  0.45686798E+000
-0.27017725E+000  0.45696071E+000
 0.60660526E-001  0.24748348E+000
 0.60609765E-001  0.24762177E+000
 0.63590622E+000  0.43419515E-009
 0.63590500E+000  0.83798424E-004
 0.98984875E+000 -0.15154432E-008
 0.98984236E+000  0.11471503E-004
 0.30581837E+000  0.11882673E+000
 0.30580853E+000  0.11896745E+000
 0.98204119E+000 -0.15645428E-001
 0.98204119E+000 -0.15645428E-001
-0.17376906E+000  0.36056966E+000
 0.95874548E+000 -0.31054101E-001
-0.17385598E+000  0.36067590E+000
 0.95874216E+000 -0.31044297E-001
 0.92032414E+000 -0.45972186E-001
-0.46350540E+000  0.52590684E+000
-0.46352505E+000  0.52592555E+000
 0.92032053E+000 -0.45954152E-001
 0.53454489E+000  0.85938278E-004
-0.43239962E+000  0.49481887E+000
 0.53453533E+000  0.65777645E-009
-0.43245497E+000  0.49487162E+000
 0.86738488E+000 -0.60165231E-001
 0.86738421E+000 -0.60140613E-001
 0.18543619E+000  0.12274115E+000
 0.18542477E+000  0.12285910E+000
-0.37216324E+000  0.43461399E+000
-0.37224372E+000  0.43469117E+000
-0.60660664E-001  0.24748348E+000
-0.60724797E-001  0.24758895E+000
 0.80076441E+000 -0.73410314E-001
 0.80077013E+000 -0.73381110E-001
 0.42475930E+000  0.80705947E-004
 0.42474006E+000  0.84111261E-009
-0.28666984E+000  0.34915897E+000
-0.28658115E+000  0.34907183E+000
 0.72151521E+000 -0.85499444E-001
 0.72153059E+000 -0.85468299E-001
 0.62137615E-001  0.12471744E+000
 0.62114075E-001  0.12480439E+000
-0.53010275E+000  0.46718980E+000
-0.51441546E+000  0.45151468E+000
-0.51445283E+000  0.45154936E+000
 0.30827793E+000  0.67211728E-004
-0.18102982E+000  0.24356381E+000
-0.18110506E+000  0.24364348E+000
 0.63088891E+000 -0.96242710E-001
 0.30825389E+000  0.98130345E-009
 0.63091632E+000 -0.96213117E-001
 0.96636722E+000 -0.11425606E-008
 0.96635541E+000  0.23616554E-004
-0.46837864E+000  0.40551082E+000
-0.46844578E+000  0.40557113E+000
 0.95874216E+000 -0.31044297E-001
 0.95874548E+000 -0.31054101E-001
 0.93600083E+000 -0.61619792E-001
 0.93600083E+000 -0.61619792E-001
 0.89849159E+000 -0.91222002E-001
 0.89849308E+000 -0.91216444E-001
-0.39488574E+000  0.33206753E+000
-0.39496825E+000  0.33213706E+000
 0.53031664E+000 -0.10547112E+000
 0.53035667E+000 -0.10544747E+000
-0.62137755E-001  0.12471744E+000
 0.84680780E+000 -0.11938575E+000
 0.84681529E+000 -0.11937882E+000
-0.62177563E-001  0.12477206E+000
 0.18691497E+000  0.10760986E-008
 0.18693533E+000  0.45508742E-004
-0.29855441E+000  0.23579609E+000
-0.29863273E+000  0.23585426E+000
 0.78178404E+000 -0.14566439E+000
 0.78176651E+000 -0.14566875E+000
 0.42138650E+000 -0.11303913E+000
 0.42143703E+000 -0.11302659E+000
-0.58832385E+000  0.40110335E+000
-0.58834174E+000  0.40111928E+000
 0.70442629E+000 -0.16966019E+000
-0.55726497E+000  0.37006480E+000
-0.55721536E+000  0.37002274E+000
 0.70439549E+000 -0.16965830E+000
 0.62634462E-001  0.11239528E-008
 0.62642262E-001  0.16383744E-004
-0.18548849E+000  0.12276781E+000
-0.18543633E+000  0.12274115E+000
-0.49697260E+000  0.30983172E+000
-0.49704233E+000  0.30988389E+000
 0.30581837E+000 -0.11882673E+000
 0.30587398E+000 -0.11883094E+000
 0.61591698E+000 -0.19097758E+000
 0.61596290E+000 -0.19098906E+000
 0.92762440E+000  0.36753887E-004
 0.92764023E+000 -0.78158982E-009
-0.41138119E+000  0.22431022E+000
 0.92032414E+000 -0.45972186E-001
-0.41145381E+000  0.22434994E+000
 0.92032053E+000 -0.45954152E-001
 0.89849308E+000 -0.91216444E-001
 0.89849159E+000 -0.91222002E-001
 0.86248780E+000 -0.13503837E+000
 0.51778935E+000 -0.20931540E+000
 0.86248780E+000 -0.13503837E+000
 0.51772854E+000 -0.20929122E+000
-0.62642310E-001 -0.16473996E-004
-0.62634603E-001  0.11239928E-008
 0.18543619E+000 -0.12274115E+000
 0.18548843E+000 -0.12276790E+000
 0.81287443E+000 -0.17673143E+000
-0.65295525E+000  0.34437984E+000
 0.81288185E+000 -0.17673266E+000
-0.30581851E+000  0.11882673E+000
-0.30587404E+000  0.11883086E+000
-0.63729959E+000  0.32873543E+000
-0.63726886E+000  0.32871127E+000
-0.59122867E+000  0.28271838E+000
-0.59128182E+000  0.28275377E+000
 0.75045738E+000 -0.21564934E+000
 0.75043760E+000 -0.21564090E+000
 0.41138106E+000 -0.22431023E+000
 0.41145376E+000 -0.22435002E+000
-0.51772866E+000  0.20929121E+000
-0.51778941E+000  0.20931533E+000
 0.62137615E-001 -0.12471744E+000
 0.67616435E+000 -0.25115588E+000
 0.67620004E+000 -0.25117622E+000
 0.62177514E-001 -0.12477215E+000
-0.18693537E+000 -0.45597622E-004
-0.18691511E+000  0.10762555E-008
 0.29863267E+000 -0.23585434E+000
 0.29855428E+000 -0.23579610E+000
-0.42138663E+000  0.11303913E+000
-0.42143708E+000  0.11302651E+000
 0.59122856E+000 -0.28271840E+000
 0.59128175E+000 -0.28275383E+000
 0.87426278E+000  0.50599289E-004
-0.70728657E+000  0.28223639E+000
 0.87428027E+000 -0.43820040E-009
-0.70727320E+000  0.28222717E+000
 0.86738421E+000 -0.60140613E-001
 0.86738488E+000 -0.60165231E-001
 0.84681529E+000 -0.11937882E+000
-0.62137755E-001 -0.12471743E+000
-0.67616446E+000  0.25115585E+000
-0.67620011E+000  0.25117616E+000
-0.62114123E-001 -0.12480448E+000
 0.84680780E+000 -0.11938575E+000
 0.49697248E+000 -0.30983173E+000
 0.49704226E+000 -0.30988396E+000
-0.30827798E+000 -0.67297893E-004
 0.18102968E+000 -0.24356381E+000
 0.81288185E+000 -0.17673266E+000
-0.30825403E+000  0.98165332E-009
 0.81287443E+000 -0.17673143E+000
 0.18110501E+000 -0.24364356E+000
-0.61596296E+000  0.19098900E+000
-0.61591709E+000  0.19097757E+000
 0.76612112E+000 -0.23130108E+000
 0.76612112E+000 -0.23130108E+000
-0.53031677E+000  0.10547112E+000
 0.39496819E+000 -0.33213714E+000
 0.39488561E+000 -0.33206755E+000
-0.53035673E+000  0.10544740E+000
 0.70727310E+000 -0.28222721E+000
 0.70728648E+000 -0.28223644E+000
-0.18543633E+000 -0.12274115E+000
-0.18542481E+000 -0.12285919E+000
 0.60660526E-001 -0.24748348E+000
 0.60724747E-001 -0.24758904E+000
 0.63726875E+000 -0.32871130E+000
 0.63729951E+000 -0.32873548E+000
-0.42475935E+000 -0.80788097E-004
-0.42474019E+000  0.84171305E-009
-0.76612121E+000  0.23130104E+000
-0.75043770E+000  0.21564088E+000
 0.28658102E+000 -0.34907184E+000
 0.28666978E+000 -0.34915905E+000
-0.75045746E+000  0.21564929E+000
-0.70439560E+000  0.16965829E+000
 0.55726490E+000 -0.37006486E+000
 0.55721525E+000 -0.37002277E+000
-0.70442635E+000  0.16966013E+000
-0.60660664E-001 -0.24748347E+000
-0.60609812E-001 -0.24762185E+000
 0.80713064E+000 -0.11778631E-009
-0.63088903E+000  0.96242704E-001
 0.80711486E+000  0.64172761E-004
-0.63091638E+000  0.96213048E-001
 0.80077013E+000 -0.73381110E-001
-0.30581851E+000 -0.11882673E+000
-0.30580857E+000 -0.11896754E+000
 0.80076441E+000 -0.73410314E-001
 0.78178404E+000 -0.14566439E+000
 0.78176651E+000 -0.14566875E+000
 0.17385593E+000 -0.36067599E+000
 0.46837853E+000 -0.40551085E+000
 0.17376893E+000 -0.36056967E+000
 0.46844571E+000 -0.40557119E+000
 0.75045738E+000 -0.21564934E+000
 0.75043760E+000 -0.21564090E+000
-0.53453545E+000  0.65865614E-009
-0.53454494E+000 -0.86015180E-004
 0.70728648E+000 -0.28223644E+000
 0.70727310E+000 -0.28222721E+000
 0.37216312E+000 -0.43461401E+000
 0.37224365E+000 -0.43469124E+000
-0.81287452E+000  0.17673140E+000
 0.65295516E+000 -0.34437989E+000
-0.18102982E+000 -0.24356381E+000
-0.18098735E+000 -0.24373735E+000
-0.81288193E+000  0.17673262E+000
 0.65295516E+000 -0.34437989E+000
 0.58306843E-001 -0.36650003E+000
 0.58227458E-001 -0.36636928E+000
-0.78176661E+000  0.14566873E+000
-0.78178411E+000  0.14566434E+000
-0.42138663E+000 -0.11303912E+000
-0.42136983E+000 -0.11319183E+000
 0.58832375E+000 -0.40110338E+000
 0.58834165E+000 -0.40111933E+000
-0.72153065E+000  0.85468237E-001
-0.72151532E+000  0.85499437E-001
 0.27008956E+000 -0.45686799E+000
 0.27017718E+000 -0.45696078E+000
 0.51445274E+000 -0.45154942E+000
-0.63590505E+000 -0.83868925E-004
-0.63590635E+000  0.43538157E-009
 0.51441535E+000 -0.45151472E+000
-0.58227593E-001 -0.36636928E+000
-0.58156061E-001 -0.36653373E+000
-0.29855441E+000 -0.23579609E+000
-0.29850996E+000 -0.23599696E+000
 0.72724191E+000  0.75888347E-004
 0.72725213E+000  0.17464503E-009
 0.16376915E+000 -0.47191271E+000
 0.72151521E+000 -0.85499444E-001
 0.72153059E+000 -0.85468299E-001
 0.16385750E+000 -0.47202250E+000
 0.43239951E+000 -0.49481890E+000
 0.43245490E+000 -0.49487168E+000
 0.70442629E+000 -0.16966019E+000
-0.53031677E+000 -0.10547112E+000
 0.70439549E+000 -0.16965830E+000
-0.53028911E+000 -0.10562450E+000
-0.86248788E+000  0.13503834E+000
-0.84681536E+000  0.11937878E+000
-0.84680789E+000  0.11938573E+000
 0.67620004E+000 -0.25117622E+000
 0.67616435E+000 -0.25115588E+000
-0.80076452E+000  0.73410305E-001
-0.80077019E+000  0.73381057E-001
 0.63726875E+000 -0.32871130E+000
 0.63729951E+000 -0.32873548E+000
-0.17376906E+000 -0.36056966E+000
-0.17369937E+000 -0.36077324E+000
 0.34357339E+000 -0.53032982E+000
 0.34364269E+000 -0.53039809E+000
 0.54876721E-001 -0.47949938E+000
-0.41132611E+000 -0.22452531E+000
-0.41138119E+000 -0.22431022E+000
 0.54962247E-001 -0.47963284E+000
-0.72724196E+000 -0.75951399E-004
 0.58834165E+000 -0.40111933E+000
-0.72725224E+000  0.17542755E-009
 0.58832375E+000 -0.40110338E+000
 0.53010265E+000 -0.46718984E+000
 0.53010265E+000 -0.46718984E+000
 0.24934063E+000 -0.55748054E+000
-0.63088904E+000 -0.96242704E-001
-0.63085093E+000 -0.96386773E-001
 0.24941840E+000 -0.55756240E+000
-0.28650366E+000 -0.34930928E+000
-0.28658115E+000 -0.34907183E+000
 0.46350530E+000 -0.52590688E+000
-0.54876851E-001 -0.47949938E+000
 0.46352496E+000 -0.52592560E+000
-0.54792453E-001 -0.47966707E+000
-0.89849167E+000  0.91221980E-001
-0.89849315E+000  0.91216410E-001
-0.86738498E+000  0.60165221E-001
-0.86738427E+000  0.60140568E-001
-0.51772866E+000 -0.20929121E+000
-0.51765968E+000 -0.20950610E+000
 0.15118807E+000 -0.57583265E+000
 0.15126960E+000 -0.57592997E+000
 0.63590500E+000  0.83798422E-004
 0.63590622E+000  0.43452073E-009
 0.38964202E+000 -0.57637969E+000
 0.38960409E+000 -0.57634357E+000
-0.80713075E+000 -0.11709860E-009
-0.80711491E+000 -0.64227431E-004
 0.63088891E+000 -0.96242710E-001
 0.63091632E+000 -0.96213117E-001
 0.61591698E+000 -0.19097758E+000
 0.61596290E+000 -0.19098906E+000
 0.59122856E+000 -0.28271840E+000
 0.59128175E+000 -0.28275383E+000
-0.16367913E+000 -0.47212208E+000
-0.16376928E+000 -0.47191270E+000
-0.72151532E+000 -0.85499437E-001
-0.72147039E+000 -0.85626554E-001
 0.55726490E+000 -0.37006486E+000
 0.55721525E+000 -0.37002277E+000
-0.39479243E+000 -0.33232521E+000
-0.39488574E+000 -0.33206753E+000
 0.30956808E+000 -0.61770026E+000
 0.30962055E+000 -0.61775053E+000
 0.50661033E-001 -0.58508553E+000
 0.50744791E-001 -0.58520570E+000
 0.51445274E+000 -0.45154942E+000
 0.51441535E+000 -0.45151472E+000
-0.61591709E+000 -0.19097757E+000
-0.61583624E+000 -0.19117906E+000
-0.93600090E+000  0.61619769E-001
 0.46350530E+000 -0.52590688E+000
 0.46352496E+000 -0.52592560E+000
-0.92032423E+000  0.45972174E-001
-0.92032059E+000  0.45954117E-001
 0.22466170E+000 -0.64931698E+000
 0.22472420E+000 -0.64937937E+000
-0.27008968E+000 -0.45686797E+000
-0.87426283E+000 -0.50644777E-004
-0.26998450E+000 -0.45711677E+000
-0.87428036E+000 -0.43760364E-009
-0.50661157E-001 -0.58508553E+000
-0.50571946E-001 -0.58523944E+000
 0.40528927E+000 -0.59202161E+000
-0.49686090E+000 -0.31009264E+000
 0.40528927E+000 -0.59202161E+000
-0.49697260E+000 -0.30983172E+000
-0.80076452E+000 -0.73410306E-001
-0.80071794E+000 -0.73515838E-001
 0.13622401E+000 -0.67068496E+000
 0.13629323E+000 -0.67076153E+000
 0.34068664E+000 -0.64881043E+000
 0.34066819E+000 -0.64879349E+000
 0.53453533E+000  0.65774526E-009
 0.53454489E+000  0.85938276E-004
-0.70430870E+000 -0.16983617E+000
-0.70439560E+000 -0.16965829E+000
 0.53031664E+000 -0.10547112E+000
 0.53035667E+000 -0.10544747E+000
 0.51778935E+000 -0.20931540E+000
 0.51772854E+000 -0.20929122E+000
-0.15118819E+000 -0.57583264E+000
-0.15108598E+000 -0.57602878E+000
-0.37216324E+000 -0.43461399E+000
-0.37203574E+000 -0.43489010E+000
 0.49704226E+000 -0.30988396E+000
 0.49697248E+000 -0.30983173E+000
 0.27068406E+000 -0.69534113E+000
 0.45646819E-001 -0.68145713E+000
 0.45722688E-001 -0.68155514E+000
-0.95874555E+000  0.31054089E-001
-0.95874222E+000  0.31044272E-001
 0.27071766E+000 -0.69537138E+000
 0.46844571E+000 -0.40557119E+000
 0.46837853E+000 -0.40551085E+000
-0.59122868E+000 -0.28271838E+000
-0.59110206E+000 -0.28296608E+000
-0.92762445E+000 -0.36789537E-004
-0.92764032E+000 -0.78109959E-009
 0.43245490E+000 -0.49487168E+000
 0.43239951E+000 -0.49481890E+000
-0.86738498E+000 -0.60165222E-001
-0.86734196E+000 -0.60247595E-001
 0.19648724E+000 -0.73096405E+000
 0.19644223E+000 -0.73092276E+000
-0.24934075E+000 -0.55748053E+000
 0.38960409E+000 -0.57634357E+000
 0.38964202E+000 -0.57637969E+000
-0.24921638E+000 -0.55771911E+000
-0.78176662E+000 -0.14566873E+000
-0.78168125E+000 -0.14581679E+000
-0.46837864E+000 -0.40551082E+000
-0.45560192E-001 -0.68158697E+000
-0.45646937E-001 -0.68145712E+000
-0.46822697E+000 -0.40579648E+000
 0.34068664E+000 -0.64881043E+000
 0.34066819E+000 -0.64879349E+000
-0.67603098E+000 -0.25137705E+000
 0.11916716E+000 -0.75502197E+000
-0.67616446E+000 -0.25115585E+000
 0.11911306E+000 -0.75496792E+000
-0.98204125E+000  0.15645414E-001
 0.28636459E+000 -0.71101970E+000
 0.28636459E+000 -0.71101970E+000
-0.96635546E+000 -0.23641867E-004
-0.96636730E+000 -0.11422131E-008
-0.34357351E+000 -0.53032980E+000
 0.42474006E+000  0.84077391E-009
 0.42475930E+000  0.80705945E-004
-0.34342001E+000 -0.53060131E+000
 0.42143703E+000 -0.11302659E+000
 0.42138650E+000 -0.11303913E+000
-0.13622412E+000 -0.67068495E+000
-0.13611860E+000 -0.67085528E+000
 0.41145376E+000 -0.22435002E+000
 0.41138106E+000 -0.22431023E+000
-0.92028871E+000 -0.46032404E-001
-0.92032423E+000 -0.45972176E-001
-0.55721537E+000 -0.37002274E+000
 0.39488561E+000 -0.33206755E+000
 0.39496819E+000 -0.33213714E+000
-0.55704416E+000 -0.37029916E+000
 0.39977170E-001 -0.76716196E+000
 0.39913182E-001 -0.76708872E+000
 0.22753527E+000 -0.76202170E+000
-0.84680789E+000 -0.11938573E+000
 0.22755082E+000 -0.76203460E+000
-0.84673130E+000 -0.11950194E+000
 0.37216312E+000 -0.43461401E+000
 0.37224365E+000 -0.43469124E+000
 0.34357339E+000 -0.53032982E+000
 0.34364269E+000 -0.53039809E+000
-0.75030761E+000 -0.21582705E+000
-0.75043770E+000 -0.21564088E+000
-0.22466182E+000 -0.64931696E+000
-0.22452839E+000 -0.64952974E+000
-0.43239962E+000 -0.49481887E+000
-0.43221548E+000 -0.49510665E+000
 0.16512769E+000 -0.80100507E+000
 0.16515559E+000 -0.80102817E+000
 0.30956808E+000 -0.61770026E+000
 0.30962055E+000 -0.61775053E+000
-0.39834774E-001 -0.76719038E+000
-0.39913292E-001 -0.76708872E+000
-0.98984241E+000 -0.11486141E-004
-0.98984881E+000 -0.15152649E-008
-0.63708812E+000 -0.32896233E+000
-0.63726886E+000 -0.32871127E+000
 0.27068406E+000 -0.69534113E+000
-0.95874555E+000 -0.31054091E-001
 0.27071766E+000 -0.69537138E+000
-0.95871954E+000 -0.31094889E-001
 0.10012533E+000 -0.82734695E+000
 0.10016385E+000 -0.82738116E+000
-0.89849167E+000 -0.91221982E-001
-0.89842910E+000 -0.91308018E-001
-0.30956819E+000 -0.61770023E+000
-0.30939988E+000 -0.61794865E+000
 0.22753527E+000 -0.76202170E+000
-0.11901226E+000 -0.75510612E+000
 0.22755082E+000 -0.76203460E+000
-0.11911316E+000 -0.75496791E+000
-0.51441546E+000 -0.45151468E+000
-0.51420593E+000 -0.45179934E+000
 0.30827793E+000  0.67211726E-004
 0.30825389E+000  0.98069172E-009
-0.81287452E+000 -0.17673140E+000
-0.81275767E+000 -0.17687931E+000
 0.30587398E+000 -0.11883094E+000
 0.30581837E+000 -0.11882673E+000
 0.29863267E+000 -0.23585434E+000
 0.29855428E+000 -0.23579610E+000
 0.33550640E-001 -0.84062473E+000
 0.33600860E-001 -0.84067509E+000
 0.28666978E+000 -0.34915905E+000
 0.28658102E+000 -0.34907184E+000
 0.18080306E+000 -0.81668464E+000
 0.18080306E+000 -0.81668464E+000
-0.70727320E+000 -0.28222717E+000
 0.27017718E+000 -0.45696078E+000
 0.27008956E+000 -0.45686799E+000
-0.70709585E+000 -0.28244178E+000
-0.19631008E+000 -0.73110048E+000
-0.19644233E+000 -0.73092274E+000
-0.99771300E+000 -0.18943903E-008
 0.24934063E+000 -0.55748054E+000
 0.24941840E+000 -0.55756240E+000
-0.38960420E+000 -0.57634354E+000
-0.38939925E+000 -0.57661331E+000
-0.98202489E+000 -0.15670112E-001
-0.98204125E+000 -0.15645417E-001
 0.13121256E+000 -0.85845361E+000
 0.13122535E+000 -0.85846321E+000
-0.93600090E+000 -0.61619772E-001
-0.33550740E-001 -0.84062472E+000
-0.93595462E+000 -0.61679853E-001
-0.33484307E-001 -0.84069886E+000
 0.22472420E+000 -0.64937937E+000
-0.58832385E+000 -0.40110335E+000
-0.58810029E+000 -0.40136698E+000
 0.22466170E+000 -0.64931698E+000
-0.86239150E+000 -0.13514961E+000
-0.86248788E+000 -0.13503834E+000
 0.19648724E+000 -0.73096405E+000
 0.19644223E+000 -0.73092276E+000
 0.79584753E-001 -0.88669510E+000
 0.79560691E-001 -0.88667610E+000
-0.27051347E+000 -0.69555394E+000
-0.27068417E+000 -0.69534111E+000
-0.76612121E+000 -0.23130104E+000
-0.76596001E+000 -0.23147422E+000
-0.46350540E+000 -0.52590684E+000
-0.46326888E+000 -0.52617967E+000
-0.10012543E+000 -0.82734694E+000
-0.10003542E+000 -0.82745198E+000
 0.16515559E+000 -0.80102817E+000
 0.16512769E+000 -0.80100507E+000
 0.18691497E+000  0.10752652E-008
 0.18693533E+000  0.45508741E-004
 0.18548843E+000 -0.12276790E+000
 0.18543619E+000 -0.12274115E+000
-0.65273280E+000 -0.34460922E+000
-0.65295526E+000 -0.34437985E+000
 0.26695956E-001 -0.90093298E+000
 0.18102968E+000 -0.24356381E+000
 0.26659675E-001 -0.90090120E+000
 0.18110501E+000 -0.24364356E+000
-0.98984241E+000  0.11482352E-004
-0.98983470E+000 -0.22736171E-008
-0.95874222E+000 -0.31044275E-001
 0.17385593E+000 -0.36067599E+000
-0.95871154E+000 -0.31083695E-001
 0.17376893E+000 -0.36056967E+000
 0.13122535E+000 -0.85846321E+000
 0.13121256E+000 -0.85845361E+000
 0.16385750E+000 -0.47202250E+000
 0.16376915E+000 -0.47191271E+000
-0.89849316E+000 -0.91216413E-001
-0.34045675E+000 -0.64902993E+000
-0.34066830E+000 -0.64879346E+000
-0.89842043E+000 -0.91296145E-001
-0.16512779E+000 -0.80100505E+000
-0.16500573E+000 -0.80114429E+000
 0.15126960E+000 -0.57592997E+000
 0.15118807E+000 -0.57583265E+000
-0.52984638E+000 -0.46744755E+000
-0.53010275E+000 -0.46718980E+000
-0.81288193E+000 -0.17673262E+000
-0.81274664E+000 -0.17686527E+000
 0.95232419E-001 -0.90235846E+000
-0.26659766E-001 -0.90090119E+000
 0.95232419E-001 -0.90235846E+000
-0.26607369E-001 -0.90095150E+000
 0.13629323E+000 -0.67076153E+000
 0.13622401E+000 -0.67068496E+000
-0.70728657E+000 -0.28223639E+000
-0.70708086E+000 -0.28242469E+000
-0.22753537E+000 -0.76202167E+000
 0.11916716E+000 -0.75502197E+000
 0.11911306E+000 -0.75496792E+000
-0.22737422E+000 -0.76219252E+000
 0.57743888E-001 -0.93201628E+000
 0.57755245E-001 -0.93202448E+000
-0.40504107E+000 -0.59226572E+000
-0.40528936E+000 -0.59202157E+000
-0.79485858E-001 -0.88675063E+000
-0.79560782E-001 -0.88667608E+000
-0.98202489E+000  0.15670107E-001
-0.96635546E+000  0.23638078E-004
-0.96633767E+000 -0.26469694E-008
-0.92027048E+000 -0.46009117E-001
 0.10016385E+000 -0.82738116E+000
 0.10012533E+000 -0.82734695E+000
-0.92032059E+000 -0.45954120E-001
-0.58808198E+000 -0.40134761E+000
-0.58834175E+000 -0.40111928E+000
 0.19349120E-001 -0.94696439E+000
 0.62634462E-001  0.11229819E-008
 0.62642262E-001  0.16383743E-004
 0.19372339E-001 -0.94698234E+000
-0.84681536E+000 -0.11937878E+000
-0.84671073E+000 -0.11947632E+000
 0.62137615E-001 -0.12471744E+000
 0.62177514E-001 -0.12477215E+000
 0.60660526E-001 -0.24748348E+000
 0.60724747E-001 -0.24758904E+000
 0.79584753E-001 -0.88669510E+000
 0.79560691E-001 -0.88667610E+000
-0.28636468E+000 -0.71101966E+000
 0.58227458E-001 -0.36636928E+000
-0.28616131E+000 -0.71121344E+000
 0.58306843E-001 -0.36650003E+000
-0.13110767E+000 -0.85855548E+000
-0.13121265E+000 -0.85845359E+000
-0.75045746E+000 -0.21564929E+000
-0.75028115E+000 -0.21579636E+000
-0.46325094E+000 -0.52616049E+000
 0.54876721E-001 -0.47949938E+000
-0.46352505E+000 -0.52592555E+000
 0.54962247E-001 -0.47963284E+000
-0.19349201E-001 -0.94696438E+000
 0.50661033E-001 -0.58508553E+000
-0.19311211E-001 -0.94699580E+000
 0.50744791E-001 -0.58520570E+000
 0.57743888E-001 -0.93201628E+000
 0.57755245E-001 -0.93202448E+000
-0.63705438E+000 -0.32892616E+000
-0.63729959E+000 -0.32873543E+000
 0.45646819E-001 -0.68145713E+000
 0.45722688E-001 -0.68155514E+000
-0.95871954E+000  0.31094885E-001
-0.95871154E+000  0.31083690E-001
-0.92762445E+000  0.36785747E-004
-0.92759285E+000 -0.30085625E-008
-0.18080315E+000 -0.81668461E+000
-0.18066149E+000 -0.81681244E+000
-0.34068673E+000 -0.64881038E+000
-0.34044381E+000 -0.64901401E+000
 0.35019366E-001 -0.96265024E+000
-0.86730947E+000 -0.60210790E-001
-0.86738427E+000 -0.60140572E-001
 0.35019366E-001 -0.96265024E+000
 0.39913182E-001 -0.76708872E+000
 0.39977170E-001 -0.76716196E+000
-0.57743969E-001 -0.93201627E+000
-0.57686171E-001 -0.93206520E+000
-0.51445283E+000 -0.45154936E+000
-0.51416934E+000 -0.45176092E+000
-0.78178411E+000 -0.14566435E+000
-0.78164408E+000 -0.14577543E+000
 0.33550640E-001 -0.84062473E+000
 0.33600860E-001 -0.84067509E+000
 0.11734399E-001 -0.97808585E+000
 0.11745686E-001 -0.97809375E+000
-0.62634603E-001  0.11229380E-008
-0.62642310E-001 -0.16473997E-004
-0.22755090E+000 -0.76203456E+000
-0.67620012E+000 -0.25117616E+000
-0.67598500E+000 -0.25132811E+000
-0.22736901E+000 -0.76218204E+000
-0.62114123E-001 -0.12480448E+000
-0.62137755E-001 -0.12471743E+000
-0.60609812E-001 -0.24762185E+000
-0.60660664E-001 -0.24748347E+000
-0.95232498E-001 -0.90235843E+000
 0.26695956E-001 -0.90093298E+000
 0.26659675E-001 -0.90090120E+000
-0.95148764E-001 -0.90242726E+000
-0.38964210E+000 -0.57637963E+000
-0.38936882E+000 -0.57657853E+000
-0.58227593E-001 -0.36636928E+000
-0.58156061E-001 -0.36653373E+000
-0.93595462E+000  0.61679848E-001
-0.54876851E-001 -0.47949938E+000
-0.92027048E+000  0.46009111E-001
-0.92028871E+000  0.46032399E-001
-0.54792453E-001 -0.47966707E+000
-0.11734470E-001 -0.97808584E+000
-0.55699124E+000 -0.37024433E+000
-0.55726498E+000 -0.37006480E+000
-0.11710219E-001 -0.97810321E+000
-0.87426283E+000  0.50640986E-004
-0.87421267E+000 -0.33526924E-008
-0.50661157E-001 -0.58508553E+000
 0.19349120E-001 -0.94696439E+000
-0.50571946E-001 -0.58523944E+000
 0.19372339E-001 -0.94698234E+000
-0.80077019E+000 -0.73381060E-001
-0.80066641E+000 -0.73464454E-001
-0.45646937E-001 -0.68145712E+000
-0.45560192E-001 -0.68158697E+000
-0.27071775E+000 -0.69537133E+000
-0.27049688E+000 -0.69552832E+000
-0.13122543E+000 -0.85846317E+000
-0.13111011E+000 -0.85855110E+000
-0.43245498E+000 -0.49487162E+000
-0.43216631E+000 -0.49505297E+000
 0.11745686E-001 -0.97809375E+000
-0.70425082E+000 -0.16977814E+000
-0.70442636E+000 -0.16966013E+000
 0.11734399E-001 -0.97808585E+000
-0.35019436E-001 -0.96265022E+000
-0.34978897E-001 -0.96267920E+000
-0.39834774E-001 -0.76719038E+000
-0.39913292E-001 -0.76708872E+000
-0.59103568E+000 -0.28289950E+000
-0.59128182E+000 -0.28275377E+000
-0.33550740E-001 -0.84062472E+000
-0.33484307E-001 -0.84069886E+000
-0.89842043E+000  0.91296139E-001
-0.89842910E+000  0.91308013E-001
 0.39356672E-002 -0.99377387E+000
 0.39356672E-002 -0.99377387E+000
-0.16515567E+000 -0.80102812E+000
-0.16500534E+000 -0.80113067E+000
-0.30962063E+000 -0.61775047E+000
-0.30936774E+000 -0.61790518E+000
-0.86734196E+000  0.60247590E-001
-0.86730947E+000  0.60210784E-001
-0.18691511E+000  0.10751019E-008
-0.57755314E-001 -0.93202445E+000
-0.18693537E+000 -0.45597624E-004
-0.57694200E-001 -0.93206630E+000
-0.18543633E+000 -0.12274115E+000
-0.18542481E+000 -0.12285919E+000
-0.80711491E+000  0.64223639E-004
-0.26607369E-001 -0.90095150E+000
-0.26659766E-001 -0.90090119E+000
-0.18102982E+000 -0.24356381E+000
-0.18098735E+000 -0.24373735E+000
-0.80704154E+000 -0.36739195E-008
-0.46844578E+000 -0.40557113E+000
-0.17376906E+000 -0.36056966E+000
-0.17369937E+000 -0.36077324E+000
-0.46816042E+000 -0.40572678E+000
-0.72139611E+000 -0.85560788E-001
-0.72153065E+000 -0.85468240E-001
-0.16376928E+000 -0.47191270E+000
-0.16367913E+000 -0.47212208E+000
-0.39357269E-002 -0.99377386E+000
-0.39241156E-002 -0.99378112E+000
-0.19311211E-001 -0.94699580E+000
-0.19349201E-001 -0.94696438E+000
-0.15108598E+000 -0.57602878E+000
-0.15118819E+000 -0.57583264E+000
-0.19648731E+000 -0.73096400E+000
-0.19630225E+000 -0.73107363E+000
-0.79584822E-001 -0.88669506E+000
-0.79499014E-001 -0.88674898E+000
-0.61575672E+000 -0.19110548E+000
-0.61596297E+000 -0.19098900E+000
-0.34337034E+000 -0.53053975E+000
-0.34364276E+000 -0.53039803E+000
-0.13622412E+000 -0.67068495E+000
-0.13611860E+000 -0.67085528E+000
-0.11710219E-001 -0.97810321E+000
-0.11734470E-001 -0.97808584E+000
-0.11721141E-001 -0.97810830E+000
-0.11745746E-001 -0.97809374E+000
-0.86239150E+000  0.13514960E+000
-0.84671073E+000  0.11947632E+000
-0.11901226E+000 -0.75510612E+000
-0.11911316E+000 -0.75496791E+000
-0.84673131E+000  0.11950194E+000
-0.49704234E+000 -0.30988390E+000
-0.49677921E+000 -0.31001216E+000
-0.80071795E+000  0.73515833E-001
-0.80066641E+000  0.73464447E-001
-0.10016392E+000 -0.82738111E+000
-0.10003542E+000 -0.82745198E+000
-0.10012543E+000 -0.82734694E+000
-0.10005079E+000 -0.82744376E+000
-0.72724196E+000  0.75947607E-004
-0.22472427E+000 -0.64937931E+000
-0.72714245E+000 -0.39671628E-008
-0.22450939E+000 -0.64948706E+000
-0.39357269E-002 -0.99377386E+000
-0.39241156E-002 -0.99378112E+000
-0.19372398E-001 -0.94698232E+000
-0.19332711E-001 -0.94700396E+000
-0.37224372E+000 -0.43469117E+000
-0.37196838E+000 -0.43481306E+000
-0.63091638E+000 -0.96213051E-001
-0.30825403E+000  0.98033287E-009
-0.30827798E+000 -0.67297894E-004
-0.63075352E+000 -0.96308787E-001
-0.30580857E+000 -0.11896754E+000
-0.30581851E+000 -0.11882673E+000
-0.79560782E-001 -0.88667608E+000
-0.79485858E-001 -0.88675063E+000
-0.29850996E+000 -0.23599696E+000
-0.29855441E+000 -0.23579609E+000
-0.28650366E+000 -0.34930928E+000
-0.28658115E+000 -0.34907183E+000
 0.39240668E-002 -0.99378111E+000
 0.39240668E-002 -0.99378111E+000
-0.26998450E+000 -0.45711677E+000
-0.27008968E+000 -0.45686797E+000
-0.51756324E+000 -0.20942085E+000
-0.51778941E+000 -0.20931533E+000
-0.11916723E+000 -0.75502192E+000
-0.11902680E+000 -0.75508784E+000
-0.57743969E-001 -0.93201627E+000
-0.57686171E-001 -0.93206520E+000
-0.24941847E+000 -0.55756233E+000
-0.81274665E+000  0.17686526E+000
-0.26639151E-001 -0.90096028E+000
-0.81275767E+000  0.17687931E+000
-0.24921638E+000 -0.55771911E+000
-0.26696015E-001 -0.90093294E+000
-0.24934075E+000 -0.55748053E+000
-0.24918338E+000 -0.55765998E+000
-0.78168125E+000  0.14581678E+000
-0.78164408E+000  0.14577542E+000
-0.22452839E+000 -0.64952974E+000
-0.22466182E+000 -0.64931696E+000
-0.72147039E+000  0.85626550E-001
-0.72139611E+000  0.85560780E-001
-0.39470818E+000 -0.33223811E+000
-0.39496826E+000 -0.33213707E+000
 0.11721103E-001 -0.97810830E+000
 0.11710170E-001 -0.97810319E+000
-0.34978897E-001 -0.96267920E+000
-0.35019436E-001 -0.96265022E+000
-0.63578015E+000 -0.42277930E-008
-0.63590506E+000  0.83865131E-004
-0.19631008E+000 -0.73110048E+000
-0.19644233E+000 -0.73092274E+000
-0.13612905E+000 -0.67082422E+000
-0.13629329E+000 -0.67076147E+000
-0.33600919E-001 -0.84067504E+000
-0.33525668E-001 -0.84070522E+000
-0.16500573E+000 -0.80114429E+000
-0.16512779E+000 -0.80100505E+000
-0.11721141E-001 -0.97810830E+000
-0.53017364E+000 -0.10553882E+000
-0.53035673E+000 -0.10544740E+000
-0.11745746E-001 -0.97809374E+000
-0.27017725E+000 -0.45696071E+000
-0.26993547E+000 -0.45704313E+000
 0.19311162E-001 -0.94699577E+000
 0.19332683E-001 -0.94700395E+000
-0.42475935E+000 -0.80788100E-004
-0.13110767E+000 -0.85855548E+000
-0.42474019E+000  0.84016319E-009
-0.13121265E+000 -0.85845359E+000
-0.76596002E+000  0.23147422E+000
-0.42136983E+000 -0.11319183E+000
-0.42138663E+000 -0.11303912E+000
-0.75030761E+000  0.21582704E+000
-0.75028115E+000  0.21579635E+000
-0.41145382E+000 -0.22434994E+000
-0.41132611E+000 -0.22452531E+000
-0.41122499E+000 -0.22443534E+000
-0.41138119E+000 -0.22431022E+000
-0.70430871E+000  0.16983617E+000
 0.11721103E-001 -0.97810830E+000
-0.70425083E+000  0.16977814E+000
-0.39479243E+000 -0.33232521E+000
 0.11710170E-001 -0.97810319E+000
-0.39488574E+000 -0.33206753E+000
-0.39977229E-001 -0.76716191E+000
-0.39884114E-001 -0.76719082E+000
-0.15126966E+000 -0.57592990E+000
-0.15108875E+000 -0.57598373E+000
-0.37203574E+000 -0.43489010E+000
-0.37216324E+000 -0.43461399E+000
-0.63075352E+000  0.96308779E-001
 0.26607320E-001 -0.90095146E+000
 0.26639133E-001 -0.90096028E+000
-0.95148764E-001 -0.90242726E+000
-0.63085094E+000  0.96386769E-001
-0.95232498E-001 -0.90235843E+000
-0.34342001E+000 -0.53060131E+000
-0.34357351E+000 -0.53032980E+000
-0.28666985E+000 -0.34915897E+000
-0.28643708E+000 -0.34922613E+000
-0.53454494E+000  0.86011385E-004
-0.53440087E+000 -0.44517048E-008
-0.30939988E+000 -0.61794865E+000
 0.34978859E-001 -0.96267918E+000
 0.34978859E-001 -0.96267918E+000
-0.30956819E+000 -0.61770023E+000
-0.57755314E-001 -0.93202445E+000
-0.57694200E-001 -0.93206630E+000
-0.45614626E-001 -0.68157823E+000
-0.27051347E+000 -0.69555394E+000
-0.45722746E-001 -0.68155508E+000
-0.27068417E+000 -0.69534111E+000
-0.42143709E+000 -0.11302651E+000
-0.42124840E+000 -0.11310537E+000
 0.33525660E-001 -0.84070521E+000
 0.33484257E-001 -0.84069882E+000
-0.16367031E+000 -0.47206415E+000
-0.16385756E+000 -0.47202243E+000
-0.70709585E+000  0.28244177E+000
-0.70708086E+000  0.28242469E+000
-0.19332711E-001 -0.94700396E+000
-0.19372398E-001 -0.94698232E+000
-0.22737422E+000 -0.76219252E+000
-0.67598500E+000  0.25132810E+000
-0.67603098E+000  0.25137704E+000
-0.22753537E+000 -0.76202167E+000
 0.57686132E-001 -0.93206517E+000
 0.57694172E-001 -0.93206628E+000
-0.61575672E+000  0.19110547E+000
-0.61583624E+000  0.19117906E+000
-0.29842423E+000 -0.23591205E+000
-0.29863273E+000 -0.23585426E+000
-0.18066149E+000 -0.81681244E+000
-0.18080315E+000 -0.81668461E+000
-0.53453545E+000  0.65685992E-009
-0.53454494E+000 -0.86015182E-004
-0.53028911E+000 -0.10562450E+000
-0.53028912E+000  0.10562450E+000
-0.53017364E+000  0.10553881E+000
-0.53031677E+000 -0.10547112E+000
 0.39884115E-001 -0.76719081E+000
-0.51765968E+000 -0.20950610E+000
 0.39834724E-001 -0.76719032E+000
-0.51772866E+000 -0.20929121E+000
-0.50744849E-001 -0.58520563E+000
 0.19332683E-001 -0.94700395E+000
-0.50627134E-001 -0.58521940E+000
 0.19311162E-001 -0.94699577E+000
-0.49686090E+000 -0.31009264E+000
-0.49697260E+000 -0.30983172E+000
 0.79498996E-001 -0.88674896E+000
 0.79485818E-001 -0.88675060E+000
-0.46822697E+000 -0.40579648E+000
-0.17367478E+000 -0.36070658E+000
-0.17385599E+000 -0.36067591E+000
-0.46837864E+000 -0.40551082E+000
-0.42475936E+000  0.80784302E-004
-0.13111011E+000 -0.85855110E+000
-0.42460906E+000 -0.46353689E-008
-0.13122543E+000 -0.85846317E+000
-0.43221548E+000 -0.49510665E+000
-0.43239962E+000 -0.49481887E+000
 0.57686132E-001 -0.93206517E+000
 0.57694172E-001 -0.93206628E+000
-0.65273280E+000  0.34460921E+000
-0.38939925E+000 -0.57661331E+000
-0.38960420E+000 -0.57634354E+000
-0.30587404E+000 -0.11883086E+000
-0.30570068E+000 -0.11888922E+000
-0.79499014E-001 -0.88674898E+000
-0.63705439E+000  0.32892615E+000
-0.63708813E+000  0.32896233E+000
-0.79584822E-001 -0.88669506E+000
 0.45614635E-001 -0.68157822E+000
 0.45560141E-001 -0.68158691E+000
-0.59110206E+000  0.28296607E+000
-0.59103569E+000  0.28289949E+000
 0.10003538E+000 -0.82745193E+000
-0.54962304E-001 -0.47963276E+000
-0.54842704E-001 -0.47963588E+000
 0.10005078E+000 -0.82744375E+000
-0.34045675E+000 -0.64902993E+000
-0.34066830E+000 -0.64879346E+000
-0.51765968E+000  0.20950609E+000
-0.51756324E+000  0.20942084E+000
-0.26639151E-001 -0.90096028E+000
-0.18094265E+000 -0.24366933E+000
-0.18110506E+000 -0.24364348E+000
 0.95148735E-001 -0.90242723E+000
 0.95148735E-001 -0.90242723E+000
-0.26696015E-001 -0.90093294E+000
-0.28616131E+000 -0.71121344E+000
-0.28636468E+000 -0.71101966E+000
-0.42136984E+000  0.11319183E+000
-0.42124840E+000  0.11310536E+000
 0.50627150E-001 -0.58521940E+000
 0.50571895E-001 -0.58523937E+000
-0.22736901E+000 -0.76218204E+000
 0.11901222E+000 -0.75510606E+000
 0.11902680E+000 -0.75508783E+000
-0.22755090E+000 -0.76203456E+000
-0.63590505E+000 -0.83868927E-004
-0.63590635E+000  0.43334309E-009
-0.30827799E+000  0.67294097E-004
 0.26639133E-001 -0.90096028E+000
-0.63088904E+000 -0.96242704E-001
-0.63085093E+000 -0.96386773E-001
-0.30814114E+000 -0.47758944E-008
 0.26607320E-001 -0.90095146E+000
-0.61583624E+000 -0.19117906E+000
-0.61591709E+000 -0.19097757E+000
-0.58194711E-001 -0.36649475E+000
-0.58306899E-001 -0.36649995E+000
 0.13111009E+000 -0.85855108E+000
 0.13110764E+000 -0.85855544E+000
-0.59122868E+000 -0.28271838E+000
-0.59110206E+000 -0.28296608E+000
-0.58808198E+000  0.40134760E+000
-0.58810029E+000  0.40136697E+000
-0.16500534E+000 -0.80113067E+000
-0.16515567E+000 -0.80102812E+000
-0.55721537E+000 -0.37002274E+000
-0.55704416E+000  0.37029916E+000
-0.55699124E+000  0.37024432E+000
-0.55704416E+000 -0.37029916E+000
-0.18548849E+000 -0.12276781E+000
-0.18535562E+000 -0.12279921E+000
-0.49686091E+000  0.31009264E+000
-0.49677921E+000  0.31001215E+000
-0.51441546E+000 -0.45151468E+000
-0.51420593E+000 -0.45179934E+000
 0.79498996E-001 -0.88674896E+000
 0.79485818E-001 -0.88675060E+000
 0.13611856E+000 -0.67085521E+000
 0.13612906E+000 -0.67082421E+000
-0.41132612E+000  0.22452531E+000
-0.10005079E+000 -0.82744376E+000
 0.54842725E-001 -0.47963588E+000
-0.46350540E+000 -0.52590684E+000
-0.10016392E+000 -0.82738111E+000
 0.54792402E-001 -0.47966699E+000
-0.46326888E+000 -0.52617967E+000
-0.41122499E+000  0.22443533E+000
 0.16500570E+000 -0.80114425E+000
 0.16500533E+000 -0.80113064E+000
-0.40504107E+000 -0.59226572E+000
-0.60629823E-001 -0.24758200E+000
-0.40528936E+000 -0.59202157E+000
-0.60724803E-001 -0.24758895E+000
-0.30580858E+000  0.11896753E+000
-0.30570068E+000  0.11888921E+000
 0.13111009E+000 -0.85855108E+000
 0.13110764E+000 -0.85855544E+000
-0.33600919E-001 -0.84067504E+000
-0.33525668E-001 -0.84070522E+000
-0.34068673E+000 -0.64881038E+000
-0.34044381E+000 -0.64901401E+000
-0.18693538E+000  0.45593826E-004
 0.15108594E+000 -0.57602871E+000
-0.18683654E+000 -0.48710642E-008
 0.15108877E+000 -0.57598372E+000
-0.52984638E+000  0.46744754E+000
-0.51416935E+000  0.45176092E+000
 0.19630225E+000 -0.73107361E+000
 0.19631005E+000 -0.73110043E+000
-0.51420593E+000  0.45179933E+000
 0.58194737E-001 -0.36649475E+000
 0.58156009E-001 -0.36653365E+000
-0.46822697E+000  0.40579647E+000
-0.27071775E+000 -0.69537133E+000
-0.27049688E+000 -0.69552832E+000
-0.46816042E+000  0.40572677E+000
 0.33525660E-001 -0.84070521E+000
 0.33484257E-001 -0.84069882E+000
-0.72724196E+000 -0.75951402E-004
-0.72725224E+000  0.17313151E-009
-0.72147039E+000 -0.85626554E-001
 0.18066147E+000 -0.81681241E+000
-0.72151532E+000 -0.85499437E-001
 0.18066147E+000 -0.81681241E+000
-0.70430870E+000 -0.16983617E+000
-0.39470818E+000  0.33223810E+000
-0.39479244E+000  0.33232521E+000
-0.70439560E+000 -0.16965829E+000
-0.62108728E-001 -0.12477298E+000
-0.62177569E-001 -0.12477206E+000
-0.67603098E+000 -0.25137705E+000
-0.67616446E+000 -0.25115585E+000
-0.19630225E+000 -0.73107363E+000
-0.19648731E+000 -0.73096400E+000
-0.63708812E+000 -0.32896233E+000
-0.63726886E+000 -0.32871127E+000
-0.29850997E+000  0.23599695E+000
-0.29842423E+000  0.23591204E+000
 0.10005078E+000 -0.82744375E+000
 0.10003538E+000 -0.82745193E+000
 0.22450940E+000 -0.64948704E+000
-0.58810029E+000 -0.40136698E+000
 0.22452835E+000 -0.64952968E+000
-0.58832385E+000 -0.40110335E+000
 0.16367908E+000 -0.47212200E+000
 0.16367033E+000 -0.47206414E+000
 0.22737420E+000 -0.76219248E+000
-0.11902680E+000 -0.75508784E+000
-0.11916723E+000 -0.75502192E+000
 0.22736900E+000 -0.76218201E+000
-0.52984638E+000 -0.46744755E+000
-0.18542482E+000  0.12285918E+000
-0.18535563E+000  0.12279920E+000
-0.53010275E+000 -0.46718980E+000
 0.60629852E-001 -0.24758200E+000
 0.60609759E-001 -0.24762177E+000
-0.46326888E+000  0.52617966E+000
-0.46325095E+000  0.52616048E+000
-0.46325094E+000 -0.52616049E+000
-0.46352505E+000 -0.52592555E+000
 0.16500533E+000 -0.80113064E+000
-0.43216631E+000  0.49505296E+000
-0.43221549E+000  0.49510665E+000
 0.16500570E+000 -0.80114425E+000
-0.39977229E-001 -0.76716191E+000
-0.39884114E-001 -0.76719082E+000
-0.62642316E-001  0.16470199E-004
-0.62605768E-001 -0.49193706E-008
-0.37203575E+000  0.43489009E+000
-0.37196838E+000  0.43481305E+000
 0.24921634E+000 -0.55771905E+000
 0.24918339E+000 -0.55765996E+000
-0.38936882E+000 -0.57657853E+000
-0.38964210E+000 -0.57637963E+000
 0.27051345E+000 -0.69555389E+000
 0.17367480E+000 -0.36070658E+000
 0.17369932E+000 -0.36077316E+000
 0.27049687E+000 -0.69552829E+000
-0.28643708E+000  0.34922612E+000
-0.28650367E+000  0.34930928E+000
-0.30936774E+000 -0.61790518E+000
-0.30962063E+000 -0.61775047E+000
 0.39884115E-001 -0.76719081E+000
 0.39834724E-001 -0.76719032E+000
 0.62108759E-001 -0.12477298E+000
 0.22736900E+000 -0.76218201E+000
 0.62114069E-001 -0.12480439E+000
 0.22737420E+000 -0.76219248E+000
-0.18098735E+000  0.24373734E+000
-0.18094265E+000  0.24366932E+000
-0.80713075E+000 -0.11970049E-009
-0.80711491E+000 -0.64227434E-004
-0.80071794E+000 -0.73515838E-001
-0.80076452E+000 -0.73410306E-001
-0.78168125E+000 -0.14581679E+000
-0.78176662E+000 -0.14566873E+000
-0.75030761E+000 -0.21582705E+000
-0.75043770E+000 -0.21564088E+000
-0.22450939E+000 -0.64948706E+000
-0.22472427E+000 -0.64937931E+000
-0.70709585E+000 -0.28244178E+000
 0.26998446E+000 -0.45711669E+000
-0.70727320E+000 -0.28222717E+000
 0.26993549E+000 -0.45704312E+000
 0.30939985E+000 -0.61794860E+000
 0.30936775E+000 -0.61790515E+000
 0.11901222E+000 -0.75510606E+000
-0.62108728E-001  0.12477297E+000
-0.62114129E-001  0.12480447E+000
 0.11902680E+000 -0.75508783E+000
-0.40504107E+000  0.59226571E+000
 0.18098730E+000 -0.24373726E+000
-0.38939925E+000  0.57661330E+000
 0.18094268E+000 -0.24366933E+000
-0.65295526E+000 -0.34437985E+000
-0.65273280E+000 -0.34460922E+000
-0.38936882E+000  0.57657852E+000
 0.28616130E+000 -0.71121340E+000
 0.28616130E+000 -0.71121340E+000
-0.34337034E+000  0.53053974E+000
-0.34342002E+000  0.53060131E+000
-0.13612905E+000 -0.67082422E+000
-0.13629329E+000 -0.67076147E+000
-0.58808198E+000 -0.40134761E+000
-0.58834175E+000 -0.40111928E+000
-0.26998451E+000  0.45711676E+000
-0.26993547E+000  0.45704312E+000
 0.62642256E-001 -0.16387541E-004
 0.62605800E-001 -0.49196892E-008
 0.19631005E+000 -0.73110043E+000
-0.51445283E+000 -0.45154936E+000
 0.19630225E+000 -0.73107361E+000
-0.51416934E+000 -0.45176092E+000
-0.45614626E-001 -0.68157823E+000
-0.17369938E+000  0.36077324E+000
-0.17367478E+000  0.36070657E+000
-0.45722746E-001 -0.68155508E+000
 0.34341998E+000 -0.53060125E+000
 0.34337035E+000 -0.53053972E+000
 0.28643710E+000 -0.34922612E+000
 0.28650362E+000 -0.34930920E+000
 0.34045673E+000 -0.64902989E+000
 0.34044381E+000 -0.64901398E+000
-0.43245498E+000 -0.49487162E+000
-0.43216631E+000 -0.49505297E+000
 0.18542476E+000 -0.12285910E+000
 0.18535565E+000 -0.12279921E+000
-0.60629823E-001  0.24758199E+000
-0.60609818E-001  0.24762185E+000
 0.45614635E-001 -0.68157822E+000
 0.27051345E+000 -0.69555389E+000
 0.27049687E+000 -0.69552829E+000
 0.45560141E-001 -0.68158691E+000
-0.34337034E+000 -0.53053975E+000
-0.34364276E+000 -0.53039803E+000
-0.34045675E+000  0.64902993E+000
-0.34044382E+000  0.64901401E+000
-0.87428036E+000 -0.44055465E-009
-0.87426283E+000 -0.50644780E-004
-0.30939988E+000  0.61794865E+000
-0.30936775E+000  0.61790517E+000
-0.86738498E+000 -0.60165222E-001
-0.86734196E+000 -0.60247595E-001
 0.62177508E-001  0.12477214E+000
-0.84673130E+000 -0.11950194E+000
 0.62108759E-001  0.12477297E+000
-0.84680789E+000 -0.11938573E+000
 0.37203570E+000 -0.43489003E+000
 0.37196839E+000 -0.43481304E+000
 0.38939923E+000 -0.57661326E+000
-0.24918338E+000  0.55765997E+000
-0.24941847E+000 -0.55756233E+000
 0.38936882E+000 -0.57657850E+000
-0.81275767E+000 -0.17687931E+000
-0.24918338E+000 -0.55765998E+000
-0.24921638E+000  0.55771911E+000
-0.81287452E+000 -0.17673140E+000
 0.29842426E+000 -0.23591204E+000
 0.29850991E+000 -0.23599688E+000
-0.76596001E+000 -0.23147422E+000
 0.13612906E+000 -0.67082421E+000
-0.76612121E+000 -0.23130104E+000
 0.13611856E+000 -0.67085521E+000
-0.16367914E+000  0.47212207E+000
-0.16367031E+000  0.47206414E+000
 0.34044381E+000 -0.64901398E+000
 0.34045673E+000 -0.64902989E+000
-0.70708086E+000 -0.28242469E+000
-0.70728657E+000 -0.28223639E+000
 0.18693532E+000 -0.45512538E-004
-0.15108875E+000 -0.57598373E+000
 0.18683657E+000 -0.48720117E-008
-0.15126966E+000 -0.57592990E+000
-0.63705438E+000 -0.32892616E+000
-0.63729959E+000 -0.32873543E+000
-0.58156067E-001  0.36653373E+000
-0.58194711E-001  0.36649474E+000
 0.22450940E+000 -0.64948704E+000
 0.22452835E+000 -0.64952968E+000
 0.43221545E+000 -0.49510659E+000
 0.43216632E+000 -0.49505294E+000
 0.39479239E+000 -0.33232514E+000
-0.55699124E+000 -0.37024433E+000
 0.39470820E+000 -0.33223810E+000
-0.55726498E+000 -0.37006480E+000
-0.50744849E-001 -0.58520563E+000
-0.50627134E-001 -0.58521940E+000
 0.40504106E+000 -0.59226568E+000
 0.60724742E-001  0.24758903E+000
 0.40504106E+000 -0.59226568E+000
 0.60629853E-001  0.24758199E+000
 0.30580852E+000 -0.11896746E+000
 0.30570071E+000 -0.11888922E+000
-0.28616131E+000  0.71121343E+000
-0.27051347E+000  0.69555394E+000
-0.46844578E+000 -0.40557113E+000
-0.46816042E+000 -0.40572678E+000
-0.27049688E+000  0.69552831E+000
-0.22452839E+000  0.64952973E+000
-0.22450939E+000  0.64948705E+000
 0.30936775E+000 -0.61790515E+000
 0.30939985E+000 -0.61794860E+000
 0.50627150E-001 -0.58521940E+000
 0.50571894E-001 -0.58523937E+000
-0.15108875E+000  0.57598372E+000
-0.15108599E+000  0.57602877E+000
 0.18535566E+000  0.12279920E+000
-0.37196838E+000 -0.43481306E+000
 0.18548843E+000  0.12276789E+000
-0.37224372E+000 -0.43469117E+000
 0.46822694E+000 -0.40579641E+000
 0.46816043E+000 -0.40572676E+000
-0.92764032E+000 -0.78436921E-009
-0.92762445E+000 -0.36789541E-004
 0.46325094E+000 -0.52616045E+000
-0.92028871E+000 -0.46032404E-001
 0.46326886E+000 -0.52617962E+000
-0.54792459E-001  0.47966706E+000
 0.41132607E+000 -0.22452523E+000
-0.54842704E-001  0.47963587E+000
-0.92032423E+000 -0.45972176E-001
 0.41122501E+000 -0.22443533E+000
-0.89842910E+000 -0.91308018E-001
-0.89849167E+000 -0.91221982E-001
-0.26993547E+000 -0.45704313E+000
-0.27017725E+000 -0.45696071E+000
-0.86239150E+000 -0.13514961E+000
-0.86248788E+000 -0.13503834E+000
 0.15108594E+000 -0.57602871E+000
 0.15108877E+000 -0.57598372E+000
 0.38936882E+000 -0.57657850E+000
-0.81274664E+000 -0.17686527E+000
 0.30827793E+000 -0.67215523E-004
 0.30814116E+000 -0.47774527E-008
-0.81288193E+000 -0.17673262E+000
 0.38939923E+000 -0.57661326E+000
 0.58194737E-001  0.36649474E+000
 0.58306837E-001  0.36650003E+000
-0.75028115E+000 -0.21579636E+000
-0.75045746E+000 -0.21564929E+000
-0.16367031E+000 -0.47206415E+000
-0.16385756E+000 -0.47202243E+000
-0.22736901E+000  0.76218203E+000
-0.67598500E+000 -0.25132811E+000
-0.67620012E+000 -0.25117616E+000
-0.22737422E+000  0.76219251E+000
 0.49686087E+000 -0.31009257E+000
 0.49677923E+000 -0.31001215E+000
-0.19631008E+000  0.73110048E+000
 0.51416934E+000 -0.45176089E+000
 0.51420591E+000 -0.45179929E+000
-0.19630225E+000  0.73107362E+000
 0.18110500E+000  0.24364356E+000
 0.24921634E+000 -0.55771905E+000
 0.24918339E+000 -0.55765996E+000
 0.18094268E+000  0.24366932E+000
-0.13611861E+000  0.67085527E+000
 0.42136978E+000 -0.11319176E+000
-0.13612905E+000  0.67082421E+000
 0.42124843E+000 -0.11310536E+000
-0.59103568E+000 -0.28289950E+000
-0.59128182E+000 -0.28275377E+000
-0.54842704E-001 -0.47963588E+000
 0.46325094E+000 -0.52616045E+000
-0.54962304E-001 -0.47963276E+000
 0.46326886E+000 -0.52617962E+000
-0.50627134E-001  0.58521940E+000
-0.50571950E-001  0.58523944E+000
-0.49677921E+000 -0.31001216E+000
-0.49704234E+000 -0.30988390E+000
 0.30570071E+000  0.11888921E+000
 0.30587398E+000  0.11883094E+000
 0.34337035E+000 -0.53053972E+000
 0.34341998E+000 -0.53060125E+000
 0.54842725E-001  0.47963587E+000
 0.54962242E-001  0.47963283E+000
 0.54842725E-001 -0.47963588E+000
 0.54792402E-001 -0.47966699E+000
 0.55704413E+000 -0.37029911E+000
-0.39470818E+000 -0.33223811E+000
 0.55699124E+000 -0.37024430E+000
-0.39496826E+000 -0.33213707E+000
 0.51765963E+000 -0.20950602E+000
 0.51756326E+000 -0.20942084E+000
 0.52984636E+000 -0.46744751E+000
 0.52984636E+000 -0.46744751E+000
-0.96635546E+000 -0.23641871E-004
-0.96636730E+000 -0.11457158E-008
-0.95871954E+000 -0.31094889E-001
 0.17367480E+000  0.36070657E+000
 0.17385592E+000  0.36067598E+000
-0.95874555E+000 -0.31054091E-001
 0.42475930E+000 -0.80709742E-004
 0.42460908E+000 -0.46374985E-008
-0.93595462E+000 -0.61679853E-001
-0.93600090E+000 -0.61619772E-001
-0.28666985E+000 -0.34915897E+000
-0.28643708E+000 -0.34922613E+000
-0.18066149E+000  0.81681243E+000
 0.16367033E+000 -0.47206414E+000
 0.16367908E+000 -0.47212200E+000
-0.89842043E+000 -0.91296145E-001
-0.89849316E+000 -0.91216413E-001
 0.43221545E+000 -0.49510659E+000
-0.16500574E+000  0.80114429E+000
-0.16500534E+000  0.80113066E+000
 0.43216632E+000 -0.49505294E+000
-0.11901226E+000  0.75510611E+000
-0.11902680E+000  0.75508783E+000
-0.84671073E+000 -0.11947632E+000
-0.84681536E+000 -0.11937878E+000
 0.29863267E+000  0.23585434E+000
-0.78164408E+000 -0.14577543E+000
 0.29842426E+000  0.23591204E+000
-0.78178411E+000 -0.14566435E+000
-0.45560196E-001  0.68158697E+000
-0.17367478E+000 -0.36070658E+000
-0.45614626E-001  0.68157822E+000
-0.17385599E+000 -0.36067591E+000
 0.59103569E+000 -0.28289948E+000
 0.59110203E+000 -0.28296602E+000
 0.58810027E+000 -0.40136693E+000
 0.58808197E+000 -0.40134757E+000
 0.53028907E+000 -0.10562443E+000
-0.70425082E+000 -0.16977814E+000
-0.70442636E+000 -0.16966013E+000
 0.53017366E+000 -0.10553882E+000
 0.26993549E+000 -0.45704312E+000
 0.26998446E+000 -0.45711669E+000
 0.50627150E-001  0.58521939E+000
 0.50744786E-001  0.58520569E+000
 0.51416934E+000 -0.45176089E+000
 0.51420591E+000 -0.45179929E+000
-0.58194711E-001 -0.36649475E+000
-0.61596297E+000 -0.19098900E+000
-0.61575672E+000 -0.19110548E+000
-0.58306899E-001 -0.36649995E+000
 0.42143702E+000  0.11302658E+000
 0.42124843E+000  0.11310535E+000
 0.16385750E+000  0.47202250E+000
 0.16367033E+000  0.47206413E+000
-0.51778941E+000 -0.20931533E+000
-0.51756324E+000 -0.20942085E+000
 0.37196839E+000 -0.43481304E+000
 0.37203570E+000 -0.43489003E+000
 0.63708810E+000 -0.32896228E+000
 0.63705438E+000 -0.32892613E+000
 0.61575673E+000 -0.19110547E+000
 0.61583620E+000 -0.19117900E+000
 0.58194737E-001 -0.36649475E+000
 0.58156009E-001 -0.36653365E+000
-0.13110767E+000  0.85855547E+000
-0.13111011E+000  0.85855109E+000
 0.28643710E+000  0.34922611E+000
 0.28666978E+000  0.34915904E+000
-0.41122499E+000 -0.22443534E+000
-0.10005079E+000  0.82744376E+000
-0.41145382E+000 -0.22434994E+000
-0.10003542E+000  0.82745197E+000
 0.58808197E+000 -0.40134757E+000
 0.58810027E+000 -0.40136693E+000
 0.53454488E+000 -0.85942072E-004
 0.53440089E+000 -0.44543530E-008
-0.39834778E-001  0.76719037E+000
-0.39884114E-001  0.76719081E+000
-0.98984241E+000 -0.11486145E-004
-0.98984881E+000 -0.15189159E-008
-0.98202489E+000 -0.15670112E-001
-0.98204125E+000 -0.15645417E-001
-0.29842423E+000 -0.23591205E+000
-0.29863273E+000 -0.23585426E+000
-0.95874222E+000 -0.31044275E-001
 0.45722683E-001  0.68155514E+000
 0.45614635E-001  0.68157821E+000
-0.95871154E+000 -0.31083695E-001
 0.17367480E+000 -0.36070658E+000
 0.46816043E+000 -0.40572676E+000
 0.17369932E+000 -0.36077316E+000
 0.46822694E+000 -0.40579641E+000
-0.92032059E+000 -0.45954120E-001
-0.92027048E+000 -0.46009117E-001
 0.41145375E+000  0.22435001E+000
 0.41122501E+000  0.22443532E+000
-0.86738427E+000 -0.60140572E-001
-0.86730947E+000 -0.60210790E-001
 0.67603095E+000 -0.25137699E+000
 0.67598500E+000 -0.25132809E+000
 0.15108877E+000  0.57598371E+000
 0.15126959E+000  0.57592997E+000
 0.63085089E+000 -0.96386707E-001
-0.18094265E+000 -0.24366933E+000
-0.18110506E+000 -0.24364348E+000
 0.63075353E+000 -0.96308780E-001
 0.65273279E+000 -0.34460918E+000
 0.65273279E+000 -0.34460918E+000
-0.80077019E+000 -0.73381060E-001
-0.80066641E+000 -0.73464454E-001
 0.28643710E+000 -0.34922612E+000
 0.28650362E+000 -0.34930920E+000
-0.72153065E+000 -0.85468240E-001
-0.72139611E+000 -0.85560788E-001
 0.55699124E+000 -0.37024430E+000
 0.53035667E+000  0.10544747E+000
 0.53017366E+000  0.10553881E+000
 0.55704413E+000 -0.37029911E+000
 0.26993549E+000  0.45704311E+000
 0.27017718E+000  0.45696078E+000
-0.60629823E-001 -0.24758200E+000
-0.60724803E-001 -0.24758895E+000
-0.63091638E+000 -0.96213051E-001
-0.63075352E+000 -0.96308787E-001
-0.95148765E-001  0.90242725E+000
-0.79485860E-001  0.88675063E+000
-0.79499015E-001  0.88674897E+000
-0.33525669E-001  0.84070521E+000
-0.33484310E-001  0.84069886E+000
-0.53035673E+000 -0.10544740E+000
 0.39496818E+000  0.33213714E+000
 0.70430866E+000 -0.16983611E+000
-0.53017364E+000 -0.10553882E+000
 0.39470820E+000 -0.33223810E+000
 0.39479239E+000 -0.33232514E+000
 0.70425083E+000 -0.16977813E+000
 0.39470820E+000  0.33223809E+000
 0.70709583E+000 -0.28244174E+000
 0.70708085E+000 -0.28242466E+000
 0.39884115E-001  0.76719081E+000
 0.39977167E-001  0.76716196E+000
 0.60629852E-001 -0.24758200E+000
 0.60609759E-001 -0.24762177E+000
 0.63590500E+000 -0.83802217E-004
 0.63578016E+000 -0.42308864E-008
 0.63705438E+000 -0.32892613E+000
 0.63708810E+000 -0.32896228E+000
-0.42143709E+000 -0.11302651E+000
-0.42124840E+000 -0.11310537E+000
 0.13612906E+000  0.67082420E+000
 0.13629322E+000  0.67076153E+000
 0.51778934E+000  0.20931540E+000
 0.51756326E+000  0.20942083E+000
 0.49677923E+000 -0.31001215E+000
 0.49686087E+000 -0.31009257E+000
 0.18094268E+000 -0.24366933E+000
-0.99771300E+000 -0.18981200E-008
-0.99771300E+000 -0.18981200E-008
 0.18098730E+000 -0.24373726E+000
 0.24918339E+000  0.55765996E+000
 0.24941839E+000  0.55756240E+000
-0.30587404E+000 -0.11883086E+000
-0.30570068E+000 -0.11888922E+000
-0.98983470E+000 -0.22773525E-008
-0.98984241E+000  0.11482348E-004
-0.96635546E+000  0.23638074E-004
-0.96633767E+000 -0.26506297E-008
 0.75030758E+000 -0.21582700E+000
-0.92759285E+000 -0.30120541E-008
-0.92762445E+000  0.36785744E-004
 0.75028114E+000 -0.21579633E+000
 0.72147034E+000 -0.85626495E-001
 0.72139611E+000 -0.85560780E-001
-0.87421267E+000 -0.33559166E-008
-0.87426283E+000  0.50640983E-004
 0.70708085E+000 -0.28242466E+000
 0.70709583E+000 -0.28244174E+000
-0.57686173E-001  0.93206519E+000
-0.57694201E-001  0.93206629E+000
-0.18548849E+000 -0.12276781E+000
-0.18535562E+000 -0.12279921E+000
 0.37224365E+000  0.43469124E+000
 0.37196839E+000  0.43481303E+000
-0.26639151E-001  0.90096028E+000
-0.26607371E-001  0.90095149E+000
 0.63091632E+000  0.96213114E-001
-0.80711491E+000  0.64223637E-004
-0.80704154E+000 -0.36767781E-008
 0.63075353E+000  0.96308772E-001
 0.29842426E+000 -0.23591204E+000
 0.29850991E+000 -0.23599688E+000
 0.33525661E-001  0.84070521E+000
 0.59103569E+000 -0.28289948E+000
 0.33600857E-001  0.84067508E+000
 0.59110203E+000 -0.28296602E+000
-0.72724196E+000  0.75947605E-004
-0.72714245E+000 -0.39695765E-008
-0.62177569E-001 -0.12477206E+000
 0.11916716E+000  0.75502197E+000
-0.62108728E-001 -0.12477298E+000
 0.11902680E+000  0.75508782E+000
 0.49704226E+000  0.30988396E+000
 0.49677923E+000  0.31001214E+000
-0.63590506E+000  0.83865129E-004
-0.63578015E+000 -0.42296916E-008
 0.78168121E+000 -0.14581674E+000
 0.78164407E+000 -0.14577541E+000
 0.76596000E+000 -0.23147419E+000
 0.76596000E+000 -0.23147419E+000
 0.41132607E+000 -0.22452523E+000
 0.41122501E+000 -0.22443533E+000
 0.22450940E+000  0.64948704E+000
 0.22472419E+000  0.64937937E+000
 0.72724191E+000 -0.75892142E-004
 0.72714245E+000 -0.39706194E-008
-0.53454494E+000  0.86011384E-004
-0.53440087E+000 -0.44530194E-008
 0.62114069E-001 -0.12480439E+000
 0.62108759E-001 -0.12477298E+000
 0.67598500E+000 -0.25132809E+000
 0.67603095E+000 -0.25137699E+000
 0.61596289E+000  0.19098906E+000
 0.61575673E+000  0.19110546E+000
-0.42475936E+000  0.80784301E-004
-0.42460906E+000 -0.46360621E-008
 0.34337035E+000  0.53053972E+000
 0.34364268E+000  0.53039809E+000
-0.34978898E-001  0.96267920E+000
 0.51756326E+000 -0.20942084E+000
 0.51765963E+000 -0.20950602E+000
-0.19332711E-001  0.94700395E+000
-0.19311213E-001  0.94699580E+000
 0.18542476E+000 -0.12285910E+000
 0.18535565E+000 -0.12279921E+000
 0.81275764E+000 -0.17687928E+000
 0.26695953E-001  0.90093298E+000
 0.26639134E-001  0.90096027E+000
-0.30827799E+000  0.67294096E-004
-0.30814114E+000 -0.47759296E-008
 0.81274663E+000 -0.17686524E+000
 0.80071790E+000 -0.73515787E-001
 0.80066641E+000 -0.73464446E-001
 0.46844570E+000  0.40557119E+000
 0.46816043E+000  0.40572675E+000
 0.75028114E+000 -0.21579633E+000
 0.75030758E+000 -0.21582700E+000
 0.10016385E+000  0.82738115E+000
 0.10005078E+000  0.82744374E+000
 0.72153058E+000  0.85468295E-001
 0.72139612E+000  0.85560772E-001
-0.18693538E+000  0.45593825E-004
-0.18683654E+000 -0.48704352E-008
 0.19630225E+000  0.73107360E+000
 0.19648723E+000  0.73096405E+000
 0.30580852E+000 -0.11896746E+000
 0.30570071E+000 -0.11888922E+000
 0.61575673E+000 -0.19110547E+000
 0.61583620E+000 -0.19117900E+000
 0.59103569E+000  0.28289947E+000
 0.59128174E+000  0.28275383E+000
 0.30962054E+000  0.61775053E+000
 0.30936775E+000  0.61790514E+000
-0.62642316E-001  0.16470199E-004
-0.62605768E-001 -0.49180772E-008
 0.84673127E+000 -0.11950190E+000
 0.84671072E+000 -0.11947630E+000
 0.80711485E+000 -0.64176556E-004
 0.81274663E+000 -0.17686524E+000
 0.80704153E+000 -0.36776564E-008
 0.81275764E+000 -0.17687928E+000
 0.42136978E+000 -0.11319176E+000
 0.42124843E+000 -0.11310536E+000
 0.43245489E+000  0.49487168E+000
 0.43216632E+000  0.49505293E+000
-0.11721142E-001  0.97810830E+000
 0.70425083E+000 -0.16977813E+000
 0.70442628E+000  0.16966018E+000
-0.11710220E-001  0.97810321E+000
 0.70430866E+000 -0.16983611E+000
 0.70425083E+000  0.16977812E+000
 0.19332684E-001  0.94700394E+000
 0.62605800E-001 -0.49177548E-008
 0.62642256E-001 -0.16387541E-004
 0.19372337E-001  0.94698234E+000
 0.79498997E-001  0.88674895E+000
 0.79584750E-001  0.88669509E+000
 0.16500533E+000  0.80113064E+000
 0.16515559E+000  0.80102816E+000
 0.55699124E+000  0.37024430E+000
 0.53028907E+000 -0.10562443E+000
 0.53017366E+000 -0.10553882E+000
 0.55726489E+000  0.37006485E+000
 0.86734192E+000 -0.60247553E-001
 0.86730946E+000 -0.60210781E-001
 0.86239147E+000 -0.13514958E+000
 0.86239147E+000 -0.13514958E+000
 0.18683657E+000 -0.48694753E-008
 0.18693532E+000 -0.45512539E-004
 0.80077013E+000  0.73381107E-001
 0.80066641E+000  0.73464438E-001
 0.78164407E+000 -0.14577541E+000
 0.78168121E+000 -0.14581674E+000
 0.27049688E+000  0.69552828E+000
 0.27071766E+000  0.69537137E+000
 0.67620004E+000  0.25117622E+000
 0.67598500E+000  0.25132808E+000
 0.63085089E+000 -0.96386707E-001
 0.38964201E+000  0.57637969E+000
 0.63075353E+000 -0.96308780E-001
 0.30814116E+000 -0.47743561E-008
 0.30827793E+000 -0.67215524E-004
 0.38936882E+000  0.57657849E+000
 0.89842906E+000 -0.91307987E-001
-0.39241160E-002  0.99378111E+000
 0.89842040E+000 -0.91296125E-001
 0.11721104E-001  0.97810829E+000
 0.11745685E-001  0.97809375E+000
 0.87426277E+000 -0.50603083E-004
 0.87421266E+000 -0.33566290E-008
 0.84671072E+000 -0.11947630E+000
 0.84673127E+000 -0.11950190E+000
 0.57694173E-001  0.93206628E+000
 0.57755243E-001  0.93202447E+000
 0.51445274E+000  0.45154942E+000
 0.51416934E+000  0.45176088E+000
 0.78178404E+000  0.14566439E+000
 0.78164407E+000  0.14577541E+000
 0.13122535E+000  0.85846321E+000
 0.13111009E+000  0.85855107E+000
 0.42475930E+000 -0.80709743E-004
 0.42460908E+000 -0.46339165E-008
 0.72147034E+000 -0.85626495E-001
 0.72139611E+000 -0.85560780E-001
 0.22736900E+000  0.76218200E+000
 0.22755081E+000  0.76203460E+000
 0.63729951E+000  0.32873548E+000
 0.63705438E+000  0.32892612E+000
 0.92028867E+000 -0.46032372E-001
 0.92027046E+000 -0.46009107E-001
 0.34068664E+000  0.64881043E+000
 0.89842040E+000 -0.91296125E-001
 0.89842906E+000 -0.91307987E-001
 0.34044381E+000  0.64901397E+000
 0.53440089E+000 -0.44503620E-008
 0.53454488E+000 -0.85942074E-004
 0.86738420E+000  0.60140610E-001
 0.86730946E+000  0.60210774E-001
 0.80071790E+000 -0.73515787E-001
 0.80066641E+000 -0.73464446E-001
 0.75045738E+000  0.21564934E+000
 0.75028114E+000  0.21579633E+000
 0.46325094E+000  0.52616044E+000
 0.46352496E+000  0.52592560E+000
 0.39356669E-002  0.99377387E+000
 0.39240672E-002  0.99378111E+000
 0.35019365E-001  0.96265023E+000
 0.34978860E-001  0.96267918E+000
 0.63578016E+000 -0.42265805E-008
 0.63590500E+000 -0.83802220E-004
 0.95232417E-001  0.90235845E+000
 0.95148737E-001  0.90242723E+000
 0.93595459E+000 -0.61679832E-001
 0.93595459E+000 -0.61679832E-001
 0.92762440E+000 -0.36757680E-004
 0.92759282E+000 -0.30126190E-008
 0.58834165E+000  0.40111933E+000
 0.58808197E+000  0.40134756E+000
 0.18080306E+000  0.81668464E+000
 0.18066147E+000  0.81681240E+000
 0.86734192E+000 -0.60247553E-001
 0.86730946E+000 -0.60210781E-001
 0.84681528E+000  0.11937882E+000
 0.84671072E+000  0.11947630E+000
 0.28636458E+000  0.71101970E+000
 0.28616130E+000  0.71121339E+000
 0.72724191E+000 -0.75892145E-004
 0.72714245E+000 -0.39660961E-008
 0.70728648E+000  0.28223644E+000
 0.70708085E+000  0.28242465E+000
 0.40528926E+000  0.59202161E+000
 0.40504106E+000  0.59226567E+000
 0.95871950E+000 -0.31094868E-001
 0.95871151E+000 -0.31083685E-001
 0.92028867E+000 -0.46032372E-001
 0.92032052E+000  0.45954148E-001
 0.92027046E+000 -0.46009107E-001
 0.92027046E+000  0.46009101E-001
-0.39357265E-002  0.99377386E+000
 0.11710172E-001  0.97810319E+000
 0.11734399E-001  0.97808584E+000
 0.57686134E-001  0.93206517E+000
 0.57743887E-001  0.93201628E+000
 0.53010265E+000  0.46718984E+000
 0.52984637E+000  0.46744750E+000
 0.81288184E+000  0.17673266E+000
 0.80711485E+000 -0.64176559E-004
 0.80704153E+000 -0.36730126E-008
 0.81274663E+000  0.17686524E+000
 0.13121256E+000  0.85845361E+000
 0.13110764E+000  0.85855544E+000
 0.22753527E+000  0.76202170E+000
 0.22737420E+000  0.76219247E+000
 0.65273279E+000  0.34460917E+000
 0.65295516E+000  0.34437989E+000
 0.96635541E+000 -0.23620347E-004
 0.96633763E+000 -0.26510459E-008
 0.95871950E+000 -0.31094868E-001
 0.95871151E+000 -0.31083685E-001
 0.89849308E+000  0.91216441E-001
 0.89842040E+000  0.91296119E-001
 0.34066819E+000  0.64879349E+000
 0.34045673E+000  0.64902988E+000
 0.87421266E+000 -0.33519536E-008
 0.87426277E+000 -0.50603086E-004
 0.76612112E+000  0.23130108E+000
 0.76596000E+000  0.23147418E+000
 0.46350530E+000  0.52590688E+000
 0.46326887E+000  0.52617961E+000
-0.11734469E-001  0.97808584E+000
-0.11745744E-001  0.97809373E+000
 0.19349120E-001  0.94696439E+000
 0.19311164E-001  0.94699577E+000
 0.98202484E+000 -0.15670101E-001
 0.79560690E-001  0.88667610E+000
 0.98202484E+000 -0.15670101E-001
 0.79485821E-001  0.88675059E+000
 0.95874216E+000  0.31044294E-001
 0.95871151E+000  0.31083680E-001
 0.92762440E+000 -0.36757684E-004
 0.92759282E+000 -0.30079861E-008
 0.58832374E+000  0.40110338E+000
 0.58810027E+000  0.40136693E+000
 0.16512769E+000  0.80100507E+000
 0.16500571E+000  0.80114424E+000
 0.86248780E+000  0.13503837E+000
 0.86239148E+000  0.13514957E+000
 0.27051345E+000  0.69555389E+000
 0.27068406E+000  0.69534113E+000
 0.70727310E+000  0.28222720E+000
 0.70709583E+000  0.28244173E+000
 0.38960409E+000  0.57634357E+000
 0.38939923E+000  0.57661325E+000
 0.98983465E+000 -0.22775982E-008
 0.98984236E+000 -0.11475296E-004
 0.96633763E+000 -0.26465650E-008
 0.96635541E+000 -0.23620351E-004
 0.93600083E+000  0.61619790E-001
 0.93595459E+000  0.61679827E-001
-0.35019435E-001  0.96265022E+000
-0.19372397E-001  0.94698231E+000
-0.19349201E-001  0.94696438E+000
 0.51441535E+000  0.45151472E+000
 0.51420591E+000  0.45179928E+000
 0.26607322E-001  0.90095146E+000
 0.26659675E-001  0.90090120E+000
 0.81287442E+000  0.17673143E+000
 0.81275765E+000  0.17687927E+000
 0.10012533E+000  0.82734695E+000
 0.10003538E+000  0.82745193E+000
 0.19631005E+000  0.73110042E+000
 0.19644223E+000  0.73092276E+000
 0.98984236E+000 -0.11475300E-004
 0.98983465E+000 -0.22734026E-008
 0.63726875E+000  0.32871130E+000
 0.98202484E+000  0.15670096E-001
 0.98204119E+000  0.15645425E-001
 0.63708810E+000  0.32896228E+000
 0.89849159E+000  0.91222000E-001
 0.89842907E+000  0.91307982E-001
 0.30956807E+000  0.61770026E+000
 0.30939985E+000  0.61794859E+000
 0.75043759E+000  0.21564090E+000
 0.75030758E+000  0.21582699E+000
 0.43239951E+000  0.49481890E+000
 0.43221546E+000  0.49510659E+000
-0.57755312E-001  0.93202445E+000
-0.57743967E-001  0.93201627E+000
-0.26659766E-001  0.90090119E+000
-0.26696012E-001  0.90093294E+000
 0.99771294E+000 -0.18943739E-008
 0.99771294E+000 -0.18981764E-008
 0.95871950E+000  0.31094864E-001
 0.95874548E+000  0.31054099E-001
 0.33550639E-001  0.84062473E+000
 0.33484260E-001  0.84069881E+000
 0.55721525E+000  0.37002277E+000
 0.55704413E+000  0.37029910E+000
 0.11901222E+000  0.75510606E+000
 0.84680780E+000  0.11938575E+000
 0.11911306E+000  0.75496792E+000
 0.84673127E+000  0.11950190E+000
 0.22466170E+000  0.64931698E+000
 0.22452836E+000  0.64952967E+000
 0.67616435E+000  0.25115588E+000
 0.67603095E+000  0.25137699E+000
 0.98984236E+000  0.11471503E-004
 0.98984875E+000 -0.15154431E-008
 0.34357339E+000  0.53032982E+000
 0.34341999E+000  0.53060124E+000
 0.92028867E+000  0.46032368E-001
 0.92032414E+000  0.45972185E-001
-0.95232497E-001  0.90235843E+000
-0.79584819E-001  0.88669506E+000
-0.79560781E-001  0.88667608E+000
 0.78176651E+000  0.14566875E+000
 0.78168122E+000  0.14581673E+000
 0.46837852E+000  0.40551085E+000
 0.46822694E+000  0.40579641E+000
-0.33550740E-001  0.84062472E+000
-0.33600916E-001  0.84067504E+000
 0.39834728E-001  0.76719032E+000
 0.39913182E-001  0.76708872E+000
 0.96636722E+000 -0.11425606E-008
 0.96635541E+000  0.23616554E-004
 0.13622401E+000  0.67068497E+000
 0.13611856E+000  0.67085521E+000
 0.59122856E+000  0.28271840E+000
 0.59110203E+000  0.28296601E+000
 0.86734192E+000  0.60247549E-001
 0.86738488E+000  0.60165231E-001
 0.24921635E+000  0.55771904E+000
 0.24934063E+000  0.55748054E+000
 0.70439548E+000  0.16965830E+000
 0.70430867E+000  0.16983611E+000
 0.37216312E+000  0.43461401E+000
 0.37203571E+000  0.43489002E+000
-0.13121265E+000  0.85845359E+000
-0.13122542E+000  0.85846317E+000
 0.92764023E+000 -0.78158973E-009
 0.92762440E+000  0.36753887E-004
-0.10012543E+000  0.82734694E+000
-0.10016392E+000  0.82738111E+000
-0.39977225E-001  0.76716190E+000
-0.39913291E-001  0.76708872E+000
 0.49697248E+000  0.30983174E+000
 0.49686087E+000  0.31009257E+000
 0.80071790E+000  0.73515783E-001
 0.80076441E+000  0.73410314E-001
 0.45560146E-001  0.68158691E+000
 0.45646819E-001  0.68145713E+000
 0.15118806E+000  0.57583266E+000
 0.15108594E+000  0.57602871E+000
 0.61591697E+000  0.19097758E+000
 0.61583620E+000  0.19117899E+000
 0.27008956E+000  0.45686799E+000
 0.87426278E+000  0.50599289E-004
 0.87428027E+000 -0.43820029E-009
 0.26998446E+000  0.45711669E+000
 0.72147034E+000  0.85626491E-001
 0.72151521E+000  0.85499445E-001
-0.18080315E+000  0.81668461E+000
-0.16515567E+000  0.80102812E+000
-0.16512778E+000  0.80100505E+000
 0.39488561E+000  0.33206755E+000
 0.39479240E+000  0.33232513E+000
-0.11916723E+000  0.75502192E+000
-0.11911316E+000  0.75496791E+000
-0.45646936E-001  0.68145712E+000
-0.45722741E-001  0.68155507E+000
 0.51772854E+000  0.20929122E+000
 0.51765964E+000  0.20950602E+000
 0.50661032E-001  0.58508553E+000
 0.50571899E-001  0.58523937E+000
 0.80711486E+000  0.64172761E-004
 0.80713064E+000 -0.11778617E-009
 0.16376915E+000  0.47191271E+000
 0.16367909E+000  0.47212200E+000
 0.63088891E+000  0.96242711E-001
 0.63085089E+000  0.96386702E-001
 0.28658102E+000  0.34907184E+000
 0.28650362E+000  0.34930920E+000
-0.22753537E+000  0.76202167E+000
-0.22755090E+000  0.76203455E+000
-0.19648731E+000  0.73096400E+000
-0.19644233E+000  0.73092274E+000
-0.13622412E+000  0.67068495E+000
-0.13629329E+000  0.67076147E+000
 0.41138106E+000  0.22431023E+000
 0.41132607E+000  0.22452523E+000
 0.72725213E+000  0.17464520E-009
 0.72724191E+000  0.75888347E-004
-0.50661157E-001  0.58508553E+000
-0.50744844E-001  0.58520562E+000
 0.54876721E-001  0.47949938E+000
 0.54792407E-001  0.47966699E+000
 0.53031664E+000  0.10547112E+000
 0.53028907E+000  0.10562443E+000
 0.17376893E+000  0.36056967E+000
 0.17369933E+000  0.36077316E+000
 0.63590622E+000  0.43452092E-009
 0.63590500E+000  0.83798422E-004
-0.28636468E+000  0.71101966E+000
 0.29850992E+000  0.23599687E+000
 0.29855428E+000  0.23579610E+000
-0.27068416E+000  0.69534111E+000
-0.27071774E+000  0.69537132E+000
-0.22466182E+000  0.64931696E+000
-0.22472427E+000  0.64937931E+000
-0.15118819E+000  0.57583265E+000
-0.15126966E+000  0.57592990E+000
 0.42136979E+000  0.11319175E+000
 0.42138650E+000  0.11303913E+000
-0.54876851E-001  0.47949938E+000
-0.54962299E-001  0.47963276E+000
 0.58227458E-001  0.36636929E+000
 0.58156015E-001  0.36653365E+000
 0.53453533E+000  0.65774546E-009
 0.53454489E+000  0.85938276E-004
 0.18102968E+000  0.24356381E+000
 0.18098730E+000  0.24373726E+000
-0.34068673E+000  0.64881038E+000
-0.34066829E+000  0.64879346E+000
-0.30956819E+000  0.61770023E+000
-0.30962062E+000  0.61775047E+000
-0.24934075E+000  0.55748053E+000
-0.24941846E+000  0.55756233E+000
 0.30580853E+000  0.11896745E+000
 0.30581837E+000  0.11882673E+000
-0.16385756E+000  0.47202243E+000
-0.16376928E+000  0.47191270E+000
-0.58227592E-001  0.36636928E+000
-0.58306893E-001  0.36649995E+000
 0.42475930E+000  0.80705945E-004
 0.42474006E+000  0.84077413E-009
 0.60660526E-001  0.24748348E+000
 0.60609765E-001  0.24762177E+000
 0.18542477E+000  0.12285910E+000
 0.18543619E+000  0.12274115E+000
-0.40528936E+000  0.59202157E+000
-0.38964210E+000  0.57637963E+000
-0.38960420E+000  0.57634354E+000
-0.34364276E+000  0.53039803E+000
-0.34357351E+000  0.53032980E+000
-0.27017725E+000  0.45696071E+000
-0.27008968E+000  0.45686798E+000
 0.30827793E+000  0.67211726E-004
 0.30825389E+000  0.98069195E-009
-0.17376906E+000  0.36056966E+000
-0.17385598E+000  0.36067590E+000
-0.60660664E-001  0.24748348E+000
-0.60724797E-001  0.24758895E+000
 0.62114075E-001  0.12480439E+000
 0.62137615E-001  0.12471744E+000
-0.46350540E+000  0.52590684E+000
-0.46352505E+000  0.52592555E+000
-0.43245497E+000  0.49487162E+000
-0.43239962E+000  0.49481887E+000
 0.18693533E+000  0.45508741E-004
 0.18691497E+000  0.10752655E-008
-0.37216324E+000  0.43461399E+000
-0.37224372E+000  0.43469117E+000
-0.28658115E+000  0.34907183E+000
-0.28666984E+000  0.34915897E+000
-0.18102982E+000  0.24356381E+000
-0.18110506E+000  0.24364348E+000
-0.62177563E-001  0.12477206E+000
-0.62137755E-001  0.12471744E+000
 0.62634462E-001  0.11229821E-008
 0.62642262E-001  0.16383743E-004
-0.53010275E+000  0.46718980E+000
-0.51441546E+000  0.45151468E+000
-0.51445283E+000  0.45154936E+000
-0.46844578E+000  0.40557113E+000
-0.46837864E+000  0.40551082E+000
-0.39488574E+000  0.33206753E+000
-0.39496825E+000  0.33213706E+000
-0.29863273E+000  0.23585426E+000
-0.29855441E+000  0.23579609E+000
-0.18548849E+000  0.12276781E+000
-0.18543633E+000  0.12274115E+000
-0.62642310E-001 -0.16473997E-004
-0.62634603E-001  0.11229382E-008
-0.58834174E+000  0.40111928E+000
-0.58832385E+000  0.40110335E+000
-0.55721536E+000  0.37002274E+000
-0.55726497E+000  0.37006480E+000
-0.49704233E+000  0.30988389E+000
-0.49697260E+000  0.30983172E+000
-0.41145381E+000  0.22434994E+000
-0.41138119E+000  0.22431022E+000
-0.30581851E+000  0.11882673E+000
-0.30587404E+000  0.11883086E+000
-0.18693537E+000 -0.45597624E-004
-0.18691511E+000  0.10751021E-008
-0.65295525E+000  0.34437984E+000
-0.63729959E+000  0.32873543E+000
-0.63726886E+000  0.32871127E+000
-0.59122867E+000  0.28271838E+000
-0.59128182E+000  0.28275377E+000
-0.51778941E+000  0.20931533E+000
-0.51772866E+000  0.20929121E+000
-0.42143708E+000  0.11302651E+000
-0.42138663E+000  0.11303913E+000
-0.30827798E+000 -0.67297894E-004
-0.30825403E+000  0.98033310E-009
-0.70728657E+000  0.28223639E+000
-0.70727320E+000  0.28222717E+000
-0.67620011E+000  0.25117616E+000
-0.67616446E+000  0.25115585E+000
-0.61591709E+000  0.19097757E+000
-0.61596296E+000  0.19098900E+000
-0.53035673E+000  0.10544740E+000
-0.53031677E+000  0.10547112E+000
-0.42474019E+000  0.84016341E-009
-0.42475935E+000 -0.80788100E-004
-0.76612121E+000  0.23130104E+000
-0.75043770E+000  0.21564088E+000
-0.75045746E+000  0.21564929E+000
-0.70442635E+000  0.16966013E+000
-0.70439560E+000  0.16965829E+000
-0.63091638E+000  0.96213048E-001
-0.63088903E+000  0.96242704E-001
-0.53454494E+000 -0.86015182E-004
-0.53453545E+000  0.65686013E-009
-0.81288193E+000  0.17673262E+000
-0.81287452E+000  0.17673140E+000
-0.78176661E+000  0.14566873E+000
-0.78178411E+000  0.14566434E+000
-0.72153065E+000  0.85468237E-001
-0.72151532E+000  0.85499437E-001
-0.63590635E+000  0.43334328E-009
-0.63590505E+000 -0.83868927E-004
-0.86248788E+000  0.13503834E+000
-0.84680789E+000  0.11938573E+000
-0.84681536E+000  0.11937878E+000
-0.80077019E+000  0.73381057E-001
-0.80076452E+000  0.73410305E-001
-0.72725224E+000  0.17313168E-009
-0.72724196E+000 -0.75951402E-004
-0.89849315E+000  0.91216410E-001
-0.89849167E+000  0.91221980E-001
-0.86738427E+000  0.60140568E-001
-0.86738498E+000  0.60165221E-001
-0.80711491E+000 -0.64227434E-004
-0.80713075E+000 -0.11970035E-009
-0.93600090E+000  0.61619769E-001
-0.92032059E+000  0.45954117E-001
-0.92032423E+000  0.45972174E-001
-0.87426283E+000 -0.50644780E-004
-0.87428036E+000 -0.44055454E-009
-0.95874222E+000  0.31044272E-001
-0.95874555E+000  0.31054089E-001
-0.92764032E+000 -0.78436912E-009
-0.92762445E+000 -0.36789541E-004
-0.98204125E+000  0.15645414E-001
-0.96635546E+000 -0.23641871E-004
-0.96636730E+000 -0.11457157E-008
-0.98984881E+000 -0.15189159E-008
-0.98984241E+000 -0.11486145E-004
-0.99771300E+000 -0.18981200E-008
