GiD Post Results File 1.0
 
Result VELOC ALYA  0.00000000E+00 Vector OnNodes
ComponentNames VELOC_X,VELOC_Y,VELOC_Z
Values
          1  0.10000000E+001  0.00000000E+000
          2  0.10000000E+001  0.00000000E+000
          3  0.00000000E+000  0.00000000E+000
          4  0.00000000E+000  0.00000000E+000
          5  0.10000000E+001  0.00000000E+000
          6  0.00000000E+000  0.00000000E+000
          7  0.00000000E+000  0.00000000E+000
          8  0.00000000E+000  0.00000000E+000
          9  0.00000000E+000  0.00000000E+000
         10  0.10000000E+001  0.00000000E+000
         11  0.00000000E+000  0.00000000E+000
         12  0.00000000E+000  0.00000000E+000
         13  0.00000000E+000  0.00000000E+000
         14  0.00000000E+000  0.00000000E+000
         15  0.00000000E+000  0.00000000E+000
         16  0.00000000E+000  0.00000000E+000
         17  0.10000000E+001  0.00000000E+000
         18  0.00000000E+000  0.00000000E+000
         19  0.00000000E+000  0.00000000E+000
         20  0.00000000E+000  0.00000000E+000
         21  0.00000000E+000  0.00000000E+000
         22  0.00000000E+000  0.00000000E+000
         23  0.10000000E+001  0.00000000E+000
         24  0.00000000E+000  0.00000000E+000
         25  0.00000000E+000  0.00000000E+000
         26  0.00000000E+000  0.00000000E+000
         27  0.00000000E+000  0.00000000E+000
         28  0.00000000E+000  0.00000000E+000
         29  0.00000000E+000  0.00000000E+000
         30  0.00000000E+000  0.00000000E+000
         31  0.00000000E+000  0.00000000E+000
         32  0.00000000E+000  0.00000000E+000
         33  0.00000000E+000  0.00000000E+000
         34  0.00000000E+000  0.00000000E+000
         35  0.10000000E+001  0.00000000E+000
         36  0.00000000E+000  0.00000000E+000
         37  0.00000000E+000  0.00000000E+000
         38  0.00000000E+000  0.00000000E+000
         39  0.00000000E+000  0.00000000E+000
         40  0.00000000E+000  0.00000000E+000
         41  0.00000000E+000  0.00000000E+000
         42  0.00000000E+000  0.00000000E+000
         43  0.00000000E+000  0.00000000E+000
         44  0.00000000E+000  0.00000000E+000
         45  0.10000000E+001  0.00000000E+000
         46  0.00000000E+000  0.00000000E+000
         47  0.00000000E+000  0.00000000E+000
         48  0.00000000E+000  0.00000000E+000
         49  0.00000000E+000  0.00000000E+000
         50  0.00000000E+000  0.00000000E+000
         51  0.00000000E+000  0.00000000E+000
         52  0.00000000E+000  0.00000000E+000
         53  0.00000000E+000  0.00000000E+000
         54  0.00000000E+000  0.00000000E+000
         55  0.00000000E+000  0.00000000E+000
         56  0.00000000E+000  0.00000000E+000
         57  0.10000000E+001  0.00000000E+000
         58  0.00000000E+000  0.00000000E+000
         59  0.00000000E+000  0.00000000E+000
         60  0.00000000E+000  0.00000000E+000
         61  0.00000000E+000  0.00000000E+000
         62  0.00000000E+000  0.00000000E+000
         63  0.00000000E+000  0.00000000E+000
         64  0.00000000E+000  0.00000000E+000
         65  0.00000000E+000  0.00000000E+000
         66  0.00000000E+000  0.00000000E+000
         67  0.00000000E+000  0.00000000E+000
         68  0.00000000E+000  0.00000000E+000
         69  0.00000000E+000  0.00000000E+000
         70  0.00000000E+000  0.00000000E+000
         71  0.00000000E+000  0.00000000E+000
         72  0.00000000E+000  0.00000000E+000
         73  0.10000000E+001  0.00000000E+000
         74  0.00000000E+000  0.00000000E+000
         75  0.00000000E+000  0.00000000E+000
         76  0.00000000E+000  0.00000000E+000
         77  0.00000000E+000  0.00000000E+000
         78  0.00000000E+000  0.00000000E+000
         79  0.00000000E+000  0.00000000E+000
         80  0.00000000E+000  0.00000000E+000
         81  0.00000000E+000  0.00000000E+000
         82  0.00000000E+000  0.00000000E+000
         83  0.00000000E+000  0.00000000E+000
         84  0.00000000E+000  0.00000000E+000
         85  0.00000000E+000  0.00000000E+000
         86  0.00000000E+000  0.00000000E+000
         87  0.10000000E+001  0.00000000E+000
         88  0.00000000E+000  0.00000000E+000
         89  0.00000000E+000  0.00000000E+000
         90  0.00000000E+000  0.00000000E+000
         91  0.00000000E+000  0.00000000E+000
         92  0.00000000E+000  0.00000000E+000
         93  0.00000000E+000  0.00000000E+000
         94  0.00000000E+000  0.00000000E+000
         95  0.00000000E+000  0.00000000E+000
         96  0.00000000E+000  0.00000000E+000
         97  0.00000000E+000  0.00000000E+000
         98  0.00000000E+000  0.00000000E+000
         99  0.00000000E+000  0.00000000E+000
        100  0.00000000E+000  0.00000000E+000
        101  0.00000000E+000  0.00000000E+000
        102  0.00000000E+000  0.00000000E+000
        103  0.00000000E+000  0.00000000E+000
        104  0.00000000E+000  0.00000000E+000
        105  0.00000000E+000  0.00000000E+000
        106  0.00000000E+000  0.00000000E+000
        107  0.00000000E+000  0.00000000E+000
        108  0.00000000E+000  0.00000000E+000
        109  0.00000000E+000  0.00000000E+000
        110  0.00000000E+000  0.00000000E+000
        111  0.00000000E+000  0.00000000E+000
        112  0.00000000E+000  0.00000000E+000
        113  0.00000000E+000  0.00000000E+000
        114  0.00000000E+000  0.00000000E+000
        115  0.00000000E+000  0.00000000E+000
        116  0.00000000E+000  0.00000000E+000
        117  0.00000000E+000  0.00000000E+000
        118  0.00000000E+000  0.00000000E+000
        119  0.00000000E+000  0.00000000E+000
        120  0.00000000E+000  0.00000000E+000
        121  0.00000000E+000  0.00000000E+000
End values

Result PRESS ALYA  0.00000000E+00 Scalar OnNodes
ComponentNames PRESS
Values
          1  0.00000000E+000
          2  0.00000000E+000
          3  0.00000000E+000
          4  0.00000000E+000
          5  0.00000000E+000
          6  0.00000000E+000
          7  0.00000000E+000
          8  0.00000000E+000
          9  0.00000000E+000
         10  0.00000000E+000
         11  0.00000000E+000
         12  0.00000000E+000
         13  0.00000000E+000
         14  0.00000000E+000
         15  0.00000000E+000
         16  0.00000000E+000
         17  0.00000000E+000
         18  0.00000000E+000
         19  0.00000000E+000
         20  0.00000000E+000
         21  0.00000000E+000
         22  0.00000000E+000
         23  0.00000000E+000
         24  0.00000000E+000
         25  0.00000000E+000
         26  0.00000000E+000
         27  0.00000000E+000
         28  0.00000000E+000
         29  0.00000000E+000
         30  0.00000000E+000
         31  0.00000000E+000
         32  0.00000000E+000
         33  0.00000000E+000
         34  0.00000000E+000
         35  0.00000000E+000
         36  0.00000000E+000
         37  0.00000000E+000
         38  0.00000000E+000
         39  0.00000000E+000
         40  0.00000000E+000
         41  0.00000000E+000
         42  0.00000000E+000
         43  0.00000000E+000
         44  0.00000000E+000
         45  0.00000000E+000
         46  0.00000000E+000
         47  0.00000000E+000
         48  0.00000000E+000
         49  0.00000000E+000
         50  0.00000000E+000
         51  0.00000000E+000
         52  0.00000000E+000
         53  0.00000000E+000
         54  0.00000000E+000
         55  0.00000000E+000
         56  0.00000000E+000
         57  0.00000000E+000
         58  0.00000000E+000
         59  0.00000000E+000
         60  0.00000000E+000
         61  0.00000000E+000
         62  0.00000000E+000
         63  0.00000000E+000
         64  0.00000000E+000
         65  0.00000000E+000
         66  0.00000000E+000
         67  0.00000000E+000
         68  0.00000000E+000
         69  0.00000000E+000
         70  0.00000000E+000
         71  0.00000000E+000
         72  0.00000000E+000
         73  0.00000000E+000
         74  0.00000000E+000
         75  0.00000000E+000
         76  0.00000000E+000
         77  0.00000000E+000
         78  0.00000000E+000
         79  0.00000000E+000
         80  0.00000000E+000
         81  0.00000000E+000
         82  0.00000000E+000
         83  0.00000000E+000
         84  0.00000000E+000
         85  0.00000000E+000
         86  0.00000000E+000
         87  0.00000000E+000
         88  0.00000000E+000
         89  0.00000000E+000
         90  0.00000000E+000
         91  0.00000000E+000
         92  0.00000000E+000
         93  0.00000000E+000
         94  0.00000000E+000
         95  0.00000000E+000
         96  0.00000000E+000
         97  0.00000000E+000
         98  0.00000000E+000
         99  0.00000000E+000
        100  0.00000000E+000
        101  0.00000000E+000
        102  0.00000000E+000
        103  0.00000000E+000
        104  0.00000000E+000
        105  0.00000000E+000
        106  0.00000000E+000
        107  0.00000000E+000
        108  0.00000000E+000
        109  0.00000000E+000
        110  0.00000000E+000
        111  0.00000000E+000
        112  0.00000000E+000
        113  0.00000000E+000
        114  0.00000000E+000
        115  0.00000000E+000
        116  0.00000000E+000
        117  0.00000000E+000
        118  0.00000000E+000
        119  0.00000000E+000
        120  0.00000000E+000
        121  0.00000000E+000
End values

Result VEPAV ALYA  0.00000000E+00 Vector OnNodes
ComponentNames VEPAV_X,VEPAV_Y,VEPAV_Z
Values
          1  0.00000000E+000  0.00000000E+000
          2  0.00000000E+000  0.00000000E+000
          3  0.00000000E+000  0.00000000E+000
          4  0.00000000E+000  0.00000000E+000
          5  0.00000000E+000  0.00000000E+000
          6  0.00000000E+000  0.00000000E+000
          7  0.00000000E+000  0.00000000E+000
          8  0.00000000E+000  0.00000000E+000
          9  0.00000000E+000  0.00000000E+000
         10  0.00000000E+000  0.00000000E+000
         11  0.00000000E+000  0.00000000E+000
         12  0.00000000E+000  0.00000000E+000
         13  0.00000000E+000  0.00000000E+000
         14  0.00000000E+000  0.00000000E+000
         15  0.00000000E+000  0.00000000E+000
         16  0.00000000E+000  0.00000000E+000
         17  0.00000000E+000  0.00000000E+000
         18  0.00000000E+000  0.00000000E+000
         19  0.00000000E+000  0.00000000E+000
         20  0.00000000E+000  0.00000000E+000
         21  0.00000000E+000  0.00000000E+000
         22  0.00000000E+000  0.00000000E+000
         23  0.00000000E+000  0.00000000E+000
         24  0.00000000E+000  0.00000000E+000
         25  0.00000000E+000  0.00000000E+000
         26  0.00000000E+000  0.00000000E+000
         27  0.00000000E+000  0.00000000E+000
         28  0.00000000E+000  0.00000000E+000
         29  0.00000000E+000  0.00000000E+000
         30  0.00000000E+000  0.00000000E+000
         31  0.00000000E+000  0.00000000E+000
         32  0.00000000E+000  0.00000000E+000
         33  0.00000000E+000  0.00000000E+000
         34  0.00000000E+000  0.00000000E+000
         35  0.00000000E+000  0.00000000E+000
         36  0.00000000E+000  0.00000000E+000
         37  0.00000000E+000  0.00000000E+000
         38  0.00000000E+000  0.00000000E+000
         39  0.00000000E+000  0.00000000E+000
         40  0.00000000E+000  0.00000000E+000
         41  0.00000000E+000  0.00000000E+000
         42  0.00000000E+000  0.00000000E+000
         43  0.00000000E+000  0.00000000E+000
         44  0.00000000E+000  0.00000000E+000
         45  0.00000000E+000  0.00000000E+000
         46  0.00000000E+000  0.00000000E+000
         47  0.00000000E+000  0.00000000E+000
         48  0.00000000E+000  0.00000000E+000
         49  0.00000000E+000  0.00000000E+000
         50  0.00000000E+000  0.00000000E+000
         51  0.00000000E+000  0.00000000E+000
         52  0.00000000E+000  0.00000000E+000
         53  0.00000000E+000  0.00000000E+000
         54  0.00000000E+000  0.00000000E+000
         55  0.00000000E+000  0.00000000E+000
         56  0.00000000E+000  0.00000000E+000
         57  0.00000000E+000  0.00000000E+000
         58  0.00000000E+000  0.00000000E+000
         59  0.00000000E+000  0.00000000E+000
         60  0.00000000E+000  0.00000000E+000
         61  0.00000000E+000  0.00000000E+000
         62  0.00000000E+000  0.00000000E+000
         63  0.00000000E+000  0.00000000E+000
         64  0.00000000E+000  0.00000000E+000
         65  0.00000000E+000  0.00000000E+000
         66  0.00000000E+000  0.00000000E+000
         67  0.00000000E+000  0.00000000E+000
         68  0.00000000E+000  0.00000000E+000
         69  0.00000000E+000  0.00000000E+000
         70  0.00000000E+000  0.00000000E+000
         71  0.00000000E+000  0.00000000E+000
         72  0.00000000E+000  0.00000000E+000
         73  0.00000000E+000  0.00000000E+000
         74  0.00000000E+000  0.00000000E+000
         75  0.00000000E+000  0.00000000E+000
         76  0.00000000E+000  0.00000000E+000
         77  0.00000000E+000  0.00000000E+000
         78  0.00000000E+000  0.00000000E+000
         79  0.00000000E+000  0.00000000E+000
         80  0.00000000E+000  0.00000000E+000
         81  0.00000000E+000  0.00000000E+000
         82  0.00000000E+000  0.00000000E+000
         83  0.00000000E+000  0.00000000E+000
         84  0.00000000E+000  0.00000000E+000
         85  0.00000000E+000  0.00000000E+000
         86  0.00000000E+000  0.00000000E+000
         87  0.33333333E+000  0.00000000E+000
         88  0.00000000E+000  0.00000000E+000
         89  0.00000000E+000  0.00000000E+000
         90  0.00000000E+000  0.00000000E+000
         91  0.16666667E+000  0.00000000E+000
         92  0.00000000E+000  0.00000000E+000
         93  0.00000000E+000  0.00000000E+000
         94  0.00000000E+000  0.00000000E+000
         95  0.00000000E+000  0.00000000E+000
         96  0.00000000E+000  0.00000000E+000
         97  0.00000000E+000  0.00000000E+000
         98  0.00000000E+000  0.00000000E+000
         99  0.00000000E+000  0.00000000E+000
        100  0.00000000E+000  0.00000000E+000
        101  0.00000000E+000  0.00000000E+000
        102  0.00000000E+000  0.00000000E+000
        103  0.00000000E+000  0.00000000E+000
        104  0.00000000E+000  0.00000000E+000
        105  0.00000000E+000  0.00000000E+000
        106  0.00000000E+000  0.00000000E+000
        107  0.00000000E+000  0.00000000E+000
        108  0.00000000E+000  0.00000000E+000
        109  0.00000000E+000  0.00000000E+000
        110  0.00000000E+000  0.00000000E+000
        111  0.00000000E+000  0.00000000E+000
        112  0.00000000E+000  0.00000000E+000
        113  0.00000000E+000  0.00000000E+000
        114  0.00000000E+000  0.00000000E+000
        115  0.00000000E+000  0.00000000E+000
        116  0.00000000E+000  0.00000000E+000
        117  0.00000000E+000  0.00000000E+000
        118  0.00000000E+000  0.00000000E+000
        119  0.00000000E+000  0.00000000E+000
        120  0.00000000E+000  0.00000000E+000
        121  0.00000000E+000  0.00000000E+000
End values

Result VELOC ALYA  0.69944704E-02 Vector OnNodes
ComponentNames VELOC_X,VELOC_Y,VELOC_Z
Values
          1  0.10000000E+001  0.00000000E+000
          2  0.10000000E+001  0.00000000E+000
          3  0.88115150E+000  0.00000000E+000
          4  0.88111628E+000  0.96338344E-004
          5  0.10000000E+001  0.00000000E+000
          6  0.10564785E+001  0.00000000E+000
          7  0.10564055E+001  0.19595627E-003
          8  0.88102378E+000  0.15684263E-003
          9  0.10562134E+001  0.31905838E-003
         10  0.10000000E+001  0.00000000E+000
         11  0.10029937E+001  0.00000000E+000
         12  0.10028521E+001  0.39556154E-003
         13  0.88090894E+000  0.15867319E-003
         14  0.10024776E+001  0.64530825E-003
         15  0.10559739E+001  0.32196406E-003
         16  0.10015312E+001  0.00000000E+000
         17  0.10000000E+001  0.00000000E+000
         18  0.10012478E+001  0.78963482E-003
         19  0.88081592E+000  0.10119330E-003
         20  0.10020093E+001  0.65191999E-003
         21  0.10005076E+001  0.12899927E-002
         22  0.10557791E+001  0.20186359E-003
         23  0.10000000E+001  0.00000000E+000
         24  0.99957877E+000  0.13055138E-002
         25  0.10029820E+001  0.00000000E+000
         26  0.10016259E+001  0.40668168E-003
         27  0.10024248E+001  0.15822020E-002
         28  0.88078152E+000  0.75969159E-005
         29  0.10009018E+001  0.25801822E-002
         30  0.10557063E+001  0.45250483E-005
         31  0.99882165E+000  0.81380974E-003
         32  0.99906779E+000  0.25902856E-002
         33  0.10014803E+001  0.99526323E-006
         34  0.10062451E+001  0.00000000E+000
         35  0.10000000E+001  0.00000000E+000
         36  0.10047971E+001  0.32812162E-002
         37  0.88082132E+000 -0.82571829E-004
         38  0.10016683E+001  0.52188230E-002
         39  0.10557875E+001 -0.19253142E-003
         40  0.99760205E+000  0.16061745E-002
         41  0.99853109E+000 -0.12450428E-005
         42  0.99787631E+000  0.50907094E-002
         43  0.10016323E+001 -0.40636439E-003
         44  0.10126595E+001  0.00000000E+000
         45  0.10000000E+001  0.00000000E+000
         46  0.10109662E+001  0.71470109E-002
         47  0.88092718E+000 -0.12495828E-003
         48  0.99705163E+000 -0.20188224E-005
         49  0.99529860E+000  0.29905467E-002
         50  0.99882431E+000 -0.81794504E-003
         51  0.10018470E+001  0.11431077E-001
         52  0.10559982E+001 -0.31360495E-003
         53  0.99410209E+000  0.94577523E-002
         54  0.10020232E+001 -0.65993533E-003
         55  0.99760226E+000 -0.16110437E-002
         56  0.99450067E+000 -0.19215609E-005
         57  0.10000000E+001  0.00000000E+000
         58  0.10506983E+001  0.00000000E+000
         59  0.10210720E+001  0.24795415E-001
         60  0.88110408E+000 -0.85676498E-004
         61  0.99958198E+000 -0.13149936E-002
         62  0.99134344E+000  0.45836034E-002
         63  0.99191530E+000  0.25264691E-001
         64  0.10562748E+001 -0.35005951E-003
         65  0.99529782E+000 -0.29946667E-002
         66  0.98565768E+000  0.13128778E-001
         67  0.10024899E+001 -0.67864144E-003
         68  0.99906665E+000 -0.25971332E-002
         69  0.99087439E+000 -0.14905454E-005
         70  0.98656221E+000  0.46990105E-002
         71  0.10005039E+001 -0.13059216E-002
         72  0.88010247E+000  0.00000000E+000
         73  0.10000000E+001  0.00000000E+000
         74  0.97830587E+000  0.40114352E-001
         75  0.88143521E+000 -0.47665604E-005
         76  0.97459751E+000  0.45550750E-001
         77  0.10565155E+001 -0.33213753E-003
         78  0.99787410E+000 -0.50953355E-002
         79  0.99134241E+000 -0.45866297E-002
         80  0.10008968E+001 -0.25882208E-002
         81  0.98713570E+000 -0.98495435E-006
         82  0.97653048E+000  0.75814013E-002
         83  0.10028077E+001 -0.45152802E-003
         84  0.98317245E+000  0.23943699E-002
         85  0.10012299E+001 -0.80306456E-003
         86  0.99409981E+000 -0.94607670E-002
         87  0.10000000E+001  0.00000000E+000
         88  0.90380075E+000  0.00000000E+000
         89  0.10016639E+001 -0.52233300E-002
         90  0.98656118E+000 -0.47009558E-002
         91  0.87944866E+000  0.00000000E+000
         92  0.81414633E+000 -0.47669805E-001
         93  0.93889862E+000  0.65371087E-001
         94  0.10565983E+001  0.00000000E+000
         95  0.10024148E+001 -0.15881314E-002
         96  0.98460460E+000 -0.48723500E-006
         97  0.98128094E+000 -0.24793340E-002
         98  0.10028657E+001  0.00000000E+000
         99  0.98565561E+000 -0.13130587E-001
        100  0.10018432E+001 -0.11433684E-001
        101  0.98344181E+000  0.14896985E-003
        102  0.10015083E+001  0.00000000E+000
        103  0.10047903E+001 -0.32841251E-002
        104  0.98317149E+000 -0.23953209E-002
        105  0.10029692E+001  0.00000000E+000
        106  0.98438470E+000 -0.16671836E-006
        107  0.99191221E+000 -0.25266128E-001
        108  0.10109613E+001 -0.71485711E-002
        109  0.97652861E+000 -0.75822588E-002
        110  0.10062372E+001  0.00000000E+000
        111  0.98344088E+000 -0.14929555E-003
        112  0.10210680E+001 -0.24796211E-001
        113  0.97459482E+000 -0.45551328E-001
        114  0.98127912E+000  0.24790295E-002
        115  0.10126540E+001  0.00000000E+000
        116  0.97830264E+000 -0.40114660E-001
        117  0.10506940E+001  0.00000000E+000
        118  0.93889615E+000 -0.65371138E-001
        119  0.88009941E+000  0.00000000E+000
        120  0.81414367E+000  0.47669436E-001
        121  0.90379755E+000  0.00000000E+000
End values

Result PRESS ALYA  0.69944704E-02 Scalar OnNodes
ComponentNames PRESS
Values
          1  0.58769278E+001
          2  0.58840588E+001
          3 -0.90426517E+000
          4 -0.89469652E+000
          5  0.59027352E+001
          6 -0.79680339E+001
          7 -0.79512322E+001
          8 -0.86963823E+000
          9 -0.79072361E+001
         10  0.59258362E+001
         11 -0.83077961E+001
         12 -0.82759820E+001
         13 -0.83864672E+000
         14 -0.81927617E+001
         15 -0.78528406E+001
         16 -0.84668897E+001
         17  0.59445457E+001
         18 -0.84051791E+001
         19 -0.81354897E+000
         20 -0.80899771E+001
         21 -0.82439116E+001
         22 -0.78088099E+001
         23  0.59517262E+001
         24 -0.80456753E+001
         25 -0.87727723E+001
         26 -0.80068997E+001
         27 -0.86500446E+001
         28 -0.80391605E+000
         29 -0.83338771E+001
         30 -0.77919510E+001
         31 -0.78860506E+001
         32 -0.79490081E+001
         33 -0.79751574E+001
         34 -0.93797533E+001
         35  0.59446812E+001
         36 -0.91342600E+001
         37 -0.81337133E+000
         38 -0.84940237E+001
         39 -0.78086666E+001
         40 -0.76436792E+001
         41 -0.78252951E+001
         42 -0.77484453E+001
         43 -0.80068279E+001
         44 -0.10663939E+002
         45  0.59262750E+001
         46 -0.10079043E+002
         47 -0.83811953E+000
         48 -0.75282674E+001
         49 -0.71772047E+001
         50 -0.78860178E+001
         51 -0.87580379E+001
         52 -0.78525056E+001
         53 -0.72808761E+001
         54 -0.80898430E+001
         55 -0.76436637E+001
         56 -0.69671812E+001
         57  0.59043068E+001
         58 -0.13332297E+002
         59 -0.12225037E+002
         60 -0.86802668E+000
         61 -0.80456307E+001
         62 -0.62886714E+001
         63 -0.89019245E+001
         64 -0.79065852E+001
         65 -0.71771986E+001
         66 -0.59528451E+001
         67 -0.81927382E+001
         68 -0.79489929E+001
         69 -0.59796471E+001
         70 -0.47655150E+001
         71 -0.82439212E+001
         72 -0.23113413E+002
         73  0.58950326E+001
         74 -0.16781550E+002
         75 -0.89079158E+000
         76 -0.57424123E+001
         77 -0.79531377E+001
         78 -0.77484443E+001
         79 -0.62886699E+001
         80 -0.83338980E+001
         81 -0.44424394E+001
         82 -0.33527034E+001
         83 -0.82764594E+001
         84 -0.25811899E+001
         85 -0.84052992E+001
         86 -0.72808782E+001
         87  0.59091496E+001
         88 -0.35696277E+002
         89 -0.84940460E+001
         90 -0.47655148E+001
         91 -0.89952863E+000
         92 -0.85188689E+001
         93  0.92358006E+000
         94 -0.79789740E+001
         95 -0.86501397E+001
         96 -0.23741752E+001
         97  0.11565524E+000
         98 -0.83080278E+001
         99 -0.59528458E+001
        100 -0.87580498E+001
        101  0.22935211E-001
        102 -0.84671706E+001
        103 -0.91343121E+001
        104 -0.25811899E+001
        105 -0.87728981E+001
        106  0.13764812E-001
        107 -0.89019243E+001
        108 -0.10079067E+002
        109 -0.33527031E+001
        110 -0.93798206E+001
        111  0.22935270E-001
        112 -0.12225035E+002
        113 -0.57424084E+001
        114  0.11565512E+000
        115 -0.10663968E+002
        116 -0.16781520E+002
        117 -0.13332296E+002
        118  0.92357765E+000
        119 -0.23113366E+002
        120 -0.85188438E+001
        121 -0.35696187E+002
End values

Result VEPAV ALYA  0.69944704E-02 Vector OnNodes
ComponentNames VEPAV_X,VEPAV_Y,VEPAV_Z
Values
          1  0.00000000E+000  0.00000000E+000
          2  0.00000000E+000  0.00000000E+000
          3  0.00000000E+000  0.00000000E+000
          4  0.00000000E+000  0.00000000E+000
          5  0.00000000E+000  0.00000000E+000
          6  0.00000000E+000  0.00000000E+000
          7  0.00000000E+000  0.00000000E+000
          8  0.00000000E+000  0.00000000E+000
          9  0.00000000E+000  0.00000000E+000
         10  0.00000000E+000  0.00000000E+000
         11  0.00000000E+000  0.00000000E+000
         12  0.00000000E+000  0.00000000E+000
         13  0.00000000E+000  0.00000000E+000
         14  0.00000000E+000  0.00000000E+000
         15  0.00000000E+000  0.00000000E+000
         16  0.00000000E+000  0.00000000E+000
         17  0.00000000E+000  0.00000000E+000
         18  0.00000000E+000  0.00000000E+000
         19  0.00000000E+000  0.00000000E+000
         20  0.00000000E+000  0.00000000E+000
         21  0.00000000E+000  0.00000000E+000
         22  0.00000000E+000  0.00000000E+000
         23  0.00000000E+000  0.00000000E+000
         24  0.00000000E+000  0.00000000E+000
         25  0.00000000E+000  0.00000000E+000
         26  0.00000000E+000  0.00000000E+000
         27  0.00000000E+000  0.00000000E+000
         28  0.00000000E+000  0.00000000E+000
         29  0.00000000E+000  0.00000000E+000
         30  0.00000000E+000  0.00000000E+000
         31  0.00000000E+000  0.00000000E+000
         32  0.00000000E+000  0.00000000E+000
         33  0.00000000E+000  0.00000000E+000
         34  0.00000000E+000  0.00000000E+000
         35  0.00000000E+000  0.00000000E+000
         36  0.00000000E+000  0.00000000E+000
         37  0.00000000E+000  0.00000000E+000
         38  0.00000000E+000  0.00000000E+000
         39  0.00000000E+000  0.00000000E+000
         40  0.00000000E+000  0.00000000E+000
         41  0.00000000E+000  0.00000000E+000
         42  0.00000000E+000  0.00000000E+000
         43  0.00000000E+000  0.00000000E+000
         44  0.00000000E+000  0.00000000E+000
         45  0.00000000E+000  0.00000000E+000
         46  0.00000000E+000  0.00000000E+000
         47  0.00000000E+000  0.00000000E+000
         48  0.00000000E+000  0.00000000E+000
         49  0.00000000E+000  0.00000000E+000
         50  0.00000000E+000  0.00000000E+000
         51  0.00000000E+000  0.00000000E+000
         52  0.00000000E+000  0.00000000E+000
         53  0.00000000E+000  0.00000000E+000
         54  0.00000000E+000  0.00000000E+000
         55  0.00000000E+000  0.00000000E+000
         56  0.00000000E+000  0.00000000E+000
         57  0.00000000E+000  0.00000000E+000
         58  0.00000000E+000  0.00000000E+000
         59  0.00000000E+000  0.00000000E+000
         60  0.00000000E+000  0.00000000E+000
         61  0.00000000E+000  0.00000000E+000
         62  0.00000000E+000  0.00000000E+000
         63  0.00000000E+000  0.00000000E+000
         64  0.00000000E+000  0.00000000E+000
         65  0.00000000E+000  0.00000000E+000
         66  0.00000000E+000  0.00000000E+000
         67  0.00000000E+000  0.00000000E+000
         68  0.00000000E+000  0.00000000E+000
         69  0.00000000E+000  0.00000000E+000
         70  0.00000000E+000  0.00000000E+000
         71  0.00000000E+000  0.00000000E+000
         72  0.00000000E+000  0.00000000E+000
         73  0.00000000E+000  0.00000000E+000
         74  0.00000000E+000  0.00000000E+000
         75  0.00000000E+000  0.00000000E+000
         76  0.00000000E+000  0.00000000E+000
         77  0.00000000E+000  0.00000000E+000
         78  0.00000000E+000  0.00000000E+000
         79  0.00000000E+000  0.00000000E+000
         80  0.00000000E+000  0.00000000E+000
         81  0.00000000E+000  0.00000000E+000
         82  0.00000000E+000  0.00000000E+000
         83  0.00000000E+000  0.00000000E+000
         84  0.00000000E+000  0.00000000E+000
         85  0.00000000E+000  0.00000000E+000
         86  0.00000000E+000  0.00000000E+000
         87  0.33365184E+000  0.00000000E+000
         88  0.00000000E+000  0.00000000E+000
         89  0.00000000E+000  0.00000000E+000
         90  0.00000000E+000  0.00000000E+000
         91  0.16833876E+000  0.00000000E+000
         92  0.00000000E+000  0.00000000E+000
         93  0.00000000E+000  0.00000000E+000
         94  0.23113798E-002  0.00000000E+000
         95  0.00000000E+000  0.00000000E+000
         96  0.00000000E+000  0.00000000E+000
         97  0.00000000E+000  0.00000000E+000
         98  0.24008694E-002  0.00000000E+000
         99  0.00000000E+000  0.00000000E+000
        100  0.00000000E+000  0.00000000E+000
        101  0.00000000E+000  0.00000000E+000
        102  0.24013386E-002  0.00000000E+000
        103  0.00000000E+000  0.00000000E+000
        104  0.00000000E+000  0.00000000E+000
        105  0.23967006E-002  0.00000000E+000
        106  0.00000000E+000  0.00000000E+000
        107  0.00000000E+000  0.00000000E+000
        108  0.00000000E+000  0.00000000E+000
        109  0.00000000E+000  0.00000000E+000
        110  0.23875140E-002  0.00000000E+000
        111  0.00000000E+000  0.00000000E+000
        112  0.00000000E+000  0.00000000E+000
        113  0.00000000E+000  0.00000000E+000
        114  0.00000000E+000  0.00000000E+000
        115  0.23674015E-002  0.00000000E+000
        116  0.00000000E+000  0.00000000E+000
        117  0.23415263E-002  0.00000000E+000
        118  0.00000000E+000  0.00000000E+000
        119  0.24960976E-002  0.00000000E+000
        120  0.00000000E+000  0.00000000E+000
        121  0.14505421E-002  0.00000000E+000
End values

