GiD Post Results File 1.0
 
Result DISPL ALYA  0.00000000E+00 Vector OnNodes
ComponentNames DISPL_X,DISPL_Y,DISPL_Z
Values
          1  0.00000000E+000  0.00000000E+000
          2  0.00000000E+000  0.00000000E+000
          3  0.00000000E+000  0.00000000E+000
          4  0.00000000E+000  0.00000000E+000
          5  0.00000000E+000  0.00000000E+000
          6  0.00000000E+000  0.00000000E+000
          7  0.00000000E+000  0.00000000E+000
          8  0.00000000E+000  0.00000000E+000
          9  0.00000000E+000  0.00000000E+000
         10  0.00000000E+000  0.00000000E+000
         11  0.00000000E+000  0.00000000E+000
         12  0.00000000E+000  0.00000000E+000
         13  0.00000000E+000  0.00000000E+000
         14  0.00000000E+000  0.00000000E+000
         15  0.00000000E+000  0.00000000E+000
         16  0.00000000E+000  0.00000000E+000
         17  0.00000000E+000  0.00000000E+000
         18  0.00000000E+000  0.00000000E+000
         19  0.00000000E+000  0.00000000E+000
         20  0.00000000E+000  0.00000000E+000
         21  0.00000000E+000  0.00000000E+000
         22  0.00000000E+000  0.00000000E+000
         23  0.00000000E+000  0.00000000E+000
         24  0.00000000E+000  0.00000000E+000
         25  0.00000000E+000  0.00000000E+000
         26  0.00000000E+000  0.00000000E+000
         27  0.00000000E+000  0.00000000E+000
         28  0.00000000E+000  0.00000000E+000
         29  0.00000000E+000  0.00000000E+000
         30  0.00000000E+000  0.00000000E+000
         31  0.00000000E+000  0.00000000E+000
         32  0.00000000E+000  0.00000000E+000
         33  0.00000000E+000  0.00000000E+000
         34  0.00000000E+000  0.00000000E+000
         35  0.00000000E+000  0.00000000E+000
         36  0.00000000E+000  0.00000000E+000
         37  0.00000000E+000  0.00000000E+000
         38  0.00000000E+000  0.00000000E+000
         39  0.00000000E+000  0.00000000E+000
         40  0.00000000E+000  0.00000000E+000
         41  0.00000000E+000  0.00000000E+000
         42  0.00000000E+000  0.00000000E+000
         43  0.00000000E+000  0.00000000E+000
         44  0.00000000E+000  0.00000000E+000
         45  0.00000000E+000  0.00000000E+000
         46  0.00000000E+000  0.00000000E+000
         47  0.00000000E+000  0.00000000E+000
         48  0.00000000E+000  0.00000000E+000
         49  0.00000000E+000  0.00000000E+000
         50  0.00000000E+000  0.00000000E+000
         51  0.00000000E+000  0.00000000E+000
         52  0.00000000E+000  0.00000000E+000
         53  0.00000000E+000  0.00000000E+000
         54  0.00000000E+000  0.00000000E+000
         55  0.00000000E+000  0.00000000E+000
         56  0.00000000E+000  0.00000000E+000
         57  0.00000000E+000  0.00000000E+000
         58  0.00000000E+000  0.00000000E+000
         59  0.00000000E+000  0.00000000E+000
         60  0.00000000E+000  0.00000000E+000
         61  0.00000000E+000  0.00000000E+000
         62  0.00000000E+000  0.00000000E+000
         63  0.00000000E+000  0.00000000E+000
         64  0.00000000E+000  0.00000000E+000
         65  0.00000000E+000  0.00000000E+000
         66  0.00000000E+000  0.00000000E+000
         67  0.00000000E+000  0.00000000E+000
         68  0.00000000E+000  0.00000000E+000
         69  0.00000000E+000  0.00000000E+000
         70  0.00000000E+000  0.00000000E+000
         71  0.00000000E+000  0.00000000E+000
         72  0.00000000E+000  0.00000000E+000
         73  0.00000000E+000  0.00000000E+000
         74  0.00000000E+000  0.00000000E+000
         75  0.00000000E+000  0.00000000E+000
         76  0.00000000E+000  0.00000000E+000
         77  0.00000000E+000  0.00000000E+000
         78  0.00000000E+000  0.00000000E+000
         79  0.00000000E+000  0.00000000E+000
         80  0.00000000E+000  0.00000000E+000
         81  0.00000000E+000  0.00000000E+000
         82  0.00000000E+000  0.00000000E+000
         83  0.00000000E+000  0.00000000E+000
         84  0.00000000E+000  0.00000000E+000
         85  0.00000000E+000  0.00000000E+000
         86  0.00000000E+000  0.00000000E+000
         87  0.00000000E+000  0.00000000E+000
         88  0.00000000E+000  0.00000000E+000
         89  0.00000000E+000  0.00000000E+000
         90  0.00000000E+000  0.00000000E+000
         91  0.00000000E+000  0.00000000E+000
         92  0.00000000E+000  0.00000000E+000
         93  0.00000000E+000  0.00000000E+000
         94  0.00000000E+000  0.00000000E+000
         95  0.00000000E+000  0.00000000E+000
         96  0.00000000E+000  0.00000000E+000
         97  0.00000000E+000  0.00000000E+000
         98  0.00000000E+000  0.00000000E+000
         99  0.00000000E+000  0.00000000E+000
        100  0.00000000E+000  0.00000000E+000
        101  0.00000000E+000  0.00000000E+000
        102  0.00000000E+000  0.00000000E+000
        103  0.00000000E+000  0.00000000E+000
        104  0.00000000E+000  0.00000000E+000
        105  0.00000000E+000  0.00000000E+000
        106  0.00000000E+000  0.00000000E+000
        107  0.00000000E+000  0.00000000E+000
        108  0.00000000E+000  0.00000000E+000
        109  0.00000000E+000  0.00000000E+000
        110  0.00000000E+000  0.00000000E+000
        111  0.00000000E+000  0.00000000E+000
        112  0.00000000E+000  0.00000000E+000
        113  0.00000000E+000  0.00000000E+000
        114  0.00000000E+000  0.00000000E+000
        115  0.00000000E+000  0.00000000E+000
        116  0.00000000E+000  0.00000000E+000
        117  0.00000000E+000  0.00000000E+000
        118  0.00000000E+000  0.00000000E+000
        119  0.00000000E+000  0.00000000E+000
        120  0.00000000E+000  0.00000000E+000
        121  0.00000000E+000  0.00000000E+000
End values

Result ERROR ALYA  0.00000000E+00 Vector OnNodes
ComponentNames ERROR_X,ERROR_Y,ERROR_Z
Values
          1  0.00000000E+000  0.00000000E+000
          2 -0.20000000E-004 -0.40000000E-004
          3 -0.10000000E-004 -0.30000000E-004
          4 -0.30000000E-004 -0.70000000E-004
          5 -0.40000000E-004 -0.80000000E-004
          6 -0.20000000E-004 -0.60000000E-004
          7 -0.40000000E-004 -0.10000000E-003
          8 -0.50000000E-004 -0.11000000E-003
          9 -0.60000000E-004 -0.14000000E-003
         10 -0.30000000E-004 -0.90000000E-004
         11 -0.60000000E-004 -0.12000000E-003
         12 -0.50000000E-004 -0.13000000E-003
         13 -0.70000000E-004 -0.15000000E-003
         14 -0.70000000E-004 -0.17000000E-003
         15 -0.80000000E-004 -0.18000000E-003
         16 -0.80000000E-004 -0.16000000E-003
         17 -0.40000000E-004 -0.12000000E-003
         18 -0.60000000E-004 -0.16000000E-003
         19 -0.90000000E-004 -0.19000000E-003
         20 -0.90000000E-004 -0.21000000E-003
         21 -0.80000000E-004 -0.20000000E-003
         22 -0.10000000E-003 -0.22000000E-003
         23 -0.50000000E-004 -0.15000000E-003
         24 -0.10000000E-003 -0.20000000E-003
         25 -0.10000000E-003 -0.24000000E-003
         26 -0.11000000E-003 -0.25000000E-003
         27 -0.70000000E-004 -0.19000000E-003
         28 -0.11000000E-003 -0.23000000E-003
         29 -0.90000000E-004 -0.23000000E-003
         30 -0.12000000E-003 -0.26000000E-003
         31 -0.12000000E-003 -0.28000000E-003
         32 -0.11000000E-003 -0.27000000E-003
         33 -0.13000000E-003 -0.29000000E-003
         34 -0.60000000E-004 -0.18000000E-003
         35 -0.12000000E-003 -0.24000000E-003
         36 -0.80000000E-004 -0.22000000E-003
         37 -0.13000000E-003 -0.27000000E-003
         38 -0.10000000E-003 -0.26000000E-003
         39 -0.14000000E-003 -0.30000000E-003
         40 -0.13000000E-003 -0.31000000E-003
         41 -0.14000000E-003 -0.32000000E-003
         42 -0.12000000E-003 -0.30000000E-003
         43 -0.15000000E-003 -0.33000000E-003
         44 -0.70000000E-004 -0.21000000E-003
         45 -0.14000000E-003 -0.28000000E-003
         46 -0.90000000E-004 -0.25000000E-003
         47 -0.15000000E-003 -0.31000000E-003
         48 -0.15000000E-003 -0.35000000E-003
         49 -0.14000000E-003 -0.34000000E-003
         50 -0.16000000E-003 -0.36000000E-003
         51 -0.11000000E-003 -0.29000000E-003
         52 -0.16000000E-003 -0.34000000E-003
         53 -0.13000000E-003 -0.33000000E-003
         54 -0.17000000E-003 -0.37000000E-003
         55 -0.16000000E-003 -0.38000000E-003
         56 -0.17000000E-003 -0.39000000E-003
         57 -0.80000000E-004 -0.24000000E-003
         58 -0.16000000E-003 -0.32000000E-003
         59 -0.10000000E-003 -0.28000000E-003
         60 -0.15000000E-003 -0.37000000E-003
         61 -0.17000000E-003 -0.35000000E-003
         62 -0.18000000E-003 -0.40000000E-003
         63 -0.12000000E-003 -0.32000000E-003
         64 -0.18000000E-003 -0.38000000E-003
         65 -0.18000000E-003 -0.42000000E-003
         66 -0.14000000E-003 -0.36000000E-003
         67 -0.19000000E-003 -0.41000000E-003
         68 -0.17000000E-003 -0.41000000E-003
         69 -0.19000000E-003 -0.43000000E-003
         70 -0.16000000E-003 -0.40000000E-003
         71 -0.20000000E-003 -0.44000000E-003
         72 -0.18000000E-003 -0.36000000E-003
         73 -0.90000000E-004 -0.27000000E-003
         74 -0.11000000E-003 -0.31000000E-003
         75 -0.19000000E-003 -0.39000000E-003
         76 -0.13000000E-003 -0.35000000E-003
         77 -0.19000000E-003 -0.45000000E-003
         78 -0.20000000E-003 -0.46000000E-003
         79 -0.20000000E-003 -0.42000000E-003
         80 -0.18000000E-003 -0.44000000E-003
         81 -0.21000000E-003 -0.47000000E-003
         82 -0.15000000E-003 -0.39000000E-003
         83 -0.21000000E-003 -0.45000000E-003
         84 -0.17000000E-003 -0.43000000E-003
         85 -0.22000000E-003 -0.48000000E-003
         86 -0.21000000E-003 -0.49000000E-003
         87 -0.10000000E-003 -0.30000000E-003
         88 -0.20000000E-003 -0.40000000E-003
         89 -0.20000000E-003 -0.48000000E-003
         90 -0.22000000E-003 -0.50000000E-003
         91 -0.12000000E-003 -0.34000000E-003
         92 -0.21000000E-003 -0.43000000E-003
         93 -0.22000000E-003 -0.46000000E-003
         94 -0.14000000E-003 -0.38000000E-003
         95 -0.19000000E-003 -0.47000000E-003
         96 -0.23000000E-003 -0.51000000E-003
         97 -0.16000000E-003 -0.42000000E-003
         98 -0.23000000E-003 -0.49000000E-003
         99 -0.22000000E-003 -0.52000000E-003
        100 -0.23000000E-003 -0.53000000E-003
        101 -0.18000000E-003 -0.46000000E-003
        102 -0.24000000E-003 -0.52000000E-003
        103 -0.21000000E-003 -0.51000000E-003
        104 -0.24000000E-003 -0.54000000E-003
        105 -0.20000000E-003 -0.50000000E-003
        106 -0.25000000E-003 -0.55000000E-003
        107 -0.24000000E-003 -0.56000000E-003
        108 -0.23000000E-003 -0.55000000E-003
        109 -0.25000000E-003 -0.57000000E-003
        110 -0.26000000E-003 -0.58000000E-003
        111 -0.22000000E-003 -0.54000000E-003
        112 -0.25000000E-003 -0.59000000E-003
        113 -0.26000000E-003 -0.60000000E-003
        114 -0.24000000E-003 -0.58000000E-003
        115 -0.27000000E-003 -0.61000000E-003
        116 -0.27000000E-003 -0.63000000E-003
        117 -0.28000000E-003 -0.64000000E-003
        118 -0.26000000E-003 -0.62000000E-003
        119 -0.29000000E-003 -0.67000000E-003
        120 -0.28000000E-003 -0.66000000E-003
        121 -0.30000000E-003 -0.70000000E-003
End values

Result DISPL ALYA  0.10765885E-01 Vector OnNodes
ComponentNames DISPL_X,DISPL_Y,DISPL_Z
Values
          1  0.00000000E+000  0.00000000E+000
          2  0.20000000E-004  0.40000000E-004
          3  0.10000000E-004  0.30000000E-004
          4  0.30000000E-004  0.70000000E-004
          5  0.40000000E-004  0.80000000E-004
          6  0.20000000E-004  0.60000000E-004
          7  0.40000000E-004  0.10000000E-003
          8  0.50000000E-004  0.11000000E-003
          9  0.60000000E-004  0.14000000E-003
         10  0.30000000E-004  0.90000000E-004
         11  0.60000000E-004  0.12000000E-003
         12  0.50000000E-004  0.13000000E-003
         13  0.70000000E-004  0.15000000E-003
         14  0.70000000E-004  0.17000000E-003
         15  0.80000000E-004  0.18000000E-003
         16  0.80000000E-004  0.16000000E-003
         17  0.40000000E-004  0.12000000E-003
         18  0.60000000E-004  0.16000000E-003
         19  0.90000000E-004  0.19000000E-003
         20  0.90000000E-004  0.21000000E-003
         21  0.80000000E-004  0.20000000E-003
         22  0.10000000E-003  0.22000000E-003
         23  0.50000000E-004  0.15000000E-003
         24  0.10000000E-003  0.20000000E-003
         25  0.10000000E-003  0.24000000E-003
         26  0.11000000E-003  0.25000000E-003
         27  0.70000000E-004  0.19000000E-003
         28  0.11000000E-003  0.23000000E-003
         29  0.90000000E-004  0.23000000E-003
         30  0.12000000E-003  0.26000000E-003
         31  0.12000000E-003  0.28000000E-003
         32  0.11000000E-003  0.27000000E-003
         33  0.13000000E-003  0.29000000E-003
         34  0.60000000E-004  0.18000000E-003
         35  0.12000000E-003  0.24000000E-003
         36  0.80000000E-004  0.22000000E-003
         37  0.13000000E-003  0.27000000E-003
         38  0.10000000E-003  0.26000000E-003
         39  0.14000000E-003  0.30000000E-003
         40  0.13000000E-003  0.31000000E-003
         41  0.14000000E-003  0.32000000E-003
         42  0.12000000E-003  0.30000000E-003
         43  0.15000000E-003  0.33000000E-003
         44  0.70000000E-004  0.21000000E-003
         45  0.14000000E-003  0.28000000E-003
         46  0.90000000E-004  0.25000000E-003
         47  0.15000000E-003  0.31000000E-003
         48  0.15000000E-003  0.35000000E-003
         49  0.14000000E-003  0.34000000E-003
         50  0.16000000E-003  0.36000000E-003
         51  0.11000000E-003  0.29000000E-003
         52  0.16000000E-003  0.34000000E-003
         53  0.13000000E-003  0.33000000E-003
         54  0.17000000E-003  0.37000000E-003
         55  0.16000000E-003  0.38000000E-003
         56  0.17000000E-003  0.39000000E-003
         57  0.80000000E-004  0.24000000E-003
         58  0.16000000E-003  0.32000000E-003
         59  0.10000000E-003  0.28000000E-003
         60  0.15000000E-003  0.37000000E-003
         61  0.17000000E-003  0.35000000E-003
         62  0.18000000E-003  0.40000000E-003
         63  0.12000000E-003  0.32000000E-003
         64  0.18000000E-003  0.38000000E-003
         65  0.18000000E-003  0.42000000E-003
         66  0.14000000E-003  0.36000000E-003
         67  0.19000000E-003  0.41000000E-003
         68  0.17000000E-003  0.41000000E-003
         69  0.19000000E-003  0.43000000E-003
         70  0.16000000E-003  0.40000000E-003
         71  0.20000000E-003  0.44000000E-003
         72  0.18000000E-003  0.36000000E-003
         73  0.90000000E-004  0.27000000E-003
         74  0.11000000E-003  0.31000000E-003
         75  0.19000000E-003  0.39000000E-003
         76  0.13000000E-003  0.35000000E-003
         77  0.19000000E-003  0.45000000E-003
         78  0.20000000E-003  0.46000000E-003
         79  0.20000000E-003  0.42000000E-003
         80  0.18000000E-003  0.44000000E-003
         81  0.21000000E-003  0.47000000E-003
         82  0.15000000E-003  0.39000000E-003
         83  0.21000000E-003  0.45000000E-003
         84  0.17000000E-003  0.43000000E-003
         85  0.22000000E-003  0.48000000E-003
         86  0.21000000E-003  0.49000000E-003
         87  0.10000000E-003  0.30000000E-003
         88  0.20000000E-003  0.40000000E-003
         89  0.20000000E-003  0.48000000E-003
         90  0.22000000E-003  0.50000000E-003
         91  0.12000000E-003  0.34000000E-003
         92  0.21000000E-003  0.43000000E-003
         93  0.22000000E-003  0.46000000E-003
         94  0.14000000E-003  0.38000000E-003
         95  0.19000000E-003  0.47000000E-003
         96  0.23000000E-003  0.51000000E-003
         97  0.16000000E-003  0.42000000E-003
         98  0.23000000E-003  0.49000000E-003
         99  0.22000000E-003  0.52000000E-003
        100  0.23000000E-003  0.53000000E-003
        101  0.18000000E-003  0.46000000E-003
        102  0.24000000E-003  0.52000000E-003
        103  0.21000000E-003  0.51000000E-003
        104  0.24000000E-003  0.54000000E-003
        105  0.20000000E-003  0.50000000E-003
        106  0.25000000E-003  0.55000000E-003
        107  0.24000000E-003  0.56000000E-003
        108  0.23000000E-003  0.55000000E-003
        109  0.25000000E-003  0.57000000E-003
        110  0.26000000E-003  0.58000000E-003
        111  0.22000000E-003  0.54000000E-003
        112  0.25000000E-003  0.59000000E-003
        113  0.26000000E-003  0.60000000E-003
        114  0.24000000E-003  0.58000000E-003
        115  0.27000000E-003  0.61000000E-003
        116  0.27000000E-003  0.63000000E-003
        117  0.28000000E-003  0.64000000E-003
        118  0.26000000E-003  0.62000000E-003
        119  0.29000000E-003  0.67000000E-003
        120  0.28000000E-003  0.66000000E-003
        121  0.30000000E-003  0.70000000E-003
End values

Result ERROR ALYA  0.10765885E-01 Vector OnNodes
ComponentNames ERROR_X,ERROR_Y,ERROR_Z
Values
          1  0.00000000E+000  0.00000000E+000
          2  0.00000000E+000  0.00000000E+000
          3  0.00000000E+000  0.00000000E+000
          4 -0.57706661E-016 -0.62273862E-016
          5  0.00000000E+000  0.00000000E+000
          6  0.00000000E+000  0.00000000E+000
          7 -0.98099968E-016 -0.85895917E-016
          8 -0.91167850E-016 -0.89785492E-016
          9 -0.15946581E-015 -0.15197804E-015
         10  0.00000000E+000  0.00000000E+000
         11  0.00000000E+000  0.00000000E+000
         12 -0.10532346E-015 -0.10649576E-015
         13 -0.10450354E-015 -0.10121027E-015
         14 -0.19404508E-015 -0.18610330E-015
         15 -0.20251541E-015 -0.18176649E-015
         16  0.00000000E+000  0.00000000E+000
         17  0.00000000E+000  0.00000000E+000
         18 -0.10077659E-015 -0.98797923E-016
         19 -0.11151019E-015 -0.97008989E-016
         20 -0.25855511E-015 -0.24318655E-015
         21 -0.20495487E-015 -0.19905952E-015
         22 -0.21217837E-015 -0.19109063E-015
         23  0.00000000E+000  0.00000000E+000
         24  0.00000000E+000  0.00000000E+000
         25 -0.28847909E-015 -0.26619874E-015
         26 -0.29739666E-015 -0.26503322E-015
         27 -0.80651089E-016 -0.87224065E-016
         28 -0.10393433E-015 -0.73454697E-016
         29 -0.18722816E-015 -0.18707908E-015
         30 -0.20472448E-015 -0.16094981E-015
         31 -0.34470853E-015 -0.31203339E-015
         32 -0.28365439E-015 -0.26828583E-015
         33 -0.29482168E-015 -0.25668486E-015
         34  0.00000000E+000  0.00000000E+000
         35  0.00000000E+000  0.00000000E+000
         36 -0.63100566E-016 -0.71692869E-016
         37 -0.75324946E-016 -0.46566483E-016
         38 -0.15188317E-015 -0.15130041E-015
         39 -0.16593714E-015 -0.13211003E-015
         40 -0.35439859E-015 -0.32157436E-015
         41 -0.34935705E-015 -0.31712914E-015
         42 -0.24382352E-015 -0.22730299E-015
         43 -0.25248358E-015 -0.21694885E-015
         44  0.00000000E+000  0.00000000E+000
         45  0.00000000E+000  0.00000000E+000
         46 -0.35643146E-016 -0.40603371E-016
         47 -0.60362956E-016 -0.26996634E-016
         48 -0.37180003E-015 -0.34363788E-015
         49 -0.31487942E-015 -0.29040355E-015
         50 -0.32114068E-015 -0.29148775E-015
         51 -0.11031757E-015 -0.10901653E-015
         52 -0.11880145E-015 -0.86410913E-016
         53 -0.18946433E-015 -0.16615398E-015
         54 -0.18469384E-015 -0.15655879E-015
         55 -0.35187782E-015 -0.32368856E-015
         56 -0.34870652E-015 -0.32493539E-015
         57  0.00000000E+000  0.00000000E+000
         58  0.00000000E+000  0.00000000E+000
         59 -0.22402327E-016 -0.21087732E-016
         60 -0.24660178E-015 -0.22204460E-015
         61 -0.32526065E-016 -0.14690939E-016
         62 -0.23676265E-015 -0.22676088E-015
         63 -0.65661994E-016 -0.58221657E-016
         64 -0.62721096E-016 -0.54969050E-016
         65 -0.34090027E-015 -0.31620756E-015
         66 -0.11497964E-015 -0.95518211E-016
         67 -0.10543866E-015 -0.97144515E-016
         68 -0.29308695E-015 -0.25836538E-015
         69 -0.27834180E-015 -0.26454533E-015
         70 -0.16604556E-015 -0.13059215E-015
         71 -0.14918622E-015 -0.14680097E-015
         72  0.00000000E+000  0.00000000E+000
         73  0.00000000E+000  0.00000000E+000
         74 -0.13904893E-016  0.37947076E-017
         75 -0.69117888E-017 -0.47162795E-017
         76 -0.32011069E-016 -0.15991982E-016
         77 -0.29018671E-015 -0.26535848E-015
         78 -0.29221959E-015 -0.27625471E-015
         79 -0.21196152E-016 -0.20111950E-016
         80 -0.20477869E-015 -0.17000290E-015
         81 -0.18195623E-015 -0.18924749E-015
         82 -0.51987494E-016 -0.28948198E-016
         83 -0.37486290E-016 -0.48951728E-016
         84 -0.80691747E-016 -0.52746436E-016
         85 -0.61067687E-016 -0.73508907E-016
         86 -0.26140114E-015 -0.24470443E-015
         87  0.00000000E+000  0.00000000E+000
         88  0.00000000E+000  0.00000000E+000
         89 -0.21670491E-015 -0.19141589E-015
         90 -0.19835479E-015 -0.19754164E-015
         91  0.00000000E+000  0.00000000E+000
         92  0.00000000E+000  0.00000000E+000
         93  0.00000000E+000  0.00000000E+000
         94  0.00000000E+000  0.00000000E+000
         95 -0.96683729E-016 -0.76978354E-016
         96 -0.81396478E-016 -0.93458227E-016
         97  0.00000000E+000  0.00000000E+000
         98  0.00000000E+000  0.00000000E+000
         99 -0.20130924E-015 -0.17856810E-015
        100 -0.19363851E-015 -0.19201220E-015
        101  0.00000000E+000  0.00000000E+000
        102  0.00000000E+000  0.00000000E+000
        103 -0.11709383E-015 -0.88470897E-016
        104 -0.93295597E-016 -0.10495077E-015
        105  0.00000000E+000  0.00000000E+000
        106  0.00000000E+000  0.00000000E+000
        107 -0.15943193E-015 -0.15319777E-015
        108 -0.11367860E-015 -0.97144515E-016
        109 -0.10121027E-015 -0.10007186E-015
        110  0.00000000E+000  0.00000000E+000
        111  0.00000000E+000  0.00000000E+000
        112 -0.92699286E-016 -0.87928796E-016
        113 -0.94759270E-016 -0.86194073E-016
        114  0.00000000E+000  0.00000000E+000
        115  0.00000000E+000  0.00000000E+000
        116 -0.69605779E-016 -0.64943710E-016
        117  0.00000000E+000  0.00000000E+000
        118  0.00000000E+000  0.00000000E+000
        119  0.00000000E+000  0.00000000E+000
        120  0.00000000E+000  0.00000000E+000
        121  0.00000000E+000  0.00000000E+000
End values

