# ALYA Lagrangian postprocess  
#
# HEADER
# T , Column :   1
# ILAGR , Column :   2
# ITYPE , Column :   3
# EXIST , Column :   4
# COORX , Column :   5
# COORY , Column :   6
# COORZ , Column :   7
# VELOX , Column :   8
# VELOY , Column :   9
# VELOZ , Column :  10
# DTK , Column :  11
# CD , Column :  12
#               T            ILAGR            ITYPE            EXIST            COORX            COORY            COORZ            VELOX            VELOY            VELOZ              DTK               CD            
  0.00000000E+000                1                1               -5  4.00000000E-001  3.30000000E-001  0.00000000E+000  0.00000000E+000  0.00000000E+000  0.00000000E+000  1.00000000E+000  0.00000000E+000
  1.00000000E+000                1                1               -1  4.00000000E-001  3.30000000E-001  0.00000000E+000  0.00000000E+000  0.00000000E+000  0.00000000E+000  1.00000000E+000  0.00000000E+000
  2.00000000E+000                1                1               -1  4.00000000E-001  3.30000000E-001  0.00000000E+000  0.00000000E+000  0.00000000E+000  0.00000000E+000  1.00000000E+000  0.00000000E+000
  3.00000000E+000                1                1               -1  4.00000000E-001  3.30000000E-001  0.00000000E+000  0.00000000E+000  0.00000000E+000  0.00000000E+000  1.00000000E+000  0.00000000E+000
  4.00000000E+000                1                1               -1  4.00000000E-001  3.30000000E-001  0.00000000E+000  0.00000000E+000  0.00000000E+000  0.00000000E+000  1.00000000E+000  0.00000000E+000
  5.00000000E+000                1                1               -1  4.00000000E-001  3.30000000E-001  0.00000000E+000  0.00000000E+000  0.00000000E+000  0.00000000E+000  1.00000000E+000  0.00000000E+000
  6.00000000E+000                1                1               -1  4.00000000E-001  3.30000000E-001  0.00000000E+000  0.00000000E+000  0.00000000E+000  0.00000000E+000  1.00000000E+000  0.00000000E+000
  7.00000000E+000                1                1               -1  4.00000000E-001  3.30000000E-001  0.00000000E+000  0.00000000E+000  0.00000000E+000  0.00000000E+000  1.00000000E+000  0.00000000E+000
  8.00000000E+000                1                1               -1  4.00000000E-001  3.30000000E-001  0.00000000E+000  0.00000000E+000  0.00000000E+000  0.00000000E+000  1.00000000E+000  0.00000000E+000
  9.00000000E+000                1                1               -1  4.00000000E-001  3.30000000E-001  0.00000000E+000  0.00000000E+000  0.00000000E+000  0.00000000E+000  1.00000000E+000  0.00000000E+000
  1.00000000E+001                1                1               -1  4.00000000E-001  3.30000000E-001  0.00000000E+000  0.00000000E+000  0.00000000E+000  0.00000000E+000  1.00000000E+000  0.00000000E+000
