GiD Post Results File 1.0
 
Result VELOC ALYA  0.00000000E+00 Vector OnNodes
ComponentNames VELOC_X,VELOC_Y,VELOC_Z
Values
          1  0.50000000E+000  0.50000000E+000
          2  0.50000000E+000  0.50000000E+000
          3  0.50000000E+000  0.50000000E+000
          4  0.50000000E+000  0.50000000E+000
          5  0.50000000E+000  0.50000000E+000
          6  0.50000000E+000  0.50000000E+000
          7  0.50000000E+000  0.50000000E+000
          8  0.50000000E+000  0.50000000E+000
          9  0.50000000E+000  0.50000000E+000
         10  0.50000000E+000  0.50000000E+000
         11  0.50000000E+000  0.50000000E+000
         12  0.50000000E+000  0.50000000E+000
         13  0.50000000E+000  0.50000000E+000
         14  0.50000000E+000  0.50000000E+000
         15  0.50000000E+000  0.50000000E+000
         16  0.50000000E+000  0.50000000E+000
         17  0.50000000E+000  0.50000000E+000
         18  0.50000000E+000  0.50000000E+000
         19  0.50000000E+000  0.50000000E+000
         20  0.50000000E+000  0.50000000E+000
         21  0.50000000E+000  0.50000000E+000
         22  0.50000000E+000  0.50000000E+000
         23  0.50000000E+000  0.50000000E+000
         24  0.50000000E+000  0.50000000E+000
         25  0.50000000E+000  0.50000000E+000
         26  0.50000000E+000  0.50000000E+000
         27  0.50000000E+000  0.50000000E+000
         28  0.50000000E+000  0.50000000E+000
         29  0.50000000E+000  0.50000000E+000
         30  0.50000000E+000  0.50000000E+000
         31  0.50000000E+000  0.50000000E+000
         32  0.50000000E+000  0.50000000E+000
         33  0.50000000E+000  0.50000000E+000
         34  0.50000000E+000  0.50000000E+000
         35  0.50000000E+000  0.50000000E+000
         36  0.50000000E+000  0.50000000E+000
         37  0.50000000E+000  0.50000000E+000
         38  0.50000000E+000  0.50000000E+000
         39  0.50000000E+000  0.50000000E+000
         40  0.50000000E+000  0.50000000E+000
         41  0.50000000E+000  0.50000000E+000
         42  0.50000000E+000  0.50000000E+000
         43  0.50000000E+000  0.50000000E+000
         44  0.50000000E+000  0.50000000E+000
         45  0.50000000E+000  0.50000000E+000
         46  0.50000000E+000  0.50000000E+000
         47  0.50000000E+000  0.50000000E+000
         48  0.50000000E+000  0.50000000E+000
         49  0.50000000E+000  0.50000000E+000
         50  0.50000000E+000  0.50000000E+000
         51  0.50000000E+000  0.50000000E+000
         52  0.50000000E+000  0.50000000E+000
         53  0.50000000E+000  0.50000000E+000
         54  0.50000000E+000  0.50000000E+000
         55  0.50000000E+000  0.50000000E+000
         56  0.50000000E+000  0.50000000E+000
         57  0.50000000E+000  0.50000000E+000
         58  0.50000000E+000  0.50000000E+000
         59  0.50000000E+000  0.50000000E+000
         60  0.50000000E+000  0.50000000E+000
         61  0.50000000E+000  0.50000000E+000
         62  0.50000000E+000  0.50000000E+000
         63  0.50000000E+000  0.50000000E+000
         64  0.50000000E+000  0.50000000E+000
         65  0.50000000E+000  0.50000000E+000
         66  0.50000000E+000  0.50000000E+000
         67  0.50000000E+000  0.50000000E+000
         68  0.50000000E+000  0.50000000E+000
         69  0.50000000E+000  0.50000000E+000
         70  0.50000000E+000  0.50000000E+000
         71  0.50000000E+000  0.50000000E+000
         72  0.50000000E+000  0.50000000E+000
         73  0.50000000E+000  0.50000000E+000
         74  0.50000000E+000  0.50000000E+000
         75  0.50000000E+000  0.50000000E+000
         76  0.50000000E+000  0.50000000E+000
         77  0.50000000E+000  0.50000000E+000
         78  0.50000000E+000  0.50000000E+000
         79  0.50000000E+000  0.50000000E+000
         80  0.50000000E+000  0.50000000E+000
         81  0.50000000E+000  0.50000000E+000
         82  0.50000000E+000  0.50000000E+000
         83  0.50000000E+000  0.50000000E+000
         84  0.50000000E+000  0.50000000E+000
         85  0.50000000E+000  0.50000000E+000
         86  0.50000000E+000  0.50000000E+000
         87  0.50000000E+000  0.50000000E+000
         88  0.50000000E+000  0.50000000E+000
         89  0.50000000E+000  0.50000000E+000
         90  0.50000000E+000  0.50000000E+000
         91  0.50000000E+000  0.50000000E+000
         92  0.50000000E+000  0.50000000E+000
         93  0.50000000E+000  0.50000000E+000
         94  0.50000000E+000  0.50000000E+000
         95  0.50000000E+000  0.50000000E+000
         96  0.50000000E+000  0.50000000E+000
         97  0.50000000E+000  0.50000000E+000
         98  0.50000000E+000  0.50000000E+000
         99  0.50000000E+000  0.50000000E+000
        100  0.50000000E+000  0.50000000E+000
        101  0.50000000E+000  0.50000000E+000
        102  0.50000000E+000  0.50000000E+000
        103  0.50000000E+000  0.50000000E+000
        104  0.50000000E+000  0.50000000E+000
        105  0.50000000E+000  0.50000000E+000
        106  0.50000000E+000  0.50000000E+000
        107  0.50000000E+000  0.50000000E+000
        108  0.50000000E+000  0.50000000E+000
        109  0.50000000E+000  0.50000000E+000
        110  0.50000000E+000  0.50000000E+000
        111  0.50000000E+000  0.50000000E+000
        112  0.50000000E+000  0.50000000E+000
        113  0.50000000E+000  0.50000000E+000
        114  0.50000000E+000  0.50000000E+000
        115  0.50000000E+000  0.50000000E+000
        116  0.50000000E+000  0.50000000E+000
        117  0.50000000E+000  0.50000000E+000
        118  0.50000000E+000  0.50000000E+000
        119  0.50000000E+000  0.50000000E+000
        120  0.50000000E+000  0.50000000E+000
        121  0.50000000E+000  0.50000000E+000
        122  0.50000000E+000  0.50000000E+000
        123  0.50000000E+000  0.50000000E+000
        124  0.50000000E+000  0.50000000E+000
        125  0.50000000E+000  0.50000000E+000
        126  0.50000000E+000  0.50000000E+000
        127  0.50000000E+000  0.50000000E+000
        128  0.50000000E+000  0.50000000E+000
        129  0.50000000E+000  0.50000000E+000
        130  0.50000000E+000  0.50000000E+000
        131  0.50000000E+000  0.50000000E+000
        132  0.50000000E+000  0.50000000E+000
        133  0.50000000E+000  0.50000000E+000
        134  0.50000000E+000  0.50000000E+000
        135  0.50000000E+000  0.50000000E+000
        136  0.50000000E+000  0.50000000E+000
        137  0.50000000E+000  0.50000000E+000
        138  0.50000000E+000  0.50000000E+000
        139  0.50000000E+000  0.50000000E+000
        140  0.50000000E+000  0.50000000E+000
        141  0.50000000E+000  0.50000000E+000
        142  0.50000000E+000  0.50000000E+000
        143  0.50000000E+000  0.50000000E+000
        144  0.50000000E+000  0.50000000E+000
        145  0.50000000E+000  0.50000000E+000
        146  0.50000000E+000  0.50000000E+000
        147  0.50000000E+000  0.50000000E+000
        148  0.50000000E+000  0.50000000E+000
        149  0.50000000E+000  0.50000000E+000
        150  0.50000000E+000  0.50000000E+000
        151  0.50000000E+000  0.50000000E+000
        152  0.50000000E+000  0.50000000E+000
        153  0.50000000E+000  0.50000000E+000
        154  0.50000000E+000  0.50000000E+000
        155  0.50000000E+000  0.50000000E+000
        156  0.50000000E+000  0.50000000E+000
        157  0.50000000E+000  0.50000000E+000
        158  0.50000000E+000  0.50000000E+000
        159  0.50000000E+000  0.50000000E+000
        160  0.50000000E+000  0.50000000E+000
        161  0.50000000E+000  0.50000000E+000
        162  0.50000000E+000  0.50000000E+000
        163  0.50000000E+000  0.50000000E+000
        164  0.50000000E+000  0.50000000E+000
        165  0.50000000E+000  0.50000000E+000
        166  0.50000000E+000  0.50000000E+000
        167  0.50000000E+000  0.50000000E+000
        168  0.50000000E+000  0.50000000E+000
        169  0.50000000E+000  0.50000000E+000
        170  0.50000000E+000  0.50000000E+000
        171  0.50000000E+000  0.50000000E+000
        172  0.50000000E+000  0.50000000E+000
        173  0.50000000E+000  0.50000000E+000
        174  0.50000000E+000  0.50000000E+000
        175  0.50000000E+000  0.50000000E+000
        176  0.50000000E+000  0.50000000E+000
        177  0.50000000E+000  0.50000000E+000
        178  0.50000000E+000  0.50000000E+000
        179  0.50000000E+000  0.50000000E+000
        180  0.50000000E+000  0.50000000E+000
        181  0.50000000E+000  0.50000000E+000
        182  0.50000000E+000  0.50000000E+000
        183  0.50000000E+000  0.50000000E+000
        184  0.50000000E+000  0.50000000E+000
        185  0.50000000E+000  0.50000000E+000
        186  0.50000000E+000  0.50000000E+000
        187  0.50000000E+000  0.50000000E+000
        188  0.50000000E+000  0.50000000E+000
        189  0.50000000E+000  0.50000000E+000
        190  0.50000000E+000  0.50000000E+000
        191  0.50000000E+000  0.50000000E+000
        192  0.50000000E+000  0.50000000E+000
        193  0.50000000E+000  0.50000000E+000
        194  0.50000000E+000  0.50000000E+000
        195  0.50000000E+000  0.50000000E+000
        196  0.50000000E+000  0.50000000E+000
        197  0.50000000E+000  0.50000000E+000
        198  0.50000000E+000  0.50000000E+000
        199  0.50000000E+000  0.50000000E+000
        200  0.50000000E+000  0.50000000E+000
        201  0.50000000E+000  0.50000000E+000
        202  0.50000000E+000  0.50000000E+000
        203  0.50000000E+000  0.50000000E+000
        204  0.50000000E+000  0.50000000E+000
        205  0.50000000E+000  0.50000000E+000
        206  0.50000000E+000  0.50000000E+000
        207  0.50000000E+000  0.50000000E+000
        208  0.50000000E+000  0.50000000E+000
        209  0.50000000E+000  0.50000000E+000
        210  0.50000000E+000  0.50000000E+000
        211  0.50000000E+000  0.50000000E+000
        212  0.50000000E+000  0.50000000E+000
        213  0.50000000E+000  0.50000000E+000
        214  0.50000000E+000  0.50000000E+000
        215  0.50000000E+000  0.50000000E+000
        216  0.50000000E+000  0.50000000E+000
        217  0.50000000E+000  0.50000000E+000
        218  0.50000000E+000  0.50000000E+000
        219  0.50000000E+000  0.50000000E+000
        220  0.50000000E+000  0.50000000E+000
        221  0.50000000E+000  0.50000000E+000
        222  0.50000000E+000  0.50000000E+000
        223  0.50000000E+000  0.50000000E+000
        224  0.50000000E+000  0.50000000E+000
        225  0.50000000E+000  0.50000000E+000
        226  0.50000000E+000  0.50000000E+000
        227  0.50000000E+000  0.50000000E+000
        228  0.50000000E+000  0.50000000E+000
        229  0.50000000E+000  0.50000000E+000
        230  0.50000000E+000  0.50000000E+000
        231  0.50000000E+000  0.50000000E+000
        232  0.50000000E+000  0.50000000E+000
        233  0.50000000E+000  0.50000000E+000
        234  0.50000000E+000  0.50000000E+000
        235  0.50000000E+000  0.50000000E+000
        236  0.50000000E+000  0.50000000E+000
        237  0.50000000E+000  0.50000000E+000
        238  0.50000000E+000  0.50000000E+000
        239  0.50000000E+000  0.50000000E+000
        240  0.50000000E+000  0.50000000E+000
        241  0.50000000E+000  0.50000000E+000
        242  0.50000000E+000  0.50000000E+000
        243  0.50000000E+000  0.50000000E+000
        244  0.50000000E+000  0.50000000E+000
        245  0.50000000E+000  0.50000000E+000
        246  0.50000000E+000  0.50000000E+000
        247  0.50000000E+000  0.50000000E+000
        248  0.50000000E+000  0.50000000E+000
        249  0.50000000E+000  0.50000000E+000
        250  0.50000000E+000  0.50000000E+000
        251  0.50000000E+000  0.50000000E+000
        252  0.50000000E+000  0.50000000E+000
        253  0.50000000E+000  0.50000000E+000
        254  0.50000000E+000  0.50000000E+000
        255  0.50000000E+000  0.50000000E+000
        256  0.50000000E+000  0.50000000E+000
        257  0.50000000E+000  0.50000000E+000
        258  0.50000000E+000  0.50000000E+000
        259  0.50000000E+000  0.50000000E+000
        260  0.50000000E+000  0.50000000E+000
        261  0.50000000E+000  0.50000000E+000
        262  0.50000000E+000  0.50000000E+000
        263  0.50000000E+000  0.50000000E+000
        264  0.50000000E+000  0.50000000E+000
        265  0.50000000E+000  0.50000000E+000
        266  0.50000000E+000  0.50000000E+000
        267  0.50000000E+000  0.50000000E+000
        268  0.50000000E+000  0.50000000E+000
        269  0.50000000E+000  0.50000000E+000
        270  0.50000000E+000  0.50000000E+000
        271  0.50000000E+000  0.50000000E+000
        272  0.50000000E+000  0.50000000E+000
        273  0.50000000E+000  0.50000000E+000
        274  0.50000000E+000  0.50000000E+000
        275  0.50000000E+000  0.50000000E+000
        276  0.50000000E+000  0.50000000E+000
        277  0.50000000E+000  0.50000000E+000
        278  0.50000000E+000  0.50000000E+000
        279  0.50000000E+000  0.50000000E+000
        280  0.50000000E+000  0.50000000E+000
        281  0.50000000E+000  0.50000000E+000
        282  0.50000000E+000  0.50000000E+000
        283  0.50000000E+000  0.50000000E+000
        284  0.50000000E+000  0.50000000E+000
        285  0.50000000E+000  0.50000000E+000
        286  0.50000000E+000  0.50000000E+000
        287  0.50000000E+000  0.50000000E+000
        288  0.50000000E+000  0.50000000E+000
        289  0.50000000E+000  0.50000000E+000
        290  0.50000000E+000  0.50000000E+000
        291  0.50000000E+000  0.50000000E+000
        292  0.50000000E+000  0.50000000E+000
        293  0.50000000E+000  0.50000000E+000
        294  0.50000000E+000  0.50000000E+000
        295  0.50000000E+000  0.50000000E+000
        296  0.50000000E+000  0.50000000E+000
        297  0.50000000E+000  0.50000000E+000
        298  0.50000000E+000  0.50000000E+000
        299  0.50000000E+000  0.50000000E+000
        300  0.50000000E+000  0.50000000E+000
        301  0.50000000E+000  0.50000000E+000
        302  0.50000000E+000  0.50000000E+000
        303  0.50000000E+000  0.50000000E+000
        304  0.50000000E+000  0.50000000E+000
        305  0.50000000E+000  0.50000000E+000
        306  0.50000000E+000  0.50000000E+000
        307  0.50000000E+000  0.50000000E+000
        308  0.50000000E+000  0.50000000E+000
        309  0.50000000E+000  0.50000000E+000
        310  0.50000000E+000  0.50000000E+000
        311  0.50000000E+000  0.50000000E+000
        312  0.50000000E+000  0.50000000E+000
        313  0.50000000E+000  0.50000000E+000
        314  0.50000000E+000  0.50000000E+000
        315  0.50000000E+000  0.50000000E+000
        316  0.50000000E+000  0.50000000E+000
        317  0.50000000E+000  0.50000000E+000
        318  0.50000000E+000  0.50000000E+000
        319  0.50000000E+000  0.50000000E+000
        320  0.50000000E+000  0.50000000E+000
        321  0.50000000E+000  0.50000000E+000
        322  0.50000000E+000  0.50000000E+000
        323  0.50000000E+000  0.50000000E+000
        324  0.50000000E+000  0.50000000E+000
        325  0.50000000E+000  0.50000000E+000
        326  0.50000000E+000  0.50000000E+000
        327  0.50000000E+000  0.50000000E+000
        328  0.50000000E+000  0.50000000E+000
        329  0.50000000E+000  0.50000000E+000
        330  0.50000000E+000  0.50000000E+000
        331  0.50000000E+000  0.50000000E+000
        332  0.50000000E+000  0.50000000E+000
        333  0.50000000E+000  0.50000000E+000
        334  0.50000000E+000  0.50000000E+000
        335  0.50000000E+000  0.50000000E+000
        336  0.50000000E+000  0.50000000E+000
        337  0.50000000E+000  0.50000000E+000
        338  0.50000000E+000  0.50000000E+000
        339  0.50000000E+000  0.50000000E+000
        340  0.50000000E+000  0.50000000E+000
        341  0.50000000E+000  0.50000000E+000
        342  0.50000000E+000  0.50000000E+000
        343  0.50000000E+000  0.50000000E+000
        344  0.50000000E+000  0.50000000E+000
        345  0.50000000E+000  0.50000000E+000
        346  0.50000000E+000  0.50000000E+000
        347  0.50000000E+000  0.50000000E+000
        348  0.50000000E+000  0.50000000E+000
        349  0.50000000E+000  0.50000000E+000
        350  0.50000000E+000  0.50000000E+000
        351  0.50000000E+000  0.50000000E+000
        352  0.50000000E+000  0.50000000E+000
        353  0.50000000E+000  0.50000000E+000
        354  0.50000000E+000  0.50000000E+000
        355  0.50000000E+000  0.50000000E+000
        356  0.50000000E+000  0.50000000E+000
        357  0.50000000E+000  0.50000000E+000
        358  0.50000000E+000  0.50000000E+000
        359  0.50000000E+000  0.50000000E+000
        360  0.50000000E+000  0.50000000E+000
        361  0.50000000E+000  0.50000000E+000
        362  0.50000000E+000  0.50000000E+000
        363  0.50000000E+000  0.50000000E+000
        364  0.50000000E+000  0.50000000E+000
        365  0.50000000E+000  0.50000000E+000
        366  0.50000000E+000  0.50000000E+000
        367  0.50000000E+000  0.50000000E+000
        368  0.50000000E+000  0.50000000E+000
        369  0.50000000E+000  0.50000000E+000
        370  0.50000000E+000  0.50000000E+000
        371  0.50000000E+000  0.50000000E+000
        372  0.50000000E+000  0.50000000E+000
        373  0.50000000E+000  0.50000000E+000
        374  0.50000000E+000  0.50000000E+000
        375  0.50000000E+000  0.50000000E+000
        376  0.50000000E+000  0.50000000E+000
        377  0.50000000E+000  0.50000000E+000
        378  0.50000000E+000  0.50000000E+000
        379  0.50000000E+000  0.50000000E+000
        380  0.50000000E+000  0.50000000E+000
        381  0.50000000E+000  0.50000000E+000
        382  0.50000000E+000  0.50000000E+000
        383  0.50000000E+000  0.50000000E+000
        384  0.50000000E+000  0.50000000E+000
        385  0.50000000E+000  0.50000000E+000
        386  0.50000000E+000  0.50000000E+000
        387  0.50000000E+000  0.50000000E+000
        388  0.50000000E+000  0.50000000E+000
        389  0.50000000E+000  0.50000000E+000
        390  0.50000000E+000  0.50000000E+000
        391  0.50000000E+000  0.50000000E+000
        392  0.50000000E+000  0.50000000E+000
        393  0.50000000E+000  0.50000000E+000
        394  0.50000000E+000  0.50000000E+000
        395  0.50000000E+000  0.50000000E+000
        396  0.50000000E+000  0.50000000E+000
        397  0.50000000E+000  0.50000000E+000
        398  0.50000000E+000  0.50000000E+000
        399  0.50000000E+000  0.50000000E+000
        400  0.50000000E+000  0.50000000E+000
        401  0.50000000E+000  0.50000000E+000
        402  0.50000000E+000  0.50000000E+000
        403  0.50000000E+000  0.50000000E+000
        404  0.50000000E+000  0.50000000E+000
        405  0.50000000E+000  0.50000000E+000
        406  0.50000000E+000  0.50000000E+000
        407  0.50000000E+000  0.50000000E+000
        408  0.50000000E+000  0.50000000E+000
        409  0.50000000E+000  0.50000000E+000
        410  0.50000000E+000  0.50000000E+000
        411  0.50000000E+000  0.50000000E+000
        412  0.50000000E+000  0.50000000E+000
        413  0.50000000E+000  0.50000000E+000
        414  0.50000000E+000  0.50000000E+000
        415  0.50000000E+000  0.50000000E+000
        416  0.50000000E+000  0.50000000E+000
        417  0.50000000E+000  0.50000000E+000
        418  0.50000000E+000  0.50000000E+000
        419  0.50000000E+000  0.50000000E+000
        420  0.50000000E+000  0.50000000E+000
        421  0.50000000E+000  0.50000000E+000
        422  0.50000000E+000  0.50000000E+000
        423  0.50000000E+000  0.50000000E+000
        424  0.50000000E+000  0.50000000E+000
        425  0.50000000E+000  0.50000000E+000
        426  0.50000000E+000  0.50000000E+000
        427  0.50000000E+000  0.50000000E+000
        428  0.50000000E+000  0.50000000E+000
        429  0.50000000E+000  0.50000000E+000
        430  0.50000000E+000  0.50000000E+000
        431  0.50000000E+000  0.50000000E+000
        432  0.50000000E+000  0.50000000E+000
        433  0.50000000E+000  0.50000000E+000
        434  0.50000000E+000  0.50000000E+000
        435  0.50000000E+000  0.50000000E+000
        436  0.50000000E+000  0.50000000E+000
        437  0.50000000E+000  0.50000000E+000
        438  0.50000000E+000  0.50000000E+000
        439  0.50000000E+000  0.50000000E+000
        440  0.50000000E+000  0.50000000E+000
        441  0.50000000E+000  0.50000000E+000
End values

Result PRESS ALYA  0.00000000E+00 Scalar OnNodes
ComponentNames PRESS
Values
          1  0.00000000E+000
          2  0.00000000E+000
          3  0.00000000E+000
          4  0.00000000E+000
          5  0.00000000E+000
          6  0.00000000E+000
          7  0.00000000E+000
          8  0.00000000E+000
          9  0.00000000E+000
         10  0.00000000E+000
         11  0.00000000E+000
         12  0.00000000E+000
         13  0.00000000E+000
         14  0.00000000E+000
         15  0.00000000E+000
         16  0.00000000E+000
         17  0.00000000E+000
         18  0.00000000E+000
         19  0.00000000E+000
         20  0.00000000E+000
         21  0.00000000E+000
         22  0.00000000E+000
         23  0.00000000E+000
         24  0.00000000E+000
         25  0.00000000E+000
         26  0.00000000E+000
         27  0.00000000E+000
         28  0.00000000E+000
         29  0.00000000E+000
         30  0.00000000E+000
         31  0.00000000E+000
         32  0.00000000E+000
         33  0.00000000E+000
         34  0.00000000E+000
         35  0.00000000E+000
         36  0.00000000E+000
         37  0.00000000E+000
         38  0.00000000E+000
         39  0.00000000E+000
         40  0.00000000E+000
         41  0.00000000E+000
         42  0.00000000E+000
         43  0.00000000E+000
         44  0.00000000E+000
         45  0.00000000E+000
         46  0.00000000E+000
         47  0.00000000E+000
         48  0.00000000E+000
         49  0.00000000E+000
         50  0.00000000E+000
         51  0.00000000E+000
         52  0.00000000E+000
         53  0.00000000E+000
         54  0.00000000E+000
         55  0.00000000E+000
         56  0.00000000E+000
         57  0.00000000E+000
         58  0.00000000E+000
         59  0.00000000E+000
         60  0.00000000E+000
         61  0.00000000E+000
         62  0.00000000E+000
         63  0.00000000E+000
         64  0.00000000E+000
         65  0.00000000E+000
         66  0.00000000E+000
         67  0.00000000E+000
         68  0.00000000E+000
         69  0.00000000E+000
         70  0.00000000E+000
         71  0.00000000E+000
         72  0.00000000E+000
         73  0.00000000E+000
         74  0.00000000E+000
         75  0.00000000E+000
         76  0.00000000E+000
         77  0.00000000E+000
         78  0.00000000E+000
         79  0.00000000E+000
         80  0.00000000E+000
         81  0.00000000E+000
         82  0.00000000E+000
         83  0.00000000E+000
         84  0.00000000E+000
         85  0.00000000E+000
         86  0.00000000E+000
         87  0.00000000E+000
         88  0.00000000E+000
         89  0.00000000E+000
         90  0.00000000E+000
         91  0.00000000E+000
         92  0.00000000E+000
         93  0.00000000E+000
         94  0.00000000E+000
         95  0.00000000E+000
         96  0.00000000E+000
         97  0.00000000E+000
         98  0.00000000E+000
         99  0.00000000E+000
        100  0.00000000E+000
        101  0.00000000E+000
        102  0.00000000E+000
        103  0.00000000E+000
        104  0.00000000E+000
        105  0.00000000E+000
        106  0.00000000E+000
        107  0.00000000E+000
        108  0.00000000E+000
        109  0.00000000E+000
        110  0.00000000E+000
        111  0.00000000E+000
        112  0.00000000E+000
        113  0.00000000E+000
        114  0.00000000E+000
        115  0.00000000E+000
        116  0.00000000E+000
        117  0.00000000E+000
        118  0.00000000E+000
        119  0.00000000E+000
        120  0.00000000E+000
        121  0.00000000E+000
        122  0.00000000E+000
        123  0.00000000E+000
        124  0.00000000E+000
        125  0.00000000E+000
        126  0.00000000E+000
        127  0.00000000E+000
        128  0.00000000E+000
        129  0.00000000E+000
        130  0.00000000E+000
        131  0.00000000E+000
        132  0.00000000E+000
        133  0.00000000E+000
        134  0.00000000E+000
        135  0.00000000E+000
        136  0.00000000E+000
        137  0.00000000E+000
        138  0.00000000E+000
        139  0.00000000E+000
        140  0.00000000E+000
        141  0.00000000E+000
        142  0.00000000E+000
        143  0.00000000E+000
        144  0.00000000E+000
        145  0.00000000E+000
        146  0.00000000E+000
        147  0.00000000E+000
        148  0.00000000E+000
        149  0.00000000E+000
        150  0.00000000E+000
        151  0.00000000E+000
        152  0.00000000E+000
        153  0.00000000E+000
        154  0.00000000E+000
        155  0.00000000E+000
        156  0.00000000E+000
        157  0.00000000E+000
        158  0.00000000E+000
        159  0.00000000E+000
        160  0.00000000E+000
        161  0.00000000E+000
        162  0.00000000E+000
        163  0.00000000E+000
        164  0.00000000E+000
        165  0.00000000E+000
        166  0.00000000E+000
        167  0.00000000E+000
        168  0.00000000E+000
        169  0.00000000E+000
        170  0.00000000E+000
        171  0.00000000E+000
        172  0.00000000E+000
        173  0.00000000E+000
        174  0.00000000E+000
        175  0.00000000E+000
        176  0.00000000E+000
        177  0.00000000E+000
        178  0.00000000E+000
        179  0.00000000E+000
        180  0.00000000E+000
        181  0.00000000E+000
        182  0.00000000E+000
        183  0.00000000E+000
        184  0.00000000E+000
        185  0.00000000E+000
        186  0.00000000E+000
        187  0.00000000E+000
        188  0.00000000E+000
        189  0.00000000E+000
        190  0.00000000E+000
        191  0.00000000E+000
        192  0.00000000E+000
        193  0.00000000E+000
        194  0.00000000E+000
        195  0.00000000E+000
        196  0.00000000E+000
        197  0.00000000E+000
        198  0.00000000E+000
        199  0.00000000E+000
        200  0.00000000E+000
        201  0.00000000E+000
        202  0.00000000E+000
        203  0.00000000E+000
        204  0.00000000E+000
        205  0.00000000E+000
        206  0.00000000E+000
        207  0.00000000E+000
        208  0.00000000E+000
        209  0.00000000E+000
        210  0.00000000E+000
        211  0.00000000E+000
        212  0.00000000E+000
        213  0.00000000E+000
        214  0.00000000E+000
        215  0.00000000E+000
        216  0.00000000E+000
        217  0.00000000E+000
        218  0.00000000E+000
        219  0.00000000E+000
        220  0.00000000E+000
        221  0.00000000E+000
        222  0.00000000E+000
        223  0.00000000E+000
        224  0.00000000E+000
        225  0.00000000E+000
        226  0.00000000E+000
        227  0.00000000E+000
        228  0.00000000E+000
        229  0.00000000E+000
        230  0.00000000E+000
        231  0.00000000E+000
        232  0.00000000E+000
        233  0.00000000E+000
        234  0.00000000E+000
        235  0.00000000E+000
        236  0.00000000E+000
        237  0.00000000E+000
        238  0.00000000E+000
        239  0.00000000E+000
        240  0.00000000E+000
        241  0.00000000E+000
        242  0.00000000E+000
        243  0.00000000E+000
        244  0.00000000E+000
        245  0.00000000E+000
        246  0.00000000E+000
        247  0.00000000E+000
        248  0.00000000E+000
        249  0.00000000E+000
        250  0.00000000E+000
        251  0.00000000E+000
        252  0.00000000E+000
        253  0.00000000E+000
        254  0.00000000E+000
        255  0.00000000E+000
        256  0.00000000E+000
        257  0.00000000E+000
        258  0.00000000E+000
        259  0.00000000E+000
        260  0.00000000E+000
        261  0.00000000E+000
        262  0.00000000E+000
        263  0.00000000E+000
        264  0.00000000E+000
        265  0.00000000E+000
        266  0.00000000E+000
        267  0.00000000E+000
        268  0.00000000E+000
        269  0.00000000E+000
        270  0.00000000E+000
        271  0.00000000E+000
        272  0.00000000E+000
        273  0.00000000E+000
        274  0.00000000E+000
        275  0.00000000E+000
        276  0.00000000E+000
        277  0.00000000E+000
        278  0.00000000E+000
        279  0.00000000E+000
        280  0.00000000E+000
        281  0.00000000E+000
        282  0.00000000E+000
        283  0.00000000E+000
        284  0.00000000E+000
        285  0.00000000E+000
        286  0.00000000E+000
        287  0.00000000E+000
        288  0.00000000E+000
        289  0.00000000E+000
        290  0.00000000E+000
        291  0.00000000E+000
        292  0.00000000E+000
        293  0.00000000E+000
        294  0.00000000E+000
        295  0.00000000E+000
        296  0.00000000E+000
        297  0.00000000E+000
        298  0.00000000E+000
        299  0.00000000E+000
        300  0.00000000E+000
        301  0.00000000E+000
        302  0.00000000E+000
        303  0.00000000E+000
        304  0.00000000E+000
        305  0.00000000E+000
        306  0.00000000E+000
        307  0.00000000E+000
        308  0.00000000E+000
        309  0.00000000E+000
        310  0.00000000E+000
        311  0.00000000E+000
        312  0.00000000E+000
        313  0.00000000E+000
        314  0.00000000E+000
        315  0.00000000E+000
        316  0.00000000E+000
        317  0.00000000E+000
        318  0.00000000E+000
        319  0.00000000E+000
        320  0.00000000E+000
        321  0.00000000E+000
        322  0.00000000E+000
        323  0.00000000E+000
        324  0.00000000E+000
        325  0.00000000E+000
        326  0.00000000E+000
        327  0.00000000E+000
        328  0.00000000E+000
        329  0.00000000E+000
        330  0.00000000E+000
        331  0.00000000E+000
        332  0.00000000E+000
        333  0.00000000E+000
        334  0.00000000E+000
        335  0.00000000E+000
        336  0.00000000E+000
        337  0.00000000E+000
        338  0.00000000E+000
        339  0.00000000E+000
        340  0.00000000E+000
        341  0.00000000E+000
        342  0.00000000E+000
        343  0.00000000E+000
        344  0.00000000E+000
        345  0.00000000E+000
        346  0.00000000E+000
        347  0.00000000E+000
        348  0.00000000E+000
        349  0.00000000E+000
        350  0.00000000E+000
        351  0.00000000E+000
        352  0.00000000E+000
        353  0.00000000E+000
        354  0.00000000E+000
        355  0.00000000E+000
        356  0.00000000E+000
        357  0.00000000E+000
        358  0.00000000E+000
        359  0.00000000E+000
        360  0.00000000E+000
        361  0.00000000E+000
        362  0.00000000E+000
        363  0.00000000E+000
        364  0.00000000E+000
        365  0.00000000E+000
        366  0.00000000E+000
        367  0.00000000E+000
        368  0.00000000E+000
        369  0.00000000E+000
        370  0.00000000E+000
        371  0.00000000E+000
        372  0.00000000E+000
        373  0.00000000E+000
        374  0.00000000E+000
        375  0.00000000E+000
        376  0.00000000E+000
        377  0.00000000E+000
        378  0.00000000E+000
        379  0.00000000E+000
        380  0.00000000E+000
        381  0.00000000E+000
        382  0.00000000E+000
        383  0.00000000E+000
        384  0.00000000E+000
        385  0.00000000E+000
        386  0.00000000E+000
        387  0.00000000E+000
        388  0.00000000E+000
        389  0.00000000E+000
        390  0.00000000E+000
        391  0.00000000E+000
        392  0.00000000E+000
        393  0.00000000E+000
        394  0.00000000E+000
        395  0.00000000E+000
        396  0.00000000E+000
        397  0.00000000E+000
        398  0.00000000E+000
        399  0.00000000E+000
        400  0.00000000E+000
        401  0.00000000E+000
        402  0.00000000E+000
        403  0.00000000E+000
        404  0.00000000E+000
        405  0.00000000E+000
        406  0.00000000E+000
        407  0.00000000E+000
        408  0.00000000E+000
        409  0.00000000E+000
        410  0.00000000E+000
        411  0.00000000E+000
        412  0.00000000E+000
        413  0.00000000E+000
        414  0.00000000E+000
        415  0.00000000E+000
        416  0.00000000E+000
        417  0.00000000E+000
        418  0.00000000E+000
        419  0.00000000E+000
        420  0.00000000E+000
        421  0.00000000E+000
        422  0.00000000E+000
        423  0.00000000E+000
        424  0.00000000E+000
        425  0.00000000E+000
        426  0.00000000E+000
        427  0.00000000E+000
        428  0.00000000E+000
        429  0.00000000E+000
        430  0.00000000E+000
        431  0.00000000E+000
        432  0.00000000E+000
        433  0.00000000E+000
        434  0.00000000E+000
        435  0.00000000E+000
        436  0.00000000E+000
        437  0.00000000E+000
        438  0.00000000E+000
        439  0.00000000E+000
        440  0.00000000E+000
        441  0.00000000E+000
End values

Result VELOC ALYA  0.60000000E-02 Vector OnNodes
ComponentNames VELOC_X,VELOC_Y,VELOC_Z
Values
          1  0.50000000E+000  0.50000000E+000
          2  0.50000000E+000  0.50000000E+000
          3  0.50000000E+000  0.50000000E+000
          4  0.50000000E+000  0.50000000E+000
          5  0.50000000E+000  0.50000000E+000
          6  0.50000000E+000  0.50000000E+000
          7  0.50000000E+000  0.50000000E+000
          8  0.50000000E+000  0.50000000E+000
          9  0.50000000E+000  0.50000000E+000
         10  0.50000000E+000  0.50000000E+000
         11  0.50000000E+000  0.50000000E+000
         12  0.50000000E+000  0.50000000E+000
         13  0.50000000E+000  0.50000000E+000
         14  0.50000000E+000  0.50000000E+000
         15  0.50000000E+000  0.50000000E+000
         16  0.50000000E+000  0.50000000E+000
         17  0.50000000E+000  0.50000000E+000
         18  0.50000000E+000  0.50000000E+000
         19  0.50000000E+000  0.50000000E+000
         20  0.50000000E+000  0.50000000E+000
         21  0.50000000E+000  0.50000000E+000
         22  0.50000000E+000  0.50000000E+000
         23  0.50000000E+000  0.50000000E+000
         24  0.50000000E+000  0.50000000E+000
         25  0.50000000E+000  0.50000000E+000
         26  0.50000000E+000  0.50000000E+000
         27  0.50000000E+000  0.50000000E+000
         28  0.50000000E+000  0.50000000E+000
         29  0.50000000E+000  0.50000000E+000
         30  0.50000000E+000  0.50000000E+000
         31  0.50000000E+000  0.50000000E+000
         32  0.50000000E+000  0.50000000E+000
         33  0.50000000E+000  0.50000000E+000
         34  0.50000000E+000  0.50000000E+000
         35  0.50000000E+000  0.50000000E+000
         36  0.50000000E+000  0.50000000E+000
         37  0.50000000E+000  0.50000000E+000
         38  0.50000000E+000  0.50000000E+000
         39  0.50000000E+000  0.50000000E+000
         40  0.50000000E+000  0.50000000E+000
         41  0.50000000E+000  0.50000000E+000
         42  0.50000000E+000  0.50000000E+000
         43  0.50000000E+000  0.50000000E+000
         44  0.50000000E+000  0.50000000E+000
         45  0.50000000E+000  0.50000000E+000
         46  0.50000000E+000  0.50000000E+000
         47  0.50000000E+000  0.50000000E+000
         48  0.50000000E+000  0.50000000E+000
         49  0.50000000E+000  0.50000000E+000
         50  0.50000000E+000  0.50000000E+000
         51  0.50000000E+000  0.50000000E+000
         52  0.50000000E+000  0.50000000E+000
         53  0.50000000E+000  0.50000000E+000
         54  0.50000000E+000  0.50000000E+000
         55  0.50000000E+000  0.50000000E+000
         56  0.50000000E+000  0.50000000E+000
         57  0.50000000E+000  0.50000000E+000
         58  0.50000000E+000  0.50000000E+000
         59  0.50000000E+000  0.50000000E+000
         60  0.50000000E+000  0.50000000E+000
         61  0.50000000E+000  0.50000000E+000
         62  0.50000000E+000  0.50000000E+000
         63  0.50000000E+000  0.50000000E+000
         64  0.50000000E+000  0.50000000E+000
         65  0.50000000E+000  0.50000000E+000
         66  0.50000000E+000  0.50000000E+000
         67  0.50000000E+000  0.50000000E+000
         68  0.50000000E+000  0.50000000E+000
         69  0.50000000E+000  0.50000000E+000
         70  0.50000000E+000  0.50000000E+000
         71  0.50000000E+000  0.50000000E+000
         72  0.50000000E+000  0.50000000E+000
         73  0.50000000E+000  0.50000000E+000
         74  0.50000000E+000  0.50000000E+000
         75  0.50000000E+000  0.50000000E+000
         76  0.50000000E+000  0.50000000E+000
         77  0.50000000E+000  0.50000000E+000
         78  0.50000000E+000  0.50000000E+000
         79  0.50000000E+000  0.50000000E+000
         80  0.50000000E+000  0.50000000E+000
         81  0.50000000E+000  0.50000000E+000
         82  0.50000000E+000  0.50000000E+000
         83  0.50000000E+000  0.50000000E+000
         84  0.50000000E+000  0.50000000E+000
         85  0.50000000E+000  0.50000000E+000
         86  0.50000000E+000  0.50000000E+000
         87  0.50000000E+000  0.50000000E+000
         88  0.50000000E+000  0.50000000E+000
         89  0.50000000E+000  0.50000000E+000
         90  0.50000000E+000  0.50000000E+000
         91  0.50000000E+000  0.50000000E+000
         92  0.50000000E+000  0.50000000E+000
         93  0.50000000E+000  0.50000000E+000
         94  0.50000000E+000  0.50000000E+000
         95  0.50000000E+000  0.50000000E+000
         96  0.50000000E+000  0.50000000E+000
         97  0.50000000E+000  0.50000000E+000
         98  0.50000000E+000  0.50000000E+000
         99  0.50000000E+000  0.50000000E+000
        100  0.50000000E+000  0.50000000E+000
        101  0.50000000E+000  0.50000000E+000
        102  0.50000000E+000  0.50000000E+000
        103  0.50000000E+000  0.50000000E+000
        104  0.50000000E+000  0.50000000E+000
        105  0.50000000E+000  0.50000000E+000
        106  0.50000000E+000  0.50000000E+000
        107  0.50000000E+000  0.50000000E+000
        108  0.50000000E+000  0.50000000E+000
        109  0.50000000E+000  0.50000000E+000
        110  0.50000000E+000  0.50000000E+000
        111  0.50000000E+000  0.50000000E+000
        112  0.50000000E+000  0.50000000E+000
        113  0.50000000E+000  0.50000000E+000
        114  0.50000000E+000  0.50000000E+000
        115  0.50000000E+000  0.50000000E+000
        116  0.50000000E+000  0.50000000E+000
        117  0.50000000E+000  0.50000000E+000
        118  0.50000000E+000  0.50000000E+000
        119  0.50000000E+000  0.50000000E+000
        120  0.50000000E+000  0.50000000E+000
        121  0.50000000E+000  0.50000000E+000
        122  0.50000000E+000  0.50000000E+000
        123  0.50000000E+000  0.50000000E+000
        124  0.50000000E+000  0.50000000E+000
        125  0.50000000E+000  0.50000000E+000
        126  0.50000000E+000  0.50000000E+000
        127  0.50000000E+000  0.50000000E+000
        128  0.50000000E+000  0.50000000E+000
        129  0.50000000E+000  0.50000000E+000
        130  0.50000000E+000  0.50000000E+000
        131  0.50000000E+000  0.50000000E+000
        132  0.50000000E+000  0.50000000E+000
        133  0.50000000E+000  0.50000000E+000
        134  0.50000000E+000  0.50000000E+000
        135  0.50000000E+000  0.50000000E+000
        136  0.50000000E+000  0.50000000E+000
        137  0.50000000E+000  0.50000000E+000
        138  0.50000000E+000  0.50000000E+000
        139  0.50000000E+000  0.50000000E+000
        140  0.50000000E+000  0.50000000E+000
        141  0.50000000E+000  0.50000000E+000
        142  0.50000000E+000  0.50000000E+000
        143  0.50000000E+000  0.50000000E+000
        144  0.50000000E+000  0.50000000E+000
        145  0.50000000E+000  0.50000000E+000
        146  0.50000000E+000  0.50000000E+000
        147  0.50000000E+000  0.50000000E+000
        148  0.50000000E+000  0.50000000E+000
        149  0.50000000E+000  0.50000000E+000
        150  0.50000000E+000  0.50000000E+000
        151  0.50000000E+000  0.50000000E+000
        152  0.50000000E+000  0.50000000E+000
        153  0.50000000E+000  0.50000000E+000
        154  0.50000000E+000  0.50000000E+000
        155  0.50000000E+000  0.50000000E+000
        156  0.50000000E+000  0.50000000E+000
        157  0.50000000E+000  0.50000000E+000
        158  0.50000000E+000  0.50000000E+000
        159  0.50000000E+000  0.50000000E+000
        160  0.50000000E+000  0.50000000E+000
        161  0.50000000E+000  0.50000000E+000
        162  0.50000000E+000  0.50000000E+000
        163  0.50000000E+000  0.50000000E+000
        164  0.50000000E+000  0.50000000E+000
        165  0.50000000E+000  0.50000000E+000
        166  0.50000000E+000  0.50000000E+000
        167  0.50000000E+000  0.50000000E+000
        168  0.50000000E+000  0.50000000E+000
        169  0.50000000E+000  0.50000000E+000
        170  0.50000000E+000  0.50000000E+000
        171  0.50000000E+000  0.50000000E+000
        172  0.50000000E+000  0.50000000E+000
        173  0.50000000E+000  0.50000000E+000
        174  0.50000000E+000  0.50000000E+000
        175  0.50000000E+000  0.50000000E+000
        176  0.50000000E+000  0.50000000E+000
        177  0.50000000E+000  0.50000000E+000
        178  0.50000000E+000  0.50000000E+000
        179  0.50000000E+000  0.50000000E+000
        180  0.50000000E+000  0.50000000E+000
        181  0.50000000E+000  0.50000000E+000
        182  0.50000000E+000  0.50000000E+000
        183  0.50000000E+000  0.50000000E+000
        184  0.50000000E+000  0.50000000E+000
        185  0.50000000E+000  0.50000000E+000
        186  0.50000000E+000  0.50000000E+000
        187  0.50000000E+000  0.50000000E+000
        188  0.50000000E+000  0.50000000E+000
        189  0.50000000E+000  0.50000000E+000
        190  0.50000000E+000  0.50000000E+000
        191  0.50000000E+000  0.50000000E+000
        192  0.50000000E+000  0.50000000E+000
        193  0.50000000E+000  0.50000000E+000
        194  0.50000000E+000  0.50000000E+000
        195  0.50000000E+000  0.50000000E+000
        196  0.50000000E+000  0.50000000E+000
        197  0.50000000E+000  0.50000000E+000
        198  0.50000000E+000  0.50000000E+000
        199  0.50000000E+000  0.50000000E+000
        200  0.50000000E+000  0.50000000E+000
        201  0.50000000E+000  0.50000000E+000
        202  0.50000000E+000  0.50000000E+000
        203  0.50000000E+000  0.50000000E+000
        204  0.50000000E+000  0.50000000E+000
        205  0.50000000E+000  0.50000000E+000
        206  0.50000000E+000  0.50000000E+000
        207  0.50000000E+000  0.50000000E+000
        208  0.50000000E+000  0.50000000E+000
        209  0.50000000E+000  0.50000000E+000
        210  0.50000000E+000  0.50000000E+000
        211  0.50000000E+000  0.50000000E+000
        212  0.50000000E+000  0.50000000E+000
        213  0.50000000E+000  0.50000000E+000
        214  0.50000000E+000  0.50000000E+000
        215  0.50000000E+000  0.50000000E+000
        216  0.50000000E+000  0.50000000E+000
        217  0.50000000E+000  0.50000000E+000
        218  0.50000000E+000  0.50000000E+000
        219  0.50000000E+000  0.50000000E+000
        220  0.50000000E+000  0.50000000E+000
        221  0.50000000E+000  0.50000000E+000
        222  0.50000000E+000  0.50000000E+000
        223  0.50000000E+000  0.50000000E+000
        224  0.50000000E+000  0.50000000E+000
        225  0.50000000E+000  0.50000000E+000
        226  0.50000000E+000  0.50000000E+000
        227  0.50000000E+000  0.50000000E+000
        228  0.50000000E+000  0.50000000E+000
        229  0.50000000E+000  0.50000000E+000
        230  0.50000000E+000  0.50000000E+000
        231  0.50000000E+000  0.50000000E+000
        232  0.50000000E+000  0.50000000E+000
        233  0.50000000E+000  0.50000000E+000
        234  0.50000000E+000  0.50000000E+000
        235  0.50000000E+000  0.50000000E+000
        236  0.50000000E+000  0.50000000E+000
        237  0.50000000E+000  0.50000000E+000
        238  0.50000000E+000  0.50000000E+000
        239  0.50000000E+000  0.50000000E+000
        240  0.50000000E+000  0.50000000E+000
        241  0.50000000E+000  0.50000000E+000
        242  0.50000000E+000  0.50000000E+000
        243  0.50000000E+000  0.50000000E+000
        244  0.50000000E+000  0.50000000E+000
        245  0.50000000E+000  0.50000000E+000
        246  0.50000000E+000  0.50000000E+000
        247  0.50000000E+000  0.50000000E+000
        248  0.50000000E+000  0.50000000E+000
        249  0.50000000E+000  0.50000000E+000
        250  0.50000000E+000  0.50000000E+000
        251  0.50000000E+000  0.50000000E+000
        252  0.50000000E+000  0.50000000E+000
        253  0.50000000E+000  0.50000000E+000
        254  0.50000000E+000  0.50000000E+000
        255  0.50000000E+000  0.50000000E+000
        256  0.50000000E+000  0.50000000E+000
        257  0.50000000E+000  0.50000000E+000
        258  0.50000000E+000  0.50000000E+000
        259  0.50000000E+000  0.50000000E+000
        260  0.50000000E+000  0.50000000E+000
        261  0.50000000E+000  0.50000000E+000
        262  0.50000000E+000  0.50000000E+000
        263  0.50000000E+000  0.50000000E+000
        264  0.50000000E+000  0.50000000E+000
        265  0.50000000E+000  0.50000000E+000
        266  0.50000000E+000  0.50000000E+000
        267  0.50000000E+000  0.50000000E+000
        268  0.50000000E+000  0.50000000E+000
        269  0.50000000E+000  0.50000000E+000
        270  0.50000000E+000  0.50000000E+000
        271  0.50000000E+000  0.50000000E+000
        272  0.50000000E+000  0.50000000E+000
        273  0.50000000E+000  0.50000000E+000
        274  0.50000000E+000  0.50000000E+000
        275  0.50000000E+000  0.50000000E+000
        276  0.50000000E+000  0.50000000E+000
        277  0.50000000E+000  0.50000000E+000
        278  0.50000000E+000  0.50000000E+000
        279  0.50000000E+000  0.50000000E+000
        280  0.50000000E+000  0.50000000E+000
        281  0.50000000E+000  0.50000000E+000
        282  0.50000000E+000  0.50000000E+000
        283  0.50000000E+000  0.50000000E+000
        284  0.50000000E+000  0.50000000E+000
        285  0.50000000E+000  0.50000000E+000
        286  0.50000000E+000  0.50000000E+000
        287  0.50000000E+000  0.50000000E+000
        288  0.50000000E+000  0.50000000E+000
        289  0.50000000E+000  0.50000000E+000
        290  0.50000000E+000  0.50000000E+000
        291  0.50000000E+000  0.50000000E+000
        292  0.50000000E+000  0.50000000E+000
        293  0.50000000E+000  0.50000000E+000
        294  0.50000000E+000  0.50000000E+000
        295  0.50000000E+000  0.50000000E+000
        296  0.50000000E+000  0.50000000E+000
        297  0.50000000E+000  0.50000000E+000
        298  0.50000000E+000  0.50000000E+000
        299  0.50000000E+000  0.50000000E+000
        300  0.50000000E+000  0.50000000E+000
        301  0.50000000E+000  0.50000000E+000
        302  0.50000000E+000  0.50000000E+000
        303  0.50000000E+000  0.50000000E+000
        304  0.50000000E+000  0.50000000E+000
        305  0.50000000E+000  0.50000000E+000
        306  0.50000000E+000  0.50000000E+000
        307  0.50000000E+000  0.50000000E+000
        308  0.50000000E+000  0.50000000E+000
        309  0.50000000E+000  0.50000000E+000
        310  0.50000000E+000  0.50000000E+000
        311  0.50000000E+000  0.50000000E+000
        312  0.50000000E+000  0.50000000E+000
        313  0.50000000E+000  0.50000000E+000
        314  0.50000000E+000  0.50000000E+000
        315  0.50000000E+000  0.50000000E+000
        316  0.50000000E+000  0.50000000E+000
        317  0.50000000E+000  0.50000000E+000
        318  0.50000000E+000  0.50000000E+000
        319  0.50000000E+000  0.50000000E+000
        320  0.50000000E+000  0.50000000E+000
        321  0.50000000E+000  0.50000000E+000
        322  0.50000000E+000  0.50000000E+000
        323  0.50000000E+000  0.50000000E+000
        324  0.50000000E+000  0.50000000E+000
        325  0.50000000E+000  0.50000000E+000
        326  0.50000000E+000  0.50000000E+000
        327  0.50000000E+000  0.50000000E+000
        328  0.50000000E+000  0.50000000E+000
        329  0.50000000E+000  0.50000000E+000
        330  0.50000000E+000  0.50000000E+000
        331  0.50000000E+000  0.50000000E+000
        332  0.50000000E+000  0.50000000E+000
        333  0.50000000E+000  0.50000000E+000
        334  0.50000000E+000  0.50000000E+000
        335  0.50000000E+000  0.50000000E+000
        336  0.50000000E+000  0.50000000E+000
        337  0.50000000E+000  0.50000000E+000
        338  0.50000000E+000  0.50000000E+000
        339  0.50000000E+000  0.50000000E+000
        340  0.50000000E+000  0.50000000E+000
        341  0.50000000E+000  0.50000000E+000
        342  0.50000000E+000  0.50000000E+000
        343  0.50000000E+000  0.50000000E+000
        344  0.50000000E+000  0.50000000E+000
        345  0.50000000E+000  0.50000000E+000
        346  0.50000000E+000  0.50000000E+000
        347  0.50000000E+000  0.50000000E+000
        348  0.50000000E+000  0.50000000E+000
        349  0.50000000E+000  0.50000000E+000
        350  0.50000000E+000  0.50000000E+000
        351  0.50000000E+000  0.50000000E+000
        352  0.50000000E+000  0.50000000E+000
        353  0.50000000E+000  0.50000000E+000
        354  0.50000000E+000  0.50000000E+000
        355  0.50000000E+000  0.50000000E+000
        356  0.50000000E+000  0.50000000E+000
        357  0.50000000E+000  0.50000000E+000
        358  0.50000000E+000  0.50000000E+000
        359  0.50000000E+000  0.50000000E+000
        360  0.50000000E+000  0.50000000E+000
        361  0.50000000E+000  0.50000000E+000
        362  0.50000000E+000  0.50000000E+000
        363  0.50000000E+000  0.50000000E+000
        364  0.50000000E+000  0.50000000E+000
        365  0.50000000E+000  0.50000000E+000
        366  0.50000000E+000  0.50000000E+000
        367  0.50000000E+000  0.50000000E+000
        368  0.50000000E+000  0.50000000E+000
        369  0.50000000E+000  0.50000000E+000
        370  0.50000000E+000  0.50000000E+000
        371  0.50000000E+000  0.50000000E+000
        372  0.50000000E+000  0.50000000E+000
        373  0.50000000E+000  0.50000000E+000
        374  0.50000000E+000  0.50000000E+000
        375  0.50000000E+000  0.50000000E+000
        376  0.50000000E+000  0.50000000E+000
        377  0.50000000E+000  0.50000000E+000
        378  0.50000000E+000  0.50000000E+000
        379  0.50000000E+000  0.50000000E+000
        380  0.50000000E+000  0.50000000E+000
        381  0.50000000E+000  0.50000000E+000
        382  0.50000000E+000  0.50000000E+000
        383  0.50000000E+000  0.50000000E+000
        384  0.50000000E+000  0.50000000E+000
        385  0.50000000E+000  0.50000000E+000
        386  0.50000000E+000  0.50000000E+000
        387  0.50000000E+000  0.50000000E+000
        388  0.50000000E+000  0.50000000E+000
        389  0.50000000E+000  0.50000000E+000
        390  0.50000000E+000  0.50000000E+000
        391  0.50000000E+000  0.50000000E+000
        392  0.50000000E+000  0.50000000E+000
        393  0.50000000E+000  0.50000000E+000
        394  0.50000000E+000  0.50000000E+000
        395  0.50000000E+000  0.50000000E+000
        396  0.50000000E+000  0.50000000E+000
        397  0.50000000E+000  0.50000000E+000
        398  0.50000000E+000  0.50000000E+000
        399  0.50000000E+000  0.50000000E+000
        400  0.50000000E+000  0.50000000E+000
        401  0.50000000E+000  0.50000000E+000
        402  0.50000000E+000  0.50000000E+000
        403  0.50000000E+000  0.50000000E+000
        404  0.50000000E+000  0.50000000E+000
        405  0.50000000E+000  0.50000000E+000
        406  0.50000000E+000  0.50000000E+000
        407  0.50000000E+000  0.50000000E+000
        408  0.50000000E+000  0.50000000E+000
        409  0.50000000E+000  0.50000000E+000
        410  0.50000000E+000  0.50000000E+000
        411  0.50000000E+000  0.50000000E+000
        412  0.50000000E+000  0.50000000E+000
        413  0.50000000E+000  0.50000000E+000
        414  0.50000000E+000  0.50000000E+000
        415  0.50000000E+000  0.50000000E+000
        416  0.50000000E+000  0.50000000E+000
        417  0.50000000E+000  0.50000000E+000
        418  0.50000000E+000  0.50000000E+000
        419  0.50000000E+000  0.50000000E+000
        420  0.50000000E+000  0.50000000E+000
        421  0.50000000E+000  0.50000000E+000
        422  0.50000000E+000  0.50000000E+000
        423  0.50000000E+000  0.50000000E+000
        424  0.50000000E+000  0.50000000E+000
        425  0.50000000E+000  0.50000000E+000
        426  0.50000000E+000  0.50000000E+000
        427  0.50000000E+000  0.50000000E+000
        428  0.50000000E+000  0.50000000E+000
        429  0.50000000E+000  0.50000000E+000
        430  0.50000000E+000  0.50000000E+000
        431  0.50000000E+000  0.50000000E+000
        432  0.50000000E+000  0.50000000E+000
        433  0.50000000E+000  0.50000000E+000
        434  0.50000000E+000  0.50000000E+000
        435  0.50000000E+000  0.50000000E+000
        436  0.50000000E+000  0.50000000E+000
        437  0.50000000E+000  0.50000000E+000
        438  0.50000000E+000  0.50000000E+000
        439  0.50000000E+000  0.50000000E+000
        440  0.50000000E+000  0.50000000E+000
        441  0.50000000E+000  0.50000000E+000
End values

Result PRESS ALYA  0.60000000E-02 Scalar OnNodes
ComponentNames PRESS
Values
          1 -0.17264446E-012
          2 -0.14433785E-012
          3 -0.12828020E-012
          4 -0.11583428E-012
          5 -0.10654284E-012
          6 -0.98125019E-013
          7 -0.91066917E-013
          8 -0.84245806E-013
          9 -0.77469408E-013
         10 -0.69450846E-013
         11 -0.62476477E-013
         12 -0.54771400E-013
         13 -0.47628582E-013
         14 -0.41126621E-013
         15 -0.35194675E-013
         16 -0.29283149E-013
         17 -0.23388388E-013
         18 -0.16445192E-013
         19 -0.90839423E-014
         20  0.00000000E+000
         21  0.54223003E-015
         22  0.59645303E-015
         23  0.21689201E-015
         24  0.10844601E-014
         25  0.00000000E+000
         26 -0.65067603E-015
         27 -0.54223003E-015
         28  0.27111501E-015
         29 -0.23317382E-015
         30  0.10844601E-015
         31 -0.21689201E-015
         32 -0.32533802E-015
         33  0.43378402E-015
         34  0.32533802E-015
         35 -0.43378402E-015
         36  0.21689201E-015
         37  0.00000000E+000
         38  0.65067603E-015
         39 -0.19078717E-012
         40 -0.75616417E-014
         41 -0.51079920E-014
         42 -0.92744843E-014
         43 -0.15926422E-013
         44 -0.23028735E-013
         45 -0.29134898E-013
         46 -0.35377276E-013
         47 -0.41067326E-013
         48 -0.48382202E-013
         49 -0.54212738E-013
         50 -0.62325483E-013
         51 -0.70393985E-013
         52 -0.77270501E-013
         53 -0.84500639E-013
         54 -0.91941630E-013
         55 -0.98373728E-013
         56 -0.10555570E-012
         57 -0.11525539E-012
         58 -0.12685290E-012
         59 -0.14169489E-012
         60 -0.15776827E-012
         61 -0.82259897E-014
         62 -0.81075013E-014
         63 -0.75783345E-014
         64 -0.82422402E-014
         65 -0.77543707E-014
         66 -0.61056530E-014
         67 -0.70339304E-014
         68 -0.67189268E-014
         69 -0.61332609E-014
         70 -0.63955370E-014
         71 -0.64775283E-014
         72 -0.55703056E-014
         73 -0.56577158E-014
         74 -0.52955450E-014
         75 -0.58593124E-014
         76 -0.63212397E-014
         77 -0.63268551E-014
         78 -0.73168070E-014
         79 -0.16626647E-012
         80 -0.72388793E-014
         81 -0.16089918E-013
         82 -0.22304068E-013
         83 -0.28624811E-013
         84 -0.35004252E-013
         85 -0.41417377E-013
         86 -0.47868149E-013
         87 -0.54982861E-013
         88 -0.62197671E-013
         89 -0.70353468E-013
         90 -0.77266845E-013
         91 -0.84493079E-013
         92 -0.91742427E-013
         93 -0.98228765E-013
         94 -0.10552541E-012
         95 -0.11350711E-012
         96 -0.12254801E-012
         97 -0.13273816E-012
         98 -0.14063026E-012
         99 -0.15539215E-013
        100 -0.15261164E-013
        101 -0.15209715E-013
        102 -0.14064368E-013
        103 -0.12668578E-013
        104 -0.12529571E-013
        105 -0.12608996E-013
        106 -0.12411756E-013
        107 -0.11905568E-013
        108 -0.12076778E-013
        109 -0.11956940E-013
        110 -0.11441218E-013
        111 -0.10992297E-013
        112 -0.11021322E-013
        113 -0.11511680E-013
        114 -0.12015053E-013
        115 -0.11728073E-013
        116 -0.14348079E-012
        117 -0.13278326E-013
        118 -0.22839745E-013
        119 -0.28989128E-013
        120 -0.35788492E-013
        121 -0.41376889E-013
        122 -0.47336318E-013
        123 -0.54118446E-013
        124 -0.62033758E-013
        125 -0.69165582E-013
        126 -0.76963607E-013
        127 -0.84670996E-013
        128 -0.91583593E-013
        129 -0.98418560E-013
        130 -0.10311249E-012
        131 -0.11045118E-012
        132 -0.11787490E-012
        133 -0.12465442E-012
        134 -0.12903656E-012
        135 -0.22166578E-013
        136 -0.21533371E-013
        137 -0.19868099E-013
        138 -0.19905248E-013
        139 -0.18736580E-013
        140 -0.19491942E-013
        141 -0.19130576E-013
        142 -0.17929754E-013
        143 -0.17309240E-013
        144 -0.17328197E-013
        145 -0.17643714E-013
        146 -0.17955838E-013
        147 -0.17855320E-013
        148 -0.17601329E-013
        149 -0.18267523E-013
        150 -0.18792299E-013
        151 -0.12935795E-012
        152 -0.18317038E-013
        153 -0.28542741E-013
        154 -0.34898675E-013
        155 -0.41385353E-013
        156 -0.47311159E-013
        157 -0.54185274E-013
        158 -0.60496544E-013
        159 -0.68251754E-013
        160 -0.76191778E-013
        161 -0.84454691E-013
        162 -0.90375950E-013
        163 -0.95948952E-013
        164 -0.10129407E-012
        165 -0.10760282E-012
        166 -0.11307555E-012
        167 -0.11757018E-012
        168 -0.11947827E-012
        169 -0.28123335E-013
        170 -0.27733366E-013
        171 -0.26644188E-013
        172 -0.27007990E-013
        173 -0.25959779E-013
        174 -0.25386074E-013
        175 -0.24733054E-013
        176 -0.24613878E-013
        177 -0.24419151E-013
        178 -0.23939809E-013
        179 -0.24405826E-013
        180 -0.24599386E-013
        181 -0.24746383E-013
        182 -0.24095186E-013
        183 -0.24776736E-013
        184 -0.12006223E-012
        185 -0.24398429E-013
        186 -0.33999139E-013
        187 -0.40989716E-013
        188 -0.46779899E-013
        189 -0.53038514E-013
        190 -0.60633806E-013
        191 -0.68093744E-013
        192 -0.75903767E-013
        193 -0.82898646E-013
        194 -0.88378689E-013
        195 -0.94043199E-013
        196 -0.98646008E-013
        197 -0.10385639E-012
        198 -0.10903882E-012
        199 -0.11227892E-012
        200 -0.11255537E-012
        201 -0.34510732E-013
        202 -0.33814408E-013
        203 -0.33311641E-013
        204 -0.32997851E-013
        205 -0.32925461E-013
        206 -0.31874910E-013
        207 -0.31790975E-013
        208 -0.30655037E-013
        209 -0.30342707E-013
        210 -0.31377133E-013
        211 -0.31531782E-013
        212 -0.31330708E-013
        213 -0.31353226E-013
        214 -0.31101729E-013
        215 -0.11246176E-012
        216 -0.31038069E-013
        217 -0.41010691E-013
        218 -0.47156746E-013
        219 -0.53685687E-013
        220 -0.60565615E-013
        221 -0.68053274E-013
        222 -0.74873072E-013
        223 -0.80942244E-013
        224 -0.86433788E-013
        225 -0.91934456E-013
        226 -0.96855734E-013
        227 -0.10110087E-012
        228 -0.10492819E-012
        229 -0.10754693E-012
        230 -0.10883646E-012
        231 -0.40733238E-013
        232 -0.39564553E-013
        233 -0.40077679E-013
        234 -0.39747227E-013
        235 -0.39153723E-013
        236 -0.38670484E-013
        237 -0.38367618E-013
        238 -0.38399180E-013
        239 -0.37688990E-013
        240 -0.37495299E-013
        241 -0.38275373E-013
        242 -0.38541120E-013
        243 -0.37948157E-013
        244 -0.10829789E-012
        245 -0.38026486E-013
        246 -0.47497809E-013
        247 -0.54103558E-013
        248 -0.60586054E-013
        249 -0.67197145E-013
        250 -0.73537708E-013
        251 -0.79760246E-013
        252 -0.85092381E-013
        253 -0.90151374E-013
        254 -0.95022058E-013
        255 -0.98845603E-013
        256 -0.10138111E-012
        257 -0.10462716E-012
        258 -0.10577964E-012
        259 -0.47110840E-013
        260 -0.47046735E-013
        261 -0.46185456E-013
        262 -0.45550593E-013
        263 -0.45613112E-013
        264 -0.45629524E-013
        265 -0.44458691E-013
        266 -0.43477791E-013
        267 -0.43571079E-013
        268 -0.45276537E-013
        269 -0.45797607E-013
        270 -0.46062794E-013
        271 -0.10483838E-012
        272 -0.46422899E-013
        273 -0.54882339E-013
        274 -0.60473085E-013
        275 -0.65684682E-013
        276 -0.72932557E-013
        277 -0.80158467E-013
        278 -0.84117665E-013
        279 -0.88989289E-013
        280 -0.93195694E-013
        281 -0.97348702E-013
        282 -0.10037111E-012
        283 -0.10234853E-012
        284 -0.10271282E-012
        285 -0.53847939E-013
        286 -0.52350693E-013
        287 -0.52145588E-013
        288 -0.51837869E-013
        289 -0.51625224E-013
        290 -0.51093983E-013
        291 -0.49806421E-013
        292 -0.50511903E-013
        293 -0.51562615E-013
        294 -0.52556655E-013
        295 -0.53538836E-013
        296 -0.10271537E-012
        297 -0.53063002E-013
        298 -0.59722393E-013
        299 -0.65157267E-013
        300 -0.71906675E-013
        301 -0.78320790E-013
        302 -0.83477839E-013
        303 -0.88101169E-013
        304 -0.92764628E-013
        305 -0.96061208E-013
        306 -0.98899849E-013
        307 -0.10042128E-012
        308 -0.10196379E-012
        309 -0.58897908E-013
        310 -0.58016041E-013
        311 -0.57849446E-013
        312 -0.57063274E-013
        313 -0.56854747E-013
        314 -0.57231768E-013
        315 -0.58188546E-013
        316 -0.58091633E-013
        317 -0.58488117E-013
        318 -0.59041513E-013
        319 -0.10290512E-012
        320 -0.59935069E-013
        321 -0.64752510E-013
        322 -0.70352293E-013
        323 -0.76582697E-013
        324 -0.82716433E-013
        325 -0.87563922E-013
        326 -0.91585610E-013
        327 -0.95378662E-013
        328 -0.97640435E-013
        329 -0.99464838E-013
        330 -0.10126912E-012
        331 -0.63885917E-013
        332 -0.64138189E-013
        333 -0.64082622E-013
        334 -0.63206208E-013
        335 -0.64207256E-013
        336 -0.64847202E-013
        337 -0.65298946E-013
        338 -0.64566429E-013
        339 -0.65860853E-013
        340 -0.10171153E-012
        341 -0.66043053E-013
        342 -0.69206206E-013
        343 -0.75792426E-013
        344 -0.81739699E-013
        345 -0.86910953E-013
        346 -0.90846763E-013
        347 -0.94627531E-013
        348 -0.97332720E-013
        349 -0.99150949E-013
        350 -0.10141390E-012
        351 -0.69611087E-013
        352 -0.70352727E-013
        353 -0.70108952E-013
        354 -0.70959749E-013
        355 -0.71319736E-013
        356 -0.72611334E-013
        357 -0.72539661E-013
        358 -0.73202392E-013
        359 -0.10139054E-012
        360 -0.72905634E-013
        361 -0.75480667E-013
        362 -0.80639304E-013
        363 -0.86293527E-013
        364 -0.91747435E-013
        365 -0.93855290E-013
        366 -0.98277330E-013
        367 -0.10059455E-012
        368 -0.10240837E-012
        369 -0.75687470E-013
        370 -0.76176336E-013
        371 -0.77786794E-013
        372 -0.79155004E-013
        373 -0.79595558E-013
        374 -0.80169635E-013
        375 -0.79888061E-013
        376 -0.10310587E-012
        377 -0.79314383E-013
        378 -0.80809630E-013
        379 -0.87161357E-013
        380 -0.92238654E-013
        381 -0.95535743E-013
        382 -0.99768491E-013
        383 -0.10270578E-012
        384 -0.10369783E-012
        385 -0.82741284E-013
        386 -0.84438805E-013
        387 -0.86513526E-013
        388 -0.87428565E-013
        389 -0.87492533E-013
        390 -0.87736914E-013
        391 -0.10604268E-012
        392 -0.87085252E-013
        393 -0.88361839E-013
        394 -0.93592201E-013
        395 -0.97893608E-013
        396 -0.10212791E-012
        397 -0.10543085E-012
        398 -0.10758158E-012
        399 -0.90650810E-013
        400 -0.92821999E-013
        401 -0.95026768E-013
        402 -0.95775429E-013
        403 -0.96412779E-013
        404 -0.10888882E-012
        405 -0.95767428E-013
        406 -0.96142444E-013
        407 -0.10074080E-012
        408 -0.10507424E-012
        409 -0.10901521E-012
        410 -0.11153654E-012
        411 -0.99293509E-013
        412 -0.10221309E-012
        413 -0.10413141E-012
        414 -0.10445270E-012
        415 -0.11251270E-012
        416 -0.10450544E-012
        417 -0.10318178E-012
        418 -0.10948362E-012
        419 -0.11400519E-012
        420 -0.11728840E-012
        421 -0.10749909E-012
        422 -0.11112683E-012
        423 -0.11276739E-012
        424 -0.11841101E-012
        425 -0.11301758E-012
        426 -0.11390726E-012
        427 -0.11987180E-012
        428 -0.12502522E-012
        429 -0.11837358E-012
        430 -0.12305963E-012
        431 -0.12709545E-012
        432 -0.12516678E-012
        433 -0.12784804E-012
        434 -0.13686327E-012
        435 -0.13614389E-012
        436 -0.13997363E-012
        437 -0.13918276E-012
        438 -0.15299588E-012
        439 -0.16117925E-012
        440 -0.16649828E-012
        441 -0.18638186E-012
End values

