 0.50000021E+000
 0.27586149E+000
 0.27586149E+000
 0.99999998E+000
 0.99999998E+000
 0.50000000E+000
 0.50000021E+000
 0.50000021E+000
 0.50000021E+000
 0.50000021E+000
 0.50000021E+000
 0.50000021E+000
 0.50000021E+000
 0.50000021E+000
 0.50000021E+000
 0.50000021E+000
 0.50000021E+000
 0.50000021E+000
 0.50000021E+000
 0.50000021E+000
 0.50000021E+000
 0.50000021E+000
 0.50000021E+000
 0.50000021E+000
 0.50000018E+000
 0.49999946E+000
 0.49998741E+000
 0.49978420E+000
 0.49715370E+000
 0.46587583E+000
 0.27586149E+000
 0.27586149E+000
 0.27586149E+000
 0.27586149E+000
 0.27586149E+000
 0.27586149E+000
 0.27586149E+000
 0.27586149E+000
 0.27586149E+000
 0.27586149E+000
 0.27586149E+000
 0.27586149E+000
 0.27586149E+000
 0.27586149E+000
 0.27586149E+000
 0.53088143E+001
 0.55060861E+001
 0.57209037E+001
 0.55748819E+001
 0.19623306E+001
-0.52196625E+000
-0.29718597E+001
-0.78014892E+001
-0.65126247E+001
 0.43383560E+001
 0.15699615E+002
 0.17410503E+002
 0.18109518E+002
 0.18738179E+002
 0.19378772E+002
 0.20046467E+002
 0.20743992E+002
 0.21472616E+002
 0.22233655E+002
 0.23028593E+002
 0.23858975E+002
 0.24726422E+002
 0.25632621E+002
 0.26579338E+002
 0.99999998E+000
 0.99999998E+000
 0.99999998E+000
 0.99999998E+000
 0.99999998E+000
 0.99999998E+000
 0.99999998E+000
 0.99999998E+000
 0.99999998E+000
 0.99999998E+000
 0.99999998E+000
 0.99999998E+000
 0.99999998E+000
 0.99999998E+000
 0.99999998E+000
 0.55873760E+000
 0.50237874E+000
 0.50001040E+000
 0.50000124E+000
 0.50000028E+000
 0.50000002E+000
 0.50000000E+000
 0.50000000E+000
 0.50000000E+000
 0.50000000E+000
 0.50000000E+000
 0.50000000E+000
 0.50000000E+000
 0.50000000E+000
 0.50000000E+000
 0.50000000E+000
 0.50000000E+000
 0.50000000E+000
 0.50000000E+000
 0.50000000E+000
 0.50000000E+000
 0.50000000E+000
 0.50000000E+000
 0.50000000E+000
 0.50000000E+000
 0.50000000E+000
 0.50000000E+000
 0.50000000E+000
 0.50000000E+000
 0.50000000E+000
 0.50000000E+000
 0.50000000E+000
 0.50000000E+000
 0.50000000E+000
 0.50000000E+000
 0.50000000E+000
 0.50000000E+000
 0.49999999E+000
 0.49999983E+000
 0.50000008E+000
 0.50000017E+000
 0.50000015E+000
 0.49999973E+000
 0.50000011E+000
 0.50000018E+000
 0.50000020E+000
 0.50000021E+000
 0.50000021E+000
 0.45565392E+000
 0.49640263E+000
 0.49984129E+000
 0.50209839E+000
 0.53164996E+000
 0.54635049E+000
 0.56144428E+000
 0.58841270E+000
 0.58943886E+000
 0.53219462E+000
 0.50135338E+000
 0.50000000E+000
 0.50000000E+000
 0.50000000E+000
 0.50000000E+000
 0.50000000E+000
 0.50000003E+000
 0.50000063E+000
 0.50001057E+000
 0.50013982E+000
 0.50142950E+000
 0.51101830E+000
 0.56147819E+000
 0.73130612E+000
 0.50000021E+000
 0.50000021E+000
 0.50000020E+000
 0.50000018E+000
 0.50000011E+000
 0.49999973E+000
 0.50000015E+000
 0.50000017E+000
 0.50000008E+000
 0.49999983E+000
 0.49999999E+000
 0.50000000E+000
 0.50000000E+000
 0.50000000E+000
 0.50000000E+000
 0.50000000E+000
 0.50000000E+000
 0.50000000E+000
 0.50000000E+000
 0.50000000E+000
 0.50000000E+000
 0.50000000E+000
 0.50000000E+000
 0.50000000E+000
 0.50000021E+000
 0.50000021E+000
 0.50000020E+000
 0.50000018E+000
 0.50000011E+000
 0.49999973E+000
 0.50000015E+000
 0.50000017E+000
 0.50000008E+000
 0.49999983E+000
 0.49999999E+000
 0.50000000E+000
 0.50000000E+000
 0.50000000E+000
 0.50000000E+000
 0.50000000E+000
 0.50000000E+000
 0.50000000E+000
 0.50000000E+000
 0.50000000E+000
 0.50000000E+000
 0.50000000E+000
 0.50000000E+000
 0.50000000E+000
 0.50000021E+000
 0.50000021E+000
 0.50000020E+000
 0.50000018E+000
 0.50000011E+000
 0.49999973E+000
 0.50000015E+000
 0.50000017E+000
 0.50000008E+000
 0.49999983E+000
 0.49999999E+000
 0.50000000E+000
 0.50000000E+000
 0.50000000E+000
 0.50000000E+000
 0.50000000E+000
 0.50000000E+000
 0.50000000E+000
 0.50000000E+000
 0.50000000E+000
 0.50000000E+000
 0.50000000E+000
 0.50000000E+000
 0.50000000E+000
 0.50000021E+000
 0.50000021E+000
 0.50000020E+000
 0.50000018E+000
 0.50000011E+000
 0.49999974E+000
 0.50000015E+000
 0.50000017E+000
 0.50000007E+000
 0.49999984E+000
 0.50000000E+000
 0.50000000E+000
 0.50000000E+000
 0.50000000E+000
 0.50000000E+000
 0.50000000E+000
 0.50000000E+000
 0.50000000E+000
 0.50000000E+000
 0.50000000E+000
 0.50000000E+000
 0.50000000E+000
 0.50000000E+000
 0.50000000E+000
 0.50000021E+000
 0.50000021E+000
 0.50000020E+000
 0.50000018E+000
 0.50000012E+000
 0.49999976E+000
 0.50000014E+000
 0.50000017E+000
 0.50000004E+000
 0.49999990E+000
 0.50000000E+000
 0.50000000E+000
 0.50000000E+000
 0.50000000E+000
 0.50000000E+000
 0.50000000E+000
 0.50000000E+000
 0.50000000E+000
 0.50000000E+000
 0.50000000E+000
 0.50000000E+000
 0.50000000E+000
 0.50000000E+000
 0.50000000E+000
 0.50000021E+000
 0.50000021E+000
 0.50000020E+000
 0.50000018E+000
 0.50000012E+000
 0.49999977E+000
 0.50000014E+000
 0.50000017E+000
 0.50000000E+000
 0.49999993E+000
 0.50000000E+000
 0.50000000E+000
 0.50000000E+000
 0.50000000E+000
 0.50000000E+000
 0.50000000E+000
 0.50000000E+000
 0.50000000E+000
 0.50000000E+000
 0.50000000E+000
 0.50000000E+000
 0.50000000E+000
 0.50000000E+000
 0.50000000E+000
 0.50000021E+000
 0.50000021E+000
 0.50000020E+000
 0.50000018E+000
 0.50000012E+000
 0.49999977E+000
 0.50000014E+000
 0.50000017E+000
 0.50000000E+000
 0.49999993E+000
 0.50000000E+000
 0.50000000E+000
 0.50000000E+000
 0.50000000E+000
 0.50000000E+000
 0.50000000E+000
 0.50000000E+000
 0.50000000E+000
 0.50000000E+000
 0.50000000E+000
 0.50000000E+000
 0.50000000E+000
 0.50000000E+000
 0.50000000E+000
 0.50000021E+000
 0.50000021E+000
 0.50000020E+000
 0.50000018E+000
 0.50000012E+000
 0.49999977E+000
 0.50000014E+000
 0.50000017E+000
 0.50000000E+000
 0.49999993E+000
 0.50000000E+000
 0.50000000E+000
 0.50000000E+000
 0.50000000E+000
 0.50000000E+000
 0.50000000E+000
 0.50000000E+000
 0.50000000E+000
 0.50000000E+000
 0.50000000E+000
 0.50000000E+000
 0.50000000E+000
 0.50000000E+000
 0.50000000E+000
 0.50000021E+000
 0.50000021E+000
 0.50000020E+000
 0.50000018E+000
 0.50000012E+000
 0.49999977E+000
 0.50000014E+000
 0.50000017E+000
 0.50000000E+000
 0.49999993E+000
 0.50000000E+000
 0.50000000E+000
 0.50000000E+000
 0.50000000E+000
 0.50000000E+000
 0.50000000E+000
 0.50000000E+000
 0.50000000E+000
 0.50000000E+000
 0.50000000E+000
 0.50000000E+000
 0.50000000E+000
 0.50000000E+000
 0.50000000E+000
 0.50000021E+000
 0.50000021E+000
 0.50000020E+000
 0.50000018E+000
 0.50000012E+000
 0.49999977E+000
 0.50000014E+000
 0.50000017E+000
 0.50000000E+000
 0.49999993E+000
 0.50000000E+000
 0.50000000E+000
 0.50000000E+000
 0.50000000E+000
 0.50000000E+000
 0.50000000E+000
 0.50000000E+000
 0.50000000E+000
 0.50000000E+000
 0.50000000E+000
 0.50000000E+000
 0.50000000E+000
 0.50000000E+000
 0.50000000E+000
 0.50000021E+000
 0.50000021E+000
 0.50000020E+000
 0.50000018E+000
 0.50000012E+000
 0.49999977E+000
 0.50000014E+000
 0.50000017E+000
 0.50000000E+000
 0.49999993E+000
 0.50000000E+000
 0.50000000E+000
 0.50000000E+000
 0.50000000E+000
 0.50000000E+000
 0.50000000E+000
 0.50000000E+000
 0.50000000E+000
 0.50000000E+000
 0.50000000E+000
 0.50000000E+000
 0.50000000E+000
 0.50000000E+000
 0.50000000E+000
 0.50000021E+000
 0.50000021E+000
 0.50000020E+000
 0.50000018E+000
 0.50000012E+000
 0.49999977E+000
 0.50000014E+000
 0.50000017E+000
 0.50000000E+000
 0.49999993E+000
 0.50000000E+000
 0.50000000E+000
 0.50000000E+000
 0.50000000E+000
 0.50000000E+000
 0.50000000E+000
 0.50000000E+000
 0.50000000E+000
 0.50000000E+000
 0.50000000E+000
 0.50000000E+000
 0.50000000E+000
 0.50000000E+000
 0.50000000E+000
 0.50000021E+000
 0.50000021E+000
 0.50000020E+000
 0.50000018E+000
 0.50000012E+000
 0.49999977E+000
 0.50000014E+000
 0.50000017E+000
 0.50000000E+000
 0.49999993E+000
 0.50000000E+000
 0.50000000E+000
 0.50000000E+000
 0.50000000E+000
 0.50000000E+000
 0.50000000E+000
 0.50000000E+000
 0.50000000E+000
 0.50000000E+000
 0.50000000E+000
 0.50000000E+000
 0.50000000E+000
 0.50000000E+000
 0.50000000E+000
 0.50000021E+000
 0.50000021E+000
 0.50000020E+000
 0.50000018E+000
 0.50000012E+000
 0.49999977E+000
 0.50000014E+000
 0.50000017E+000
 0.50000000E+000
 0.49999993E+000
 0.50000000E+000
 0.50000000E+000
 0.50000000E+000
 0.50000000E+000
 0.50000000E+000
 0.50000000E+000
 0.50000000E+000
 0.50000000E+000
 0.50000000E+000
 0.50000000E+000
 0.50000000E+000
 0.50000000E+000
 0.50000000E+000
 0.50000000E+000
 0.50000021E+000
 0.50000021E+000
 0.50000020E+000
 0.50000018E+000
 0.50000012E+000
 0.49999977E+000
 0.50000014E+000
 0.50000017E+000
 0.50000000E+000
 0.49999993E+000
 0.50000000E+000
 0.50000000E+000
 0.50000000E+000
 0.50000000E+000
 0.50000000E+000
 0.50000000E+000
 0.50000000E+000
 0.50000000E+000
 0.50000000E+000
 0.50000000E+000
 0.50000000E+000
 0.50000000E+000
 0.50000000E+000
 0.50000000E+000
 0.50000021E+000
 0.50000021E+000
 0.50000020E+000
 0.50000018E+000
 0.50000012E+000
 0.49999977E+000
 0.50000014E+000
 0.50000017E+000
 0.50000000E+000
 0.49999993E+000
 0.50000000E+000
 0.50000000E+000
 0.50000000E+000
 0.50000000E+000
 0.50000000E+000
 0.50000000E+000
 0.50000000E+000
 0.50000000E+000
 0.50000000E+000
 0.50000000E+000
 0.50000000E+000
 0.50000000E+000
 0.50000000E+000
 0.50000000E+000
 0.50000021E+000
 0.50000021E+000
 0.50000020E+000
 0.50000018E+000
 0.50000012E+000
 0.49999977E+000
 0.50000014E+000
 0.50000017E+000
 0.50000000E+000
 0.49999993E+000
 0.50000000E+000
 0.50000000E+000
 0.50000000E+000
 0.50000000E+000
 0.50000000E+000
 0.50000000E+000
 0.50000000E+000
 0.50000000E+000
 0.50000000E+000
 0.50000000E+000
 0.50000000E+000
 0.50000000E+000
 0.50000000E+000
 0.50000000E+000
 0.50000021E+000
 0.50000021E+000
 0.50000020E+000
 0.50000018E+000
 0.50000012E+000
 0.49999977E+000
 0.50000014E+000
 0.50000017E+000
 0.50000000E+000
 0.49999993E+000
 0.50000000E+000
 0.50000000E+000
 0.50000000E+000
 0.50000000E+000
 0.50000000E+000
 0.50000000E+000
 0.50000000E+000
 0.50000000E+000
 0.50000000E+000
 0.50000000E+000
 0.50000000E+000
 0.50000000E+000
 0.50000000E+000
 0.50000000E+000
 0.50000018E+000
 0.50000018E+000
 0.50000019E+000
 0.50000018E+000
 0.50000012E+000
 0.49999977E+000
 0.50000014E+000
 0.50000018E+000
 0.50000000E+000
 0.49999993E+000
 0.50000000E+000
 0.50000000E+000
 0.50000000E+000
 0.50000000E+000
 0.50000000E+000
 0.50000000E+000
 0.50000000E+000
 0.50000000E+000
 0.50000000E+000
 0.50000002E+000
 0.50000005E+000
 0.50000008E+000
 0.50000007E+000
 0.50000004E+000
 0.49999941E+000
 0.49999960E+000
 0.49999994E+000
 0.50000013E+000
 0.50000013E+000
 0.49999982E+000
 0.50000021E+000
 0.50000027E+000
 0.50000008E+000
 0.49999998E+000
 0.50000002E+000
 0.50000000E+000
 0.50000000E+000
 0.50000000E+000
 0.50000000E+000
 0.50000000E+000
 0.50000000E+000
 0.50000000E+000
 0.50000005E+000
 0.50000034E+000
 0.50000115E+000
 0.50000193E+000
 0.50000168E+000
 0.50000074E+000
 0.49998435E+000
 0.49998847E+000
 0.49999599E+000
 0.49999962E+000
 0.50000051E+000
 0.50000075E+000
 0.50000176E+000
 0.50000227E+000
 0.50000182E+000
 0.50000084E+000
 0.50000024E+000
 0.50000003E+000
 0.50000000E+000
 0.50000000E+000
 0.50000000E+000
 0.50000000E+000
 0.50000000E+000
 0.50000004E+000
 0.50000054E+000
 0.50000446E+000
 0.50002121E+000
 0.50004018E+000
 0.50003232E+000
 0.50001036E+000
 0.49974108E+000
 0.49983983E+000
 0.49996236E+000
 0.49999915E+000
 0.50000756E+000
 0.50001782E+000
 0.50003040E+000
 0.50003997E+000
 0.50003443E+000
 0.50001502E+000
 0.50000304E+000
 0.50000023E+000
 0.50000000E+000
 0.50000000E+000
 0.50000000E+000
 0.50000000E+000
 0.50000001E+000
 0.50000020E+000
 0.50000271E+000
 0.50002646E+000
 0.50016854E+000
 0.50058426E+000
 0.50064481E+000
 0.50024699E+000
 0.49682115E+000
 0.49879608E+000
 0.49989849E+000
 0.50001469E+000
 0.50012316E+000
 0.50028487E+000
 0.50046332E+000
 0.50063133E+000
 0.50056406E+000
 0.50023308E+000
 0.50003691E+000
 0.50000149E+000
 0.50000000E+000
 0.50000000E+000
 0.50000000E+000
 0.50000000E+000
 0.50000002E+000
 0.50000037E+000
 0.50000566E+000
 0.50006539E+000
 0.50053983E+000
 0.50292022E+000
 0.50853017E+000
 0.50701757E+000
 0.47606965E+000
 0.49712469E+000
 0.49985187E+000
 0.50020810E+000
 0.50180616E+000
 0.50386035E+000
 0.50594235E+000
 0.50855756E+000
 0.50810326E+000
 0.50316497E+000
 0.50032839E+000
 0.50000209E+000
 0.50000000E+000
 0.50000000E+000
 0.50000000E+000
 0.50000000E+000
 0.50000002E+000
 0.50000051E+000
 0.50000848E+000
 0.50010854E+000
 0.50105033E+000
 0.50734879E+000
 0.53415170E+000
 0.58669759E+000
 0.45720684E+000
 0.49643209E+000
 0.49983263E+000
 0.50175492E+000
 0.94642142E+000
 0.95493692E+000
 0.93296120E+000
 0.91769259E+000
 0.88520935E+000
 0.59564256E+000
 0.50168045E+000
 0.50000000E+000
 0.50000000E+000
 0.50000000E+000
 0.50000000E+000
 0.50000000E+000
 0.50000003E+000
 0.50000072E+000
 0.50001198E+000
 0.50015711E+000
 0.50159269E+000
 0.51213127E+000
 0.56629441E+000
 0.74024511E+000
 0.45591896E+000
 0.49618512E+000
 0.49981299E+000
 0.50427455E+000
 0.94169549E+000
 0.96448499E+000
 0.94237171E+000
 0.90576623E+000
 0.70081386E+000
 0.59798241E+000
 0.50281015E+000
 0.50000000E+000
 0.50000000E+000
 0.50000000E+000
 0.50000000E+000
 0.50000000E+000
 0.50000004E+000
 0.50000078E+000
 0.50001287E+000
 0.50016649E+000
 0.50166334E+000
 0.51248066E+000
 0.56721455E+000
 0.74085426E+000
 0.45456235E+000
 0.49592420E+000
 0.49979241E+000
 0.50420322E+000
 0.94251606E+000
 0.96419305E+000
 0.93599455E+000
 0.90875524E+000
 0.71932266E+000
 0.59651720E+000
 0.50316328E+000
 0.50000000E+000
 0.50000000E+000
 0.50000000E+000
 0.50000000E+000
 0.50000000E+000
 0.50000004E+000
 0.50000084E+000
 0.50001371E+000
 0.50017505E+000
 0.50172659E+000
 0.51279889E+000
 0.56817492E+000
 0.74209901E+000
 0.45309273E+000
 0.49562701E+000
 0.49976809E+000
 0.50446798E+000
 0.94204959E+000
 0.96406291E+000
 0.93635722E+000
 0.91292913E+000
 0.75013108E+000
 0.59854862E+000
 0.50338999E+000
 0.50000000E+000
 0.50000000E+000
 0.50000000E+000
 0.50000000E+000
 0.50000000E+000
 0.50000004E+000
 0.50000090E+000
 0.50001450E+000
 0.50018295E+000
 0.50178429E+000
 0.51308638E+000
 0.56902907E+000
 0.74314224E+000
 0.45160526E+000
 0.49530977E+000
 0.49974056E+000
 0.50480757E+000
 0.94158126E+000
 0.96409158E+000
 0.93680535E+000
 0.91396706E+000
 0.76105415E+000
 0.59909802E+000
 0.50365172E+000
 0.50000304E+000
 0.50000000E+000
 0.50000000E+000
 0.50000000E+000
 0.50000000E+000
 0.50000005E+000
 0.50000096E+000
 0.50001519E+000
 0.50018977E+000
 0.50183347E+000
 0.51332807E+000
 0.56973687E+000
 0.74399493E+000
 0.45027570E+000
 0.49501014E+000
 0.49971278E+000
 0.50528346E+000
 0.94104096E+000
 0.96410157E+000
 0.93708613E+000
 0.91429036E+000
 0.76551741E+000
 0.59927200E+000
 0.50391638E+000
 0.50001148E+000
 0.50000000E+000
 0.50000000E+000
 0.50000000E+000
 0.50000000E+000
 0.50000005E+000
 0.50000100E+000
 0.50001573E+000
 0.50019507E+000
 0.50187119E+000
 0.51351151E+000
 0.57026832E+000
 0.74462660E+000
 0.44933994E+000
 0.49478869E+000
 0.49969082E+000
 0.50586102E+000
 0.94049810E+000
 0.96408948E+000
 0.93727413E+000
 0.91443914E+000
 0.76835067E+000
 0.59936311E+000
 0.50416322E+000
 0.50002059E+000
 0.50000005E+000
 0.50000000E+000
 0.50000000E+000
 0.50000000E+000
 0.50000005E+000
 0.50000102E+000
 0.50001608E+000
 0.50019843E+000
 0.50189497E+000
 0.51362626E+000
 0.57059823E+000
 0.74501501E+000
 0.44900209E+000
 0.49470629E+000
 0.49968243E+000
 0.50617571E+000
 0.94024202E+000
 0.96408122E+000
 0.93734368E+000
 0.91448957E+000
 0.76939169E+000
 0.59939519E+000
 0.50427432E+000
 0.50002498E+000
 0.50000008E+000
 0.50000000E+000
 0.50000000E+000
 0.50000000E+000
 0.50000005E+000
 0.50000103E+000
 0.50001620E+000
 0.50019959E+000
 0.50190309E+000
 0.51366533E+000
 0.57071011E+000
 0.74514608E+000
 0.44933994E+000
 0.49478869E+000
 0.49969082E+000
 0.50586102E+000
 0.94049810E+000
 0.96408952E+000
 0.93727422E+000
 0.91443936E+000
 0.76835102E+000
 0.59936325E+000
 0.50416323E+000
 0.50002059E+000
 0.50000005E+000
 0.50000000E+000
 0.50000000E+000
 0.50000000E+000
 0.50000005E+000
 0.50000102E+000
 0.50001608E+000
 0.50019843E+000
 0.50189497E+000
 0.51362625E+000
 0.57059823E+000
 0.74501501E+000
 0.45027570E+000
 0.49501014E+000
 0.49971278E+000
 0.50528347E+000
 0.94104119E+000
 0.96410193E+000
 0.93708821E+000
 0.91429251E+000
 0.76552319E+000
 0.59927399E+000
 0.50391648E+000
 0.50001149E+000
 0.50000000E+000
 0.50000000E+000
 0.50000000E+000
 0.50000000E+000
 0.50000005E+000
 0.50000100E+000
 0.50001573E+000
 0.50019507E+000
 0.50187118E+000
 0.51351159E+000
 0.57026814E+000
 0.74462673E+000
 0.45160525E+000
 0.49530975E+000
 0.49974060E+000
 0.50480773E+000
 0.94158238E+000
 0.96409999E+000
 0.93682140E+000
 0.91400035E+000
 0.76111914E+000
 0.59911754E+000
 0.50365372E+000
 0.50000303E+000
 0.49999999E+000
 0.49999998E+000
 0.49999998E+000
 0.49999998E+000
 0.50000002E+000
 0.50000092E+000
 0.50001516E+000
 0.50018975E+000
 0.50183342E+000
 0.51332672E+000
 0.56974169E+000
 0.74398947E+000
 0.45309359E+000
 0.49562849E+000
 0.49976752E+000
 0.50448445E+000
 0.94208619E+000
 0.96410504E+000
 0.93660772E+000
 0.91321406E+000
 0.75070427E+000
 0.59889435E+000
 0.50339704E+000
 0.50000286E+000
 0.50000283E+000
 0.50000324E+000
 0.50000379E+000
 0.50000439E+000
 0.50000508E+000
 0.50000664E+000
 0.50002097E+000
 0.50019028E+000
 0.50179453E+000
 0.51310196E+000
 0.56894430E+000
 0.74333017E+000
 0.45447915E+000
 0.49579935E+000
 0.49972313E+000
 0.50345380E+000
 0.94255038E+000
 0.96497426E+000
 0.93708980E+000
 0.91091006E+000
 0.72570285E+000
 0.59693497E+000
 0.50308187E+000
 0.49974483E+000
 0.49968469E+000
 0.49964411E+000
 0.49959835E+000
 0.49954855E+000
 0.49949505E+000
 0.49943893E+000
 0.49939157E+000
 0.49948782E+000
 0.50097171E+000
 0.51212292E+000
 0.56828918E+000
 0.73676620E+000
 0.46152659E+000
 0.50378797E+000
 0.50671440E+000
 0.53034481E+000
 0.94557941E+000
 0.96383949E+000
 0.94842279E+000
 0.91430128E+000
 0.70138791E+000
 0.63570218E+000
 0.52524555E+000
 0.51917401E+000
 0.52148430E+000
 0.52345983E+000
 0.52556830E+000
 0.52782326E+000
 0.53021155E+000
 0.53271622E+000
 0.53533136E+000
 0.53814713E+000
 0.54212317E+000
 0.55442434E+000
 0.61496390E+000
 0.86318790E+000
 0.22063790E+000
 0.21663999E+000
 0.21793074E+000
 0.10300377E-001
 0.89570643E+000
 0.96243258E+000
 0.89402709E+000
 0.84266733E+000
 0.80337273E+000
 0.51976679E-001
-0.30778661E+000
-0.28960712E+000
-0.33419580E+000
-0.37627014E+000
-0.41975924E+000
-0.46524304E+000
-0.51255712E+000
-0.56143727E+000
-0.61164160E+000
-0.66295732E+000
-0.71558794E+000
-0.77615173E+000
-0.89859072E+000
-0.12746536E+001
