 0.00000000E+000
 0.00000000E+000
 0.00000000E+000
 0.00000000E+000
 0.00000000E+000
 0.00000000E+000
 0.00000000E+000
 0.00000000E+000
 0.00000000E+000
 0.00000000E+000
 0.00000000E+000
 0.00000000E+000
 0.00000000E+000
 0.00000000E+000
 0.00000000E+000
 0.00000000E+000
 0.00000000E+000
 0.00000000E+000
 0.00000000E+000
 0.00000000E+000
 0.00000000E+000
 0.00000000E+000
 0.00000000E+000
 0.00000000E+000
 0.00000000E+000
 0.00000000E+000
 0.00000000E+000
 0.00000000E+000
 0.00000000E+000
 0.00000000E+000
 0.00000000E+000
 0.00000000E+000
 0.00000000E+000
 0.00000000E+000
 0.00000000E+000
 0.00000000E+000
 0.00000000E+000
 0.00000000E+000
 0.00000000E+000
 0.00000000E+000
 0.00000000E+000
 0.00000000E+000
 0.00000000E+000
 0.00000000E+000
 0.00000000E+000
 0.00000000E+000
 0.00000000E+000
 0.13127845E-014
 0.49671649E-011
 0.11271800E-007
 0.44664552E-006
 0.49251043E-005
 0.58864612E-004
 0.19400461E-003
 0.24528900E-004
 0.23107516E-008
 0.95408947E-012
 0.20189070E-017
 0.50966518E-018
 0.13741520E-020
 0.12084800E-022
 0.34890999E-026
 0.21258174E-032
 0.00000000E+000
 0.00000000E+000
 0.00000000E+000
 0.00000000E+000
 0.00000000E+000
 0.00000000E+000
 0.00000000E+000
 0.00000000E+000
 0.00000000E+000
 0.00000000E+000
 0.00000000E+000
 0.00000000E+000
 0.00000000E+000
 0.00000000E+000
 0.00000000E+000
 0.00000000E+000
 0.00000000E+000
 0.00000000E+000
 0.00000000E+000
 0.00000000E+000
 0.00000000E+000
 0.00000000E+000
 0.00000000E+000
 0.00000000E+000
 0.00000000E+000
 0.00000000E+000
 0.00000000E+000
 0.00000000E+000
 0.00000000E+000
 0.00000000E+000
 0.00000000E+000
 0.00000000E+000
 0.00000000E+000
 0.00000000E+000
 0.00000000E+000
 0.00000000E+000
 0.00000000E+000
 0.00000000E+000
 0.00000000E+000
 0.00000000E+000
 0.00000000E+000
 0.00000000E+000
 0.00000000E+000
 0.00000000E+000
 0.00000000E+000
 0.00000000E+000
 0.00000000E+000
 0.00000000E+000
 0.00000000E+000
 0.00000000E+000
 0.00000000E+000
 0.00000000E+000
 0.00000000E+000
 0.00000000E+000
 0.00000000E+000
 0.00000000E+000
 0.00000000E+000
 0.00000000E+000
 0.00000000E+000
 0.00000000E+000
 0.00000000E+000
 0.00000000E+000
 0.00000000E+000
 0.00000000E+000
 0.00000000E+000
 0.00000000E+000
 0.00000000E+000
 0.00000000E+000
 0.00000000E+000
 0.00000000E+000
 0.00000000E+000
 0.00000000E+000
 0.19671904E-011
 0.15346591E-008
 0.69861443E-007
 0.91757583E-006
 0.15166024E-004
 0.48740023E-004
 0.46420262E-005
 0.76036870E-010
 0.19231527E-012
 0.61142140E-016
 0.47097024E-018
 0.50479755E-021
 0.69676558E-024
 0.00000000E+000
 0.00000000E+000
 0.00000000E+000
 0.00000000E+000
 0.00000000E+000
 0.00000000E+000
 0.00000000E+000
 0.00000000E+000
 0.00000000E+000
 0.00000000E+000
 0.00000000E+000
 0.00000000E+000
 0.00000000E+000
 0.00000000E+000
 0.00000000E+000
 0.00000000E+000
 0.00000000E+000
 0.00000000E+000
 0.00000000E+000
 0.00000000E+000
 0.00000000E+000
 0.00000000E+000
 0.00000000E+000
 0.00000000E+000
 0.00000000E+000
 0.00000000E+000
 0.00000000E+000
 0.00000000E+000
 0.00000000E+000
 0.00000000E+000
 0.00000000E+000
 0.00000000E+000
 0.00000000E+000
 0.00000000E+000
 0.00000000E+000
 0.00000000E+000
 0.00000000E+000
 0.00000000E+000
 0.00000000E+000
 0.00000000E+000
 0.00000000E+000
 0.00000000E+000
 0.00000000E+000
 0.00000000E+000
 0.00000000E+000
 0.00000000E+000
 0.00000000E+000
 0.00000000E+000
 0.00000000E+000
 0.00000000E+000
 0.00000000E+000
 0.00000000E+000
 0.00000000E+000
 0.00000000E+000
 0.00000000E+000
 0.00000000E+000
 0.00000000E+000
 0.00000000E+000
 0.00000000E+000
 0.00000000E+000
 0.00000000E+000
 0.00000000E+000
 0.00000000E+000
 0.00000000E+000
 0.00000000E+000
 0.00000000E+000
 0.00000000E+000
 0.00000000E+000
 0.00000000E+000
 0.00000000E+000
 0.00000000E+000
 0.00000000E+000
 0.00000000E+000
 0.00000000E+000
 0.00000000E+000
 0.00000000E+000
 0.00000000E+000
 0.00000000E+000
 0.00000000E+000
 0.00000000E+000
 0.00000000E+000
 0.00000000E+000
 0.00000000E+000
 0.00000000E+000
 0.00000000E+000
 0.00000000E+000
 0.00000000E+000
 0.00000000E+000
 0.00000000E+000
 0.00000000E+000
 0.00000000E+000
 0.00000000E+000
 0.00000000E+000
 0.00000000E+000
 0.00000000E+000
 0.00000000E+000
 0.00000000E+000
 0.00000000E+000
 0.00000000E+000
 0.00000000E+000
 0.00000000E+000
 0.00000000E+000
 0.00000000E+000
 0.00000000E+000
 0.00000000E+000
 0.00000000E+000
 0.00000000E+000
 0.00000000E+000
 0.00000000E+000
 0.00000000E+000
 0.00000000E+000
 0.00000000E+000
 0.00000000E+000
 0.00000000E+000
 0.00000000E+000
 0.00000000E+000
 0.00000000E+000
 0.00000000E+000
 0.00000000E+000
 0.00000000E+000
 0.00000000E+000
 0.00000000E+000
 0.00000000E+000
 0.00000000E+000
 0.00000000E+000
 0.00000000E+000
 0.00000000E+000
 0.00000000E+000
 0.00000000E+000
 0.00000000E+000
 0.00000000E+000
 0.00000000E+000
 0.00000000E+000
 0.00000000E+000
 0.00000000E+000
 0.00000000E+000
 0.00000000E+000
 0.00000000E+000
 0.00000000E+000
 0.00000000E+000
 0.00000000E+000
 0.00000000E+000
 0.00000000E+000
 0.00000000E+000
 0.00000000E+000
 0.00000000E+000
 0.00000000E+000
 0.00000000E+000
 0.00000000E+000
 0.00000000E+000
 0.00000000E+000
 0.00000000E+000
 0.00000000E+000
 0.00000000E+000
 0.00000000E+000
 0.00000000E+000
 0.00000000E+000
 0.00000000E+000
 0.00000000E+000
 0.00000000E+000
 0.00000000E+000
 0.00000000E+000
 0.00000000E+000
 0.00000000E+000
 0.00000000E+000
 0.00000000E+000
 0.00000000E+000
 0.00000000E+000
 0.00000000E+000
 0.00000000E+000
 0.00000000E+000
 0.00000000E+000
 0.00000000E+000
 0.00000000E+000
 0.00000000E+000
 0.00000000E+000
 0.00000000E+000
 0.00000000E+000
 0.00000000E+000
 0.00000000E+000
 0.00000000E+000
 0.00000000E+000
 0.00000000E+000
 0.00000000E+000
 0.00000000E+000
 0.00000000E+000
 0.00000000E+000
 0.00000000E+000
 0.00000000E+000
 0.00000000E+000
 0.00000000E+000
 0.00000000E+000
 0.00000000E+000
 0.00000000E+000
 0.00000000E+000
 0.00000000E+000
 0.00000000E+000
 0.00000000E+000
 0.00000000E+000
 0.00000000E+000
 0.00000000E+000
 0.00000000E+000
 0.00000000E+000
 0.00000000E+000
 0.00000000E+000
 0.00000000E+000
 0.00000000E+000
 0.00000000E+000
 0.00000000E+000
 0.00000000E+000
 0.00000000E+000
 0.00000000E+000
 0.00000000E+000
 0.00000000E+000
 0.00000000E+000
 0.00000000E+000
 0.00000000E+000
 0.00000000E+000
 0.00000000E+000
 0.00000000E+000
 0.00000000E+000
 0.00000000E+000
 0.00000000E+000
 0.00000000E+000
 0.00000000E+000
 0.00000000E+000
 0.00000000E+000
 0.00000000E+000
 0.00000000E+000
 0.00000000E+000
 0.00000000E+000
 0.00000000E+000
 0.00000000E+000
 0.00000000E+000
 0.00000000E+000
 0.00000000E+000
 0.00000000E+000
 0.00000000E+000
 0.00000000E+000
 0.00000000E+000
 0.00000000E+000
 0.00000000E+000
 0.00000000E+000
 0.00000000E+000
 0.00000000E+000
 0.00000000E+000
 0.00000000E+000
 0.00000000E+000
 0.00000000E+000
 0.00000000E+000
 0.00000000E+000
 0.00000000E+000
 0.00000000E+000
 0.00000000E+000
 0.00000000E+000
 0.00000000E+000
 0.00000000E+000
 0.00000000E+000
 0.00000000E+000
 0.00000000E+000
 0.00000000E+000
 0.00000000E+000
 0.00000000E+000
 0.00000000E+000
 0.00000000E+000
 0.00000000E+000
 0.00000000E+000
 0.00000000E+000
 0.00000000E+000
 0.00000000E+000
 0.00000000E+000
 0.00000000E+000
 0.00000000E+000
 0.00000000E+000
 0.00000000E+000
 0.00000000E+000
 0.00000000E+000
 0.00000000E+000
 0.00000000E+000
 0.00000000E+000
 0.00000000E+000
 0.00000000E+000
 0.00000000E+000
 0.00000000E+000
 0.83306113E-030
 0.76244572E-030
 0.40898138E-030
 0.93259982E-031
 0.19048470E-031
 0.11264590E-032
 0.72232770E-035
 0.00000000E+000
 0.00000000E+000
 0.00000000E+000
 0.00000000E+000
 0.00000000E+000
 0.00000000E+000
 0.00000000E+000
 0.00000000E+000
 0.00000000E+000
 0.00000000E+000
 0.00000000E+000
 0.00000000E+000
 0.97662268E-029
 0.13749512E-027
 0.49696773E-027
 0.10641186E-026
 0.69420008E-027
 0.26486259E-027
 0.86537315E-028
 0.21594381E-028
 0.42626850E-029
 0.56870581E-030
 0.29094673E-031
 0.22650485E-033
 0.27892709E-036
 0.00000000E+000
 0.00000000E+000
 0.00000000E+000
 0.00000000E+000
 0.00000000E+000
 0.00000000E+000
 0.00000000E+000
 0.00000000E+000
 0.00000000E+000
 0.00000000E+000
 0.00000000E+000
 0.55737901E-027
 0.92124788E-026
 0.36114201E-025
 0.60603005E-025
 0.32577703E-025
 0.11495792E-025
 0.32232383E-026
 0.70777142E-027
 0.11773568E-027
 0.12960637E-028
 0.53081222E-030
 0.31192922E-032
 0.45552869E-035
 0.00000000E+000
 0.00000000E+000
 0.00000000E+000
 0.00000000E+000
 0.00000000E+000
 0.00000000E+000
 0.00000000E+000
 0.00000000E+000
 0.00000000E+000
 0.00000000E+000
 0.00000000E+000
 0.25134360E-025
 0.41104493E-024
 0.15499908E-023
 0.24873344E-023
 0.12501460E-023
 0.40075076E-024
 0.99496465E-025
 0.18718371E-025
 0.25664644E-026
 0.22352779E-027
 0.67934660E-029
 0.25710154E-031
 0.20173109E-034
 0.00000000E+000
 0.00000000E+000
 0.00000000E+000
 0.00000000E+000
 0.00000000E+000
 0.00000000E+000
 0.00000000E+000
 0.00000000E+000
 0.00000000E+000
 0.00000000E+000
 0.00000000E+000
 0.10176042E-023
 0.16365994E-022
 0.59235613E-022
 0.90043617E-022
 0.41845623E-022
 0.11955316E-022
 0.25551802E-023
 0.39649917E-024
 0.42447031E-025
 0.27010258E-026
 0.53551677E-028
 0.10534717E-030
 0.34288008E-034
 0.00000000E+000
 0.00000000E+000
 0.00000000E+000
 0.00000000E+000
 0.00000000E+000
 0.00000000E+000
 0.00000000E+000
 0.00000000E+000
 0.00000000E+000
 0.00000000E+000
 0.00000000E+000
 0.36959917E-022
 0.58285986E-021
 0.20086960E-020
 0.28578215E-020
 0.12059346E-020
 0.29835746E-021
 0.52717923E-022
 0.63722631E-023
 0.48996402E-024
 0.20002163E-025
 0.20792872E-027
 0.16953743E-030
 0.76699589E-035
 0.00000000E+000
 0.00000000E+000
 0.00000000E+000
 0.00000000E+000
 0.00000000E+000
 0.00000000E+000
 0.00000000E+000
 0.00000000E+000
 0.00000000E+000
 0.00000000E+000
 0.00000000E+000
 0.11953100E-020
 0.18414647E-019
 0.59762052E-019
 0.78220081E-019
 0.29203322E-019
 0.60000713E-020
 0.82534317E-021
 0.71166312E-022
 0.34350242E-023
 0.72562239E-025
 0.31653947E-027
 0.38135692E-031
 0.00000000E+000
 0.00000000E+000
 0.00000000E+000
 0.00000000E+000
 0.00000000E+000
 0.00000000E+000
 0.00000000E+000
 0.00000000E+000
 0.00000000E+000
 0.00000000E+000
 0.00000000E+000
 0.00000000E+000
 0.34224519E-019
 0.51167461E-018
 0.15381493E-017
 0.18035835E-017
 0.57212573E-018
 0.91585249E-019
 0.89301518E-020
 0.47676716E-021
 0.11648681E-022
 0.10326379E-024
 0.70258998E-028
 0.00000000E+000
 0.00000000E+000
 0.00000000E+000
 0.00000000E+000
 0.00000000E+000
 0.00000000E+000
 0.00000000E+000
 0.00000000E+000
 0.00000000E+000
 0.00000000E+000
 0.00000000E+000
 0.00000000E+000
 0.00000000E+000
 0.89457056E-018
 0.12636366E-016
 0.34116631E-016
 0.34172969E-016
 0.85156616E-017
 0.95934444E-018
 0.57021714E-019
 0.15124244E-020
 0.15332119E-022
 0.22732010E-025
 0.00000000E+000
 0.00000000E+000
 0.00000000E+000
 0.00000000E+000
 0.00000000E+000
 0.00000000E+000
 0.00000000E+000
 0.00000000E+000
 0.00000000E+000
 0.00000000E+000
 0.00000000E+000
 0.00000000E+000
 0.00000000E+000
 0.00000000E+000
 0.23438463E-016
 0.28884672E-015
 0.69856624E-015
 0.58876523E-015
 0.10735173E-015
 0.75641288E-017
 0.20327452E-018
 0.18132569E-020
 0.33311473E-023
 0.00000000E+000
 0.00000000E+000
 0.00000000E+000
 0.00000000E+000
 0.00000000E+000
 0.00000000E+000
 0.00000000E+000
 0.00000000E+000
 0.00000000E+000
 0.00000000E+000
 0.00000000E+000
 0.00000000E+000
 0.00000000E+000
 0.00000000E+000
 0.00000000E+000
 0.51374303E-015
 0.58096005E-014
 0.13096708E-013
 0.95788898E-014
 0.13246049E-014
 0.53362776E-016
 0.32026622E-018
 0.45049898E-021
 0.00000000E+000
 0.00000000E+000
 0.00000000E+000
 0.00000000E+000
 0.00000000E+000
 0.00000000E+000
 0.00000000E+000
 0.00000000E+000
 0.00000000E+000
 0.00000000E+000
 0.00000000E+000
 0.00000000E+000
 0.00000000E+000
 0.00000000E+000
 0.00000000E+000
 0.00000000E+000
 0.92551321E-014
 0.10061239E-012
 0.21167713E-012
 0.13176209E-012
 0.13022393E-013
 0.18645144E-015
 0.73556440E-019
 0.33794897E-021
 0.00000000E+000
 0.00000000E+000
 0.00000000E+000
 0.00000000E+000
 0.00000000E+000
 0.00000000E+000
 0.00000000E+000
 0.00000000E+000
 0.00000000E+000
 0.00000000E+000
 0.00000000E+000
 0.00000000E+000
 0.25462210E-013
 0.39694982E-012
 0.28245542E-011
 0.24706350E-010
 0.12843809E-009
 0.10453050E-009
 0.85263699E-011
 0.13953737E-011
 0.73788922E-013
 0.22570249E-015
 0.11877814E-018
 0.38508003E-021
 0.17408768E-024
 0.00000000E+000
 0.00000000E+000
 0.00000000E+000
 0.00000000E+000
 0.00000000E+000
 0.00000000E+000
 0.00000000E+000
 0.00000000E+000
 0.00000000E+000
 0.00000000E+000
 0.00000000E+000
 0.51006176E-010
 0.72815242E-006
 0.17338220E-004
 0.10503341E-003
 0.50644717E-003
 0.13051904E-002
 0.17201095E-003
 0.14234779E-008
 0.26243052E-012
 0.25505277E-016
 0.20076273E-018
 0.18853655E-020
 0.14251195E-023
 0.00000000E+000
 0.00000000E+000
 0.00000000E+000
 0.00000000E+000
 0.00000000E+000
 0.00000000E+000
 0.00000000E+000
 0.00000000E+000
 0.00000000E+000
 0.00000000E+000
 0.00000000E+000
 0.57076679E-010
 0.11156218E-005
 0.39448508E-004
 0.48338963E-003
 0.22171532E-002
 0.26390636E-002
 0.23235897E-003
 0.33346732E-008
 0.39352605E-012
 0.73992665E-017
 0.30727623E-018
 0.85370654E-021
 0.50147304E-023
 0.18219136E-026
 0.00000000E+000
 0.00000000E+000
 0.00000000E+000
 0.00000000E+000
 0.00000000E+000
 0.00000000E+000
 0.00000000E+000
 0.00000000E+000
 0.00000000E+000
 0.00000000E+000
 0.46814224E-010
 0.10173747E-005
 0.42487920E-004
 0.70482830E-003
 0.29582136E-002
 0.30275779E-002
 0.26143866E-003
 0.38578395E-008
 0.47288014E-012
 0.30541135E-018
 0.81806798E-019
 0.14642639E-020
 0.25186833E-023
 0.73777822E-026
 0.46241036E-030
 0.00000000E+000
 0.00000000E+000
 0.00000000E+000
 0.00000000E+000
 0.00000000E+000
 0.00000000E+000
 0.00000000E+000
 0.00000000E+000
 0.00000000E+000
 0.45280763E-010
 0.99628751E-006
 0.42411686E-004
 0.72507170E-003
 0.30186319E-002
 0.31813434E-002
 0.29633022E-003
 0.44213657E-008
 0.51684171E-012
 0.57113750E-016
 0.14604805E-020
 0.38351128E-021
 0.49519781E-023
 0.45651406E-026
 0.19757525E-029
 0.99704099E-035
 0.00000000E+000
 0.00000000E+000
 0.00000000E+000
 0.00000000E+000
 0.00000000E+000
 0.00000000E+000
 0.00000000E+000
 0.00000000E+000
 0.42841026E-010
 0.96084057E-006
 0.41531453E-004
 0.71836284E-003
 0.30105705E-002
 0.32176199E-002
 0.30450889E-003
 0.47502058E-008
 0.56400839E-012
 0.46359159E-015
 0.90482511E-020
 0.25319675E-022
 0.12824453E-023
 0.10840251E-025
 0.19348330E-029
 0.46577633E-034
 0.00000000E+000
 0.00000000E+000
 0.00000000E+000
 0.00000000E+000
 0.00000000E+000
 0.00000000E+000
 0.00000000E+000
 0.87011250E-015
 0.40056930E-010
 0.91952923E-006
 0.40588853E-004
 0.70988572E-003
 0.30003260E-002
 0.32282139E-002
 0.30700540E-003
 0.48821868E-008
 0.61698091E-012
 0.14355976E-014
 0.97960942E-018
 0.94108506E-021
 0.10640751E-023
 0.32150383E-026
 0.59827260E-029
 0.11311593E-033
 0.00000000E+000
 0.00000000E+000
 0.00000000E+000
 0.00000000E+000
 0.00000000E+000
 0.00000000E+000
 0.00000000E+000
 0.13714163E-013
 0.37569638E-010
 0.88308738E-006
 0.39918721E-004
 0.70302424E-003
 0.29922766E-002
 0.32338541E-002
 0.30845448E-003
 0.49589570E-008
 0.66511007E-012
 0.25250090E-014
 0.53518224E-017
 0.61323495E-020
 0.62634988E-023
 0.33796163E-026
 0.21028452E-029
 0.43028778E-033
 0.00000000E+000
 0.00000000E+000
 0.00000000E+000
 0.00000000E+000
 0.00000000E+000
 0.00000000E+000
 0.00000000E+000
 0.28968129E-013
 0.36539669E-010
 0.86763084E-006
 0.39652165E-004
 0.70033747E-003
 0.29891595E-002
 0.32358248E-002
 0.30898234E-003
 0.49872721E-008
 0.68590932E-012
 0.30284393E-014
 0.81631683E-017
 0.12405647E-019
 0.10325961E-022
 0.73797534E-026
 0.95616010E-030
 0.27215607E-033
 0.00000000E+000
 0.00000000E+000
 0.00000000E+000
 0.00000000E+000
 0.00000000E+000
 0.00000000E+000
 0.00000000E+000
 0.13714162E-013
 0.37569639E-010
 0.88308740E-006
 0.39918717E-004
 0.70302413E-003
 0.29922764E-002
 0.32338548E-002
 0.30845462E-003
 0.49589647E-008
 0.66511036E-012
 0.25250128E-014
 0.53519075E-017
 0.61326028E-020
 0.62633622E-023
 0.33823837E-026
 0.24108017E-029
 0.58071953E-033
 0.53178523E-038
 0.00000000E+000
 0.00000000E+000
 0.00000000E+000
 0.00000000E+000
 0.00000000E+000
 0.00000000E+000
 0.87011245E-015
 0.40056937E-010
 0.91953018E-006
 0.40588829E-004
 0.70988430E-003
 0.30003239E-002
 0.32282226E-002
 0.30700701E-003
 0.48822838E-008
 0.61698400E-012
 0.14356633E-014
 0.97990737E-018
 0.94101398E-021
 0.10646756E-023
 0.33678270E-026
 0.72312901E-029
 0.51468570E-033
 0.37906679E-037
 0.00000000E+000
 0.00000000E+000
 0.00000000E+000
 0.00000000E+000
 0.00000000E+000
 0.00000000E+000
 0.00000000E+000
 0.42841541E-010
 0.96084753E-006
 0.41530893E-004
 0.71834840E-003
 0.30105653E-002
 0.32177185E-002
 0.30452595E-003
 0.47510628E-008
 0.56404596E-012
 0.46381242E-015
 0.91219682E-020
 0.24739994E-022
 0.11454851E-023
 0.11435901E-025
 0.52325366E-029
 0.13747822E-032
 0.48392117E-038
 0.00000000E+000
 0.00000000E+000
 0.00000000E+000
 0.00000000E+000
 0.00000000E+000
 0.00000000E+000
 0.00000000E+000
 0.45280941E-010
 0.99646078E-006
 0.42410381E-004
 0.72492064E-003
 0.30185061E-002
 0.31819922E-002
 0.29643179E-003
 0.44275464E-008
 0.51677040E-012
 0.57168258E-016
 0.10324188E-020
 0.27446761E-021
 0.44120969E-023
 0.85882675E-026
 0.13127232E-028
 0.30769795E-033
 0.00000000E+000
 0.00000000E+000
 0.00000000E+000
 0.00000000E+000
 0.00000000E+000
 0.00000000E+000
 0.00000000E+000
 0.00000000E+000
 0.46904027E-010
 0.10180031E-005
 0.42438927E-004
 0.70349105E-003
 0.29590813E-002
 0.30334122E-002
 0.26244113E-003
 0.38672981E-008
 0.47820864E-012
 0.14942871E-018
 0.41252569E-019
 0.10453410E-020
 0.35147656E-023
 0.22437104E-025
 0.30727291E-029
 0.00000000E+000
 0.00000000E+000
 0.00000000E+000
 0.00000000E+000
 0.00000000E+000
 0.00000000E+000
 0.00000000E+000
 0.00000000E+000
 0.00000000E+000
 0.54470842E-010
 0.10933745E-005
 0.38712928E-004
 0.47886285E-003
 0.22412600E-002
 0.26627649E-002
 0.23149573E-003
 0.33956916E-008
 0.38947266E-012
 0.52875875E-018
 0.13452477E-018
 0.64570790E-021
 0.82535395E-023
 0.67089862E-026
 0.17104000E-032
 0.00000000E+000
 0.00000000E+000
 0.00000000E+000
 0.00000000E+000
 0.00000000E+000
 0.00000000E+000
 0.00000000E+000
 0.00000000E+000
 0.17587978E-015
 0.47266514E-010
 0.69308507E-006
 0.16759396E-004
 0.10494100E-003
 0.56615421E-003
 0.15030098E-002
 0.19694973E-003
 0.30936916E-008
 0.50164883E-012
 0.60616589E-018
 0.15860484E-018
 0.19301949E-020
 0.45590617E-023
 0.52963266E-026
 0.85452301E-033
 0.00000000E+000
 0.00000000E+000
 0.00000000E+000
 0.00000000E+000
 0.00000000E+000
 0.00000000E+000
