 0.00000000E+000
 0.00000000E+000
 0.00000000E+000
 0.00000000E+000
 0.00000000E+000
 0.00000000E+000
 0.00000000E+000
 0.00000000E+000
 0.00000000E+000
 0.00000000E+000
 0.00000000E+000
 0.00000000E+000
 0.00000000E+000
 0.00000000E+000
 0.00000000E+000
 0.00000000E+000
 0.00000000E+000
 0.00000000E+000
 0.00000000E+000
 0.00000000E+000
 0.00000000E+000
 0.00000000E+000
 0.00000000E+000
 0.00000000E+000
 0.00000000E+000
 0.00000000E+000
 0.00000000E+000
 0.00000000E+000
 0.00000000E+000
 0.00000000E+000
 0.00000000E+000
 0.00000000E+000
 0.00000000E+000
 0.00000000E+000
 0.00000000E+000
 0.00000000E+000
 0.00000000E+000
 0.00000000E+000
 0.00000000E+000
 0.00000000E+000
 0.00000000E+000
 0.00000000E+000
 0.00000000E+000
 0.00000000E+000
 0.00000000E+000
 0.00000000E+000
 0.00000000E+000
 0.65639228E-014
 0.29657686E-011
 0.61010955E-008
 0.29919514E-006
 0.45492941E-005
 0.61699368E-004
 0.20529712E-003
 0.27258713E-004
 0.51021828E-008
 0.15389822E-011
 0.17808869E-017
 0.45189697E-018
 0.18709725E-020
 0.21109162E-022
 0.65881140E-026
 0.00000000E+000
 0.00000000E+000
 0.00000000E+000
 0.00000000E+000
 0.00000000E+000
 0.00000000E+000
 0.00000000E+000
 0.00000000E+000
 0.00000000E+000
 0.00000000E+000
 0.00000000E+000
 0.00000000E+000
 0.00000000E+000
 0.00000000E+000
 0.00000000E+000
 0.00000000E+000
 0.00000000E+000
 0.00000000E+000
 0.00000000E+000
 0.00000000E+000
 0.00000000E+000
 0.00000000E+000
 0.00000000E+000
 0.00000000E+000
 0.00000000E+000
 0.00000000E+000
 0.00000000E+000
 0.00000000E+000
 0.00000000E+000
 0.00000000E+000
 0.00000000E+000
 0.00000000E+000
 0.00000000E+000
 0.00000000E+000
 0.00000000E+000
 0.00000000E+000
 0.00000000E+000
 0.00000000E+000
 0.00000000E+000
 0.00000000E+000
 0.00000000E+000
 0.00000000E+000
 0.00000000E+000
 0.00000000E+000
 0.00000000E+000
 0.00000000E+000
 0.00000000E+000
 0.00000000E+000
 0.00000000E+000
 0.00000000E+000
 0.00000000E+000
 0.00000000E+000
 0.00000000E+000
 0.00000000E+000
 0.00000000E+000
 0.00000000E+000
 0.00000000E+000
 0.00000000E+000
 0.00000000E+000
 0.00000000E+000
 0.00000000E+000
 0.00000000E+000
 0.00000000E+000
 0.00000000E+000
 0.00000000E+000
 0.00000000E+000
 0.00000000E+000
 0.00000000E+000
 0.00000000E+000
 0.00000000E+000
 0.00000000E+000
 0.00000000E+000
 0.00000000E+000
 0.18541154E-011
 0.75265670E-009
 0.41532006E-007
 0.79037533E-006
 0.13744931E-004
 0.49918459E-004
 0.56806083E-005
 0.18641415E-009
 0.30283836E-012
 0.95900031E-016
 0.74679852E-018
 0.95995296E-021
 0.15721208E-023
 0.00000000E+000
 0.00000000E+000
 0.00000000E+000
 0.00000000E+000
 0.00000000E+000
 0.00000000E+000
 0.00000000E+000
 0.00000000E+000
 0.00000000E+000
 0.00000000E+000
 0.00000000E+000
 0.00000000E+000
 0.00000000E+000
 0.00000000E+000
 0.00000000E+000
 0.00000000E+000
 0.00000000E+000
 0.00000000E+000
 0.00000000E+000
 0.00000000E+000
 0.00000000E+000
 0.00000000E+000
 0.00000000E+000
 0.00000000E+000
 0.00000000E+000
 0.00000000E+000
 0.00000000E+000
 0.00000000E+000
 0.00000000E+000
 0.00000000E+000
 0.00000000E+000
 0.00000000E+000
 0.00000000E+000
 0.00000000E+000
 0.00000000E+000
 0.00000000E+000
 0.00000000E+000
 0.00000000E+000
 0.00000000E+000
 0.00000000E+000
 0.00000000E+000
 0.00000000E+000
 0.00000000E+000
 0.00000000E+000
 0.00000000E+000
 0.00000000E+000
 0.00000000E+000
 0.00000000E+000
 0.00000000E+000
 0.00000000E+000
 0.00000000E+000
 0.00000000E+000
 0.00000000E+000
 0.00000000E+000
 0.00000000E+000
 0.00000000E+000
 0.00000000E+000
 0.00000000E+000
 0.00000000E+000
 0.00000000E+000
 0.00000000E+000
 0.00000000E+000
 0.00000000E+000
 0.00000000E+000
 0.00000000E+000
 0.00000000E+000
 0.00000000E+000
 0.00000000E+000
 0.00000000E+000
 0.00000000E+000
 0.00000000E+000
 0.00000000E+000
 0.00000000E+000
 0.00000000E+000
 0.00000000E+000
 0.00000000E+000
 0.00000000E+000
 0.00000000E+000
 0.00000000E+000
 0.00000000E+000
 0.00000000E+000
 0.00000000E+000
 0.00000000E+000
 0.00000000E+000
 0.00000000E+000
 0.00000000E+000
 0.00000000E+000
 0.00000000E+000
 0.00000000E+000
 0.00000000E+000
 0.00000000E+000
 0.00000000E+000
 0.00000000E+000
 0.00000000E+000
 0.00000000E+000
 0.00000000E+000
 0.00000000E+000
 0.00000000E+000
 0.00000000E+000
 0.00000000E+000
 0.00000000E+000
 0.00000000E+000
 0.00000000E+000
 0.00000000E+000
 0.00000000E+000
 0.00000000E+000
 0.00000000E+000
 0.00000000E+000
 0.00000000E+000
 0.00000000E+000
 0.00000000E+000
 0.00000000E+000
 0.00000000E+000
 0.00000000E+000
 0.00000000E+000
 0.00000000E+000
 0.00000000E+000
 0.00000000E+000
 0.00000000E+000
 0.00000000E+000
 0.00000000E+000
 0.00000000E+000
 0.00000000E+000
 0.00000000E+000
 0.00000000E+000
 0.00000000E+000
 0.00000000E+000
 0.00000000E+000
 0.00000000E+000
 0.00000000E+000
 0.00000000E+000
 0.00000000E+000
 0.00000000E+000
 0.00000000E+000
 0.00000000E+000
 0.00000000E+000
 0.00000000E+000
 0.00000000E+000
 0.00000000E+000
 0.00000000E+000
 0.00000000E+000
 0.00000000E+000
 0.00000000E+000
 0.00000000E+000
 0.00000000E+000
 0.00000000E+000
 0.00000000E+000
 0.00000000E+000
 0.00000000E+000
 0.00000000E+000
 0.00000000E+000
 0.00000000E+000
 0.00000000E+000
 0.00000000E+000
 0.00000000E+000
 0.00000000E+000
 0.00000000E+000
 0.00000000E+000
 0.00000000E+000
 0.00000000E+000
 0.00000000E+000
 0.00000000E+000
 0.00000000E+000
 0.00000000E+000
 0.00000000E+000
 0.00000000E+000
 0.00000000E+000
 0.00000000E+000
 0.00000000E+000
 0.00000000E+000
 0.00000000E+000
 0.00000000E+000
 0.00000000E+000
 0.00000000E+000
 0.00000000E+000
 0.00000000E+000
 0.00000000E+000
 0.00000000E+000
 0.00000000E+000
 0.00000000E+000
 0.00000000E+000
 0.00000000E+000
 0.00000000E+000
 0.00000000E+000
 0.00000000E+000
 0.00000000E+000
 0.00000000E+000
 0.00000000E+000
 0.00000000E+000
 0.00000000E+000
 0.00000000E+000
 0.00000000E+000
 0.00000000E+000
 0.00000000E+000
 0.00000000E+000
 0.00000000E+000
 0.00000000E+000
 0.00000000E+000
 0.00000000E+000
 0.00000000E+000
 0.00000000E+000
 0.00000000E+000
 0.00000000E+000
 0.00000000E+000
 0.00000000E+000
 0.00000000E+000
 0.00000000E+000
 0.00000000E+000
 0.00000000E+000
 0.00000000E+000
 0.00000000E+000
 0.00000000E+000
 0.00000000E+000
 0.00000000E+000
 0.00000000E+000
 0.00000000E+000
 0.00000000E+000
 0.00000000E+000
 0.00000000E+000
 0.00000000E+000
 0.00000000E+000
 0.00000000E+000
 0.00000000E+000
 0.00000000E+000
 0.00000000E+000
 0.00000000E+000
 0.00000000E+000
 0.00000000E+000
 0.00000000E+000
 0.00000000E+000
 0.00000000E+000
 0.00000000E+000
 0.00000000E+000
 0.00000000E+000
 0.00000000E+000
 0.00000000E+000
 0.00000000E+000
 0.00000000E+000
 0.00000000E+000
 0.00000000E+000
 0.00000000E+000
 0.00000000E+000
 0.00000000E+000
 0.00000000E+000
 0.00000000E+000
 0.00000000E+000
 0.00000000E+000
 0.00000000E+000
 0.00000000E+000
 0.00000000E+000
 0.00000000E+000
 0.00000000E+000
 0.00000000E+000
 0.00000000E+000
 0.00000000E+000
 0.00000000E+000
 0.00000000E+000
 0.00000000E+000
 0.00000000E+000
 0.00000000E+000
 0.00000000E+000
 0.00000000E+000
 0.00000000E+000
 0.00000000E+000
 0.00000000E+000
 0.00000000E+000
 0.00000000E+000
 0.00000000E+000
 0.00000000E+000
 0.00000000E+000
 0.00000000E+000
 0.00000000E+000
 0.00000000E+000
 0.00000000E+000
 0.00000000E+000
 0.00000000E+000
 0.00000000E+000
 0.00000000E+000
 0.00000000E+000
 0.00000000E+000
 0.00000000E+000
 0.00000000E+000
 0.00000000E+000
 0.00000000E+000
 0.41653056E-029
 0.37648223E-029
 0.18134666E-029
 0.41080350E-030
 0.77195627E-031
 0.46370242E-032
 0.33051822E-034
 0.00000000E+000
 0.00000000E+000
 0.00000000E+000
 0.00000000E+000
 0.00000000E+000
 0.00000000E+000
 0.00000000E+000
 0.00000000E+000
 0.00000000E+000
 0.00000000E+000
 0.00000000E+000
 0.00000000E+000
 0.36686957E-028
 0.58549182E-027
 0.22322727E-026
 0.43569707E-026
 0.26928208E-026
 0.10387576E-026
 0.33106762E-027
 0.82901942E-028
 0.16276096E-028
 0.21604941E-029
 0.11140471E-030
 0.90746751E-033
 0.12787646E-035
 0.00000000E+000
 0.00000000E+000
 0.00000000E+000
 0.00000000E+000
 0.00000000E+000
 0.00000000E+000
 0.00000000E+000
 0.00000000E+000
 0.00000000E+000
 0.00000000E+000
 0.00000000E+000
 0.20067862E-026
 0.33270667E-025
 0.13035188E-024
 0.21856372E-024
 0.11767104E-024
 0.41440406E-025
 0.11612797E-025
 0.25505205E-026
 0.42453220E-027
 0.46881047E-028
 0.19426770E-029
 0.11635837E-031
 0.18018621E-034
 0.00000000E+000
 0.00000000E+000
 0.00000000E+000
 0.00000000E+000
 0.00000000E+000
 0.00000000E+000
 0.00000000E+000
 0.00000000E+000
 0.00000000E+000
 0.00000000E+000
 0.00000000E+000
 0.85471643E-025
 0.13995129E-023
 0.52793529E-023
 0.84815263E-023
 0.42714300E-023
 0.13699663E-023
 0.34034860E-024
 0.64088698E-025
 0.87987291E-026
 0.76925810E-027
 0.23722106E-028
 0.91819615E-031
 0.74881874E-034
 0.00000000E+000
 0.00000000E+000
 0.00000000E+000
 0.00000000E+000
 0.00000000E+000
 0.00000000E+000
 0.00000000E+000
 0.00000000E+000
 0.00000000E+000
 0.00000000E+000
 0.00000000E+000
 0.32615654E-023
 0.52522730E-022
 0.19018899E-021
 0.28951998E-021
 0.13488560E-021
 0.38569369E-022
 0.82520528E-023
 0.12822725E-023
 0.13755792E-024
 0.87977218E-026
 0.17774958E-027
 0.36041042E-030
 0.12201596E-033
 0.00000000E+000
 0.00000000E+000
 0.00000000E+000
 0.00000000E+000
 0.00000000E+000
 0.00000000E+000
 0.00000000E+000
 0.00000000E+000
 0.00000000E+000
 0.00000000E+000
 0.00000000E+000
 0.11071729E-021
 0.17487377E-020
 0.60306578E-020
 0.85953318E-020
 0.36387088E-020
 0.90142682E-021
 0.15954496E-021
 0.19328886E-022
 0.14914227E-023
 0.61362084E-025
 0.65528549E-027
 0.55786583E-030
 0.27608806E-034
 0.00000000E+000
 0.00000000E+000
 0.00000000E+000
 0.00000000E+000
 0.00000000E+000
 0.00000000E+000
 0.00000000E+000
 0.00000000E+000
 0.00000000E+000
 0.00000000E+000
 0.00000000E+000
 0.33142334E-020
 0.51154611E-019
 0.16618305E-018
 0.21800830E-018
 0.81735430E-019
 0.16828949E-019
 0.23214708E-020
 0.20098744E-021
 0.97664546E-023
 0.20932359E-024
 0.94849843E-027
 0.12453203E-030
 0.00000000E+000
 0.00000000E+000
 0.00000000E+000
 0.00000000E+000
 0.00000000E+000
 0.00000000E+000
 0.00000000E+000
 0.00000000E+000
 0.00000000E+000
 0.00000000E+000
 0.00000000E+000
 0.00000000E+000
 0.86907554E-019
 0.13019408E-017
 0.39197277E-017
 0.46096091E-017
 0.14701265E-017
 0.23619064E-018
 0.23147952E-019
 0.12457679E-020
 0.30870097E-022
 0.27941783E-024
 0.20830518E-027
 0.00000000E+000
 0.00000000E+000
 0.00000000E+000
 0.00000000E+000
 0.00000000E+000
 0.00000000E+000
 0.00000000E+000
 0.00000000E+000
 0.00000000E+000
 0.00000000E+000
 0.00000000E+000
 0.00000000E+000
 0.00000000E+000
 0.20681147E-017
 0.29167589E-016
 0.78890914E-016
 0.79286052E-016
 0.19868116E-016
 0.22531274E-017
 0.13527325E-018
 0.36471821E-020
 0.37526898E-022
 0.60685023E-025
 0.00000000E+000
 0.00000000E+000
 0.00000000E+000
 0.00000000E+000
 0.00000000E+000
 0.00000000E+000
 0.00000000E+000
 0.00000000E+000
 0.00000000E+000
 0.00000000E+000
 0.00000000E+000
 0.00000000E+000
 0.00000000E+000
 0.00000000E+000
 0.49285146E-016
 0.59902535E-015
 0.14500051E-014
 0.12242813E-014
 0.22359188E-015
 0.15873802E-016
 0.43210170E-018
 0.39558197E-020
 0.80078762E-023
 0.00000000E+000
 0.00000000E+000
 0.00000000E+000
 0.00000000E+000
 0.00000000E+000
 0.00000000E+000
 0.00000000E+000
 0.00000000E+000
 0.00000000E+000
 0.00000000E+000
 0.00000000E+000
 0.00000000E+000
 0.00000000E+000
 0.00000000E+000
 0.00000000E+000
 0.96134959E-015
 0.10629540E-013
 0.23980815E-013
 0.17494834E-013
 0.24285914E-014
 0.98697135E-016
 0.61466392E-018
 0.96118843E-021
 0.00000000E+000
 0.00000000E+000
 0.00000000E+000
 0.00000000E+000
 0.00000000E+000
 0.00000000E+000
 0.00000000E+000
 0.00000000E+000
 0.00000000E+000
 0.00000000E+000
 0.00000000E+000
 0.00000000E+000
 0.00000000E+000
 0.00000000E+000
 0.00000000E+000
 0.00000000E+000
 0.15141416E-013
 0.15919661E-012
 0.33657832E-012
 0.21034537E-012
 0.21177215E-013
 0.32712801E-015
 0.13887188E-018
 0.71459869E-021
 0.00000000E+000
 0.00000000E+000
 0.00000000E+000
 0.00000000E+000
 0.00000000E+000
 0.00000000E+000
 0.00000000E+000
 0.00000000E+000
 0.00000000E+000
 0.00000000E+000
 0.00000000E+000
 0.00000000E+000
 0.10726065E-012
 0.15005215E-011
 0.81945837E-011
 0.68529340E-010
 0.35614625E-009
 0.27777561E-009
 0.14251879E-010
 0.19691575E-011
 0.11397608E-012
 0.39048124E-015
 0.18876162E-018
 0.75502575E-021
 0.39275008E-024
 0.00000000E+000
 0.00000000E+000
 0.00000000E+000
 0.00000000E+000
 0.00000000E+000
 0.00000000E+000
 0.00000000E+000
 0.00000000E+000
 0.00000000E+000
 0.00000000E+000
 0.00000000E+000
 0.20415858E-010
 0.32290138E-006
 0.82864787E-005
 0.60844075E-004
 0.41175592E-003
 0.12051740E-002
 0.16996723E-003
 0.33968505E-008
 0.45508357E-012
 0.10704672E-017
 0.28097205E-018
 0.35767310E-020
 0.32335784E-023
 0.00000000E+000
 0.00000000E+000
 0.00000000E+000
 0.00000000E+000
 0.00000000E+000
 0.00000000E+000
 0.00000000E+000
 0.00000000E+000
 0.00000000E+000
 0.00000000E+000
 0.00000000E+000
 0.23259858E-010
 0.47839298E-006
 0.17691033E-004
 0.24114780E-003
 0.17574124E-002
 0.23376788E-002
 0.19401662E-003
 0.76479992E-008
 0.67447954E-012
 0.12969126E-017
 0.32984254E-018
 0.15462145E-020
 0.11390983E-022
 0.47021314E-026
 0.00000000E+000
 0.00000000E+000
 0.00000000E+000
 0.00000000E+000
 0.00000000E+000
 0.00000000E+000
 0.00000000E+000
 0.00000000E+000
 0.00000000E+000
 0.00000000E+000
 0.19985105E-010
 0.43308417E-006
 0.20002416E-004
 0.36080550E-003
 0.25168797E-002
 0.26808840E-002
 0.19630261E-003
 0.84414383E-008
 0.79160747E-012
 0.32629280E-018
 0.90718484E-019
 0.24593159E-020
 0.55736319E-023
 0.19071446E-025
 0.12787576E-029
 0.00000000E+000
 0.00000000E+000
 0.00000000E+000
 0.00000000E+000
 0.00000000E+000
 0.00000000E+000
 0.00000000E+000
 0.00000000E+000
 0.00000000E+000
 0.19377244E-010
 0.42128481E-006
 0.20288416E-004
 0.37304125E-003
 0.26032863E-002
 0.29849711E-002
 0.25697993E-003
 0.95579004E-008
 0.85673245E-012
 0.12023542E-015
 0.24498704E-020
 0.65200625E-021
 0.10621065E-022
 0.11608774E-025
 0.54981493E-029
 0.30222685E-034
 0.00000000E+000
 0.00000000E+000
 0.00000000E+000
 0.00000000E+000
 0.00000000E+000
 0.00000000E+000
 0.00000000E+000
 0.00000000E+000
 0.18419727E-010
 0.39876930E-006
 0.19791790E-004
 0.36819533E-003
 0.25960752E-002
 0.30817295E-002
 0.27619677E-003
 0.10252865E-007
 0.92553064E-012
 0.93527323E-015
 0.30994122E-019
 0.53470103E-022
 0.27670720E-023
 0.27233316E-025
 0.54046994E-029
 0.13532622E-033
 0.00000000E+000
 0.00000000E+000
 0.00000000E+000
 0.00000000E+000
 0.00000000E+000
 0.00000000E+000
 0.00000000E+000
 0.43505625E-014
 0.17350525E-010
 0.37237131E-006
 0.19176191E-004
 0.36306087E-003
 0.25833614E-002
 0.31058052E-002
 0.28105160E-003
 0.10539010E-007
 0.99975448E-012
 0.27603307E-014
 0.21585033E-017
 0.22275392E-020
 0.28030796E-023
 0.82370131E-026
 0.16784313E-028
 0.34901790E-033
 0.00000000E+000
 0.00000000E+000
 0.00000000E+000
 0.00000000E+000
 0.00000000E+000
 0.00000000E+000
 0.00000000E+000
 0.59489215E-013
 0.16577379E-010
 0.34899417E-006
 0.18662643E-004
 0.35912726E-003
 0.25733366E-002
 0.31173472E-002
 0.28370661E-003
 0.10695844E-007
 0.10659451E-011
 0.47471352E-014
 0.11514345E-016
 0.14684995E-019
 0.16484905E-022
 0.96157697E-026
 0.60450307E-029
 0.13401027E-032
 0.00000000E+000
 0.00000000E+000
 0.00000000E+000
 0.00000000E+000
 0.00000000E+000
 0.00000000E+000
 0.00000000E+000
 0.10741263E-012
 0.16338920E-010
 0.33914001E-006
 0.18456423E-004
 0.35760942E-003
 0.25695277E-002
 0.31214487E-002
 0.28465538E-003
 0.10752304E-007
 0.10943658E-011
 0.56525747E-014
 0.17449867E-016
 0.29778114E-019
 0.27121390E-022
 0.21075523E-025
 0.29042680E-029
 0.82237252E-033
 0.00000000E+000
 0.00000000E+000
 0.00000000E+000
 0.00000000E+000
 0.00000000E+000
 0.00000000E+000
 0.00000000E+000
 0.59489213E-013
 0.16577381E-010
 0.34899419E-006
 0.18662639E-004
 0.35912704E-003
 0.25733362E-002
 0.31173491E-002
 0.28370696E-003
 0.10695866E-007
 0.10659459E-011
 0.47471459E-014
 0.11514608E-016
 0.14685899E-019
 0.16484364E-022
 0.96196704E-026
 0.64699454E-029
 0.16853114E-032
 0.26589261E-037
 0.00000000E+000
 0.00000000E+000
 0.00000000E+000
 0.00000000E+000
 0.00000000E+000
 0.00000000E+000
 0.43505622E-014
 0.17350536E-010
 0.37237219E-006
 0.19176172E-004
 0.36305855E-003
 0.25833567E-002
 0.31058246E-002
 0.28105506E-003
 0.10539256E-007
 0.99976230E-012
 0.27604915E-014
 0.21594238E-017
 0.22272688E-020
 0.28010256E-023
 0.78266434E-026
 0.18556735E-028
 0.14630774E-032
 0.18953339E-036
 0.00000000E+000
 0.00000000E+000
 0.00000000E+000
 0.00000000E+000
 0.00000000E+000
 0.00000000E+000
 0.00000000E+000
 0.18420203E-010
 0.39877415E-006
 0.19791420E-004
 0.36817644E-003
 0.25960697E-002
 0.30819206E-002
 0.27622610E-003
 0.10254774E-007
 0.92561165E-012
 0.93579896E-015
 0.31221438E-019
 0.50837736E-022
 0.21407849E-023
 0.25620175E-025
 0.13149012E-028
 0.38397112E-032
 0.24196058E-037
 0.00000000E+000
 0.00000000E+000
 0.00000000E+000
 0.00000000E+000
 0.00000000E+000
 0.00000000E+000
 0.00000000E+000
 0.19377507E-010
 0.42138679E-006
 0.20288918E-004
 0.37290218E-003
 0.26031079E-002
 0.29857034E-002
 0.25706567E-003
 0.95703758E-008
 0.85662109E-012
 0.12036495E-015
 0.14558302E-020
 0.39432915E-021
 0.81803917E-023
 0.19008542E-025
 0.32498562E-028
 0.85454497E-033
 0.00000000E+000
 0.00000000E+000
 0.00000000E+000
 0.00000000E+000
 0.00000000E+000
 0.00000000E+000
 0.00000000E+000
 0.00000000E+000
 0.20042878E-010
 0.43339110E-006
 0.19988064E-004
 0.36059568E-003
 0.25191367E-002
 0.26868750E-002
 0.19727266E-003
 0.84562710E-008
 0.80033193E-012
 0.14423723E-018
 0.41557308E-019
 0.14802871E-020
 0.64783158E-023
 0.49208916E-025
 0.75481833E-029
 0.00000000E+000
 0.00000000E+000
 0.00000000E+000
 0.00000000E+000
 0.00000000E+000
 0.00000000E+000
 0.00000000E+000
 0.00000000E+000
 0.00000000E+000
 0.21654995E-010
 0.46063964E-006
 0.17431733E-004
 0.24480702E-003
 0.18031334E-002
 0.23522025E-002
 0.18861904E-003
 0.76584104E-008
 0.65988897E-012
 0.50766380E-018
 0.13017091E-018
 0.90048717E-021
 0.15038447E-022
 0.14494788E-025
 0.00000000E+000
 0.00000000E+000
 0.00000000E+000
 0.00000000E+000
 0.00000000E+000
 0.00000000E+000
 0.00000000E+000
 0.00000000E+000
 0.00000000E+000
 0.87939890E-015
 0.16673942E-010
 0.29222633E-006
 0.81984606E-005
 0.64875701E-004
 0.49136767E-003
 0.14213842E-002
 0.19150425E-003
 0.72670611E-008
 0.83061741E-012
 0.54050344E-018
 0.14474085E-018
 0.25958241E-020
 0.80624462E-023
 0.10168464E-025
 0.00000000E+000
 0.00000000E+000
 0.00000000E+000
 0.00000000E+000
 0.00000000E+000
 0.00000000E+000
 0.00000000E+000
