 0.31588038E+003
 0.28800000E+003
 0.28800000E+003
 0.28800000E+003
 0.28800000E+003
 0.26902394E+003
 0.31588038E+003
 0.31588038E+003
 0.31588038E+003
 0.31588038E+003
 0.31588038E+003
 0.31588038E+003
 0.31588038E+003
 0.31588038E+003
 0.31588038E+003
 0.31588038E+003
 0.31588038E+003
 0.31588038E+003
 0.31588038E+003
 0.31588038E+003
 0.31588038E+003
 0.31588038E+003
 0.31588038E+003
 0.31588038E+003
 0.31588038E+003
 0.31588038E+003
 0.31588038E+003
 0.31588038E+003
 0.31588038E+003
 0.31285821E+003
 0.28800000E+003
 0.28800000E+003
 0.28800000E+003
 0.28800000E+003
 0.28800000E+003
 0.28800000E+003
 0.28800000E+003
 0.28800000E+003
 0.28800000E+003
 0.28800000E+003
 0.28800000E+003
 0.28800000E+003
 0.28800000E+003
 0.28800000E+003
 0.28800000E+003
 0.71224323E+003
 0.72498612E+003
 0.73824905E+003
 0.75205326E+003
 0.76642082E+003
 0.78137474E+003
 0.79693894E+003
 0.81313832E+003
 0.82999882E+003
 0.84754740E+003
 0.86581216E+003
 0.88482232E+003
 0.90460829E+003
 0.92520175E+003
 0.94663564E+003
 0.96894426E+003
 0.99216331E+003
 0.10163299E+004
 0.10414828E+004
 0.10676622E+004
 0.10949100E+004
 0.11232699E+004
 0.11527871E+004
 0.11835089E+004
 0.28800000E+003
 0.28800000E+003
 0.28800000E+003
 0.28800000E+003
 0.28800000E+003
 0.28800000E+003
 0.28800000E+003
 0.28800000E+003
 0.28800000E+003
 0.28800000E+003
 0.28800000E+003
 0.28800000E+003
 0.28800000E+003
 0.28800000E+003
 0.28800000E+003
 0.27113403E+003
 0.26902394E+003
 0.26902394E+003
 0.26902394E+003
 0.26902394E+003
 0.26902394E+003
 0.26902394E+003
 0.26902394E+003
 0.26902394E+003
 0.26902394E+003
 0.26902394E+003
 0.26902394E+003
 0.26902394E+003
 0.26902394E+003
 0.26902394E+003
 0.26902394E+003
 0.26902394E+003
 0.26902394E+003
 0.26902394E+003
 0.26902394E+003
 0.26902394E+003
 0.26902394E+003
 0.26902394E+003
 0.26902394E+003
 0.26902394E+003
 0.26902394E+003
 0.26902394E+003
 0.26902394E+003
 0.26902394E+003
 0.26902394E+003
 0.26902394E+003
 0.26902395E+003
 0.26902405E+003
 0.26902519E+003
 0.26903503E+003
 0.26909905E+003
 0.26941430E+003
 0.27058372E+003
 0.27381220E+003
 0.28031769E+003
 0.28973270E+003
 0.29958672E+003
 0.30733533E+003
 0.31213300E+003
 0.31452949E+003
 0.31549047E+003
 0.31579393E+003
 0.31586803E+003
 0.31217313E+003
 0.31579393E+003
 0.31549047E+003
 0.34976184E+003
 0.47825785E+003
 0.54244778E+003
 0.56286342E+003
 0.59120339E+003
 0.56431294E+003
 0.33724425E+003
 0.27058372E+003
 0.26941430E+003
 0.26909905E+003
 0.26903503E+003
 0.26902519E+003
 0.26902405E+003
 0.26902395E+003
 0.26902394E+003
 0.26902394E+003
 0.26902394E+003
 0.26902394E+003
 0.26902394E+003
 0.26902394E+003
 0.27159655E+003
 0.31586803E+003
 0.31579393E+003
 0.31549047E+003
 0.31452949E+003
 0.31213300E+003
 0.30733533E+003
 0.29958672E+003
 0.28973270E+003
 0.28031769E+003
 0.27381220E+003
 0.27058372E+003
 0.26941430E+003
 0.26909905E+003
 0.26903503E+003
 0.26902519E+003
 0.26902405E+003
 0.26902395E+003
 0.26902394E+003
 0.26902394E+003
 0.26902394E+003
 0.26902394E+003
 0.26902394E+003
 0.26902394E+003
 0.26902394E+003
 0.31586803E+003
 0.31579393E+003
 0.31549047E+003
 0.31452949E+003
 0.31213300E+003
 0.30733533E+003
 0.29958672E+003
 0.28973270E+003
 0.28031769E+003
 0.27381220E+003
 0.27058372E+003
 0.26941430E+003
 0.26909905E+003
 0.26903503E+003
 0.26902519E+003
 0.26902405E+003
 0.26902395E+003
 0.26902394E+003
 0.26902394E+003
 0.26902394E+003
 0.26902394E+003
 0.26902394E+003
 0.26902394E+003
 0.26902394E+003
 0.31586803E+003
 0.31579393E+003
 0.31549047E+003
 0.31452949E+003
 0.31213300E+003
 0.30733533E+003
 0.29958672E+003
 0.28973270E+003
 0.28031769E+003
 0.27381220E+003
 0.27058372E+003
 0.26941430E+003
 0.26909905E+003
 0.26903503E+003
 0.26902519E+003
 0.26902405E+003
 0.26902395E+003
 0.26902394E+003
 0.26902394E+003
 0.26902394E+003
 0.26902394E+003
 0.26902394E+003
 0.26902394E+003
 0.26902394E+003
 0.31586803E+003
 0.31579393E+003
 0.31549047E+003
 0.31452949E+003
 0.31213300E+003
 0.30733533E+003
 0.29958672E+003
 0.28973270E+003
 0.28031769E+003
 0.27381220E+003
 0.27058372E+003
 0.26941430E+003
 0.26909905E+003
 0.26903503E+003
 0.26902519E+003
 0.26902405E+003
 0.26902395E+003
 0.26902394E+003
 0.26902394E+003
 0.26902394E+003
 0.26902394E+003
 0.26902394E+003
 0.26902394E+003
 0.26902394E+003
 0.31586803E+003
 0.31579393E+003
 0.31549047E+003
 0.31452949E+003
 0.31213300E+003
 0.30733533E+003
 0.29958672E+003
 0.28973270E+003
 0.28031769E+003
 0.27381220E+003
 0.27058372E+003
 0.26941430E+003
 0.26909905E+003
 0.26903503E+003
 0.26902519E+003
 0.26902405E+003
 0.26902395E+003
 0.26902394E+003
 0.26902394E+003
 0.26902394E+003
 0.26902394E+003
 0.26902394E+003
 0.26902394E+003
 0.26902394E+003
 0.31586803E+003
 0.31579393E+003
 0.31549047E+003
 0.31452949E+003
 0.31213300E+003
 0.30733533E+003
 0.29958672E+003
 0.28973270E+003
 0.28031769E+003
 0.27381220E+003
 0.27058372E+003
 0.26941430E+003
 0.26909905E+003
 0.26903503E+003
 0.26902519E+003
 0.26902405E+003
 0.26902395E+003
 0.26902394E+003
 0.26902394E+003
 0.26902394E+003
 0.26902394E+003
 0.26902394E+003
 0.26902394E+003
 0.26902394E+003
 0.31586803E+003
 0.31579393E+003
 0.31549047E+003
 0.31452949E+003
 0.31213300E+003
 0.30733533E+003
 0.29958672E+003
 0.28973270E+003
 0.28031769E+003
 0.27381220E+003
 0.27058372E+003
 0.26941430E+003
 0.26909905E+003
 0.26903503E+003
 0.26902519E+003
 0.26902405E+003
 0.26902395E+003
 0.26902394E+003
 0.26902394E+003
 0.26902394E+003
 0.26902394E+003
 0.26902394E+003
 0.26902394E+003
 0.26902394E+003
 0.31586803E+003
 0.31579393E+003
 0.31549047E+003
 0.31452949E+003
 0.31213300E+003
 0.30733533E+003
 0.29958672E+003
 0.28973270E+003
 0.28031769E+003
 0.27381220E+003
 0.27058372E+003
 0.26941430E+003
 0.26909905E+003
 0.26903503E+003
 0.26902519E+003
 0.26902405E+003
 0.26902395E+003
 0.26902394E+003
 0.26902394E+003
 0.26902394E+003
 0.26902394E+003
 0.26902394E+003
 0.26902394E+003
 0.26902394E+003
 0.31586803E+003
 0.31579393E+003
 0.31549047E+003
 0.31452949E+003
 0.31213300E+003
 0.30733533E+003
 0.29958672E+003
 0.28973270E+003
 0.28031769E+003
 0.27381220E+003
 0.27058372E+003
 0.26941430E+003
 0.26909905E+003
 0.26903503E+003
 0.26902519E+003
 0.26902405E+003
 0.26902395E+003
 0.26902394E+003
 0.26902394E+003
 0.26902394E+003
 0.26902394E+003
 0.26902394E+003
 0.26902394E+003
 0.26902394E+003
 0.31586803E+003
 0.31579393E+003
 0.31549047E+003
 0.31452949E+003
 0.31213300E+003
 0.30733533E+003
 0.29958672E+003
 0.28973270E+003
 0.28031769E+003
 0.27381220E+003
 0.27058372E+003
 0.26941430E+003
 0.26909905E+003
 0.26903503E+003
 0.26902519E+003
 0.26902405E+003
 0.26902395E+003
 0.26902394E+003
 0.26902394E+003
 0.26902394E+003
 0.26902394E+003
 0.26902394E+003
 0.26902394E+003
 0.26902394E+003
 0.31586803E+003
 0.31579393E+003
 0.31549047E+003
 0.31452949E+003
 0.31213300E+003
 0.30733533E+003
 0.29958672E+003
 0.28973270E+003
 0.28031769E+003
 0.27381220E+003
 0.27058372E+003
 0.26941430E+003
 0.26909905E+003
 0.26903503E+003
 0.26902519E+003
 0.26902405E+003
 0.26902395E+003
 0.26902394E+003
 0.26902394E+003
 0.26902394E+003
 0.26902394E+003
 0.26902394E+003
 0.26902394E+003
 0.26902394E+003
 0.31586803E+003
 0.31579393E+003
 0.31549047E+003
 0.31452949E+003
 0.31213300E+003
 0.30733533E+003
 0.29958672E+003
 0.28973270E+003
 0.28031769E+003
 0.27381220E+003
 0.27058372E+003
 0.26941430E+003
 0.26909905E+003
 0.26903503E+003
 0.26902519E+003
 0.26902405E+003
 0.26902395E+003
 0.26902394E+003
 0.26902394E+003
 0.26902394E+003
 0.26902394E+003
 0.26902394E+003
 0.26902394E+003
 0.26902394E+003
 0.31586803E+003
 0.31579393E+003
 0.31549047E+003
 0.31452949E+003
 0.31213300E+003
 0.30733533E+003
 0.29958672E+003
 0.28973270E+003
 0.28031769E+003
 0.27381220E+003
 0.27058372E+003
 0.26941430E+003
 0.26909905E+003
 0.26903503E+003
 0.26902519E+003
 0.26902405E+003
 0.26902395E+003
 0.26902394E+003
 0.26902394E+003
 0.26902394E+003
 0.26902394E+003
 0.26902394E+003
 0.26902394E+003
 0.26902394E+003
 0.31586803E+003
 0.31579393E+003
 0.31549047E+003
 0.31452949E+003
 0.31213300E+003
 0.30733533E+003
 0.29958672E+003
 0.28973270E+003
 0.28031769E+003
 0.27381220E+003
 0.27058372E+003
 0.26941430E+003
 0.26909905E+003
 0.26903503E+003
 0.26902519E+003
 0.26902405E+003
 0.26902395E+003
 0.26902394E+003
 0.26902394E+003
 0.26902394E+003
 0.26902394E+003
 0.26902394E+003
 0.26902394E+003
 0.26902394E+003
 0.31586803E+003
 0.31579393E+003
 0.31549047E+003
 0.31452949E+003
 0.31213300E+003
 0.30733533E+003
 0.29958672E+003
 0.28973270E+003
 0.28031769E+003
 0.27381220E+003
 0.27058372E+003
 0.26941430E+003
 0.26909905E+003
 0.26903503E+003
 0.26902519E+003
 0.26902405E+003
 0.26902395E+003
 0.26902394E+003
 0.26902394E+003
 0.26902394E+003
 0.26902394E+003
 0.26902394E+003
 0.26902394E+003
 0.26902394E+003
 0.31586803E+003
 0.31579393E+003
 0.31549047E+003
 0.31452949E+003
 0.31213300E+003
 0.30733533E+003
 0.29958672E+003
 0.28973270E+003
 0.28031769E+003
 0.27381220E+003
 0.27058372E+003
 0.26941430E+003
 0.26909905E+003
 0.26903503E+003
 0.26902519E+003
 0.26902405E+003
 0.26902395E+003
 0.26902394E+003
 0.26902394E+003
 0.26902394E+003
 0.26902394E+003
 0.26902394E+003
 0.26902394E+003
 0.26902394E+003
 0.31586803E+003
 0.31579393E+003
 0.31549047E+003
 0.31452949E+003
 0.31213300E+003
 0.30733533E+003
 0.29958672E+003
 0.28973270E+003
 0.28031769E+003
 0.27381220E+003
 0.27058372E+003
 0.26941430E+003
 0.26909905E+003
 0.26903503E+003
 0.26902519E+003
 0.26902405E+003
 0.26902395E+003
 0.26902394E+003
 0.26902394E+003
 0.26902394E+003
 0.26902394E+003
 0.26902394E+003
 0.26902394E+003
 0.26902394E+003
 0.31586803E+003
 0.31579393E+003
 0.31549047E+003
 0.31452949E+003
 0.31213300E+003
 0.30733533E+003
 0.29958672E+003
 0.28973270E+003
 0.28031769E+003
 0.27381220E+003
 0.27058372E+003
 0.26941430E+003
 0.26909905E+003
 0.26903503E+003
 0.26902519E+003
 0.26902405E+003
 0.26902395E+003
 0.26902394E+003
 0.26902394E+003
 0.26902394E+003
 0.26902394E+003
 0.26902394E+003
 0.26902394E+003
 0.26902394E+003
 0.31586803E+003
 0.31579393E+003
 0.31549047E+003
 0.31452949E+003
 0.31213300E+003
 0.30733533E+003
 0.29958672E+003
 0.28973270E+003
 0.28031769E+003
 0.27381220E+003
 0.27058372E+003
 0.26941430E+003
 0.26909905E+003
 0.26903503E+003
 0.26902519E+003
 0.26902405E+003
 0.26902395E+003
 0.26902394E+003
 0.26902394E+003
 0.26902394E+003
 0.26902394E+003
 0.26902394E+003
 0.26902394E+003
 0.26902394E+003
 0.31586803E+003
 0.31579393E+003
 0.31549047E+003
 0.31452949E+003
 0.31213300E+003
 0.30733533E+003
 0.29958672E+003
 0.28973270E+003
 0.28031769E+003
 0.27381220E+003
 0.27058372E+003
 0.26941430E+003
 0.26909905E+003
 0.26903503E+003
 0.26902519E+003
 0.26902405E+003
 0.26902395E+003
 0.26902394E+003
 0.26902394E+003
 0.26902394E+003
 0.26902394E+003
 0.26902394E+003
 0.26902394E+003
 0.26902394E+003
 0.31586803E+003
 0.31579393E+003
 0.31549047E+003
 0.31452949E+003
 0.31213300E+003
 0.30733533E+003
 0.29958672E+003
 0.28973270E+003
 0.28031769E+003
 0.27381220E+003
 0.27058372E+003
 0.26941430E+003
 0.26909905E+003
 0.26903503E+003
 0.26902519E+003
 0.26902405E+003
 0.26902395E+003
 0.26902394E+003
 0.26902394E+003
 0.26902394E+003
 0.26902394E+003
 0.26902394E+003
 0.26902394E+003
 0.26902394E+003
 0.31586803E+003
 0.31579393E+003
 0.31549047E+003
 0.31452949E+003
 0.31213300E+003
 0.30733533E+003
 0.29958672E+003
 0.28973270E+003
 0.28031769E+003
 0.27381220E+003
 0.27058372E+003
 0.26941430E+003
 0.26909905E+003
 0.26903503E+003
 0.26902519E+003
 0.26902405E+003
 0.26902395E+003
 0.26902394E+003
 0.26902394E+003
 0.26902394E+003
 0.26902394E+003
 0.26902394E+003
 0.26902394E+003
 0.26902394E+003
 0.31586803E+003
 0.31579393E+003
 0.31549047E+003
 0.31452949E+003
 0.31213300E+003
 0.30733533E+003
 0.29958672E+003
 0.28973270E+003
 0.28031769E+003
 0.27381220E+003
 0.27058372E+003
 0.26941430E+003
 0.26909905E+003
 0.26903503E+003
 0.26902519E+003
 0.26902405E+003
 0.26902395E+003
 0.26902394E+003
 0.26902394E+003
 0.26902394E+003
 0.26902394E+003
 0.26902394E+003
 0.26902394E+003
 0.26902394E+003
 0.31511605E+003
 0.31579393E+003
 0.31549047E+003
 0.31452949E+003
 0.31213300E+003
 0.30733533E+003
 0.29958672E+003
 0.28973270E+003
 0.28031769E+003
 0.27381220E+003
 0.27058372E+003
 0.26941430E+003
 0.26909905E+003
 0.26903503E+003
 0.26902519E+003
 0.26902405E+003
 0.26902395E+003
 0.26902394E+003
 0.26902394E+003
 0.26902394E+003
 0.26902394E+003
 0.26902394E+003
 0.26902394E+003
 0.26955155E+003
 0.31131217E+003
 0.31579393E+003
 0.31549047E+003
 0.47237381E+003
 0.12769131E+004
 0.16533449E+004
 0.17231839E+004
 0.18210062E+004
 0.17007488E+004
 0.60532873E+003
 0.27058372E+003
 0.26941430E+003
 0.26909905E+003
 0.26903503E+003
 0.26902519E+003
 0.26902405E+003
 0.26902395E+003
 0.26902394E+003
 0.26902394E+003
 0.26902394E+003
 0.26902394E+003
 0.26902394E+003
 0.26902394E+003
 0.27218858E+003
 0.31131217E+003
 0.31579393E+003
 0.31549047E+003
 0.50060833E+003
 0.15817819E+004
 0.20960349E+004
 0.20960349E+004
 0.20960349E+004
 0.19019322E+004
 0.66162040E+003
 0.27058372E+003
 0.26941430E+003
 0.26909905E+003
 0.26903503E+003
 0.26902519E+003
 0.26902405E+003
 0.26902395E+003
 0.26902394E+003
 0.26902394E+003
 0.26902394E+003
 0.26902394E+003
 0.26902394E+003
 0.26902394E+003
 0.27218858E+003
 0.31131217E+003
 0.31579393E+003
 0.31549047E+003
 0.50060833E+003
 0.15817819E+004
 0.20960349E+004
 0.20960349E+004
 0.20960349E+004
 0.19019322E+004
 0.66162040E+003
 0.27058372E+003
 0.26941430E+003
 0.26909905E+003
 0.26903503E+003
 0.26902519E+003
 0.26902405E+003
 0.26902395E+003
 0.26902394E+003
 0.26902394E+003
 0.26902394E+003
 0.26902394E+003
 0.26902394E+003
 0.26902394E+003
 0.27218858E+003
 0.31131217E+003
 0.31579393E+003
 0.31549047E+003
 0.50060833E+003
 0.15817819E+004
 0.20960349E+004
 0.20960349E+004
 0.20960349E+004
 0.19019322E+004
 0.66162040E+003
 0.27058372E+003
 0.26941430E+003
 0.26909905E+003
 0.26903503E+003
 0.26902519E+003
 0.26902405E+003
 0.26902395E+003
 0.26902394E+003
 0.26902394E+003
 0.26902394E+003
 0.26902394E+003
 0.26902394E+003
 0.26902394E+003
 0.27218858E+003
 0.31131217E+003
 0.31579393E+003
 0.31549047E+003
 0.50060833E+003
 0.15817819E+004
 0.20960349E+004
 0.20960349E+004
 0.20960349E+004
 0.19019322E+004
 0.66162040E+003
 0.27058372E+003
 0.26941430E+003
 0.26909905E+003
 0.26903503E+003
 0.26902519E+003
 0.26902405E+003
 0.26902395E+003
 0.26902394E+003
 0.26902394E+003
 0.26902394E+003
 0.26902394E+003
 0.26902394E+003
 0.26902394E+003
 0.27218858E+003
 0.31131217E+003
 0.31579393E+003
 0.31549047E+003
 0.50060833E+003
 0.15817819E+004
 0.20960349E+004
 0.20960349E+004
 0.20960349E+004
 0.19019322E+004
 0.66162040E+003
 0.27058372E+003
 0.26941430E+003
 0.26909905E+003
 0.26903503E+003
 0.26902519E+003
 0.26902405E+003
 0.26902395E+003
 0.26902394E+003
 0.26902394E+003
 0.26902394E+003
 0.26902394E+003
 0.26902394E+003
 0.26902394E+003
 0.27218858E+003
 0.31131217E+003
 0.31579393E+003
 0.31549047E+003
 0.50060833E+003
 0.15817819E+004
 0.20960349E+004
 0.20960349E+004
 0.20960349E+004
 0.19019322E+004
 0.66162040E+003
 0.27058372E+003
 0.26941430E+003
 0.26909905E+003
 0.26903503E+003
 0.26902519E+003
 0.26902405E+003
 0.26902395E+003
 0.26902394E+003
 0.26902394E+003
 0.26902394E+003
 0.26902394E+003
 0.26902394E+003
 0.26902394E+003
 0.27218858E+003
 0.31131217E+003
 0.31579393E+003
 0.31549047E+003
 0.50060833E+003
 0.15817819E+004
 0.20960349E+004
 0.20960349E+004
 0.20960349E+004
 0.19019322E+004
 0.66162040E+003
 0.27058372E+003
 0.26941430E+003
 0.26909905E+003
 0.26903503E+003
 0.26902519E+003
 0.26902405E+003
 0.26902395E+003
 0.26902394E+003
 0.26902394E+003
 0.26902394E+003
 0.26902394E+003
 0.26902394E+003
 0.26902394E+003
 0.27218858E+003
 0.31131217E+003
 0.31579393E+003
 0.31549047E+003
 0.50060833E+003
 0.15817819E+004
 0.20960349E+004
 0.20960349E+004
 0.20960349E+004
 0.19019322E+004
 0.66162040E+003
 0.27058372E+003
 0.26941430E+003
 0.26909905E+003
 0.26903503E+003
 0.26902519E+003
 0.26902405E+003
 0.26902395E+003
 0.26902394E+003
 0.26902394E+003
 0.26902394E+003
 0.26902394E+003
 0.26902394E+003
 0.26902394E+003
 0.27218858E+003
 0.31131217E+003
 0.31579393E+003
 0.31549047E+003
 0.50060833E+003
 0.15817819E+004
 0.20960349E+004
 0.20960349E+004
 0.20960349E+004
 0.19019322E+004
 0.66162040E+003
 0.27058372E+003
 0.26941430E+003
 0.26909905E+003
 0.26903503E+003
 0.26902519E+003
 0.26902405E+003
 0.26902395E+003
 0.26902394E+003
 0.26902394E+003
 0.26902394E+003
 0.26902394E+003
 0.26902394E+003
 0.26902394E+003
 0.27218858E+003
 0.31131217E+003
 0.31579393E+003
 0.31549047E+003
 0.50060833E+003
 0.15817819E+004
 0.20960349E+004
 0.20960349E+004
 0.20960349E+004
 0.19019322E+004
 0.66162040E+003
 0.27058372E+003
 0.26941430E+003
 0.26909905E+003
 0.26903503E+003
 0.26902519E+003
 0.26902405E+003
 0.26902395E+003
 0.26902394E+003
 0.26902394E+003
 0.26902394E+003
 0.26902394E+003
 0.26902394E+003
 0.26902394E+003
 0.27218858E+003
 0.31131217E+003
 0.31579393E+003
 0.31549047E+003
 0.50060833E+003
 0.15817819E+004
 0.20960349E+004
 0.20960349E+004
 0.20960349E+004
 0.19019322E+004
 0.66162040E+003
 0.27058372E+003
 0.26941430E+003
 0.26909905E+003
 0.26903503E+003
 0.26902519E+003
 0.26902405E+003
 0.26902395E+003
 0.26902394E+003
 0.26902394E+003
 0.26902394E+003
 0.26902394E+003
 0.26902394E+003
 0.26902394E+003
 0.27218858E+003
 0.31131217E+003
 0.31579393E+003
 0.31549047E+003
 0.50060833E+003
 0.15817819E+004
 0.20960349E+004
 0.20960349E+004
 0.20960349E+004
 0.19019322E+004
 0.66162040E+003
 0.27058372E+003
 0.26941430E+003
 0.26909905E+003
 0.26903503E+003
 0.26902519E+003
 0.26902405E+003
 0.26902395E+003
 0.26902394E+003
 0.26902394E+003
 0.26902394E+003
 0.26902394E+003
 0.26902394E+003
 0.26902394E+003
 0.27218858E+003
 0.31131217E+003
 0.31579393E+003
 0.31549047E+003
 0.50060833E+003
 0.15817819E+004
 0.20960349E+004
 0.20960349E+004
 0.20960349E+004
 0.19019322E+004
 0.66162040E+003
 0.27058372E+003
 0.26941430E+003
 0.26909905E+003
 0.26903503E+003
 0.26902519E+003
 0.26902405E+003
 0.26902395E+003
 0.26902394E+003
 0.26902394E+003
 0.26902394E+003
 0.26902394E+003
 0.26902394E+003
 0.26902394E+003
 0.27218858E+003
 0.37714937E+003
 0.39523508E+003
 0.39772493E+003
 0.55174004E+003
 0.13570449E+004
 0.17366866E+004
 0.18056910E+004
 0.19019781E+004
 0.17828419E+004
 0.70082220E+003
 0.37330592E+003
 0.37508110E+003
 0.37815593E+003
 0.38173220E+003
 0.38554257E+003
 0.38952836E+003
 0.39368433E+003
 0.39801498E+003
 0.40252685E+003
 0.40722745E+003
 0.41212483E+003
 0.41722752E+003
 0.42254459E+003
 0.40430919E+003
