 0.99956003E+000
 0.10000000E+001
 0.10000000E+001
 0.99956000E+000
 0.43550397E-009
 0.00000000E+000
 0.00000000E+000
 0.43545904E-009
 0.99960002E+000
 0.99962443E+000
 0.99964143E+000
 0.99971225E+000
 0.99987763E+000
 0.99997451E+000
 0.99997676E+000
 0.99997608E+000
 0.99997596E+000
 0.99997592E+000
 0.99997419E+000
 0.99994020E+000
 0.99948886E+000
 0.99457664E+000
 0.10000000E+001
 0.10000000E+001
 0.10000000E+001
 0.10000000E+001
 0.10000000E+001
 0.10000000E+001
 0.10000000E+001
 0.10000000E+001
 0.99457695E+000
 0.99948900E+000
 0.99994022E+000
 0.99997419E+000
 0.99997592E+000
 0.99997597E+000
 0.99997609E+000
 0.99997677E+000
 0.99997451E+000
 0.99987763E+000
 0.99971227E+000
 0.99964146E+000
 0.99962444E+000
 0.99960001E+000
 0.99787738E+000
 0.98558019E+000
 0.92904804E+000
 0.76056294E+000
 0.46949802E+000
 0.19809256E+000
 0.56994777E-001
 0.11585759E-001
 0.17280504E-002
 0.19822862E-003
 0.18292283E-004
 0.14013777E-005
 0.90179839E-007
 0.48997664E-008
 0.38583679E-009
 0.32454814E-009
 0.24999236E-009
 0.14699072E-009
 0.41904822E-010
 0.51788417E-012
 0.83610712E-014
 0.21798058E-012
 0.84665812E-011
 0.29497786E-009
 0.87005148E-008
 0.21589681E-006
 0.46054734E-005
 0.85841677E-004
 0.00000000E+000
 0.00000000E+000
 0.00000000E+000
 0.00000000E+000
 0.00000000E+000
 0.00000000E+000
 0.00000000E+000
 0.00000000E+000
 0.85865734E-004
 0.46069615E-005
 0.21596559E-006
 0.87032414E-008
 0.29506303E-009
 0.84690081E-011
 0.21804167E-012
 0.83611044E-014
 0.51791742E-012
 0.41904339E-010
 0.14698568E-009
 0.24997488E-009
 0.32451566E-009
 0.38579592E-009
 0.48993614E-008
 0.90174398E-007
 0.14013269E-005
 0.18292074E-004
 0.19823077E-003
 0.17280942E-002
 0.11586081E-001
 0.56996024E-001
 0.19809548E+000
 0.46950261E+000
 0.76056760E+000
 0.92905054E+000
 0.98558090E+000
 0.99787750E+000
 0.89683741E+000
 0.79302433E+000
 0.75004364E+000
 0.65481608E+000
 0.42049359E+000
 0.16025246E+000
 0.35808114E-001
 0.91309179E-002
 0.61106837E-002
 0.59197001E-002
 0.60420190E-002
 0.63150877E-002
 0.65757970E-002
 0.38850157E-002
 0.89684175E+000
 0.79303686E+000
 0.75006631E+000
 0.65486247E+000
 0.42051708E+000
 0.16025798E+000
 0.35808449E-001
 0.91306188E-002
 0.61101692E-002
 0.59191728E-002
 0.60412230E-002
 0.63145591E-002
 0.65752069E-002
 0.38845324E-002
 0.25935738E-003
 0.48289039E-003
 0.53634671E-003
 0.53022984E-003
 0.53209600E-003
 0.65896974E-003
 0.31341144E-002
 0.30057818E-001
 0.17253761E+000
 0.49976688E+000
 0.81430731E+000
 0.94241091E+000
 0.97178924E+000
 0.98711732E+000
 0.13729145E-004
 0.28141221E-004
 0.35512972E-004
 0.37947548E-004
 0.43564565E-004
 0.18466685E-003
 0.28490981E-002
 0.30950641E-001
 0.17579375E+000
 0.50342514E+000
 0.82356040E+000
 0.96428621E+000
 0.99412267E+000
 0.99854313E+000
 0.67765524E-006
 0.13869865E-005
 0.18095750E-005
 0.21616596E-005
 0.83185450E-005
 0.17192545E-003
 0.30151259E-002
 0.31746432E-001
 0.17689603E+000
 0.50290634E+000
 0.82258439E+000
 0.96529455E+000
 0.99605149E+000
 0.99965718E+000
 0.27561949E-007
 0.56475165E-007
 0.77917245E-007
 0.24124162E-006
 0.60317455E-005
 0.16109820E-003
 0.29135689E-002
 0.31261506E-001
 0.17588199E+000
 0.50209561E+000
 0.82262627E+000
 0.96558895E+000
 0.99622903E+000
 0.99973877E+000
 0.93305572E-009
 0.19567173E-008
 0.51297246E-008
 0.13397834E-006
 0.51423380E-005
 0.14724585E-003
 0.27911612E-002
 0.30747931E-001
 0.17492858E+000
 0.50139093E+000
 0.82255790E+000
 0.96568233E+000
 0.99625755E+000
 0.99974301E+000
 0.27204602E-010
 0.86233114E-010
 0.20941358E-008
 0.10829800E-006
 0.45384233E-005
 0.13775536E-003
 0.27104280E-002
 0.30426512E-001
 0.17437042E+000
 0.50102739E+000
 0.82254089E+000
 0.96572661E+000
 0.99627027E+000
 0.99974412E+000
 0.95901372E-012
 0.24327112E-010
 0.15912511E-008
 0.91770222E-007
 0.41207348E-005
 0.13153184E-003
 0.26669879E-002
 0.30333310E-001
 0.17449099E+000
 0.50168918E+000
 0.82331271E+000
 0.96606203E+000
 0.99632501E+000
 0.99974627E+000
 0.22170282E-012
 0.17644309E-010
 0.12917793E-008
 0.78974581E-007
 0.37803991E-005
 0.12721615E-003
 0.26593104E-002
 0.30540950E-001
 0.17571973E+000
 0.50425766E+000
 0.82552506E+000
 0.96677213E+000
 0.99641968E+000
 0.99975537E+000
 0.16701962E-011
 0.25861529E-010
 0.24046266E-009
 0.83789114E-008
 0.20620059E-005
 0.10452780E-003
 0.25351071E-002
 0.30561392E-001
 0.17795106E+000
 0.51111947E+000
 0.83292098E+000
 0.96984561E+000
 0.99692102E+000
 0.99977030E+000
 0.41663604E-009
 0.81544763E-008
 0.15635693E-006
 0.27896212E-005
 0.44248183E-004
 0.59258924E-003
 0.61085228E-002
 0.43190575E-001
 0.19093979E+000
 0.50011609E+000
 0.81153679E+000
 0.95936665E+000
 0.99440847E+000
 0.99938311E+000
 0.16151195E-008
 0.32239797E-007
 0.58957060E-006
 0.95331091E-005
 0.12891502E-003
 0.13654946E-002
 0.10584318E-001
 0.56752440E-001
 0.20431100E+000
 0.48667705E+000
 0.78120970E+000
 0.94128747E+000
 0.98942731E+000
 0.99859081E+000
 0.27806266E-008
 0.54964663E-007
 0.95557968E-006
 0.14165879E-004
 0.17170006E-003
 0.16221370E-002
 0.11407750E-001
 0.57565435E-001
 0.20243217E+000
 0.48018828E+000
 0.77314907E+000
 0.93649860E+000
 0.98792132E+000
 0.99830665E+000
 0.35315934E-008
 0.67947645E-007
 0.11363531E-005
 0.16003528E-004
 0.18377648E-003
 0.16621441E-002
 0.11391605E-001
 0.56908581E-001
 0.19997172E+000
 0.47606496E+000
 0.77001011E+000
 0.93544169E+000
 0.98772067E+000
 0.99826543E+000
 0.41211217E-008
 0.76966442E-007
 0.12449537E-005
 0.16945408E-004
 0.18911511E-003
 0.16768794E-002
 0.11368644E-001
 0.56583805E-001
 0.19879979E+000
 0.47365350E+000
 0.76728326E+000
 0.93393365E+000
 0.98727172E+000
 0.99817185E+000
 0.36341341E-001
 0.47772135E-001
 0.48964823E-001
 0.48841417E-001
 0.48733255E-001
 0.48861235E-001
 0.50038127E-001
 0.53795076E-001
 0.52892152E-001
 0.17419127E-001
 0.00000000E+000
 0.71671457E-001
 0.22514390E+000
 0.45386864E+000
 0.32311034E-001
 0.47034329E-001
 0.49686017E-001
 0.49963000E-001
 0.49984865E-001
 0.50018048E-001
 0.50088859E-001
 0.49940208E-001
 0.49570303E-001
 0.53362888E-001
 0.65851424E-001
 0.10191362E+000
 0.20718896E+000
 0.44105011E+000
 0.32342312E-001
 0.46848255E-001
 0.49646459E-001
 0.49972793E-001
 0.49999034E-001
 0.50001614E-001
 0.50000022E-001
 0.50034584E-001
 0.50433317E-001
 0.52560973E-001
 0.62805664E-001
 0.10270320E+000
 0.21105198E+000
 0.44160875E+000
 0.32320614E-001
 0.46838965E-001
 0.49640005E-001
 0.49971614E-001
 0.49998387E-001
 0.50000185E-001
 0.50004865E-001
 0.50055041E-001
 0.50449625E-001
 0.52817491E-001
 0.63586786E-001
 0.10311879E+000
 0.20974338E+000
 0.43859419E+000
 0.32320042E-001
 0.46838904E-001
 0.49639985E-001
 0.49971613E-001
 0.49998387E-001
 0.50000185E-001
 0.50004864E-001
 0.50055030E-001
 0.50449529E-001
 0.52816830E-001
 0.63584349E-001
 0.10311110E+000
 0.20972357E+000
 0.43857039E+000
 0.32341198E-001
 0.46848077E-001
 0.49646423E-001
 0.49972789E-001
 0.49999034E-001
 0.50001613E-001
 0.50000021E-001
 0.50034568E-001
 0.50433191E-001
 0.52560282E-001
 0.62801815E-001
 0.10269224E+000
 0.21102912E+000
 0.44156395E+000
 0.32307630E-001
 0.47033705E-001
 0.49685991E-001
 0.49962993E-001
 0.49984857E-001
 0.50018050E-001
 0.50088848E-001
 0.49940175E-001
 0.49570194E-001
 0.53362107E-001
 0.65848648E-001
 0.10190885E+000
 0.20718198E+000
 0.44104978E+000
 0.36340377E-001
 0.47771807E-001
 0.48964698E-001
 0.48841527E-001
 0.48733206E-001
 0.48860893E-001
 0.50037904E-001
 0.53795010E-001
 0.52891228E-001
 0.17417780E-001
 0.00000000E+000
 0.71658720E-001
 0.22514697E+000
 0.45390150E+000
 0.41214797E-008
 0.76971477E-007
 0.12450057E-005
 0.16945704E-004
 0.18911424E-003
 0.16768447E-002
 0.11368343E-001
 0.56582645E-001
 0.19879768E+000
 0.47365151E+000
 0.76728162E+000
 0.93393265E+000
 0.98727144E+000
 0.99817180E+000
 0.35318788E-008
 0.67951639E-007
 0.11363944E-005
 0.16003764E-004
 0.18377566E-003
 0.16621143E-002
 0.11391337E-001
 0.56907451E-001
 0.19997017E+000
 0.47606552E+000
 0.77001252E+000
 0.93544316E+000
 0.98772109E+000
 0.99826550E+000
 0.27807536E-008
 0.54965891E-007
 0.95558333E-006
 0.14165745E-004
 0.17169702E-003
 0.16221000E-002
 0.11407497E-001
 0.57564677E-001
 0.20243149E+000
 0.48018967E+000
 0.77315305E+000
 0.93650150E+000
 0.98792216E+000
 0.99830678E+000
 0.16151366E-008
 0.32239520E-007
 0.58955902E-006
 0.95328995E-005
 0.12891314E-003
 0.13654935E-002
 0.10584414E-001
 0.56753082E-001
 0.20431315E+000
 0.48668173E+000
 0.78121533E+000
 0.94129036E+000
 0.98942794E+000
 0.99859089E+000
 0.41663144E-009
 0.81542591E-008
 0.15635265E-006
 0.27895760E-005
 0.44248005E-004
 0.59260028E-003
 0.61088066E-002
 0.43192784E-001
 0.19094516E+000
 0.50012426E+000
 0.81154273E+000
 0.95936887E+000
 0.99440873E+000
 0.99938313E+000
 0.16701331E-011
 0.25860245E-010
 0.24054810E-009
 0.83926081E-008
 0.20629044E-005
 0.10453667E-003
 0.25354575E-002
 0.30565524E-001
 0.17795599E+000
 0.51112288E+000
 0.83292391E+000
 0.96984723E+000
 0.99692097E+000
 0.99977029E+000
 0.22179155E-012
 0.17655178E-010
 0.12924208E-008
 0.78991302E-007
 0.37814847E-005
 0.12723361E-003
 0.26596989E-002
 0.30544161E-001
 0.17572492E+000
 0.50426238E+000
 0.82553299E+000
 0.96677676E+000
 0.99642006E+000
 0.99975540E+000
 0.95887685E-012
 0.24337048E-010
 0.15922637E-008
 0.91809697E-007
 0.41213537E-005
 0.13155644E-003
 0.26674905E-002
 0.30335217E-001
 0.17449846E+000
 0.50169535E+000
 0.82332249E+000
 0.96606822E+000
 0.99632543E+000
 0.99974636E+000
 0.27197421E-010
 0.86223089E-010
 0.20949239E-008
 0.10836785E-006
 0.45396201E-005
 0.13776565E-003
 0.27106305E-002
 0.30428116E-001
 0.17437425E+000
 0.50102839E+000
 0.82255307E+000
 0.96573202E+000
 0.99627047E+000
 0.99974418E+000
 0.93279363E-009
 0.19561874E-008
 0.51297308E-008
 0.13402757E-006
 0.51448139E-005
 0.14727218E-003
 0.27908770E-002
 0.30748598E-001
 0.17492743E+000
 0.50138686E+000
 0.82256570E+000
 0.96568316E+000
 0.99625752E+000
 0.99974301E+000
 0.27554477E-007
 0.56459501E-007
 0.77896684E-007
 0.24127071E-006
 0.60336521E-005
 0.16114478E-003
 0.29137591E-002
 0.31262843E-001
 0.17588496E+000
 0.50208987E+000
 0.82262382E+000
 0.96558782E+000
 0.99622911E+000
 0.99973879E+000
 0.67747527E-006
 0.13866225E-005
 0.18090503E-005
 0.21611684E-005
 0.83195260E-005
 0.17195507E-003
 0.30154812E-002
 0.31747151E-001
 0.17690481E+000
 0.50291734E+000
 0.82259364E+000
 0.96529814E+000
 0.99605196E+000
 0.99965727E+000
 0.13725578E-004
 0.28135432E-004
 0.35504113E-004
 0.37938617E-004
 0.43557054E-004
 0.18467869E-003
 0.28492217E-002
 0.30953741E-001
 0.17580209E+000
 0.50343768E+000
 0.82358180E+000
 0.96429046E+000
 0.99412322E+000
 0.99854348E+000
 0.25929427E-003
 0.48280356E-003
 0.53625590E-003
 0.53012431E-003
 0.53201054E-003
 0.65888426E-003
 0.31339716E-002
 0.30058441E-001
 0.17253796E+000
 0.49976964E+000
 0.81432400E+000
 0.94241743E+000
 0.97179314E+000
 0.98711849E+000
