 0.31650515E+003
 0.29800000E+003
 0.29800000E+003
 0.31650515E+003
 0.29799999E+003
 0.29800000E+003
 0.29800000E+003
 0.29799999E+003
 0.31650587E+003
 0.31650645E+003
 0.31650694E+003
 0.31650859E+003
 0.31651171E+003
 0.31651365E+003
 0.31651395E+003
 0.31651395E+003
 0.31651462E+003
 0.31652911E+003
 0.31673585E+003
 0.31774353E+003
 0.32013724E+003
 0.32783995E+003
 0.29800000E+003
 0.29800000E+003
 0.29800000E+003
 0.29800000E+003
 0.29800000E+003
 0.29800000E+003
 0.29800000E+003
 0.29800000E+003
 0.32783981E+003
 0.32013720E+003
 0.31774353E+003
 0.31673583E+003
 0.31652911E+003
 0.31651462E+003
 0.31651395E+003
 0.31651395E+003
 0.31651365E+003
 0.31651171E+003
 0.31650859E+003
 0.31650694E+003
 0.31650645E+003
 0.31650587E+003
 0.31647678E+003
 0.31629628E+003
 0.31556732E+003
 0.31347565E+003
 0.30934804E+003
 0.30414564E+003
 0.30027132E+003
 0.29857245E+003
 0.29810317E+003
 0.29801400E+003
 0.29800149E+003
 0.29800012E+003
 0.29800000E+003
 0.29800000E+003
 0.29799999E+003
 0.29799999E+003
 0.29799999E+003
 0.29799999E+003
 0.29799999E+003
 0.29799999E+003
 0.29799999E+003
 0.29799999E+003
 0.29800000E+003
 0.29800004E+003
 0.29800109E+003
 0.29802326E+003
 0.29844442E+003
 0.30277212E+003
 0.29800000E+003
 0.29800000E+003
 0.29800000E+003
 0.29800000E+003
 0.29800000E+003
 0.29800000E+003
 0.29800000E+003
 0.29800000E+003
 0.30277292E+003
 0.29844453E+003
 0.29802327E+003
 0.29800109E+003
 0.29800004E+003
 0.29800000E+003
 0.29799999E+003
 0.29799999E+003
 0.29799999E+003
 0.29799999E+003
 0.29799999E+003
 0.29799999E+003
 0.29799999E+003
 0.29799999E+003
 0.29800000E+003
 0.29800000E+003
 0.29800012E+003
 0.29800149E+003
 0.29801400E+003
 0.29810317E+003
 0.29857246E+003
 0.30027136E+003
 0.30414571E+003
 0.30934810E+003
 0.31347569E+003
 0.31556735E+003
 0.31629629E+003
 0.31647679E+003
 0.51995743E+003
 0.63268678E+003
 0.54716214E+003
 0.41876397E+003
 0.41514109E+003
 0.47616235E+003
 0.50630679E+003
 0.49098629E+003
 0.47188499E+003
 0.46645511E+003
 0.46749519E+003
 0.46969008E+003
 0.46164904E+003
 0.40768104E+003
 0.51996416E+003
 0.63269495E+003
 0.54717430E+003
 0.41877007E+003
 0.41514382E+003
 0.47616337E+003
 0.50630616E+003
 0.49098285E+003
 0.47188027E+003
 0.46644941E+003
 0.46748788E+003
 0.46968434E+003
 0.46164413E+003
 0.40767820E+003
 0.31010968E+003
 0.31809484E+003
 0.31942169E+003
 0.31886344E+003
 0.31876473E+003
 0.32056030E+003
 0.32732529E+003
 0.33452092E+003
 0.33473937E+003
 0.33657946E+003
 0.34501449E+003
 0.35971620E+003
 0.36348391E+003
 0.34499036E+003
 0.29883184E+003
 0.29943456E+003
 0.29969715E+003
 0.29974476E+003
 0.29979129E+003
 0.30010374E+003
 0.30094807E+003
 0.30287367E+003
 0.30730466E+003
 0.31346982E+003
 0.31841334E+003
 0.32109688E+003
 0.32167308E+003
 0.32079655E+003
 0.29804458E+003
 0.29808242E+003
 0.29810673E+003
 0.29811665E+003
 0.29812898E+003
 0.29817933E+003
 0.29845114E+003
 0.29987576E+003
 0.30409656E+003
 0.31014788E+003
 0.31454879E+003
 0.31643142E+003
 0.31699131E+003
 0.31740646E+003
 0.29800212E+003
 0.29800397E+003
 0.29800527E+003
 0.29800610E+003
 0.29800819E+003
 0.29802910E+003
 0.29825048E+003
 0.29961401E+003
 0.30378565E+003
 0.30980328E+003
 0.31415583E+003
 0.31598638E+003
 0.31647213E+003
 0.31662359E+003
 0.29800008E+003
 0.29800015E+003
 0.29800021E+003
 0.29800028E+003
 0.29800126E+003
 0.29801937E+003
 0.29823322E+003
 0.29958295E+003
 0.30374561E+003
 0.30976794E+003
 0.31412504E+003
 0.31595477E+003
 0.31643249E+003
 0.31651418E+003
 0.29800000E+003
 0.29800000E+003
 0.29800000E+003
 0.29800003E+003
 0.29800088E+003
 0.29801828E+003
 0.29822907E+003
 0.29957273E+003
 0.30373370E+003
 0.30976227E+003
 0.31412385E+003
 0.31595386E+003
 0.31643052E+003
 0.31650717E+003
 0.29799999E+003
 0.29799999E+003
 0.29800000E+003
 0.29800002E+003
 0.29800082E+003
 0.29801787E+003
 0.29822761E+003
 0.29957171E+003
 0.30373934E+003
 0.30977425E+003
 0.31413365E+003
 0.31595802E+003
 0.31643139E+003
 0.31650695E+003
 0.29799999E+003
 0.29799999E+003
 0.29800000E+003
 0.29800002E+003
 0.29800077E+003
 0.29801751E+003
 0.29822752E+003
 0.29957994E+003
 0.30377048E+003
 0.30981895E+003
 0.31416596E+003
 0.31597100E+003
 0.31643427E+003
 0.31650727E+003
 0.29799999E+003
 0.29799999E+003
 0.29800000E+003
 0.29800006E+003
 0.29800127E+003
 0.29802185E+003
 0.29825085E+003
 0.29964566E+003
 0.30385582E+003
 0.30987236E+003
 0.31418843E+003
 0.31597709E+003
 0.31643444E+003
 0.31650676E+003
 0.29799999E+003
 0.29800000E+003
 0.29800002E+003
 0.29800036E+003
 0.29800473E+003
 0.29804941E+003
 0.29837943E+003
 0.29993514E+003
 0.30406274E+003
 0.30977206E+003
 0.31400066E+003
 0.31587104E+003
 0.31640072E+003
 0.31649983E+003
 0.29799999E+003
 0.29800000E+003
 0.29800006E+003
 0.29800088E+003
 0.29800991E+003
 0.29808465E+003
 0.29852467E+003
 0.30023401E+003
 0.30424997E+003
 0.30961202E+003
 0.31373254E+003
 0.31571079E+003
 0.31634671E+003
 0.31648843E+003
 0.29799999E+003
 0.29800000E+003
 0.29800009E+003
 0.29800124E+003
 0.29801264E+003
 0.29809888E+003
 0.29856886E+003
 0.30029773E+003
 0.30424659E+003
 0.30950312E+003
 0.31360889E+003
 0.31563991E+003
 0.31632207E+003
 0.31648286E+003
 0.29800000E+003
 0.29800000E+003
 0.29800011E+003
 0.29800137E+003
 0.29801341E+003
 0.29810124E+003
 0.29857004E+003
 0.30028136E+003
 0.30419541E+003
 0.30943671E+003
 0.31356149E+003
 0.31561869E+003
 0.31631565E+003
 0.31648141E+003
 0.29800000E+003
 0.29800000E+003
 0.29800012E+003
 0.29800144E+003
 0.29801372E+003
 0.29810194E+003
 0.29856922E+003
 0.30027028E+003
 0.30416255E+003
 0.30938860E+003
 0.31352023E+003
 0.31559622E+003
 0.31630769E+003
 0.31647951E+003
 0.68591832E+003
 0.84971848E+003
 0.88205403E+003
 0.88362398E+003
 0.88294163E+003
 0.88641394E+003
 0.89896832E+003
 0.90756377E+003
 0.84266748E+003
 0.62942892E+003
 0.61490697E+003
 0.10942448E+004
 0.14370206E+004
 0.10470866E+004
 0.72571892E+003
 0.92795215E+003
 0.97829292E+003
 0.98509670E+003
 0.98564227E+003
 0.98650348E+003
 0.98967825E+003
 0.99309739E+003
 0.98283946E+003
 0.97210848E+003
 0.11049543E+004
 0.14788228E+004
 0.17053479E+004
 0.11886665E+004
 0.71932580E+003
 0.92466574E+003
 0.97893971E+003
 0.98732145E+003
 0.98820109E+003
 0.98833908E+003
 0.98846235E+003
 0.98909107E+003
 0.99629465E+003
 0.10381777E+004
 0.12014956E+004
 0.15365284E+004
 0.17174129E+004
 0.11917528E+004
 0.71916187E+003
 0.92431196E+003
 0.97877500E+003
 0.98730999E+003
 0.98821108E+003
 0.98828903E+003
 0.98841998E+003
 0.98962446E+003
 0.99769333E+003
 0.10388105E+004
 0.12023821E+004
 0.15396808E+004
 0.17196089E+004
 0.11946100E+004
 0.71915750E+003
 0.92431041E+003
 0.97877474E+003
 0.98730995E+003
 0.98821108E+003
 0.98828902E+003
 0.98841996E+003
 0.98962425E+003
 0.99769184E+003
 0.10388030E+004
 0.12023568E+004
 0.15396566E+004
 0.17196423E+004
 0.11946447E+004
 0.71931266E+003
 0.92466071E+003
 0.97893897E+003
 0.98732135E+003
 0.98820107E+003
 0.98833906E+003
 0.98846229E+003
 0.98909067E+003
 0.99629223E+003
 0.10381651E+004
 0.12014511E+004
 0.15364830E+004
 0.17174612E+004
 0.11918111E+004
 0.72569438E+003
 0.92794227E+003
 0.97829155E+003
 0.98509669E+003
 0.98564207E+003
 0.98650289E+003
 0.98967769E+003
 0.99309675E+003
 0.98283656E+003
 0.97209606E+003
 0.11049198E+004
 0.14787799E+004
 0.17053566E+004
 0.11886739E+004
 0.68590775E+003
 0.84971425E+003
 0.88205409E+003
 0.88362594E+003
 0.88294231E+003
 0.88641280E+003
 0.89896742E+003
 0.90756283E+003
 0.84266335E+003
 0.62941839E+003
 0.61488202E+003
 0.10941830E+004
 0.14369966E+004
 0.10470587E+004
 0.29800000E+003
 0.29800000E+003
 0.29800012E+003
 0.29800144E+003
 0.29801372E+003
 0.29810194E+003
 0.29856921E+003
 0.30027024E+003
 0.30416251E+003
 0.30938856E+003
 0.31352021E+003
 0.31559621E+003
 0.31630768E+003
 0.31647951E+003
 0.29800000E+003
 0.29800000E+003
 0.29800011E+003
 0.29800137E+003
 0.29801341E+003
 0.29810124E+003
 0.29857003E+003
 0.30028133E+003
 0.30419538E+003
 0.30943672E+003
 0.31356151E+003
 0.31561871E+003
 0.31631566E+003
 0.31648142E+003
 0.29799999E+003
 0.29800000E+003
 0.29800009E+003
 0.29800124E+003
 0.29801264E+003
 0.29809887E+003
 0.29856885E+003
 0.30029772E+003
 0.30424659E+003
 0.30950315E+003
 0.31360894E+003
 0.31563994E+003
 0.31632208E+003
 0.31648287E+003
 0.29799999E+003
 0.29800000E+003
 0.29800006E+003
 0.29800088E+003
 0.29800991E+003
 0.29808465E+003
 0.29852467E+003
 0.30023403E+003
 0.30425002E+003
 0.30961210E+003
 0.31373260E+003
 0.31571082E+003
 0.31634672E+003
 0.31648843E+003
 0.29799999E+003
 0.29800000E+003
 0.29800002E+003
 0.29800036E+003
 0.29800473E+003
 0.29804941E+003
 0.29837944E+003
 0.29993521E+003
 0.30406285E+003
 0.30977217E+003
 0.31400073E+003
 0.31587107E+003
 0.31640072E+003
 0.31649984E+003
 0.29799999E+003
 0.29799999E+003
 0.29800000E+003
 0.29800006E+003
 0.29800127E+003
 0.29802186E+003
 0.29825088E+003
 0.29964576E+003
 0.30385594E+003
 0.30987243E+003
 0.31418848E+003
 0.31597712E+003
 0.31643444E+003
 0.31650676E+003
 0.29799999E+003
 0.29799999E+003
 0.29800000E+003
 0.29800002E+003
 0.29800077E+003
 0.29801751E+003
 0.29822754E+003
 0.29958003E+003
 0.30377060E+003
 0.30981904E+003
 0.31416604E+003
 0.31597105E+003
 0.31643428E+003
 0.31650727E+003
 0.29799999E+003
 0.29799999E+003
 0.29800000E+003
 0.29800002E+003
 0.29800082E+003
 0.29801787E+003
 0.29822763E+003
 0.29957178E+003
 0.30373947E+003
 0.30977435E+003
 0.31413375E+003
 0.31595808E+003
 0.31643141E+003
 0.31650696E+003
 0.29800000E+003
 0.29800000E+003
 0.29800000E+003
 0.29800003E+003
 0.29800088E+003
 0.29801828E+003
 0.29822908E+003
 0.29957277E+003
 0.30373377E+003
 0.30976232E+003
 0.31412395E+003
 0.31595391E+003
 0.31643053E+003
 0.31650717E+003
 0.29800008E+003
 0.29800015E+003
 0.29800021E+003
 0.29800028E+003
 0.29800126E+003
 0.29801937E+003
 0.29823323E+003
 0.29958297E+003
 0.30374561E+003
 0.30976792E+003
 0.31412509E+003
 0.31595479E+003
 0.31643249E+003
 0.31651418E+003
 0.29800212E+003
 0.29800397E+003
 0.29800526E+003
 0.29800610E+003
 0.29800819E+003
 0.29802910E+003
 0.29825048E+003
 0.29961405E+003
 0.30378570E+003
 0.30980326E+003
 0.31415584E+003
 0.31598638E+003
 0.31647212E+003
 0.31662358E+003
 0.29804457E+003
 0.29808240E+003
 0.29810670E+003
 0.29811662E+003
 0.29812896E+003
 0.29817931E+003
 0.29845113E+003
 0.29987581E+003
 0.30409672E+003
 0.31014803E+003
 0.31454888E+003
 0.31643142E+003
 0.31699128E+003
 0.31740644E+003
 0.29883165E+003
 0.29943429E+003
 0.29969682E+003
 0.29974441E+003
 0.29979096E+003
 0.30010341E+003
 0.30094779E+003
 0.30287355E+003
 0.30730467E+003
 0.31346993E+003
 0.31841339E+003
 0.32109670E+003
 0.32167290E+003
 0.32079646E+003
 0.31010799E+003
 0.31809257E+003
 0.31941926E+003
 0.31886063E+003
 0.31876231E+003
 0.32055800E+003
 0.32732352E+003
 0.33452012E+003
 0.33473902E+003
 0.33657965E+003
 0.34501497E+003
 0.35971613E+003
 0.36348448E+003
 0.34499037E+003
