GiD Post Results File 1.0
 
Result MASSM ALYA  0.00000000E+00 Scalar OnNodes
ComponentNames MASSM
Values
          1  0.10526316E-002
          2  0.56140351E-002
          3  0.28070175E-002
          4  0.28070175E-002
          5  0.21052632E-002
          6  0.56140351E-002
          7  0.56140351E-002
          8  0.21052632E-002
          9  0.21052632E-002
         10  0.56140351E-002
         11  0.56140351E-002
         12  0.56140351E-002
         13  0.56140351E-002
         14  0.56140351E-002
         15  0.42105263E-002
         16  0.56140351E-002
         17  0.56140351E-002
         18  0.28070175E-002
         19  0.28070175E-002
         20  0.21052632E-002
         21  0.21052632E-002
         22  0.56140351E-002
         23  0.56140351E-002
         24  0.56140351E-002
         25  0.56140351E-002
         26  0.56140351E-002
         27  0.56140351E-002
         28  0.56140351E-002
         29  0.21052632E-002
         30  0.21052632E-002
         31  0.56140351E-002
         32  0.56140351E-002
         33  0.21052632E-002
         34  0.56140351E-002
         35  0.56140351E-002
         36  0.42105263E-002
         37  0.42105263E-002
         38  0.56140351E-002
         39  0.56140351E-002
         40  0.56140351E-002
         41  0.56140351E-002
         42  0.56140351E-002
         43  0.56140351E-002
         44  0.28070175E-002
         45  0.28070175E-002
         46  0.56140351E-002
         47  0.21052632E-002
         48  0.21052632E-002
         49  0.56140351E-002
         50  0.56140351E-002
         51  0.56140351E-002
         52  0.56140351E-002
         53  0.56140351E-002
         54  0.56140351E-002
         55  0.42105263E-002
         56  0.56140351E-002
         57  0.56140351E-002
         58  0.56140351E-002
         59  0.56140351E-002
         60  0.21052632E-002
         61  0.21052632E-002
         62  0.21052632E-002
         63  0.21052632E-002
         64  0.56140351E-002
         65  0.56140351E-002
         66  0.56140351E-002
         67  0.56140351E-002
         68  0.42105263E-002
         69  0.42105263E-002
         70  0.56140351E-002
         71  0.56140351E-002
         72  0.56140351E-002
         73  0.56140351E-002
         74  0.56140351E-002
         75  0.56140351E-002
         76  0.56140351E-002
         77  0.56140351E-002
         78  0.56140351E-002
         79  0.56140351E-002
         80  0.56140351E-002
         81  0.56140351E-002
         82  0.56140351E-002
         83  0.28070175E-002
         84  0.28070175E-002
         85  0.21052632E-002
         86  0.21052632E-002
         87  0.21052632E-002
         88  0.56140351E-002
         89  0.56140351E-002
         90  0.42105263E-002
         91  0.42105263E-002
         92  0.56140351E-002
         93  0.56140351E-002
         94  0.56140351E-002
         95  0.56140351E-002
         96  0.56140351E-002
         97  0.56140351E-002
         98  0.21052632E-002
         99  0.21052632E-002
        100  0.56140351E-002
        101  0.56140351E-002
        102  0.56140351E-002
        103  0.56140351E-002
        104  0.56140351E-002
        105  0.56140351E-002
        106  0.56140351E-002
        107  0.56140351E-002
        108  0.56140351E-002
        109  0.21052632E-002
        110  0.21052632E-002
        111  0.56140351E-002
        112  0.56140351E-002
        113  0.56140351E-002
        114  0.56140351E-002
        115  0.42105263E-002
        116  0.42105263E-002
        117  0.56140351E-002
        118  0.56140351E-002
        119  0.42105263E-002
        120  0.56140351E-002
        121  0.56140351E-002
        122  0.56140351E-002
        123  0.56140351E-002
        124  0.56140351E-002
        125  0.56140351E-002
        126  0.21052632E-002
        127  0.21052632E-002
        128  0.56140351E-002
        129  0.56140351E-002
        130  0.56140351E-002
        131  0.56140351E-002
        132  0.56140351E-002
        133  0.56140351E-002
        134  0.42105263E-002
        135  0.42105263E-002
        136  0.28070175E-002
        137  0.28070175E-002
        138  0.21052632E-002
        139  0.21052632E-002
        140  0.56140351E-002
        141  0.56140351E-002
        142  0.56140351E-002
        143  0.56140351E-002
        144  0.56140351E-002
        145  0.56140351E-002
        146  0.56140351E-002
        147  0.56140351E-002
        148  0.56140351E-002
        149  0.56140351E-002
        150  0.56140351E-002
        151  0.21052632E-002
        152  0.21052632E-002
        153  0.56140351E-002
        154  0.56140351E-002
        155  0.56140351E-002
        156  0.56140351E-002
        157  0.56140351E-002
        158  0.56140351E-002
        159  0.56140351E-002
        160  0.56140351E-002
        161  0.56140351E-002
        162  0.56140351E-002
        163  0.21052632E-002
        164  0.56140351E-002
        165  0.56140351E-002
        166  0.10526316E-002
        167  0.10526316E-002
        168  0.42105263E-002
        169  0.42105263E-002
        170  0.28070175E-002
        171  0.28070175E-002
        172  0.56140351E-002
        173  0.56140351E-002
        174  0.56140351E-002
        175  0.56140351E-002
        176  0.21052632E-002
        177  0.21052632E-002
        178  0.21052632E-002
        179  0.21052632E-002
        180  0.28070175E-002
        181  0.28070175E-002
        182  0.56140351E-002
        183  0.56140351E-002
        184  0.56140351E-002
        185  0.56140351E-002
        186  0.56140351E-002
        187  0.56140351E-002
        188  0.56140351E-002
        189  0.21052632E-002
        190  0.21052632E-002
        191  0.56140351E-002
        192  0.56140351E-002
        193  0.56140351E-002
        194  0.56140351E-002
        195  0.28070175E-002
        196  0.28070175E-002
        197  0.42105263E-002
        198  0.56140351E-002
        199  0.56140351E-002
        200  0.21052632E-002
        201  0.21052632E-002
        202  0.56140351E-002
        203  0.56140351E-002
        204  0.21052632E-002
        205  0.21052632E-002
        206  0.56140351E-002
        207  0.56140351E-002
        208  0.56140351E-002
        209  0.56140351E-002
        210  0.56140351E-002
        211  0.28070175E-002
        212  0.28070175E-002
        213  0.21052632E-002
        214  0.56140351E-002
        215  0.56140351E-002
        216  0.21052632E-002
        217  0.21052632E-002
        218  0.56140351E-002
        219  0.28070175E-002
        220  0.28070175E-002
        221  0.10526316E-002
End values

Result VEERR ALYA  0.56338008E+00 Scalar OnNodes
ComponentNames VEERR
Values
          1  0.00000000E+000
          2  0.00000000E+000
          3  0.00000000E+000
          4  0.00000000E+000
          5  0.00000000E+000
          6  0.00000000E+000
          7  0.00000000E+000
          8  0.00000000E+000
          9  0.00000000E+000
         10  0.00000000E+000
         11  0.00000000E+000
         12  0.00000000E+000
         13  0.00000000E+000
         14  0.00000000E+000
         15  0.00000000E+000
         16  0.00000000E+000
         17  0.00000000E+000
         18  0.00000000E+000
         19  0.00000000E+000
         20  0.00000000E+000
         21  0.00000000E+000
         22  0.00000000E+000
         23  0.00000000E+000
         24  0.00000000E+000
         25  0.00000000E+000
         26  0.00000000E+000
         27  0.00000000E+000
         28  0.00000000E+000
         29  0.00000000E+000
         30  0.00000000E+000
         31  0.00000000E+000
         32  0.00000000E+000
         33  0.00000000E+000
         34  0.00000000E+000
         35  0.00000000E+000
         36  0.00000000E+000
         37  0.00000000E+000
         38  0.00000000E+000
         39  0.00000000E+000
         40  0.00000000E+000
         41  0.00000000E+000
         42  0.00000000E+000
         43  0.00000000E+000
         44  0.00000000E+000
         45  0.00000000E+000
         46  0.00000000E+000
         47  0.00000000E+000
         48  0.00000000E+000
         49  0.00000000E+000
         50  0.00000000E+000
         51  0.00000000E+000
         52  0.00000000E+000
         53  0.00000000E+000
         54  0.00000000E+000
         55  0.00000000E+000
         56  0.00000000E+000
         57  0.00000000E+000
         58  0.00000000E+000
         59  0.00000000E+000
         60  0.00000000E+000
         61  0.00000000E+000
         62  0.00000000E+000
         63  0.00000000E+000
         64  0.00000000E+000
         65  0.00000000E+000
         66  0.00000000E+000
         67  0.00000000E+000
         68  0.00000000E+000
         69  0.00000000E+000
         70  0.00000000E+000
         71  0.00000000E+000
         72  0.00000000E+000
         73  0.00000000E+000
         74  0.00000000E+000
         75  0.00000000E+000
         76  0.00000000E+000
         77  0.00000000E+000
         78  0.00000000E+000
         79  0.00000000E+000
         80  0.00000000E+000
         81  0.00000000E+000
         82  0.00000000E+000
         83  0.00000000E+000
         84  0.00000000E+000
         85  0.00000000E+000
         86  0.00000000E+000
         87  0.00000000E+000
         88  0.00000000E+000
         89  0.00000000E+000
         90  0.00000000E+000
         91  0.00000000E+000
         92  0.00000000E+000
         93  0.00000000E+000
         94  0.00000000E+000
         95  0.00000000E+000
         96  0.00000000E+000
         97  0.00000000E+000
         98  0.00000000E+000
         99  0.00000000E+000
        100  0.00000000E+000
        101  0.00000000E+000
        102  0.00000000E+000
        103  0.00000000E+000
        104  0.00000000E+000
        105  0.00000000E+000
        106  0.00000000E+000
        107  0.00000000E+000
        108  0.00000000E+000
        109  0.00000000E+000
        110  0.00000000E+000
        111  0.00000000E+000
        112  0.00000000E+000
        113  0.00000000E+000
        114  0.00000000E+000
        115  0.00000000E+000
        116  0.00000000E+000
        117  0.00000000E+000
        118  0.00000000E+000
        119  0.00000000E+000
        120  0.00000000E+000
        121  0.00000000E+000
        122  0.00000000E+000
        123  0.00000000E+000
        124  0.00000000E+000
        125  0.00000000E+000
        126  0.00000000E+000
        127  0.00000000E+000
        128  0.00000000E+000
        129  0.00000000E+000
        130  0.00000000E+000
        131  0.00000000E+000
        132  0.00000000E+000
        133  0.00000000E+000
        134  0.00000000E+000
        135  0.00000000E+000
        136  0.00000000E+000
        137  0.00000000E+000
        138  0.00000000E+000
        139  0.00000000E+000
        140  0.00000000E+000
        141  0.00000000E+000
        142  0.00000000E+000
        143  0.00000000E+000
        144  0.00000000E+000
        145  0.00000000E+000
        146  0.00000000E+000
        147  0.00000000E+000
        148  0.00000000E+000
        149  0.00000000E+000
        150  0.00000000E+000
        151  0.00000000E+000
        152  0.00000000E+000
        153  0.00000000E+000
        154  0.00000000E+000
        155  0.00000000E+000
        156  0.00000000E+000
        157  0.00000000E+000
        158  0.00000000E+000
        159  0.00000000E+000
        160  0.00000000E+000
        161  0.00000000E+000
        162  0.00000000E+000
        163  0.00000000E+000
        164  0.00000000E+000
        165  0.00000000E+000
        166  0.00000000E+000
        167  0.00000000E+000
        168  0.00000000E+000
        169  0.00000000E+000
        170  0.00000000E+000
        171  0.00000000E+000
        172  0.00000000E+000
        173  0.00000000E+000
        174  0.00000000E+000
        175  0.00000000E+000
        176  0.00000000E+000
        177  0.00000000E+000
        178  0.00000000E+000
        179  0.00000000E+000
        180  0.00000000E+000
        181  0.00000000E+000
        182  0.00000000E+000
        183  0.00000000E+000
        184  0.00000000E+000
        185  0.00000000E+000
        186  0.00000000E+000
        187  0.00000000E+000
        188  0.00000000E+000
        189  0.00000000E+000
        190  0.00000000E+000
        191  0.00000000E+000
        192  0.00000000E+000
        193  0.00000000E+000
        194  0.00000000E+000
        195  0.00000000E+000
        196  0.00000000E+000
        197  0.00000000E+000
        198  0.00000000E+000
        199  0.00000000E+000
        200  0.00000000E+000
        201  0.00000000E+000
        202  0.00000000E+000
        203  0.00000000E+000
        204  0.00000000E+000
        205  0.00000000E+000
        206  0.00000000E+000
        207  0.00000000E+000
        208  0.00000000E+000
        209  0.00000000E+000
        210  0.00000000E+000
        211  0.00000000E+000
        212  0.00000000E+000
        213  0.00000000E+000
        214  0.00000000E+000
        215  0.00000000E+000
        216  0.00000000E+000
        217  0.00000000E+000
        218  0.00000000E+000
        219  0.00000000E+000
        220  0.00000000E+000
        221  0.00000000E+000
End values

Result PRERR ALYA  0.56338008E+00 Scalar OnNodes
ComponentNames PRERR
Values
          1  0.00000000E+000
          2  0.00000000E+000
          3  0.00000000E+000
          4  0.00000000E+000
          5  0.00000000E+000
          6  0.00000000E+000
          7  0.00000000E+000
          8  0.00000000E+000
          9  0.00000000E+000
         10  0.00000000E+000
         11  0.00000000E+000
         12  0.00000000E+000
         13  0.00000000E+000
         14  0.00000000E+000
         15  0.00000000E+000
         16  0.00000000E+000
         17  0.00000000E+000
         18  0.00000000E+000
         19  0.00000000E+000
         20  0.00000000E+000
         21  0.00000000E+000
         22  0.00000000E+000
         23  0.00000000E+000
         24  0.00000000E+000
         25  0.00000000E+000
         26  0.00000000E+000
         27  0.00000000E+000
         28  0.00000000E+000
         29  0.00000000E+000
         30  0.00000000E+000
         31  0.00000000E+000
         32  0.00000000E+000
         33  0.00000000E+000
         34  0.00000000E+000
         35  0.00000000E+000
         36  0.00000000E+000
         37  0.00000000E+000
         38  0.00000000E+000
         39  0.00000000E+000
         40  0.00000000E+000
         41  0.00000000E+000
         42  0.00000000E+000
         43  0.00000000E+000
         44  0.00000000E+000
         45  0.00000000E+000
         46  0.00000000E+000
         47  0.00000000E+000
         48  0.00000000E+000
         49  0.00000000E+000
         50  0.00000000E+000
         51  0.00000000E+000
         52  0.00000000E+000
         53  0.00000000E+000
         54  0.00000000E+000
         55  0.00000000E+000
         56  0.00000000E+000
         57  0.00000000E+000
         58  0.00000000E+000
         59  0.00000000E+000
         60  0.00000000E+000
         61  0.00000000E+000
         62  0.00000000E+000
         63  0.00000000E+000
         64  0.00000000E+000
         65  0.00000000E+000
         66  0.00000000E+000
         67  0.00000000E+000
         68  0.00000000E+000
         69  0.00000000E+000
         70  0.00000000E+000
         71  0.00000000E+000
         72  0.00000000E+000
         73  0.00000000E+000
         74  0.00000000E+000
         75  0.00000000E+000
         76  0.00000000E+000
         77  0.00000000E+000
         78  0.00000000E+000
         79  0.00000000E+000
         80  0.00000000E+000
         81  0.00000000E+000
         82  0.00000000E+000
         83  0.00000000E+000
         84  0.00000000E+000
         85  0.00000000E+000
         86  0.00000000E+000
         87  0.00000000E+000
         88  0.00000000E+000
         89  0.00000000E+000
         90  0.00000000E+000
         91  0.00000000E+000
         92  0.00000000E+000
         93  0.00000000E+000
         94  0.00000000E+000
         95  0.00000000E+000
         96  0.00000000E+000
         97  0.00000000E+000
         98  0.00000000E+000
         99  0.00000000E+000
        100  0.00000000E+000
        101  0.00000000E+000
        102  0.00000000E+000
        103  0.00000000E+000
        104  0.00000000E+000
        105  0.00000000E+000
        106  0.00000000E+000
        107  0.00000000E+000
        108  0.00000000E+000
        109  0.00000000E+000
        110  0.00000000E+000
        111  0.00000000E+000
        112  0.00000000E+000
        113  0.00000000E+000
        114  0.00000000E+000
        115  0.00000000E+000
        116  0.00000000E+000
        117  0.00000000E+000
        118  0.00000000E+000
        119  0.00000000E+000
        120  0.00000000E+000
        121  0.00000000E+000
        122  0.00000000E+000
        123  0.00000000E+000
        124  0.00000000E+000
        125  0.00000000E+000
        126  0.00000000E+000
        127  0.00000000E+000
        128  0.00000000E+000
        129  0.00000000E+000
        130  0.00000000E+000
        131  0.00000000E+000
        132  0.00000000E+000
        133  0.00000000E+000
        134  0.00000000E+000
        135  0.00000000E+000
        136  0.00000000E+000
        137  0.00000000E+000
        138  0.00000000E+000
        139  0.00000000E+000
        140  0.00000000E+000
        141  0.00000000E+000
        142  0.00000000E+000
        143  0.00000000E+000
        144  0.00000000E+000
        145  0.00000000E+000
        146  0.00000000E+000
        147  0.00000000E+000
        148  0.00000000E+000
        149  0.00000000E+000
        150  0.00000000E+000
        151  0.00000000E+000
        152  0.00000000E+000
        153  0.00000000E+000
        154  0.00000000E+000
        155  0.00000000E+000
        156  0.00000000E+000
        157  0.00000000E+000
        158  0.00000000E+000
        159  0.00000000E+000
        160  0.00000000E+000
        161  0.00000000E+000
        162  0.00000000E+000
        163  0.00000000E+000
        164  0.00000000E+000
        165  0.00000000E+000
        166  0.00000000E+000
        167  0.00000000E+000
        168  0.00000000E+000
        169  0.00000000E+000
        170  0.00000000E+000
        171  0.00000000E+000
        172  0.00000000E+000
        173  0.00000000E+000
        174  0.00000000E+000
        175  0.00000000E+000
        176  0.00000000E+000
        177  0.00000000E+000
        178  0.00000000E+000
        179  0.00000000E+000
        180  0.00000000E+000
        181  0.00000000E+000
        182  0.00000000E+000
        183  0.00000000E+000
        184  0.00000000E+000
        185  0.00000000E+000
        186  0.00000000E+000
        187  0.00000000E+000
        188  0.00000000E+000
        189  0.00000000E+000
        190  0.00000000E+000
        191  0.00000000E+000
        192  0.00000000E+000
        193  0.00000000E+000
        194  0.00000000E+000
        195  0.00000000E+000
        196  0.00000000E+000
        197  0.00000000E+000
        198  0.00000000E+000
        199  0.00000000E+000
        200  0.00000000E+000
        201  0.00000000E+000
        202  0.00000000E+000
        203  0.00000000E+000
        204  0.00000000E+000
        205  0.00000000E+000
        206  0.00000000E+000
        207  0.00000000E+000
        208  0.00000000E+000
        209  0.00000000E+000
        210  0.00000000E+000
        211  0.00000000E+000
        212  0.00000000E+000
        213  0.00000000E+000
        214  0.00000000E+000
        215  0.00000000E+000
        216  0.00000000E+000
        217  0.00000000E+000
        218  0.00000000E+000
        219  0.00000000E+000
        220  0.00000000E+000
        221  0.00000000E+000
End values

