GiD Post Results File 1.0
 
Result MASSM ALYA  0.00000000E+00 Scalar OnNodes
ComponentNames MASSM
Values
          1  0.24765978E-002
          2  0.47822995E-002
          3  0.49877931E-002
          4  0.96555651E-002
          5  0.46054935E-002
          6  0.49671893E-002
          7  0.94442652E-002
          8  0.97815353E-002
          9  0.97519866E-002
         10  0.46742669E-002
         11  0.50066943E-002
         12  0.96369381E-002
         13  0.98927460E-002
         14  0.99246044E-002
         15  0.99090972E-002
         16  0.47930758E-002
         17  0.50351478E-002
         18  0.97284665E-002
         19  0.10175152E-001
         20  0.10226914E-001
         21  0.10035561E-001
         22  0.10340084E-001
         23  0.10503064E-001
         24  0.10398407E-001
         25  0.48772695E-002
         26  0.58143325E-002
         27  0.98457149E-002
         28  0.76744478E-002
         29  0.10106190E-001
         30  0.97301598E-002
         31  0.10443937E-001
         32  0.10513855E-001
         33  0.94952682E-002
         34  0.11770297E-001
         35  0.49228953E-002
         36  0.55695971E-002
         37  0.99012054E-002
         38  0.99964316E-002
         39  0.94850404E-002
         40  0.93557685E-002
         41  0.10334343E-001
         42  0.10360110E-001
         43  0.10890033E-001
         44  0.86602550E-002
         45  0.33333333E-002
         46  0.49812507E-002
         47  0.97410845E-002
         48  0.10010759E-001
         49  0.92654100E-002
         50  0.10218060E-001
         51  0.10082338E-001
         52  0.86602550E-002
         53  0.86602550E-002
         54  0.10178121E-001
         55  0.92445535E-002
         56  0.11024153E-001
         57  0.86602550E-002
         58  0.79496417E-002
         59  0.49556502E-002
         60  0.80124289E-002
         61  0.86602550E-002
         62  0.99340052E-002
         63  0.10048251E-001
         64  0.10054290E-001
         65  0.83047233E-002
         66  0.87083913E-002
         67  0.80168312E-002
         68  0.10120263E-001
         69  0.92596241E-002
         70  0.86602550E-002
         71  0.78407567E-002
         72  0.87106108E-002
         73  0.11753705E-001
         74  0.99705736E-002
         75  0.49286119E-002
         76  0.28893067E-002
         77  0.80746967E-002
         78  0.98487756E-002
         79  0.98997673E-002
         80  0.65987876E-002
         81  0.79479611E-002
         82  0.84650296E-002
         83  0.95828525E-002
         84  0.81602552E-002
         85  0.10011331E-001
         86  0.95321724E-002
         87  0.76794950E-002
         88  0.86033212E-002
         89  0.82563883E-002
         90  0.10017546E-001
         91  0.75361754E-002
         92  0.33287750E-002
         93  0.24762177E-002
         94  0.49246636E-002
         95  0.47005123E-002
         96  0.49233232E-002
         97  0.39641002E-002
         98  0.79368561E-002
         99  0.77041933E-002
        100  0.81470740E-002
        101  0.49805662E-002
        102  0.43301250E-002
        103  0.88207793E-002
        104  0.71675240E-002
        105  0.12967856E-001
        106  0.41047445E-002
        107  0.50316713E-002
        108  0.78316297E-002
        109  0.86602550E-002
        110  0.59248482E-002
        111  0.58537825E-002
        112  0.36961694E-002
        113  0.82441961E-002
        114  0.88554178E-002
        115  0.11951178E-001
        116  0.58534002E-002
        117  0.39791207E-002
        118  0.94791485E-002
        119  0.99761973E-002
        120  0.29523810E-002
        121  0.43301250E-002
        122  0.12128367E-001
        123  0.50027381E-002
        124  0.45183590E-002
        125  0.58061395E-002
        126  0.25918000E-002
        127  0.33231117E-002
End values

Result TEMPE ALYA  0.00000000E+00 Scalar OnNodes
ComponentNames TEMPE
Values
          1  0.20000000E+001
          2  0.18000000E+001
          3  0.23000000E+001
          4  0.00000000E+000
          5  0.16000000E+001
          6  0.26000000E+001
          7  0.00000000E+000
          8  0.00000000E+000
          9  0.00000000E+000
         10  0.14000000E+001
         11  0.29000000E+001
         12  0.00000000E+000
         13  0.00000000E+000
         14  0.00000000E+000
         15  0.00000000E+000
         16  0.12000000E+001
         17  0.32000000E+001
         18  0.00000000E+000
         19  0.00000000E+000
         20  0.00000000E+000
         21  0.00000000E+000
         22  0.00000000E+000
         23  0.00000000E+000
         24  0.00000000E+000
         25  0.10000000E+001
         26  0.35000000E+001
         27  0.00000000E+000
         28  0.00000000E+000
         29  0.00000000E+000
         30  0.00000000E+000
         31  0.00000000E+000
         32  0.00000000E+000
         33  0.00000000E+000
         34  0.00000000E+000
         35  0.80000000E+000
         36  0.38000000E+001
         37  0.00000000E+000
         38  0.00000000E+000
         39  0.00000000E+000
         40  0.00000000E+000
         41  0.00000000E+000
         42  0.00000000E+000
         43  0.00000000E+000
         44  0.00000000E+000
         45  0.41000000E+001
         46  0.60000000E+000
         47  0.00000000E+000
         48  0.00000000E+000
         49  0.00000000E+000
         50  0.00000000E+000
         51  0.00000000E+000
         52  0.00000000E+000
         53  0.00000000E+000
         54  0.00000000E+000
         55  0.00000000E+000
         56  0.00000000E+000
         57  0.00000000E+000
         58  0.00000000E+000
         59  0.40000000E+000
         60  0.44000000E+001
         61  0.00000000E+000
         62  0.00000000E+000
         63  0.00000000E+000
         64  0.00000000E+000
         65  0.00000000E+000
         66  0.00000000E+000
         67  0.00000000E+000
         68  0.00000000E+000
         69  0.00000000E+000
         70  0.00000000E+000
         71  0.00000000E+000
         72  0.00000000E+000
         73  0.00000000E+000
         74  0.00000000E+000
         75  0.20000000E+000
         76  0.47000000E+001
         77  0.00000000E+000
         78  0.00000000E+000
         79  0.00000000E+000
         80  0.00000000E+000
         81  0.00000000E+000
         82  0.00000000E+000
         83  0.00000000E+000
         84  0.00000000E+000
         85  0.00000000E+000
         86  0.00000000E+000
         87  0.00000000E+000
         88  0.00000000E+000
         89  0.00000000E+000
         90  0.00000000E+000
         91  0.00000000E+000
         92  0.50000000E+001
         93  0.00000000E+000
         94  0.30000000E+000
         95  0.48000000E+001
         96  0.60000000E+000
         97  0.46000000E+001
         98  0.00000000E+000
         99  0.00000000E+000
        100  0.00000000E+000
        101  0.90000000E+000
        102  0.44000000E+001
        103  0.00000000E+000
        104  0.00000000E+000
        105  0.00000000E+000
        106  0.42000000E+001
        107  0.12000000E+001
        108  0.00000000E+000
        109  0.00000000E+000
        110  0.00000000E+000
        111  0.15000000E+001
        112  0.40000000E+001
        113  0.00000000E+000
        114  0.00000000E+000
        115  0.00000000E+000
        116  0.18000000E+001
        117  0.38000000E+001
        118  0.00000000E+000
        119  0.00000000E+000
        120  0.21000000E+001
        121  0.36000000E+001
        122  0.00000000E+000
        123  0.24000000E+001
        124  0.34000000E+001
        125  0.27000000E+001
        126  0.32000000E+001
        127  0.30000000E+001
End values

Result TEMPE ALYA  0.10000000E+00 Scalar OnNodes
ComponentNames TEMPE
Values
          1  0.20000000E+001
          2  0.18000000E+001
          3  0.23000000E+001
          4  0.20873642E+001
          5  0.16000000E+001
          6  0.26000000E+001
          7  0.18830752E+001
          8  0.23913631E+001
          9  0.21821475E+001
         10  0.14000000E+001
         11  0.29000000E+001
         12  0.16866195E+001
         13  0.26872166E+001
         14  0.24785199E+001
         15  0.19838620E+001
         16  0.12000000E+001
         17  0.32000000E+001
         18  0.14916970E+001
         19  0.29922526E+001
         20  0.22823238E+001
         21  0.17843573E+001
         22  0.27817936E+001
         23  0.20864544E+001
         24  0.25918826E+001
         25  0.10000000E+001
         26  0.35000000E+001
         27  0.12958114E+001
         28  0.33000000E+001
         29  0.15875715E+001
         30  0.31000000E+001
         31  0.24034133E+001
         32  0.18916288E+001
         33  0.29000000E+001
         34  0.34855769E+001
         35  0.80000000E+000
         36  0.38000000E+001
         37  0.10952853E+001
         38  0.13893789E+001
         39  0.32598075E+001
         40  0.27000000E+001
         41  0.22039445E+001
         42  0.16892257E+001
         43  0.38196153E+001
         44  0.30598075E+001
         45  0.41000000E+001
         46  0.60000000E+000
         47  0.36196153E+001
         48  0.90060270E+000
         49  0.25000000E+001
         50  0.20036189E+001
         51  0.12008509E+001
         52  0.34196153E+001
         53  0.28598075E+001
         54  0.14992591E+001
         55  0.23000000E+001
         56  0.40310896E+001
         57  0.32196153E+001
         58  0.37794228E+001
         59  0.40000000E+000
         60  0.44000000E+001
         61  0.26598075E+001
         62  0.69457133E+000
         63  0.18003473E+001
         64  0.98501700E+000
         65  0.35794228E+001
         66  0.30196153E+001
         67  0.40803847E+001
         68  0.12918453E+001
         69  0.21000000E+001
         70  0.24598075E+001
         71  0.38803847E+001
         72  0.33794228E+001
         73  0.44874997E+001
         74  0.15973167E+001
         75  0.20000000E+000
         76  0.47000000E+001
         77  0.28196153E+001
         78  0.49266600E+000
         79  0.78938160E+000
         80  0.44194745E+001
         81  0.31643049E+001
         82  0.37343733E+001
         83  0.19000000E+001
         84  0.42401925E+001
         85  0.10931009E+001
         86  0.22598075E+001
         87  0.26196153E+001
         88  0.40401925E+001
         89  0.35091726E+001
         90  0.13987862E+001
         91  0.29205772E+001
         92  0.50000000E+001
         93  0.00000000E+000
         94  0.30000000E+000
         95  0.48000000E+001
         96  0.60000000E+000
         97  0.46000000E+001
         98  0.32803847E+001
         99  0.17000000E+001
        100  0.38631050E+001
        101  0.90000000E+000
        102  0.44000000E+001
        103  0.24196153E+001
        104  0.27205772E+001
        105  0.19816303E+001
        106  0.42000000E+001
        107  0.12000000E+001
        108  0.36285241E+001
        109  0.30803847E+001
        110  0.25841155E+001
        111  0.15000000E+001
        112  0.40000000E+001
        113  0.34401925E+001
        114  0.28803847E+001
        115  0.22919890E+001
        116  0.18000000E+001
        117  0.38000000E+001
        118  0.32401925E+001
        119  0.26494469E+001
        120  0.21000000E+001
        121  0.36000000E+001
        122  0.30100034E+001
        123  0.24000000E+001
        124  0.34000000E+001
        125  0.27000000E+001
        126  0.32000000E+001
        127  0.30000000E+001
End values

