{
    "authors": [
        "ambrus.both@bsc.es"
    ],
    "comparisons": [
        {
            "file": "fin_rate_autoig_2scm2_no_nsi.tem.wit-col2.out",
            "method": "absolute",
            "tolerance": "1.0e0"
        },
        {
            "file": "fin_rate_autoig_2scm2_no_nsi.chm.wit-col3.out",
            "method": "absolute",
            "tolerance": "1.0e-4"
        },
        {
            "file": "fin_rate_autoig_2scm2_no_nsi.chm.cvg-col9.out",
            "method": "absolute",
            "tolerance": "1.0e-2"
        },
        {
            "file": "fin_rate_autoig_2scm2_no_nsi.chm.cvg-col10.out",
            "method": "absolute",
            "tolerance": "1.0e-1"
        },
        {
            "file": "fin_rate_autoig_2scm2_no_nsi.chm.cvg-col11.out",
            "method": "absolute",
            "tolerance": "1.0e-1"
        }
    ],
    "description": "Autoigniting box with finite rate chemistry with 2 step mechanism.",
    "enabled": true,
    "executions": [
        {
            "commands": {
                "postprocess": "[ALYA-PATH]/Utils/user/extractColumnFromFile.sh [NAME].tem.wit 2; [ALYA-PATH]/Utils/user/extractColumnFromFile.sh [NAME].chm.wit 3; [ALYA-PATH]/Utils/user/extractColumnFromFile.sh [NAME].chm.cvg 9 10 11"
            },
            "mpi": 1,
            "openmp": 0
        }
    ],
    "include": [
        "cantera"
    ],
    "modules": [
        "temper",
        "chemic"
    ],
    "name": "fin_rate_autoig_2scm2_no_nsi",
    "postprocess": "mpio2txt"
}
