$------------------------------------------------------------------------
PHYSICAL_PROBLEM
  PROBLEM_DEFINITION
    TEMPORAL_DERIVATIVES:   ON
    CONVECTIVE_TERM:        ON
    CONDUCTION_TERM:        ON
    REGIME :                LOWMACH, ENTHALPY 
  END_PROBLEM_DEFINITION

  PROPERTIES:
    THERMODYN_PRESSURE = 101325.0
  END_PROPERTIES

END_PHYSICAL_PROBLEM
$------------------------------------------------------------------------
NUMERICAL_TREATMENT
  STABILIZATION:           ASGS 
  ELEMENT_LENGTH:          MINIMUM
  TIME_INTEGRATION:        RUNGE , ORDER: 3
  SAFETY_FACTOR=           1.0

  STEADY_STATE_TOLERANCE=  -1e-8
  NORM_OF_CONVERGENCE:     L2
  MAXIMUM_NUMBER_OF_ITER=  1
  RELAXATION_FACTOR=       1.0
  CONVERGENCE_TOLERANCE=   1e-4

  ALGEBRAIC_SOLVER
    SOLVER:               EXPLICIT, LUMPED
  END_ALGEBRAIC_SOLVER

END_NUMERICAL_TREATMENT
$------------------------------------------------------------------------
OUTPUT_&_POST_PROCESS
  POSTPROCESS TEMPE
  POSTPROCESS ENTHA
  WITNESS_POINTS
    TEMPE
  END_WITNESS_POINTS
END_OUTPUT_&_POST_PROCESS
$------------------------------------------------------------------------
BOUNDARY_CONDITIONS, NONCONSTANT
  INITIAL:  VALUE = 2
$ PARAMETERS
$   INITIAL: CONSTANT = 300.0
$ END_PARAMETERS
 CODES, NODES
    1     1     298.0
    2     1     298.0
    3     0     0.0
  1 & 3   1     298.0
  2 & 3   1     298.0
  4 & 3   0     0.0
 END_CODES
END_BOUNDARY_CONDITIONS
$------------------------------------------------------------------------
