GiD Post Results File 1.0
 
Result DISPM ALYA  0.00000000E+00 Vector OnNodes
ComponentNames DISPM_X,DISPM_Y,DISPM_Z
Values
          1  0.00000000E+000  0.00000000E+000
          2  0.00000000E+000  0.00000000E+000
          3  0.00000000E+000  0.00000000E+000
          4  0.00000000E+000  0.00000000E+000
          5  0.00000000E+000  0.00000000E+000
          6  0.00000000E+000  0.00000000E+000
          7  0.00000000E+000  0.00000000E+000
          8  0.00000000E+000  0.00000000E+000
          9  0.00000000E+000  0.00000000E+000
         10  0.00000000E+000  0.00000000E+000
         11  0.00000000E+000  0.00000000E+000
         12  0.00000000E+000  0.00000000E+000
         13  0.00000000E+000  0.00000000E+000
         14  0.00000000E+000  0.00000000E+000
         15  0.00000000E+000  0.00000000E+000
         16  0.00000000E+000  0.00000000E+000
         17  0.00000000E+000  0.00000000E+000
         18  0.00000000E+000  0.00000000E+000
         19  0.00000000E+000  0.00000000E+000
         20  0.00000000E+000  0.00000000E+000
         21  0.00000000E+000  0.00000000E+000
         22  0.00000000E+000  0.00000000E+000
         23  0.00000000E+000  0.00000000E+000
         24  0.00000000E+000  0.00000000E+000
         25  0.00000000E+000  0.00000000E+000
         26  0.00000000E+000  0.00000000E+000
         27  0.00000000E+000  0.00000000E+000
         28  0.00000000E+000  0.00000000E+000
         29  0.00000000E+000  0.00000000E+000
         30  0.00000000E+000  0.00000000E+000
         31  0.00000000E+000  0.00000000E+000
         32  0.30000011E-001  0.28471201E-001
         33  0.88489991E-002 -0.10014837E-001
         34 -0.27783330E-001 -0.20297257E-001
         35  0.98787309E-002 -0.24919597E-001
         36 -0.17751851E-001 -0.19961557E-001
         37  0.92974399E-002 -0.22271007E-001
         38  0.24604931E-001 -0.23296997E-001
         39 -0.12058761E-001 -0.14073127E-001
         40  0.11989450E-001  0.27016973E-001
         41 -0.24491329E-001  0.24140513E-001
         42  0.27581168E-001  0.24898543E-001
         43 -0.35292614E-002 -0.25587067E-001
         44  0.25461576E-001 -0.24707347E-001
         45  0.24490662E-001 -0.82659591E-002
         46 -0.21137497E-001  0.22735309E-001
         47 -0.29674437E-001 -0.16695020E-001
         48  0.28820133E-001  0.19808211E-001
         49 -0.29684567E-001 -0.15221581E-001
         50  0.16921603E-001 -0.95575501E-002
         51 -0.23410667E-002  0.11962309E-002
         52 -0.20353557E-001  0.28474759E-001
         53 -0.29362947E-001 -0.51462402E-002
         54 -0.16024037E-001  0.33110206E-002
         55 -0.12570267E-001 -0.17671602E-001
         56  0.36779533E-002  0.17474799E-001
         57 -0.13866697E-001 -0.99438335E-002
         58 -0.13324419E-001  0.17311734E-001
         59  0.00000000E+000  0.00000000E+000
         60  0.00000000E+000  0.00000000E+000
         61  0.11504877E-001  0.14220637E-001
         62 -0.15137760E-001 -0.29877034E-002
         63 -0.82034069E-002 -0.78606534E-002
         64  0.31291675E-003  0.17582666E-002
         65  0.22649100E-001 -0.20938334E-002
         66  0.18350603E-001 -0.28074353E-001
         67 -0.53538434E-002  0.28942567E-001
         68  0.11139440E-001 -0.31982134E-002
         69 -0.10576967E-001  0.28986967E-001
         70  0.14060606E-001  0.23471666E-002
         71 -0.20247002E-001  0.16262787E-001
         72 -0.74108992E-002  0.27272567E-001
         73 -0.13933542E-002 -0.18581071E-001
         74  0.10092867E-001 -0.23515680E-001
         75 -0.12168943E-001 -0.14761927E-001
         76  0.14455637E-001 -0.10278033E-001
         77 -0.92984934E-002 -0.26126700E-001
         78 -0.28275493E-001 -0.57107013E-004
         79  0.42119165E-002  0.10973027E-001
         80 -0.62210934E-002  0.19877490E-001
         81 -0.25587383E-001 -0.21338873E-002
         82 -0.22674834E-002 -0.38922840E-002
         83  0.78169666E-002  0.71451846E-003
         84  0.18442267E-001 -0.61671592E-002
         85 -0.83438110E-002  0.13331378E-002
         86  0.00000000E+000  0.00000000E+000
         87  0.00000000E+000  0.00000000E+000
         88 -0.14795800E-001 -0.96487900E-002
         89 -0.28492297E-001 -0.23355780E-001
         90 -0.17033773E-001 -0.28666480E-001
         91 -0.86426802E-002  0.11551560E-001
         92  0.15738413E-001  0.12991110E-001
         93 -0.26362794E-001  0.16792730E-001
         94 -0.10580590E-001 -0.28856801E-002
         95  0.14607983E-001  0.19669840E-001
         96 -0.20630854E-001 -0.22009230E-001
         97  0.26404489E-002 -0.64721401E-002
         98 -0.78019079E-002  0.18595530E-001
         99  0.24566799E-001 -0.12403650E-001
        100  0.14599670E-001  0.12318303E-001
        101  0.72655799E-002  0.20711337E-001
        102 -0.22103990E-001 -0.27745530E-001
        103  0.18656580E-001 -0.10328717E-001
        104  0.17910390E-001 -0.27611914E-001
        105 -0.60980602E-002 -0.14198530E-001
        106 -0.25400220E-001  0.88139428E-002
        107 -0.28674660E-001 -0.16407514E-001
        108 -0.41560601E-002  0.19078049E-001
        109 -0.79601300E-002 -0.18557918E-001
        110  0.20715840E-001 -0.59347162E-002
        111  0.00000000E+000  0.00000000E+000
        112  0.00000000E+000  0.00000000E+000
        113 -0.95217768E-002  0.73843833E-002
        114 -0.19050423E-001 -0.26897268E-002
        115 -0.28933280E-001 -0.25740927E-001
        116 -0.18727917E-001  0.26756823E-001
        117  0.17925566E-001 -0.78785168E-002
        118  0.23700360E-001  0.20176023E-001
        119 -0.11140173E-002  0.17449923E-001
        120  0.13957916E-001  0.25832413E-001
        121  0.28778979E-001 -0.18320767E-001
        122 -0.24843474E-002 -0.26463227E-001
        123 -0.13160165E-001 -0.24272691E-002
        124 -0.16506687E-001  0.27413867E-001
        125  0.14912013E-001 -0.68936002E-002
        126  0.85493332E-002  0.16688913E-001
        127 -0.24661757E-001  0.17785106E-001
        128 -0.27314257E-001 -0.21950680E-001
        129 -0.11604377E-001  0.15686753E-001
        130  0.72778032E-002 -0.24362004E-001
        131  0.66331032E-002 -0.25870508E-002
        132 -0.13561837E-001 -0.24172447E-001
        133  0.10170831E-001  0.20771263E-001
        134  0.00000000E+000  0.00000000E+000
        135  0.00000000E+000  0.00000000E+000
        136 -0.19817804E-001 -0.70874035E-002
        137 -0.17669770E-001  0.26950256E-001
        138 -0.14345277E-001 -0.61080535E-002
        139 -0.26771924E-001  0.17515507E-001
        140 -0.23401310E-001  0.12870765E-002
        141  0.96522328E-002 -0.22844533E-001
        142 -0.87068939E-002 -0.22681345E-003
        143 -0.69569506E-002 -0.35865034E-002
        144  0.11088843E-001 -0.22233623E-001
        145  0.17423531E-001  0.22083289E-001
        146  0.14435157E-001 -0.11222970E-001
        147  0.15559296E-001 -0.20933427E-001
        148 -0.10517163E-001  0.20492036E-001
        149  0.91115365E-002 -0.68508904E-002
        150  0.49888365E-002 -0.17713167E-001
        151  0.59155665E-002 -0.26768339E-002
        152  0.94527365E-002 -0.16073231E-001
        153  0.17829597E-001 -0.15683087E-001
        154 -0.21274210E-002  0.27462404E-002
        155  0.00000000E+000  0.00000000E+000
        156  0.00000000E+000  0.00000000E+000
        157  0.18061810E-001 -0.15154120E-001
        158  0.12425593E-001  0.17855650E-001
        159 -0.80440237E-002  0.10213520E-001
        160 -0.15882860E-001  0.43879498E-002
        161  0.25632323E-001 -0.11018410E-001
        162 -0.28244524E-001 -0.18724200E-001
        163  0.20446750E-001  0.17980360E-001
        164  0.34561229E-002 -0.23525110E-001
        165 -0.17552379E-001 -0.26020910E-001
        166  0.27515300E-001  0.16123133E-001
        167  0.22126198E-002  0.11941496E-001
        168  0.53322198E-002 -0.41655504E-002
        169 -0.22799680E-001 -0.23227537E-001
        170 -0.12067670E-001  0.12172586E-001
        171 -0.92505018E-003 -0.41888004E-002
        172  0.21623599E-002 -0.80858070E-002
        173 -0.53476700E-002 -0.86350825E-002
        174  0.00000000E+000  0.00000000E+000
        175  0.00000000E+000  0.00000000E+000
        176  0.89968231E-002 -0.34101970E-002
        177 -0.16045654E-001 -0.98694970E-002
        178  0.29772740E-001  0.43684130E-002
        179 -0.28011357E-001  0.25956623E-001
        180 -0.14127284E-001  0.97341631E-002
        181  0.26001550E-001 -0.19742337E-001
        182  0.51458030E-002  0.26716333E-001
        183 -0.24190317E-001  0.11811691E-001
        184  0.22868113E-001  0.59583063E-002
        185 -0.26898337E-001  0.55092696E-002
        186 -0.58879469E-002 -0.14333817E-001
        187 -0.28674137E-001  0.16237206E-001
        188  0.81573731E-002  0.11533890E-001
        189 -0.27876797E-001  0.15733130E-002
        190  0.53408109E-002  0.17373917E-001
        191  0.00000000E+000  0.00000000E+000
        192  0.00000000E+000  0.00000000E+000
        193 -0.23712584E-001  0.26326516E-001
        194 -0.20666760E-001  0.10600456E-001
        195  0.90510328E-002  0.13805406E-001
        196 -0.28444494E-001 -0.26632294E-001
        197 -0.22423460E-001  0.15534964E-002
        198  0.61728830E-002 -0.14367353E-001
        199 -0.18079925E-002 -0.39607311E-002
        200  0.23272146E-001  0.23994620E-001
        201  0.26050863E-002 -0.99614571E-002
        202 -0.76965636E-002  0.25323666E-001
        203 -0.21836764E-001 -0.14054690E-001
        204 -0.17595013E-001  0.14885013E-001
        205 -0.23716471E-001  0.24933163E-001
        206  0.00000000E+000  0.00000000E+000
        207  0.00000000E+000  0.00000000E+000
        208 -0.16300290E-001  0.27409640E-001
        209  0.24464229E-002  0.78109096E-002
        210 -0.23341554E-001  0.11950700E-001
        211  0.16381860E-001  0.27392640E-001
        212 -0.22106857E-001 -0.16310630E-001
        213 -0.58078965E-002 -0.25427700E-001
        214  0.26133460E-001 -0.14563637E-001
        215  0.21021810E-001 -0.27790638E-002
        216  0.20996710E-001  0.27957240E-001
        217  0.99640396E-002  0.23221013E-001
        218  0.13035920E-001  0.34053804E-002
        219  0.00000000E+000  0.00000000E+000
        220  0.00000000E+000  0.00000000E+000
        221  0.23048873E-001  0.55422629E-002
        222  0.21165576E-001  0.26156003E-001
        223  0.17471329E-001 -0.21931177E-001
        224  0.25972163E-001  0.77803264E-003
        225 -0.28341188E-001  0.59173506E-002
        226  0.17767973E-001 -0.25124064E-001
        227 -0.23496447E-001 -0.36877106E-002
        228  0.52680126E-002 -0.14474907E-001
        229  0.23797641E-001 -0.28261483E-001
        230  0.00000000E+000  0.00000000E+000
        231  0.00000000E+000  0.00000000E+000
        232  0.20198936E-001  0.55802759E-002
        233  0.64522920E-003  0.76617558E-002
        234 -0.19456077E-001  0.14840006E-001
        235 -0.26887557E-001 -0.71248153E-003
        236 -0.14046274E-001 -0.83427908E-002
        237  0.28081136E-001  0.21559863E-001
        238 -0.26448582E-001  0.17842398E-001
        239  0.00000000E+000  0.00000000E+000
        240  0.00000000E+000  0.00000000E+000
        241 -0.21423061E-001  0.16438879E-001
        242 -0.55569380E-002 -0.20816812E-001
        243 -0.33674302E-002 -0.11695251E-001
        244  0.14618618E-001 -0.86525579E-002
        245 -0.23170501E-001 -0.25924653E-001
        246  0.00000000E+000  0.00000000E+000
        247  0.00000000E+000  0.00000000E+000
        248  0.24000881E-001 -0.19361329E-001
        249 -0.21349437E-001  0.33289646E-003
        250 -0.11551724E-001 -0.34806272E-002
        251  0.00000000E+000  0.00000000E+000
        252  0.00000000E+000  0.00000000E+000
        253 -0.17894336E-001 -0.10310246E-001
        254  0.00000000E+000  0.00000000E+000
        255  0.00000000E+000  0.00000000E+000
        256  0.00000000E+000  0.00000000E+000
End values

