GiD Post Results File 1.0
 
Result VELOC ALYA  0.30000000E+02 Vector OnNodes
ComponentNames VELOC_X,VELOC_Y,VELOC_Z
Values
          1  0.00000000E+000  0.00000000E+000
          2  0.00000000E+000  0.00000000E+000
          3  0.00000000E+000  0.00000000E+000
          4 -0.59298827E-001 -0.58927787E-001
          5  0.00000000E+000  0.00000000E+000
          6  0.00000000E+000  0.00000000E+000
          7 -0.18319897E+000 -0.91439131E-001
          8 -0.93025776E-001 -0.18345663E+000
          9 -0.28147898E+000 -0.27864342E+000
         10  0.00000000E+000  0.00000000E+000
         11  0.00000000E+000  0.00000000E+000
         12 -0.10417162E+000 -0.33783111E+000
         13 -0.33491907E+000 -0.10117296E+000
         14 -0.31675043E+000 -0.51244940E+000
         15 -0.51406088E+000 -0.30987527E+000
         16  0.00000000E+000  0.00000000E+000
         17  0.00000000E+000  0.00000000E+000
         18 -0.48923698E+000 -0.97184424E-001
         19 -0.10085949E+000 -0.49655973E+000
         20 -0.58275454E+000 -0.57418099E+000
         21 -0.30952695E+000 -0.75748841E+000
         22 -0.75524961E+000 -0.30029161E+000
         23  0.00000000E+000  0.00000000E+000
         24  0.00000000E+000  0.00000000E+000
         25 -0.86264876E+000 -0.56177230E+000
         26 -0.57514604E+000 -0.85532083E+000
         27 -0.63094460E+000 -0.85501125E-001
         28 -0.88711375E-001 -0.64311988E+000
         29 -0.98104249E+000 -0.26656045E+000
         30 -0.27519035E+000 -0.98846478E+000
         31 -0.85871844E+000 -0.84385028E+000
         32 -0.11285425E+001 -0.50323216E+000
         33 -0.51685723E+000 -0.11246316E+001
         34  0.00000000E+000  0.00000000E+000
         35  0.00000000E+000  0.00000000E+000
         36 -0.71505243E-001 -0.76734782E+000
         37 -0.75147892E+000 -0.69799103E-001
         38 -0.11763077E+001 -0.21932564E+000
         39 -0.22448592E+000 -0.11883749E+001
         40 -0.11316360E+001 -0.76191646E+000
         41 -0.77880419E+000 -0.11177871E+001
         42 -0.13615633E+001 -0.41736694E+000
         43 -0.42655862E+000 -0.13617272E+001
         44  0.00000000E+000  0.00000000E+000
         45  0.00000000E+000  0.00000000E+000
         46 -0.84629931E+000 -0.52144679E-001
         47 -0.51722908E-001 -0.86343762E+000
         48 -0.10342286E+001 -0.10162337E+001
         49 -0.13736555E+001 -0.63638501E+000
         50 -0.64921727E+000 -0.13624541E+001
         51 -0.16480179E+000 -0.13465347E+001
         52 -0.13320256E+001 -0.16495920E+000
         53 -0.15495674E+001 -0.31607846E+000
         54 -0.31758600E+000 -0.15529142E+001
         55 -0.86944193E+000 -0.12462768E+001
         56 -0.12634090E+001 -0.85413438E+000
         57  0.00000000E+000  0.00000000E+000
         58  0.00000000E+000  0.00000000E+000
         59 -0.91315042E+000 -0.33620561E-001
         60 -0.15710508E+001 -0.48501656E+000
         61 -0.30979280E-001 -0.92854136E+000
         62 -0.48928030E+000 -0.15629905E+001
         63 -0.14431066E+001 -0.10705781E+000
         64 -0.10114218E+000 -0.14568977E+001
         65 -0.10695914E+001 -0.10534323E+001
         66 -0.16851471E+001 -0.20655588E+000
         67 -0.19931438E+000 -0.16896993E+001
         68 -0.66203937E+000 -0.14375712E+001
         69 -0.14524301E+001 -0.65482942E+000
         70 -0.17149914E+001 -0.31912759E+000
         71 -0.31297606E+000 -0.17095760E+001
         72  0.00000000E+000  0.00000000E+000
         73  0.00000000E+000  0.00000000E+000
         74 -0.10300074E-001 -0.96178569E+000
         75 -0.95099740E+000 -0.14750740E-001
         76 -0.15068817E+001 -0.47568329E-001
         77 -0.12367574E+001 -0.81215087E+000
         78 -0.82152959E+000 -0.12214359E+001
         79 -0.36832845E-001 -0.15167342E+001
         80 -0.15919729E+001 -0.43382079E+000
         81 -0.43032204E+000 -0.15800903E+001
         82 -0.78231894E-001 -0.17675267E+001
         83 -0.17641204E+001 -0.93049655E-001
         84 -0.13030722E+000 -0.17963683E+001
         85 -0.18002337E+001 -0.14586057E+000
         86 -0.95684569E+000 -0.94672165E+000
         87  0.00000000E+000  0.00000000E+000
         88  0.00000000E+000  0.00000000E+000
         89 -0.13619916E+001 -0.54180298E+000
         90 -0.54121133E+000 -0.13488944E+001
         91 -0.95944161E+000  0.42105414E-002
         92  0.96851978E-002 -0.96358333E+000
         93 -0.15221882E+001  0.12398845E-001
         94  0.25955025E-001 -0.15256491E+001
         95 -0.18772067E+000 -0.16674191E+001
         96 -0.16762817E+001 -0.20137899E+000
         97 -0.17845371E+001  0.21754496E-001
         98  0.41196568E-001 -0.17847963E+001
         99 -0.10601605E+001 -0.63606240E+000
        100 -0.63752163E+000 -0.10508593E+001
        101 -0.18241977E+001  0.29962604E-001
        102  0.51546714E-001 -0.18206664E+001
        103 -0.14395706E+001 -0.25569964E+000
        104 -0.24508240E+000 -0.14295276E+001
        105  0.00000000E+000  0.00000000E+000
        106  0.00000000E+000  0.00000000E+000
        107  0.28594795E-001 -0.93517053E+000
        108 -0.93848011E+000  0.23075201E-001
        109 -0.17023822E+001  0.35242976E-001
        110  0.85777089E-001 -0.14849093E+001
        111 -0.14889453E+001  0.71967921E-001
        112  0.55800523E-001 -0.16961089E+001
        113 -0.71317141E+000 -0.71106922E+000
        114 -0.29760573E+000 -0.11190343E+001
        115  0.15578311E+000 -0.17421793E+001
        116 -0.11262871E+001 -0.30545098E+000
        117 -0.17461657E+001  0.13566719E+000
        118 -0.14663890E+001  0.36457774E-001
        119  0.54338278E-001 -0.14595769E+001
        120  0.22718295E+000 -0.17823320E+001
        121 -0.17864439E+001  0.20433343E+000
        122  0.00000000E+000  0.00000000E+000
        123  0.00000000E+000  0.00000000E+000
        124 -0.34143240E+000 -0.76253015E+000
        125 -0.88852352E+000  0.41564940E-001
        126 -0.76395900E+000 -0.34762668E+000
        127  0.46161820E-001 -0.87834060E+000
        128  0.29243657E+000 -0.16652537E+001
        129 -0.16695972E+001  0.26994113E+000
        130 -0.14081245E+001  0.13002361E+000
        131  0.14151927E+000 -0.13970629E+001
        132  0.48287669E-001 -0.11476032E+001
        133 -0.11522596E+001  0.33191554E-001
        134 -0.16504036E+001  0.24612935E+000
        135  0.26290252E+000 -0.16422429E+001
        136 -0.14415417E+001  0.32644291E+000
        137  0.34693216E+000 -0.14375442E+001
        138 -0.16885321E+001  0.37279972E+000
        139  0.39194982E+000 -0.16834920E+001
        140 -0.37372076E+000 -0.37950960E+000
        141  0.38967217E-001 -0.78728130E+000
        142 -0.78732553E+000  0.25756237E-001
        143 -0.15793707E+001  0.49615767E+000
        144  0.00000000E+000  0.00000000E+000
        145  0.00000000E+000  0.00000000E+000
        146  0.51524195E+000 -0.15763037E+001
        147 -0.81062524E+000  0.59175397E-001
        148  0.62093176E-001 -0.79537352E+000
        149 -0.11370015E+001  0.36971423E+000
        150  0.38804515E+000 -0.11347041E+001
        151 -0.12820535E+001  0.18480063E+000
        152  0.19197491E+000 -0.12658602E+001
        153 -0.15005564E+001  0.34946121E+000
        154  0.35972986E+000 -0.14893985E+001
        155 -0.13661323E+001  0.60562089E+000
        156  0.62345398E+000 -0.13641266E+001
        157 -0.39257693E+000  0.15106922E-001
        158  0.27587055E-001 -0.39870142E+000
        159 -0.15342302E+001  0.52936749E+000
        160  0.54085412E+000 -0.15285374E+001
        161  0.41441019E+000 -0.78332310E+000
        162 -0.78212531E+000  0.39738248E+000
        163 -0.10811365E+001  0.69364407E+000
        164  0.71034775E+000 -0.10803023E+001
        165 -0.14353968E+001  0.70546239E+000
        166  0.71675261E+000 -0.14331298E+001
        167  0.00000000E+000  0.00000000E+000
        168  0.00000000E+000  0.00000000E+000
        169 -0.70690349E+000  0.75039608E-001
        170  0.75896010E-001 -0.68919084E+000
        171  0.23533788E+000 -0.10965121E+001
        172  0.15153472E-001  0.26769813E-002
        173 -0.11150136E+001  0.23348562E+000
        174  0.42544878E+000 -0.40326333E+000
        175 -0.39692032E+000  0.40858600E+000
        176  0.44235202E+000 -0.12902012E+001
        177 -0.12433295E+001  0.86325063E+000
        178  0.87392514E+000 -0.12423471E+001
        179 -0.13024387E+001  0.44015602E+000
        180  0.77191554E+000 -0.74996508E+000
        181 -0.74845438E+000  0.75534700E+000
        182  0.66731878E+000 -0.13244343E+001
        183 -0.13300335E+001  0.66548654E+000
        184  0.10028940E+001 -0.98638091E+000
        185 -0.98698303E+000  0.99225772E+000
        186  0.88745055E+000 -0.12423395E+001
        187  0.42112806E+000 -0.98380506E-002
        188  0.25120703E-002  0.40369147E+000
        189 -0.12440325E+001  0.88624767E+000
        190 -0.38635601E+000  0.78811642E+000
        191  0.80576848E+000 -0.39195164E+000
        192  0.00000000E+000  0.00000000E+000
        193  0.00000000E+000  0.00000000E+000
        194 -0.58116207E+000  0.87769156E-001
        195  0.86643443E-001 -0.56379551E+000
        196 -0.91411207E+000  0.27178536E+000
        197  0.26855348E+000 -0.89633848E+000
        198  0.10858746E+001 -0.10778756E+001
        199 -0.10786734E+001  0.10849121E+001
        200  0.10972503E+001 -0.68805535E+000
        201 -0.68759204E+000  0.10854323E+001
        202 -0.10652549E+001  0.51016093E+000
        203  0.50468602E+000 -0.10540274E+001
        204 -0.10859520E+001  0.76906217E+000
        205  0.76172973E+000 -0.10813522E+001
        206  0.40191523E+000  0.38401226E+000
        207 -0.95342618E-002  0.79122744E+000
        208  0.81077732E+000 -0.20741886E-001
        209 -0.85876003E+000  0.12487686E+001
        210  0.12504860E+001 -0.85725859E+000
        211 -0.36105934E+000  0.11385940E+001
        212 -0.10149670E+001  0.10224808E+001
        213  0.10140157E+001 -0.10138399E+001
        214  0.11529347E+001 -0.36445294E+000
        215  0.00000000E+000  0.00000000E+000
        216  0.00000000E+000  0.00000000E+000
        217 -0.43974055E+000  0.95248942E-001
        218  0.92653180E-001 -0.42508714E+000
        219 -0.69040989E+000  0.29341579E+000
        220  0.13729251E+001 -0.60027972E+000
        221  0.28648507E+000 -0.67586000E+000
        222 -0.60210904E+000  0.13690886E+001
        223  0.12423705E+001 -0.87952729E+000
        224 -0.88062789E+000  0.12510015E+001
        225  0.36887859E+000  0.76551768E+000
        226  0.78693918E+000  0.35155711E+000
        227 -0.80270128E+000  0.54810733E+000
        228  0.53718655E+000 -0.79412934E+000
        229  0.11677715E+001 -0.28596724E-001
        230 -0.20102802E-001  0.11499673E+001
        231  0.80977393E+000 -0.81359120E+000
        232 -0.81650697E+000  0.82345833E+000
        233 -0.70302341E+000  0.14405686E+001
        234  0.14329133E+001 -0.70001943E+000
        235  0.14477709E+001 -0.32165288E+000
        236 -0.32179741E+000  0.14404223E+001
        237  0.10773684E+001 -0.76163189E+000
        238 -0.76211204E+000  0.10924740E+001
        239  0.73542100E+000  0.71313105E+000
        240  0.15759960E+001 -0.49151645E+000
        241  0.00000000E+000  0.00000000E+000
        242 -0.49618749E+000  0.15814317E+001
        243  0.00000000E+000  0.00000000E+000
        244 -0.29264512E+000  0.94355192E-001
        245  0.91066608E-001 -0.28215067E+000
        246  0.32381783E+000  0.11198244E+001
        247  0.11412430E+001  0.30878257E+000
        248  0.13198330E+001 -0.65992493E+000
        249 -0.66136765E+000  0.13352463E+001
        250 -0.46025260E+000  0.28950752E+000
        251  0.28095426E+000 -0.45031632E+000
        252  0.14719747E+001 -0.32435582E-001
        253 -0.28165079E-001  0.14600521E+001
        254 -0.53419465E+000  0.53850268E+000
        255  0.52546345E+000 -0.52900008E+000
        256 -0.54186470E+000  0.80650009E+000
        257  0.79071133E+000 -0.54076235E+000
        258  0.15226110E+001 -0.52503812E+000
        259 -0.52934145E+000  0.15374782E+001
        260 -0.27012579E+000  0.16672952E+001
        261  0.16653223E+001 -0.26590468E+000
        262  0.10744789E+001  0.63734941E+000
        263  0.65872561E+000  0.10502583E+001
        264 -0.50467503E+000  0.10676311E+001
        265  0.10505963E+001 -0.50482257E+000
        266  0.14445413E+001  0.25844760E+000
        267  0.26941354E+000  0.14276226E+001
        268  0.16756513E+001 -0.36921778E+000
        269 -0.37616949E+000  0.16892350E+001
        270  0.00000000E+000  0.00000000E+000
        271  0.00000000E+000  0.00000000E+000
        272 -0.32598980E-001  0.16946972E+001
        273  0.12856729E+001 -0.43631237E+000
        274 -0.15499775E+000  0.80707007E-001
        275 -0.43776980E+000  0.13031705E+001
        276  0.16972809E+001 -0.31922815E-001
        277  0.77515061E-001 -0.14903466E+000
        278  0.23998669E+000 -0.24138721E+000
        279 -0.24662354E+000  0.24806339E+000
        280 -0.28605760E+000  0.46112439E+000
        281  0.44933522E+000 -0.28385918E+000
        282  0.17724476E+001 -0.20126094E+000
        283 -0.20878692E+000  0.17839484E+001
        284  0.97043555E+000  0.94510135E+000
        285 -0.35117954E+000  0.14999445E+001
        286  0.14821184E+001 -0.34657124E+000
        287  0.13664587E+001  0.54254010E+000
        288  0.67592301E+000 -0.28921430E+000
        289  0.56092772E+000  0.13449626E+001
        290 -0.28907645E+000  0.68951669E+000
        291  0.20933176E+000  0.16626377E+001
        292  0.16705283E+001  0.20357916E+000
        293 -0.26836634E+000  0.91104419E+000
        294  0.89691025E+000 -0.26885563E+000
        295  0.16305989E+001 -0.24378175E+000
        296 -0.25131648E+000  0.16488769E+001
        297  0.18092674E+001 -0.27434349E-001
        298 -0.32411971E-001  0.18177277E+001
        299  0.10958237E+001 -0.23146433E+000
        300 -0.23250365E+000  0.11103529E+001
        301  0.00000000E+000  0.00000000E+000
        302  0.00000000E+000  0.00000000E+000
        303 -0.48476796E-001  0.48665434E-001
        304  0.46281739E-001 -0.46466340E-001
        305  0.14916231E+000 -0.78304805E-001
        306 -0.79907551E-001  0.15488434E+000
        307  0.12408744E+001  0.81000123E+000
        308  0.83422182E+000  0.12161068E+001
        309  0.15858490E+001  0.43425037E+000
        310  0.44793419E+000  0.15724623E+001
        311 -0.14232285E+000  0.17438651E+001
        312  0.28347747E+000 -0.92396470E-001
        313 -0.92840949E-001  0.29122092E+000
        314  0.17252179E+001 -0.13364488E+000
        315 -0.18686725E+000  0.12770675E+001
        316  0.12613928E+001 -0.18332977E+000
        317  0.42802141E+000 -0.93846928E-001
        318  0.17846350E+001  0.14754782E+000
        319 -0.93504462E-001  0.43619913E+000
        320  0.14820511E+000  0.17889927E+001
        321  0.56765559E+000 -0.86832712E-001
        322 -0.86510424E-001  0.57552459E+000
        323  0.13863189E+001 -0.12883616E+000
        324 -0.13467427E+000  0.14041869E+001
        325 -0.27174800E-001  0.17810482E+001
        326  0.17626577E+001 -0.20049987E-001
        327  0.10734980E+001  0.10475157E+001
        328  0.14463138E+001  0.65266358E+000
        329  0.67352545E+000  0.14279958E+001
        330 -0.74842542E-001  0.70011884E+000
        331  0.69219095E+000 -0.74421921E-001
        332  0.00000000E+000  0.00000000E+000
        333  0.16991141E+001  0.31944693E+000
        334  0.00000000E+000  0.00000000E+000
        335  0.32769855E+000  0.16984207E+001
        336  0.00000000E+000  0.00000000E+000
        337  0.00000000E+000  0.00000000E+000
        338  0.00000000E+000  0.00000000E+000
        339  0.00000000E+000  0.00000000E+000
        340  0.14661939E+001 -0.70918976E-001
        341 -0.77847274E-001  0.14869382E+001
        342  0.00000000E+000  0.00000000E+000
        343  0.00000000E+000  0.00000000E+000
        344  0.91426497E-001  0.17584582E+001
        345 -0.60255387E-001  0.80423083E+000
        346  0.17415832E+001  0.94242631E-001
        347  0.79508013E+000 -0.58739657E-001
        348  0.00000000E+000  0.00000000E+000
        349  0.00000000E+000  0.00000000E+000
        350  0.87319590E+000  0.12359164E+001
        351  0.12577411E+001  0.84848823E+000
        352  0.14986456E+001 -0.11470501E-001
        353 -0.17674979E-001  0.15220887E+001
        354  0.87234823E+000 -0.41211229E-001
        355  0.00000000E+000  0.00000000E+000
        356  0.15554320E+001  0.48326224E+000
        357  0.49908122E+000  0.15491900E+001
        358  0.00000000E+000  0.00000000E+000
        359 -0.43724066E-001  0.88409718E+000
        360  0.21030146E+000  0.16760236E+001
        361  0.16623560E+001  0.20686250E+000
        362  0.00000000E+000  0.00000000E+000
        363  0.00000000E+000  0.00000000E+000
        364 -0.25777394E-001  0.93710085E+000
        365  0.92176652E+000 -0.22748896E-001
        366  0.44680961E-001  0.15076548E+001
        367  0.14827426E+001  0.48273368E-001
        368  0.00000000E+000  0.00000000E+000
        369  0.00000000E+000  0.00000000E+000
        370  0.10294492E+001  0.10063506E+001
        371  0.13589757E+001  0.63175619E+000
        372  0.65272762E+000  0.13475021E+001
        373  0.32509426E+000  0.15358954E+001
        374  0.15271100E+001  0.31497313E+000
        375  0.94223755E+000 -0.39024513E-002
        376 -0.67357103E-002  0.96131475E+000
        377  0.00000000E+000  0.00000000E+000
        378  0.00000000E+000  0.00000000E+000
        379  0.14186847E+001  0.10732669E+000
        380  0.10776972E+000  0.14429450E+001
        381  0.11186742E+001  0.75366525E+000
        382  0.00000000E+000  0.00000000E+000
        383  0.00000000E+000  0.00000000E+000
        384  0.77525938E+000  0.11033570E+001
        385  0.13116139E-001  0.95533171E+000
        386  0.93337113E+000  0.15007232E-001
        387  0.13402384E+001  0.41422356E+000
        388  0.42955022E+000  0.13430737E+001
        389  0.13078217E+001  0.16448241E+000
        390  0.16946536E+000  0.13289014E+001
        391  0.00000000E+000  0.00000000E+000
        392  0.00000000E+000  0.00000000E+000
        393  0.89525043E+000  0.33752884E-001
        394  0.33390462E-001  0.91831720E+000
        395  0.84825103E+000  0.83155227E+000
        396  0.51468641E+000  0.11063243E+001
        397  0.11093460E+001  0.49741991E+000
        398  0.11530606E+001  0.21771902E+000
        399  0.22655376E+000  0.11687247E+001
        400  0.00000000E+000  0.00000000E+000
        401  0.00000000E+000  0.00000000E+000
        402  0.53467843E-001  0.85025338E+000
        403  0.82840870E+000  0.52044576E-001
        404  0.00000000E+000  0.00000000E+000
        405  0.00000000E+000  0.00000000E+000
        406  0.56777355E+000  0.83936422E+000
        407  0.84669002E+000  0.55284692E+000
        408  0.95974742E+000  0.26341095E+000
        409  0.27422991E+000  0.96879680E+000
        410  0.72354078E-001  0.75237295E+000
        411  0.73406285E+000  0.69328022E-001
        412  0.00000000E+000  0.00000000E+000
        413  0.00000000E+000  0.00000000E+000
        414  0.57106262E+000  0.56226150E+000
        415  0.73711731E+000  0.29525896E+000
        416  0.30542811E+000  0.73992756E+000
        417  0.61468457E+000  0.84502793E-001
        418  0.88494969E-001  0.62781077E+000
        419  0.00000000E+000  0.00000000E+000
        420  0.00000000E+000  0.00000000E+000
        421  0.50036081E+000  0.30291279E+000
        422  0.30991791E+000  0.49893322E+000
        423  0.99511929E-001  0.48253798E+000
        424  0.47503471E+000  0.95516394E-001
        425  0.00000000E+000  0.00000000E+000
        426  0.00000000E+000  0.00000000E+000
        427  0.27317190E+000  0.27045865E+000
        428  0.10179975E+000  0.32668909E+000
        429  0.32382887E+000  0.98781983E-001
        430  0.00000000E+000  0.00000000E+000
        431  0.00000000E+000  0.00000000E+000
        432  0.90039934E-001  0.17643718E+000
        433  0.17619750E+000  0.88531845E-001
        434  0.00000000E+000  0.00000000E+000
        435  0.00000000E+000  0.00000000E+000
        436  0.56691768E-001  0.56342525E-001
        437  0.00000000E+000  0.00000000E+000
        438  0.00000000E+000  0.00000000E+000
        439  0.00000000E+000  0.00000000E+000
        440  0.00000000E+000  0.00000000E+000
        441  0.00000000E+000  0.00000000E+000
End values

Result PRESS ALYA  0.30000000E+02 Scalar OnNodes
ComponentNames PRESS
Values
          1  0.00000000E+000
          2  0.17593138E+002
          3  0.40223780E+000
          4  0.17256927E+002
          5  0.21982101E+001
          6  0.33760809E+002
          7  0.18113595E+002
          8  0.32892388E+002
          9  0.33021208E+002
         10  0.57836862E+001
         11  0.48054291E+002
         12  0.46916825E+002
         13  0.20500101E+002
         14  0.46522070E+002
         15  0.34470340E+002
         16  0.60496452E+002
         17  0.11086094E+002
         18  0.24416630E+002
         19  0.59292479E+002
         20  0.47235270E+002
         21  0.58579574E+002
         22  0.37241082E+002
         23  0.71338962E+002
         24  0.17841872E+002
         25  0.49067430E+002
         26  0.58750533E+002
         27  0.29677681E+002
         28  0.70208706E+002
         29  0.41192486E+002
         30  0.69354298E+002
         31  0.59837420E+002
         32  0.51910514E+002
         33  0.69159221E+002
         34  0.80924415E+002
         35  0.25741272E+002
         36  0.79960414E+002
         37  0.36032657E+002
         38  0.46130492E+002
         39  0.79103104E+002
         40  0.61765482E+002
         41  0.69677434E+002
         42  0.55616612E+002
         43  0.78692063E+002
         44  0.89616753E+002
         45  0.34486256E+002
         46  0.43224170E+002
         47  0.88876450E+002
         48  0.70868011E+002
         49  0.64428893E+002
         50  0.78795859E+002
         51  0.88118874E+002
         52  0.51848338E+002
         53  0.60026396E+002
         54  0.87612790E+002
         55  0.79405457E+002
         56  0.72664908E+002
         57  0.43807948E+002
         58  0.97765520E+002
         59  0.51009062E+002
         60  0.67711887E+002
         61  0.97281119E+002
         62  0.87431111E+002
         63  0.58142457E+002
         64  0.96695045E+002
         65  0.80491992E+002
         66  0.64978007E+002
         67  0.96186434E+002
         68  0.87592196E+002
         69  0.74992989E+002
         70  0.71492877E+002
         71  0.95822048E+002
         72  0.53465063E+002
         73  0.10568929E+003
         74  0.10547498E+003
         75  0.59161085E+002
         76  0.64815554E+002
         77  0.82018057E+002
         78  0.88101007E+002
         79  0.10510638E+003
         80  0.77768814E+002
         81  0.95641746E+002
         82  0.10466124E+003
         83  0.70308169E+002
         84  0.10419099E+003
         85  0.75643472E+002
         86  0.88954816E+002
         87  0.11367017E+003
         88  0.63234743E+002
         89  0.83936063E+002
         90  0.95680293E+002
         91  0.67465527E+002
         92  0.11372718E+003
         93  0.71673728E+002
         94  0.11360014E+003
         95  0.10375072E+003
         96  0.80898139E+002
         97  0.75849991E+002
         98  0.11325968E+003
         99  0.90139451E+002
        100  0.95966514E+002
        101  0.80026160E+002
        102  0.11273484E+003
        103  0.86184613E+002
        104  0.10340066E+003
        105  0.12195527E+003
        106  0.72901403E+002
        107  0.12227494E+003
        108  0.75711266E+002
        109  0.84273352E+002
        110  0.12239393E+003
        111  0.78521482E+002
        112  0.11209023E+003
        113  0.96517262E+002
        114  0.10319805E+003
        115  0.12217541E+003
        116  0.91624851E+002
        117  0.81429722E+002
        118  0.88685723E+002
        119  0.11140725E+003
        120  0.12162171E+003
        121  0.84491932E+002
        122  0.13076240E+003
        123  0.82246589E+002
        124  0.10318854E+003
        125  0.83683312E+002
        126  0.97332223E+002
        127  0.13132742E+003
        128  0.12080232E+003
        129  0.87771551E+002
        130  0.85157022E+002
        131  0.13167777E+003
        132  0.11076848E+003
        133  0.93362062E+002
        134  0.86863963E+002
        135  0.13157415E+003
        136  0.91343185E+002
        137  0.11981597E+003
        138  0.88878616E+002
        139  0.13099108E+003
        140  0.10340008E+003
        141  0.11024620E+003
        142  0.98390746E+002
        143  0.91253532E+002
        144  0.14028854E+003
        145  0.91041742E+002
        146  0.12999982E+003
        147  0.91157901E+002
        148  0.14107212E+003
        149  0.95281777E+002
        150  0.11876755E+003
        151  0.91369661E+002
        152  0.14161845E+003
        153  0.91958665E+002
        154  0.14159686E+003
        155  0.94041970E+002
        156  0.12871301E+003
        157  0.10383949E+003
        158  0.10989527E+003
        159  0.93010814E+002
        160  0.14095641E+003
        161  0.11775387E+003
        162  0.99650415E+002
        163  0.97294024E+002
        164  0.12725507E+003
        165  0.94564240E+002
        166  0.13976848E+003
        167  0.15071897E+003
        168  0.99045601E+002
        169  0.97902007E+002
        170  0.15168168E+003
        171  0.15236454E+003
        172  0.10974941E+003
        173  0.96941103E+002
        174  0.11685531E+003
        175  0.10449110E+003
        176  0.15236395E+003
        177  0.96648954E+002
        178  0.13815685E+003
        179  0.96511407E+002
        180  0.12574520E+003
        181  0.10104695E+003
        182  0.15160908E+003
        183  0.96702655E+002
        184  0.13626267E+003
        185  0.99289016E+002
        186  0.15017099E+003
        187  0.11613148E+003
        188  0.10981901E+003
        189  0.97535681E+002
        190  0.10531674E+003
        191  0.12428786E+003
        192  0.16223442E+003
        193  0.10600850E+003
        194  0.10367966E+003
        195  0.16331842E+003
        196  0.10165271E+003
        197  0.16404981E+003
        198  0.14818208E+003
        199  0.99015780E+002
        200  0.13422538E+003
        201  0.10249503E+003
        202  0.10031873E+003
        203  0.16397912E+003
        204  0.99764880E+002
        205  0.16302321E+003
        206  0.11561959E+003
        207  0.11009263E+003
        208  0.12296791E+003
        209  0.10113981E+003
        210  0.14579759E+003
        211  0.10625647E+003
        212  0.99993666E+002
        213  0.16125241E+003
        214  0.13217204E+003
        215  0.17501105E+003
        216  0.11168719E+003
        217  0.10826870E+003
        218  0.17613166E+003
        219  0.10530163E+003
        220  0.14317499E+003
        221  0.17679189E+003
        222  0.10389070E+003
        223  0.15880532E+003
        224  0.10098515E+003
        225  0.11533425E+003
        226  0.12184861E+003
        227  0.10319079E+003
        228  0.17653113E+003
        229  0.13021177E+003
        230  0.11053628E+003
        231  0.17525994E+003
        232  0.10201831E+003
        233  0.10270803E+003
        234  0.15584880E+003
        235  0.14046224E+003
        236  0.10723059E+003
        237  0.17304621E+003
        238  0.10177044E+003
        239  0.12097122E+003
        240  0.15255617E+003
        241  0.11587715E+003
        242  0.10511645E+003
        243  0.18920293E+003
        244  0.11149411E+003
        245  0.19023916E+003
        246  0.11526808E+003
        247  0.12843343E+003
        248  0.17003238E+003
        249  0.10240260E+003
        250  0.10773009E+003
        251  0.19068047E+003
        252  0.13779160E+003
        253  0.11109574E+003
        254  0.10497656E+003
        255  0.19008921E+003
        256  0.10331715E+003
        257  0.18836758E+003
        258  0.16639494E+003
        259  0.10385470E+003
        260  0.10814439E+003
        261  0.14909452E+003
        262  0.12690497E+003
        263  0.12035558E+003
        264  0.10272677E+003
        265  0.18557749E+003
        266  0.13527683E+003
        267  0.11539361E+003
        268  0.16232125E+003
        269  0.10605113E+003
        270  0.11847448E+003
        271  0.20488904E+003
        272  0.11170091E+003
        273  0.18186371E+003
        274  0.11328858E+003
        275  0.10313744E+003
        276  0.14561784E+003
        277  0.20567780E+003
        278  0.20574594E+003
        279  0.10887351E+003
        280  0.10560699E+003
        281  0.20468213E+003
        282  0.15799588E+003
        283  0.10889688E+003
        284  0.12567423E+003
        285  0.10445967E+003
        286  0.17741166E+003
        287  0.13301263E+003
        288  0.20236655E+003
        289  0.12000206E+003
        290  0.10359044E+003
        291  0.11566716E+003
        292  0.14226403E+003
        293  0.10279260E+003
        294  0.19885196E+003
        295  0.17242212E+003
        296  0.10658715E+003
        297  0.15359314E+003
        298  0.11227339E+003
        299  0.19428707E+003
        300  0.10312158E+003
        301  0.22194520E+003
        302  0.11959799E+003
        303  0.11378938E+003
        304  0.22230882E+003
        305  0.22188970E+003
        306  0.10884000E+003
        307  0.13107550E+003
        308  0.12477078E+003
        309  0.13915439E+003
        310  0.11989526E+003
        311  0.10939537E+003
        312  0.22023451E+003
        313  0.10517477E+003
        314  0.16709608E+003
        315  0.10445663E+003
        316  0.18886897E+003
        317  0.21718588E+003
        318  0.14927403E+003
        319  0.10292720E+003
        320  0.11603548E+003
        321  0.21279453E+003
        322  0.10205372E+003
        323  0.18281335E+003
        324  0.10665998E+003
        325  0.11273825E+003
        326  0.16162680E+003
        327  0.12952573E+003
        328  0.13639475E+003
        329  0.12420947E+003
        330  0.10243047E+003
        331  0.20722430E+003
        332  0.11977982E+003
        333  0.14518608E+003
        334  0.23982870E+003
        335  0.12000975E+003
        336  0.11343230E+003
        337  0.23971010E+003
        338  0.10803794E+003
        339  0.23874924E+003
        340  0.17633747E+003
        341  0.10957825E+003
        342  0.10412245E+003
        343  0.23637570E+003
        344  0.11644473E+003
        345  0.10390257E+003
        346  0.15619702E+003
        347  0.20069119E+003
        348  0.10179541E+003
        349  0.23244212E+003
        350  0.12841058E+003
        351  0.13407757E+003
        352  0.16965207E+003
        353  0.11303943E+003
        354  0.19342880E+003
        355  0.22703340E+003
        356  0.14146487E+003
        357  0.12399541E+003
        358  0.10096655E+003
        359  0.10630225E+003
        360  0.12031652E+003
        361  0.15097942E+003
        362  0.10147314E+003
        363  0.22034301E+003
        364  0.10945131E+003
        365  0.18567033E+003
        366  0.11684848E+003
        367  0.16295924E+003
        368  0.10313197E+003
        369  0.21260934E+003
        370  0.13228477E+003
        371  0.13823639E+003
        372  0.12776840E+003
        373  0.12412814E+003
        374  0.14613912E+003
        375  0.17764104E+003
        376  0.11315678E+003
        377  0.10575596E+003
        378  0.20408150E+003
        379  0.15645432E+003
        380  0.12078384E+003
        381  0.13561943E+003
        382  0.10915369E+003
        383  0.19500292E+003
        384  0.13109065E+003
        385  0.11720466E+003
        386  0.16955778E+003
        387  0.14183660E+003
        388  0.12763073E+003
        389  0.15033006E+003
        390  0.12459617E+003
        391  0.11312243E+003
        392  0.18560570E+003
        393  0.16163300E+003
        394  0.12135426E+003
        395  0.13372677E+003
        396  0.13056144E+003
        397  0.13822969E+003
        398  0.14478097E+003
        399  0.12801137E+003
        400  0.17611213E+003
        401  0.11743940E+003
        402  0.12533522E+003
        403  0.15408145E+003
        404  0.12185419E+003
        405  0.16674102E+003
        406  0.13266136E+003
        407  0.13547238E+003
        408  0.14000567E+003
        409  0.13073986E+003
        410  0.12884883E+003
        411  0.14712729E+003
        412  0.15771699E+003
        413  0.12608383E+003
        414  0.13370603E+003
        415  0.13620330E+003
        416  0.13249577E+003
        417  0.14100853E+003
        418  0.13157630E+003
        419  0.12981229E+003
        420  0.14928071E+003
        421  0.13355732E+003
        422  0.13303154E+003
        423  0.13319820E+003
        424  0.13597331E+003
        425  0.13269666E+003
        426  0.14169688E+003
        427  0.13219562E+003
        428  0.13343241E+003
        429  0.13225789E+003
        430  0.13525442E+003
        431  0.13438412E+003
        432  0.13210391E+003
        433  0.13002816E+003
        434  0.13454765E+003
        435  0.13024726E+003
        436  0.12926162E+003
        437  0.13295473E+003
        438  0.12691487E+003
        439  0.12529696E+003
        440  0.12960342E+003
        441  0.12496060E+003
End values

Result TEMPE ALYA  0.30000000E+02 Scalar OnNodes
ComponentNames TEMPE
Values
          1  0.24000000E+003
          2  0.24000000E+003
          3  0.26952023E+003
          4  0.26953998E+003
          5  0.29895384E+003
          6  0.24000000E+003
          7  0.29901241E+003
          8  0.26952921E+003
          9  0.29901727E+003
         10  0.32816896E+003
         11  0.24000000E+003
         12  0.26940690E+003
         13  0.32828084E+003
         14  0.29879201E+003
         15  0.32832618E+003
         16  0.24000000E+003
         17  0.35699644E+003
         18  0.35716442E+003
         19  0.26913003E+003
         20  0.32802022E+003
         21  0.29824948E+003
         22  0.35725963E+003
         23  0.24000000E+003
         24  0.38526135E+003
         25  0.35688695E+003
         26  0.32722866E+003
         27  0.38547814E+003
         28  0.26868610E+003
         29  0.38561607E+003
         30  0.29736606E+003
         31  0.35586324E+003
         32  0.38517942E+003
         33  0.32591694E+003
         34  0.24000000E+003
         35  0.41281054E+003
         36  0.26808318E+003
         37  0.41306212E+003
         38  0.41322334E+003
         39  0.29615960E+003
         40  0.38393825E+003
         41  0.35414227E+003
         42  0.41271620E+003
         43  0.32411401E+003
         44  0.24000000E+003
         45  0.43953054E+003
         46  0.43979964E+003
         47  0.26734227E+003
         48  0.38183432E+003
         49  0.41127040E+003
         50  0.35176389E+003
         51  0.29467373E+003
         52  0.43995809E+003
         53  0.43936903E+003
         54  0.32188755E+003
         55  0.37891719E+003
         56  0.40881657E+003
         57  0.46535601E+003
         58  0.24000000E+003
         59  0.46562490E+003
         60  0.43773156E+003
         61  0.26649225E+003
         62  0.34882001E+003
         63  0.46575331E+003
         64  0.29296739E+003
         65  0.40541241E+003
         66  0.46507058E+003
         67  0.31932794E+003
         68  0.37530156E+003
         69  0.43496759E+003
         70  0.46325706E+003
         71  0.34543259E+003
         72  0.49027076E+003
         73  0.24000000E+003
         74  0.26556648E+003
         75  0.49052328E+003
         76  0.49059718E+003
         77  0.43114150E+003
         78  0.40119276E+003
         79  0.29110819E+003
         80  0.46022958E+003
         81  0.37113951E+003
         82  0.31653804E+003
         83  0.48981252E+003
         84  0.34173984E+003
         85  0.48784344E+003
         86  0.42640490E+003
         87  0.24000000E+003
         88  0.51430386E+003
         89  0.45605813E+003
         90  0.39633676E+003
         91  0.51452652E+003
         92  0.26460067E+003
         93  0.51452674E+003
         94  0.28916824E+003
         95  0.36660310E+003
         96  0.48460606E+003
         97  0.51363787E+003
         98  0.31362706E+003
         99  0.45090732E+003
        100  0.42095970E+003
        101  0.51153991E+003
        102  0.33788795E+003
        103  0.48017517E+003
        104  0.39104711E+003
        105  0.24000000E+003
        106  0.53752293E+003
        107  0.26363146E+003
        108  0.53770537E+003
        109  0.50815280E+003
        110  0.28722138E+003
        111  0.53761914E+003
        112  0.36187385E+003
        113  0.44499670E+003
        114  0.41503447E+003
        115  0.31070657E+003
        116  0.47472460E+003
        117  0.53663078E+003
        118  0.50355558E+003
        119  0.38553734E+003
        120  0.33402583E+003
        121  0.53443713E+003
        122  0.24000000E+003
        123  0.56002648E+003
        124  0.43857492E+003
        125  0.56016138E+003
        126  0.46848598E+003
        127  0.26269528E+003
        128  0.35713630E+003
        129  0.53096609E+003
        130  0.55998240E+003
        131  0.28534108E+003
        132  0.40886989E+003
        133  0.49792749E+003
        134  0.55890624E+003
        135  0.30788749E+003
        136  0.52630034E+003
        137  0.38002415E+003
        138  0.55665590E+003
        139  0.33030139E+003
        140  0.46172151E+003
        141  0.43190363E+003
        142  0.49150651E+003
        143  0.55317064E+003
        144  0.24000000E+003
        145  0.58193627E+003
        146  0.35257333E+003
        147  0.58201913E+003
        148  0.26182717E+003
        149  0.52062077E+003
        150  0.40270979E+003
        151  0.58174704E+003
        152  0.28359820E+003
        153  0.58060083E+003
        154  0.30527698E+003
        155  0.54853588E+003
        156  0.37472189E+003
        157  0.48456154E+003
        158  0.45470676E+003
        159  0.57833712E+003
        160  0.32685743E+003
        161  0.42524745E+003
        162  0.51416598E+003
        163  0.54293039E+003
        164  0.39679490E+003
        165  0.57490880E+003
        166  0.34836138E+003
        167  0.24000000E+003
        168  0.60339046E+003
        169  0.60341927E+003
        170  0.26105930E+003
        171  0.28205801E+003
        172  0.47737461E+003
        173  0.60305888E+003
        174  0.44771995E+003
        175  0.50720470E+003
        176  0.30297400E+003
        177  0.57040268E+003
        178  0.36983698E+003
        179  0.60186522E+003
        180  0.41886716E+003
        181  0.53658784E+003
        182  0.32382606E+003
        183  0.59963364E+003
        184  0.39135660E+003
        185  0.56499162E+003
        186  0.34466360E+003
        187  0.47022982E+003
        188  0.50001794E+003
        189  0.59633172E+003
        190  0.52977014E+003
        191  0.44103466E+003
        192  0.24000000E+003
        193  0.62453733E+003
        194  0.62451244E+003
        195  0.26041875E+003
        196  0.62407317E+003
        197  0.28077588E+003
        198  0.36556011E+003
        199  0.59204575E+003
        200  0.41301293E+003
        201  0.55889902E+003
        202  0.62285799E+003
        203  0.30106300E+003
        204  0.62070376E+003
        205  0.32132026E+003
        206  0.49288786E+003
        207  0.52275008E+003
        208  0.46340579E+003
        209  0.58693885E+003
        210  0.38660831E+003
        211  0.55237386E+003
        212  0.61759231E+003
        213  0.34161955E+003
        214  0.43491281E+003
        215  0.24000000E+003
        216  0.64552912E+003
        217  0.64545343E+003
        218  0.25992467E+003
        219  0.64494908E+003
        220  0.40791511E+003
        221  0.27979142E+003
        222  0.58121927E+003
        223  0.36205418E+003
        224  0.61360696E+003
        225  0.51580043E+003
        226  0.48609032E+003
        227  0.64374040E+003
        228  0.29960480E+003
        229  0.45716875E+003
        230  0.54567415E+003
        231  0.31942162E+003
        232  0.64170571E+003
        233  0.60889743E+003
        234  0.38273206E+003
        235  0.42959523E+003
        236  0.57511762E+003
        237  0.33932990E+003
        238  0.63883935E+003
        239  0.50918687E+003
        240  0.40376986E+003
        241  0.66651504E+003
        242  0.60365252E+003
        243  0.24000000E+003
        244  0.66639463E+003
        245  0.25958450E+003
        246  0.53905660E+003
        247  0.47988826E+003
        248  0.35943632E+003
        249  0.63521892E+003
        250  0.66584373E+003
        251  0.27912062E+003
        252  0.45176306E+003
        253  0.56887160E+003
        254  0.66467046E+003
        255  0.29862441E+003
        256  0.66279173E+003
        257  0.31816354E+003
        258  0.37985818E+003
        259  0.63097739E+003
        260  0.59808006E+003
        261  0.42528670E+003
        262  0.50316176E+003
        263  0.53277002E+003
        264  0.66021162E+003
        265  0.33783511E+003
        266  0.47452265E+003
        267  0.56271634E+003
        268  0.40071711E+003
        269  0.62628072E+003
        270  0.68763198E+003
        271  0.24000000E+003
        272  0.59239319E+003
        273  0.35775234E+003
        274  0.68747720E+003
        275  0.65699923E+003
        276  0.44739642E+003
        277  0.25938951E+003
        278  0.27874625E+003
        279  0.68690361E+003
        280  0.68579442E+003
        281  0.29809551E+003
        282  0.42213290E+003
        283  0.62131084E+003
        284  0.52704973E+003
        285  0.65326826E+003
        286  0.37803604E+003
        287  0.49795596E+003
        288  0.31750942E+003
        289  0.55687837E+003
        290  0.68409966E+003
        291  0.58680148E+003
        292  0.47019822E+003
        293  0.68182976E+003
        294  0.33708707E+003
        295  0.39880818E+003
        296  0.64915969E+003
        297  0.44421631E+003
        298  0.61625363E+003
        299  0.35694199E+003
        300  0.67904328E+003
        301  0.24000000E+003
        302  0.70899164E+003
        303  0.70881819E+003
        304  0.25931036E+003
        305  0.27860760E+003
        306  0.70825104E+003
        307  0.52211036E+003
        308  0.55157068E+003
        309  0.49376552E+003
        310  0.58150541E+003
        311  0.64482794E+003
        312  0.29792254E+003
        313  0.70723257E+003
        314  0.42018583E+003
        315  0.67583348E+003
        316  0.37719354E+003
        317  0.31732564E+003
        318  0.46706033E+003
        319  0.70573851E+003
        320  0.61129093E+003
        321  0.33691262E+003
        322  0.70378264E+003
        323  0.39796042E+003
        324  0.67231586E+003
        325  0.64043072E+003
        326  0.44227438E+003
        327  0.54698659E+003
        328  0.51813395E+003
        329  0.57669202E+003
        330  0.70141242E+003
        331  0.35679322E+003
        332  0.73066442E+003
        333  0.49072982E+003
        334  0.24000000E+003
        335  0.60659538E+003
        336  0.73049198E+003
        337  0.25929701E+003
        338  0.72996211E+003
        339  0.27859391E+003
        340  0.41935457E+003
        341  0.66861755E+003
        342  0.72905478E+003
        343  0.29792230E+003
        344  0.63612185E+003
        345  0.69870152E+003
        346  0.46515942E+003
        347  0.37708275E+003
        348  0.72776342E+003
        349  0.31734923E+003
        350  0.57252978E+003
        351  0.54328961E+003
        352  0.44147463E+003
        353  0.66486886E+003
        354  0.39789527E+003
        355  0.33696701E+003
        356  0.51525015E+003
        357  0.60232647E+003
        358  0.72610357E+003
        359  0.69574154E+003
        360  0.63204638E+003
        361  0.48889724E+003
        362  0.72411334E+003
        363  0.35688247E+003
        364  0.69263427E+003
        365  0.41933725E+003
        366  0.66119706E+003
        367  0.46439827E+003
        368  0.72184996E+003
        369  0.37720841E+003
        370  0.56916034E+003
        371  0.54059628E+003
        372  0.59862626E+003
        373  0.62833685E+003
        374  0.51350447E+003
        375  0.44150098E+003
        376  0.68948506E+003
        377  0.71938482E+003
        378  0.39805640E+003
        379  0.48817354E+003
        380  0.65772170E+003
        381  0.56668439E+003
        382  0.71679813E+003
        383  0.41953025E+003
        384  0.59561288E+003
        385  0.68639740E+003
        386  0.46445717E+003
        387  0.53894816E+003
        388  0.62510960E+003
        389  0.51280962E+003
        390  0.65455095E+003
        391  0.71417382E+003
        392  0.44171927E+003
        393  0.48824695E+003
        394  0.68346861E+003
        395  0.59336951E+003
        396  0.62245963E+003
        397  0.56513838E+003
        398  0.53826826E+003
        399  0.65177822E+003
        400  0.46469097E+003
        401  0.71159513E+003
        402  0.68078634E+003
        403  0.51287361E+003
        404  0.70914083E+003
        405  0.48848328E+003
        406  0.62045255E+003
        407  0.59192638E+003
        408  0.56445777E+003
        409  0.64947800E+003
        410  0.67842528E+003
        411  0.53829543E+003
        412  0.51309677E+003
        413  0.70688189E+003
        414  0.61911173E+003
        415  0.59123213E+003
        416  0.64770018E+003
        417  0.56442113E+003
        418  0.67644374E+003
        419  0.70487857E+003
        420  0.53848811E+003
        421  0.61839831E+003
        422  0.64646172E+003
        423  0.67487962E+003
        424  0.59111036E+003
        425  0.70317752E+003
        426  0.56456641E+003
        427  0.64573462E+003
        428  0.67374538E+003
        429  0.61818160E+003
        430  0.59119446E+003
        431  0.70180893E+003
        432  0.67302238E+003
        433  0.64542990E+003
        434  0.70078380E+003
        435  0.61819734E+003
        436  0.67265573E+003
        437  0.70009219E+003
        438  0.64538025E+003
        439  0.67255646E+003
        440  0.69970461E+003
        441  0.69958236E+003
End values

