GiD Post Results File 1.0
 
Result TEMPE ALYA  0.30000000E+02 Scalar OnNodes
ComponentNames TEMPE
Values
          1  0.96000000E+003
          2  0.96000000E+003
          3  0.93439270E+003
          4  0.93440518E+003
          5  0.96000000E+003
          6  0.90876031E+003
          7  0.90878547E+003
          8  0.93444242E+003
          9  0.90886056E+003
         10  0.88307735E+003
         11  0.96000000E+003
         12  0.88311557E+003
         13  0.93450377E+003
         14  0.90898434E+003
         15  0.88322970E+003
         16  0.85731757E+003
         17  0.96000000E+003
         18  0.93458816E+003
         19  0.85736939E+003
         20  0.88341800E+003
         21  0.90915469E+003
         22  0.85752423E+003
         23  0.88367742E+003
         24  0.83145372E+003
         25  0.96000000E+003
         26  0.85778003E+003
         27  0.83151976E+003
         28  0.93469399E+003
         29  0.83171725E+003
         30  0.90936848E+003
         31  0.85813303E+003
         32  0.83204416E+003
         33  0.88400338E+003
         34  0.96000000E+003
         35  0.80545745E+003
         36  0.93481914E+003
         37  0.80553823E+003
         38  0.90962146E+003
         39  0.80578022E+003
         40  0.83249645E+003
         41  0.85857741E+003
         42  0.80618201E+003
         43  0.88438958E+003
         44  0.96000000E+003
         45  0.77929951E+003
         46  0.83306742E+003
         47  0.93496092E+003
         48  0.77939521E+003
         49  0.80674006E+003
         50  0.85910494E+003
         51  0.90990827E+003
         52  0.77968270E+003
         53  0.88482793E+003
         54  0.78016243E+003
         55  0.80744746E+003
         56  0.83374710E+003
         57  0.75295070E+003
         58  0.96000000E+003
         59  0.93511612E+003
         60  0.75306054E+003
         61  0.78083278E+003
         62  0.85970477E+003
         63  0.91022240E+003
         64  0.75339229E+003
         65  0.80829288E+003
         66  0.88530856E+003
         67  0.75395069E+003
         68  0.83452192E+003
         69  0.78168775E+003
         70  0.75473871E+003
         71  0.86036349E+003
         72  0.72638421E+003
         73  0.96000000E+003
         74  0.93528104E+003
         75  0.72650518E+003
         76  0.80926001E+003
         77  0.72687454E+003
         78  0.91055636E+003
         79  0.78271524E+003
         80  0.75575311E+003
         81  0.83537465E+003
         82  0.72750703E+003
         83  0.88581998E+003
         84  0.72841507E+003
         85  0.86106530E+003
         86  0.78389618E+003
         87  0.81032750E+003
         88  0.69958236E+003
         89  0.96000000E+003
         90  0.75698177E+003
         91  0.93545157E+003
         92  0.69970461E+003
         93  0.91090184E+003
         94  0.70009219E+003
         95  0.72960080E+003
         96  0.83628477E+003
         97  0.88634939E+003
         98  0.70078380E+003
         99  0.78520461E+003
        100  0.75840275E+003
        101  0.70180893E+003
        102  0.86179251E+003
        103  0.81146944E+003
        104  0.73105275E+003
        105  0.96000000E+003
        106  0.93562336E+003
        107  0.70317752E+003
        108  0.83722906E+003
        109  0.91124995E+003
        110  0.75998469E+003
        111  0.78660838E+003
        112  0.73274556E+003
        113  0.88688308E+003
        114  0.81265625E+003
        115  0.70487857E+003
        116  0.86252607E+003
        117  0.96000000E+003
        118  0.93579191E+003
        119  0.76168795E+003
        120  0.73464121E+003
        121  0.83818242E+003
        122  0.91159157E+003
        123  0.78807033E+003
        124  0.70688189E+003
        125  0.88740692E+003
        126  0.81385573E+003
        127  0.86324634E+003
        128  0.73669089E+003
        129  0.76346627E+003
        130  0.70914083E+003
        131  0.83911887E+003
        132  0.96000000E+003
        133  0.93595279E+003
        134  0.78954984E+003
        135  0.91191763E+003
        136  0.88790693E+003
        137  0.81503450E+003
        138  0.73883722E+003
        139  0.71159513E+003
        140  0.76526878E+003
        141  0.86393382E+003
        142  0.79100459E+003
        143  0.84001264E+003
        144  0.96000000E+003
        145  0.93610173E+003
        146  0.71417382E+003
        147  0.91221947E+003
        148  0.74101678E+003
        149  0.81615940E+003
        150  0.88836971E+003
        151  0.76704226E+003
        152  0.86456994E+003
        153  0.79239253E+003
        154  0.71679813E+003
        155  0.84083923E+003
        156  0.74316292E+003
        157  0.96000000E+003
        158  0.93623482E+003
        159  0.91248914E+003
        160  0.81719899E+003
        161  0.76873370E+003
        162  0.88878302E+003
        163  0.86513774E+003
        164  0.71938482E+003
        165  0.79367385E+003
        166  0.84157642E+003
        167  0.74520894E+003
        168  0.96000000E+003
        169  0.93634860E+003
        170  0.77029295E+003
        171  0.91271962E+003
        172  0.81812492E+003
        173  0.88913612E+003
        174  0.72184996E+003
        175  0.86562245E+003
        176  0.79481293E+003
        177  0.74709157E+003
        178  0.84220500E+003
        179  0.77167539E+003
        180  0.96000000E+003
        181  0.93644016E+003
        182  0.81891305E+003
        183  0.91290505E+003
        184  0.72411334E+003
        185  0.88942006E+003
        186  0.79577990E+003
        187  0.86601190E+003
        188  0.74875469E+003
        189  0.84270938E+003
        190  0.77284434E+003
        191  0.96000000E+003
        192  0.81954415E+003
        193  0.72610357E+003
        194  0.93650722E+003
        195  0.91304081E+003
        196  0.88962783E+003
        197  0.75015292E+003
        198  0.79655173E+003
        199  0.86629666E+003
        200  0.84307770E+003
        201  0.77377269E+003
        202  0.72776342E+003
        203  0.82000408E+003
        204  0.96000000E+003
        205  0.93654811E+003
        206  0.91312359E+003
        207  0.75125450E+003
        208  0.88975447E+003
        209  0.79711237E+003
        210  0.86647012E+003
        211  0.84330183E+003
        212  0.77444327E+003
        213  0.72905478E+003
        214  0.82028349E+003
        215  0.96000000E+003
        216  0.93656185E+003
        217  0.91315140E+003
        218  0.75204247E+003
        219  0.88979701E+003
        220  0.79745200E+003
        221  0.86652836E+003
        222  0.72996211E+003
        223  0.77484751E+003
        224  0.84337705E+003
        225  0.82037717E+003
        226  0.75251289E+003
        227  0.79756570E+003
        228  0.73049198E+003
        229  0.77498243E+003
        230  0.75266895E+003
        231  0.73066442E+003
End values

