 0.00000000E+000  0.00000000E+000
 0.00000000E+000  0.10000000E+000
 0.10000000E+000  0.00000000E+000
 0.10000000E+000  0.10000000E+000
 0.00000000E+000  0.20000000E+000
 0.20000000E+000  0.00000000E+000
 0.20000000E+000  0.10000000E+000
 0.10000000E+000  0.20000000E+000
 0.20000000E+000  0.20000000E+000
 0.29999999E+000  0.00000000E+000
 0.00000000E+000  0.29999999E+000
 0.29999999E+000  0.10000000E+000
 0.10000000E+000  0.29999999E+000
 0.29999999E+000  0.20000000E+000
 0.20000000E+000  0.29999999E+000
 0.00000000E+000  0.40000000E+000
 0.40000000E+000  0.00000000E+000
 0.40000000E+000  0.10000000E+000
 0.10000000E+000  0.40000000E+000
 0.29999999E+000  0.29999999E+000
 0.40000000E+000  0.20000000E+000
 0.20000000E+000  0.40000000E+000
 0.50000000E+000  0.00000000E+000
 0.00000000E+000  0.50000000E+000
 0.40000000E+000  0.29999999E+000
 0.29999999E+000  0.40000000E+000
 0.50000000E+000  0.10000000E+000
 0.10000000E+000  0.50000000E+000
 0.50000000E+000  0.20000000E+000
 0.20000000E+000  0.50000000E+000
 0.40000000E+000  0.40000000E+000
 0.50000000E+000  0.29999999E+000
 0.29999999E+000  0.50000000E+000
 0.59999999E+000  0.00000000E+000
 0.00000000E+000  0.59999999E+000
 0.59999999E+000  0.10000000E+000
 0.10000000E+000  0.59999999E+000
 0.59999999E+000  0.20000000E+000
 0.20000000E+000  0.59999999E+000
 0.50000000E+000  0.40000000E+000
 0.40000000E+000  0.50000000E+000
 0.59999999E+000  0.29999999E+000
 0.29999999E+000  0.59999999E+000
 0.69999999E+000  0.00000000E+000
 0.00000000E+000  0.69999999E+000
 0.69999999E+000  0.10000000E+000
 0.10000000E+000  0.69999999E+000
 0.50000000E+000  0.50000000E+000
 0.59999999E+000  0.40000000E+000
 0.40000000E+000  0.59999999E+000
 0.69999999E+000  0.20000000E+000
 0.20000000E+000  0.69999999E+000
 0.69999999E+000  0.29999999E+000
 0.29999999E+000  0.69999999E+000
 0.59999999E+000  0.50000000E+000
 0.50000000E+000  0.59999999E+000
 0.80000000E+000  0.00000000E+000
 0.00000000E+000  0.80000000E+000
 0.80000000E+000  0.10000000E+000
 0.69999999E+000  0.40000000E+000
 0.10000000E+000  0.80000000E+000
 0.40000000E+000  0.69999999E+000
 0.80000000E+000  0.20000000E+000
 0.20000000E+000  0.80000000E+000
 0.59999999E+000  0.59999999E+000
 0.80000000E+000  0.29999999E+000
 0.29999999E+000  0.80000000E+000
 0.69999999E+000  0.50000000E+000
 0.50000000E+000  0.69999999E+000
 0.80000000E+000  0.40000000E+000
 0.40000000E+000  0.80000000E+000
 0.00000000E+000  0.90000000E+000
 0.90000000E+000  0.00000000E+000
 0.90000000E+000  0.10000000E+000
 0.10000000E+000  0.90000000E+000
 0.90000000E+000  0.20000000E+000
 0.69999999E+000  0.59999999E+000
 0.59999999E+000  0.69999999E+000
 0.20000000E+000  0.90000000E+000
 0.80000000E+000  0.50000000E+000
 0.50000000E+000  0.80000000E+000
 0.90000000E+000  0.29999999E+000
 0.29999999E+000  0.90000000E+000
 0.90000000E+000  0.40000000E+000
 0.40000000E+000  0.90000000E+000
 0.69999999E+000  0.69999999E+000
 0.10000000E+001  0.00000000E+000
 0.00000000E+000  0.10000000E+001
 0.80000000E+000  0.59999999E+000
 0.59999999E+000  0.80000000E+000
 0.10000000E+001  0.10000000E+000
 0.10000000E+000  0.10000000E+001
 0.20000000E+000  0.10000000E+001
 0.10000000E+001  0.20000000E+000
 0.90000000E+000  0.50000000E+000
 0.50000000E+000  0.90000000E+000
 0.10000000E+001  0.29999999E+000
 0.29999999E+000  0.10000000E+001
 0.80000000E+000  0.69999999E+000
 0.69999999E+000  0.80000000E+000
 0.10000000E+001  0.40000000E+000
 0.40000000E+000  0.10000000E+001
 0.90000000E+000  0.59999999E+000
 0.59999999E+000  0.90000000E+000
 0.10000000E+001  0.50000000E+000
 0.50000000E+000  0.10000000E+001
 0.80000000E+000  0.80000000E+000
 0.90000000E+000  0.69999999E+000
 0.69999999E+000  0.90000000E+000
 0.59999999E+000  0.10000000E+001
 0.10000000E+001  0.59999999E+000
 0.90000000E+000  0.80000000E+000
 0.80000000E+000  0.90000000E+000
 0.10000000E+001  0.69999999E+000
 0.69999999E+000  0.10000000E+001
 0.90000000E+000  0.90000000E+000
 0.80000000E+000  0.10000000E+001
 0.10000000E+001  0.80000000E+000
 0.90000000E+000  0.10000000E+001
 0.10000000E+001  0.90000000E+000
 0.10000000E+001  0.10000000E+001
