$MeshFormat
2.2 0 8
$EndMeshFormat
$PhysicalNames
6
1 1 "Fuel"
1 2 "Oxidizer"
1 3 "Wall"
1 4 "Sepatator"
1 5 "Outlet"
2 6 "Surf"
$EndPhysicalNames
$Nodes
1092
1 -0.0175 -0.002 0
2 -0.0035 -0.002 0
3 0.0035 -0.002 0
4 0.0035 0.005 0
5 -0.0035 0.005 0
6 -0.0175 0.005 0
7 -0.01694000000000117 -0.002 0
8 -0.01638000000000081 -0.002 0
9 -0.01582000000000146 -0.002 0
10 -0.0152600000000033 -0.002 0
11 -0.01470000000000548 -0.002 0
12 -0.01414000000000665 -0.002 0
13 -0.01358000000000781 -0.002 0
14 -0.01302000000000999 -0.002 0
15 -0.01246000000001115 -0.002 0
16 -0.01190000000001333 -0.002 0
17 -0.0113400000000145 -0.002 0
18 -0.01078000000001668 -0.002 0
19 -0.01022000000001611 -0.002 0
20 -0.009660000000015158 -0.002 0
21 -0.009100000000015773 -0.002 0
22 -0.008540000000013944 -0.002 0
23 -0.007980000000011641 -0.002 0
24 -0.007420000000009341 -0.002 0
25 -0.006860000000009598 -0.002 0
26 -0.006300000000008122 -0.002 0
27 -0.005740000000005822 -0.002 0
28 -0.005180000000003519 -0.002 0
29 -0.004620000000003427 -0.002 0
30 -0.004060000000002303 -0.002 0
31 -0.003062500000000974 -0.002 0
32 -0.002625000000001608 -0.002 0
33 -0.002187500000002581 -0.002 0
34 -0.001750000000004063 -0.002 0
35 -0.001312500000005207 -0.002 0
36 -0.0008750000000065194 -0.002 0
37 -0.0004375000000078331 -0.002 0
38 -9.061761757633846e-15 -0.002 0
39 0.0004374999999919118 -0.002 0
40 0.0008749999999936487 -0.002 0
41 0.001312499999994029 -0.002 0
42 0.001749999999995766 -0.002 0
43 0.002187499999996147 -0.002 0
44 0.002624999999997883 -0.002 0
45 0.003062499999998433 -0.002 0
46 0.0035 -0.00172000000000046 0
47 0.0035 -0.001440000000001089 0
48 0.0035 -0.001160000000001407 0
49 0.0035 -0.0008800000000020922 0
50 0.0035 -0.0006000000000029012 0
51 0.0035 -0.0003200000000037641 0
52 0.0035 -4.000000000456807e-05 0
53 0.0035 0.0002399999999947145 0
54 0.0035 0.0005199999999938279 0
55 0.0035 0.0007999999999929275 0
56 0.0035 0.001079999999992231 0
57 0.0035 0.001359999999991263 0
58 0.0035 0.001639999999991452 0
59 0.0035 0.001919999999991925 0
60 0.0035 0.002199999999993029 0
61 0.0035 0.002479999999993651 0
62 0.0035 0.002759999999993881 0
63 0.0035 0.003039999999994984 0
64 0.0035 0.003319999999996088 0
65 0.0035 0.003599999999995938 0
66 0.0035 0.003879999999996941 0
67 0.0035 0.004159999999998043 0
68 0.0035 0.004439999999998719 0
69 0.0035 0.004719999999998895 0
70 0.003062500000000974 0.005 0
71 0.002625000000001608 0.005 0
72 0.002187500000002581 0.005 0
73 0.001750000000004063 0.005 0
74 0.001312500000005207 0.005 0
75 0.0008750000000065194 0.005 0
76 0.0004375000000078331 0.005 0
77 9.061761757633846e-15 0.005 0
78 -0.0004374999999919118 0.005 0
79 -0.0008749999999936487 0.005 0
80 -0.001312499999994029 0.005 0
81 -0.001749999999995766 0.005 0
82 -0.002187499999996147 0.005 0
83 -0.002624999999997883 0.005 0
84 -0.003062499999998433 0.005 0
85 -0.004059999999998916 0.005 0
86 -0.004619999999998212 0.005 0
87 -0.005179999999997088 0.005 0
88 -0.005739999999995834 0.005 0
89 -0.006299999999993633 0.005 0
90 -0.006859999999991682 0.005 0
91 -0.007419999999990382 0.005 0
92 -0.007979999999989131 0.005 0
93 -0.008539999999987852 0.005 0
94 -0.009099999999984596 0.005 0
95 -0.009659999999983343 0.005 0
96 -0.01021999999998209 0.005 0
97 -0.01077999999998291 0.005 0
98 -0.01133999999998513 0.005 0
99 -0.01189999999998443 0.005 0
100 -0.01245999999998617 0.005 0
101 -0.01301999999998838 0.005 0
102 -0.0135799999999906 0.005 0
103 -0.01413999999999025 0.005 0
104 -0.01469999999999164 0.005 0
105 -0.01525999999999385 0.005 0
106 -0.01581999999999607 0.005 0
107 -0.01637999999999641 0.005 0
108 -0.01693999999999779 0.005 0
109 -0.0175 0.004720000000000433 0
110 -0.0175 0.004440000000001035 0
111 -0.0175 0.004160000000001638 0
112 -0.0175 0.003880000000002745 0
113 -0.0175 0.003600000000003521 0
114 -0.0175 0.003320000000004123 0
115 -0.0175 0.003040000000005051 0
116 -0.0175 0.00276000000000575 0
117 -0.0175 0.00248000000000661 0
118 -0.0175 0.002200000000007485 0
119 -0.0175 0.001920000000008156 0
120 -0.0175 0.001640000000009098 0
121 -0.0175 0.001360000000008881 0
122 -0.0175 0.001080000000008381 0
123 -0.0175 0.0008000000000072498 0
124 -0.0175 0.0005200000000065985 0
125 -0.0175 0.000240000000006341 0
126 -0.0175 -3.999999999478986e-05 0
127 -0.0175 -0.0003199999999959216 0
128 -0.0175 -0.0005999999999957992 0
129 -0.0175 -0.0008799999999968295 0
130 -0.0175 -0.00115999999999796 0
131 -0.0175 -0.001439999999998665 0
132 -0.0175 -0.001719999999998868 0
133 -0.0035 -0.00172000000000046 0
134 -0.0035 -0.001440000000001089 0
135 -0.0035 -0.001160000000001407 0
136 -0.0035 -0.0008800000000020922 0
137 -0.0035 -0.0006000000000029012 0
138 -0.0035 -0.0003200000000037641 0
139 -0.0035 -4.000000000456807e-05 0
140 -0.0035 0.0002399999999947145 0
141 -0.0035 0.0005199999999938279 0
142 -0.0035 0.0007999999999929275 0
143 -0.0035 0.001079999999992231 0
144 -0.0035 0.001359999999991263 0
145 -0.0035 0.001639999999991452 0
146 -0.0035 0.001919999999991925 0
147 -0.0035 0.002199999999993029 0
148 -0.0035 0.002479999999993651 0
149 -0.0035 0.002759999999993881 0
150 -0.0035 0.003039999999994984 0
151 -0.0035 0.003319999999996088 0
152 -0.0035 0.003599999999995938 0
153 -0.0035 0.003879999999996941 0
154 -0.0035 0.004159999999998043 0
155 -0.0035 0.004439999999998719 0
156 -0.0035 0.004719999999998895 0
157 -0.01694000000000103 -0.001719999999998932 0
158 -0.0169400000000009 -0.001439999999998762 0
159 -0.01694000000000077 -0.001159999999998098 0
160 -0.01694000000000062 -0.0008799999999970402 0
161 -0.01694000000000049 -0.0005999999999960834 0
162 -0.01694000000000036 -0.0003199999999962352 0
163 -0.01694000000000023 -3.999999999518126e-05 0
164 -0.01694000000000008 0.0002400000000058757 0
165 -0.01693999999999995 0.0005200000000060879 0
166 -0.01693999999999982 0.0008000000000066769 0
167 -0.01693999999999968 0.001080000000007735 0
168 -0.01693999999999954 0.001360000000008177 0
169 -0.01693999999999941 0.001640000000008393 0
170 -0.01693999999999927 0.001920000000007506 0
171 -0.01693999999999914 0.002200000000006907 0
172 -0.01693999999999901 0.002480000000006091 0
173 -0.01693999999999887 0.002760000000005275 0
174 -0.01693999999999874 0.003040000000004648 0
175 -0.01693999999999861 0.003320000000003802 0
176 -0.01693999999999847 0.003600000000003217 0
177 -0.01693999999999833 0.003880000000002513 0
178 -0.0169399999999982 0.004160000000001492 0
179 -0.01693999999999806 0.004440000000000943 0
180 -0.01693999999999793 0.004720000000000372 0
181 -0.01638000000000063 -0.001719999999998996 0
182 -0.01638000000000046 -0.001439999999998859 0
183 -0.01638000000000029 -0.001159999999998236 0
184 -0.01638000000000011 -0.0008799999999972504 0
185 -0.01637999999999993 -0.0005999999999963675 0
186 -0.01637999999999976 -0.000319999999996549 0
187 -0.01637999999999958 -3.999999999557244e-05 0
188 -0.01637999999999941 0.0002400000000054106 0
189 -0.01637999999999923 0.000520000000005577 0
190 -0.01637999999999905 0.000800000000006104 0
191 -0.01637999999999888 0.001080000000007089 0
192 -0.0163799999999987 0.001360000000007472 0
193 -0.01637999999999853 0.001640000000007686 0
194 -0.01637999999999835 0.001920000000006858 0
195 -0.01637999999999817 0.002200000000006328 0
196 -0.016379999999998 0.002480000000005574 0
197 -0.01637999999999782 0.0027600000000048 0
198 -0.01637999999999765 0.003040000000004245 0
199 -0.01637999999999747 0.003320000000003481 0
200 -0.01637999999999729 0.003600000000002913 0
201 -0.01637999999999712 0.003880000000002281 0
202 -0.01637999999999694 0.004160000000001351 0
203 -0.01637999999999676 0.00444000000000085 0
204 -0.01637999999999659 0.004720000000000311 0
205 -0.01582000000000125 -0.00171999999999906 0
206 -0.01582000000000103 -0.001439999999998956 0
207 -0.01582000000000082 -0.001159999999998374 0
208 -0.0158200000000006 -0.000879999999997461 0
209 -0.01582000000000039 -0.0005999999999966514 0
210 -0.01582000000000017 -0.0003199999999968627 0
211 -0.01581999999999995 -3.99999999959634e-05 0
212 -0.01581999999999974 0.0002400000000049457 0
213 -0.01581999999999952 0.0005200000000050659 0
214 -0.01581999999999931 0.0008000000000055312 0
215 -0.01581999999999909 0.001080000000006443 0
216 -0.01581999999999888 0.001360000000006767 0
217 -0.01581999999999866 0.001640000000006981 0
218 -0.01581999999999844 0.001920000000006208 0
219 -0.01581999999999822 0.002200000000005749 0
220 -0.01581999999999801 0.002480000000005055 0
221 -0.01581999999999779 0.002760000000004326 0
222 -0.01581999999999758 0.003040000000003843 0
223 -0.01581999999999737 0.003320000000003159 0
224 -0.01581999999999715 0.00360000000000261 0
225 -0.01581999999999693 0.003880000000002049 0
226 -0.01581999999999672 0.004160000000001206 0
227 -0.0158199999999965 0.004440000000000757 0
228 -0.01581999999999628 0.004720000000000248 0
229 -0.01526000000000293 -0.001719999999999123 0
230 -0.01526000000000254 -0.001439999999999053 0
231 -0.01526000000000217 -0.001159999999998512 0
232 -0.01526000000000179 -0.0008799999999976716 0
233 -0.01526000000000141 -0.0005999999999969356 0
234 -0.01526000000000104 -0.0003199999999971763 0
235 -0.01526000000000066 -3.999999999635458e-05 0
236 -0.01526000000000028 0.0002400000000044806 0
237 -0.0152599999999999 0.0005200000000045554 0
238 -0.01525999999999952 0.0008000000000049582 0
239 -0.01525999999999915 0.001080000000005797 0
240 -0.01525999999999877 0.001360000000006063 0
241 -0.01525999999999839 0.001640000000006275 0
242 -0.01525999999999801 0.001920000000005559 0
243 -0.01525999999999763 0.002200000000005172 0
244 -0.01525999999999725 0.002480000000004536 0
245 -0.01525999999999688 0.002760000000003851 0
246 -0.0152599999999965 0.00304000000000344 0
247 -0.01525999999999612 0.003320000000002837 0
248 -0.01525999999999575 0.003600000000002308 0
249 -0.01525999999999536 0.003880000000001817 0
250 -0.01525999999999499 0.004160000000001062 0
251 -0.01525999999999461 0.004440000000000666 0
252 -0.01525999999999423 0.004720000000000186 0
253 -0.01470000000000493 -0.001719999999999187 0
254 -0.01470000000000438 -0.001439999999999149 0
255 -0.01470000000000382 -0.00115999999999865 0
256 -0.01470000000000327 -0.0008799999999978824 0
257 -0.01470000000000271 -0.0005999999999972194 0
258 -0.01470000000000216 -0.0003199999999974899 0
259 -0.0147000000000016 -3.999999999674576e-05 0
260 -0.01470000000000105 0.0002400000000040159 0
261 -0.0147000000000005 0.0005200000000040444 0
262 -0.01469999999999995 0.0008000000000043849 0
263 -0.01469999999999939 0.001080000000005151 0
264 -0.01469999999999884 0.001360000000005358 0
265 -0.01469999999999828 0.001640000000005569 0
266 -0.01469999999999773 0.00192000000000491 0
267 -0.01469999999999717 0.002200000000004593 0
268 -0.01469999999999662 0.002480000000004018 0
269 -0.01469999999999607 0.002760000000003375 0
270 -0.01469999999999551 0.003040000000003037 0
271 -0.01469999999999496 0.003320000000002516 0
272 -0.01469999999999441 0.003600000000002004 0
273 -0.01469999999999385 0.003880000000001585 0
274 -0.0146999999999933 0.004160000000000919 0
275 -0.01469999999999274 0.004440000000000572 0
276 -0.01469999999999219 0.004720000000000125 0
277 -0.01414000000000599 -0.00171999999999925 0
278 -0.01414000000000533 -0.001439999999999246 0
279 -0.01414000000000468 -0.001159999999998787 0
280 -0.01414000000000402 -0.0008799999999980925 0
281 -0.01414000000000337 -0.0005999999999975036 0
282 -0.01414000000000271 -0.0003199999999978036 0
283 -0.01414000000000206 -3.999999999713673e-05 0
284 -0.0141400000000014 0.0002400000000035505 0
285 -0.01414000000000074 0.0005200000000035337 0
286 -0.01414000000000009 0.0008000000000038124 0
287 -0.01413999999999943 0.001080000000004505 0
288 -0.01413999999999878 0.001360000000004653 0
289 -0.01413999999999812 0.001640000000004863 0
290 -0.01413999999999746 0.00192000000000426 0
291 -0.01413999999999681 0.002200000000004015 0
292 -0.01413999999999616 0.002480000000003501 0
293 -0.0141399999999955 0.002760000000002902 0
294 -0.01413999999999484 0.003040000000002636 0
295 -0.01413999999999418 0.003320000000002194 0
296 -0.01413999999999353 0.003600000000001701 0
297 -0.01413999999999287 0.003880000000001352 0
298 -0.01413999999999222 0.004160000000000774 0
299 -0.01413999999999156 0.00444000000000048 0
300 -0.0141399999999909 0.004720000000000064 0
301 -0.01358000000000712 -0.001719999999999314 0
302 -0.01358000000000643 -0.001439999999999344 0
303 -0.01358000000000574 -0.001159999999998926 0
304 -0.01358000000000506 -0.0008799999999983029 0
305 -0.01358000000000437 -0.0005999999999977875 0
306 -0.01358000000000368 -0.0003199999999981176 0
307 -0.01358000000000299 -3.999999999752791e-05 0
308 -0.0135800000000023 0.0002400000000030855 0
309 -0.01358000000000162 0.0005200000000030229 0
310 -0.01358000000000092 0.0008000000000032396 0
311 -0.01358000000000023 0.001080000000003859 0
312 -0.01357999999999955 0.001360000000003948 0
313 -0.01357999999999886 0.001640000000004157 0
314 -0.01357999999999817 0.001920000000003611 0
315 -0.01357999999999748 0.002200000000003437 0
316 -0.01357999999999679 0.002480000000002982 0
317 -0.01357999999999611 0.002760000000002426 0
318 -0.01357999999999542 0.003040000000002232 0
319 -0.01357999999999473 0.003320000000001874 0
320 -0.01357999999999404 0.003600000000001397 0
321 -0.01357999999999335 0.00388000000000112 0
322 -0.01357999999999266 0.004160000000000632 0
323 -0.01357999999999197 0.004440000000000388 0
324 -0.01357999999999129 0.004720000000000002 0
325 -0.01302000000000913 -0.001719999999999378 0
326 -0.01302000000000826 -0.001439999999999441 0
327 -0.01302000000000739 -0.001159999999999063 0
328 -0.01302000000000653 -0.0008799999999985137 0
329 -0.01302000000000567 -0.0005999999999980717 0
330 -0.0130200000000048 -0.0003199999999984311 0
331 -0.01302000000000394 -3.999999999791887e-05 0
332 -0.01302000000000307 0.0002400000000026205 0
333 -0.01302000000000221 0.0005200000000025121 0
334 -0.01302000000000135 0.0008000000000026667 0
335 -0.01302000000000049 0.001080000000003213 0
336 -0.01301999999999962 0.001360000000003243 0
337 -0.01301999999999875 0.001640000000003452 0
338 -0.01301999999999789 0.001920000000002961 0
339 -0.01301999999999703 0.002200000000002859 0
340 -0.01301999999999616 0.002480000000002464 0
341 -0.0130199999999953 0.002760000000001951 0
342 -0.01301999999999443 0.00304000000000183 0
343 -0.01301999999999357 0.003320000000001552 0
344 -0.0130199999999927 0.003600000000001094 0
345 -0.01301999999999184 0.003880000000000888 0
346 -0.01301999999999098 0.004160000000000486 0
347 -0.01301999999999011 0.004440000000000294 0
348 -0.01301999999998925 0.00471999999999994 0
349 -0.01246000000001015 -0.001719999999999441 0
350 -0.01246000000000915 -0.001439999999999538 0
351 -0.01246000000000815 -0.001159999999999201 0
352 -0.01246000000000715 -0.000879999999998724 0
353 -0.01246000000000616 -0.0005999999999983559 0
354 -0.01246000000000515 -0.0003199999999987448 0
355 -0.01246000000000416 -3.999999999831005e-05 0
356 -0.01246000000000316 0.0002400000000021556 0
357 -0.01246000000000216 0.0005200000000020015 0
358 -0.01246000000000116 0.0008000000000020938 0
359 -0.01246000000000016 0.001080000000002567 0
360 -0.01245999999999916 0.001360000000002539 0
361 -0.01245999999999816 0.001640000000002745 0
362 -0.01245999999999716 0.001920000000002313 0
363 -0.01245999999999617 0.00220000000000228 0
364 -0.01245999999999516 0.002480000000001945 0
365 -0.01245999999999416 0.002760000000001477 0
366 -0.01245999999999316 0.003040000000001427 0
367 -0.01245999999999217 0.003320000000001231 0
368 -0.01245999999999117 0.003600000000000791 0
369 -0.01245999999999017 0.003880000000000655 0
370 -0.01245999999998917 0.004160000000000345 0
371 -0.01245999999998817 0.004440000000000202 0
372 -0.01245999999998717 0.004719999999999881 0
373 -0.01190000000001218 -0.001719999999999505 0
374 -0.01190000000001102 -0.001439999999999635 0
375 -0.01190000000000986 -0.001159999999999339 0
376 -0.01190000000000871 -0.0008799999999989348 0
377 -0.01190000000000755 -0.0005999999999986398 0
378 -0.0119000000000064 -0.0003199999999990585 0
379 -0.01190000000000524 -3.999999999870134e-05 0
380 -0.01190000000000408 0.0002400000000016905 0
381 -0.01190000000000293 0.0005200000000014903 0
382 -0.01190000000000177 0.0008000000000015211 0
383 -0.01190000000000061 0.001080000000001921 0
384 -0.01189999999999946 0.001360000000001834 0
385 -0.0118999999999983 0.00164000000000204 0
386 -0.01189999999999715 0.001920000000001663 0
387 -0.01189999999999599 0.002200000000001702 0
388 -0.01189999999999483 0.002480000000001427 0
389 -0.01189999999999368 0.002760000000001002 0
390 -0.01189999999999252 0.003040000000001025 0
391 -0.01189999999999137 0.003320000000000909 0
392 -0.01189999999999021 0.003600000000000488 0
393 -0.01189999999998905 0.003880000000000424 0
394 -0.0118999999999879 0.004160000000000198 0
395 -0.01189999999998674 0.004440000000000111 0
396 -0.01189999999998558 0.004719999999999818 0
397 -0.01134000000001332 -0.001719999999999569 0
398 -0.01134000000001215 -0.001439999999999732 0
399 -0.01134000000001097 -0.001159999999999477 0
400 -0.0113400000000098 -0.0008799999999991451 0
401 -0.01134000000000862 -0.0005999999999989243 0
402 -0.01134000000000745 -0.0003199999999993723 0
403 -0.01134000000000627 -3.999999999909219e-05 0
404 -0.0113400000000051 0.0002400000000012252 0
405 -0.01134000000000393 0.0005200000000009797 0
406 -0.01134000000000275 0.000800000000000948 0
407 -0.01134000000000157 0.001080000000001275 0
408 -0.0113400000000004 0.00136000000000113 0
409 -0.01133999999999923 0.001640000000001334 0
410 -0.01133999999999805 0.001920000000001014 0
411 -0.01133999999999687 0.002200000000001125 0
412 -0.0113399999999957 0.002480000000000909 0
413 -0.01133999999999453 0.002760000000000527 0
414 -0.01133999999999335 0.003040000000000621 0
415 -0.01133999999999218 0.003320000000000588 0
416 -0.011339999999991 0.003600000000000185 0
417 -0.01133999999998983 0.003880000000000192 0
418 -0.01133999999998865 0.004160000000000056 0
419 -0.01133999999998748 0.004440000000000016 0
420 -0.01133999999998631 0.004719999999999755 0
421 -0.01078000000001532 -0.001719999999999632 0
422 -0.01078000000001398 -0.001439999999999829 0
423 -0.01078000000001262 -0.001159999999999615 0
424 -0.01078000000001128 -0.0008799999999993553 0
425 -0.01078000000000993 -0.000599999999999208 0
426 -0.01078000000000858 -0.0003199999999996859 0
427 -0.01078000000000722 -3.999999999948348e-05 0
428 -0.01078000000000587 0.0002400000000007601 0
429 -0.01078000000000452 0.0005200000000004688 0
430 -0.01078000000000317 0.0008000000000003748 0
431 -0.01078000000000182 0.001080000000000629 0
432 -0.01078000000000047 0.001360000000000425 0
433 -0.01077999999999912 0.001640000000000628 0
434 -0.01077999999999777 0.001920000000000365 0
435 -0.01077999999999642 0.002200000000000546 0
436 -0.01077999999999507 0.002480000000000391 0
437 -0.01077999999999372 0.002760000000000053 0
438 -0.01077999999999237 0.003040000000000219 0
439 -0.01077999999999102 0.003320000000000266 0
440 -0.01077999999998967 0.003599999999999881 0
441 -0.01077999999998831 0.003879999999999959 0
442 -0.01077999999998696 0.00415999999999991 0
443 -0.01077999999998562 0.004439999999999923 0
444 -0.01077999999998426 0.004719999999999695 0
445 -0.01022000000001475 -0.001719999999999696 0
446 -0.01022000000001339 -0.001439999999999925 0
447 -0.01022000000001203 -0.001159999999999753 0
448 -0.01022000000001066 -0.0008799999999995665 0
449 -0.01022000000000931 -0.0005999999999994924 0
450 -0.01022000000000794 -0.0003199999999999998 0
451 -0.01022000000000658 -3.999999999987466e-05 0
452 -0.01022000000000522 0.0002400000000002952 0
453 -0.01022000000000386 0.0005199999999999579 0
454 -0.0102200000000025 0.0007999999999998023 0
455 -0.01022000000000114 0.001079999999999983 0
456 -0.01021999999999978 0.00135999999999972 0
457 -0.01021999999999842 0.001639999999999922 0
458 -0.01021999999999706 0.001919999999999716 0
459 -0.0102199999999957 0.002199999999999968 0
460 -0.01021999999999434 0.002479999999999872 0
461 -0.01021999999999298 0.002759999999999578 0
462 -0.01021999999999162 0.003039999999999816 0
463 -0.01021999999999026 0.003319999999999945 0
464 -0.0102199999999889 0.003599999999999577 0
465 -0.01021999999998753 0.003879999999999727 0
466 -0.01021999999998617 0.004159999999999769 0
467 -0.01021999999998481 0.004439999999999833 0
468 -0.01021999999998345 0.004719999999999634 0
469 -0.009660000000013885 -0.001719999999999759 0
470 -0.009660000000012613 -0.001440000000000023 0
471 -0.009660000000011338 -0.001159999999999891 0
472 -0.009660000000010067 -0.0008799999999997766 0
473 -0.009660000000008795 -0.000599999999999776 0
474 -0.009660000000007524 -0.0003200000000003132 0
475 -0.009660000000006254 -4.000000000026573e-05 0
476 -0.009660000000004981 0.0002399999999998301 0
477 -0.009660000000003704 0.0005199999999994472 0
478 -0.009660000000002434 0.0007999999999992294 0
479 -0.009660000000001159 0.001079999999999337 0
480 -0.009659999999999887 0.001359999999999015 0
481 -0.009659999999998614 0.001639999999999216 0
482 -0.009659999999997344 0.001919999999999066 0
483 -0.009659999999996071 0.002199999999999389 0
484 -0.009659999999994798 0.002479999999999353 0
485 -0.009659999999993526 0.002759999999999103 0
486 -0.009659999999992255 0.003039999999999414 0
487 -0.00965999999999098 0.003319999999999624 0
488 -0.009659999999989708 0.003599999999999274 0
489 -0.009659999999988433 0.003879999999999495 0
490 -0.009659999999987165 0.004159999999999625 0
491 -0.009659999999985886 0.004439999999999739 0
492 -0.009659999999984618 0.004719999999999572 0
493 -0.009100000000014527 -0.001719999999999824 0
494 -0.00910000000001328 -0.00144000000000012 0
495 -0.009100000000012029 -0.001160000000000028 0
496 -0.009100000000010783 -0.0008799999999999875 0
497 -0.009100000000009534 -0.0006000000000000608 0
498 -0.009100000000008292 -0.000320000000000627 0
499 -0.009100000000007043 -4.00000000006567e-05 0
500 -0.009100000000005794 0.000239999999999365 0
501 -0.009100000000004549 0.0005199999999989366 0
502 -0.009100000000003303 0.0007999999999986564 0
503 -0.009100000000002054 0.001079999999998691 0
504 -0.009100000000000809 0.00135999999999831 0
505 -0.009099999999999563 0.001639999999998511 0
506 -0.009099999999998314 0.001919999999998417 0
507 -0.009099999999997065 0.002199999999998811 0
508 -0.00909999999999582 0.002479999999998834 0
509 -0.009099999999994574 0.002759999999998629 0
510 -0.009099999999993325 0.003039999999999011 0
511 -0.00909999999999208 0.003319999999999302 0
512 -0.009099999999990831 0.003599999999998971 0
513 -0.009099999999989585 0.003879999999999263 0
514 -0.009099999999988336 0.004159999999999481 0
515 -0.009099999999987087 0.004439999999999646 0
516 -0.009099999999985845 0.004719999999999509 0
517 -0.008540000000012898 -0.001719999999999887 0
518 -0.008540000000011858 -0.001440000000000217 0
519 -0.008540000000010815 -0.001160000000000166 0
520 -0.008540000000009769 -0.0008800000000001977 0
521 -0.008540000000008726 -0.000600000000000344 0
522 -0.008540000000007682 -0.0003200000000009407 0
523 -0.008540000000006643 -4.000000000104799e-05 0
524 -0.008540000000005597 0.0002399999999988998 0
525 -0.008540000000004554 0.0005199999999984255 0
526 -0.008540000000003508 0.0007999999999980836 0
527 -0.008540000000002464 0.001079999999998045 0
528 -0.008540000000001421 0.001359999999997606 0
529 -0.008540000000000375 0.001639999999997805 0
530 -0.008539999999999335 0.001919999999997768 0
531 -0.008539999999998292 0.002199999999998233 0
532 -0.008539999999997246 0.002479999999998316 0
533 -0.008539999999996202 0.002759999999998154 0
534 -0.008539999999995157 0.003039999999998608 0
535 -0.008539999999994115 0.003319999999998981 0
536 -0.008539999999993072 0.003599999999998667 0
537 -0.00853999999999203 0.00387999999999903 0
538 -0.008539999999990984 0.004159999999999337 0
539 -0.008539999999989939 0.004439999999999554 0
540 -0.008539999999988898 0.004719999999999449 0
541 -0.007980000000010739 -0.001719999999999951 0
542 -0.00798000000000984 -0.001440000000000313 0
543 -0.00798000000000894 -0.001160000000000304 0
544 -0.00798000000000804 -0.0008800000000004081 0
545 -0.007980000000007136 -0.0006000000000006287 0
546 -0.007980000000006239 -0.0003200000000012544 0
547 -0.007980000000005339 -4.000000000143917e-05 0
548 -0.007980000000004437 0.000239999999998435 0
549 -0.007980000000003538 0.0005199999999979148 0
550 -0.007980000000002638 0.0007999999999975106 0
551 -0.007980000000001736 0.001079999999997399 0
552 -0.007980000000000837 0.001359999999996901 0
553 -0.007979999999999935 0.001639999999997099 0
554 -0.007979999999999036 0.001919999999997118 0
555 -0.007979999999998133 0.002199999999997654 0
556 -0.007979999999997236 0.002479999999997799 0
557 -0.007979999999996334 0.002759999999997678 0
558 -0.007979999999995435 0.003039999999998206 0
559 -0.007979999999994533 0.003319999999998659 0
560 -0.007979999999993635 0.003599999999998364 0
561 -0.007979999999992732 0.003879999999998799 0
562 -0.007979999999991834 0.004159999999999192 0
563 -0.007979999999990932 0.004439999999999462 0
564 -0.007979999999990033 0.004719999999999388 0
565 -0.007420000000008584 -0.001720000000000014 0
566 -0.007420000000007822 -0.00144000000000041 0
567 -0.007420000000007067 -0.001160000000000441 0
568 -0.007420000000006309 -0.0008800000000006187 0
569 -0.007420000000005551 -0.0006000000000009128 0
570 -0.007420000000004791 -0.0003200000000015679 0
571 -0.007420000000004032 -4.000000000183035e-05 0
572 -0.007420000000003275 0.00023999999999797 0
573 -0.007420000000002515 0.0005199999999974037 0
574 -0.007420000000001757 0.0007999999999969376 0
575 -0.007420000000000999 0.001079999999996753 0
576 -0.007420000000000241 0.001359999999996196 0
577 -0.007419999999999483 0.001639999999996393 0
578 -0.007419999999998725 0.001919999999996469 0
579 -0.007419999999997966 0.002199999999997076 0
580 -0.007419999999997208 0.00247999999999728 0
581 -0.007419999999996449 0.002759999999997205 0
582 -0.00741999999999569 0.003039999999997803 0
583 -0.007419999999994933 0.003319999999998338 0
584 -0.007419999999994173 0.003599999999998061 0
585 -0.007419999999993416 0.003879999999998567 0
586 -0.007419999999992656 0.004159999999999051 0
587 -0.007419999999991899 0.004439999999999368 0
588 -0.007419999999991141 0.004719999999999325 0
589 -0.006860000000008882 -0.001720000000000078 0
590 -0.006860000000008165 -0.001440000000000508 0
591 -0.006860000000007449 -0.001160000000000579 0
592 -0.006860000000006731 -0.0008800000000008292 0
593 -0.006860000000006015 -0.0006000000000011968 0
594 -0.006860000000005298 -0.0003200000000018818 0
595 -0.006860000000004583 -4.000000000222126e-05 0
596 -0.006860000000003865 0.0002399999999975051 0
597 -0.006860000000003147 0.0005199999999968927 0
598 -0.00686000000000243 0.0007999999999963648 0
599 -0.006860000000001715 0.001079999999996107 0
600 -0.006860000000000997 0.001359999999995491 0
601 -0.006860000000000283 0.001639999999995687 0
602 -0.006859999999999564 0.00191999999999582 0
603 -0.00685999999999885 0.002199999999996498 0
604 -0.006859999999998131 0.002479999999996762 0
605 -0.006859999999997413 0.002759999999996729 0
606 -0.006859999999996699 0.003039999999997401 0
607 -0.00685999999999598 0.003319999999998016 0
608 -0.006859999999995266 0.003599999999997758 0
609 -0.006859999999994549 0.003879999999998334 0
610 -0.006859999999993831 0.004159999999998904 0
611 -0.006859999999993115 0.004439999999999276 0
612 -0.0068599999999924 0.004719999999999264 0
613 -0.00630000000000754 -0.001720000000000142 0
614 -0.006300000000006963 -0.001440000000000604 0
615 -0.006300000000006383 -0.001160000000000718 0
616 -0.006300000000005804 -0.0008800000000010395 0
617 -0.006300000000005223 -0.0006000000000014809 0
618 -0.006300000000004643 -0.0003200000000021957 0
619 -0.006300000000004065 -4.00000000026126e-05 0
620 -0.006300000000003484 0.0002399999999970399 0
621 -0.006300000000002905 0.0005199999999963823 0
622 -0.006300000000002327 0.0007999999999957919 0
623 -0.006300000000001745 0.001079999999995461 0
624 -0.006300000000001168 0.001359999999994787 0
625 -0.006300000000000587 0.001639999999994981 0
626 -0.006300000000000009 0.001919999999995171 0
627 -0.006299999999999429 0.00219999999999592 0
628 -0.006299999999998848 0.002479999999996243 0
629 -0.006299999999998269 0.002759999999996254 0
630 -0.006299999999997689 0.003039999999996997 0
631 -0.006299999999997109 0.003319999999997695 0
632 -0.00629999999999653 0.003599999999997454 0
633 -0.006299999999995951 0.003879999999998102 0
634 -0.006299999999995372 0.004159999999998763 0
635 -0.006299999999994792 0.004439999999999184 0
636 -0.006299999999994213 0.004719999999999202 0
637 -0.005740000000005424 -0.001720000000000205 0
638 -0.005740000000005023 -0.001440000000000702 0
639 -0.005740000000004624 -0.001160000000000855 0
640 -0.005740000000004224 -0.00088000000000125 0
641 -0.005740000000003824 -0.0006000000000017651 0
642 -0.005740000000003427 -0.0003200000000025092 0
643 -0.005740000000003027 -4.000000000300356e-05 0
644 -0.005740000000002627 0.0002399999999965746 0
645 -0.005740000000002226 0.0005199999999958714 0
646 -0.005740000000001826 0.000799999999995219 0
647 -0.005740000000001427 0.001079999999994815 0
648 -0.005740000000001028 0.001359999999994081 0
649 -0.005740000000000628 0.001639999999994276 0
650 -0.00574000000000023 0.001919999999994522 0
651 -0.00573999999999983 0.002199999999995342 0
652 -0.00573999999999943 0.002479999999995725 0
653 -0.005739999999999031 0.002759999999995781 0
654 -0.00573999999999863 0.003039999999996594 0
655 -0.005739999999998231 0.003319999999997374 0
656 -0.005739999999997832 0.003599999999997151 0
657 -0.005739999999997433 0.003879999999997869 0
658 -0.005739999999997034 0.004159999999998617 0
659 -0.005739999999996636 0.004439999999999091 0
660 -0.005739999999996234 0.004719999999999142 0
661 -0.005180000000003261 -0.001720000000000269 0
662 -0.005180000000003005 -0.001440000000000799 0
663 -0.005180000000002747 -0.001160000000000993 0
664 -0.00518000000000249 -0.0008800000000014606 0
665 -0.005180000000002232 -0.0006000000000020491 0
666 -0.005180000000001975 -0.0003200000000028228 0
667 -0.005180000000001717 -4.000000000339482e-05 0
668 -0.005180000000001461 0.0002399999999961097 0
669 -0.005180000000001204 0.0005199999999953607 0
670 -0.005180000000000945 0.0007999999999946459 0
671 -0.005180000000000688 0.001079999999994169 0
672 -0.005180000000000431 0.001359999999993377 0
673 -0.005180000000000174 0.00163999999999357 0
674 -0.005179999999999916 0.001919999999993872 0
675 -0.00517999999999966 0.002199999999994763 0
676 -0.005179999999999404 0.002479999999995207 0
677 -0.005179999999999145 0.002759999999995305 0
678 -0.005179999999998888 0.003039999999996192 0
679 -0.005179999999998632 0.003319999999997053 0
680 -0.005179999999998373 0.003599999999996847 0
681 -0.005179999999998116 0.003879999999997638 0
682 -0.005179999999997859 0.004159999999998475 0
683 -0.005179999999997602 0.004439999999998997 0
684 -0.005179999999997345 0.004719999999999079 0
685 -0.00462000000000322 -0.001720000000000333 0
686 -0.004620000000003009 -0.001440000000000896 0
687 -0.004620000000002801 -0.001160000000001131 0
688 -0.004620000000002594 -0.000880000000001671 0
689 -0.004620000000002384 -0.000600000000002333 0
690 -0.004620000000002176 -0.0003200000000031366 0
691 -0.004620000000001966 -4.000000000378592e-05 0
692 -0.004620000000001757 0.0002399999999956448 0
693 -0.00462000000000155 0.0005199999999948501 0
694 -0.004620000000001341 0.0007999999999940732 0
695 -0.004620000000001133 0.001079999999993523 0
696 -0.004620000000000924 0.001359999999992673 0
697 -0.004620000000000713 0.001639999999992864 0
698 -0.004620000000000507 0.001919999999993223 0
699 -0.004620000000000297 0.002199999999994185 0
700 -0.004620000000000089 0.002479999999994688 0
701 -0.004619999999999881 0.00275999999999483 0
702 -0.004619999999999673 0.003039999999995789 0
703 -0.004619999999999465 0.003319999999996731 0
704 -0.004619999999999257 0.003599999999996545 0
705 -0.004619999999999047 0.003879999999997406 0
706 -0.004619999999998837 0.00415999999999833 0
707 -0.004619999999998629 0.004439999999998904 0
708 -0.004619999999998421 0.004719999999999018 0
709 -0.004060000000002167 -0.001720000000000396 0
710 -0.004060000000002032 -0.001440000000000992 0
711 -0.004060000000001896 -0.001160000000001269 0
712 -0.00406000000000176 -0.0008800000000018816 0
713 -0.004060000000001626 -0.0006000000000026171 0
714 -0.00406000000000149 -0.0003200000000034502 0
715 -0.004060000000001355 -4.000000000417718e-05 0
716 -0.00406000000000122 0.0002399999999951797 0
717 -0.004060000000001084 0.0005199999999943388 0
718 -0.004060000000000949 0.0007999999999935006 0
719 -0.004060000000000812 0.001079999999992877 0
720 -0.004060000000000679 0.001359999999991968 0
721 -0.004060000000000541 0.001639999999992158 0
722 -0.004060000000000406 0.001919999999992573 0
723 -0.004060000000000271 0.002199999999993606 0
724 -0.004060000000000135 0.00247999999999417 0
725 -0.00406 0.002759999999994355 0
726 -0.004059999999999863 0.003039999999995387 0
727 -0.004059999999999728 0.003319999999996409 0
728 -0.004059999999999592 0.003599999999996242 0
729 -0.004059999999999456 0.003879999999997173 0
730 -0.004059999999999322 0.004159999999998187 0
731 -0.004059999999999187 0.004439999999998813 0
732 -0.004059999999999051 0.004719999999998958 0
733 -0.003062500000000872 -0.00172000000000046 0
734 -0.00306250000000077 -0.00144000000000109 0
735 -0.003062500000000669 -0.001160000000001407 0
736 -0.003062500000000567 -0.0008800000000020923 0
737 -0.003062500000000465 -0.0006000000000029014 0
738 -0.003062500000000364 -0.0003200000000037639 0
739 -0.003062500000000262 -4.00000000045685e-05 0
740 -0.00306250000000016 0.0002399999999947147 0
741 -0.00306250000000006 0.0005199999999938279 0
742 -0.003062499999999958 0.0007999999999929277 0
743 -0.003062499999999856 0.001079999999992231 0
744 -0.003062499999999755 0.001359999999991263 0
745 -0.003062499999999653 0.001639999999991452 0
746 -0.003062499999999552 0.001919999999991924 0
747 -0.003062499999999449 0.002199999999993029 0
748 -0.003062499999999348 0.002479999999993651 0
749 -0.003062499999999246 0.002759999999993881 0
750 -0.003062499999999144 0.003039999999994984 0
751 -0.003062499999999043 0.003319999999996089 0
752 -0.003062499999998942 0.003599999999995938 0
753 -0.003062499999998839 0.00387999999999694 0
754 -0.003062499999998739 0.004159999999998043 0
755 -0.003062499999998636 0.004439999999998718 0
756 -0.003062499999998536 0.004719999999998895 0
757 -0.002625000000001458 -0.00172000000000046 0
758 -0.002625000000001311 -0.00144000000000109 0
759 -0.002625000000001162 -0.001160000000001407 0
760 -0.002625000000001013 -0.0008800000000020928 0
761 -0.002625000000000863 -0.0006000000000029014 0
762 -0.002625000000000714 -0.0003200000000037641 0
763 -0.002625000000000565 -4.000000000456828e-05 0
764 -0.002625000000000417 0.0002399999999947145 0
765 -0.002625000000000268 0.0005199999999938281 0
766 -0.002625000000000119 0.0007999999999929272 0
767 -0.002624999999999969 0.001079999999992231 0
768 -0.00262499999999982 0.001359999999991263 0
769 -0.002624999999999671 0.001639999999991452 0
770 -0.002624999999999523 0.001919999999991925 0
771 -0.002624999999999373 0.002199999999993029 0
772 -0.002624999999999224 0.002479999999993651 0
773 -0.002624999999999075 0.002759999999993881 0
774 -0.002624999999998926 0.003039999999994985 0
775 -0.002624999999998778 0.003319999999996089 0
776 -0.002624999999998628 0.003599999999995938 0
777 -0.00262499999999848 0.003879999999996941 0
778 -0.002624999999998331 0.004159999999998043 0
779 -0.002624999999998182 0.00443999999999872 0
780 -0.002624999999998032 0.004719999999998895 0
781 -0.002187500000002324 -0.00172000000000046 0
782 -0.002187500000002066 -0.00144000000000109 0
783 -0.002187500000001808 -0.001160000000001407 0
784 -0.002187500000001552 -0.0008800000000020924 0
785 -0.002187500000001294 -0.0006000000000029014 0
786 -0.002187500000001037 -0.0003200000000037639 0
787 -0.00218750000000078 -4.000000000456828e-05 0
788 -0.002187500000000522 0.0002399999999947145 0
789 -0.002187500000000265 0.0005199999999938281 0
790 -0.002187500000000007 0.0007999999999929274 0
791 -0.00218749999999975 0.001079999999992231 0
792 -0.002187499999999493 0.001359999999991262 0
793 -0.002187499999999235 0.001639999999991452 0
794 -0.002187499999998978 0.001919999999991924 0
795 -0.00218749999999872 0.002199999999993029 0
796 -0.002187499999998463 0.002479999999993651 0
797 -0.002187499999998207 0.002759999999993881 0
798 -0.002187499999997948 0.003039999999994984 0
799 -0.002187499999997691 0.003319999999996089 0
800 -0.002187499999997434 0.003599999999995938 0
801 -0.002187499999997176 0.003879999999996941 0
802 -0.002187499999996919 0.004159999999998042 0
803 -0.002187499999996661 0.004439999999998718 0
804 -0.002187499999996404 0.004719999999998895 0
805 -0.00175000000000373 -0.00172000000000046 0
806 -0.001750000000003399 -0.001440000000001089 0
807 -0.001750000000003066 -0.001160000000001407 0
808 -0.001750000000002735 -0.0008800000000020924 0
809 -0.001750000000002403 -0.0006000000000029012 0
810 -0.001750000000002071 -0.0003200000000037641 0
811 -0.00175000000000174 -4.000000000456828e-05 0
812 -0.001750000000001408 0.0002399999999947147 0
813 -0.001750000000001075 0.0005199999999938281 0
814 -0.001750000000000744 0.000799999999992928 0
815 -0.001750000000000412 0.001079999999992231 0
816 -0.00175000000000008 0.001359999999991263 0
817 -0.001749999999999748 0.001639999999991452 0
818 -0.001749999999999417 0.001919999999991924 0
819 -0.001749999999999085 0.002199999999993029 0
820 -0.001749999999998753 0.002479999999993651 0
821 -0.001749999999998421 0.002759999999993881 0
822 -0.001749999999998089 0.003039999999994984 0
823 -0.001749999999997756 0.003319999999996088 0
824 -0.001749999999997425 0.003599999999995938 0
825 -0.001749999999997093 0.003879999999996941 0
826 -0.001749999999996761 0.004159999999998042 0
827 -0.001749999999996429 0.004439999999998718 0
828 -0.001749999999996097 0.004719999999998895 0
829 -0.001312500000004759 -0.00172000000000046 0
830 -0.001312500000004312 -0.00144000000000109 0
831 -0.001312500000003865 -0.001160000000001407 0
832 -0.001312500000003418 -0.0008800000000020923 0
833 -0.001312500000002971 -0.0006000000000029012 0
834 -0.001312500000002524 -0.0003200000000037642 0
835 -0.001312500000002077 -4.000000000456817e-05 0
836 -0.001312500000001629 0.0002399999999947145 0
837 -0.001312500000001183 0.0005199999999938281 0
838 -0.001312500000000735 0.0007999999999929274 0
839 -0.001312500000000288 0.001079999999992231 0
840 -0.001312499999999842 0.001359999999991263 0
841 -0.001312499999999394 0.001639999999991452 0
842 -0.001312499999998947 0.001919999999991924 0
843 -0.0013124999999985 0.002199999999993029 0
844 -0.001312499999998052 0.002479999999993651 0
845 -0.001312499999997606 0.002759999999993881 0
846 -0.001312499999997159 0.003039999999994985 0
847 -0.001312499999996712 0.003319999999996088 0
848 -0.001312499999996265 0.003599999999995938 0
849 -0.001312499999995817 0.003879999999996941 0
850 -0.00131249999999537 0.004159999999998042 0
851 -0.001312499999994923 0.004439999999998718 0
852 -0.001312499999994475 0.004719999999998894 0
853 -0.0008750000000060049 -0.00172000000000046 0
854 -0.00087500000000549 -0.001440000000001089 0
855 -0.0008750000000049748 -0.001160000000001407 0
856 -0.0008750000000044599 -0.0008800000000020923 0
857 -0.0008750000000039447 -0.0006000000000029013 0
858 -0.0008750000000034302 -0.000320000000003764 0
859 -0.0008750000000029154 -4.000000000456817e-05 0
860 -0.0008750000000024008 0.0002399999999947144 0
861 -0.000875000000001886 0.0005199999999938279 0
862 -0.0008750000000013711 0.0007999999999929275 0
863 -0.0008750000000008561 0.001079999999992231 0
864 -0.0008750000000003415 0.001359999999991263 0
865 -0.0008749999999998263 0.001639999999991452 0
866 -0.0008749999999993113 0.001919999999991924 0
867 -0.000874999999998797 0.002199999999993029 0
868 -0.000874999999998282 0.002479999999993651 0
869 -0.0008749999999977671 0.002759999999993881 0
870 -0.0008749999999972523 0.003039999999994985 0
871 -0.0008749999999967377 0.003319999999996088 0
872 -0.0008749999999962228 0.003599999999995938 0
873 -0.0008749999999957078 0.003879999999996941 0
874 -0.000874999999995193 0.004159999999998042 0
875 -0.0008749999999946778 0.004439999999998718 0
876 -0.0008749999999941634 0.004719999999998895 0
877 -0.0004375000000071965 -0.00172000000000046 0
878 -0.0004375000000065597 -0.00144000000000109 0
879 -0.0004375000000059226 -0.001160000000001407 0
880 -0.0004375000000052861 -0.0008800000000020924 0
881 -0.0004375000000046491 -0.0006000000000029013 0
882 -0.0004375000000040121 -0.0003200000000037639 0
883 -0.0004375000000033752 -4.000000000456807e-05 0
884 -0.0004375000000027385 0.0002399999999947144 0
885 -0.0004375000000021016 0.0005199999999938281 0
886 -0.0004375000000014645 0.0007999999999929272 0
887 -0.0004375000000008279 0.001079999999992231 0
888 -0.0004375000000001909 0.001359999999991263 0
889 -0.0004374999999995541 0.001639999999991452 0
890 -0.0004374999999989173 0.001919999999991924 0
891 -0.0004374999999982805 0.002199999999993029 0
892 -0.0004374999999976439 0.002479999999993651 0
893 -0.0004374999999970067 0.002759999999993881 0
894 -0.00043749999999637 0.003039999999994984 0
895 -0.000437499999995733 0.003319999999996089 0
896 -0.0004374999999950963 0.003599999999995938 0
897 -0.0004374999999944592 0.003879999999996941 0
898 -0.0004374999999938226 0.004159999999998043 0
899 -0.000437499999993186 0.004439999999998718 0
900 -0.0004374999999925487 0.004719999999998895 0
901 -8.336902132187265e-15 -0.00172000000000046 0
902 -7.612259347175623e-15 -0.001440000000001089 0
903 -6.88677630547949e-15 -0.001160000000001407 0
904 -6.161943785087808e-15 -0.0008800000000020924 0
905 -5.437328105130939e-15 -0.0006000000000029013 0
906 -4.712495584739713e-15 -0.000320000000003764 0
907 -3.987608854239714e-15 -4.000000000456817e-05 0
908 -3.262017392327373e-15 0.0002399999999947145 0
909 -2.537618552805204e-15 0.0005199999999938282 0
910 -1.812460771762332e-15 0.0007999999999929275 0
911 -1.087411410936175e-15 0.001079999999992231 0
912 -3.626873107624704e-16 0.001359999999991263 0
913 3.622536298487257e-16 0.001639999999991452 0
914 1.087194570460657e-15 0.001919999999991924 0
915 1.81235235150872e-15 0.002199999999993029 0
916 2.53729329212104e-15 0.002479999999993651 0
917 3.262451073166839e-15 0.002759999999993881 0
918 3.986958332911409e-15 0.003039999999994984 0
919 4.711682433090477e-15 0.003319999999996089 0
920 5.437057054569791e-15 0.003599999999995938 0
921 6.161997995183093e-15 0.003879999999996941 0
922 6.886938935796657e-15 0.004159999999998043 0
923 7.611446195540121e-15 0.004439999999998719 0
924 8.33660397658578e-15 0.004719999999998895 0
925 0.0004374999999925482 -0.00172000000000046 0
926 0.0004374999999931855 -0.00144000000000109 0
927 0.0004374999999938223 -0.001160000000001407 0
928 0.000437499999994459 -0.0008800000000020924 0
929 0.0004374999999950958 -0.0006000000000029014 0
930 0.0004374999999957326 -0.0003200000000037639 0
931 0.0004374999999963697 -4.000000000456807e-05 0
932 0.0004374999999970066 0.0002399999999947144 0
933 0.0004374999999976433 0.0005199999999938281 0
934 0.0004374999999982802 0.0007999999999929272 0
935 0.0004374999999989171 0.001079999999992231 0
936 0.0004374999999995541 0.001359999999991263 0
937 0.0004375000000001907 0.001639999999991452 0
938 0.0004375000000008276 0.001919999999991924 0
939 0.0004375000000014642 0.002199999999993029 0
940 0.0004375000000021017 0.002479999999993651 0
941 0.0004375000000027379 0.002759999999993881 0
942 0.0004375000000033752 0.003039999999994984 0
943 0.0004375000000040122 0.003319999999996089 0
944 0.0004375000000046486 0.003599999999995938 0
945 0.0004375000000052859 0.003879999999996941 0
946 0.0004375000000059225 0.004159999999998043 0
947 0.0004375000000065594 0.004439999999998719 0
948 0.0004375000000071962 0.004719999999998895 0
949 0.0008749999999941635 -0.00172000000000046 0
950 0.0008749999999946783 -0.00144000000000109 0
951 0.0008749999999951933 -0.001160000000001407 0
952 0.0008749999999957083 -0.0008800000000020928 0
953 0.0008749999999962228 -0.0006000000000029012 0
954 0.0008749999999967377 -0.0003200000000037641 0
955 0.0008749999999972528 -4.000000000456807e-05 0
956 0.0008749999999977673 0.0002399999999947145 0
957 0.0008749999999982824 0.0005199999999938279 0
958 0.000874999999998797 0.0007999999999929276 0
959 0.0008749999999993123 0.001079999999992231 0
960 0.0008749999999998265 0.001359999999991263 0
961 0.0008750000000003417 0.001639999999991452 0
962 0.0008750000000008563 0.001919999999991925 0
963 0.0008750000000013712 0.002199999999993028 0
964 0.0008750000000018858 0.002479999999993651 0
965 0.000875000000002401 0.002759999999993881 0
966 0.0008750000000029157 0.003039999999994984 0
967 0.0008750000000034308 0.003319999999996089 0
968 0.0008750000000039455 0.003599999999995938 0
969 0.0008750000000044599 0.003879999999996941 0
970 0.0008750000000049751 0.004159999999998042 0
971 0.0008750000000054899 0.004439999999998719 0
972 0.0008750000000060042 0.004719999999998895 0
973 0.001312499999994475 -0.00172000000000046 0
974 0.001312499999994922 -0.001440000000001089 0
975 0.00131249999999537 -0.001160000000001407 0
976 0.001312499999995817 -0.0008800000000020926 0
977 0.001312499999996265 -0.0006000000000029012 0
978 0.001312499999996711 -0.0003200000000037638 0
979 0.001312499999997159 -4.000000000456834e-05 0
980 0.001312499999997606 0.0002399999999947147 0
981 0.001312499999998053 0.0005199999999938281 0
982 0.0013124999999985 0.0007999999999929274 0
983 0.001312499999998947 0.001079999999992231 0
984 0.001312499999999394 0.001359999999991263 0
985 0.001312499999999841 0.001639999999991452 0
986 0.001312500000000289 0.001919999999991924 0
987 0.001312500000000735 0.002199999999993029 0
988 0.001312500000001182 0.00247999999999365 0
989 0.001312500000001629 0.002759999999993881 0
990 0.001312500000002077 0.003039999999994984 0
991 0.001312500000002524 0.003319999999996089 0
992 0.001312500000002971 0.003599999999995938 0
993 0.001312500000003418 0.003879999999996941 0
994 0.001312500000003865 0.004159999999998043 0
995 0.001312500000004312 0.004439999999998719 0
996 0.00131250000000476 0.004719999999998895 0
997 0.001749999999996097 -0.00172000000000046 0
998 0.001749999999996429 -0.001440000000001089 0
999 0.001749999999996761 -0.001160000000001407 0
1000 0.001749999999997093 -0.0008800000000020922 0
1001 0.001749999999997425 -0.0006000000000029012 0
1002 0.001749999999997757 -0.0003200000000037639 0
1003 0.001749999999998089 -4.000000000456834e-05 0
1004 0.001749999999998421 0.0002399999999947143 0
1005 0.001749999999998753 0.000519999999993828 0
1006 0.001749999999999085 0.0007999999999929271 0
1007 0.001749999999999417 0.001079999999992231 0
1008 0.001749999999999748 0.001359999999991263 0
1009 0.00175000000000008 0.001639999999991452 0
1010 0.001750000000000411 0.001919999999991924 0
1011 0.001750000000000744 0.002199999999993029 0
1012 0.001750000000001076 0.002479999999993651 0
1013 0.001750000000001408 0.002759999999993881 0
1014 0.001750000000001739 0.003039999999994985 0
1015 0.001750000000002071 0.003319999999996088 0
1016 0.001750000000002403 0.003599999999995938 0
1017 0.001750000000002735 0.003879999999996941 0
1018 0.001750000000003067 0.004159999999998043 0
1019 0.001750000000003398 0.004439999999998718 0
1020 0.001750000000003731 0.004719999999998895 0
1021 0.002187499999996405 -0.00172000000000046 0
1022 0.002187499999996661 -0.00144000000000109 0
1023 0.002187499999996919 -0.001160000000001407 0
1024 0.002187499999997177 -0.0008800000000020924 0
1025 0.002187499999997433 -0.0006000000000029012 0
1026 0.002187499999997691 -0.0003200000000037641 0
1027 0.002187499999997948 -4.000000000456807e-05 0
1028 0.002187499999998206 0.0002399999999947144 0
1029 0.002187499999998463 0.0005199999999938277 0
1030 0.00218749999999872 0.0007999999999929275 0
1031 0.002187499999998978 0.001079999999992231 0
1032 0.002187499999999236 0.001359999999991262 0
1033 0.002187499999999492 0.001639999999991452 0
1034 0.002187499999999751 0.001919999999991924 0
1035 0.002187500000000007 0.002199999999993029 0
1036 0.002187500000000265 0.00247999999999365 0
1037 0.002187500000000523 0.002759999999993881 0
1038 0.00218750000000078 0.003039999999994984 0
1039 0.002187500000001037 0.003319999999996089 0
1040 0.002187500000001295 0.003599999999995938 0
1041 0.002187500000001552 0.003879999999996941 0
1042 0.00218750000000181 0.004159999999998043 0
1043 0.002187500000002067 0.004439999999998719 0
1044 0.002187500000002324 0.004719999999998895 0
1045 0.002624999999998031 -0.00172000000000046 0
1046 0.002624999999998181 -0.00144000000000109 0
1047 0.00262499999999833 -0.001160000000001407 0
1048 0.002624999999998478 -0.0008800000000020924 0
1049 0.002624999999998628 -0.0006000000000029012 0
1050 0.002624999999998776 -0.0003200000000037641 0
1051 0.002624999999998926 -4.000000000456798e-05 0
1052 0.002624999999999075 0.0002399999999947143 0
1053 0.002624999999999223 0.0005199999999938284 0
1054 0.002624999999999373 0.0007999999999929277 0
1055 0.002624999999999522 0.001079999999992231 0
1056 0.002624999999999671 0.001359999999991263 0
1057 0.002624999999999821 0.001639999999991452 0
1058 0.002624999999999969 0.001919999999991925 0
1059 0.002625000000000118 0.002199999999993029 0
1060 0.002625000000000268 0.002479999999993651 0
1061 0.002625000000000416 0.002759999999993881 0
1062 0.002625000000000564 0.003039999999994984 0
1063 0.002625000000000714 0.003319999999996089 0
1064 0.002625000000000863 0.003599999999995938 0
1065 0.002625000000001011 0.003879999999996941 0
1066 0.00262500000000116 0.004159999999998042 0
1067 0.002625000000001309 0.004439999999998718 0
1068 0.002625000000001459 0.004719999999998895 0
1069 0.003062499999998535 -0.00172000000000046 0
1070 0.003062499999998637 -0.001440000000001089 0
1071 0.003062499999998739 -0.001160000000001407 0
1072 0.003062499999998839 -0.0008800000000020925 0
1073 0.003062499999998942 -0.0006000000000029014 0
1074 0.003062499999999042 -0.0003200000000037641 0
1075 0.003062499999999145 -4.00000000045683e-05 0
1076 0.003062499999999246 0.0002399999999947144 0
1077 0.003062499999999348 0.000519999999993828 0
1078 0.00306249999999945 0.0007999999999929272 0
1079 0.003062499999999551 0.001079999999992231 0
1080 0.003062499999999653 0.001359999999991263 0
1081 0.003062499999999754 0.001639999999991452 0
1082 0.003062499999999855 0.001919999999991925 0
1083 0.003062499999999957 0.002199999999993029 0
1084 0.003062500000000059 0.002479999999993651 0
1085 0.003062500000000161 0.002759999999993881 0
1086 0.003062500000000262 0.003039999999994984 0
1087 0.003062500000000364 0.003319999999996089 0
1088 0.003062500000000465 0.003599999999995938 0
1089 0.003062500000000567 0.003879999999996941 0
1090 0.003062500000000668 0.004159999999998042 0
1091 0.00306250000000077 0.004439999999998718 0
1092 0.003062500000000871 0.004719999999998895 0
$EndNodes
$Elements
1157
1 1 2 3 1 1 7
2 1 2 3 1 7 8
3 1 2 3 1 8 9
4 1 2 3 1 9 10
5 1 2 3 1 10 11
6 1 2 3 1 11 12
7 1 2 3 1 12 13
8 1 2 3 1 13 14
9 1 2 3 1 14 15
10 1 2 3 1 15 16
11 1 2 3 1 16 17
12 1 2 3 1 17 18
13 1 2 3 1 18 19
14 1 2 3 1 19 20
15 1 2 3 1 20 21
16 1 2 3 1 21 22
17 1 2 3 1 22 23
18 1 2 3 1 23 24
19 1 2 3 1 24 25
20 1 2 3 1 25 26
21 1 2 3 1 26 27
22 1 2 3 1 27 28
23 1 2 3 1 28 29
24 1 2 3 1 29 30
25 1 2 3 1 30 2
26 1 2 1 2 2 31
27 1 2 1 2 31 32
28 1 2 1 2 32 33
29 1 2 1 2 33 34
30 1 2 1 2 34 35
31 1 2 1 2 35 36
32 1 2 1 2 36 37
33 1 2 1 2 37 38
34 1 2 1 2 38 39
35 1 2 1 2 39 40
36 1 2 1 2 40 41
37 1 2 1 2 41 42
38 1 2 1 2 42 43
39 1 2 1 2 43 44
40 1 2 1 2 44 45
41 1 2 1 2 45 3
42 1 2 4 3 3 46
43 1 2 4 3 46 47
44 1 2 4 3 47 48
45 1 2 4 3 48 49
46 1 2 4 3 49 50
47 1 2 4 3 50 51
48 1 2 4 3 51 52
49 1 2 4 3 52 53
50 1 2 4 3 53 54
51 1 2 4 3 54 55
52 1 2 4 3 55 56
53 1 2 4 3 56 57
54 1 2 4 3 57 58
55 1 2 4 3 58 59
56 1 2 4 3 59 60
57 1 2 4 3 60 61
58 1 2 4 3 61 62
59 1 2 4 3 62 63
60 1 2 4 3 63 64
61 1 2 4 3 64 65
62 1 2 4 3 65 66
63 1 2 4 3 66 67
64 1 2 4 3 67 68
65 1 2 4 3 68 69
66 1 2 4 3 69 4
67 1 2 2 4 4 70
68 1 2 2 4 70 71
69 1 2 2 4 71 72
70 1 2 2 4 72 73
71 1 2 2 4 73 74
72 1 2 2 4 74 75
73 1 2 2 4 75 76
74 1 2 2 4 76 77
75 1 2 2 4 77 78
76 1 2 2 4 78 79
77 1 2 2 4 79 80
78 1 2 2 4 80 81
79 1 2 2 4 81 82
80 1 2 2 4 82 83
81 1 2 2 4 83 84
82 1 2 2 4 84 5
83 1 2 3 5 5 85
84 1 2 3 5 85 86
85 1 2 3 5 86 87
86 1 2 3 5 87 88
87 1 2 3 5 88 89
88 1 2 3 5 89 90
89 1 2 3 5 90 91
90 1 2 3 5 91 92
91 1 2 3 5 92 93
92 1 2 3 5 93 94
93 1 2 3 5 94 95
94 1 2 3 5 95 96
95 1 2 3 5 96 97
96 1 2 3 5 97 98
97 1 2 3 5 98 99
98 1 2 3 5 99 100
99 1 2 3 5 100 101
100 1 2 3 5 101 102
101 1 2 3 5 102 103
102 1 2 3 5 103 104
103 1 2 3 5 104 105
104 1 2 3 5 105 106
105 1 2 3 5 106 107
106 1 2 3 5 107 108
107 1 2 3 5 108 6
108 1 2 5 6 6 109
109 1 2 5 6 109 110
110 1 2 5 6 110 111
111 1 2 5 6 111 112
112 1 2 5 6 112 113
113 1 2 5 6 113 114
114 1 2 5 6 114 115
115 1 2 5 6 115 116
116 1 2 5 6 116 117
117 1 2 5 6 117 118
118 1 2 5 6 118 119
119 1 2 5 6 119 120
120 1 2 5 6 120 121
121 1 2 5 6 121 122
122 1 2 5 6 122 123
123 1 2 5 6 123 124
124 1 2 5 6 124 125
125 1 2 5 6 125 126
126 1 2 5 6 126 127
127 1 2 5 6 127 128
128 1 2 5 6 128 129
129 1 2 5 6 129 130
130 1 2 5 6 130 131
131 1 2 5 6 131 132
132 1 2 5 6 132 1
133 3 2 6 51 1 7 157 132
134 3 2 6 51 132 157 158 131
135 3 2 6 51 131 158 159 130
136 3 2 6 51 130 159 160 129
137 3 2 6 51 129 160 161 128
138 3 2 6 51 128 161 162 127
139 3 2 6 51 127 162 163 126
140 3 2 6 51 126 163 164 125
141 3 2 6 51 125 164 165 124
142 3 2 6 51 124 165 166 123
143 3 2 6 51 123 166 167 122
144 3 2 6 51 122 167 168 121
145 3 2 6 51 121 168 169 120
146 3 2 6 51 120 169 170 119
147 3 2 6 51 119 170 171 118
148 3 2 6 51 118 171 172 117
149 3 2 6 51 117 172 173 116
150 3 2 6 51 116 173 174 115
151 3 2 6 51 115 174 175 114
152 3 2 6 51 114 175 176 113
153 3 2 6 51 113 176 177 112
154 3 2 6 51 112 177 178 111
155 3 2 6 51 111 178 179 110
156 3 2 6 51 110 179 180 109
157 3 2 6 51 109 180 108 6
158 3 2 6 51 7 8 181 157
159 3 2 6 51 157 181 182 158
160 3 2 6 51 158 182 183 159
161 3 2 6 51 159 183 184 160
162 3 2 6 51 160 184 185 161
163 3 2 6 51 161 185 186 162
164 3 2 6 51 162 186 187 163
165 3 2 6 51 163 187 188 164
166 3 2 6 51 164 188 189 165
167 3 2 6 51 165 189 190 166
168 3 2 6 51 166 190 191 167
169 3 2 6 51 167 191 192 168
170 3 2 6 51 168 192 193 169
171 3 2 6 51 169 193 194 170
172 3 2 6 51 170 194 195 171
173 3 2 6 51 171 195 196 172
174 3 2 6 51 172 196 197 173
175 3 2 6 51 173 197 198 174
176 3 2 6 51 174 198 199 175
177 3 2 6 51 175 199 200 176
178 3 2 6 51 176 200 201 177
179 3 2 6 51 177 201 202 178
180 3 2 6 51 178 202 203 179
181 3 2 6 51 179 203 204 180
182 3 2 6 51 180 204 107 108
183 3 2 6 51 8 9 205 181
184 3 2 6 51 181 205 206 182
185 3 2 6 51 182 206 207 183
186 3 2 6 51 183 207 208 184
187 3 2 6 51 184 208 209 185
188 3 2 6 51 185 209 210 186
189 3 2 6 51 186 210 211 187
190 3 2 6 51 187 211 212 188
191 3 2 6 51 188 212 213 189
192 3 2 6 51 189 213 214 190
193 3 2 6 51 190 214 215 191
194 3 2 6 51 191 215 216 192
195 3 2 6 51 192 216 217 193
196 3 2 6 51 193 217 218 194
197 3 2 6 51 194 218 219 195
198 3 2 6 51 195 219 220 196
199 3 2 6 51 196 220 221 197
200 3 2 6 51 197 221 222 198
201 3 2 6 51 198 222 223 199
202 3 2 6 51 199 223 224 200
203 3 2 6 51 200 224 225 201
204 3 2 6 51 201 225 226 202
205 3 2 6 51 202 226 227 203
206 3 2 6 51 203 227 228 204
207 3 2 6 51 204 228 106 107
208 3 2 6 51 9 10 229 205
209 3 2 6 51 205 229 230 206
210 3 2 6 51 206 230 231 207
211 3 2 6 51 207 231 232 208
212 3 2 6 51 208 232 233 209
213 3 2 6 51 209 233 234 210
214 3 2 6 51 210 234 235 211
215 3 2 6 51 211 235 236 212
216 3 2 6 51 212 236 237 213
217 3 2 6 51 213 237 238 214
218 3 2 6 51 214 238 239 215
219 3 2 6 51 215 239 240 216
220 3 2 6 51 216 240 241 217
221 3 2 6 51 217 241 242 218
222 3 2 6 51 218 242 243 219
223 3 2 6 51 219 243 244 220
224 3 2 6 51 220 244 245 221
225 3 2 6 51 221 245 246 222
226 3 2 6 51 222 246 247 223
227 3 2 6 51 223 247 248 224
228 3 2 6 51 224 248 249 225
229 3 2 6 51 225 249 250 226
230 3 2 6 51 226 250 251 227
231 3 2 6 51 227 251 252 228
232 3 2 6 51 228 252 105 106
233 3 2 6 51 10 11 253 229
234 3 2 6 51 229 253 254 230
235 3 2 6 51 230 254 255 231
236 3 2 6 51 231 255 256 232
237 3 2 6 51 232 256 257 233
238 3 2 6 51 233 257 258 234
239 3 2 6 51 234 258 259 235
240 3 2 6 51 235 259 260 236
241 3 2 6 51 236 260 261 237
242 3 2 6 51 237 261 262 238
243 3 2 6 51 238 262 263 239
244 3 2 6 51 239 263 264 240
245 3 2 6 51 240 264 265 241
246 3 2 6 51 241 265 266 242
247 3 2 6 51 242 266 267 243
248 3 2 6 51 243 267 268 244
249 3 2 6 51 244 268 269 245
250 3 2 6 51 245 269 270 246
251 3 2 6 51 246 270 271 247
252 3 2 6 51 247 271 272 248
253 3 2 6 51 248 272 273 249
254 3 2 6 51 249 273 274 250
255 3 2 6 51 250 274 275 251
256 3 2 6 51 251 275 276 252
257 3 2 6 51 252 276 104 105
258 3 2 6 51 11 12 277 253
259 3 2 6 51 253 277 278 254
260 3 2 6 51 254 278 279 255
261 3 2 6 51 255 279 280 256
262 3 2 6 51 256 280 281 257
263 3 2 6 51 257 281 282 258
264 3 2 6 51 258 282 283 259
265 3 2 6 51 259 283 284 260
266 3 2 6 51 260 284 285 261
267 3 2 6 51 261 285 286 262
268 3 2 6 51 262 286 287 263
269 3 2 6 51 263 287 288 264
270 3 2 6 51 264 288 289 265
271 3 2 6 51 265 289 290 266
272 3 2 6 51 266 290 291 267
273 3 2 6 51 267 291 292 268
274 3 2 6 51 268 292 293 269
275 3 2 6 51 269 293 294 270
276 3 2 6 51 270 294 295 271
277 3 2 6 51 271 295 296 272
278 3 2 6 51 272 296 297 273
279 3 2 6 51 273 297 298 274
280 3 2 6 51 274 298 299 275
281 3 2 6 51 275 299 300 276
282 3 2 6 51 276 300 103 104
283 3 2 6 51 12 13 301 277
284 3 2 6 51 277 301 302 278
285 3 2 6 51 278 302 303 279
286 3 2 6 51 279 303 304 280
287 3 2 6 51 280 304 305 281
288 3 2 6 51 281 305 306 282
289 3 2 6 51 282 306 307 283
290 3 2 6 51 283 307 308 284
291 3 2 6 51 284 308 309 285
292 3 2 6 51 285 309 310 286
293 3 2 6 51 286 310 311 287
294 3 2 6 51 287 311 312 288
295 3 2 6 51 288 312 313 289
296 3 2 6 51 289 313 314 290
297 3 2 6 51 290 314 315 291
298 3 2 6 51 291 315 316 292
299 3 2 6 51 292 316 317 293
300 3 2 6 51 293 317 318 294
301 3 2 6 51 294 318 319 295
302 3 2 6 51 295 319 320 296
303 3 2 6 51 296 320 321 297
304 3 2 6 51 297 321 322 298
305 3 2 6 51 298 322 323 299
306 3 2 6 51 299 323 324 300
307 3 2 6 51 300 324 102 103
308 3 2 6 51 13 14 325 301
309 3 2 6 51 301 325 326 302
310 3 2 6 51 302 326 327 303
311 3 2 6 51 303 327 328 304
312 3 2 6 51 304 328 329 305
313 3 2 6 51 305 329 330 306
314 3 2 6 51 306 330 331 307
315 3 2 6 51 307 331 332 308
316 3 2 6 51 308 332 333 309
317 3 2 6 51 309 333 334 310
318 3 2 6 51 310 334 335 311
319 3 2 6 51 311 335 336 312
320 3 2 6 51 312 336 337 313
321 3 2 6 51 313 337 338 314
322 3 2 6 51 314 338 339 315
323 3 2 6 51 315 339 340 316
324 3 2 6 51 316 340 341 317
325 3 2 6 51 317 341 342 318
326 3 2 6 51 318 342 343 319
327 3 2 6 51 319 343 344 320
328 3 2 6 51 320 344 345 321
329 3 2 6 51 321 345 346 322
330 3 2 6 51 322 346 347 323
331 3 2 6 51 323 347 348 324
332 3 2 6 51 324 348 101 102
333 3 2 6 51 14 15 349 325
334 3 2 6 51 325 349 350 326
335 3 2 6 51 326 350 351 327
336 3 2 6 51 327 351 352 328
337 3 2 6 51 328 352 353 329
338 3 2 6 51 329 353 354 330
339 3 2 6 51 330 354 355 331
340 3 2 6 51 331 355 356 332
341 3 2 6 51 332 356 357 333
342 3 2 6 51 333 357 358 334
343 3 2 6 51 334 358 359 335
344 3 2 6 51 335 359 360 336
345 3 2 6 51 336 360 361 337
346 3 2 6 51 337 361 362 338
347 3 2 6 51 338 362 363 339
348 3 2 6 51 339 363 364 340
349 3 2 6 51 340 364 365 341
350 3 2 6 51 341 365 366 342
351 3 2 6 51 342 366 367 343
352 3 2 6 51 343 367 368 344
353 3 2 6 51 344 368 369 345
354 3 2 6 51 345 369 370 346
355 3 2 6 51 346 370 371 347
356 3 2 6 51 347 371 372 348
357 3 2 6 51 348 372 100 101
358 3 2 6 51 15 16 373 349
359 3 2 6 51 349 373 374 350
360 3 2 6 51 350 374 375 351
361 3 2 6 51 351 375 376 352
362 3 2 6 51 352 376 377 353
363 3 2 6 51 353 377 378 354
364 3 2 6 51 354 378 379 355
365 3 2 6 51 355 379 380 356
366 3 2 6 51 356 380 381 357
367 3 2 6 51 357 381 382 358
368 3 2 6 51 358 382 383 359
369 3 2 6 51 359 383 384 360
370 3 2 6 51 360 384 385 361
371 3 2 6 51 361 385 386 362
372 3 2 6 51 362 386 387 363
373 3 2 6 51 363 387 388 364
374 3 2 6 51 364 388 389 365
375 3 2 6 51 365 389 390 366
376 3 2 6 51 366 390 391 367
377 3 2 6 51 367 391 392 368
378 3 2 6 51 368 392 393 369
379 3 2 6 51 369 393 394 370
380 3 2 6 51 370 394 395 371
381 3 2 6 51 371 395 396 372
382 3 2 6 51 372 396 99 100
383 3 2 6 51 16 17 397 373
384 3 2 6 51 373 397 398 374
385 3 2 6 51 374 398 399 375
386 3 2 6 51 375 399 400 376
387 3 2 6 51 376 400 401 377
388 3 2 6 51 377 401 402 378
389 3 2 6 51 378 402 403 379
390 3 2 6 51 379 403 404 380
391 3 2 6 51 380 404 405 381
392 3 2 6 51 381 405 406 382
393 3 2 6 51 382 406 407 383
394 3 2 6 51 383 407 408 384
395 3 2 6 51 384 408 409 385
396 3 2 6 51 385 409 410 386
397 3 2 6 51 386 410 411 387
398 3 2 6 51 387 411 412 388
399 3 2 6 51 388 412 413 389
400 3 2 6 51 389 413 414 390
401 3 2 6 51 390 414 415 391
402 3 2 6 51 391 415 416 392
403 3 2 6 51 392 416 417 393
404 3 2 6 51 393 417 418 394
405 3 2 6 51 394 418 419 395
406 3 2 6 51 395 419 420 396
407 3 2 6 51 396 420 98 99
408 3 2 6 51 17 18 421 397
409 3 2 6 51 397 421 422 398
410 3 2 6 51 398 422 423 399
411 3 2 6 51 399 423 424 400
412 3 2 6 51 400 424 425 401
413 3 2 6 51 401 425 426 402
414 3 2 6 51 402 426 427 403
415 3 2 6 51 403 427 428 404
416 3 2 6 51 404 428 429 405
417 3 2 6 51 405 429 430 406
418 3 2 6 51 406 430 431 407
419 3 2 6 51 407 431 432 408
420 3 2 6 51 408 432 433 409
421 3 2 6 51 409 433 434 410
422 3 2 6 51 410 434 435 411
423 3 2 6 51 411 435 436 412
424 3 2 6 51 412 436 437 413
425 3 2 6 51 413 437 438 414
426 3 2 6 51 414 438 439 415
427 3 2 6 51 415 439 440 416
428 3 2 6 51 416 440 441 417
429 3 2 6 51 417 441 442 418
430 3 2 6 51 418 442 443 419
431 3 2 6 51 419 443 444 420
432 3 2 6 51 420 444 97 98
433 3 2 6 51 18 19 445 421
434 3 2 6 51 421 445 446 422
435 3 2 6 51 422 446 447 423
436 3 2 6 51 423 447 448 424
437 3 2 6 51 424 448 449 425
438 3 2 6 51 425 449 450 426
439 3 2 6 51 426 450 451 427
440 3 2 6 51 427 451 452 428
441 3 2 6 51 428 452 453 429
442 3 2 6 51 429 453 454 430
443 3 2 6 51 430 454 455 431
444 3 2 6 51 431 455 456 432
445 3 2 6 51 432 456 457 433
446 3 2 6 51 433 457 458 434
447 3 2 6 51 434 458 459 435
448 3 2 6 51 435 459 460 436
449 3 2 6 51 436 460 461 437
450 3 2 6 51 437 461 462 438
451 3 2 6 51 438 462 463 439
452 3 2 6 51 439 463 464 440
453 3 2 6 51 440 464 465 441
454 3 2 6 51 441 465 466 442
455 3 2 6 51 442 466 467 443
456 3 2 6 51 443 467 468 444
457 3 2 6 51 444 468 96 97
458 3 2 6 51 19 20 469 445
459 3 2 6 51 445 469 470 446
460 3 2 6 51 446 470 471 447
461 3 2 6 51 447 471 472 448
462 3 2 6 51 448 472 473 449
463 3 2 6 51 449 473 474 450
464 3 2 6 51 450 474 475 451
465 3 2 6 51 451 475 476 452
466 3 2 6 51 452 476 477 453
467 3 2 6 51 453 477 478 454
468 3 2 6 51 454 478 479 455
469 3 2 6 51 455 479 480 456
470 3 2 6 51 456 480 481 457
471 3 2 6 51 457 481 482 458
472 3 2 6 51 458 482 483 459
473 3 2 6 51 459 483 484 460
474 3 2 6 51 460 484 485 461
475 3 2 6 51 461 485 486 462
476 3 2 6 51 462 486 487 463
477 3 2 6 51 463 487 488 464
478 3 2 6 51 464 488 489 465
479 3 2 6 51 465 489 490 466
480 3 2 6 51 466 490 491 467
481 3 2 6 51 467 491 492 468
482 3 2 6 51 468 492 95 96
483 3 2 6 51 20 21 493 469
484 3 2 6 51 469 493 494 470
485 3 2 6 51 470 494 495 471
486 3 2 6 51 471 495 496 472
487 3 2 6 51 472 496 497 473
488 3 2 6 51 473 497 498 474
489 3 2 6 51 474 498 499 475
490 3 2 6 51 475 499 500 476
491 3 2 6 51 476 500 501 477
492 3 2 6 51 477 501 502 478
493 3 2 6 51 478 502 503 479
494 3 2 6 51 479 503 504 480
495 3 2 6 51 480 504 505 481
496 3 2 6 51 481 505 506 482
497 3 2 6 51 482 506 507 483
498 3 2 6 51 483 507 508 484
499 3 2 6 51 484 508 509 485
500 3 2 6 51 485 509 510 486
501 3 2 6 51 486 510 511 487
502 3 2 6 51 487 511 512 488
503 3 2 6 51 488 512 513 489
504 3 2 6 51 489 513 514 490
505 3 2 6 51 490 514 515 491
506 3 2 6 51 491 515 516 492
507 3 2 6 51 492 516 94 95
508 3 2 6 51 21 22 517 493
509 3 2 6 51 493 517 518 494
510 3 2 6 51 494 518 519 495
511 3 2 6 51 495 519 520 496
512 3 2 6 51 496 520 521 497
513 3 2 6 51 497 521 522 498
514 3 2 6 51 498 522 523 499
515 3 2 6 51 499 523 524 500
516 3 2 6 51 500 524 525 501
517 3 2 6 51 501 525 526 502
518 3 2 6 51 502 526 527 503
519 3 2 6 51 503 527 528 504
520 3 2 6 51 504 528 529 505
521 3 2 6 51 505 529 530 506
522 3 2 6 51 506 530 531 507
523 3 2 6 51 507 531 532 508
524 3 2 6 51 508 532 533 509
525 3 2 6 51 509 533 534 510
526 3 2 6 51 510 534 535 511
527 3 2 6 51 511 535 536 512
528 3 2 6 51 512 536 537 513
529 3 2 6 51 513 537 538 514
530 3 2 6 51 514 538 539 515
531 3 2 6 51 515 539 540 516
532 3 2 6 51 516 540 93 94
533 3 2 6 51 22 23 541 517
534 3 2 6 51 517 541 542 518
535 3 2 6 51 518 542 543 519
536 3 2 6 51 519 543 544 520
537 3 2 6 51 520 544 545 521
538 3 2 6 51 521 545 546 522
539 3 2 6 51 522 546 547 523
540 3 2 6 51 523 547 548 524
541 3 2 6 51 524 548 549 525
542 3 2 6 51 525 549 550 526
543 3 2 6 51 526 550 551 527
544 3 2 6 51 527 551 552 528
545 3 2 6 51 528 552 553 529
546 3 2 6 51 529 553 554 530
547 3 2 6 51 530 554 555 531
548 3 2 6 51 531 555 556 532
549 3 2 6 51 532 556 557 533
550 3 2 6 51 533 557 558 534
551 3 2 6 51 534 558 559 535
552 3 2 6 51 535 559 560 536
553 3 2 6 51 536 560 561 537
554 3 2 6 51 537 561 562 538
555 3 2 6 51 538 562 563 539
556 3 2 6 51 539 563 564 540
557 3 2 6 51 540 564 92 93
558 3 2 6 51 23 24 565 541
559 3 2 6 51 541 565 566 542
560 3 2 6 51 542 566 567 543
561 3 2 6 51 543 567 568 544
562 3 2 6 51 544 568 569 545
563 3 2 6 51 545 569 570 546
564 3 2 6 51 546 570 571 547
565 3 2 6 51 547 571 572 548
566 3 2 6 51 548 572 573 549
567 3 2 6 51 549 573 574 550
568 3 2 6 51 550 574 575 551
569 3 2 6 51 551 575 576 552
570 3 2 6 51 552 576 577 553
571 3 2 6 51 553 577 578 554
572 3 2 6 51 554 578 579 555
573 3 2 6 51 555 579 580 556
574 3 2 6 51 556 580 581 557
575 3 2 6 51 557 581 582 558
576 3 2 6 51 558 582 583 559
577 3 2 6 51 559 583 584 560
578 3 2 6 51 560 584 585 561
579 3 2 6 51 561 585 586 562
580 3 2 6 51 562 586 587 563
581 3 2 6 51 563 587 588 564
582 3 2 6 51 564 588 91 92
583 3 2 6 51 24 25 589 565
584 3 2 6 51 565 589 590 566
585 3 2 6 51 566 590 591 567
586 3 2 6 51 567 591 592 568
587 3 2 6 51 568 592 593 569
588 3 2 6 51 569 593 594 570
589 3 2 6 51 570 594 595 571
590 3 2 6 51 571 595 596 572
591 3 2 6 51 572 596 597 573
592 3 2 6 51 573 597 598 574
593 3 2 6 51 574 598 599 575
594 3 2 6 51 575 599 600 576
595 3 2 6 51 576 600 601 577
596 3 2 6 51 577 601 602 578
597 3 2 6 51 578 602 603 579
598 3 2 6 51 579 603 604 580
599 3 2 6 51 580 604 605 581
600 3 2 6 51 581 605 606 582
601 3 2 6 51 582 606 607 583
602 3 2 6 51 583 607 608 584
603 3 2 6 51 584 608 609 585
604 3 2 6 51 585 609 610 586
605 3 2 6 51 586 610 611 587
606 3 2 6 51 587 611 612 588
607 3 2 6 51 588 612 90 91
608 3 2 6 51 25 26 613 589
609 3 2 6 51 589 613 614 590
610 3 2 6 51 590 614 615 591
611 3 2 6 51 591 615 616 592
612 3 2 6 51 592 616 617 593
613 3 2 6 51 593 617 618 594
614 3 2 6 51 594 618 619 595
615 3 2 6 51 595 619 620 596
616 3 2 6 51 596 620 621 597
617 3 2 6 51 597 621 622 598
618 3 2 6 51 598 622 623 599
619 3 2 6 51 599 623 624 600
620 3 2 6 51 600 624 625 601
621 3 2 6 51 601 625 626 602
622 3 2 6 51 602 626 627 603
623 3 2 6 51 603 627 628 604
624 3 2 6 51 604 628 629 605
625 3 2 6 51 605 629 630 606
626 3 2 6 51 606 630 631 607
627 3 2 6 51 607 631 632 608
628 3 2 6 51 608 632 633 609
629 3 2 6 51 609 633 634 610
630 3 2 6 51 610 634 635 611
631 3 2 6 51 611 635 636 612
632 3 2 6 51 612 636 89 90
633 3 2 6 51 26 27 637 613
634 3 2 6 51 613 637 638 614
635 3 2 6 51 614 638 639 615
636 3 2 6 51 615 639 640 616
637 3 2 6 51 616 640 641 617
638 3 2 6 51 617 641 642 618
639 3 2 6 51 618 642 643 619
640 3 2 6 51 619 643 644 620
641 3 2 6 51 620 644 645 621
642 3 2 6 51 621 645 646 622
643 3 2 6 51 622 646 647 623
644 3 2 6 51 623 647 648 624
645 3 2 6 51 624 648 649 625
646 3 2 6 51 625 649 650 626
647 3 2 6 51 626 650 651 627
648 3 2 6 51 627 651 652 628
649 3 2 6 51 628 652 653 629
650 3 2 6 51 629 653 654 630
651 3 2 6 51 630 654 655 631
652 3 2 6 51 631 655 656 632
653 3 2 6 51 632 656 657 633
654 3 2 6 51 633 657 658 634
655 3 2 6 51 634 658 659 635
656 3 2 6 51 635 659 660 636
657 3 2 6 51 636 660 88 89
658 3 2 6 51 27 28 661 637
659 3 2 6 51 637 661 662 638
660 3 2 6 51 638 662 663 639
661 3 2 6 51 639 663 664 640
662 3 2 6 51 640 664 665 641
663 3 2 6 51 641 665 666 642
664 3 2 6 51 642 666 667 643
665 3 2 6 51 643 667 668 644
666 3 2 6 51 644 668 669 645
667 3 2 6 51 645 669 670 646
668 3 2 6 51 646 670 671 647
669 3 2 6 51 647 671 672 648
670 3 2 6 51 648 672 673 649
671 3 2 6 51 649 673 674 650
672 3 2 6 51 650 674 675 651
673 3 2 6 51 651 675 676 652
674 3 2 6 51 652 676 677 653
675 3 2 6 51 653 677 678 654
676 3 2 6 51 654 678 679 655
677 3 2 6 51 655 679 680 656
678 3 2 6 51 656 680 681 657
679 3 2 6 51 657 681 682 658
680 3 2 6 51 658 682 683 659
681 3 2 6 51 659 683 684 660
682 3 2 6 51 660 684 87 88
683 3 2 6 51 28 29 685 661
684 3 2 6 51 661 685 686 662
685 3 2 6 51 662 686 687 663
686 3 2 6 51 663 687 688 664
687 3 2 6 51 664 688 689 665
688 3 2 6 51 665 689 690 666
689 3 2 6 51 666 690 691 667
690 3 2 6 51 667 691 692 668
691 3 2 6 51 668 692 693 669
692 3 2 6 51 669 693 694 670
693 3 2 6 51 670 694 695 671
694 3 2 6 51 671 695 696 672
695 3 2 6 51 672 696 697 673
696 3 2 6 51 673 697 698 674
697 3 2 6 51 674 698 699 675
698 3 2 6 51 675 699 700 676
699 3 2 6 51 676 700 701 677
700 3 2 6 51 677 701 702 678
701 3 2 6 51 678 702 703 679
702 3 2 6 51 679 703 704 680
703 3 2 6 51 680 704 705 681
704 3 2 6 51 681 705 706 682
705 3 2 6 51 682 706 707 683
706 3 2 6 51 683 707 708 684
707 3 2 6 51 684 708 86 87
708 3 2 6 51 29 30 709 685
709 3 2 6 51 685 709 710 686
710 3 2 6 51 686 710 711 687
711 3 2 6 51 687 711 712 688
712 3 2 6 51 688 712 713 689
713 3 2 6 51 689 713 714 690
714 3 2 6 51 690 714 715 691
715 3 2 6 51 691 715 716 692
716 3 2 6 51 692 716 717 693
717 3 2 6 51 693 717 718 694
718 3 2 6 51 694 718 719 695
719 3 2 6 51 695 719 720 696
720 3 2 6 51 696 720 721 697
721 3 2 6 51 697 721 722 698
722 3 2 6 51 698 722 723 699
723 3 2 6 51 699 723 724 700
724 3 2 6 51 700 724 725 701
725 3 2 6 51 701 725 726 702
726 3 2 6 51 702 726 727 703
727 3 2 6 51 703 727 728 704
728 3 2 6 51 704 728 729 705
729 3 2 6 51 705 729 730 706
730 3 2 6 51 706 730 731 707
731 3 2 6 51 707 731 732 708
732 3 2 6 51 708 732 85 86
733 3 2 6 51 30 2 133 709
734 3 2 6 51 709 133 134 710
735 3 2 6 51 710 134 135 711
736 3 2 6 51 711 135 136 712
737 3 2 6 51 712 136 137 713
738 3 2 6 51 713 137 138 714
739 3 2 6 51 714 138 139 715
740 3 2 6 51 715 139 140 716
741 3 2 6 51 716 140 141 717
742 3 2 6 51 717 141 142 718
743 3 2 6 51 718 142 143 719
744 3 2 6 51 719 143 144 720
745 3 2 6 51 720 144 145 721
746 3 2 6 51 721 145 146 722
747 3 2 6 51 722 146 147 723
748 3 2 6 51 723 147 148 724
749 3 2 6 51 724 148 149 725
750 3 2 6 51 725 149 150 726
751 3 2 6 51 726 150 151 727
752 3 2 6 51 727 151 152 728
753 3 2 6 51 728 152 153 729
754 3 2 6 51 729 153 154 730
755 3 2 6 51 730 154 155 731
756 3 2 6 51 731 155 156 732
757 3 2 6 51 732 156 5 85
758 3 2 6 52 2 31 733 133
759 3 2 6 52 133 733 734 134
760 3 2 6 52 134 734 735 135
761 3 2 6 52 135 735 736 136
762 3 2 6 52 136 736 737 137
763 3 2 6 52 137 737 738 138
764 3 2 6 52 138 738 739 139
765 3 2 6 52 139 739 740 140
766 3 2 6 52 140 740 741 141
767 3 2 6 52 141 741 742 142
768 3 2 6 52 142 742 743 143
769 3 2 6 52 143 743 744 144
770 3 2 6 52 144 744 745 145
771 3 2 6 52 145 745 746 146
772 3 2 6 52 146 746 747 147
773 3 2 6 52 147 747 748 148
774 3 2 6 52 148 748 749 149
775 3 2 6 52 149 749 750 150
776 3 2 6 52 150 750 751 151
777 3 2 6 52 151 751 752 152
778 3 2 6 52 152 752 753 153
779 3 2 6 52 153 753 754 154
780 3 2 6 52 154 754 755 155
781 3 2 6 52 155 755 756 156
782 3 2 6 52 156 756 84 5
783 3 2 6 52 31 32 757 733
784 3 2 6 52 733 757 758 734
785 3 2 6 52 734 758 759 735
786 3 2 6 52 735 759 760 736
787 3 2 6 52 736 760 761 737
788 3 2 6 52 737 761 762 738
789 3 2 6 52 738 762 763 739
790 3 2 6 52 739 763 764 740
791 3 2 6 52 740 764 765 741
792 3 2 6 52 741 765 766 742
793 3 2 6 52 742 766 767 743
794 3 2 6 52 743 767 768 744
795 3 2 6 52 744 768 769 745
796 3 2 6 52 745 769 770 746
797 3 2 6 52 746 770 771 747
798 3 2 6 52 747 771 772 748
799 3 2 6 52 748 772 773 749
800 3 2 6 52 749 773 774 750
801 3 2 6 52 750 774 775 751
802 3 2 6 52 751 775 776 752
803 3 2 6 52 752 776 777 753
804 3 2 6 52 753 777 778 754
805 3 2 6 52 754 778 779 755
806 3 2 6 52 755 779 780 756
807 3 2 6 52 756 780 83 84
808 3 2 6 52 32 33 781 757
809 3 2 6 52 757 781 782 758
810 3 2 6 52 758 782 783 759
811 3 2 6 52 759 783 784 760
812 3 2 6 52 760 784 785 761
813 3 2 6 52 761 785 786 762
814 3 2 6 52 762 786 787 763
815 3 2 6 52 763 787 788 764
816 3 2 6 52 764 788 789 765
817 3 2 6 52 765 789 790 766
818 3 2 6 52 766 790 791 767
819 3 2 6 52 767 791 792 768
820 3 2 6 52 768 792 793 769
821 3 2 6 52 769 793 794 770
822 3 2 6 52 770 794 795 771
823 3 2 6 52 771 795 796 772
824 3 2 6 52 772 796 797 773
825 3 2 6 52 773 797 798 774
826 3 2 6 52 774 798 799 775
827 3 2 6 52 775 799 800 776
828 3 2 6 52 776 800 801 777
829 3 2 6 52 777 801 802 778
830 3 2 6 52 778 802 803 779
831 3 2 6 52 779 803 804 780
832 3 2 6 52 780 804 82 83
833 3 2 6 52 33 34 805 781
834 3 2 6 52 781 805 806 782
835 3 2 6 52 782 806 807 783
836 3 2 6 52 783 807 808 784
837 3 2 6 52 784 808 809 785
838 3 2 6 52 785 809 810 786
839 3 2 6 52 786 810 811 787
840 3 2 6 52 787 811 812 788
841 3 2 6 52 788 812 813 789
842 3 2 6 52 789 813 814 790
843 3 2 6 52 790 814 815 791
844 3 2 6 52 791 815 816 792
845 3 2 6 52 792 816 817 793
846 3 2 6 52 793 817 818 794
847 3 2 6 52 794 818 819 795
848 3 2 6 52 795 819 820 796
849 3 2 6 52 796 820 821 797
850 3 2 6 52 797 821 822 798
851 3 2 6 52 798 822 823 799
852 3 2 6 52 799 823 824 800
853 3 2 6 52 800 824 825 801
854 3 2 6 52 801 825 826 802
855 3 2 6 52 802 826 827 803
856 3 2 6 52 803 827 828 804
857 3 2 6 52 804 828 81 82
858 3 2 6 52 34 35 829 805
859 3 2 6 52 805 829 830 806
860 3 2 6 52 806 830 831 807
861 3 2 6 52 807 831 832 808
862 3 2 6 52 808 832 833 809
863 3 2 6 52 809 833 834 810
864 3 2 6 52 810 834 835 811
865 3 2 6 52 811 835 836 812
866 3 2 6 52 812 836 837 813
867 3 2 6 52 813 837 838 814
868 3 2 6 52 814 838 839 815
869 3 2 6 52 815 839 840 816
870 3 2 6 52 816 840 841 817
871 3 2 6 52 817 841 842 818
872 3 2 6 52 818 842 843 819
873 3 2 6 52 819 843 844 820
874 3 2 6 52 820 844 845 821
875 3 2 6 52 821 845 846 822
876 3 2 6 52 822 846 847 823
877 3 2 6 52 823 847 848 824
878 3 2 6 52 824 848 849 825
879 3 2 6 52 825 849 850 826
880 3 2 6 52 826 850 851 827
881 3 2 6 52 827 851 852 828
882 3 2 6 52 828 852 80 81
883 3 2 6 52 35 36 853 829
884 3 2 6 52 829 853 854 830
885 3 2 6 52 830 854 855 831
886 3 2 6 52 831 855 856 832
887 3 2 6 52 832 856 857 833
888 3 2 6 52 833 857 858 834
889 3 2 6 52 834 858 859 835
890 3 2 6 52 835 859 860 836
891 3 2 6 52 836 860 861 837
892 3 2 6 52 837 861 862 838
893 3 2 6 52 838 862 863 839
894 3 2 6 52 839 863 864 840
895 3 2 6 52 840 864 865 841
896 3 2 6 52 841 865 866 842
897 3 2 6 52 842 866 867 843
898 3 2 6 52 843 867 868 844
899 3 2 6 52 844 868 869 845
900 3 2 6 52 845 869 870 846
901 3 2 6 52 846 870 871 847
902 3 2 6 52 847 871 872 848
903 3 2 6 52 848 872 873 849
904 3 2 6 52 849 873 874 850
905 3 2 6 52 850 874 875 851
906 3 2 6 52 851 875 876 852
907 3 2 6 52 852 876 79 80
908 3 2 6 52 36 37 877 853
909 3 2 6 52 853 877 878 854
910 3 2 6 52 854 878 879 855
911 3 2 6 52 855 879 880 856
912 3 2 6 52 856 880 881 857
913 3 2 6 52 857 881 882 858
914 3 2 6 52 858 882 883 859
915 3 2 6 52 859 883 884 860
916 3 2 6 52 860 884 885 861
917 3 2 6 52 861 885 886 862
918 3 2 6 52 862 886 887 863
919 3 2 6 52 863 887 888 864
920 3 2 6 52 864 888 889 865
921 3 2 6 52 865 889 890 866
922 3 2 6 52 866 890 891 867
923 3 2 6 52 867 891 892 868
924 3 2 6 52 868 892 893 869
925 3 2 6 52 869 893 894 870
926 3 2 6 52 870 894 895 871
927 3 2 6 52 871 895 896 872
928 3 2 6 52 872 896 897 873
929 3 2 6 52 873 897 898 874
930 3 2 6 52 874 898 899 875
931 3 2 6 52 875 899 900 876
932 3 2 6 52 876 900 78 79
933 3 2 6 52 37 38 901 877
934 3 2 6 52 877 901 902 878
935 3 2 6 52 878 902 903 879
936 3 2 6 52 879 903 904 880
937 3 2 6 52 880 904 905 881
938 3 2 6 52 881 905 906 882
939 3 2 6 52 882 906 907 883
940 3 2 6 52 883 907 908 884
941 3 2 6 52 884 908 909 885
942 3 2 6 52 885 909 910 886
943 3 2 6 52 886 910 911 887
944 3 2 6 52 887 911 912 888
945 3 2 6 52 888 912 913 889
946 3 2 6 52 889 913 914 890
947 3 2 6 52 890 914 915 891
948 3 2 6 52 891 915 916 892
949 3 2 6 52 892 916 917 893
950 3 2 6 52 893 917 918 894
951 3 2 6 52 894 918 919 895
952 3 2 6 52 895 919 920 896
953 3 2 6 52 896 920 921 897
954 3 2 6 52 897 921 922 898
955 3 2 6 52 898 922 923 899
956 3 2 6 52 899 923 924 900
957 3 2 6 52 900 924 77 78
958 3 2 6 52 38 39 925 901
959 3 2 6 52 901 925 926 902
960 3 2 6 52 902 926 927 903
961 3 2 6 52 903 927 928 904
962 3 2 6 52 904 928 929 905
963 3 2 6 52 905 929 930 906
964 3 2 6 52 906 930 931 907
965 3 2 6 52 907 931 932 908
966 3 2 6 52 908 932 933 909
967 3 2 6 52 909 933 934 910
968 3 2 6 52 910 934 935 911
969 3 2 6 52 911 935 936 912
970 3 2 6 52 912 936 937 913
971 3 2 6 52 913 937 938 914
972 3 2 6 52 914 938 939 915
973 3 2 6 52 915 939 940 916
974 3 2 6 52 916 940 941 917
975 3 2 6 52 917 941 942 918
976 3 2 6 52 918 942 943 919
977 3 2 6 52 919 943 944 920
978 3 2 6 52 920 944 945 921
979 3 2 6 52 921 945 946 922
980 3 2 6 52 922 946 947 923
981 3 2 6 52 923 947 948 924
982 3 2 6 52 924 948 76 77
983 3 2 6 52 39 40 949 925
984 3 2 6 52 925 949 950 926
985 3 2 6 52 926 950 951 927
986 3 2 6 52 927 951 952 928
987 3 2 6 52 928 952 953 929
988 3 2 6 52 929 953 954 930
989 3 2 6 52 930 954 955 931
990 3 2 6 52 931 955 956 932
991 3 2 6 52 932 956 957 933
992 3 2 6 52 933 957 958 934
993 3 2 6 52 934 958 959 935
994 3 2 6 52 935 959 960 936
995 3 2 6 52 936 960 961 937
996 3 2 6 52 937 961 962 938
997 3 2 6 52 938 962 963 939
998 3 2 6 52 939 963 964 940
999 3 2 6 52 940 964 965 941
1000 3 2 6 52 941 965 966 942
1001 3 2 6 52 942 966 967 943
1002 3 2 6 52 943 967 968 944
1003 3 2 6 52 944 968 969 945
1004 3 2 6 52 945 969 970 946
1005 3 2 6 52 946 970 971 947
1006 3 2 6 52 947 971 972 948
1007 3 2 6 52 948 972 75 76
1008 3 2 6 52 40 41 973 949
1009 3 2 6 52 949 973 974 950
1010 3 2 6 52 950 974 975 951
1011 3 2 6 52 951 975 976 952
1012 3 2 6 52 952 976 977 953
1013 3 2 6 52 953 977 978 954
1014 3 2 6 52 954 978 979 955
1015 3 2 6 52 955 979 980 956
1016 3 2 6 52 956 980 981 957
1017 3 2 6 52 957 981 982 958
1018 3 2 6 52 958 982 983 959
1019 3 2 6 52 959 983 984 960
1020 3 2 6 52 960 984 985 961
1021 3 2 6 52 961 985 986 962
1022 3 2 6 52 962 986 987 963
1023 3 2 6 52 963 987 988 964
1024 3 2 6 52 964 988 989 965
1025 3 2 6 52 965 989 990 966
1026 3 2 6 52 966 990 991 967
1027 3 2 6 52 967 991 992 968
1028 3 2 6 52 968 992 993 969
1029 3 2 6 52 969 993 994 970
1030 3 2 6 52 970 994 995 971
1031 3 2 6 52 971 995 996 972
1032 3 2 6 52 972 996 74 75
1033 3 2 6 52 41 42 997 973
1034 3 2 6 52 973 997 998 974
1035 3 2 6 52 974 998 999 975
1036 3 2 6 52 975 999 1000 976
1037 3 2 6 52 976 1000 1001 977
1038 3 2 6 52 977 1001 1002 978
1039 3 2 6 52 978 1002 1003 979
1040 3 2 6 52 979 1003 1004 980
1041 3 2 6 52 980 1004 1005 981
1042 3 2 6 52 981 1005 1006 982
1043 3 2 6 52 982 1006 1007 983
1044 3 2 6 52 983 1007 1008 984
1045 3 2 6 52 984 1008 1009 985
1046 3 2 6 52 985 1009 1010 986
1047 3 2 6 52 986 1010 1011 987
1048 3 2 6 52 987 1011 1012 988
1049 3 2 6 52 988 1012 1013 989
1050 3 2 6 52 989 1013 1014 990
1051 3 2 6 52 990 1014 1015 991
1052 3 2 6 52 991 1015 1016 992
1053 3 2 6 52 992 1016 1017 993
1054 3 2 6 52 993 1017 1018 994
1055 3 2 6 52 994 1018 1019 995
1056 3 2 6 52 995 1019 1020 996
1057 3 2 6 52 996 1020 73 74
1058 3 2 6 52 42 43 1021 997
1059 3 2 6 52 997 1021 1022 998
1060 3 2 6 52 998 1022 1023 999
1061 3 2 6 52 999 1023 1024 1000
1062 3 2 6 52 1000 1024 1025 1001
1063 3 2 6 52 1001 1025 1026 1002
1064 3 2 6 52 1002 1026 1027 1003
1065 3 2 6 52 1003 1027 1028 1004
1066 3 2 6 52 1004 1028 1029 1005
1067 3 2 6 52 1005 1029 1030 1006
1068 3 2 6 52 1006 1030 1031 1007
1069 3 2 6 52 1007 1031 1032 1008
1070 3 2 6 52 1008 1032 1033 1009
1071 3 2 6 52 1009 1033 1034 1010
1072 3 2 6 52 1010 1034 1035 1011
1073 3 2 6 52 1011 1035 1036 1012
1074 3 2 6 52 1012 1036 1037 1013
1075 3 2 6 52 1013 1037 1038 1014
1076 3 2 6 52 1014 1038 1039 1015
1077 3 2 6 52 1015 1039 1040 1016
1078 3 2 6 52 1016 1040 1041 1017
1079 3 2 6 52 1017 1041 1042 1018
1080 3 2 6 52 1018 1042 1043 1019
1081 3 2 6 52 1019 1043 1044 1020
1082 3 2 6 52 1020 1044 72 73
1083 3 2 6 52 43 44 1045 1021
1084 3 2 6 52 1021 1045 1046 1022
1085 3 2 6 52 1022 1046 1047 1023
1086 3 2 6 52 1023 1047 1048 1024
1087 3 2 6 52 1024 1048 1049 1025
1088 3 2 6 52 1025 1049 1050 1026
1089 3 2 6 52 1026 1050 1051 1027
1090 3 2 6 52 1027 1051 1052 1028
1091 3 2 6 52 1028 1052 1053 1029
1092 3 2 6 52 1029 1053 1054 1030
1093 3 2 6 52 1030 1054 1055 1031
1094 3 2 6 52 1031 1055 1056 1032
1095 3 2 6 52 1032 1056 1057 1033
1096 3 2 6 52 1033 1057 1058 1034
1097 3 2 6 52 1034 1058 1059 1035
1098 3 2 6 52 1035 1059 1060 1036
1099 3 2 6 52 1036 1060 1061 1037
1100 3 2 6 52 1037 1061 1062 1038
1101 3 2 6 52 1038 1062 1063 1039
1102 3 2 6 52 1039 1063 1064 1040
1103 3 2 6 52 1040 1064 1065 1041
1104 3 2 6 52 1041 1065 1066 1042
1105 3 2 6 52 1042 1066 1067 1043
1106 3 2 6 52 1043 1067 1068 1044
1107 3 2 6 52 1044 1068 71 72
1108 3 2 6 52 44 45 1069 1045
1109 3 2 6 52 1045 1069 1070 1046
1110 3 2 6 52 1046 1070 1071 1047
1111 3 2 6 52 1047 1071 1072 1048
1112 3 2 6 52 1048 1072 1073 1049
1113 3 2 6 52 1049 1073 1074 1050
1114 3 2 6 52 1050 1074 1075 1051
1115 3 2 6 52 1051 1075 1076 1052
1116 3 2 6 52 1052 1076 1077 1053
1117 3 2 6 52 1053 1077 1078 1054
1118 3 2 6 52 1054 1078 1079 1055
1119 3 2 6 52 1055 1079 1080 1056
1120 3 2 6 52 1056 1080 1081 1057
1121 3 2 6 52 1057 1081 1082 1058
1122 3 2 6 52 1058 1082 1083 1059
1123 3 2 6 52 1059 1083 1084 1060
1124 3 2 6 52 1060 1084 1085 1061
1125 3 2 6 52 1061 1085 1086 1062
1126 3 2 6 52 1062 1086 1087 1063
1127 3 2 6 52 1063 1087 1088 1064
1128 3 2 6 52 1064 1088 1089 1065
1129 3 2 6 52 1065 1089 1090 1066
1130 3 2 6 52 1066 1090 1091 1067
1131 3 2 6 52 1067 1091 1092 1068
1132 3 2 6 52 1068 1092 70 71
1133 3 2 6 52 45 3 46 1069
1134 3 2 6 52 1069 46 47 1070
1135 3 2 6 52 1070 47 48 1071
1136 3 2 6 52 1071 48 49 1072
1137 3 2 6 52 1072 49 50 1073
1138 3 2 6 52 1073 50 51 1074
1139 3 2 6 52 1074 51 52 1075
1140 3 2 6 52 1075 52 53 1076
1141 3 2 6 52 1076 53 54 1077
1142 3 2 6 52 1077 54 55 1078
1143 3 2 6 52 1078 55 56 1079
1144 3 2 6 52 1079 56 57 1080
1145 3 2 6 52 1080 57 58 1081
1146 3 2 6 52 1081 58 59 1082
1147 3 2 6 52 1082 59 60 1083
1148 3 2 6 52 1083 60 61 1084
1149 3 2 6 52 1084 61 62 1085
1150 3 2 6 52 1085 62 63 1086
1151 3 2 6 52 1086 63 64 1087
1152 3 2 6 52 1087 64 65 1088
1153 3 2 6 52 1088 65 66 1089
1154 3 2 6 52 1089 66 67 1090
1155 3 2 6 52 1090 67 68 1091
1156 3 2 6 52 1091 68 69 1092
1157 3 2 6 52 1092 69 4 70
$EndElements
