{
    "authors": [
        "gerard.guillamet@bsc.es"
    ],
    "comparisons": [
        {
            "file": "ssh_cylinder3d_combload_expl_vect.ensi.DISPL-000004",
            "method": "absolute",
            "tolerance": 1e-9
        },
        {
            "file": "ssh_cylinder3d_combload_expl_vect-boundary.sld.set",
            "method": "absolute",
            "tolerance": 1e-6
        },
        {
            "file": "ssh_cylinder3d_combload_expl_vect-node.sld.set",
            "method": "power",
            "tolerance": 8
        }
    ],
    "description": "Curved plate under combined load of pressure and compression with multiple local axes. Explicit analysis.",
    "exclude": [
        "special"
    ],
    "executions": [
        {
            "mpi": 5,
            "openmp": 0
        }
    ],
    "modules": [
        "solidz"
    ],
    "name": "ssh_cylinder3d_combload_expl_vect",
    "postprocess": "alya2pos"
}
