$MeshFormat
2.2 0 8
$EndMeshFormat
$PhysicalNames
7
2 1 "top"
2 2 "bottom"
2 3 "front"
2 4 "back"
2 5 "left"
2 6 "right"
3 7 "fluid"
$EndPhysicalNames
$Nodes
729
1 0 0 0
2 1 0 0
3 1 1 0
4 0 1 0
5 0 0 1
6 1 0 1
7 1 1 1
8 0 1 1
9 0.2499999999994109 0 0
10 0.4999999999986921 0 0
11 0.7499999999993406 0 0
12 0.1249999999997055 0 0
13 0.3749999999990515 0 0
14 0.6249999999990163 0 0
15 0.8749999999996703 0 0
16 1 0.2499999999994109 0
17 1 0.4999999999986921 0
18 1 0.7499999999993406 0
19 1 0.1249999999997055 0
20 1 0.3749999999990515 0
21 1 0.6249999999990163 0
22 1 0.8749999999996703 0
23 0.7500000000003471 1 0
24 0.5000000000020595 1 0
25 0.2500000000010405 1 0
26 0.8750000000001735 1 0
27 0.6250000000012033 1 0
28 0.37500000000155 1 0
29 0.1250000000005203 1 0
30 0 0.7500000000003471 0
31 0 0.5000000000020595 0
32 0 0.2500000000010405 0
33 0 0.8750000000001735 0
34 0 0.6250000000012033 0
35 0 0.37500000000155 0
36 0 0.1250000000005203 0
37 0.2499999999994109 0 1
38 0.4999999999986921 0 1
39 0.7499999999993406 0 1
40 0.1249999999997055 0 1
41 0.3749999999990515 0 1
42 0.6249999999990163 0 1
43 0.8749999999996703 0 1
44 1 0.2499999999994109 1
45 1 0.4999999999986921 1
46 1 0.7499999999993406 1
47 1 0.1249999999997055 1
48 1 0.3749999999990515 1
49 1 0.6249999999990163 1
50 1 0.8749999999996703 1
51 0.7500000000003471 1 1
52 0.5000000000020595 1 1
53 0.2500000000010405 1 1
54 0.8750000000001735 1 1
55 0.6250000000012033 1 1
56 0.37500000000155 1 1
57 0.1250000000005203 1 1
58 0 0.7500000000003471 1
59 0 0.5000000000020595 1
60 0 0.2500000000010405 1
61 0 0.8750000000001735 1
62 0 0.6250000000012033 1
63 0 0.37500000000155 1
64 0 0.1250000000005203 1
65 0 0 0.25
66 0 0 0.5
67 0 0 0.75
68 0 0 0.125
69 0 0 0.375
70 0 0 0.625
71 0 0 0.875
72 1 0 0.25
73 1 0 0.5
74 1 0 0.75
75 1 0 0.125
76 1 0 0.375
77 1 0 0.625
78 1 0 0.875
79 1 1 0.25
80 1 1 0.5
81 1 1 0.75
82 1 1 0.125
83 1 1 0.375
84 1 1 0.625
85 1 1 0.875
86 0 1 0.25
87 0 1 0.5
88 0 1 0.75
89 0 1 0.125
90 0 1 0.375
91 0 1 0.625
92 0 1 0.875
93 0.2499999999998183 0.250000000000633 0
94 0.2500000000002257 0.5000000000012177 0
95 0.2500000000006332 0.7500000000000954 0
96 0.499999999999534 0.2500000000002257 0
97 0.5000000000003758 0.5000000000003758 0
98 0.5000000000012177 0.7499999999998439 0
99 0.7499999999995923 0.2499999999998184 0
100 0.7499999999998439 0.499999999999534 0
101 0.7500000000000953 0.7499999999995921 0
102 0.1249999999997055 0.1250000000005203 0
103 0.2499999999996146 0.1250000000003165 0
104 0.1249999999999092 0.2500000000008368 0
105 0.1249999999999092 0.3750000000013463 0
106 0.250000000000022 0.3750000000009254 0
107 0.1250000000001129 0.5000000000016386 0
108 0.1250000000001129 0.6250000000007824 0
109 0.2500000000004294 0.6250000000006566 0
110 0.1250000000003166 0.7500000000002212 0
111 0.1250000000003166 0.8750000000000477 0
112 0.2500000000008368 0.8750000000000477 0
113 0.3749999999992552 0.1250000000003165 0
114 0.499999999999113 0.1250000000001129 0
115 0.3749999999996761 0.2500000000004293 0
116 0.3749999999998799 0.3750000000007217 0
117 0.4999999999999549 0.3750000000003008 0
118 0.3750000000003008 0.5000000000007967 0
119 0.3750000000005045 0.6250000000002356 0
120 0.5000000000007967 0.6250000000001099 0
121 0.3750000000009254 0.7499999999999696 0
122 0.3750000000011291 0.874999999999922 0
123 0.5000000000016386 0.874999999999922 0
124 0.6249999999994373 0.1250000000001129 0
125 0.7499999999994664 0.1249999999999092 0
126 0.6249999999995631 0.250000000000022 0
127 0.624999999999984 0.3750000000000971 0
128 0.7499999999997181 0.3749999999996762 0
129 0.6250000000001099 0.4999999999999549 0
130 0.6250000000005308 0.6249999999996889 0
131 0.7499999999999696 0.624999999999563 0
132 0.6250000000006565 0.749999999999718 0
133 0.6250000000010774 0.8749999999997961 0
134 0.7500000000002212 0.8749999999997961 0
135 0.8749999999997962 0.1249999999999092 0
136 0.8749999999997962 0.2499999999996146 0
137 0.874999999999922 0.3749999999994725 0
138 0.874999999999922 0.499999999999113 0
139 0.8750000000000476 0.6249999999991421 0
140 0.8750000000000476 0.7499999999994664 0
141 0.8750000000001735 0.8749999999996703 0
142 0.2499999999994109 0 0.25
143 0.2499999999994109 0 0.5
144 0.2499999999994109 0 0.75
145 0.4999999999986921 0 0.25
146 0.4999999999986921 0 0.5
147 0.4999999999986921 0 0.75
148 0.7499999999993406 0 0.25
149 0.7499999999993406 0 0.5
150 0.7499999999993406 0 0.75
151 0.2499999999994109 0 0.125
152 0.1249999999997055 0 0.25
153 0.1249999999997055 0 0.125
154 0.2499999999994109 0 0.375
155 0.1249999999997055 0 0.5
156 0.1249999999997055 0 0.375
157 0.2499999999994109 0 0.625
158 0.1249999999997055 0 0.75
159 0.1249999999997055 0 0.625
160 0.2499999999994109 0 0.875
161 0.1249999999997055 0 0.875
162 0.4999999999986921 0 0.125
163 0.3749999999990515 0 0.25
164 0.3749999999990515 0 0.125
165 0.4999999999986921 0 0.375
166 0.3749999999990515 0 0.5
167 0.3749999999990515 0 0.375
168 0.4999999999986921 0 0.625
169 0.3749999999990515 0 0.75
170 0.3749999999990515 0 0.625
171 0.4999999999986921 0 0.875
172 0.3749999999990515 0 0.875
173 0.7499999999993406 0 0.125
174 0.6249999999990163 0 0.25
175 0.6249999999990163 0 0.125
176 0.7499999999993406 0 0.375
177 0.6249999999990163 0 0.5
178 0.6249999999990163 0 0.375
179 0.7499999999993406 0 0.625
180 0.6249999999990163 0 0.75
181 0.6249999999990163 0 0.625
182 0.7499999999993406 0 0.875
183 0.6249999999990163 0 0.875
184 0.8749999999996703 0 0.25
185 0.8749999999996703 0 0.125
186 0.8749999999996703 0 0.5
187 0.8749999999996703 0 0.375
188 0.8749999999996703 0 0.75
189 0.8749999999996703 0 0.625
190 0.8749999999996703 0 0.875
191 1 0.2499999999994109 0.25
192 1 0.2499999999994109 0.5
193 1 0.2499999999994109 0.75
194 1 0.4999999999986921 0.25
195 1 0.4999999999986921 0.5
196 1 0.4999999999986921 0.75
197 1 0.7499999999993406 0.25
198 1 0.7499999999993406 0.5
199 1 0.7499999999993406 0.75
200 1 0.2499999999994109 0.125
201 1 0.1249999999997055 0.25
202 1 0.1249999999997055 0.125
203 1 0.2499999999994109 0.375
204 1 0.1249999999997055 0.5
205 1 0.1249999999997055 0.375
206 1 0.2499999999994109 0.625
207 1 0.1249999999997055 0.75
208 1 0.1249999999997055 0.625
209 1 0.2499999999994109 0.875
210 1 0.1249999999997055 0.875
211 1 0.4999999999986921 0.125
212 1 0.3749999999990515 0.25
213 1 0.3749999999990515 0.125
214 1 0.4999999999986921 0.375
215 1 0.3749999999990515 0.5
216 1 0.3749999999990515 0.375
217 1 0.4999999999986921 0.625
218 1 0.3749999999990515 0.75
219 1 0.3749999999990515 0.625
220 1 0.4999999999986921 0.875
221 1 0.3749999999990515 0.875
222 1 0.7499999999993406 0.125
223 1 0.6249999999990163 0.25
224 1 0.6249999999990163 0.125
225 1 0.7499999999993406 0.375
226 1 0.6249999999990163 0.5
227 1 0.6249999999990163 0.375
228 1 0.7499999999993406 0.625
229 1 0.6249999999990163 0.75
230 1 0.6249999999990163 0.625
231 1 0.7499999999993406 0.875
232 1 0.6249999999990163 0.875
233 1 0.8749999999996703 0.25
234 1 0.8749999999996703 0.125
235 1 0.8749999999996703 0.5
236 1 0.8749999999996703 0.375
237 1 0.8749999999996703 0.75
238 1 0.8749999999996703 0.625
239 1 0.8749999999996703 0.875
240 0.7500000000003471 1 0.25
241 0.7500000000003471 1 0.5
242 0.7500000000003471 1 0.75
243 0.5000000000020595 1 0.25
244 0.5000000000020595 1 0.5
245 0.5000000000020595 1 0.75
246 0.2500000000010405 1 0.25
247 0.2500000000010405 1 0.5
248 0.2500000000010405 1 0.75
249 0.7500000000003471 1 0.125
250 0.8750000000001735 1 0.25
251 0.8750000000001735 1 0.125
252 0.7500000000003471 1 0.375
253 0.8750000000001735 1 0.5
254 0.8750000000001735 1 0.375
255 0.7500000000003471 1 0.625
256 0.8750000000001735 1 0.75
257 0.8750000000001735 1 0.625
258 0.7500000000003471 1 0.875
259 0.8750000000001735 1 0.875
260 0.5000000000020595 1 0.125
261 0.6250000000012033 1 0.25
262 0.6250000000012033 1 0.125
263 0.5000000000020595 1 0.375
264 0.6250000000012033 1 0.5
265 0.6250000000012033 1 0.375
266 0.5000000000020595 1 0.625
267 0.6250000000012033 1 0.75
268 0.6250000000012033 1 0.625
269 0.5000000000020595 1 0.875
270 0.6250000000012033 1 0.875
271 0.2500000000010405 1 0.125
272 0.37500000000155 1 0.25
273 0.37500000000155 1 0.125
274 0.2500000000010405 1 0.375
275 0.37500000000155 1 0.5
276 0.37500000000155 1 0.375
277 0.2500000000010405 1 0.625
278 0.37500000000155 1 0.75
279 0.37500000000155 1 0.625
280 0.2500000000010405 1 0.875
281 0.37500000000155 1 0.875
282 0.1250000000005203 1 0.25
283 0.1250000000005203 1 0.125
284 0.1250000000005203 1 0.5
285 0.1250000000005203 1 0.375
286 0.1250000000005203 1 0.75
287 0.1250000000005203 1 0.625
288 0.1250000000005203 1 0.875
289 0 0.7500000000003471 0.25
290 0 0.7500000000003471 0.5
291 0 0.7500000000003471 0.75
292 0 0.5000000000020595 0.25
293 0 0.5000000000020595 0.5
294 0 0.5000000000020595 0.75
295 0 0.2500000000010405 0.25
296 0 0.2500000000010405 0.5
297 0 0.2500000000010405 0.75
298 0 0.7500000000003471 0.125
299 0 0.8750000000001735 0.25
300 0 0.8750000000001735 0.125
301 0 0.7500000000003471 0.375
302 0 0.8750000000001735 0.5
303 0 0.8750000000001735 0.375
304 0 0.7500000000003471 0.625
305 0 0.8750000000001735 0.75
306 0 0.8750000000001735 0.625
307 0 0.7500000000003471 0.875
308 0 0.8750000000001735 0.875
309 0 0.5000000000020595 0.125
310 0 0.6250000000012033 0.25
311 0 0.6250000000012033 0.125
312 0 0.5000000000020595 0.375
313 0 0.6250000000012033 0.5
314 0 0.6250000000012033 0.375
315 0 0.5000000000020595 0.625
316 0 0.6250000000012033 0.75
317 0 0.6250000000012033 0.625
318 0 0.5000000000020595 0.875
319 0 0.6250000000012033 0.875
320 0 0.2500000000010405 0.125
321 0 0.37500000000155 0.25
322 0 0.37500000000155 0.125
323 0 0.2500000000010405 0.375
324 0 0.37500000000155 0.5
325 0 0.37500000000155 0.375
326 0 0.2500000000010405 0.625
327 0 0.37500000000155 0.75
328 0 0.37500000000155 0.625
329 0 0.2500000000010405 0.875
330 0 0.37500000000155 0.875
331 0 0.1250000000005203 0.25
332 0 0.1250000000005203 0.125
333 0 0.1250000000005203 0.5
334 0 0.1250000000005203 0.375
335 0 0.1250000000005203 0.75
336 0 0.1250000000005203 0.625
337 0 0.1250000000005203 0.875
338 0.2499999999998183 0.250000000000633 1
339 0.2500000000002257 0.5000000000012177 1
340 0.2500000000006332 0.7500000000000954 1
341 0.499999999999534 0.2500000000002257 1
342 0.5000000000003758 0.5000000000003758 1
343 0.5000000000012177 0.7499999999998439 1
344 0.7499999999995923 0.2499999999998184 1
345 0.7499999999998439 0.499999999999534 1
346 0.7500000000000953 0.7499999999995921 1
347 0.1249999999997055 0.1250000000005203 1
348 0.2499999999996146 0.1250000000003165 1
349 0.1249999999999092 0.2500000000008368 1
350 0.1249999999999092 0.3750000000013463 1
351 0.250000000000022 0.3750000000009254 1
352 0.1250000000001129 0.5000000000016386 1
353 0.1250000000001129 0.6250000000007824 1
354 0.2500000000004294 0.6250000000006566 1
355 0.1250000000003166 0.7500000000002212 1
356 0.1250000000003166 0.8750000000000477 1
357 0.2500000000008368 0.8750000000000477 1
358 0.3749999999992552 0.1250000000003165 1
359 0.499999999999113 0.1250000000001129 1
360 0.3749999999996761 0.2500000000004293 1
361 0.3749999999998799 0.3750000000007217 1
362 0.4999999999999549 0.3750000000003008 1
363 0.3750000000003008 0.5000000000007967 1
364 0.3750000000005045 0.6250000000002356 1
365 0.5000000000007967 0.6250000000001099 1
366 0.3750000000009254 0.7499999999999696 1
367 0.3750000000011291 0.874999999999922 1
368 0.5000000000016386 0.874999999999922 1
369 0.6249999999994373 0.1250000000001129 1
370 0.7499999999994664 0.1249999999999092 1
371 0.6249999999995631 0.250000000000022 1
372 0.624999999999984 0.3750000000000971 1
373 0.7499999999997181 0.3749999999996762 1
374 0.6250000000001099 0.4999999999999549 1
375 0.6250000000005308 0.6249999999996889 1
376 0.7499999999999696 0.624999999999563 1
377 0.6250000000006565 0.749999999999718 1
378 0.6250000000010774 0.8749999999997961 1
379 0.7500000000002212 0.8749999999997961 1
380 0.8749999999997962 0.1249999999999092 1
381 0.8749999999997962 0.2499999999996146 1
382 0.874999999999922 0.3749999999994725 1
383 0.874999999999922 0.499999999999113 1
384 0.8750000000000476 0.6249999999991421 1
385 0.8750000000000476 0.7499999999994664 1
386 0.8750000000001735 0.8749999999996703 1
387 0.2499999999998183 0.250000000000633 0.25
388 0.2499999999998183 0.250000000000633 0.5
389 0.2499999999998183 0.250000000000633 0.75
390 0.2500000000002257 0.5000000000012177 0.25
391 0.2500000000002257 0.5000000000012177 0.5
392 0.2500000000002257 0.5000000000012177 0.75
393 0.2500000000006332 0.7500000000000954 0.25
394 0.2500000000006332 0.7500000000000954 0.5
395 0.2500000000006332 0.7500000000000954 0.75
396 0.499999999999534 0.2500000000002257 0.25
397 0.499999999999534 0.2500000000002257 0.5
398 0.499999999999534 0.2500000000002257 0.75
399 0.5000000000003758 0.5000000000003758 0.25
400 0.5000000000003758 0.5000000000003758 0.5
401 0.5000000000003758 0.5000000000003758 0.75
402 0.5000000000012177 0.7499999999998439 0.25
403 0.5000000000012177 0.7499999999998439 0.5
404 0.5000000000012177 0.7499999999998439 0.75
405 0.7499999999995923 0.2499999999998184 0.25
406 0.7499999999995923 0.2499999999998184 0.5
407 0.7499999999995923 0.2499999999998184 0.75
408 0.7499999999998439 0.499999999999534 0.25
409 0.7499999999998439 0.499999999999534 0.5
410 0.7499999999998439 0.499999999999534 0.75
411 0.7500000000000953 0.7499999999995921 0.25
412 0.7500000000000953 0.7499999999995921 0.5
413 0.7500000000000953 0.7499999999995921 0.75
414 0.1249999999997055 0.1250000000005203 0.25
415 0.1249999999997055 0.1250000000005203 0.125
416 0.1249999999997055 0.1250000000005203 0.5
417 0.1249999999997055 0.1250000000005203 0.375
418 0.1249999999997055 0.1250000000005203 0.75
419 0.1249999999997055 0.1250000000005203 0.625
420 0.1249999999997055 0.1250000000005203 0.875
421 0.2499999999998183 0.250000000000633 0.125
422 0.1249999999999092 0.2500000000008368 0.25
423 0.2499999999996146 0.1250000000003165 0.25
424 0.1249999999999092 0.2500000000008368 0.125
425 0.2499999999996146 0.1250000000003165 0.125
426 0.2499999999998183 0.250000000000633 0.375
427 0.1249999999999092 0.2500000000008368 0.5
428 0.2499999999996146 0.1250000000003165 0.5
429 0.1249999999999092 0.2500000000008368 0.375
430 0.2499999999996146 0.1250000000003165 0.375
431 0.2499999999998183 0.250000000000633 0.625
432 0.1249999999999092 0.2500000000008368 0.75
433 0.2499999999996146 0.1250000000003165 0.75
434 0.1249999999999092 0.2500000000008368 0.625
435 0.2499999999996146 0.1250000000003165 0.625
436 0.2499999999998183 0.250000000000633 0.875
437 0.1249999999999092 0.2500000000008368 0.875
438 0.2499999999996146 0.1250000000003165 0.875
439 0.1249999999999092 0.3750000000013463 0.25
440 0.1249999999999092 0.3750000000013463 0.125
441 0.1249999999999092 0.3750000000013463 0.5
442 0.1249999999999092 0.3750000000013463 0.375
443 0.1249999999999092 0.3750000000013463 0.75
444 0.1249999999999092 0.3750000000013463 0.625
445 0.1249999999999092 0.3750000000013463 0.875
446 0.2500000000002257 0.5000000000012177 0.125
447 0.1250000000001129 0.5000000000016386 0.25
448 0.250000000000022 0.3750000000009254 0.25
449 0.1250000000001129 0.5000000000016386 0.125
450 0.250000000000022 0.3750000000009254 0.125
451 0.2500000000002257 0.5000000000012177 0.375
452 0.1250000000001129 0.5000000000016386 0.5
453 0.250000000000022 0.3750000000009254 0.5
454 0.1250000000001129 0.5000000000016386 0.375
455 0.250000000000022 0.3750000000009254 0.375
456 0.2500000000002257 0.5000000000012177 0.625
457 0.1250000000001129 0.5000000000016386 0.75
458 0.250000000000022 0.3750000000009254 0.75
459 0.1250000000001129 0.5000000000016386 0.625
460 0.250000000000022 0.3750000000009254 0.625
461 0.2500000000002257 0.5000000000012177 0.875
462 0.1250000000001129 0.5000000000016386 0.875
463 0.250000000000022 0.3750000000009254 0.875
464 0.1250000000001129 0.6250000000007824 0.25
465 0.1250000000001129 0.6250000000007824 0.125
466 0.1250000000001129 0.6250000000007824 0.5
467 0.1250000000001129 0.6250000000007824 0.375
468 0.1250000000001129 0.6250000000007824 0.75
469 0.1250000000001129 0.6250000000007824 0.625
470 0.1250000000001129 0.6250000000007824 0.875
471 0.2500000000006332 0.7500000000000954 0.125
472 0.1250000000003166 0.7500000000002212 0.25
473 0.2500000000004294 0.6250000000006566 0.25
474 0.1250000000003166 0.7500000000002213 0.125
475 0.2500000000004294 0.6250000000006566 0.125
476 0.2500000000006332 0.7500000000000954 0.375
477 0.1250000000003166 0.7500000000002212 0.5
478 0.2500000000004294 0.6250000000006566 0.5
479 0.1250000000003166 0.7500000000002213 0.375
480 0.2500000000004294 0.6250000000006566 0.375
481 0.2500000000006332 0.7500000000000954 0.625
482 0.1250000000003166 0.7500000000002212 0.75
483 0.2500000000004294 0.6250000000006566 0.75
484 0.1250000000003166 0.7500000000002213 0.625
485 0.2500000000004294 0.6250000000006566 0.625
486 0.2500000000006332 0.7500000000000954 0.875
487 0.1250000000003166 0.7500000000002213 0.875
488 0.2500000000004294 0.6250000000006566 0.875
489 0.1250000000003166 0.8750000000000477 0.25
490 0.1250000000003166 0.8750000000000477 0.125
491 0.1250000000003166 0.8750000000000477 0.5
492 0.1250000000003166 0.8750000000000477 0.375
493 0.1250000000003166 0.8750000000000477 0.75
494 0.1250000000003166 0.8750000000000477 0.625
495 0.1250000000003166 0.8750000000000477 0.875
496 0.2500000000008368 0.8750000000000477 0.25
497 0.2500000000008368 0.8750000000000477 0.125
498 0.2500000000008368 0.8750000000000477 0.5
499 0.2500000000008368 0.8750000000000477 0.375
500 0.2500000000008368 0.8750000000000477 0.75
501 0.2500000000008368 0.8750000000000477 0.625
502 0.2500000000008368 0.8750000000000477 0.875
503 0.3749999999992552 0.1250000000003165 0.25
504 0.3749999999992552 0.1250000000003165 0.125
505 0.3749999999992552 0.1250000000003165 0.5
506 0.3749999999992552 0.1250000000003165 0.375
507 0.3749999999992552 0.1250000000003165 0.75
508 0.3749999999992552 0.1250000000003165 0.625
509 0.3749999999992552 0.1250000000003165 0.875
510 0.499999999999534 0.2500000000002257 0.125
511 0.3749999999996761 0.2500000000004293 0.25
512 0.499999999999113 0.1250000000001129 0.25
513 0.3749999999996761 0.2500000000004293 0.125
514 0.499999999999113 0.1250000000001129 0.125
515 0.499999999999534 0.2500000000002257 0.375
516 0.3749999999996761 0.2500000000004293 0.5
517 0.499999999999113 0.1250000000001129 0.5
518 0.3749999999996761 0.2500000000004293 0.375
519 0.499999999999113 0.1250000000001129 0.375
520 0.499999999999534 0.2500000000002257 0.625
521 0.3749999999996761 0.2500000000004293 0.75
522 0.499999999999113 0.1250000000001129 0.75
523 0.3749999999996761 0.2500000000004293 0.625
524 0.499999999999113 0.1250000000001129 0.625
525 0.499999999999534 0.2500000000002257 0.875
526 0.3749999999996761 0.2500000000004293 0.875
527 0.499999999999113 0.1250000000001129 0.875
528 0.3749999999998799 0.3750000000007217 0.25
529 0.3749999999998799 0.3750000000007216 0.125
530 0.3749999999998799 0.3750000000007217 0.5
531 0.3749999999998799 0.3750000000007216 0.375
532 0.3749999999998799 0.3750000000007217 0.75
533 0.3749999999998799 0.3750000000007216 0.625
534 0.3749999999998799 0.3750000000007216 0.875
535 0.5000000000003758 0.5000000000003758 0.125
536 0.3750000000003008 0.5000000000007967 0.25
537 0.4999999999999549 0.3750000000003008 0.25
538 0.3750000000003008 0.5000000000007967 0.125
539 0.4999999999999549 0.3750000000003008 0.125
540 0.5000000000003758 0.5000000000003758 0.375
541 0.3750000000003008 0.5000000000007967 0.5
542 0.4999999999999549 0.3750000000003008 0.5
543 0.3750000000003008 0.5000000000007967 0.375
544 0.4999999999999549 0.3750000000003008 0.375
545 0.5000000000003758 0.5000000000003758 0.625
546 0.3750000000003008 0.5000000000007967 0.75
547 0.4999999999999549 0.3750000000003008 0.75
548 0.3750000000003008 0.5000000000007967 0.625
549 0.4999999999999549 0.3750000000003008 0.625
550 0.5000000000003758 0.5000000000003758 0.875
551 0.3750000000003008 0.5000000000007967 0.875
552 0.4999999999999549 0.3750000000003008 0.875
553 0.3750000000005045 0.6250000000002356 0.25
554 0.3750000000005045 0.6250000000002356 0.125
555 0.3750000000005045 0.6250000000002356 0.5
556 0.3750000000005045 0.6250000000002356 0.375
557 0.3750000000005045 0.6250000000002356 0.75
558 0.3750000000005045 0.6250000000002356 0.625
559 0.3750000000005045 0.6250000000002356 0.875
560 0.5000000000012177 0.7499999999998439 0.125
561 0.3750000000009254 0.7499999999999696 0.25
562 0.5000000000007967 0.6250000000001099 0.25
563 0.3750000000009254 0.7499999999999696 0.125
564 0.5000000000007967 0.6250000000001099 0.125
565 0.5000000000012177 0.7499999999998439 0.375
566 0.3750000000009254 0.7499999999999696 0.5
567 0.5000000000007967 0.6250000000001099 0.5
568 0.3750000000009254 0.7499999999999696 0.375
569 0.5000000000007967 0.6250000000001099 0.375
570 0.5000000000012177 0.7499999999998439 0.625
571 0.3750000000009254 0.7499999999999696 0.75
572 0.5000000000007967 0.6250000000001099 0.75
573 0.3750000000009254 0.7499999999999696 0.625
574 0.5000000000007967 0.6250000000001099 0.625
575 0.5000000000012177 0.7499999999998439 0.875
576 0.3750000000009254 0.7499999999999696 0.875
577 0.5000000000007967 0.6250000000001099 0.875
578 0.3750000000011291 0.874999999999922 0.25
579 0.3750000000011291 0.8749999999999218 0.125
580 0.3750000000011291 0.874999999999922 0.5
581 0.3750000000011291 0.8749999999999218 0.375
582 0.3750000000011291 0.874999999999922 0.75
583 0.3750000000011291 0.8749999999999218 0.625
584 0.3750000000011291 0.8749999999999218 0.875
585 0.5000000000016386 0.874999999999922 0.25
586 0.5000000000016386 0.8749999999999218 0.125
587 0.5000000000016386 0.874999999999922 0.5
588 0.5000000000016386 0.8749999999999218 0.375
589 0.5000000000016386 0.874999999999922 0.75
590 0.5000000000016386 0.8749999999999218 0.625
591 0.5000000000016386 0.8749999999999218 0.875
592 0.6249999999994373 0.1250000000001129 0.25
593 0.6249999999994373 0.1250000000001129 0.125
594 0.6249999999994373 0.1250000000001129 0.5
595 0.6249999999994373 0.1250000000001129 0.375
596 0.6249999999994373 0.1250000000001129 0.75
597 0.6249999999994373 0.1250000000001129 0.625
598 0.6249999999994373 0.1250000000001129 0.875
599 0.7499999999995923 0.2499999999998184 0.125
600 0.6249999999995631 0.250000000000022 0.25
601 0.7499999999994664 0.1249999999999092 0.25
602 0.6249999999995631 0.250000000000022 0.125
603 0.7499999999994664 0.1249999999999092 0.125
604 0.7499999999995923 0.2499999999998184 0.375
605 0.6249999999995631 0.250000000000022 0.5
606 0.7499999999994664 0.1249999999999092 0.5
607 0.6249999999995631 0.250000000000022 0.375
608 0.7499999999994664 0.1249999999999092 0.375
609 0.7499999999995923 0.2499999999998184 0.625
610 0.6249999999995631 0.250000000000022 0.75
611 0.7499999999994664 0.1249999999999092 0.75
612 0.6249999999995631 0.250000000000022 0.625
613 0.7499999999994664 0.1249999999999092 0.625
614 0.7499999999995923 0.2499999999998184 0.875
615 0.6249999999995631 0.250000000000022 0.875
616 0.7499999999994664 0.1249999999999092 0.875
617 0.624999999999984 0.3750000000000971 0.25
618 0.624999999999984 0.3750000000000971 0.125
619 0.624999999999984 0.3750000000000971 0.5
620 0.624999999999984 0.3750000000000971 0.375
621 0.624999999999984 0.3750000000000971 0.75
622 0.624999999999984 0.3750000000000971 0.625
623 0.624999999999984 0.3750000000000971 0.875
624 0.7499999999998439 0.499999999999534 0.125
625 0.6250000000001099 0.4999999999999549 0.25
626 0.7499999999997181 0.3749999999996762 0.25
627 0.6250000000001099 0.4999999999999549 0.125
628 0.7499999999997181 0.3749999999996762 0.125
629 0.7499999999998439 0.499999999999534 0.375
630 0.6250000000001099 0.4999999999999549 0.5
631 0.7499999999997181 0.3749999999996762 0.5
632 0.6250000000001099 0.4999999999999549 0.375
633 0.7499999999997181 0.3749999999996762 0.375
634 0.7499999999998439 0.499999999999534 0.625
635 0.6250000000001099 0.4999999999999549 0.75
636 0.7499999999997181 0.3749999999996762 0.75
637 0.6250000000001099 0.4999999999999549 0.625
638 0.7499999999997181 0.3749999999996762 0.625
639 0.7499999999998439 0.499999999999534 0.875
640 0.6250000000001099 0.4999999999999549 0.875
641 0.7499999999997181 0.3749999999996762 0.875
642 0.6250000000005308 0.6249999999996889 0.25
643 0.6250000000005308 0.6249999999996889 0.125
644 0.6250000000005308 0.6249999999996889 0.5
645 0.6250000000005308 0.6249999999996889 0.375
646 0.6250000000005308 0.6249999999996889 0.75
647 0.6250000000005308 0.6249999999996889 0.625
648 0.6250000000005308 0.6249999999996889 0.875
649 0.7500000000000953 0.7499999999995921 0.125
650 0.6250000000006565 0.749999999999718 0.25
651 0.7499999999999696 0.624999999999563 0.25
652 0.6250000000006565 0.749999999999718 0.125
653 0.7499999999999696 0.624999999999563 0.125
654 0.7500000000000953 0.7499999999995921 0.375
655 0.6250000000006565 0.749999999999718 0.5
656 0.7499999999999696 0.624999999999563 0.5
657 0.6250000000006565 0.749999999999718 0.375
658 0.7499999999999696 0.624999999999563 0.375
659 0.7500000000000953 0.7499999999995921 0.625
660 0.6250000000006565 0.749999999999718 0.75
661 0.7499999999999696 0.624999999999563 0.75
662 0.6250000000006565 0.749999999999718 0.625
663 0.7499999999999696 0.624999999999563 0.625
664 0.7500000000000953 0.7499999999995921 0.875
665 0.6250000000006565 0.749999999999718 0.875
666 0.7499999999999696 0.624999999999563 0.875
667 0.6250000000010774 0.8749999999997961 0.25
668 0.6250000000010774 0.8749999999997962 0.125
669 0.6250000000010774 0.8749999999997961 0.5
670 0.6250000000010774 0.8749999999997962 0.375
671 0.6250000000010774 0.8749999999997961 0.75
672 0.6250000000010774 0.8749999999997962 0.625
673 0.6250000000010774 0.8749999999997962 0.875
674 0.7500000000002212 0.8749999999997961 0.25
675 0.7500000000002212 0.8749999999997962 0.125
676 0.7500000000002212 0.8749999999997961 0.5
677 0.7500000000002212 0.8749999999997962 0.375
678 0.7500000000002212 0.8749999999997961 0.75
679 0.7500000000002212 0.8749999999997962 0.625
680 0.7500000000002212 0.8749999999997962 0.875
681 0.8749999999997962 0.1249999999999092 0.25
682 0.8749999999997962 0.1249999999999092 0.125
683 0.8749999999997962 0.1249999999999092 0.5
684 0.8749999999997962 0.1249999999999092 0.375
685 0.8749999999997962 0.1249999999999092 0.75
686 0.8749999999997962 0.1249999999999092 0.625
687 0.8749999999997962 0.1249999999999092 0.875
688 0.8749999999997962 0.2499999999996146 0.25
689 0.8749999999997962 0.2499999999996146 0.125
690 0.8749999999997962 0.2499999999996146 0.5
691 0.8749999999997962 0.2499999999996146 0.375
692 0.8749999999997962 0.2499999999996146 0.75
693 0.8749999999997962 0.2499999999996146 0.625
694 0.8749999999997962 0.2499999999996146 0.875
695 0.874999999999922 0.3749999999994725 0.25
696 0.874999999999922 0.3749999999994725 0.125
697 0.874999999999922 0.3749999999994725 0.5
698 0.874999999999922 0.3749999999994725 0.375
699 0.874999999999922 0.3749999999994725 0.75
700 0.874999999999922 0.3749999999994725 0.625
701 0.874999999999922 0.3749999999994725 0.875
702 0.874999999999922 0.499999999999113 0.25
703 0.874999999999922 0.4999999999991131 0.125
704 0.874999999999922 0.499999999999113 0.5
705 0.874999999999922 0.4999999999991131 0.375
706 0.874999999999922 0.499999999999113 0.75
707 0.874999999999922 0.4999999999991131 0.625
708 0.874999999999922 0.4999999999991131 0.875
709 0.8750000000000476 0.6249999999991421 0.25
710 0.8750000000000476 0.6249999999991421 0.125
711 0.8750000000000476 0.6249999999991421 0.5
712 0.8750000000000476 0.6249999999991421 0.375
713 0.8750000000000476 0.6249999999991421 0.75
714 0.8750000000000476 0.6249999999991421 0.625
715 0.8750000000000476 0.6249999999991421 0.875
716 0.8750000000000476 0.7499999999994664 0.25
717 0.8750000000000476 0.7499999999994663 0.125
718 0.8750000000000476 0.7499999999994664 0.5
719 0.8750000000000476 0.7499999999994663 0.375
720 0.8750000000000476 0.7499999999994664 0.75
721 0.8750000000000476 0.7499999999994663 0.625
722 0.8750000000000476 0.7499999999994663 0.875
723 0.8750000000001735 0.8749999999996703 0.25
724 0.8750000000001735 0.8749999999996703 0.125
725 0.8750000000001735 0.8749999999996703 0.5
726 0.8750000000001735 0.8749999999996703 0.375
727 0.8750000000001735 0.8749999999996703 0.75
728 0.8750000000001735 0.8749999999996703 0.625
729 0.8750000000001735 0.8749999999996703 0.875
$EndNodes
$Elements
256
1 9 2 4 1 1 9 32 12 102 36
2 9 2 4 1 32 9 93 102 103 104
3 9 2 4 1 32 93 31 104 105 35
4 9 2 4 1 31 93 94 105 106 107
5 9 2 4 1 31 94 30 107 108 34
6 9 2 4 1 30 94 95 108 109 110
7 9 2 4 1 30 95 4 110 111 33
8 9 2 4 1 4 95 25 111 112 29
9 9 2 4 1 9 10 93 13 113 103
10 9 2 4 1 93 10 96 113 114 115
11 9 2 4 1 93 96 94 115 116 106
12 9 2 4 1 94 96 97 116 117 118
13 9 2 4 1 94 97 95 118 119 109
14 9 2 4 1 95 97 98 119 120 121
15 9 2 4 1 95 98 25 121 122 112
16 9 2 4 1 25 98 24 122 123 28
17 9 2 4 1 10 11 96 14 124 114
18 9 2 4 1 96 11 99 124 125 126
19 9 2 4 1 96 99 97 126 127 117
20 9 2 4 1 97 99 100 127 128 129
21 9 2 4 1 97 100 98 129 130 120
22 9 2 4 1 98 100 101 130 131 132
23 9 2 4 1 98 101 24 132 133 123
24 9 2 4 1 24 101 23 133 134 27
25 9 2 4 1 11 2 99 15 135 125
26 9 2 4 1 99 2 16 135 19 136
27 9 2 4 1 99 16 100 136 137 128
28 9 2 4 1 100 16 17 137 20 138
29 9 2 4 1 100 17 101 138 139 131
30 9 2 4 1 101 17 18 139 21 140
31 9 2 4 1 101 18 23 140 141 134
32 9 2 4 1 23 18 3 141 22 26
33 9 2 3 26 5 37 60 40 347 64
34 9 2 3 26 60 37 338 347 348 349
35 9 2 3 26 60 338 59 349 350 63
36 9 2 3 26 59 338 339 350 351 352
37 9 2 3 26 59 339 58 352 353 62
38 9 2 3 26 58 339 340 353 354 355
39 9 2 3 26 58 340 8 355 356 61
40 9 2 3 26 8 340 53 356 357 57
41 9 2 3 26 37 38 338 41 358 348
42 9 2 3 26 338 38 341 358 359 360
43 9 2 3 26 338 341 339 360 361 351
44 9 2 3 26 339 341 342 361 362 363
45 9 2 3 26 339 342 340 363 364 354
46 9 2 3 26 340 342 343 364 365 366
47 9 2 3 26 340 343 53 366 367 357
48 9 2 3 26 53 343 52 367 368 56
49 9 2 3 26 38 39 341 42 369 359
50 9 2 3 26 341 39 344 369 370 371
51 9 2 3 26 341 344 342 371 372 362
52 9 2 3 26 342 344 345 372 373 374
53 9 2 3 26 342 345 343 374 375 365
54 9 2 3 26 343 345 346 375 376 377
55 9 2 3 26 343 346 52 377 378 368
56 9 2 3 26 52 346 51 378 379 55
57 9 2 3 26 39 6 344 43 380 370
58 9 2 3 26 344 6 44 380 47 381
59 9 2 3 26 344 44 345 381 382 373
60 9 2 3 26 345 44 45 382 48 383
61 9 2 3 26 345 45 346 383 384 376
62 9 2 3 26 346 45 46 384 49 385
63 9 2 3 26 346 46 51 385 386 379
64 9 2 3 26 51 46 7 386 50 54
65 10 2 2 13 1 9 142 65 12 151 152 68 153
66 10 2 2 13 65 142 143 66 152 154 155 69 156
67 10 2 2 13 66 143 144 67 155 157 158 70 159
68 10 2 2 13 67 144 37 5 158 160 40 71 161
69 10 2 2 13 9 10 145 142 13 162 163 151 164
70 10 2 2 13 142 145 146 143 163 165 166 154 167
71 10 2 2 13 143 146 147 144 166 168 169 157 170
72 10 2 2 13 144 147 38 37 169 171 41 160 172
73 10 2 2 13 10 11 148 145 14 173 174 162 175
74 10 2 2 13 145 148 149 146 174 176 177 165 178
75 10 2 2 13 146 149 150 147 177 179 180 168 181
76 10 2 2 13 147 150 39 38 180 182 42 171 183
77 10 2 2 13 11 2 72 148 15 75 184 173 185
78 10 2 2 13 148 72 73 149 184 76 186 176 187
79 10 2 2 13 149 73 74 150 186 77 188 179 189
80 10 2 2 13 150 74 6 39 188 78 43 182 190
81 10 2 5 17 2 16 191 72 19 200 201 75 202
82 10 2 5 17 72 191 192 73 201 203 204 76 205
83 10 2 5 17 73 192 193 74 204 206 207 77 208
84 10 2 5 17 74 193 44 6 207 209 47 78 210
85 10 2 5 17 16 17 194 191 20 211 212 200 213
86 10 2 5 17 191 194 195 192 212 214 215 203 216
87 10 2 5 17 192 195 196 193 215 217 218 206 219
88 10 2 5 17 193 196 45 44 218 220 48 209 221
89 10 2 5 17 17 18 197 194 21 222 223 211 224
90 10 2 5 17 194 197 198 195 223 225 226 214 227
91 10 2 5 17 195 198 199 196 226 228 229 217 230
92 10 2 5 17 196 199 46 45 229 231 49 220 232
93 10 2 5 17 18 3 79 197 22 82 233 222 234
94 10 2 5 17 197 79 80 198 233 83 235 225 236
95 10 2 5 17 198 80 81 199 235 84 237 228 238
96 10 2 5 17 199 81 7 46 237 85 50 231 239
97 10 2 1 21 3 23 240 79 26 249 250 82 251
98 10 2 1 21 79 240 241 80 250 252 253 83 254
99 10 2 1 21 80 241 242 81 253 255 256 84 257
100 10 2 1 21 81 242 51 7 256 258 54 85 259
101 10 2 1 21 23 24 243 240 27 260 261 249 262
102 10 2 1 21 240 243 244 241 261 263 264 252 265
103 10 2 1 21 241 244 245 242 264 266 267 255 268
104 10 2 1 21 242 245 52 51 267 269 55 258 270
105 10 2 1 21 24 25 246 243 28 271 272 260 273
106 10 2 1 21 243 246 247 244 272 274 275 263 276
107 10 2 1 21 244 247 248 245 275 277 278 266 279
108 10 2 1 21 245 248 53 52 278 280 56 269 281
109 10 2 1 21 25 4 86 246 29 89 282 271 283
110 10 2 1 21 246 86 87 247 282 90 284 274 285
111 10 2 1 21 247 87 88 248 284 91 286 277 287
112 10 2 1 21 248 88 8 53 286 92 57 280 288
113 10 2 6 25 4 30 289 86 33 298 299 89 300
114 10 2 6 25 86 289 290 87 299 301 302 90 303
115 10 2 6 25 87 290 291 88 302 304 305 91 306
116 10 2 6 25 88 291 58 8 305 307 61 92 308
117 10 2 6 25 30 31 292 289 34 309 310 298 311
118 10 2 6 25 289 292 293 290 310 312 313 301 314
119 10 2 6 25 290 293 294 291 313 315 316 304 317
120 10 2 6 25 291 294 59 58 316 318 62 307 319
121 10 2 6 25 31 32 295 292 35 320 321 309 322
122 10 2 6 25 292 295 296 293 321 323 324 312 325
123 10 2 6 25 293 296 297 294 324 326 327 315 328
124 10 2 6 25 294 297 60 59 327 329 63 318 330
125 10 2 6 25 32 1 65 295 36 68 331 320 332
126 10 2 6 25 295 65 66 296 331 69 333 323 334
127 10 2 6 25 296 66 67 297 333 70 335 326 336
128 10 2 6 25 297 67 5 60 335 71 64 329 337
129 13 2 7 1 1 9 32 65 142 295 12 36 68 102 151 320 152 331 414 153 332 415
130 13 2 7 1 65 142 295 66 143 296 152 331 69 414 154 323 155 333 416 156 334 417
131 13 2 7 1 66 143 296 67 144 297 155 333 70 416 157 326 158 335 418 159 336 419
132 13 2 7 1 67 144 297 5 37 60 158 335 71 418 160 329 40 64 347 161 337 420
133 13 2 7 1 32 9 93 295 142 387 102 104 320 103 151 421 414 422 423 415 424 425
134 13 2 7 1 295 142 387 296 143 388 414 422 323 423 154 426 416 427 428 417 429 430
135 13 2 7 1 296 143 388 297 144 389 416 427 326 428 157 431 418 432 433 419 434 435
136 13 2 7 1 297 144 389 60 37 338 418 432 329 433 160 436 347 349 348 420 437 438
137 13 2 7 1 32 93 31 295 387 292 104 35 320 105 421 309 422 321 439 424 322 440
138 13 2 7 1 295 387 292 296 388 293 422 321 323 439 426 312 427 324 441 429 325 442
139 13 2 7 1 296 388 293 297 389 294 427 324 326 441 431 315 432 327 443 434 328 444
140 13 2 7 1 297 389 294 60 338 59 432 327 329 443 436 318 349 63 350 437 330 445
141 13 2 7 1 31 93 94 292 387 390 105 107 309 106 421 446 439 447 448 440 449 450
142 13 2 7 1 292 387 390 293 388 391 439 447 312 448 426 451 441 452 453 442 454 455
143 13 2 7 1 293 388 391 294 389 392 441 452 315 453 431 456 443 457 458 444 459 460
144 13 2 7 1 294 389 392 59 338 339 443 457 318 458 436 461 350 352 351 445 462 463
145 13 2 7 1 31 94 30 292 390 289 107 34 309 108 446 298 447 310 464 449 311 465
146 13 2 7 1 292 390 289 293 391 290 447 310 312 464 451 301 452 313 466 454 314 467
147 13 2 7 1 293 391 290 294 392 291 452 313 315 466 456 304 457 316 468 459 317 469
148 13 2 7 1 294 392 291 59 339 58 457 316 318 468 461 307 352 62 353 462 319 470
149 13 2 7 1 30 94 95 289 390 393 108 110 298 109 446 471 464 472 473 465 474 475
150 13 2 7 1 289 390 393 290 391 394 464 472 301 473 451 476 466 477 478 467 479 480
151 13 2 7 1 290 391 394 291 392 395 466 477 304 478 456 481 468 482 483 469 484 485
152 13 2 7 1 291 392 395 58 339 340 468 482 307 483 461 486 353 355 354 470 487 488
153 13 2 7 1 30 95 4 289 393 86 110 33 298 111 471 89 472 299 489 474 300 490
154 13 2 7 1 289 393 86 290 394 87 472 299 301 489 476 90 477 302 491 479 303 492
155 13 2 7 1 290 394 87 291 395 88 477 302 304 491 481 91 482 305 493 484 306 494
156 13 2 7 1 291 395 88 58 340 8 482 305 307 493 486 92 355 61 356 487 308 495
157 13 2 7 1 4 95 25 86 393 246 111 29 89 112 471 271 489 282 496 490 283 497
158 13 2 7 1 86 393 246 87 394 247 489 282 90 496 476 274 491 284 498 492 285 499
159 13 2 7 1 87 394 247 88 395 248 491 284 91 498 481 277 493 286 500 494 287 501
160 13 2 7 1 88 395 248 8 340 53 493 286 92 500 486 280 356 57 357 495 288 502
161 13 2 7 1 9 10 93 142 145 387 13 103 151 113 162 421 163 423 503 164 425 504
162 13 2 7 1 142 145 387 143 146 388 163 423 154 503 165 426 166 428 505 167 430 506
163 13 2 7 1 143 146 388 144 147 389 166 428 157 505 168 431 169 433 507 170 435 508
164 13 2 7 1 144 147 389 37 38 338 169 433 160 507 171 436 41 348 358 172 438 509
165 13 2 7 1 93 10 96 387 145 396 113 115 421 114 162 510 503 511 512 504 513 514
166 13 2 7 1 387 145 396 388 146 397 503 511 426 512 165 515 505 516 517 506 518 519
167 13 2 7 1 388 146 397 389 147 398 505 516 431 517 168 520 507 521 522 508 523 524
168 13 2 7 1 389 147 398 338 38 341 507 521 436 522 171 525 358 360 359 509 526 527
169 13 2 7 1 93 96 94 387 396 390 115 106 421 116 510 446 511 448 528 513 450 529
170 13 2 7 1 387 396 390 388 397 391 511 448 426 528 515 451 516 453 530 518 455 531
171 13 2 7 1 388 397 391 389 398 392 516 453 431 530 520 456 521 458 532 523 460 533
172 13 2 7 1 389 398 392 338 341 339 521 458 436 532 525 461 360 351 361 526 463 534
173 13 2 7 1 94 96 97 390 396 399 116 118 446 117 510 535 528 536 537 529 538 539
174 13 2 7 1 390 396 399 391 397 400 528 536 451 537 515 540 530 541 542 531 543 544
175 13 2 7 1 391 397 400 392 398 401 530 541 456 542 520 545 532 546 547 533 548 549
176 13 2 7 1 392 398 401 339 341 342 532 546 461 547 525 550 361 363 362 534 551 552
177 13 2 7 1 94 97 95 390 399 393 118 109 446 119 535 471 536 473 553 538 475 554
178 13 2 7 1 390 399 393 391 400 394 536 473 451 553 540 476 541 478 555 543 480 556
179 13 2 7 1 391 400 394 392 401 395 541 478 456 555 545 481 546 483 557 548 485 558
180 13 2 7 1 392 401 395 339 342 340 546 483 461 557 550 486 363 354 364 551 488 559
181 13 2 7 1 95 97 98 393 399 402 119 121 471 120 535 560 553 561 562 554 563 564
182 13 2 7 1 393 399 402 394 400 403 553 561 476 562 540 565 555 566 567 556 568 569
183 13 2 7 1 394 400 403 395 401 404 555 566 481 567 545 570 557 571 572 558 573 574
184 13 2 7 1 395 401 404 340 342 343 557 571 486 572 550 575 364 366 365 559 576 577
185 13 2 7 1 95 98 25 393 402 246 121 112 471 122 560 271 561 496 578 563 497 579
186 13 2 7 1 393 402 246 394 403 247 561 496 476 578 565 274 566 498 580 568 499 581
187 13 2 7 1 394 403 247 395 404 248 566 498 481 580 570 277 571 500 582 573 501 583
188 13 2 7 1 395 404 248 340 343 53 571 500 486 582 575 280 366 357 367 576 502 584
189 13 2 7 1 25 98 24 246 402 243 122 28 271 123 560 260 578 272 585 579 273 586
190 13 2 7 1 246 402 243 247 403 244 578 272 274 585 565 263 580 275 587 581 276 588
191 13 2 7 1 247 403 244 248 404 245 580 275 277 587 570 266 582 278 589 583 279 590
192 13 2 7 1 248 404 245 53 343 52 582 278 280 589 575 269 367 56 368 584 281 591
193 13 2 7 1 10 11 96 145 148 396 14 114 162 124 173 510 174 512 592 175 514 593
194 13 2 7 1 145 148 396 146 149 397 174 512 165 592 176 515 177 517 594 178 519 595
195 13 2 7 1 146 149 397 147 150 398 177 517 168 594 179 520 180 522 596 181 524 597
196 13 2 7 1 147 150 398 38 39 341 180 522 171 596 182 525 42 359 369 183 527 598
197 13 2 7 1 96 11 99 396 148 405 124 126 510 125 173 599 592 600 601 593 602 603
198 13 2 7 1 396 148 405 397 149 406 592 600 515 601 176 604 594 605 606 595 607 608
199 13 2 7 1 397 149 406 398 150 407 594 605 520 606 179 609 596 610 611 597 612 613
200 13 2 7 1 398 150 407 341 39 344 596 610 525 611 182 614 369 371 370 598 615 616
201 13 2 7 1 96 99 97 396 405 399 126 117 510 127 599 535 600 537 617 602 539 618
202 13 2 7 1 396 405 399 397 406 400 600 537 515 617 604 540 605 542 619 607 544 620
203 13 2 7 1 397 406 400 398 407 401 605 542 520 619 609 545 610 547 621 612 549 622
204 13 2 7 1 398 407 401 341 344 342 610 547 525 621 614 550 371 362 372 615 552 623
205 13 2 7 1 97 99 100 399 405 408 127 129 535 128 599 624 617 625 626 618 627 628
206 13 2 7 1 399 405 408 400 406 409 617 625 540 626 604 629 619 630 631 620 632 633
207 13 2 7 1 400 406 409 401 407 410 619 630 545 631 609 634 621 635 636 622 637 638
208 13 2 7 1 401 407 410 342 344 345 621 635 550 636 614 639 372 374 373 623 640 641
209 13 2 7 1 97 100 98 399 408 402 129 120 535 130 624 560 625 562 642 627 564 643
210 13 2 7 1 399 408 402 400 409 403 625 562 540 642 629 565 630 567 644 632 569 645
211 13 2 7 1 400 409 403 401 410 404 630 567 545 644 634 570 635 572 646 637 574 647
212 13 2 7 1 401 410 404 342 345 343 635 572 550 646 639 575 374 365 375 640 577 648
213 13 2 7 1 98 100 101 402 408 411 130 132 560 131 624 649 642 650 651 643 652 653
214 13 2 7 1 402 408 411 403 409 412 642 650 565 651 629 654 644 655 656 645 657 658
215 13 2 7 1 403 409 412 404 410 413 644 655 570 656 634 659 646 660 661 647 662 663
216 13 2 7 1 404 410 413 343 345 346 646 660 575 661 639 664 375 377 376 648 665 666
217 13 2 7 1 98 101 24 402 411 243 132 123 560 133 649 260 650 585 667 652 586 668
218 13 2 7 1 402 411 243 403 412 244 650 585 565 667 654 263 655 587 669 657 588 670
219 13 2 7 1 403 412 244 404 413 245 655 587 570 669 659 266 660 589 671 662 590 672
220 13 2 7 1 404 413 245 343 346 52 660 589 575 671 664 269 377 368 378 665 591 673
221 13 2 7 1 24 101 23 243 411 240 133 27 260 134 649 249 667 261 674 668 262 675
222 13 2 7 1 243 411 240 244 412 241 667 261 263 674 654 252 669 264 676 670 265 677
223 13 2 7 1 244 412 241 245 413 242 669 264 266 676 659 255 671 267 678 672 268 679
224 13 2 7 1 245 413 242 52 346 51 671 267 269 678 664 258 378 55 379 673 270 680
225 13 2 7 1 11 2 99 148 72 405 15 125 173 135 75 599 184 601 681 185 603 682
226 13 2 7 1 148 72 405 149 73 406 184 601 176 681 76 604 186 606 683 187 608 684
227 13 2 7 1 149 73 406 150 74 407 186 606 179 683 77 609 188 611 685 189 613 686
228 13 2 7 1 150 74 407 39 6 344 188 611 182 685 78 614 43 370 380 190 616 687
229 13 2 7 1 99 2 16 405 72 191 135 136 599 19 75 200 681 688 201 682 689 202
230 13 2 7 1 405 72 191 406 73 192 681 688 604 201 76 203 683 690 204 684 691 205
231 13 2 7 1 406 73 192 407 74 193 683 690 609 204 77 206 685 692 207 686 693 208
232 13 2 7 1 407 74 193 344 6 44 685 692 614 207 78 209 380 381 47 687 694 210
233 13 2 7 1 99 16 100 405 191 408 136 128 599 137 200 624 688 626 695 689 628 696
234 13 2 7 1 405 191 408 406 192 409 688 626 604 695 203 629 690 631 697 691 633 698
235 13 2 7 1 406 192 409 407 193 410 690 631 609 697 206 634 692 636 699 693 638 700
236 13 2 7 1 407 193 410 344 44 345 692 636 614 699 209 639 381 373 382 694 641 701
237 13 2 7 1 100 16 17 408 191 194 137 138 624 20 200 211 695 702 212 696 703 213
238 13 2 7 1 408 191 194 409 192 195 695 702 629 212 203 214 697 704 215 698 705 216
239 13 2 7 1 409 192 195 410 193 196 697 704 634 215 206 217 699 706 218 700 707 219
240 13 2 7 1 410 193 196 345 44 45 699 706 639 218 209 220 382 383 48 701 708 221
241 13 2 7 1 100 17 101 408 194 411 138 131 624 139 211 649 702 651 709 703 653 710
242 13 2 7 1 408 194 411 409 195 412 702 651 629 709 214 654 704 656 711 705 658 712
243 13 2 7 1 409 195 412 410 196 413 704 656 634 711 217 659 706 661 713 707 663 714
244 13 2 7 1 410 196 413 345 45 346 706 661 639 713 220 664 383 376 384 708 666 715
245 13 2 7 1 101 17 18 411 194 197 139 140 649 21 211 222 709 716 223 710 717 224
246 13 2 7 1 411 194 197 412 195 198 709 716 654 223 214 225 711 718 226 712 719 227
247 13 2 7 1 412 195 198 413 196 199 711 718 659 226 217 228 713 720 229 714 721 230
248 13 2 7 1 413 196 199 346 45 46 713 720 664 229 220 231 384 385 49 715 722 232
249 13 2 7 1 101 18 23 411 197 240 140 134 649 141 222 249 716 674 723 717 675 724
250 13 2 7 1 411 197 240 412 198 241 716 674 654 723 225 252 718 676 725 719 677 726
251 13 2 7 1 412 198 241 413 199 242 718 676 659 725 228 255 720 678 727 721 679 728
252 13 2 7 1 413 199 242 346 46 51 720 678 664 727 231 258 385 379 386 722 680 729
253 13 2 7 1 23 18 3 240 197 79 141 26 249 22 222 82 723 250 233 724 251 234
254 13 2 7 1 240 197 79 241 198 80 723 250 252 233 225 83 725 253 235 726 254 236
255 13 2 7 1 241 198 80 242 199 81 725 253 255 235 228 84 727 256 237 728 257 238
256 13 2 7 1 242 199 81 51 46 7 727 256 258 237 231 85 386 54 50 729 259 239
$EndElements
