GiD Post Results File 1.0
 
Result DISPM ALYA -0.10000000E+01 Vector OnNodes
ComponentNames DISPM_X,DISPM_Y,DISPM_Z
Values
          1  0.00000000E+000  0.00000000E+000
          2  0.00000000E+000  0.00000000E+000
          3  0.00000000E+000  0.00000000E+000
          4  0.00000000E+000  0.00000000E+000
          5  0.00000000E+000  0.00000000E+000
          6  0.00000000E+000  0.00000000E+000
          7  0.00000000E+000  0.00000000E+000
          8  0.00000000E+000  0.00000000E+000
          9  0.00000000E+000  0.00000000E+000
         10  0.00000000E+000  0.00000000E+000
         11  0.00000000E+000  0.00000000E+000
         12  0.00000000E+000  0.00000000E+000
         13  0.00000000E+000  0.00000000E+000
         14  0.00000000E+000  0.00000000E+000
         15  0.00000000E+000  0.00000000E+000
         16  0.00000000E+000  0.00000000E+000
         17  0.00000000E+000  0.00000000E+000
         18  0.00000000E+000  0.00000000E+000
         19  0.00000000E+000  0.00000000E+000
         20  0.00000000E+000  0.00000000E+000
         21  0.00000000E+000  0.00000000E+000
         22  0.00000000E+000  0.00000000E+000
         23  0.00000000E+000  0.00000000E+000
         24  0.00000000E+000  0.00000000E+000
         25  0.00000000E+000  0.00000000E+000
         26  0.00000000E+000  0.00000000E+000
         27  0.00000000E+000  0.00000000E+000
         28  0.00000000E+000  0.00000000E+000
         29  0.00000000E+000  0.00000000E+000
         30  0.00000000E+000  0.00000000E+000
         31  0.00000000E+000  0.00000000E+000
         32  0.00000000E+000  0.00000000E+000
         33  0.00000000E+000  0.00000000E+000
         34  0.00000000E+000  0.00000000E+000
         35  0.00000000E+000  0.00000000E+000
         36  0.00000000E+000  0.00000000E+000
End values

Result VELOC ALYA -0.10000000E+01 Vector OnNodes
ComponentNames VELOC_X,VELOC_Y,VELOC_Z
Values
          1  0.00000000E+000  0.00000000E+000
          2  0.00000000E+000  0.00000000E+000
          3  0.00000000E+000  0.00000000E+000
          4  0.00000000E+000  0.00000000E+000
          5  0.00000000E+000  0.00000000E+000
          6  0.00000000E+000  0.00000000E+000
          7  0.00000000E+000  0.00000000E+000
          8  0.00000000E+000  0.00000000E+000
          9  0.00000000E+000  0.00000000E+000
         10  0.00000000E+000  0.00000000E+000
         11  0.00000000E+000  0.00000000E+000
         12  0.00000000E+000  0.00000000E+000
         13  0.00000000E+000  0.00000000E+000
         14  0.00000000E+000  0.00000000E+000
         15  0.00000000E+000  0.00000000E+000
         16  0.00000000E+000  0.00000000E+000
         17  0.00000000E+000  0.00000000E+000
         18  0.00000000E+000  0.00000000E+000
         19  0.00000000E+000  0.00000000E+000
         20  0.00000000E+000  0.00000000E+000
         21  0.00000000E+000  0.00000000E+000
         22  0.00000000E+000  0.00000000E+000
         23  0.00000000E+000  0.00000000E+000
         24  0.00000000E+000  0.00000000E+000
         25  0.00000000E+000  0.00000000E+000
         26  0.00000000E+000  0.00000000E+000
         27  0.00000000E+000  0.00000000E+000
         28  0.00000000E+000  0.00000000E+000
         29  0.00000000E+000  0.00000000E+000
         30  0.00000000E+000  0.00000000E+000
         31  0.00000000E+000  0.00000000E+000
         32  0.00000000E+000  0.00000000E+000
         33  0.00000000E+000  0.00000000E+000
         34  0.00000000E+000  0.00000000E+000
         35  0.00000000E+000  0.00000000E+000
         36  0.00000000E+000  0.00000000E+000
End values

Result DISPM ALYA  0.00000000E+00 Vector OnNodes
ComponentNames DISPM_X,DISPM_Y,DISPM_Z
Values
          1  0.00000000E+000  0.00000000E+000
          2  0.00000000E+000  0.00000000E+000
          3  0.00000000E+000  0.00000000E+000
          4  0.00000000E+000  0.00000000E+000
          5  0.00000000E+000  0.00000000E+000
          6  0.00000000E+000  0.00000000E+000
          7  0.00000000E+000  0.00000000E+000
          8  0.00000000E+000  0.00000000E+000
          9  0.00000000E+000  0.00000000E+000
         10  0.00000000E+000  0.00000000E+000
         11  0.00000000E+000  0.00000000E+000
         12  0.00000000E+000  0.00000000E+000
         13  0.00000000E+000  0.00000000E+000
         14  0.00000000E+000  0.00000000E+000
         15  0.00000000E+000  0.00000000E+000
         16  0.00000000E+000  0.00000000E+000
         17  0.00000000E+000  0.00000000E+000
         18  0.00000000E+000  0.00000000E+000
         19  0.00000000E+000  0.00000000E+000
         20  0.00000000E+000  0.00000000E+000
         21  0.00000000E+000  0.00000000E+000
         22  0.00000000E+000  0.00000000E+000
         23  0.00000000E+000  0.00000000E+000
         24  0.00000000E+000  0.00000000E+000
         25  0.00000000E+000  0.00000000E+000
         26  0.00000000E+000  0.00000000E+000
         27  0.00000000E+000  0.00000000E+000
         28  0.00000000E+000  0.00000000E+000
         29  0.00000000E+000  0.00000000E+000
         30  0.00000000E+000  0.00000000E+000
         31  0.00000000E+000  0.00000000E+000
         32  0.00000000E+000  0.00000000E+000
         33  0.00000000E+000  0.00000000E+000
         34  0.00000000E+000  0.00000000E+000
         35  0.00000000E+000  0.00000000E+000
         36  0.00000000E+000  0.00000000E+000
End values

Result VELOC ALYA  0.00000000E+00 Vector OnNodes
ComponentNames VELOC_X,VELOC_Y,VELOC_Z
Values
          1  0.00000000E+000  0.00000000E+000
          2  0.00000000E+000  0.00000000E+000
          3  0.00000000E+000  0.00000000E+000
          4  0.00000000E+000  0.00000000E+000
          5  0.00000000E+000  0.00000000E+000
          6  0.00000000E+000  0.00000000E+000
          7  0.00000000E+000  0.00000000E+000
          8  0.00000000E+000  0.00000000E+000
          9  0.00000000E+000  0.00000000E+000
         10  0.00000000E+000  0.00000000E+000
         11  0.00000000E+000  0.00000000E+000
         12  0.00000000E+000  0.00000000E+000
         13  0.00000000E+000  0.00000000E+000
         14  0.00000000E+000  0.00000000E+000
         15  0.00000000E+000  0.00000000E+000
         16  0.00000000E+000  0.00000000E+000
         17  0.00000000E+000  0.00000000E+000
         18  0.00000000E+000  0.00000000E+000
         19  0.00000000E+000  0.00000000E+000
         20  0.00000000E+000  0.00000000E+000
         21  0.00000000E+000  0.00000000E+000
         22  0.00000000E+000  0.00000000E+000
         23  0.00000000E+000  0.00000000E+000
         24  0.00000000E+000  0.00000000E+000
         25  0.00000000E+000  0.00000000E+000
         26  0.00000000E+000  0.00000000E+000
         27  0.00000000E+000  0.00000000E+000
         28  0.00000000E+000  0.00000000E+000
         29  0.00000000E+000  0.00000000E+000
         30  0.00000000E+000  0.00000000E+000
         31  0.00000000E+000  0.00000000E+000
         32  0.00000000E+000  0.00000000E+000
         33  0.00000000E+000  0.00000000E+000
         34  0.00000000E+000  0.00000000E+000
         35  0.00000000E+000  0.00000000E+000
         36  0.00000000E+000  0.00000000E+000
End values

Result DISPM ALYA  0.50000000E+00 Vector OnNodes
ComponentNames DISPM_X,DISPM_Y,DISPM_Z
Values
          1  0.25000000E+000  0.25000000E+000
          2  0.25000000E+000  0.25000000E+000
          3  0.25000000E+000  0.25000000E+000
          4  0.25000000E+000  0.25000000E+000
          5  0.25000000E+000  0.25000000E+000
          6  0.25000000E+000  0.25000000E+000
          7  0.25000000E+000  0.25000000E+000
          8  0.25000000E+000  0.25000000E+000
          9  0.25000000E+000  0.25000000E+000
         10  0.25000000E+000  0.25000000E+000
         11  0.25000000E+000  0.25000000E+000
         12  0.25000000E+000  0.25000000E+000
         13  0.25000000E+000  0.25000000E+000
         14  0.25000000E+000  0.25000000E+000
         15  0.25000000E+000  0.25000000E+000
         16  0.25000000E+000  0.25000000E+000
         17  0.25000000E+000  0.25000000E+000
         18  0.25000000E+000  0.25000000E+000
         19  0.25000000E+000  0.25000000E+000
         20  0.25000000E+000  0.25000000E+000
         21  0.25000000E+000  0.25000000E+000
         22  0.25000000E+000  0.25000000E+000
         23  0.25000000E+000  0.25000000E+000
         24  0.25000000E+000  0.25000000E+000
         25  0.25000000E+000  0.25000000E+000
         26  0.25000000E+000  0.25000000E+000
         27  0.25000000E+000  0.25000000E+000
         28  0.25000000E+000  0.25000000E+000
         29  0.25000000E+000  0.25000000E+000
         30  0.25000000E+000  0.25000000E+000
         31  0.25000000E+000  0.25000000E+000
         32  0.25000000E+000  0.25000000E+000
         33  0.25000000E+000  0.25000000E+000
         34  0.25000000E+000  0.25000000E+000
         35  0.25000000E+000  0.25000000E+000
         36  0.25000000E+000  0.25000000E+000
End values

Result VELOC ALYA  0.50000000E+00 Vector OnNodes
ComponentNames VELOC_X,VELOC_Y,VELOC_Z
Values
          1  0.50000000E+000  0.50000000E+000
          2  0.50000000E+000  0.50000000E+000
          3  0.50000000E+000  0.50000000E+000
          4  0.50000000E+000  0.50000000E+000
          5  0.50000000E+000  0.50000000E+000
          6  0.50000000E+000  0.50000000E+000
          7  0.50000000E+000  0.50000000E+000
          8  0.50000000E+000  0.50000000E+000
          9  0.50000000E+000  0.50000000E+000
         10  0.50000000E+000  0.50000000E+000
         11  0.50000000E+000  0.50000000E+000
         12  0.50000000E+000  0.50000000E+000
         13  0.50000000E+000  0.50000000E+000
         14  0.50000000E+000  0.50000000E+000
         15  0.50000000E+000  0.50000000E+000
         16  0.50000000E+000  0.50000000E+000
         17  0.50000000E+000  0.50000000E+000
         18  0.50000000E+000  0.50000000E+000
         19  0.50000000E+000  0.50000000E+000
         20  0.50000000E+000  0.50000000E+000
         21  0.50000000E+000  0.50000000E+000
         22  0.50000000E+000  0.50000000E+000
         23  0.50000000E+000  0.50000000E+000
         24  0.50000000E+000  0.50000000E+000
         25  0.50000000E+000  0.50000000E+000
         26  0.50000000E+000  0.50000000E+000
         27  0.50000000E+000  0.50000000E+000
         28  0.50000000E+000  0.50000000E+000
         29  0.50000000E+000  0.50000000E+000
         30  0.50000000E+000  0.50000000E+000
         31  0.50000000E+000  0.50000000E+000
         32  0.50000000E+000  0.50000000E+000
         33  0.50000000E+000  0.50000000E+000
         34  0.50000000E+000  0.50000000E+000
         35  0.50000000E+000  0.50000000E+000
         36  0.50000000E+000  0.50000000E+000
End values

Result DISPM ALYA  0.10000000E+01 Vector OnNodes
ComponentNames DISPM_X,DISPM_Y,DISPM_Z
Values
          1  0.50000000E+000  0.50000000E+000
          2  0.50000000E+000  0.50000000E+000
          3  0.50000000E+000  0.50000000E+000
          4  0.50000000E+000  0.50000000E+000
          5  0.50000000E+000  0.50000000E+000
          6  0.50000000E+000  0.50000000E+000
          7  0.50000000E+000  0.50000000E+000
          8  0.50000000E+000  0.50000000E+000
          9  0.50000000E+000  0.50000000E+000
         10  0.50000000E+000  0.50000000E+000
         11  0.50000000E+000  0.50000000E+000
         12  0.50000000E+000  0.50000000E+000
         13  0.50000000E+000  0.50000000E+000
         14  0.50000000E+000  0.50000000E+000
         15  0.50000000E+000  0.50000000E+000
         16  0.50000000E+000  0.50000000E+000
         17  0.50000000E+000  0.50000000E+000
         18  0.50000000E+000  0.50000000E+000
         19  0.50000000E+000  0.50000000E+000
         20  0.50000000E+000  0.50000000E+000
         21  0.50000000E+000  0.50000000E+000
         22  0.50000000E+000  0.50000000E+000
         23  0.50000000E+000  0.50000000E+000
         24  0.50000000E+000  0.50000000E+000
         25  0.50000000E+000  0.50000000E+000
         26  0.50000000E+000  0.50000000E+000
         27  0.50000000E+000  0.50000000E+000
         28  0.50000000E+000  0.50000000E+000
         29  0.50000000E+000  0.50000000E+000
         30  0.50000000E+000  0.50000000E+000
         31  0.50000000E+000  0.50000000E+000
         32  0.50000000E+000  0.50000000E+000
         33  0.50000000E+000  0.50000000E+000
         34  0.50000000E+000  0.50000000E+000
         35  0.50000000E+000  0.50000000E+000
         36  0.50000000E+000  0.50000000E+000
End values

Result VELOC ALYA  0.10000000E+01 Vector OnNodes
ComponentNames VELOC_X,VELOC_Y,VELOC_Z
Values
          1  0.10000000E+001  0.10000000E+001
          2  0.10000000E+001  0.10000000E+001
          3  0.10000000E+001  0.10000000E+001
          4  0.10000000E+001  0.10000000E+001
          5  0.10000000E+001  0.10000000E+001
          6  0.10000000E+001  0.10000000E+001
          7  0.10000000E+001  0.10000000E+001
          8  0.10000000E+001  0.10000000E+001
          9  0.10000000E+001  0.10000000E+001
         10  0.10000000E+001  0.10000000E+001
         11  0.10000000E+001  0.10000000E+001
         12  0.10000000E+001  0.10000000E+001
         13  0.10000000E+001  0.10000000E+001
         14  0.10000000E+001  0.10000000E+001
         15  0.10000000E+001  0.10000000E+001
         16  0.10000000E+001  0.10000000E+001
         17  0.10000000E+001  0.10000000E+001
         18  0.10000000E+001  0.10000000E+001
         19  0.10000000E+001  0.10000000E+001
         20  0.10000000E+001  0.10000000E+001
         21  0.10000000E+001  0.10000000E+001
         22  0.10000000E+001  0.10000000E+001
         23  0.10000000E+001  0.10000000E+001
         24  0.10000000E+001  0.10000000E+001
         25  0.10000000E+001  0.10000000E+001
         26  0.10000000E+001  0.10000000E+001
         27  0.10000000E+001  0.10000000E+001
         28  0.10000000E+001  0.10000000E+001
         29  0.10000000E+001  0.10000000E+001
         30  0.10000000E+001  0.10000000E+001
         31  0.10000000E+001  0.10000000E+001
         32  0.10000000E+001  0.10000000E+001
         33  0.10000000E+001  0.10000000E+001
         34  0.10000000E+001  0.10000000E+001
         35  0.10000000E+001  0.10000000E+001
         36  0.10000000E+001  0.10000000E+001
End values

Result DISPM ALYA  0.15000000E+01 Vector OnNodes
ComponentNames DISPM_X,DISPM_Y,DISPM_Z
Values
          1  0.75000000E+000  0.75000000E+000
          2  0.75000000E+000  0.75000000E+000
          3  0.75000000E+000  0.75000000E+000
          4  0.75000000E+000  0.75000000E+000
          5  0.75000000E+000  0.75000000E+000
          6  0.75000000E+000  0.75000000E+000
          7  0.75000000E+000  0.75000000E+000
          8  0.75000000E+000  0.75000000E+000
          9  0.75000000E+000  0.75000000E+000
         10  0.75000000E+000  0.75000000E+000
         11  0.75000000E+000  0.75000000E+000
         12  0.75000000E+000  0.75000000E+000
         13  0.75000000E+000  0.75000000E+000
         14  0.75000000E+000  0.75000000E+000
         15  0.75000000E+000  0.75000000E+000
         16  0.75000000E+000  0.75000000E+000
         17  0.75000000E+000  0.75000000E+000
         18  0.75000000E+000  0.75000000E+000
         19  0.75000000E+000  0.75000000E+000
         20  0.75000000E+000  0.75000000E+000
         21  0.75000000E+000  0.75000000E+000
         22  0.75000000E+000  0.75000000E+000
         23  0.75000000E+000  0.75000000E+000
         24  0.75000000E+000  0.75000000E+000
         25  0.75000000E+000  0.75000000E+000
         26  0.75000000E+000  0.75000000E+000
         27  0.75000000E+000  0.75000000E+000
         28  0.75000000E+000  0.75000000E+000
         29  0.75000000E+000  0.75000000E+000
         30  0.75000000E+000  0.75000000E+000
         31  0.75000000E+000  0.75000000E+000
         32  0.75000000E+000  0.75000000E+000
         33  0.75000000E+000  0.75000000E+000
         34  0.75000000E+000  0.75000000E+000
         35  0.75000000E+000  0.75000000E+000
         36  0.75000000E+000  0.75000000E+000
End values

Result VELOC ALYA  0.15000000E+01 Vector OnNodes
ComponentNames VELOC_X,VELOC_Y,VELOC_Z
Values
          1  0.15000000E+001  0.15000000E+001
          2  0.15000000E+001  0.15000000E+001
          3  0.15000000E+001  0.15000000E+001
          4  0.15000000E+001  0.15000000E+001
          5  0.15000000E+001  0.15000000E+001
          6  0.15000000E+001  0.15000000E+001
          7  0.15000000E+001  0.15000000E+001
          8  0.15000000E+001  0.15000000E+001
          9  0.15000000E+001  0.15000000E+001
         10  0.15000000E+001  0.15000000E+001
         11  0.15000000E+001  0.15000000E+001
         12  0.15000000E+001  0.15000000E+001
         13  0.15000000E+001  0.15000000E+001
         14  0.15000000E+001  0.15000000E+001
         15  0.15000000E+001  0.15000000E+001
         16  0.15000000E+001  0.15000000E+001
         17  0.15000000E+001  0.15000000E+001
         18  0.15000000E+001  0.15000000E+001
         19  0.15000000E+001  0.15000000E+001
         20  0.15000000E+001  0.15000000E+001
         21  0.15000000E+001  0.15000000E+001
         22  0.15000000E+001  0.15000000E+001
         23  0.15000000E+001  0.15000000E+001
         24  0.15000000E+001  0.15000000E+001
         25  0.15000000E+001  0.15000000E+001
         26  0.15000000E+001  0.15000000E+001
         27  0.15000000E+001  0.15000000E+001
         28  0.15000000E+001  0.15000000E+001
         29  0.15000000E+001  0.15000000E+001
         30  0.15000000E+001  0.15000000E+001
         31  0.15000000E+001  0.15000000E+001
         32  0.15000000E+001  0.15000000E+001
         33  0.15000000E+001  0.15000000E+001
         34  0.15000000E+001  0.15000000E+001
         35  0.15000000E+001  0.15000000E+001
         36  0.15000000E+001  0.15000000E+001
End values

Result DISPM ALYA  0.20000000E+01 Vector OnNodes
ComponentNames DISPM_X,DISPM_Y,DISPM_Z
Values
          1  0.10000000E+001  0.10000000E+001
          2  0.10000000E+001  0.10000000E+001
          3  0.10000000E+001  0.10000000E+001
          4  0.10000000E+001  0.10000000E+001
          5  0.10000000E+001  0.10000000E+001
          6  0.10000000E+001  0.10000000E+001
          7  0.10000000E+001  0.10000000E+001
          8  0.10000000E+001  0.10000000E+001
          9  0.10000000E+001  0.10000000E+001
         10  0.10000000E+001  0.10000000E+001
         11  0.10000000E+001  0.10000000E+001
         12  0.10000000E+001  0.10000000E+001
         13  0.10000000E+001  0.10000000E+001
         14  0.10000000E+001  0.10000000E+001
         15  0.10000000E+001  0.10000000E+001
         16  0.10000000E+001  0.10000000E+001
         17  0.10000000E+001  0.10000000E+001
         18  0.10000000E+001  0.10000000E+001
         19  0.10000000E+001  0.10000000E+001
         20  0.10000000E+001  0.10000000E+001
         21  0.10000000E+001  0.10000000E+001
         22  0.10000000E+001  0.10000000E+001
         23  0.10000000E+001  0.10000000E+001
         24  0.10000000E+001  0.10000000E+001
         25  0.10000000E+001  0.10000000E+001
         26  0.10000000E+001  0.10000000E+001
         27  0.10000000E+001  0.10000000E+001
         28  0.10000000E+001  0.10000000E+001
         29  0.10000000E+001  0.10000000E+001
         30  0.10000000E+001  0.10000000E+001
         31  0.10000000E+001  0.10000000E+001
         32  0.10000000E+001  0.10000000E+001
         33  0.10000000E+001  0.10000000E+001
         34  0.10000000E+001  0.10000000E+001
         35  0.10000000E+001  0.10000000E+001
         36  0.10000000E+001  0.10000000E+001
End values

Result VELOC ALYA  0.20000000E+01 Vector OnNodes
ComponentNames VELOC_X,VELOC_Y,VELOC_Z
Values
          1  0.20000000E+001  0.20000000E+001
          2  0.20000000E+001  0.20000000E+001
          3  0.20000000E+001  0.20000000E+001
          4  0.20000000E+001  0.20000000E+001
          5  0.20000000E+001  0.20000000E+001
          6  0.20000000E+001  0.20000000E+001
          7  0.20000000E+001  0.20000000E+001
          8  0.20000000E+001  0.20000000E+001
          9  0.20000000E+001  0.20000000E+001
         10  0.20000000E+001  0.20000000E+001
         11  0.20000000E+001  0.20000000E+001
         12  0.20000000E+001  0.20000000E+001
         13  0.20000000E+001  0.20000000E+001
         14  0.20000000E+001  0.20000000E+001
         15  0.20000000E+001  0.20000000E+001
         16  0.20000000E+001  0.20000000E+001
         17  0.20000000E+001  0.20000000E+001
         18  0.20000000E+001  0.20000000E+001
         19  0.20000000E+001  0.20000000E+001
         20  0.20000000E+001  0.20000000E+001
         21  0.20000000E+001  0.20000000E+001
         22  0.20000000E+001  0.20000000E+001
         23  0.20000000E+001  0.20000000E+001
         24  0.20000000E+001  0.20000000E+001
         25  0.20000000E+001  0.20000000E+001
         26  0.20000000E+001  0.20000000E+001
         27  0.20000000E+001  0.20000000E+001
         28  0.20000000E+001  0.20000000E+001
         29  0.20000000E+001  0.20000000E+001
         30  0.20000000E+001  0.20000000E+001
         31  0.20000000E+001  0.20000000E+001
         32  0.20000000E+001  0.20000000E+001
         33  0.20000000E+001  0.20000000E+001
         34  0.20000000E+001  0.20000000E+001
         35  0.20000000E+001  0.20000000E+001
         36  0.20000000E+001  0.20000000E+001
End values

Result DISPM ALYA  0.25000000E+01 Vector OnNodes
ComponentNames DISPM_X,DISPM_Y,DISPM_Z
Values
          1  0.10000000E+001  0.10000000E+001
          2  0.10000000E+001  0.10000000E+001
          3  0.10000000E+001  0.10000000E+001
          4  0.10000000E+001  0.10000000E+001
          5  0.10000000E+001  0.10000000E+001
          6  0.10000000E+001  0.10000000E+001
          7  0.10000000E+001  0.10000000E+001
          8  0.10000000E+001  0.10000000E+001
          9  0.10000000E+001  0.10000000E+001
         10  0.10000000E+001  0.10000000E+001
         11  0.10000000E+001  0.10000000E+001
         12  0.10000000E+001  0.10000000E+001
         13  0.10000000E+001  0.10000000E+001
         14  0.10000000E+001  0.10000000E+001
         15  0.10000000E+001  0.10000000E+001
         16  0.10000000E+001  0.10000000E+001
         17  0.10000000E+001  0.10000000E+001
         18  0.10000000E+001  0.10000000E+001
         19  0.10000000E+001  0.10000000E+001
         20  0.10000000E+001  0.10000000E+001
         21  0.10000000E+001  0.10000000E+001
         22  0.10000000E+001  0.10000000E+001
         23  0.10000000E+001  0.10000000E+001
         24  0.10000000E+001  0.10000000E+001
         25  0.10000000E+001  0.10000000E+001
         26  0.10000000E+001  0.10000000E+001
         27  0.10000000E+001  0.10000000E+001
         28  0.10000000E+001  0.10000000E+001
         29  0.10000000E+001  0.10000000E+001
         30  0.10000000E+001  0.10000000E+001
         31  0.10000000E+001  0.10000000E+001
         32  0.10000000E+001  0.10000000E+001
         33  0.10000000E+001  0.10000000E+001
         34  0.10000000E+001  0.10000000E+001
         35  0.10000000E+001  0.10000000E+001
         36  0.10000000E+001  0.10000000E+001
End values

Result VELOC ALYA  0.25000000E+01 Vector OnNodes
ComponentNames VELOC_X,VELOC_Y,VELOC_Z
Values
          1  0.20000000E+001  0.20000000E+001
          2  0.20000000E+001  0.20000000E+001
          3  0.20000000E+001  0.20000000E+001
          4  0.20000000E+001  0.20000000E+001
          5  0.20000000E+001  0.20000000E+001
          6  0.20000000E+001  0.20000000E+001
          7  0.20000000E+001  0.20000000E+001
          8  0.20000000E+001  0.20000000E+001
          9  0.20000000E+001  0.20000000E+001
         10  0.20000000E+001  0.20000000E+001
         11  0.20000000E+001  0.20000000E+001
         12  0.20000000E+001  0.20000000E+001
         13  0.20000000E+001  0.20000000E+001
         14  0.20000000E+001  0.20000000E+001
         15  0.20000000E+001  0.20000000E+001
         16  0.20000000E+001  0.20000000E+001
         17  0.20000000E+001  0.20000000E+001
         18  0.20000000E+001  0.20000000E+001
         19  0.20000000E+001  0.20000000E+001
         20  0.20000000E+001  0.20000000E+001
         21  0.20000000E+001  0.20000000E+001
         22  0.20000000E+001  0.20000000E+001
         23  0.20000000E+001  0.20000000E+001
         24  0.20000000E+001  0.20000000E+001
         25  0.20000000E+001  0.20000000E+001
         26  0.20000000E+001  0.20000000E+001
         27  0.20000000E+001  0.20000000E+001
         28  0.20000000E+001  0.20000000E+001
         29  0.20000000E+001  0.20000000E+001
         30  0.20000000E+001  0.20000000E+001
         31  0.20000000E+001  0.20000000E+001
         32  0.20000000E+001  0.20000000E+001
         33  0.20000000E+001  0.20000000E+001
         34  0.20000000E+001  0.20000000E+001
         35  0.20000000E+001  0.20000000E+001
         36  0.20000000E+001  0.20000000E+001
End values

