# --| ALYA Eulerian Droplet Data                
# --| Columns displayed:                        
# --| 1. Id number                              
# --| 2. Cluster Volume                         
# --| 3. Spherical droplet Volume (*)           
# --| 4. Compactness_2 (*)                      
# --| 5. Spherical droplet Diameter (*)         
# --| 6. Centroid_x (*)                         
# --| 7. Centroid_y (*)                         
# --| 8. Centroid_z (*)                         
# --| (*) it takes into account the fluid concentration (level set function) 
 
# Time step =        0   Global Iteration =        0   Inner Iteration =        0   Current time = 0.00000E+00   Total number of droplets =        8
#           1                 2                 3                 4                 5                 6                 7                 8
            1   0.92592593E-002   0.92592593E-002   0.53313780E+000   0.26053088E+000  -0.83333333E+000  -0.79166667E+000  -0.83333333E+000
            2   0.34722222E-002   0.34722222E-002   0.24076351E+000   0.18787528E+000  -0.58333333E+000  -0.20833333E+000   0.20833333E+000
            3   0.56712963E-001   0.56712963E-001   0.94496964E+000   0.47668107E+000  -0.39880952E+000   0.39880952E+000  -0.22676823E-011
            4   0.36458333E-001   0.36458333E-001   0.65477535E+000   0.41140168E+000  -0.29166667E+000  -0.54166667E+000  -0.45833333E+000
            5   0.46296296E-002   0.46296296E-002   0.92360336E+000   0.20678350E+000   0.25000000E+000  -0.25000000E+000   0.25000000E+000
            6   0.27777778E-001   0.27777778E-001   0.89258666E+000   0.37575055E+000   0.29166667E+000   0.33333333E+000   0.33333333E+000
            7   0.23148148E-002   0.23127441E-002   0.77562374E+000   0.16407522E+000   0.50000000E+000  -0.75000000E+000  -0.70832622E+000
            8   0.46296296E-002   0.46296296E-002   0.16792788E+000   0.20678350E+000   0.50000000E+000   0.79166667E+000  -0.79166667E+000
  
