{
    "authors": [
        "ambrus.both@bsc.es"
    ],
    "comparisons": [
        {
            "file": "inject_from_file.pts.res-col5.out",
            "method": "absolute",
            "tolerance": "1.0e-7"
        },
        {
            "file": "inject_from_file.pts.res-col6.out",
            "method": "absolute",
            "tolerance": "1.0e-7"
        },
        {
            "file": "inject_from_file.pts.res-col7.out",
            "method": "absolute",
            "tolerance": "1.0e-7"
        },
        {
            "file": "inject_from_file.pts.res-col13.out",
            "method": "absolute",
            "tolerance": "1.0e-5"
        },
        {
            "file": "inject_from_file.pts.res-col14.out",
            "method": "absolute",
            "tolerance": "1.0e-15"
        },
        {
            "file": "inject_from_file.pts.res-col15.out",
            "method": "absolute",
            "tolerance": "1.0e-10"
        }
    ],
    "description": "An example for hollow cone postprocessing",
    "executions": [
        {
            "commands": {
                "postprocess": "[ALYA-PATH]/Utils/user/extractColumnFromFile.sh [NAME].pts.res 5 6 7 13 14 15; echo | [POST] [NAME]"
            },
            "mpi": 1,
            "openmp": 0
        },
        {
            "commands": {
                "postprocess": "[ALYA-PATH]/Utils/user/extractColumnFromFile.sh [NAME].pts.res 5 6 7 13 14 15; echo | [POST] [NAME]"
            },
            "mpi": 3,
            "openmp": 0
        }
    ],
    "include": [
		"normal"
    ],
    "modules": [
        "partis"
    ],
    "name": "inject_from_file",
    "postprocess": "mpio2txt"
}
