{
    "authors": [
        "anurag.surapaneni@bsc.es"
    ],
    "comparisons": [
        {
            "file": "fin_rate_premix_1d_flame_no_nsi_mad.tem.wit-col2.out",
            "method": "absolute",
            "tolerance": "1.0e-1"
        },
        {
            "file": "fin_rate_premix_1d_flame_no_nsi_mad-CON04-00000010.post.mpio.txt",
            "method": "absolute",
            "tolerance": "1.0e-6"
        },
        {
            "file": "fin_rate_premix_1d_flame_no_nsi_mad-CON05-00000010.post.mpio.txt",
            "method": "absolute",
            "tolerance": "1.0e-6"
        },
        {
            "file": "fin_rate_premix_1d_flame_no_nsi_mad-CON06-00000010.post.mpio.txt",
            "method": "absolute",
            "tolerance": "1.0e-6"
        },
        {
            "file": "fin_rate_premix_1d_flame_no_nsi_mad-CON14-00000010.post.mpio.txt",
            "method": "absolute",
            "tolerance": "1.0e-6"
        },
        {
            "file": "fin_rate_premix_1d_flame_no_nsi_mad-CON48-00000010.post.mpio.txt",
            "method": "absolute",
            "tolerance": "1.0e-6"
        },
        {
            "file": "fin_rate_premix_1d_flame_no_nsi_mad-ENTHA-00000010.post.mpio.txt",
            "method": "absolute",
            "tolerance": "1.0e1"
        },
        {
            "file": "fin_rate_premix_1d_flame_no_nsi_mad-VISCO-00000010.post.mpio.txt",
            "method": "absolute",
            "tolerance": "1.0e-6"
        },
        {
            "file": "fin_rate_premix_1d_flame_no_nsi_mad-TEMPE-00000010.post.mpio.txt",
            "method": "absolute",
            "tolerance": "1.0e-1"
        }
    ],
    "description": "Laminar premixed flame in 1D domain with finite rate chemistry with Mixtured Averaged Diffusion.",
    "enabled": true,
    "executions": [
        {
            "commands": {
                "postprocess": "[ALYA-PATH]/Utils/user/extractColumnFromFile.sh [NAME].tem.wit 2; echo | [POST] [NAME]"
            },
            "mpi": 1,
            "openmp": 0
        },
        {
            "commands": {
                "postprocess": "[ALYA-PATH]/Utils/user/extractColumnFromFile.sh [NAME].tem.wit 2; echo | [POST] [NAME]"
            },
            "mpi": 3,
            "openmp": 0
        },
        {
            "commands": {
                "postprocess": "[ALYA-PATH]/Utils/user/extractColumnFromFile.sh [NAME].tem.wit 2; echo | [POST] [NAME]"
            },
            "mpi": 3,
            "openmp": 3
        }
    ],
    "include": [
        "cantera"
    ],
    "modules": [
        "temper",
        "chemic"
    ],
    "name": "fin_rate_premix_1d_flame_no_nsi_mad",
    "postprocess": "mpio2txt"
}
