 0.10000000E+001
 0.20000000E+001
 0.30000000E+001
 0.40000000E+001
 0.50000000E+001
 0.60000000E+001
 0.70000000E+001
 0.80000000E+001
 0.90000000E+001
 0.10000000E+002
 0.11000000E+002
 0.12000000E+002
 0.13000000E+002
 0.14000000E+002
 0.15000000E+002
 0.16000000E+002
 0.17000000E+002
 0.18000000E+002
 0.19000000E+002
 0.20000000E+002
 0.21000000E+002
 0.22000000E+002
 0.23000000E+002
 0.24000000E+002
 0.25000000E+002
 0.26000000E+002
 0.27000000E+002
 0.28000000E+002
 0.29000000E+002
 0.30000000E+002
 0.31000000E+002
 0.32000000E+002
 0.33000000E+002
 0.34000000E+002
 0.35000000E+002
 0.36000000E+002
 0.37000000E+002
 0.38000000E+002
 0.39000000E+002
 0.40000000E+002
 0.41000000E+002
 0.42000000E+002
 0.43000000E+002
 0.44000000E+002
 0.45000000E+002
 0.46000000E+002
 0.47000000E+002
 0.48000000E+002
 0.49000000E+002
 0.50000000E+002
 0.51000000E+002
 0.52000000E+002
 0.53000000E+002
 0.54000000E+002
 0.55000000E+002
 0.56000000E+002
 0.57000000E+002
 0.58000000E+002
 0.59000000E+002
 0.60000000E+002
 0.61000000E+002
 0.62000000E+002
 0.63000000E+002
 0.64000000E+002
 0.65000000E+002
 0.66000000E+002
 0.67000000E+002
 0.68000000E+002
 0.69000000E+002
 0.70000000E+002
 0.71000000E+002
 0.72000000E+002
 0.73000000E+002
 0.74000000E+002
 0.75000000E+002
 0.76000000E+002
 0.77000000E+002
 0.78000000E+002
 0.79000000E+002
 0.80000000E+002
 0.81000000E+002
 0.82000000E+002
 0.83000000E+002
 0.84000000E+002
 0.85000000E+002
 0.86000000E+002
 0.87000000E+002
 0.88000000E+002
 0.89000000E+002
 0.90000000E+002
 0.91000000E+002
 0.92000000E+002
 0.93000000E+002
 0.94000000E+002
 0.95000000E+002
 0.96000000E+002
 0.97000000E+002
 0.98000000E+002
 0.99000000E+002
 0.10000000E+003
 0.10100000E+003
 0.10200000E+003
 0.10300000E+003
 0.10400000E+003
 0.10500000E+003
 0.10600000E+003
 0.10700000E+003
 0.10800000E+003
 0.10900000E+003
 0.11000000E+003
 0.11100000E+003
 0.11200000E+003
 0.11300000E+003
 0.11400000E+003
 0.11500000E+003
 0.11600000E+003
 0.11700000E+003
 0.11800000E+003
 0.11900000E+003
 0.12000000E+003
 0.12100000E+003
