GiD Post Results File 1.0
 
Result TEMPE ALYA  0.00000000E+00 Scalar OnNodes
ComponentNames TEMPE
Values
          1  0.00000000E+000
          2  0.00000000E+000
          3  0.00000000E+000
          4  0.00000000E+000
          5  0.00000000E+000
          6  0.00000000E+000
          7  0.00000000E+000
          8  0.00000000E+000
          9  0.00000000E+000
         10  0.00000000E+000
         11  0.00000000E+000
End values

Result TEMPE ALYA  0.10000000E+00 Scalar OnNodes
ComponentNames TEMPE
Values
          1  0.00000000E+000
          2  0.45000000E+001
          3  0.80000000E+001
          4  0.10500000E+002
          5  0.12000000E+002
          6  0.12500000E+002
          7  0.12000000E+002
          8  0.10500000E+002
          9  0.80000000E+001
         10  0.45000000E+001
         11  0.00000000E+000
End values

