{
    "authors": [
        "cbutakoff@elem.bio"
    ],
    "comparisons": [
        {
            "file": "cardiac_cycle_calcium_sld-cardiac-cycle.sld.res",
            "method": "absolute",
            "tolerance": "1.0e-14"
        }
    ],
    "description": "Test calcium calculation in cardiac cycle, solidz-exmedi coupling",
    "enabled": true,
    "exclude": [
        "special"
    ],
    "executions": [
        {
            "commands": {
                "alya": "[RUN] [NP] 3 [ALYA] [NAME]_sld [SEP] [NP] 3 [ALYA] [NAME]_exm"
            },
            "mpi": 6,
            "openmp": 0
        }
    ],
    "modules": [
        "exmedi",
        "solidz"
    ],
    "name": "cardiac_cycle_calcium",
    "postprocess": "none",
    "timeout": "00:03:00"
}
