{
    "authors": [
        "guillaume.houzeaux@bsc.es"
    ],
    "comparisons": [
        {
            "file": "hex27-mm.post.msh",
            "method": "absolute",
            "tolerance": "1e-10"
        }
    ],
    "description": "Divide HEX27 elements using two levels of MM and 3 MPIs",
    "exclude": [
        "special"
    ],
    "executions": [
        {
            "mpi": 3,
            "openmp": 0
        }
    ],
    "modules": [
        "temper"
    ],
    "name": "hex27-mm",
    "postprocess": "alya2pos"
}
