{
    "authors": [
        "ambrus.both@bsc.es",
        "guillermo.oyarzun@bsc.es"
    ],
    "comparisons": [
        {
            "file": "non_prem_box_SqSq_vectorized-boundary.chm.set-col3.out",
            "method": "absolute",
            "tolerance": "1.0e-10"
        },
        {
            "file": "non_prem_box_SqSq_vectorized-boundary.chm.set-col4.out",
            "method": "absolute",
            "tolerance": "1.0e-10"
        },
        {
            "file": "non_prem_box_SqSq_vectorized-boundary.chm.set-col5.out",
            "method": "absolute",
            "tolerance": "1.0e-10"
        },
        {
            "file": "non_prem_box_SqSq_vectorized-boundary.chm.set-col6.out",
            "method": "absolute",
            "tolerance": "1.0e-10"
        },
        {
            "file": "non_prem_box_SqSq_vectorized-boundary.chm.set-col7.out",
            "method": "absolute",
            "tolerance": "1.0e-10"
        },
        {
            "file": "non_prem_box_SqSq_vectorized.chm.wit-col2.out",
            "method": "absolute",
            "tolerance": "1.0e-6"
        },
        {
            "file": "non_prem_box_SqSq_vectorized.chm.wit-col3.out",
            "method": "absolute",
            "tolerance": "1.0e-6"
        },
        {
            "file": "non_prem_box_SqSq_vectorized.chm.wit-col4.out",
            "method": "absolute",
            "tolerance": "1.0e-6"
        },
        {
            "file": "non_prem_box_SqSq_vectorized.chm.wit-col5.out",
            "method": "absolute",
            "tolerance": "1.0e-6"
        },
        {
            "file": "non_prem_box_SqSq_vectorized.chm.wit-col10.out",
            "method": "absolute",
            "tolerance": "1.0e-6"
        },
        {
            "file": "non_prem_box_SqSq_vectorized.chm.wit-col11.out",
            "method": "absolute",
            "tolerance": "1.0e-6"
        },
        {
            "file": "non_prem_box_SqSq_vectorized.chm.wit-col12.out",
            "method": "absolute",
            "tolerance": "1.0e-6"
        },
        {
            "file": "non_prem_box_SqSq_vectorized.chm.wit-col13.out",
            "method": "absolute",
            "tolerance": "1.0e-6"
        },
        {
            "file": "non_prem_box_SqSq_vectorized.chm.wit-col14.out",
            "method": "absolute",
            "tolerance": "1.0e-6"
        },
        {
            "file": "non_prem_box_SqSq_vectorized.chm.wit-col16.out",
            "method": "absolute",
            "tolerance": "1.0e-6"
        },
        {
            "file": "non_prem_box_SqSq_vectorized.chm.wit-col17.out",
            "method": "absolute",
            "tolerance": "1.0e-6"
        },
        {
            "file": "non_prem_box_SqSq_vectorized.tem.wit-col2.out",
            "method": "absolute",
            "tolerance": "1.0e-10"
        },
        {
            "file": "non_prem_box_SqSq_vectorized.tem.wit-col3.out",
            "method": "absolute",
            "tolerance": "1.0e-10"
        },
        {
            "file": "non_prem_box_SqSq_vectorized-CON01-00000010.post.mpio.txt",
            "method": "absolute",
            "tolerance": "1.0e-7"
        },
        {
            "file": "non_prem_box_SqSq_vectorized-CON02-00000010.post.mpio.txt",
            "method": "absolute",
            "tolerance": "1.0e-7"
        },
        {
            "file": "non_prem_box_SqSq_vectorized-CON03-00000010.post.mpio.txt",
            "method": "absolute",
            "tolerance": "1.0e-7"
        },
        {
            "file": "non_prem_box_SqSq_vectorized-CON04-00000010.post.mpio.txt",
            "method": "absolute",
            "tolerance": "1.0e-7"
        },
        {
            "file": "non_prem_box_SqSq_vectorized-SCO01-00000010.post.mpio.txt",
            "method": "absolute",
            "tolerance": "1.0e-7"
        },
        {
            "file": "non_prem_box_SqSq_vectorized-SCO02-00000010.post.mpio.txt",
            "method": "absolute",
            "tolerance": "1.0e-7"
        },
        {
            "file": "non_prem_box_SqSq_vectorized-SCO03-00000010.post.mpio.txt",
            "method": "absolute",
            "tolerance": "1.0e-7"
        },
        {
            "file": "non_prem_box_SqSq_vectorized-SCO04-00000010.post.mpio.txt",
            "method": "absolute",
            "tolerance": "1.0e-7"
        },
        {
            "file": "non_prem_box_SqSq_vectorized-TEMPE-00000010.post.mpio.txt",
            "method": "absolute",
            "tolerance": "1.0e-2"
        },
        {
            "file": "non_prem_box_SqSq_vectorized-XYR-00000010.post.mpio.txt",
            "method": "absolute",
            "tolerance": "1.0e-7"
        },
        {
            "file": "non_prem_box_SqSq_vectorized-XYS-00000010.post.mpio.txt",
            "method": "absolute",
            "tolerance": "1.0e-7"
        },
        {
            "file": "non_prem_box_SqSq_vectorized-XZR-00000010.post.mpio.txt",
            "method": "absolute",
            "tolerance": "1.0e-6"
        },
        {
            "file": "non_prem_box_SqSq_vectorized-XZS-00000010.post.mpio.txt",
            "method": "absolute",
            "tolerance": "1.0e-6"
        },
        {
            "file": "non_prem_box_SqSq_vectorized-VELOC-00000010.post.mpio.txt",
            "method": "absolute",
            "tolerance": "1.0e-6"
        }
    ],
    "description": "Non premixed flame in square shaped duct with slip walls, both variance models on with transporting the square of control variables.",
    "include": [
		"normal"
	],
    "executions": [
        {
            "commands": {
                "postprocess": "[ALYA-PATH]/Utils/user/extractColumnFromFile.sh [NAME]-boundary.chm.set 3 4 5 6 7; [ALYA-PATH]/Utils/user/extractColumnFromFile.sh [NAME].chm.wit 2 3 4 5 10 11 12 13 14 16 17; [ALYA-PATH]/Utils/user/extractColumnFromFile.sh [NAME].tem.wit 2 3; echo | [POST] [NAME]"
            },
            "mpi": 1,
            "openmp": 0
        },
        {
            "commands": {
                "postprocess": "[ALYA-PATH]/Utils/user/extractColumnFromFile.sh [NAME]-boundary.chm.set 3 4 5 6 7; [ALYA-PATH]/Utils/user/extractColumnFromFile.sh [NAME].chm.wit 2 3 4 5 10 11 12 13 14 16 17; [ALYA-PATH]/Utils/user/extractColumnFromFile.sh [NAME].tem.wit 2 3; echo | [POST] [NAME]"
            },
            "mpi": 3,
            "openmp": 0
        },
        {
            "commands": {
                "postprocess": "[ALYA-PATH]/Utils/user/extractColumnFromFile.sh [NAME]-boundary.chm.set 3 4 5 6 7; [ALYA-PATH]/Utils/user/extractColumnFromFile.sh [NAME].chm.wit 2 3 4 5 10 11 12 13 14 16 17; [ALYA-PATH]/Utils/user/extractColumnFromFile.sh [NAME].tem.wit 2 3; echo | [POST] [NAME]"
            },
            "mpi": 3,
            "openmp": 3
        }
    ],
    "modules": [
        "nastin",
        "temper",
        "chemic"
    ],
    "name": "non_prem_box_SqSq_vectorized",
    "postprocess": "mpio2txt"
}
