$------------------------------------------------------------
RUN_DATA                                                     
  ALYA          keDisc
  CUSTOMER      CFDW1
  RUN_TYPE:   $  nocontin , PRELIMINARY, FREQUENCY=25        
$  RUN_TYPE:     contin   , PRELIMINARY, FREQUENCY=25         
  TIMING        On                                           
END_RUN_DATA                                                 
$------------------------------------------------------------
PROBLEM_DATA                                                 
  TIME_COUPLING         local, from_critical
  TIME_INTERVAL         0.0, 1d8                             
  TIME_STEP_SIZE        1.0                                  
  NUMBER_OF_STEPS         2
  NASTIN_MODULE          On                                  
  END_NASTIN_MODULE                                          
  TURBUL_MODULE          On
  END_TURBUL_MODULE                                          
  TEMPER_MODULE          Off
  END_TEMPER_MODULE                                          
  PARALL_SERVICE         On                                  
    OUTPUT_FILE          OFF                                 
    POSTPROCESS          MASTER                              
    PARTITION_TYPE       FACES                               
    OPENMP                                                   
      COLORING: MINCO                                        
    END_OPENMP                                               
  END_PARALL_SERVICE                                         
END_PROBLEM_DATA                                             
$------------------------------------------------------------
MPI_IO: On                                                  
  GEOMETRY: Off                                              
  RESTART: Off                                                
  POSTPROCESS: On                                            
END_MPI_IO                                                   
$------------------------------------------------------------
