 0.00000000E+000
 0.10000000E+001
 0.99999999E+000
 0.00000000E+000
 0.32984896E-016
 0.36831204E-016
 0.37178213E-016
 0.37191730E-016
 0.37200953E-016
 0.37195922E-016
 0.37199298E-016
 0.37197162E-016
 0.37198470E-016
 0.37197699E-016
 0.37198137E-016
 0.37197897E-016
 0.37198023E-016
 0.37197960E-016
 0.37197991E-016
 0.37197976E-016
 0.37197983E-016
 0.37197980E-016
 0.37197981E-016
 0.37197981E-016
 0.37197981E-016
 0.37197981E-016
 0.37197981E-016
 0.37197981E-016
 0.37197981E-016
 0.37197981E-016
 0.37197980E-016
 0.37197982E-016
 0.37197978E-016
 0.37197986E-016
 0.37197972E-016
 0.37197994E-016
 0.37197967E-016
 0.37197979E-016
 0.37198046E-016
 0.37197735E-016
 0.37198662E-016
 0.37197579E-016
 0.37351124E-016
 0.54209689E-016
 0.18596106E-014
 0.16647748E-012
 0.14377177E-010
 0.99151997E-009
 0.65186136E-007
 0.30480031E-005
 0.13722002E-003
 0.34871205E-002
 0.66698692E-001
 0.27702878E+000
 0.54763925E+000
 0.76925464E+000
 0.87187757E+000
 0.91927617E+000
 0.95061914E+000
 0.97167630E+000
 0.98492166E+000
 0.99256366E+000
 0.99660003E+000
 0.99855409E+000
 0.99942600E+000
 0.99978656E+000
 0.99992542E+000
 0.99997544E+000
 0.99999235E+000
 0.99999774E+000
 0.99999936E+000
 0.99999983E+000
 0.99999995E+000
 0.99999998E+000
 0.99999999E+000
 0.99999999E+000
 0.99999999E+000
 0.99999999E+000
 0.99999999E+000
 0.99999999E+000
 0.99999999E+000
 0.99999999E+000
 0.99999999E+000
 0.99999999E+000
 0.99999999E+000
 0.10000000E+001
 0.10000000E+001
 0.10000000E+001
 0.10000000E+001
 0.10000000E+001
 0.10000000E+001
 0.10000000E+001
 0.10000000E+001
 0.10000000E+001
 0.10000000E+001
 0.10000000E+001
 0.10000000E+001
 0.10000000E+001
 0.10000000E+001
 0.99999999E+000
 0.99999999E+000
 0.99999999E+000
 0.99999999E+000
 0.99999999E+000
 0.99999999E+000
 0.99999999E+000
 0.10000000E+001
 0.10000000E+001
 0.99999999E+000
 0.10000000E+001
 0.99999999E+000
 0.10000000E+001
 0.99999999E+000
 0.10000000E+001
 0.10000000E+001
 0.10000000E+001
 0.10000000E+001
 0.10000000E+001
 0.99999999E+000
 0.10000000E+001
 0.10000000E+001
 0.10000000E+001
 0.99999999E+000
 0.99999999E+000
 0.99999999E+000
 0.99999999E+000
 0.99999999E+000
 0.99999999E+000
 0.99999999E+000
 0.99999999E+000
 0.99999999E+000
 0.99999999E+000
 0.99999998E+000
 0.99999995E+000
 0.99999983E+000
 0.99999936E+000
 0.99999774E+000
 0.99999235E+000
 0.99997544E+000
 0.99992542E+000
 0.99978656E+000
 0.99942600E+000
 0.99855409E+000
 0.99660003E+000
 0.99256367E+000
 0.98492165E+000
 0.97167636E+000
 0.95061864E+000
 0.91927891E+000
 0.87184722E+000
 0.76943368E+000
 0.54422367E+000
 0.28868507E+000
 0.50695339E-001
 0.41660765E-002
 0.11484223E-003
 0.34286798E-005
 0.59208307E-007
 0.10622800E-008
 0.13638272E-010
 0.17303834E-012
 0.18077924E-014
 0.54573917E-016
 0.37348752E-016
 0.37197609E-016
 0.37198657E-016
 0.37197737E-016
 0.37198046E-016
 0.37197979E-016
 0.37197967E-016
 0.37197994E-016
 0.37197972E-016
 0.37197986E-016
 0.37197978E-016
 0.37197982E-016
 0.37197980E-016
 0.37197981E-016
 0.37197981E-016
 0.37197981E-016
 0.37197981E-016
 0.37197981E-016
 0.37197981E-016
 0.37197981E-016
 0.37197981E-016
 0.37197980E-016
 0.37197983E-016
 0.37197976E-016
 0.37197991E-016
 0.37197960E-016
 0.37198023E-016
 0.37197897E-016
 0.37198137E-016
 0.37197699E-016
 0.37198470E-016
 0.37197162E-016
 0.37199298E-016
 0.37195922E-016
 0.37200953E-016
 0.37191730E-016
 0.37178213E-016
 0.36831204E-016
 0.32984896E-016
