-0.77091213E-020
-0.19504471E-005
-0.19504471E-005
-0.77091213E-020
-0.20108142E-019
-0.26266011E-019
-0.26520761E-019
-0.26520761E-019
-0.26520761E-019
-0.26520761E-019
-0.26520761E-019
-0.26520761E-019
-0.26520761E-019
-0.26520761E-019
-0.26520761E-019
-0.26520761E-019
-0.26520761E-019
-0.26520761E-019
-0.26520761E-019
-0.26520761E-019
-0.26520761E-019
-0.26520761E-019
-0.26520761E-019
-0.26520761E-019
-0.26520761E-019
-0.26520761E-019
-0.26520761E-019
-0.26520761E-019
-0.26520761E-019
-0.26520761E-019
-0.26520761E-019
-0.26520761E-019
-0.26520761E-019
-0.26520761E-019
-0.26520761E-019
-0.26520761E-019
-0.26520761E-019
-0.26520761E-019
-0.26520761E-019
-0.26520761E-019
-0.26520761E-019
-0.26605678E-019
-0.29124326E-019
-0.25283300E-018
-0.21244364E-016
-0.17864408E-014
-0.12930753E-012
-0.81155812E-011
-0.41365483E-009
-0.17194801E-007
-0.51101231E-006
-0.22291058E-004
-0.16392258E-002
-0.25400237E+000
-0.54415796E+001
-0.18061402E+001
 0.10496090E+002
 0.13000333E+001
-0.33325158E+000
-0.35974896E+000
-0.21391011E+000
-0.10768282E+000
-0.50177445E-001
-0.21778911E-001
-0.88294400E-002
-0.33547661E-002
-0.11987921E-002
-0.40462715E-003
-0.12998369E-003
-0.40516777E-004
-0.12981332E-004
-0.49527629E-005
-0.27295759E-005
-0.21435873E-005
-0.19962608E-005
-0.19608624E-005
-0.19527199E-005
-0.19509238E-005
-0.19505433E-005
-0.19504658E-005
-0.19504506E-005
-0.19504477E-005
-0.19504472E-005
-0.19504471E-005
-0.19504471E-005
-0.19504471E-005
-0.19504471E-005
-0.19504471E-005
-0.19504471E-005
-0.19504471E-005
-0.19504471E-005
-0.19504471E-005
-0.19504471E-005
-0.19504471E-005
-0.19504471E-005
-0.19504471E-005
-0.19504471E-005
-0.19504471E-005
-0.19504471E-005
-0.19504471E-005
-0.19504471E-005
-0.19504471E-005
-0.19504471E-005
-0.19504471E-005
-0.19504471E-005
-0.19504471E-005
-0.19504471E-005
-0.19504471E-005
-0.19504471E-005
-0.19504471E-005
-0.19504471E-005
-0.19504471E-005
-0.19504471E-005
-0.19504471E-005
-0.19504471E-005
-0.19504471E-005
-0.19504471E-005
-0.19504471E-005
-0.19504471E-005
-0.19504471E-005
-0.19504471E-005
-0.19504471E-005
-0.19504471E-005
-0.19504472E-005
-0.19504477E-005
-0.19504506E-005
-0.19504658E-005
-0.19505433E-005
-0.19509238E-005
-0.19527199E-005
-0.19608624E-005
-0.19962608E-005
-0.21435873E-005
-0.27295759E-005
-0.49527629E-005
-0.12981332E-004
-0.40516777E-004
-0.12998369E-003
-0.40462715E-003
-0.11987921E-002
-0.33547661E-002
-0.88294400E-002
-0.21778911E-001
-0.50177444E-001
-0.10768282E+000
-0.21391010E+000
-0.35974895E+000
-0.33325542E+000
 0.13003340E+001
 0.10498423E+002
-0.18013131E+001
-0.54134970E+001
-0.25614331E+000
-0.16575015E-002
-0.19402239E-004
-0.53473221E-006
-0.16355870E-007
-0.42800504E-009
-0.78865349E-011
-0.13203456E-012
-0.17577791E-014
-0.21500076E-016
-0.25057168E-018
-0.29124326E-019
-0.26605678E-019
-0.26520761E-019
-0.26520761E-019
-0.26520761E-019
-0.26520761E-019
-0.26520761E-019
-0.26520761E-019
-0.26520761E-019
-0.26520761E-019
-0.26520761E-019
-0.26520761E-019
-0.26520761E-019
-0.26520761E-019
-0.26520761E-019
-0.26520761E-019
-0.26520761E-019
-0.26520761E-019
-0.26520761E-019
-0.26520761E-019
-0.26520761E-019
-0.26520761E-019
-0.26520761E-019
-0.26520761E-019
-0.26520761E-019
-0.26520761E-019
-0.26520761E-019
-0.26520761E-019
-0.26520761E-019
-0.26520761E-019
-0.26520761E-019
-0.26520761E-019
-0.26520761E-019
-0.26520761E-019
-0.26520761E-019
-0.26520761E-019
-0.26520761E-019
-0.26266011E-019
-0.20108142E-019
