 0.11889754E-012
 0.38484889E-001
 0.38484889E-001
 0.11889754E-012
 0.11889762E-012
 0.11889767E-012
 0.11889767E-012
 0.11889767E-012
 0.11889767E-012
 0.11889767E-012
 0.11889767E-012
 0.11889767E-012
 0.11889767E-012
 0.11889767E-012
 0.11889767E-012
 0.11889767E-012
 0.11889767E-012
 0.11889767E-012
 0.11889767E-012
 0.11889767E-012
 0.11889767E-012
 0.11889767E-012
 0.11889767E-012
 0.11889767E-012
 0.11889767E-012
 0.11889767E-012
 0.11889767E-012
 0.11889767E-012
 0.11889767E-012
 0.11889767E-012
 0.11889767E-012
 0.11889767E-012
 0.11889767E-012
 0.11889767E-012
 0.11889767E-012
 0.11889767E-012
 0.11889767E-012
 0.11889767E-012
 0.11889767E-012
 0.11889767E-012
 0.11889767E-012
 0.11889767E-012
 0.11889771E-012
 0.11890142E-012
 0.11924907E-012
 0.14848719E-012
 0.22608489E-011
 0.13421650E-009
 0.59881781E-008
-0.97477773E-006
-0.81123563E-003
-0.10319579E+000
-0.23272682E+001
-0.25104847E+002
-0.10312793E+003
-0.66304645E+002
 0.52469925E+002
 0.40517035E+002
 0.20873384E+002
 0.10462365E+002
 0.49869679E+001
 0.23241777E+001
 0.18452145E+001
 0.91417552E+000
 0.37449422E+000
 0.15610935E+000
 0.80135713E-001
 0.55185805E-001
 0.47083823E-001
 0.44466276E-001
 0.43636796E-001
 0.43382899E-001
 0.43308532E-001
 0.43287770E-001
 0.43282250E-001
 0.43280851E-001
 0.43280512E-001
 0.43280434E-001
 0.43280416E-001
 0.43280413E-001
 0.43280412E-001
 0.43280412E-001
 0.43280412E-001
 0.43280412E-001
 0.43280412E-001
 0.43280412E-001
 0.43280412E-001
 0.43280412E-001
 0.43280413E-001
 0.43280414E-001
 0.43280409E-001
 0.43280375E-001
 0.43280272E-001
 0.43280126E-001
 0.43280396E-001
 0.43282912E-001
 0.43292150E-001
 0.43313414E-001
 0.43340320E-001
 0.43312889E-001
 0.43055189E-001
 0.42219396E-001
 0.40377491E-001
 0.40377491E-001
 0.42219396E-001
 0.43055189E-001
 0.43312889E-001
 0.43340320E-001
 0.43313414E-001
 0.43292150E-001
 0.43282912E-001
 0.43280396E-001
 0.43280126E-001
 0.43280272E-001
 0.43280375E-001
 0.43280409E-001
 0.43280414E-001
 0.43280413E-001
 0.43280412E-001
 0.43280412E-001
 0.43280412E-001
 0.43280412E-001
 0.43280412E-001
 0.43280412E-001
 0.43280412E-001
 0.43280412E-001
 0.43280413E-001
 0.43280416E-001
 0.43280434E-001
 0.43280512E-001
 0.43280851E-001
 0.43282250E-001
 0.43287770E-001
 0.43308532E-001
 0.43382899E-001
 0.43636796E-001
 0.44466276E-001
 0.47083823E-001
 0.55185805E-001
 0.80135713E-001
 0.15610935E+000
 0.37449422E+000
 0.91417553E+000
 0.18452145E+001
 0.23241775E+001
 0.49869710E+001
 0.10462353E+002
 0.20873557E+002
 0.40515034E+002
 0.52488257E+002
-0.66413575E+002
-0.10321419E+003
-0.25255312E+002
-0.22469389E+001
-0.88475001E-001
-0.93544060E-003
-0.84872339E-006
 0.61616786E-008
 0.13043851E-009
 0.23060717E-011
 0.14801178E-012
 0.11925332E-012
 0.11890138E-012
 0.11889771E-012
 0.11889767E-012
 0.11889767E-012
 0.11889767E-012
 0.11889767E-012
 0.11889767E-012
 0.11889767E-012
 0.11889767E-012
 0.11889767E-012
 0.11889767E-012
 0.11889767E-012
 0.11889767E-012
 0.11889767E-012
 0.11889767E-012
 0.11889767E-012
 0.11889767E-012
 0.11889767E-012
 0.11889767E-012
 0.11889767E-012
 0.11889767E-012
 0.11889767E-012
 0.11889767E-012
 0.11889767E-012
 0.11889767E-012
 0.11889767E-012
 0.11889767E-012
 0.11889767E-012
 0.11889767E-012
 0.11889767E-012
 0.11889767E-012
 0.11889767E-012
 0.11889767E-012
 0.11889767E-012
 0.11889767E-012
 0.11889767E-012
 0.11889767E-012
 0.11889767E-012
 0.11889767E-012
 0.11889762E-012
