0.00000000E+000
1.00000000E+000
7.44263840E-019
1.00000000E+000
1.48850810E-018
1.00000000E+000
2.23038200E-018
1.00000000E+000
2.97151690E-018
1.00000000E+000
3.71195650E-018
1.00000000E+000
4.45170200E-018
1.00000000E+000
5.19075150E-018
1.00000000E+000
5.92909810E-018
1.00000000E+000
6.66673510E-018
1.00000000E+000
7.40365450E-018
1.00000000E+000
8.13984730E-018
1.00000000E+000
8.87530430E-018
1.00000000E+000
9.61001570E-018
1.00000000E+000
1.03439720E-017
1.00000000E+000
1.10771630E-017
1.00000000E+000
1.18095790E-017
1.00000000E+000
1.25412100E-017
1.00000000E+000
1.32720480E-017
1.00000000E+000
1.40020820E-017
1.00000000E+000
1.47313030E-017
1.00000000E+000
1.54597030E-017
1.00000000E+000
1.61872720E-017
1.00000000E+000
1.69140010E-017
1.00000000E+000
1.76398820E-017
1.00000000E+000
1.83649060E-017
1.00000000E+000
1.90890640E-017
1.00000000E+000
1.98123500E-017
1.00000000E+000
2.05347530E-017
1.00000000E+000
2.12562680E-017
1.00000000E+000
2.19768850E-017
1.00000000E+000
2.26965980E-017
1.00000000E+000
2.34153980E-017
1.00000000E+000
2.41332790E-017
1.00000000E+000
2.48502340E-017
1.00000000E+000
2.55662540E-017
1.00000000E+000
2.62813340E-017
1.00000000E+000
2.69954670E-017
1.00000000E+000
2.77086460E-017
1.00000000E+000
2.84208640E-017
1.00000000E+000
2.91321160E-017
1.00000000E+000
2.98423950E-017
1.00000000E+000
3.05516940E-017
1.00000000E+000
3.12600090E-017
1.00000000E+000
3.19673330E-017
1.00000000E+000
3.26736600E-017
1.00000000E+000
3.33789850E-017
1.00000000E+000
3.40833020E-017
1.00000000E+000
3.47866060E-017
1.00000000E+000
3.54888910E-017
1.00000000E+000
3.61901530E-017
1.00000000E+000
