GiD Post Results File 1.0
 
Result ISOCH ALYA  0.25000000E+00 Scalar OnNodes
ComponentNames ISOCH
Values
          1  0.12900000E-002
          2 -0.10000000E+001
          3 -0.10000000E+001
          4 -0.10000000E+001
End values

Result REPOL ALYA  0.25000000E+00 Scalar OnNodes
ComponentNames REPOL
Values
          1  0.24469000E+000
          2 -0.10000000E+001
          3 -0.10000000E+001
          4 -0.10000000E+001
End values

