$MeshFormat
2.2 0 8
$EndMeshFormat
$PhysicalNames
4
1 1 "LEFT"
1 2 "RIGHT"
1 3 "TB"
2 4 "DOMAIN"
$EndPhysicalNames
$Nodes
202
1 -0.005 -5e-05 0
2 0.005 -5e-05 0
3 0.005 5e-05 0
4 -0.005 5e-05 0
5 -0.004900000000000467 -5e-05 0
6 -0.00480000000000084 -5e-05 0
7 -0.004700000000000948 -5e-05 0
8 -0.004600000000000982 -5e-05 0
9 -0.004500000000001015 -5e-05 0
10 -0.004400000000001049 -5e-05 0
11 -0.004300000000001082 -5e-05 0
12 -0.004200000000001116 -5e-05 0
13 -0.004100000000001238 -5e-05 0
14 -0.004000000000001488 -5e-05 0
15 -0.003900000000001654 -5e-05 0
16 -0.003800000000001904 -5e-05 0
17 -0.003700000000002155 -5e-05 0
18 -0.003600000000002405 -5e-05 0
19 -0.003500000000002537 -5e-05 0
20 -0.003400000000002611 -5e-05 0
21 -0.003300000000002818 -5e-05 0
22 -0.003200000000003071 -5e-05 0
23 -0.003100000000003457 -5e-05 0
24 -0.003000000000003925 -5e-05 0
25 -0.002900000000004318 -5e-05 0
26 -0.002800000000004578 -5e-05 0
27 -0.002700000000004828 -5e-05 0
28 -0.002600000000005079 -5e-05 0
29 -0.002500000000005414 -5e-05 0
30 -0.002400000000005749 -5e-05 0
31 -0.002300000000006 -5e-05 0
32 -0.002200000000006251 -5e-05 0
33 -0.002100000000006512 -5e-05 0
34 -0.002000000000006904 -5e-05 0
35 -0.001900000000007314 -5e-05 0
36 -0.001800000000007592 -5e-05 0
37 -0.001700000000007842 -5e-05 0
38 -0.001600000000008093 -5e-05 0
39 -0.001500000000008411 -5e-05 0
40 -0.001400000000008763 -5e-05 0
41 -0.001300000000009014 -5e-05 0
42 -0.001200000000009265 -5e-05 0
43 -0.001100000000009516 -5e-05 0
44 -0.001000000000009884 -5e-05 0
45 -0.0009000000000103517 -5e-05 0
46 -0.000800000000010819 -5e-05 0
47 -0.0007000000000112801 -5e-05 0
48 -0.0006000000000114768 -5e-05 0
49 -0.0005000000000115095 -5e-05 0
50 -0.000400000000011543 -5e-05 0
51 -0.0003000000000116035 -5e-05 0
52 -0.0002000000000119294 -5e-05 0
53 -0.0001000000000123966 -5e-05 0
54 -1.269470639719827e-14 -5e-05 0
55 9.999999998753714e-05 -5e-05 0
56 0.0001999999999879355 -5e-05 0
57 0.0002999999999883348 -5e-05 0
58 0.000399999999988525 -5e-05 0
59 0.0004999999999884906 -5e-05 0
60 0.0005999999999884579 -5e-05 0
61 0.0006999999999885865 -5e-05 0
62 0.0007999999999889788 -5e-05 0
63 0.000899999999989378 -5e-05 0
64 0.0009999999999897782 -5e-05 0
65 0.001099999999990177 -5e-05 0
66 0.001199999999990577 -5e-05 0
67 0.001299999999990976 -5e-05 0
68 0.001399999999991221 -5e-05 0
69 0.001499999999991199 -5e-05 0
70 0.001599999999991165 -5e-05 0
71 0.001699999999991261 -5e-05 0
72 0.001799999999991619 -5e-05 0
73 0.001899999999992019 -5e-05 0
74 0.001999999999992419 -5e-05 0
75 0.002099999999992818 -5e-05 0
76 0.002199999999993218 -5e-05 0
77 0.002299999999993542 -5e-05 0
78 0.002399999999993604 -5e-05 0
79 0.00249999999999357 -5e-05 0
80 0.002599999999993535 -5e-05 0
81 0.002699999999993596 -5e-05 0
82 0.002799999999993922 -5e-05 0
83 0.002899999999994321 -5e-05 0
84 0.00299999999999472 -5e-05 0
85 0.00309999999999512 -5e-05 0
86 0.00319999999999552 -5e-05 0
87 0.003299999999995918 -5e-05 0
88 0.003399999999996318 -5e-05 0
89 0.003499999999996718 -5e-05 0
90 0.003599999999997117 -5e-05 0
91 0.003699999999997517 -5e-05 0
92 0.003799999999997917 -5e-05 0
93 0.003899999999998005 -5e-05 0
94 0.003999999999997564 -5e-05 0
95 0.004099999999997096 -5e-05 0
96 0.004199999999996886 -5e-05 0
97 0.004299999999997204 -5e-05 0
98 0.004399999999997603 -5e-05 0
99 0.004499999999998003 -5e-05 0
100 0.004599999999998401 -5e-05 0
101 0.004699999999998801 -5e-05 0
102 0.0047999999999992 -5e-05 0
103 0.0048999999999996 -5e-05 0
104 0.004900000000000467 5e-05 0
105 0.00480000000000084 5e-05 0
106 0.004700000000000948 5e-05 0
107 0.004600000000000982 5e-05 0
108 0.004500000000001015 5e-05 0
109 0.004400000000001049 5e-05 0
110 0.004300000000001082 5e-05 0
111 0.004200000000001116 5e-05 0
112 0.004100000000001238 5e-05 0
113 0.004000000000001488 5e-05 0
114 0.003900000000001654 5e-05 0
115 0.003800000000001904 5e-05 0
116 0.003700000000002155 5e-05 0
117 0.003600000000002405 5e-05 0
118 0.003500000000002537 5e-05 0
119 0.003400000000002611 5e-05 0
120 0.003300000000002818 5e-05 0
121 0.003200000000003071 5e-05 0
122 0.003100000000003457 5e-05 0
123 0.003000000000003925 5e-05 0
124 0.002900000000004318 5e-05 0
125 0.002800000000004578 5e-05 0
126 0.002700000000004828 5e-05 0
127 0.002600000000005079 5e-05 0
128 0.002500000000005414 5e-05 0
129 0.002400000000005749 5e-05 0
130 0.002300000000006 5e-05 0
131 0.002200000000006251 5e-05 0
132 0.002100000000006512 5e-05 0
133 0.002000000000006904 5e-05 0
134 0.001900000000007314 5e-05 0
135 0.001800000000007592 5e-05 0
136 0.001700000000007842 5e-05 0
137 0.001600000000008093 5e-05 0
138 0.001500000000008411 5e-05 0
139 0.001400000000008763 5e-05 0
140 0.001300000000009014 5e-05 0
141 0.001200000000009265 5e-05 0
142 0.001100000000009516 5e-05 0
143 0.001000000000009884 5e-05 0
144 0.0009000000000103517 5e-05 0
145 0.000800000000010819 5e-05 0
146 0.0007000000000112801 5e-05 0
147 0.0006000000000114768 5e-05 0
148 0.0005000000000115095 5e-05 0
149 0.000400000000011543 5e-05 0
150 0.0003000000000116035 5e-05 0
151 0.0002000000000119294 5e-05 0
152 0.0001000000000123966 5e-05 0
153 1.269470639719827e-14 5e-05 0
154 -9.999999998753714e-05 5e-05 0
155 -0.0001999999999879355 5e-05 0
156 -0.0002999999999883348 5e-05 0
157 -0.000399999999988525 5e-05 0
158 -0.0004999999999884906 5e-05 0
159 -0.0005999999999884579 5e-05 0
160 -0.0006999999999885865 5e-05 0
161 -0.0007999999999889788 5e-05 0
162 -0.000899999999989378 5e-05 0
163 -0.0009999999999897782 5e-05 0
164 -0.001099999999990177 5e-05 0
165 -0.001199999999990577 5e-05 0
166 -0.001299999999990976 5e-05 0
167 -0.001399999999991221 5e-05 0
168 -0.001499999999991199 5e-05 0
169 -0.001599999999991165 5e-05 0
170 -0.001699999999991261 5e-05 0
171 -0.001799999999991619 5e-05 0
172 -0.001899999999992019 5e-05 0
173 -0.001999999999992419 5e-05 0
174 -0.002099999999992818 5e-05 0
175 -0.002199999999993218 5e-05 0
176 -0.002299999999993542 5e-05 0
177 -0.002399999999993604 5e-05 0
178 -0.00249999999999357 5e-05 0
179 -0.002599999999993535 5e-05 0
180 -0.002699999999993596 5e-05 0
181 -0.002799999999993922 5e-05 0
182 -0.002899999999994321 5e-05 0
183 -0.00299999999999472 5e-05 0
184 -0.00309999999999512 5e-05 0
185 -0.00319999999999552 5e-05 0
186 -0.003299999999995918 5e-05 0
187 -0.003399999999996318 5e-05 0
188 -0.003499999999996718 5e-05 0
189 -0.003599999999997117 5e-05 0
190 -0.003699999999997517 5e-05 0
191 -0.003799999999997917 5e-05 0
192 -0.003899999999998005 5e-05 0
193 -0.003999999999997564 5e-05 0
194 -0.004099999999997096 5e-05 0
195 -0.004199999999996886 5e-05 0
196 -0.004299999999997204 5e-05 0
197 -0.004399999999997603 5e-05 0
198 -0.004499999999998003 5e-05 0
199 -0.004599999999998401 5e-05 0
200 -0.004699999999998801 5e-05 0
201 -0.0047999999999992 5e-05 0
202 -0.0048999999999996 5e-05 0
$EndNodes
$Elements
302
1 1 2 3 1 1 5
2 1 2 3 1 5 6
3 1 2 3 1 6 7
4 1 2 3 1 7 8
5 1 2 3 1 8 9
6 1 2 3 1 9 10
7 1 2 3 1 10 11
8 1 2 3 1 11 12
9 1 2 3 1 12 13
10 1 2 3 1 13 14
11 1 2 3 1 14 15
12 1 2 3 1 15 16
13 1 2 3 1 16 17
14 1 2 3 1 17 18
15 1 2 3 1 18 19
16 1 2 3 1 19 20
17 1 2 3 1 20 21
18 1 2 3 1 21 22
19 1 2 3 1 22 23
20 1 2 3 1 23 24
21 1 2 3 1 24 25
22 1 2 3 1 25 26
23 1 2 3 1 26 27
24 1 2 3 1 27 28
25 1 2 3 1 28 29
26 1 2 3 1 29 30
27 1 2 3 1 30 31
28 1 2 3 1 31 32
29 1 2 3 1 32 33
30 1 2 3 1 33 34
31 1 2 3 1 34 35
32 1 2 3 1 35 36
33 1 2 3 1 36 37
34 1 2 3 1 37 38
35 1 2 3 1 38 39
36 1 2 3 1 39 40
37 1 2 3 1 40 41
38 1 2 3 1 41 42
39 1 2 3 1 42 43
40 1 2 3 1 43 44
41 1 2 3 1 44 45
42 1 2 3 1 45 46
43 1 2 3 1 46 47
44 1 2 3 1 47 48
45 1 2 3 1 48 49
46 1 2 3 1 49 50
47 1 2 3 1 50 51
48 1 2 3 1 51 52
49 1 2 3 1 52 53
50 1 2 3 1 53 54
51 1 2 3 1 54 55
52 1 2 3 1 55 56
53 1 2 3 1 56 57
54 1 2 3 1 57 58
55 1 2 3 1 58 59
56 1 2 3 1 59 60
57 1 2 3 1 60 61
58 1 2 3 1 61 62
59 1 2 3 1 62 63
60 1 2 3 1 63 64
61 1 2 3 1 64 65
62 1 2 3 1 65 66
63 1 2 3 1 66 67
64 1 2 3 1 67 68
65 1 2 3 1 68 69
66 1 2 3 1 69 70
67 1 2 3 1 70 71
68 1 2 3 1 71 72
69 1 2 3 1 72 73
70 1 2 3 1 73 74
71 1 2 3 1 74 75
72 1 2 3 1 75 76
73 1 2 3 1 76 77
74 1 2 3 1 77 78
75 1 2 3 1 78 79
76 1 2 3 1 79 80
77 1 2 3 1 80 81
78 1 2 3 1 81 82
79 1 2 3 1 82 83
80 1 2 3 1 83 84
81 1 2 3 1 84 85
82 1 2 3 1 85 86
83 1 2 3 1 86 87
84 1 2 3 1 87 88
85 1 2 3 1 88 89
86 1 2 3 1 89 90
87 1 2 3 1 90 91
88 1 2 3 1 91 92
89 1 2 3 1 92 93
90 1 2 3 1 93 94
91 1 2 3 1 94 95
92 1 2 3 1 95 96
93 1 2 3 1 96 97
94 1 2 3 1 97 98
95 1 2 3 1 98 99
96 1 2 3 1 99 100
97 1 2 3 1 100 101
98 1 2 3 1 101 102
99 1 2 3 1 102 103
100 1 2 3 1 103 2
101 1 2 2 2 2 3
102 1 2 3 3 3 104
103 1 2 3 3 104 105
104 1 2 3 3 105 106
105 1 2 3 3 106 107
106 1 2 3 3 107 108
107 1 2 3 3 108 109
108 1 2 3 3 109 110
109 1 2 3 3 110 111
110 1 2 3 3 111 112
111 1 2 3 3 112 113
112 1 2 3 3 113 114
113 1 2 3 3 114 115
114 1 2 3 3 115 116
115 1 2 3 3 116 117
116 1 2 3 3 117 118
117 1 2 3 3 118 119
118 1 2 3 3 119 120
119 1 2 3 3 120 121
120 1 2 3 3 121 122
121 1 2 3 3 122 123
122 1 2 3 3 123 124
123 1 2 3 3 124 125
124 1 2 3 3 125 126
125 1 2 3 3 126 127
126 1 2 3 3 127 128
127 1 2 3 3 128 129
128 1 2 3 3 129 130
129 1 2 3 3 130 131
130 1 2 3 3 131 132
131 1 2 3 3 132 133
132 1 2 3 3 133 134
133 1 2 3 3 134 135
134 1 2 3 3 135 136
135 1 2 3 3 136 137
136 1 2 3 3 137 138
137 1 2 3 3 138 139
138 1 2 3 3 139 140
139 1 2 3 3 140 141
140 1 2 3 3 141 142
141 1 2 3 3 142 143
142 1 2 3 3 143 144
143 1 2 3 3 144 145
144 1 2 3 3 145 146
145 1 2 3 3 146 147
146 1 2 3 3 147 148
147 1 2 3 3 148 149
148 1 2 3 3 149 150
149 1 2 3 3 150 151
150 1 2 3 3 151 152
151 1 2 3 3 152 153
152 1 2 3 3 153 154
153 1 2 3 3 154 155
154 1 2 3 3 155 156
155 1 2 3 3 156 157
156 1 2 3 3 157 158
157 1 2 3 3 158 159
158 1 2 3 3 159 160
159 1 2 3 3 160 161
160 1 2 3 3 161 162
161 1 2 3 3 162 163
162 1 2 3 3 163 164
163 1 2 3 3 164 165
164 1 2 3 3 165 166
165 1 2 3 3 166 167
166 1 2 3 3 167 168
167 1 2 3 3 168 169
168 1 2 3 3 169 170
169 1 2 3 3 170 171
170 1 2 3 3 171 172
171 1 2 3 3 172 173
172 1 2 3 3 173 174
173 1 2 3 3 174 175
174 1 2 3 3 175 176
175 1 2 3 3 176 177
176 1 2 3 3 177 178
177 1 2 3 3 178 179
178 1 2 3 3 179 180
179 1 2 3 3 180 181
180 1 2 3 3 181 182
181 1 2 3 3 182 183
182 1 2 3 3 183 184
183 1 2 3 3 184 185
184 1 2 3 3 185 186
185 1 2 3 3 186 187
186 1 2 3 3 187 188
187 1 2 3 3 188 189
188 1 2 3 3 189 190
189 1 2 3 3 190 191
190 1 2 3 3 191 192
191 1 2 3 3 192 193
192 1 2 3 3 193 194
193 1 2 3 3 194 195
194 1 2 3 3 195 196
195 1 2 3 3 196 197
196 1 2 3 3 197 198
197 1 2 3 3 198 199
198 1 2 3 3 199 200
199 1 2 3 3 200 201
200 1 2 3 3 201 202
201 1 2 3 3 202 4
202 1 2 1 4 4 1
203 3 2 4 6 3 104 103 2
204 3 2 4 6 104 105 102 103
205 3 2 4 6 105 106 101 102
206 3 2 4 6 106 107 100 101
207 3 2 4 6 107 108 99 100
208 3 2 4 6 108 109 98 99
209 3 2 4 6 109 110 97 98
210 3 2 4 6 110 111 96 97
211 3 2 4 6 111 112 95 96
212 3 2 4 6 112 113 94 95
213 3 2 4 6 113 114 93 94
214 3 2 4 6 114 115 92 93
215 3 2 4 6 115 116 91 92
216 3 2 4 6 116 117 90 91
217 3 2 4 6 117 118 89 90
218 3 2 4 6 118 119 88 89
219 3 2 4 6 119 120 87 88
220 3 2 4 6 120 121 86 87
221 3 2 4 6 121 122 85 86
222 3 2 4 6 122 123 84 85
223 3 2 4 6 123 124 83 84
224 3 2 4 6 124 125 82 83
225 3 2 4 6 125 126 81 82
226 3 2 4 6 126 127 80 81
227 3 2 4 6 127 128 79 80
228 3 2 4 6 128 129 78 79
229 3 2 4 6 129 130 77 78
230 3 2 4 6 130 131 76 77
231 3 2 4 6 131 132 75 76
232 3 2 4 6 132 133 74 75
233 3 2 4 6 133 134 73 74
234 3 2 4 6 134 135 72 73
235 3 2 4 6 135 136 71 72
236 3 2 4 6 136 137 70 71
237 3 2 4 6 137 138 69 70
238 3 2 4 6 138 139 68 69
239 3 2 4 6 139 140 67 68
240 3 2 4 6 140 141 66 67
241 3 2 4 6 141 142 65 66
242 3 2 4 6 142 143 64 65
243 3 2 4 6 143 144 63 64
244 3 2 4 6 144 145 62 63
245 3 2 4 6 145 146 61 62
246 3 2 4 6 146 147 60 61
247 3 2 4 6 147 148 59 60
248 3 2 4 6 148 149 58 59
249 3 2 4 6 149 150 57 58
250 3 2 4 6 150 151 56 57
251 3 2 4 6 151 152 55 56
252 3 2 4 6 152 153 54 55
253 3 2 4 6 153 154 53 54
254 3 2 4 6 154 155 52 53
255 3 2 4 6 155 156 51 52
256 3 2 4 6 156 157 50 51
257 3 2 4 6 157 158 49 50
258 3 2 4 6 158 159 48 49
259 3 2 4 6 159 160 47 48
260 3 2 4 6 160 161 46 47
261 3 2 4 6 161 162 45 46
262 3 2 4 6 162 163 44 45
263 3 2 4 6 163 164 43 44
264 3 2 4 6 164 165 42 43
265 3 2 4 6 165 166 41 42
266 3 2 4 6 166 167 40 41
267 3 2 4 6 167 168 39 40
268 3 2 4 6 168 169 38 39
269 3 2 4 6 169 170 37 38
270 3 2 4 6 170 171 36 37
271 3 2 4 6 171 172 35 36
272 3 2 4 6 172 173 34 35
273 3 2 4 6 173 174 33 34
274 3 2 4 6 174 175 32 33
275 3 2 4 6 175 176 31 32
276 3 2 4 6 176 177 30 31
277 3 2 4 6 177 178 29 30
278 3 2 4 6 178 179 28 29
279 3 2 4 6 179 180 27 28
280 3 2 4 6 180 181 26 27
281 3 2 4 6 181 182 25 26
282 3 2 4 6 182 183 24 25
283 3 2 4 6 183 184 23 24
284 3 2 4 6 184 185 22 23
285 3 2 4 6 185 186 21 22
286 3 2 4 6 186 187 20 21
287 3 2 4 6 187 188 19 20
288 3 2 4 6 188 189 18 19
289 3 2 4 6 189 190 17 18
290 3 2 4 6 190 191 16 17
291 3 2 4 6 191 192 15 16
292 3 2 4 6 192 193 14 15
293 3 2 4 6 193 194 13 14
294 3 2 4 6 194 195 12 13
295 3 2 4 6 195 196 11 12
296 3 2 4 6 196 197 10 11
297 3 2 4 6 197 198 9 10
298 3 2 4 6 198 199 8 9
299 3 2 4 6 199 200 7 8
300 3 2 4 6 200 201 6 7
301 3 2 4 6 201 202 5 6
302 3 2 4 6 202 4 1 5
$EndElements
