 0.00000000E+000  0.00000000E+000
 0.22587592E+000  0.00000000E+000
 0.42797544E+000  0.00000000E+000
 0.60629850E+000  0.00000000E+000
 0.76084518E+000  0.00000000E+000
 0.89161550E+000  0.00000000E+000
 0.00000000E+000  0.00000000E+000
 0.25923722E+000  0.21853934E-001
 0.46806293E+000  0.55754002E-001
 0.63374173E+000  0.86034797E-001
 0.99860936E+000  0.00000000E+000
 0.76991212E+000  0.10403451E+000
 0.88315683E+000  0.10814016E+000
 0.97617828E+000  0.10005997E+000
 0.10818268E+001  0.00000000E+000
 0.10491645E+001  0.82599006E-001
 0.00000000E+000  0.00000000E+000
 0.33559039E+000  0.18857261E-001
 0.56267297E+000  0.56342903E-001
 0.71155786E+000  0.96144959E-001
 0.81196188E+000  0.12641939E+000
 0.88607096E+000  0.14024175E+000
 0.94391494E+000  0.13631391E+000
 0.11412677E+001  0.00000000E+000
 0.11018116E+001  0.58509942E-001
 0.98933362E+000  0.11654247E+000
 0.00000000E+000  0.00000000E+000
 0.39140254E+000  0.10760473E-001
 0.64721971E+000  0.31560033E-001
 0.79165637E+000  0.58220148E-001
 0.86622703E+000  0.82004763E-001
 0.10225186E+001  0.84521904E-001
 0.90263158E+000  0.96754446E-001
 0.11769324E+001  0.00000000E+000
 0.92187350E+000  0.98693661E-001
 0.11335915E+001  0.30257673E-001
 0.93357563E+000  0.87519966E-001
 0.10429332E+001  0.44295031E-001
 0.94169384E+000  0.65054997E-001
 0.00000000E+000  0.00000000E+000
 0.11888206E+001  0.00000000E+000
 0.41735735E+000  0.25474419E-002
 0.68925070E+000  0.96697621E-002
 0.83960342E+000  0.19140627E-001
 0.90464454E+000  0.29864117E-001
 0.92163461E+000  0.38047503E-001
 0.11442357E+001  0.37176956E-007
 0.91605067E+000  0.41362099E-001
 0.90401053E+000  0.38366146E-001
 0.94670128E+000  0.34594062E-001
 0.10497945E+001 -0.76458860E-007
 0.89281845E+000  0.29439833E-001
 0.11769324E+001  0.00000000E+000
 0.11335915E+001 -0.30257744E-001
 0.00000000E+000  0.00000000E+000
 0.94848567E+000  0.12779328E-006
 0.42251145E+000  0.36853030E-004
 0.70155245E+000 -0.12653603E-004
 0.85556650E+000  0.17420109E-002
 0.92117559E+000  0.39500310E-002
 0.93249374E+000  0.66709974E-002
 0.88570576E+000  0.15930365E-001
 0.91803109E+000  0.84623107E-002
 0.89539635E+000  0.87884571E-002
 0.10429333E+001 -0.44294871E-001
 0.87517124E+000  0.71960389E-002
 0.88323116E+000 -0.17949521E-006
 0.11412677E+001  0.00000000E+000
 0.94670116E+000 -0.34594316E-001
 0.11018117E+001 -0.58509871E-001
 0.86176210E+000  0.40564406E-002
 0.00000000E+000  0.00000000E+000
 0.42215913E+000 -0.35084650E-003
 0.70202398E+000 -0.32812266E-003
 0.85857421E+000 -0.73022459E-003
 0.92491108E+000 -0.28500045E-003
 0.93652266E+000  0.78528508E-004
 0.10225185E+001 -0.84522061E-001
 0.92007124E+000  0.70415617E-003
 0.89494186E+000  0.10065501E-002
 0.88570582E+000 -0.15930004E-001
 0.10818268E+001  0.00000000E+000
 0.85724419E+000  0.24180027E-006
 0.87170398E+000  0.10280244E-002
 0.94169402E+000 -0.65054759E-001
 0.10491644E+001 -0.82599081E-001
 0.98933380E+000 -0.11654232E+000
 0.85637265E+000  0.62100886E-003
 0.99860936E+000  0.00000000E+000
 0.89281821E+000 -0.29440183E-001
 0.86176198E+000 -0.40569095E-002
 0.00000000E+000  0.00000000E+000
 0.42175343E+000  0.10585087E-003
 0.70210772E+000 -0.82304948E-004
 0.85858893E+000  0.33590191E-003
 0.97617840E+000 -0.10005990E+000
 0.92586874E+000  0.27622110E-003
 0.93724215E+000  0.57752057E-003
 0.93357539E+000 -0.87520204E-001
 0.92091459E+000  0.57429331E-003
 0.89500194E+000  0.63275953E-003
 0.85094928E+000 -0.29939954E-006
 0.94391471E+000 -0.13631406E+000
 0.89161550E+000  0.00000000E+000
 0.87131375E+000  0.47771845E-003
 0.88315671E+000 -0.10814023E+000
 0.90401083E+000 -0.38365814E-001
 0.92187380E+000 -0.98693430E-001
 0.87517148E+000 -0.71955802E-002
 0.88607120E+000 -0.14024162E+000
 0.76084518E+000  0.00000000E+000
 0.85525757E+000  0.28250797E-003
 0.76991224E+000 -0.10403445E+000
 0.85637283E+000 -0.62041752E-003
 0.60629850E+000  0.00000000E+000
 0.63374161E+000 -0.86034856E-001
 0.81196165E+000 -0.12641952E+000
 0.42797544E+000  0.00000000E+000
 0.90263128E+000 -0.96754655E-001
 0.46806305E+000 -0.55753946E-001
 0.22587592E+000  0.00000000E+000
 0.00000000E+000  0.00000000E+000
 0.00000000E+000  0.00000000E+000
 0.42184430E+000 -0.96406554E-004
 0.70212095E+000  0.12499399E-003
 0.85911810E+000 -0.76886353E-004
 0.91605031E+000 -0.41362408E-001
 0.92598527E+000  0.23606802E-003
 0.25923717E+000 -0.21853990E-001
 0.93768537E+000  0.15873927E-003
 0.71155810E+000 -0.96144847E-001
 0.00000000E+000  0.00000000E+000
 0.84980779E+000  0.35793115E-006
 0.92085671E+000  0.31556133E-003
 0.89539599E+000 -0.87888957E-002
 0.56267279E+000 -0.56343007E-001
 0.89501351E+000  0.23711782E-003
 0.86622738E+000 -0.82004576E-001
 0.33559051E+000 -0.18857175E-001
 0.00000000E+000  0.00000000E+000
 0.87170368E+000 -0.10285959E-002
 0.87088447E+000  0.22525293E-003
 0.79165601E+000 -0.58220311E-001
 0.92163503E+000 -0.38047216E-001
 0.64722001E+000 -0.31559899E-001
 0.39140236E+000 -0.10760575E-001
 0.85525745E+000 -0.28322477E-003
 0.00000000E+000  0.00000000E+000
 0.91803151E+000 -0.84619140E-002
 0.85490286E+000  0.10593763E-003
 0.90464413E+000 -0.29864363E-001
 0.83960384E+000 -0.19140418E-001
 0.89494228E+000 -0.10060161E-002
 0.68925034E+000 -0.96699250E-002
 0.93249326E+000 -0.66713485E-002
 0.41735753E+000 -0.25473388E-002
 0.84919172E+000 -0.42375202E-006
 0.00000000E+000  0.00000000E+000
 0.00000000E+000  0.00000000E+000
 0.42171889E+000  0.38562542E-004
 0.70221781E+000 -0.20201002E-003
 0.85899800E+000 -0.13601468E-004
 0.92630994E+000 -0.24463256E-003
 0.93763023E+000 -0.60793627E-004
 0.87131398E+000 -0.47703497E-003
 0.92109036E+000 -0.14697434E-003
 0.92117607E+000 -0.39497204E-002
 0.89487481E+000 -0.29915616E-004
 0.92007076E+000 -0.70464721E-003
 0.85556602E+000 -0.17422595E-002
 0.87094199E+000 -0.51397641E-004
 0.70155280E+000  0.12839179E-004
 0.85490304E+000 -0.10510260E-003
 0.42251121E+000 -0.36953759E-004
 0.00000000E+000  0.00000000E+000
 0.93652319E+000 -0.78090648E-004
 0.89500153E+000 -0.63339993E-003
 0.85466432E+000 -0.40910767E-005
 0.92491054E+000  0.28463985E-003
 0.87088418E+000 -0.22605923E-003
 0.85857468E+000  0.73051278E-003
 0.84917640E+000  0.48881793E-006
 0.92091506E+000 -0.57370716E-003
 0.70202362E+000  0.32792781E-003
 0.42215934E+000  0.35094385E-003
 0.00000000E+000  0.00000000E+000
 0.00000000E+000  0.00000000E+000
 0.42167803E+000 -0.74551469E-004
 0.70202094E+000  0.70109519E-004
 0.85908687E+000 -0.16331241E-003
 0.92612069E+000  0.26521689E-004
 0.93784278E+000 -0.14841457E-003
 0.92098963E+000 -0.16894513E-004
 0.89508950E+000 -0.89237044E-004
 0.93724161E+000 -0.57802977E-003
 0.89501392E+000 -0.23636719E-003
 0.85466414E+000  0.31309386E-005
 0.87085461E+000 -0.15963794E-004
 0.92586934E+000 -0.27579729E-003
 0.85484194E+000 -0.27655403E-004
 0.85858839E+000 -0.33621973E-003
 0.70210814E+000  0.82512473E-004
 0.92085617E+000 -0.31623741E-003
 0.42175319E+000 -0.10593998E-003
 0.00000000E+000  0.00000000E+000
 0.87094229E+000  0.52319679E-004
 0.84907758E+000 -0.55193072E-006
 0.93768590E+000 -0.15815120E-003
 0.00000000E+000  0.00000000E+000
 0.42162033E+000  0.54384752E-004
 0.70207279E+000 -0.97878255E-004
 0.85892546E+000  0.93015114E-004
 0.92626333E+000 -0.10510840E-003
 0.93767160E+000  0.59190013E-004
 0.89487439E+000  0.29054239E-004
 0.92598468E+000 -0.23654651E-003
 0.92116910E+000 -0.70015288E-004
 0.89495372E+000  0.20830388E-004
 0.85484212E+000  0.28745162E-004
 0.85911864E+000  0.77239041E-004
 0.87103855E+000 -0.34092656E-004
 0.70212048E+000 -0.12521041E-003
 0.42184454E+000  0.96489107E-004
 0.00000000E+000  0.00000000E+000
 0.92109090E+000  0.14774932E-003
 0.85472089E+000  0.33086714E-005
 0.87085431E+000  0.14921872E-004
 0.93762964E+000  0.60129808E-004
 0.84926003E+000  0.61843212E-006
 0.92631059E+000  0.24516563E-003
 0.89508998E+000  0.90208741E-004
 0.85899740E+000  0.13216586E-004
 0.70221823E+000  0.20223234E-003
 0.00000000E+000  0.00000000E+000
 0.42164254E+000 -0.54128518E-004
 0.70198929E+000  0.77846045E-004
 0.85903257E+000 -0.10638096E-003
 0.92610961E+000  0.74793046E-004
 0.42171865E+000 -0.38633705E-004
 0.93783211E+000 -0.88180859E-004
 0.85472071E+000 -0.45238143E-005
 0.00000000E+000  0.00000000E+000
 0.92100143E+000  0.39517435E-004
 0.89512890E+000 -0.49549013E-004
 0.92098909E+000  0.16026442E-004
 0.87088066E+000  0.13314624E-004
 0.87103885E+000  0.35265402E-004
 0.85490280E+000 -0.15076830E-004
 0.93784344E+000  0.14915596E-003
 0.92612004E+000 -0.27110119E-004
 0.84910690E+000 -0.68302222E-006
 0.85908746E+000  0.16372610E-003
 0.89495325E+000 -0.21911619E-004
 0.70202052E+000 -0.70339177E-004
 0.42167827E+000  0.74607596E-004
 0.00000000E+000  0.00000000E+000
 0.85490298E+000  0.16432306E-004
 0.00000000E+000  0.00000000E+000
 0.42160844E+000  0.47444893E-004
 0.70204699E+000 -0.80625832E-004
 0.85892009E+000  0.85211468E-004
 0.92116969E+000  0.70979876E-004
 0.92624300E+000 -0.90136752E-004
 0.93767166E+000  0.64032952E-004
 0.92117625E+000 -0.59660211E-004
 0.89495515E+000  0.31307561E-004
 0.87107056E+000 -0.26180990E-004
 0.93767100E+000 -0.60006575E-004
 0.87088036E+000 -0.14598207E-004
 0.85472619E+000  0.81912194E-005
 0.92626398E+000  0.10574517E-003
 0.85892486E+000 -0.93458824E-004
 0.70207321E+000  0.98111093E-004
 0.42162007E+000 -0.54444688E-004
 0.89512938E+000  0.50743172E-004
 0.00000000E+000  0.00000000E+000
 0.84930139E+000  0.75369547E-006
 0.92100083E+000 -0.40582704E-004
 0.85472601E+000 -0.96658004E-005
 0.00000000E+000  0.00000000E+000
 0.42163446E+000 -0.45426804E-004
 0.70198374E+000  0.73724797E-004
 0.85901576E+000 -0.83525083E-004
 0.92610937E+000  0.79940284E-004
 0.93782901E+000 -0.67329863E-004
 0.92099964E+000  0.50801609E-004
 0.93783277E+000  0.89072447E-004
 0.89514648E+000 -0.35968878E-004
 0.87087488E+000  0.21011384E-004
 0.87107092E+000  0.27600055E-004
 0.92610895E+000 -0.75486204E-004
 0.85903316E+000  0.10684396E-003
 0.85493195E+000 -0.10068736E-004
 0.70198881E+000 -0.78088618E-004
 0.42164281E+000  0.54174088E-004
 0.00000000E+000  0.00000000E+000
 0.89495468E+000 -0.32617703E-004
 0.84909963E+000 -0.81589672E-006
 0.92117685E+000  0.60816233E-004
 0.85493212E+000  0.11688543E-004
 0.93767100E+000 -0.65001979E-004
 0.00000000E+000  0.00000000E+000
 0.42160752E+000  0.43429332E-004
 0.70204234E+000 -0.69815563E-004
 0.85892164E+000  0.78358047E-004
 0.92623800E+000 -0.75335527E-004
 0.93766927E+000  0.62647188E-004
 0.92118322E+000 -0.48440662E-004
 0.92624372E+000  0.90873880E-004
 0.89494431E+000  0.32821972E-004
 0.87087452E+000 -0.22554240E-004
 0.85891950E+000 -0.85707913E-004
 0.87109005E+000 -0.20318140E-004
 0.70204746E+000  0.80866149E-004
 0.42160817E+000 -0.47486228E-004
 0.00000000E+000  0.00000000E+000
 0.85470992E+000  0.88465621E-005
 0.89514702E+000  0.37384921E-004
 0.84932547E+000  0.89124660E-006
 0.92099899E+000 -0.52054347E-004
 0.85470974E+000 -0.10595865E-004
 0.93782973E+000  0.68366040E-004
 0.92610871E+000 -0.80743062E-004
 0.00000000E+000  0.00000000E+000
 0.42163458E+000 -0.42117062E-004
 0.70198422E+000  0.66199681E-004
 0.85901403E+000 -0.74187279E-004
 0.92610889E+000  0.69511297E-004
 0.93783277E+000 -0.58403355E-004
 0.85901641E+000  0.84039922E-004
 0.92099022E+000  0.43753250E-004
 0.87109041E+000  0.21981852E-004
 0.70198327E+000 -0.73972725E-004
 0.89516121E+000 -0.30111721E-004
 0.42163473E+000  0.45452470E-004
 0.00000000E+000  0.00000000E+000
 0.87085652E+000  0.17853790E-004
 0.85495418E+000 -0.79056535E-005
 0.89494377E+000 -0.34360760E-004
 0.84907805E+000 -0.95813913E-006
 0.92118388E+000  0.49786969E-004
 0.93766862E+000 -0.63765299E-004
 0.85495436E+000  0.97869715E-005
 0.92623871E+000  0.76166244E-004
 0.85892099E+000 -0.78914315E-004
 0.70204281E+000  0.70061905E-004
 0.42160725E+000 -0.43448253E-004
 0.87085610E+000 -0.19656188E-004
 0.00000000E+000  0.00000000E+000
 0.00000000E+000  0.00000000E+000
 0.42160633E+000  0.41128394E-004
 0.70204263E+000 -0.63425737E-004
 0.85892045E+000  0.69575304E-004
 0.92624086E+000 -0.64116451E-004
 0.93766236E+000  0.52624214E-004
 0.92119550E+000 -0.38825615E-004
 0.89492732E+000  0.25982199E-004
 0.87111157E+000 -0.15126753E-004
 0.89516174E+000  0.31755582E-004
 0.85468626E+000  0.64188725E-005
 0.92098957E+000 -0.45199689E-004
 0.84935051E+000  0.10259121E-005
 0.93783348E+000  0.59586804E-004
 0.85468602E+000 -0.84448429E-005
 0.92610818E+000 -0.70408845E-004
 0.85901468E+000  0.74748510E-004
 0.70198374E+000 -0.66455671E-004
 0.42163485E+000  0.42122337E-004
 0.00000000E+000  0.00000000E+000
 0.87111198E+000  0.17047241E-004
 0.00000000E+000  0.00000000E+000
 0.42163604E+000 -0.40515838E-004
 0.70198225E+000  0.60969348E-004
 0.85901707E+000 -0.65022279E-004
 0.92610305E+000  0.58178426E-004
 0.93784290E+000 -0.46161392E-004
 0.92097496E+000  0.32857995E-004
 0.89518153E+000 -0.21099731E-004
 0.87083232E+000  0.11712991E-004
 0.89492678E+000 -0.27753480E-004
 0.85498094E+000 -0.46503760E-005
 0.92119616E+000  0.40357132E-004
 0.84905046E+000 -0.11012380E-005
 0.93766158E+000 -0.53882344E-004
 0.92624163E+000  0.65051215E-004
 0.85498112E+000  0.68109475E-005
 0.85891973E+000 -0.70168636E-004
 0.70204317E+000  0.63674073E-004
 0.42160603E+000 -0.41134415E-004
 0.00000000E+000  0.00000000E+000
 0.87083190E+000 -0.13772880E-004
 0.00000000E+000  0.00000000E+000
 0.42160433E+000  0.40194870E-004
 0.70204579E+000 -0.58721849E-004
 0.85891526E+000  0.60274564E-004
 0.92624962E+000 -0.51661707E-004
 0.93764877E+000  0.38807502E-004
 0.92121440E+000 -0.25975114E-004
 0.89490360E+000  0.15373940E-004
 0.89518207E+000  0.22969046E-004
 0.87113910E+000 -0.77174308E-005
 0.85465633E+000  0.25589652E-005
 0.92097425E+000 -0.34489792E-004
 0.84938120E+000  0.11695552E-005
 0.93784368E+000  0.47492223E-004
 0.92610228E+000 -0.59160760E-004
 0.85901772E+000  0.65626714E-004
 0.85465610E+000 -0.48629440E-005
 0.70198172E+000 -0.61221107E-004
 0.42163634E+000  0.40498103E-004
 0.00000000E+000  0.00000000E+000
 0.87113952E+000  0.98987875E-005
 0.00000000E+000  0.00000000E+000
 0.42163851E+000 -0.40139711E-004
 0.70197784E+000  0.56507335E-004
 0.85902434E+000 -0.55204651E-004
 0.92609119E+000  0.44336196E-004
 0.93786025E+000 -0.30537710E-004
 0.92095214E+000  0.18087494E-004
 0.89490300E+000 -0.17367052E-004
 0.89520919E+000 -0.88614488E-005
 0.87080109E+000  0.31432216E-005
 0.92121511E+000  0.27705111E-004
 0.85501438E+000 -0.19438130E-006
 0.93764799E+000 -0.40207731E-004
 0.84901630E+000 -0.12432938E-005
 0.92625039E+000  0.52687486E-004
 0.85891455E+000 -0.60899634E-004
 0.70204633E+000  0.58963156E-004
 0.85501462E+000  0.26391596E-005
 0.42160403E+000 -0.40169950E-004
 0.00000000E+000  0.00000000E+000
 0.87080067E+000 -0.54617648E-005
 0.89520978E+000  0.10967755E-004
 0.00000000E+000  0.00000000E+000
 0.42160129E+000  0.40299273E-004
 0.70205152E+000 -0.54222917E-004
 0.85890561E+000  0.49561938E-004
 0.92626482E+000 -0.36038367E-004
 0.93762731E+000  0.21164494E-004
 0.92124164E+000 -0.92070522E-005
 0.89487159E+000  0.15732946E-005
 0.87117445E+000  0.19445005E-005
 0.92095136E+000 -0.19907578E-004
 0.85461902E+000 -0.24353557E-005
 0.93786102E+000  0.32003612E-004
 0.84941917E+000  0.13172609E-005
 0.92609041E+000 -0.45397911E-004
 0.85902506E+000  0.55848875E-004
 0.70197731E+000 -0.56747241E-004
 0.42163881E+000  0.40098046E-004
 0.00000000E+000  0.00000000E+000
 0.85461878E+000 -0.15034279E-006
 0.87117493E+000  0.50409033E-006
 0.89487099E+000 -0.37971285E-005
 0.00000000E+000  0.00000000E+000
 0.42164218E+000 -0.40638922E-004
 0.70197069E+000  0.51713621E-004
 0.85903668E+000 -0.43094052E-004
 0.92607218E+000  0.26546664E-004
 0.93788629E+000 -0.10586094E-004
 0.92091995E+000 -0.70045064E-006
 0.89524590E+000  0.64533155E-005
 0.92124235E+000  0.11119602E-004
 0.87076133E+000 -0.75016232E-005
 0.85505580E+000  0.52833238E-005
 0.93762654E+000 -0.22703259E-004
 0.92626559E+000  0.37145433E-004
 0.84897434E+000 -0.13929841E-005
 0.85890489E+000 -0.50212827E-004
 0.70205205E+000  0.54454325E-004
 0.42160099E+000 -0.40231818E-004
 0.00000000E+000  0.00000000E+000
 0.85505604E+000 -0.25484898E-005
 0.87076091E+000  0.49210298E-005
 0.89524656E+000 -0.41193789E-005
 0.00000000E+000  0.00000000E+000
 0.42159688E+000  0.41138231E-004
 0.70206034E+000 -0.48810012E-004
 0.85889023E+000  0.35517165E-004
 0.92628830E+000 -0.15610627E-004
 0.93759596E+000 -0.13581624E-005
 0.92127925E+000  0.11623054E-004
 0.89482975E+000 -0.15147521E-004
 0.92091917E+000 -0.13064964E-005
 0.87121886E+000  0.13446302E-004
 0.93788713E+000  0.12181578E-004
 0.85457330E+000 -0.83064105E-005
 0.92607134E+000 -0.27694124E-004
 0.85903739E+000  0.43759395E-004
 0.84946531E+000  0.14644107E-005
 0.70197016E+000 -0.51936614E-004
 0.42164251E+000  0.40555980E-004
 0.00000000E+000  0.00000000E+000
 0.85457307E+000  0.54260444E-005
 0.87121933E+000 -0.10724449E-004
 0.89482909E+000  0.12690687E-004
 0.00000000E+000  0.00000000E+000
 0.42164748E+000 -0.41777027E-004
 0.70195978E+000  0.45288034E-004
 0.85905575E+000 -0.26467258E-004
 0.92604339E+000  0.29403670E-005
 0.93792378E+000  0.14767292E-004
 0.92128008E+000 -0.95269724E-005
 0.92087626E+000 -0.23512791E-004
 0.89529329E+000  0.24407554E-004
 0.87071210E+000 -0.19659257E-004
 0.93759512E+000 -0.30610516E-006
 0.85510593E+000  0.11450923E-004
 0.92628914E+000  0.16782603E-004
 0.85888946E+000 -0.36197932E-004
 0.70206093E+000  0.49012702E-004
 0.84892404E+000 -0.15467733E-005
 0.42159658E+000 -0.41036611E-004
 0.00000000E+000  0.00000000E+000
 0.85510617E+000 -0.84207258E-005
 0.87071156E+000  0.16807836E-004
 0.89529401E+000 -0.21837890E-004
 0.92087543E+000  0.21326744E-004
 0.00000000E+000  0.00000000E+000
 0.42159047E+000  0.42532297E-004
 0.70207387E+000 -0.40837767E-004
 0.85886645E+000  0.15535750E-004
 0.92632359E+000  0.11802357E-004
 0.93755131E+000 -0.29665721E-004
 0.92132973E+000  0.36292240E-004
 0.89477652E+000 -0.34024793E-004
 0.93792468E+000 -0.13041665E-004
 0.87127310E+000  0.26060310E-004
 0.92604249E+000 -0.41524249E-005
 0.85451883E+000 -0.14624307E-004
 0.85905653E+000  0.27141333E-004
 0.70195919E+000 -0.45486187E-004
 0.42164781E+000  0.41646955E-004
 0.00000000E+000  0.00000000E+000
 0.84951978E+000  0.16239420E-005
 0.85451859E+000  0.11443299E-004
 0.87127363E+000 -0.23063077E-004
 0.89477574E+000  0.31342926E-004
 0.92133063E+000 -0.34019580E-004
 0.00000000E+000  0.00000000E+000
 0.42165535E+000 -0.43347430E-004
 0.70194292E+000  0.35093824E-004
 0.85908561E+000 -0.21182136E-005
 0.92600017E+000 -0.28837703E-004
 0.93797689E+000  0.46141558E-004
 0.92081826E+000 -0.49640519E-004
 0.89535266E+000  0.43901301E-004
 0.93755036E+000  0.27881606E-004
 0.87065279E+000 -0.32364740E-004
 0.92632448E+000 -0.10559913E-004
 0.85516458E+000  0.17791933E-004
 0.85886561E+000 -0.16214429E-004
 0.70207446E+000  0.41007475E-004
 0.42159014E+000 -0.42375471E-004
 0.00000000E+000  0.00000000E+000
 0.84886544E+000 -0.17036985E-005
 0.85516488E+000 -0.14453962E-004
 0.87065225E+000  0.29242799E-004
 0.89535343E+000 -0.41096984E-004
 0.92081737E+000  0.47273686E-004
 0.00000000E+000  0.00000000E+000
 0.42158073E+000  0.44186661E-004
 0.70209538E+000 -0.27390895E-004
 0.85882884E+000 -0.14298991E-004
 0.92637687E+000  0.48670626E-004
 0.93748843E+000 -0.63713203E-004
 0.93797785E+000 -0.44295076E-004
 0.92139583E+000  0.63519284E-004
 0.89471077E+000 -0.53444746E-004
 0.92599922E+000  0.27566693E-004
 0.87133711E+000  0.38612328E-004
 0.85908645E+000  0.28000069E-005
 0.70194232E+000 -0.35243276E-004
 0.85445600E+000 -0.20724604E-004
 0.42165571E+000  0.43172225E-004
 0.00000000E+000  0.00000000E+000
 0.84958189E+000  0.17835282E-005
 0.85445570E+000  0.17226675E-004
 0.87133771E+000 -0.35330183E-004
 0.89471000E+000  0.50532660E-004
 0.92139679E+000 -0.61069586E-004
 0.93748748E+000  0.61813610E-004
 0.00000000E+000  0.00000000E+000
 0.42166796E+000 -0.44808992E-004
 0.70191538E+000  0.17212103E-004
 0.85913413E+000  0.35064556E-004
 0.92593449E+000 -0.70728812E-004
 0.93805122E+000  0.82880236E-004
 0.92074346E+000 -0.76537529E-004
 0.89542448E+000  0.63125313E-004
 0.92637789E+000 -0.47385739E-004
 0.87058395E+000 -0.43913038E-004
 0.85882794E+000  0.13628354E-004
 0.70209604E+000  0.27518215E-004
 0.42158037E+000 -0.43970139E-004
 0.00000000E+000  0.00000000E+000
 0.85523056E+000  0.23650258E-004
 0.84879970E+000 -0.18706309E-005
 0.85523086E+000 -0.19996903E-004
 0.87058335E+000  0.40500864E-004
 0.89542526E+000 -0.60086596E-004
 0.92074245E+000  0.73997762E-004
 0.93805223E+000 -0.80928090E-004
 0.00000000E+000  0.00000000E+000
 0.42156484E+000  0.45207467E-004
 0.70213270E+000 -0.25611684E-005
 0.85876679E+000 -0.59696059E-004
 0.92645907E+000  0.96970718E-004
 0.93740147E+000 -0.10042644E-003
 0.92593348E+000  0.69410845E-004
 0.92147958E+000  0.90602901E-004
 0.89463251E+000 -0.70166082E-004
 0.85913503E+000 -0.34400305E-004
 0.87140917E+000  0.49798123E-004
 0.70191472E+000 -0.17301197E-004
 0.42166832E+000  0.44563250E-004
 0.00000000E+000  0.00000000E+000
 0.85438597E+000 -0.25482184E-004
 0.84964901E+000  0.19552201E-005
 0.85438561E+000  0.21662157E-004
 0.87140977E+000 -0.46235560E-004
 0.89463168E+000  0.67011860E-004
 0.92148059E+000 -0.87981097E-004
 0.93740040E+000  0.98420088E-004
 0.92646014E+000 -0.95641524E-004
 0.00000000E+000  0.00000000E+000
 0.42169040E+000 -0.44394913E-004
 0.70186650E+000 -0.16822437E-004
 0.85921746E+000  0.91940353E-004
 0.92583358E+000 -0.12306460E-003
 0.93815314E+000  0.11958454E-003
 0.92065066E+000 -0.10039128E-003
 0.85876584E+000  0.59045847E-004
 0.89550715E+000  0.78223849E-004
 0.70213335E+000  0.26137136E-005
 0.42156448E+000 -0.44909476E-004
 0.00000000E+000  0.00000000E+000
 0.87050706E+000 -0.52834053E-004
 0.85530078E+000  0.27770300E-004
 0.84872859E+000 -0.20439790E-005
 0.85530108E+000 -0.23779861E-004
 0.87050640E+000  0.49128422E-004
 0.89550805E+000 -0.74960698E-004
 0.92064964E+000  0.97677017E-004
 0.93815428E+000 -0.11752900E-003
 0.92583250E+000  0.12172210E-003
 0.85921841E+000 -0.91309011E-004
 0.00000000E+000  0.00000000E+000
 0.42153421E+000  0.41581999E-004
 0.70220124E+000  0.43822132E-004
 0.85865557E+000 -0.13260108E-003
 0.92658406E+000  0.14741790E-003
 0.93728417E+000 -0.13892534E-003
 0.92158043E+000  0.10464296E-003
 0.70186579E+000  0.16813704E-004
 0.42169076E+000  0.44063377E-004
 0.89454537E+000 -0.87232001E-004
 0.00000000E+000  0.00000000E+000
 0.87148845E+000  0.52383042E-004
 0.85431486E+000 -0.30580045E-004
 0.84972113E+000  0.21325126E-005
 0.85431450E+000  0.26412490E-004
 0.87148916E+000 -0.48526882E-004
 0.89454442E+000  0.83841157E-004
 0.92158150E+000 -0.10185768E-003
 0.93728303E+000  0.13682710E-003
 0.92658519E+000 -0.14606516E-003
 0.85865455E+000  0.13199623E-003
 0.70220196E+000 -0.43864794E-004
 0.00000000E+000  0.00000000E+000
 0.42172920E+000 -0.37849178E-004
 0.70175808E+000 -0.91393056E-004
 0.85935693E+000  0.16490042E-003
 0.92567133E+000 -0.19137980E-003
 0.42153382E+000 -0.41196628E-004
 0.93828046E+000  0.12678252E-003
 0.00000000E+000  0.00000000E+000
 0.92054384E+000 -0.13370531E-003
 0.89560371E+000  0.68326429E-004
 0.87043744E+000 -0.69711124E-004
 0.85538578E+000  0.22122014E-004
 0.84867197E+000 -0.22319420E-005
 0.85538613E+000 -0.17789530E-004
 0.87043672E+000  0.65697167E-004
 0.89560467E+000 -0.64824700E-004
 0.92054271E+000  0.13082959E-003
 0.93828171E+000 -0.12463491E-003
 0.92567014E+000  0.19002390E-003
 0.85935795E+000 -0.16433581E-003
 0.70175737E+000  0.91492227E-004
 0.42172959E+000  0.37419700E-004
 0.00000000E+000  0.00000000E+000
 0.00000000E+000  0.00000000E+000
 0.42145100E+000  0.18411219E-004
 0.70232284E+000  0.13066022E-003
 0.85842525E+000 -0.25062094E-003
 0.92674851E+000  0.15914786E-003
 0.93713074E+000 -0.18906893E-003
 0.92169541E+000  0.74663003E-004
 0.89446932E+000 -0.12306573E-003
 0.87159633E+000  0.26796751E-004
 0.85428166E+000 -0.44376884E-004
 0.84983074E+000  0.23202728E-005
 0.85428130E+000  0.39838294E-004
 0.87159711E+000 -0.22646303E-004
 0.89446830E+000  0.11943712E-003
 0.92169660E+000 -0.71727779E-004
 0.93712949E+000  0.18688570E-003
 0.92674976E+000 -0.15779111E-003
 0.85842424E+000  0.25007873E-003
 0.70232361E+000 -0.13082742E-003
 0.42145061E+000 -0.17928352E-004
 0.00000000E+000  0.00000000E+000
 0.00000000E+000  0.00000000E+000
 0.42180174E+000 -0.25760546E-005
 0.70147776E+000 -0.25011485E-003
 0.85957765E+000  0.23687398E-003
 0.92541456E+000 -0.24602000E-003
 0.93840795E+000  0.83596700E-004
 0.92043459E+000 -0.17806282E-003
 0.89572995E+000  0.23381709E-004
 0.87041908E+000 -0.95817624E-004
 0.85552757E+000  0.44679345E-005
 0.84868562E+000 -0.24416724E-005
 0.85552799E+000  0.22157946E-006
 0.87041825E+000  0.91466579E-004
 0.89573103E+000 -0.19681781E-004
 0.92043340E+000  0.17502384E-003
 0.93840926E+000 -0.81390491E-004
 0.92541331E+000  0.24464915E-003
 0.85957878E+000 -0.23639570E-003
 0.70147699E+000  0.25034576E-003
 0.42180216E+000  0.20194308E-005
 0.00000000E+000  0.00000000E+000
 0.00000000E+000  0.00000000E+000
 0.42121526E+000 -0.70209600E-004
 0.70260697E+000  0.32481399E-003
 0.85798132E+000 -0.34307586E-003
 0.92691630E+000  0.10894214E-003
 0.93695795E+000 -0.20741143E-003
 0.92182689E+000  0.37885074E-004
 0.89443218E+000 -0.13058805E-003
 0.87174957E+000  0.51569973E-005
 0.85431981E+000 -0.47984962E-004
 0.85000061E+000  0.25079623E-005
 0.85431933E+000  0.43018091E-004
 0.87175047E+000 -0.73684179E-006
 0.89443111E+000  0.12669770E-003
 0.92182821E+000 -0.34849275E-004
 0.93695664E+000  0.20512308E-003
 0.92691767E+000 -0.10760807E-003
 0.85798025E+000  0.34261425E-003
 0.70260781E+000 -0.32515087E-003
 0.42121490E+000  0.70830821E-004
 0.00000000E+000  0.00000000E+000
 0.00000000E+000  0.00000000E+000
 0.42208018E+000  0.17286023E-003
 0.70078957E+000 -0.54110697E-003
 0.85994136E+000  0.19824654E-003
 0.92515605E+000 -0.18626867E-003
 0.93853753E+000  0.69443158E-004
 0.92033588E+000 -0.14937832E-003
 0.89586502E+000  0.15985531E-005
 0.87044322E+000 -0.87821448E-004
 0.85569846E+000 -0.35620009E-005
 0.84875255E+000 -0.26961656E-005
 0.85569894E+000  0.85903902E-005
 0.87044239E+000  0.83107210E-004
 0.89586621E+000  0.22588128E-005
 0.92033463E+000  0.14617285E-003
 0.93853896E+000 -0.67218046E-004
 0.92515474E+000  0.18485105E-003
 0.85994261E+000 -0.19788050E-003
 0.70078873E+000  0.54151966E-003
 0.42208063E+000 -0.17358371E-003
 0.00000000E+000  0.00000000E+000
 0.00000000E+000  0.00000000E+000
 0.42038607E+000 -0.48438066E-003
 0.70345497E+000  0.59679214E-003
 0.85741966E+000 -0.13370474E-003
 0.92695438E+000 -0.31010680E-004
 0.93674117E+000 -0.30905692E-003
 0.92196220E+000 -0.15100312E-003
 0.89446872E+000 -0.21799653E-003
 0.87195080E+000 -0.78986355E-004
 0.85442596E+000 -0.70754089E-004
 0.85020518E+000  0.26987363E-005
 0.85442548E+000  0.65291264E-004
 0.87195181E+000  0.83655191E-004
 0.89446759E+000  0.21385919E-003
 0.92196363E+000  0.15407947E-003
 0.93673986E+000  0.30666321E-003
 0.92695587E+000  0.32329429E-004
 0.85741853E+000  0.13329916E-003
 0.70345592E+000 -0.59736979E-003
 0.42038571E+000  0.48520526E-003
 0.00000000E+000  0.00000000E+000
 0.00000000E+000  0.00000000E+000
 0.42360231E+000  0.99966977E-003
 0.69883102E+000 -0.87323837E-003
 0.85951727E+000 -0.11190808E-002
 0.92474889E+000 -0.12552387E-002
 0.93883270E+000 -0.95702556E-003
 0.92060768E+000 -0.79522840E-003
 0.89633101E+000 -0.49291044E-003
 0.87078809E+000 -0.34495047E-003
 0.85610097E+000 -0.14160692E-003
 0.84906435E+000 -0.29692148E-005
 0.85610151E+000  0.14700734E-003
 0.87078720E+000  0.33985378E-003
 0.89633232E+000  0.49686897E-003
 0.92060643E+000  0.79188268E-003
 0.93883424E+000  0.95921102E-003
 0.92474770E+000  0.12537022E-002
 0.85951876E+000  0.11193476E-002
 0.69883024E+000  0.87390106E-003
 0.42360287E+000 -0.10006689E-002
 0.00000000E+000  0.00000000E+000
 0.00000000E+000  0.00000000E+000
 0.41249904E+000 -0.32063836E-002
 0.70116347E+000 -0.31791934E-002
 0.85634005E+000 -0.25583375E-002
 0.92752909E+000 -0.22913599E-002
 0.93769073E+000 -0.20044664E-002
 0.92333036E+000 -0.17057368E-002
 0.89577853E+000 -0.13680470E-002
 0.87329316E+000 -0.93095446E-003
 0.85564523E+000 -0.48671278E-003
 0.85145550E+000  0.29122429E-005
 0.85564476E+000  0.48085578E-003
 0.87329417E+000  0.93584368E-003
 0.89577734E+000  0.13637873E-002
 0.92333185E+000  0.17087433E-002
 0.93768942E+000  0.20020129E-002
 0.92753058E+000  0.22925001E-002
 0.85633897E+000  0.25578096E-002
 0.70116478E+000  0.31781888E-002
 0.41249886E+000  0.32073613E-002
 0.00000000E+000  0.00000000E+000
 0.00000000E+000  0.00000000E+000
 0.44426763E+000 -0.87637752E-002
 0.71870422E+000 -0.96285622E-002
 0.87658959E+000 -0.10106512E-001
 0.93724501E+000 -0.85296686E-002
 0.94758850E+000 -0.69607868E-002
 0.92620885E+000 -0.51196124E-002
 0.89981931E+000 -0.35600014E-002
 0.87282150E+000 -0.21820885E-002
 0.85739409E+000 -0.10315065E-002
 0.85007792E+000 -0.32306604E-005
 0.85739463E+000  0.10374626E-002
 0.87282061E+000  0.21766535E-002
 0.89982056E+000  0.35641940E-002
 0.92620754E+000  0.51161521E-002
 0.94758987E+000  0.69630360E-002
 0.93724358E+000  0.85278842E-002
 0.87659078E+000  0.10106588E-001
 0.71870309E+000  0.96289105E-002
 0.44426843E+000  0.87613444E-002
 0.00000000E+000  0.00000000E+000
