 0.00000000E+000  0.00000000E+000
 0.17313005E+000  0.00000000E+000
 0.32803589E+000  0.00000000E+000
 0.46471750E+000  0.00000000E+000
 0.58317488E+000  0.00000000E+000
 0.68340808E+000  0.00000000E+000
 0.00000000E+000  0.00000000E+000
 0.23541055E+000  0.35539094E-001
 0.39537298E+000  0.90523764E-001
 0.50884550E+000  0.13660480E+000
 0.76541703E+000  0.00000000E+000
 0.59789329E+000  0.16250364E+000
 0.67124074E+000  0.16717126E+000
 0.73206287E+000  0.15368665E+000
 0.82920181E+000  0.00000000E+000
 0.78043937E+000  0.12633912E+000
 0.00000000E+000  0.00000000E+000
 0.33933520E+000  0.20592711E-001
 0.51860398E+000  0.61181887E-001
 0.60577875E+000  0.10510246E+000
 0.64704793E+000  0.13830801E+000
 0.67058694E+000  0.15309238E+000
 0.68784523E+000  0.14834569E+000
 0.87476235E+000  0.00000000E+000
 0.81582641E+000  0.89250698E-001
 0.70272111E+000  0.12644466E+000
 0.00000000E+000  0.00000000E+000
 0.39030441E+000  0.68934014E-002
 0.59828954E+000  0.20592892E-001
 0.68120014E+000  0.39160493E-001
 0.69735968E+000  0.56442465E-001
 0.71484035E+000  0.91480143E-001
 0.68479067E+000  0.67601531E-001
 0.90209865E+000  0.00000000E+000
 0.66609156E+000  0.69445312E-001
 0.83739942E+000  0.46081077E-001
 0.65027660E+000  0.61768118E-001
 0.72298997E+000  0.47865174E-001
 0.64009839E+000  0.45938774E-001
 0.00000000E+000  0.00000000E+000
 0.91121077E+000  0.00000000E+000
 0.40491583E+000  0.46443904E-003
 0.62305808E+000  0.29512597E-002
 0.71181136E+000  0.66170231E-002
 0.72269016E+000  0.11634099E-001
 0.69806969E+000  0.15854189E-001
 0.84466981E+000  0.21092679E-007
 0.66318279E+000  0.18113132E-001
 0.63205736E+000  0.17300652E-001
 0.63473844E+000  0.24428982E-001
 0.72582983E+000 -0.45840504E-007
 0.60942101E+000  0.13535846E-001
 0.90209865E+000  0.00000000E+000
 0.83739942E+000 -0.46081118E-001
 0.00000000E+000  0.00000000E+000
 0.63318127E+000  0.72924564E-007
 0.40633147E+000  0.25767198E-003
 0.62844651E+000  0.47012791E-003
 0.71883058E+000  0.17020334E-002
 0.73093014E+000  0.27694634E-002
 0.70380610E+000  0.41222879E-002
 0.59638458E+000  0.73916269E-002
 0.66493010E+000  0.48493985E-002
 0.62842082E+000  0.49037705E-002
 0.72298997E+000 -0.47865085E-001
 0.60125488E+000  0.39413734E-002
 0.59209007E+000 -0.10239578E-006
 0.87476235E+000  0.00000000E+000
 0.63473838E+000 -0.24429127E-001
 0.81582647E+000 -0.89250653E-001
 0.58488696E+000  0.22140012E-002
 0.00000000E+000  0.00000000E+000
 0.40736490E+000  0.13988862E-003
 0.62984311E+000  0.90351916E-003
 0.72155094E+000  0.13156849E-002
 0.73309600E+000  0.21819814E-002
 0.70578259E+000  0.24806030E-002
 0.71484029E+000 -0.91480232E-001
 0.66531926E+000  0.26959972E-002
 0.62743175E+000  0.23974543E-002
 0.59638464E+000 -0.73914206E-002
 0.82920181E+000  0.00000000E+000
 0.57959622E+000  0.13722761E-006
 0.59849131E+000  0.18572893E-002
 0.64009851E+000 -0.45938633E-001
 0.78043931E+000 -0.12633916E+000
 0.70272117E+000 -0.12644459E+000
 0.58117079E+000  0.98891742E-003
 0.76541703E+000  0.00000000E+000
 0.60942095E+000 -0.13536044E-001
 0.58488690E+000 -0.22142659E-002
 0.00000000E+000  0.00000000E+000
 0.40780463E+000  0.10274187E-003
 0.63112550E+000  0.18054584E-004
 0.72248941E+000  0.48731005E-003
 0.73206287E+000 -0.15368661E+000
 0.73438376E+000  0.51322788E-003
 0.70615082E+000  0.87198085E-003
 0.65027648E+000 -0.61768252E-001
 0.66541171E+000  0.83735911E-003
 0.62661224E+000  0.84398745E-003
 0.57531195E+000 -0.16821603E-006
 0.68784511E+000 -0.14834578E+000
 0.68340808E+000  0.00000000E+000
 0.59736579E+000  0.60304912E-003
 0.67124068E+000 -0.16717131E+000
 0.63205754E+000 -0.17300460E-001
 0.66609168E+000 -0.69445177E-001
 0.60125499E+000 -0.39411135E-002
 0.67058706E+000 -0.15309230E+000
 0.58317488E+000  0.00000000E+000
 0.57947444E+000  0.34197370E-003
 0.59789335E+000 -0.16250361E+000
 0.58117085E+000 -0.98858377E-003
 0.46471750E+000  0.00000000E+000
 0.50884544E+000 -0.13660484E+000
 0.64704781E+000 -0.13830809E+000
 0.32803589E+000  0.00000000E+000
 0.68479049E+000 -0.67601650E-001
 0.39537304E+000 -0.90523734E-001
 0.17313005E+000  0.00000000E+000
 0.00000000E+000  0.00000000E+000
 0.00000000E+000  0.00000000E+000
 0.40790653E+000 -0.87906591E-004
 0.63115459E+000  0.57629251E-004
 0.72307449E+000 -0.17049374E-003
 0.66318261E+000 -0.18113309E-001
 0.73454338E+000  0.96714764E-004
 0.23541051E+000 -0.35539124E-001
 0.70662152E+000 -0.10302423E-004
 0.60577887E+000 -0.10510240E+000
 0.00000000E+000  0.00000000E+000
 0.57368552E+000  0.19917146E-006
 0.66531568E+000  0.17458110E-003
 0.62842065E+000 -0.49040182E-002
 0.51860386E+000 -0.61181940E-001
 0.62658739E+000  0.11803787E-003
 0.69735985E+000 -0.56442361E-001
 0.33933529E+000 -0.20592667E-001
 0.00000000E+000  0.00000000E+000
 0.59849119E+000 -0.18576101E-002
 0.59687656E+000  0.15433448E-003
 0.68119996E+000 -0.39160583E-001
 0.69806987E+000 -0.15854027E-001
 0.59828972E+000 -0.20592818E-001
 0.39030432E+000 -0.68934550E-002
 0.57947438E+000 -0.34237594E-003
 0.00000000E+000  0.00000000E+000
 0.66493034E+000 -0.48491717E-002
 0.57910054E+000  0.68890803E-004
 0.72268998E+000 -0.11634237E-001
 0.71181154E+000 -0.66169039E-002
 0.62743192E+000 -0.23971507E-002
 0.62305790E+000 -0.29513491E-002
 0.70380586E+000 -0.41224905E-002
 0.40491592E+000 -0.46438447E-003
 0.57303261E+000 -0.23752836E-006
 0.00000000E+000  0.00000000E+000
 0.00000000E+000  0.00000000E+000
 0.40780806E+000  0.53573534E-004
 0.63127022E+000 -0.99913901E-004
 0.72293609E+000  0.12097512E-003
 0.73484343E+000 -0.82495411E-004
 0.70653641E+000  0.11049749E-003
 0.59736591E+000 -0.60266396E-003
 0.66555738E+000 -0.13080684E-004
 0.73093038E+000 -0.27692865E-002
 0.62643808E+000  0.81896621E-004
 0.66531908E+000 -0.26962761E-002
 0.71883034E+000 -0.17021718E-002
 0.59695494E+000  0.15842619E-004
 0.62844669E+000 -0.47002659E-003
 0.57910060E+000 -0.68427703E-004
 0.40633136E+000 -0.25772617E-003
 0.00000000E+000  0.00000000E+000
 0.70578283E+000 -0.24803562E-002
 0.62661206E+000 -0.84434839E-003
 0.57884740E+000  0.32215539E-004
 0.73309576E+000 -0.21821893E-002
 0.59687644E+000 -0.15478506E-003
 0.72155123E+000 -0.13155203E-002
 0.57303404E+000  0.26953674E-006
 0.66541194E+000 -0.83702657E-003
 0.62984293E+000 -0.90362882E-003
 0.40736502E+000 -0.13983741E-003
 0.00000000E+000  0.00000000E+000
 0.00000000E+000  0.00000000E+000
 0.40784907E+000 -0.53889463E-004
 0.63117295E+000  0.85786974E-004
 0.72310578E+000 -0.11174473E-003
 0.73468214E+000  0.96880772E-004
 0.70674031E+000 -0.80671037E-004
 0.66539061E+000  0.59377875E-004
 0.62660318E+000 -0.38097681E-004
 0.70615053E+000 -0.87227363E-003
 0.62658756E+000 -0.11761490E-003
 0.57884734E+000 -0.32751133E-004
 0.59677869E+000  0.24911596E-004
 0.73438400E+000 -0.51298615E-003
 0.57897841E+000 -0.10555496E-004
 0.72248911E+000 -0.48749320E-003
 0.63112574E+000 -0.17935661E-004
 0.66531544E+000 -0.17496536E-003
 0.40780451E+000 -0.10278993E-003
 0.00000000E+000  0.00000000E+000
 0.59695506E+000 -0.15328176E-004
 0.57284808E+000 -0.30608379E-006
 0.70662176E+000  0.10638077E-004
 0.00000000E+000  0.00000000E+000
 0.40779954E+000  0.44828673E-004
 0.63125079E+000 -0.93842601E-004
 0.72297132E+000  0.86870524E-004
 0.73485046E+000 -0.11181675E-003
 0.70656597E+000  0.65828142E-004
 0.62643790E+000 -0.82379934E-004
 0.73454308E+000 -0.96990908E-004
 0.66557794E+000 -0.71299247E-004
 0.62642687E+000  0.32641804E-004
 0.57897847E+000  0.11157374E-004
 0.72307473E+000  0.17069673E-003
 0.59696024E+000 -0.29864024E-004
 0.63115435E+000 -0.57754466E-004
 0.40790665E+000  0.87953332E-004
 0.00000000E+000  0.00000000E+000
 0.66555762E+000  0.13517486E-004
 0.57880312E+000  0.91490219E-005
 0.59677851E+000 -0.25492117E-004
 0.70653611E+000 -0.11087689E-003
 0.57302778E+000  0.34044492E-006
 0.73484373E+000  0.82803198E-004
 0.62660336E+000  0.38640941E-004
 0.72293585E+000 -0.12119974E-003
 0.63127040E+000  0.10004368E-003
 0.00000000E+000  0.00000000E+000
 0.40782803E+000 -0.46622200E-004
 0.63116717E+000  0.79385652E-004
 0.72308492E+000 -0.96353993E-004
 0.73469614E+000  0.90685549E-004
 0.40780794E+000 -0.53615087E-004
 0.70674449E+000 -0.80743622E-004
 0.57880300E+000 -0.98211457E-005
 0.00000000E+000  0.00000000E+000
 0.66539436E+000  0.57221517E-004
 0.62662571E+000 -0.43001768E-004
 0.66539037E+000 -0.59868805E-004
 0.59676712E+000  0.23586026E-004
 0.59696042E+000  0.30510225E-004
 0.57900679E+000 -0.12305020E-004
 0.70674061E+000  0.81094469E-004
 0.73468184E+000 -0.97220479E-004
 0.57283103E+000 -0.37490261E-006
 0.72310608E+000  0.11198637E-003
 0.62642669E+000 -0.33246404E-004
 0.63117277E+000 -0.85924679E-004
 0.40784919E+000  0.53926567E-004
 0.00000000E+000  0.00000000E+000
 0.57900691E+000  0.13047317E-004
 0.00000000E+000  0.00000000E+000
 0.40779429E+000  0.44999105E-004
 0.63123655E+000 -0.76827520E-004
 0.72297406E+000  0.89958768E-004
 0.66557818E+000  0.71844377E-004
 0.73484194E+000 -0.88751738E-004
 0.70656883E+000  0.75024625E-004
 0.66558992E+000 -0.58426299E-004
 0.62641727E+000  0.39387708E-004
 0.59698629E+000 -0.24896886E-004
 0.70656567E+000 -0.66294596E-004
 0.59676700E+000 -0.24298649E-004
 0.57878446E+000  0.10941037E-004
 0.73485076E+000  0.11218790E-003
 0.72297102E+000 -0.87131884E-004
 0.63125103E+000  0.93982082E-004
 0.40779942E+000 -0.44863842E-004
 0.62662589E+000  0.43666783E-004
 0.00000000E+000  0.00000000E+000
 0.57305783E+000  0.41101429E-006
 0.66539406E+000 -0.57819601E-004
 0.57878440E+000 -0.11752184E-004
 0.00000000E+000  0.00000000E+000
 0.40782642E+000 -0.44646389E-004
 0.63116878E+000  0.73327246E-004
 0.72307962E+000 -0.86718333E-004
 0.73469799E+000  0.83149076E-004
 0.70674693E+000 -0.72043054E-004
 0.66538459E+000  0.54515854E-004
 0.70674484E+000  0.81253856E-004
 0.62664371E+000 -0.37935908E-004
 0.59674572E+000  0.22889487E-004
 0.59698647E+000  0.25677563E-004
 0.73469585E+000 -0.91087618E-004
 0.72308522E+000  0.96630545E-004
 0.57903450E+000 -0.10474916E-004
 0.63116693E+000 -0.79534278E-004
 0.40782818E+000  0.46652217E-004
 0.00000000E+000  0.00000000E+000
 0.62641704E+000 -0.40111990E-004
 0.57280546E+000 -0.44622422E-006
 0.66559022E+000  0.59078764E-004
 0.57903462E+000  0.11356278E-004
 0.70656853E+000 -0.75579613E-004
 0.00000000E+000  0.00000000E+000
 0.40779292E+000  0.44216256E-004
 0.63123536E+000 -0.71566704E-004
 0.72297465E+000  0.82234517E-004
 0.73484349E+000 -0.78761644E-004
 0.70656275E+000  0.66759348E-004
 0.66560345E+000 -0.50439724E-004
 0.73484224E+000  0.89183442E-004
 0.62639760E+000  0.34552565E-004
 0.59674555E+000 -0.23734684E-004
 0.72297382E+000 -0.90254296E-004
 0.59701210E+000 -0.20562309E-004
 0.63123679E+000  0.76974982E-004
 0.40779414E+000 -0.45026150E-004
 0.00000000E+000  0.00000000E+000
 0.57875591E+000  0.93140088E-005
 0.62664395E+000  0.38725502E-004
 0.57308816E+000  0.48315052E-006
 0.66538429E+000 -0.55221826E-004
 0.57875579E+000 -0.10266701E-004
 0.70674729E+000  0.72636699E-004
 0.73469763E+000 -0.83615777E-004
 0.00000000E+000  0.00000000E+000
 0.40782749E+000 -0.44240910E-004
 0.63116711E+000  0.69840541E-004
 0.72308182E+000 -0.78331388E-004
 0.73469305E+000  0.73472023E-004
 0.70675742E+000 -0.60821064E-004
 0.72307997E+000  0.87027459E-004
 0.66536796E+000  0.45065073E-004
 0.59701228E+000  0.21475440E-004
 0.63116854E+000 -0.73485112E-004
 0.62666726E+000 -0.30007855E-004
 0.40782657E+000  0.44668006E-004
 0.00000000E+000  0.00000000E+000
 0.59671694E+000  0.17491975E-004
 0.57906663E+000 -0.76561027E-005
 0.62639737E+000 -0.35403390E-004
 0.57277202E+000 -0.51867607E-006
 0.66560375E+000  0.51194347E-004
 0.70656245E+000 -0.67400629E-004
 0.57906675E+000  0.86778318E-005
 0.73484385E+000  0.79251280E-004
 0.72297435E+000 -0.82567916E-004
 0.63123565E+000  0.71721653E-004
 0.40779280E+000 -0.44236101E-004
 0.59671676E+000 -0.18475884E-004
 0.00000000E+000  0.00000000E+000
 0.00000000E+000  0.00000000E+000
 0.40779089E+000  0.44476550E-004
 0.63123852E+000 -0.68412686E-004
 0.72296977E+000  0.74272982E-004
 0.73485219E+000 -0.67604756E-004
 0.70654857E+000  0.53898962E-004
 0.66562443E+000 -0.38425958E-004
 0.62637013E+000  0.24435748E-004
 0.59704476E+000 -0.13529344E-004
 0.62666749E+000  0.30916227E-004
 0.57871979E+000  0.56150201E-005
 0.66536766E+000 -0.45878401E-004
 0.57312530E+000  0.55320509E-006
 0.70675778E+000  0.61498554E-004
 0.57871973E+000 -0.67087926E-005
 0.73469275E+000 -0.73997129E-004
 0.72308212E+000  0.78673401E-004
 0.63116687E+000 -0.70006113E-004
 0.40782764E+000  0.44256979E-004
 0.00000000E+000  0.00000000E+000
 0.59704494E+000  0.14575618E-004
 0.00000000E+000  0.00000000E+000
 0.40783008E+000 -0.44946395E-004
 0.63116240E+000  0.66968794E-004
 0.72308933E+000 -0.70037742E-004
 0.73468089E+000  0.60839814E-004
 0.70677602E+000 -0.45922697E-004
 0.66534250E+000  0.30519113E-004
 0.62669932E+000 -0.17763593E-004
 0.59667980E+000  0.87772541E-005
 0.62636989E+000 -0.25412466E-004
 0.57910698E+000 -0.31385602E-005
 0.66562473E+000  0.39285299E-004
 0.57273054E+000 -0.58980123E-006
 0.70654821E+000 -0.54622090E-004
 0.73485249E+000  0.68156587E-004
 0.57910710E+000  0.43029394E-005
 0.72296947E+000 -0.74636118E-004
 0.63123875E+000  0.68575056E-004
 0.40779075E+000 -0.44487416E-004
 0.00000000E+000  0.00000000E+000
 0.59667962E+000 -0.98954160E-005
 0.00000000E+000  0.00000000E+000
 0.40778759E+000  0.45571152E-004
 0.63124459E+000 -0.65502441E-004
 0.72295963E+000  0.65243933E-004
 0.73486816E+000 -0.53112798E-004
 0.70652544E+000  0.36645313E-004
 0.66565501E+000 -0.21330952E-004
 0.62633305E+000  0.99753497E-005
 0.62669956E+000  0.18791461E-004
 0.59708684E+000 -0.32428661E-005
 0.57867461E+000  0.26970721E-006
 0.66534221E+000 -0.31437262E-004
 0.57317149E+000  0.62705879E-006
 0.70677632E+000  0.46687342E-004
 0.73468053E+000 -0.61420338E-004
 0.72308963E+000  0.70411209E-004
 0.57867455E+000 -0.15055786E-005
 0.63116216E+000 -0.67141074E-004
 0.40783020E+000  0.44951102E-004
 0.00000000E+000  0.00000000E+000
 0.59708702E+000  0.44228099E-005
 0.00000000E+000  0.00000000E+000
 0.40783402E+000 -0.46339722E-004
 0.63115477E+000  0.63829655E-004
 0.72310221E+000 -0.59696616E-004
 0.73466092E+000  0.44117005E-004
 0.70680421E+000 -0.25919949E-004
 0.66530644E+000  0.10763005E-004
 0.62633281E+000 -0.11070231E-004
 0.62674200E+000 -0.10951030E-005
 0.59663230E+000 -0.30481132E-005
 0.66565531E+000  0.22297655E-004
 0.57915735E+000  0.29751984E-005
 0.70652514E+000 -0.37446756E-004
 0.57267922E+000 -0.66267949E-006
 0.73486846E+000  0.53721465E-004
 0.72295933E+000 -0.65635467E-004
 0.63124483E+000  0.65670647E-004
 0.57915747E+000 -0.16695221E-005
 0.40778744E+000 -0.45572724E-004
 0.00000000E+000  0.00000000E+000
 0.59663212E+000  0.17995533E-005
 0.62674230E+000  0.22485028E-005
 0.00000000E+000  0.00000000E+000
 0.40778288E+000  0.47231307E-004
 0.63125389E+000 -0.61817438E-004
 0.72294366E+000  0.53094441E-004
 0.73489272E+000 -0.33596916E-004
 0.70649158E+000  0.13538367E-004
 0.66569727E+000  0.12362779E-005
 0.62628424E+000 -0.88818687E-005
 0.59714025E+000  0.10039709E-004
 0.66530615E+000 -0.11783205E-004
 0.57861870E+000 -0.65586368E-005
 0.70680451E+000  0.26767367E-004
 0.57322824E+000  0.69726218E-006
 0.73466056E+000 -0.44750602E-004
 0.72310250E+000  0.60102192E-004
 0.63115447E+000 -0.64000501E-004
 0.40783417E+000  0.46331639E-004
 0.00000000E+000  0.00000000E+000
 0.57861858E+000  0.51847518E-005
 0.59714043E+000 -0.87216731E-005
 0.62628394E+000  0.76653559E-005
 0.00000000E+000  0.00000000E+000
 0.40783959E+000 -0.48221791E-004
 0.63114345E+000  0.59277430E-004
 0.72312170E+000 -0.45120657E-004
 0.73463106E+000  0.21206027E-004
 0.70684450E+000  0.69233982E-006
 0.66525727E+000 -0.14743516E-004
 0.62679761E+000  0.19887798E-004
 0.66569757E+000 -0.16917626E-006
 0.59657263E+000 -0.17657008E-004
 0.57921922E+000  0.10435285E-004
 0.70649129E+000 -0.14420920E-004
 0.73489308E+000  0.34262946E-004
 0.57261669E+000 -0.73434449E-006
 0.72294336E+000 -0.53509604E-004
 0.63125419E+000  0.61990409E-004
 0.40778273E+000 -0.47215075E-004
 0.00000000E+000  0.00000000E+000
 0.57921928E+000 -0.89876884E-005
 0.59657245E+000  0.16277126E-004
 0.62679785E+000 -0.18616083E-004
 0.00000000E+000  0.00000000E+000
 0.40777626E+000  0.49305646E-004
 0.63126754E+000 -0.55987507E-004
 0.72291994E+000  0.35381573E-004
 0.73492872E+000 -0.65717554E-005
 0.70644384E+000 -0.16977337E-004
 0.66575419E+000  0.29751396E-004
 0.62622135E+000 -0.31845593E-004
 0.66525691E+000  0.13621410E-004
 0.59720647E+000  0.25799607E-004
 0.70684486E+000  0.23066129E-006
 0.57855081E+000 -0.14537643E-004
 0.73463070E+000 -0.21894276E-004
 0.72312200E+000  0.45552293E-004
 0.57329660E+000  0.76859231E-006
 0.63114321E+000 -0.59446847E-004
 0.40783974E+000  0.48200276E-004
 0.00000000E+000  0.00000000E+000
 0.57855075E+000  0.13020988E-004
 0.59720665E+000 -0.24351600E-004
 0.62622112E+000  0.30514844E-004
 0.00000000E+000  0.00000000E+000
 0.40784746E+000 -0.50474976E-004
 0.63112694E+000  0.51657320E-004
 0.72315061E+000 -0.23362736E-004
 0.73458760E+000 -0.10701658E-004
 0.70690095E+000  0.35489469E-004
 0.66575449E+000 -0.28581736E-004
 0.66519176E+000 -0.46185170E-004
 0.62686824E+000  0.44620010E-004
 0.59649956E+000 -0.34301890E-004
 0.70644348E+000  0.16013766E-004
 0.57929319E+000  0.18787020E-004
 0.73492908E+000  0.72878160E-005
 0.72291964E+000 -0.35820052E-004
 0.63126784E+000  0.56157055E-004
 0.57254248E+000 -0.80358910E-006
 0.40777611E+000 -0.49277343E-004
 0.00000000E+000  0.00000000E+000
 0.57929325E+000 -0.17201780E-004
 0.59649938E+000  0.32786610E-004
 0.62686854E+000 -0.43226096E-004
 0.66519141E+000  0.44966760E-004
 0.00000000E+000  0.00000000E+000
 0.40776684E+000  0.51698014E-004
 0.63128775E+000 -0.45871205E-004
 0.72288447E+000  0.85132096E-005
 0.73498135E+000  0.31149538E-004
 0.70637726E+000 -0.56235479E-004
 0.66582924E+000  0.63997737E-004
 0.62614244E+000 -0.57863086E-004
 0.70690131E+000 -0.34490498E-004
 0.59728646E+000  0.43037136E-004
 0.73458725E+000  0.99651488E-005
 0.57847076E+000 -0.23042628E-004
 0.72315096E+000  0.23817847E-004
 0.63112670E+000 -0.51825882E-004
 0.40784758E+000  0.50431328E-004
 0.00000000E+000  0.00000000E+000
 0.57337647E+000  0.84171568E-006
 0.57847064E+000  0.21388885E-004
 0.59728664E+000 -0.41460883E-004
 0.62614220E+000  0.56415690E-004
 0.66582959E+000 -0.62726663E-004
 0.00000000E+000  0.00000000E+000
 0.40785899E+000 -0.52926996E-004
 0.63110202E+000  0.38150476E-004
 0.72319477E+000  0.10092601E-004
 0.73452365E+000 -0.55019347E-004
 0.70697957E+000  0.79429657E-004
 0.66510605E+000 -0.82608275E-004
 0.62695574E+000  0.71489179E-004
 0.70637691E+000  0.55197793E-004
 0.59641265E+000 -0.51580529E-004
 0.73498177E+000 -0.30383545E-004
 0.57937890E+000  0.27265357E-004
 0.72288411E+000 -0.89725454E-005
 0.63128805E+000  0.46037199E-004
 0.40776669E+000 -0.51649465E-004
 0.00000000E+000  0.00000000E+000
 0.57245707E+000 -0.87664966E-006
 0.57937902E+000 -0.25538334E-004
 0.59641242E+000  0.49938214E-004
 0.62695604E+000 -0.69979781E-004
 0.66510570E+000  0.81296508E-004
 0.00000000E+000  0.00000000E+000
 0.40775263E+000  0.54128744E-004
 0.63131934E+000 -0.27557009E-004
 0.72282928E+000 -0.33113301E-004
 0.73505979E+000  0.83177226E-004
 0.70628470E+000 -0.10431444E-003
 0.70697993E+000 -0.78357923E-004
 0.66592657E+000  0.10207990E-003
 0.62604606E+000 -0.84561601E-004
 0.73452323E+000  0.54232663E-004
 0.59737986E+000  0.59990936E-004
 0.72319513E+000 -0.96217090E-005
 0.63110172E+000 -0.38313417E-004
 0.57837945E+000 -0.31110615E-004
 0.40785914E+000  0.52871870E-004
 0.00000000E+000  0.00000000E+000
 0.57346665E+000  0.91067300E-006
 0.57837933E+000  0.29318662E-004
 0.59738004E+000 -0.58282741E-004
 0.62604576E+000  0.83001657E-004
 0.66592687E+000 -0.10071336E-003
 0.70628428E+000  0.10320188E-003
 0.00000000E+000  0.00000000E+000
 0.40787732E+000 -0.54973952E-004
 0.63106197E+000  0.13468806E-004
 0.72326558E+000  0.62686500E-004
 0.73442757E+000 -0.11458413E-003
 0.70708864E+000  0.13186613E-003
 0.66499632E+000 -0.12007973E-003
 0.62706053E+000  0.97966520E-004
 0.73506021E+000 -0.82367521E-004
 0.59631252E+000 -0.66830121E-004
 0.72282892E+000  0.32633230E-004
 0.63131964E+000  0.27715530E-004
 0.40775248E+000 -0.54052066E-004
 0.00000000E+000  0.00000000E+000
 0.57947421E+000  0.34984721E-004
 0.57236200E+000 -0.94593440E-006
 0.57947432E+000 -0.33120591E-004
 0.59631234E+000  0.65056861E-004
 0.62706077E+000 -0.96345080E-004
 0.66499596E+000  0.11867200E-003
 0.70708906E+000 -0.13072237E-003
 0.00000000E+000  0.00000000E+000
 0.40772986E+000  0.55676322E-004
 0.63137358E+000  0.72791658E-005
 0.72273945E+000 -0.97514122E-004
 0.73517990E+000  0.15304332E-003
 0.70615744E+000 -0.15644344E-003
 0.73442715E+000  0.11375374E-003
 0.66604894E+000  0.14043984E-003
 0.62593209E+000 -0.10668837E-003
 0.72326594E+000 -0.62198763E-004
 0.59748363E+000  0.75030780E-004
 0.63106167E+000 -0.13621428E-004
 0.40787750E+000  0.54895252E-004
 0.00000000E+000  0.00000000E+000
 0.57827824E+000 -0.36901838E-004
 0.57356262E+000  0.98357634E-006
 0.57827812E+000  0.34969623E-004
 0.59748387E+000 -0.73198287E-004
 0.62593179E+000  0.10501335E-003
 0.66604936E+000 -0.13898347E-003
 0.70615702E+000  0.15526154E-003
 0.73518031E+000 -0.15218796E-003
 0.00000000E+000  0.00000000E+000
 0.40790989E+000 -0.54702919E-004
 0.63099199E+000 -0.34251443E-004
 0.72338652E+000  0.14439555E-003
 0.73428094E+000 -0.19067521E-003
 0.70723778E+000  0.18468900E-003
 0.66486090E+000 -0.15335324E-003
 0.72273910E+000  0.97025411E-004
 0.62718003E+000  0.11779241E-003
 0.63137388E+000 -0.71365516E-005
 0.40772968E+000 -0.55575685E-004
 0.00000000E+000  0.00000000E+000
 0.59620153E+000 -0.78301236E-004
 0.57957422E+000  0.39820435E-004
 0.57225990E+000 -0.10188604E-005
 0.57957434E+000 -0.37818983E-004
 0.59620130E+000  0.76399053E-004
 0.62718039E+000 -0.11606491E-003
 0.66486054E+000  0.15185323E-003
 0.70723819E+000 -0.18347984E-003
 0.73428052E+000  0.18980405E-003
 0.72338688E+000 -0.14389124E-003
 0.00000000E+000  0.00000000E+000
 0.40768581E+000  0.51259987E-004
 0.63147145E+000  0.71657741E-004
 0.72257858E+000 -0.20451199E-003
 0.73536109E+000  0.22527147E-003
 0.70598548E+000 -0.21498044E-003
 0.66619515E+000  0.15600923E-003
 0.63099169E+000  0.34116645E-004
 0.40791007E+000  0.54590334E-004
 0.62580633E+000 -0.13247095E-003
 0.00000000E+000  0.00000000E+000
 0.59759801E+000  0.74398994E-004
 0.57817834E+000 -0.44627424E-004
 0.57366675E+000  0.10540662E-005
 0.57817822E+000  0.42552503E-004
 0.59759825E+000 -0.72445851E-004
 0.62580603E+000  0.13068242E-003
 0.66619551E+000 -0.15446689E-003
 0.70598506E+000  0.21373039E-003
 0.73536151E+000 -0.22437730E-003
 0.72257816E+000  0.20401897E-003
 0.63147175E+000 -0.71535570E-004
 0.00000000E+000  0.00000000E+000
 0.40796306E+000 -0.48608508E-004
 0.63083428E+000 -0.14158395E-003
 0.72358375E+000  0.24760549E-003
 0.73404121E+000 -0.29777883E-003
 0.40768563E+000 -0.51130784E-004
 0.70742070E+000  0.18821447E-003
 0.00000000E+000  0.00000000E+000
 0.66470479E+000 -0.20747278E-003
 0.62732046E+000  0.93678660E-004
 0.59610706E+000 -0.10663748E-003
 0.57970196E+000  0.27204174E-004
 0.57218807E+000 -0.10962924E-005
 0.57970207E+000 -0.25069248E-004
 0.59610682E+000  0.10460457E-003
 0.62732076E+000 -0.91852845E-004
 0.66470438E+000  0.20588118E-003
 0.70742112E+000 -0.18694520E-003
 0.73404073E+000  0.29687123E-003
 0.72358411E+000 -0.24710220E-003
 0.63083392E+000  0.14146990E-003
 0.40796324E+000  0.48463323E-004
 0.00000000E+000  0.00000000E+000
 0.00000000E+000  0.00000000E+000
 0.40756279E+000  0.23006767E-004
 0.63163667E+000  0.19196672E-003
 0.72223889E+000 -0.38277360E-003
 0.73559349E+000  0.24160651E-003
 0.70575624E+000 -0.29333852E-003
 0.66636008E+000  0.10410913E-003
 0.62570166E+000 -0.18737817E-003
 0.59776133E+000  0.30976862E-004
 0.57814657E+000 -0.65608895E-004
 0.57383745E+000  0.11180277E-005
 0.57814639E+000  0.63378429E-004
 0.59776157E+000 -0.28906182E-004
 0.62570136E+000  0.18547594E-003
 0.66636049E+000 -0.10249939E-003
 0.70575577E+000  0.29202117E-003
 0.73559391E+000 -0.24068588E-003
 0.72223848E+000  0.38226862E-003
 0.63163697E+000 -0.19187884E-003
 0.40756264E+000 -0.22845955E-004
 0.00000000E+000  0.00000000E+000
 0.00000000E+000  0.00000000E+000
 0.40805992E+000 -0.94160577E-005
 0.63043016E+000 -0.36469107E-003
 0.72389638E+000  0.36679481E-003
 0.73366117E+000 -0.37304908E-003
 0.70760357E+000  0.13701127E-003
 0.66454732E+000 -0.25492082E-003
 0.62750488E+000  0.39741076E-004
 0.59609001E+000 -0.13065236E-003
 0.57991266E+000  0.68500789E-005
 0.57222038E+000 -0.11857936E-005
 0.57991278E+000 -0.45969281E-005
 0.59608978E+000  0.12847399E-003
 0.62750524E+000 -0.37841848E-004
 0.66454690E+000  0.25323242E-003
 0.70760405E+000 -0.13569989E-003
 0.73366075E+000  0.37209436E-003
 0.72389680E+000 -0.36630206E-003
 0.63042980E+000  0.36460571E-003
 0.40806010E+000  0.92320451E-005
 0.00000000E+000  0.00000000E+000
 0.00000000E+000  0.00000000E+000
 0.40723660E+000 -0.72707262E-004
 0.63205093E+000  0.48821527E-003
 0.72161269E+000 -0.50452246E-003
 0.73585659E+000  0.21784978E-003
 0.70551532E+000 -0.26304955E-003
 0.66655123E+000  0.10701629E-003
 0.62564235E+000 -0.13978665E-003
 0.59796106E+000  0.40079223E-004
 0.57817834E+000 -0.46159613E-004
 0.57404989E+000  0.11768119E-005
 0.57817822E+000  0.43741911E-004
 0.59796136E+000 -0.37928748E-004
 0.62564206E+000  0.13775346E-003
 0.66655170E+000 -0.10536603E-003
 0.70551490E+000  0.26165379E-003
 0.73585712E+000 -0.21691902E-003
 0.72161227E+000  0.50400861E-003
 0.63205128E+000 -0.48816925E-003
 0.40723645E+000  0.72912880E-004
 0.00000000E+000  0.00000000E+000
 0.00000000E+000  0.00000000E+000
 0.40848967E+000  0.19592356E-003
 0.62951982E+000 -0.76217792E-003
 0.72450125E+000  0.40943382E-003
 0.73334002E+000 -0.19290138E-003
 0.70782464E+000  0.22315443E-003
 0.66440552E+000 -0.97364856E-004
 0.62765675E+000  0.10701995E-003
 0.59605050E+000 -0.38573281E-004
 0.58005088E+000  0.36307570E-004
 0.57220542E+000 -0.12941285E-005
 0.58005106E+000 -0.33958811E-004
 0.59605026E+000  0.36226236E-004
 0.62765717E+000 -0.10507521E-003
 0.66440510E+000  0.95574032E-004
 0.70782518E+000 -0.22182356E-003
 0.73333960E+000  0.19188562E-003
 0.72450178E+000 -0.40896644E-003
 0.62951952E+000  0.76213642E-003
 0.40848988E+000 -0.19616246E-003
 0.00000000E+000  0.00000000E+000
 0.00000000E+000  0.00000000E+000
 0.40614828E+000 -0.52213697E-003
 0.63340097E+000  0.97998522E-003
 0.72094964E+000 -0.17457830E-003
 0.73606079E+000  0.11354807E-003
 0.70528417E+000 -0.26171977E-003
 0.66673791E+000 -0.77905770E-005
 0.62560081E+000 -0.11342087E-003
 0.59807246E+000  0.27685331E-004
 0.57810759E+000 -0.18639113E-004
 0.57409608E+000  0.12362512E-005
 0.57810747E+000  0.16012876E-004
 0.59807276E+000 -0.25467146E-004
 0.62560045E+000  0.11127308E-003
 0.66673845E+000  0.94519054E-005
 0.70528376E+000  0.26024464E-003
 0.73606139E+000 -0.11260154E-003
 0.72094929E+000  0.17403834E-003
 0.63340139E+000 -0.98001398E-003
 0.40614816E+000  0.52241096E-003
 0.00000000E+000  0.00000000E+000
 0.00000000E+000  0.00000000E+000
 0.41083702E+000  0.10885676E-002
 0.62705212E+000 -0.13287456E-002
 0.72426939E+000 -0.11976021E-002
 0.73297286E+000 -0.13390016E-002
 0.70829731E+000 -0.89110428E-003
 0.66469144E+000 -0.73406542E-003
 0.62809389E+000 -0.41241702E-003
 0.59623688E+000 -0.29083387E-003
 0.58026725E+000 -0.11169601E-003
 0.57228285E+000 -0.13990925E-005
 0.58026742E+000  0.11417563E-003
 0.59623664E+000  0.28833956E-003
 0.62809443E+000  0.41439483E-003
 0.66469109E+000  0.73221127E-003
 0.70829790E+000  0.89243962E-003
 0.73297250E+000  0.13378969E-002
 0.72426998E+000  0.11980605E-002
 0.62705188E+000  0.13287657E-002
 0.41083729E+000 -0.10889205E-002
 0.00000000E+000  0.00000000E+000
 0.00000000E+000  0.00000000E+000
 0.39531087E+000 -0.35994376E-002
 0.63092458E+000 -0.37221368E-002
 0.72013169E+000 -0.35229218E-002
 0.73744410E+000 -0.32596832E-002
 0.70694309E+000 -0.28038003E-002
 0.66870045E+000 -0.22348389E-002
 0.62720954E+000 -0.16360569E-002
 0.59949624E+000 -0.10361400E-002
 0.57921218E+000 -0.50506420E-003
 0.57518798E+000  0.12601411E-005
 0.57921206E+000  0.50242245E-003
 0.59949660E+000  0.10383640E-002
 0.62720924E+000  0.16339364E-002
 0.66870105E+000  0.22364829E-002
 0.70694273E+000  0.28023009E-002
 0.73744475E+000  0.32606467E-002
 0.72013133E+000  0.35222929E-002
 0.63092511E+000  0.37220313E-002
 0.39531087E+000  0.35996567E-002
 0.00000000E+000  0.00000000E+000
 0.00000000E+000  0.00000000E+000
 0.43753603E+000 -0.12642685E-001
 0.65026205E+000 -0.13293514E-001
 0.74315649E+000 -0.12821380E-001
 0.74610179E+000 -0.10051240E-001
 0.71715766E+000 -0.76153641E-002
 0.66999536E+000 -0.50934520E-002
 0.63103735E+000 -0.32375436E-002
 0.59749722E+000 -0.17736984E-002
 0.58065378E+000 -0.78474660E-003
 0.57232803E+000 -0.15679215E-005
 0.58065402E+000  0.78759365E-003
 0.59749698E+000  0.17709983E-002
 0.63103789E+000  0.32396945E-002
 0.66999500E+000  0.50915619E-002
 0.71715825E+000  0.76167755E-002
 0.74610143E+000  0.10050075E-001
 0.74315708E+000  0.12821838E-001
 0.65026152E+000  0.13293517E-001
 0.43753620E+000  0.12641590E-001
 0.00000000E+000  0.00000000E+000
