 0.00000000E+000  0.00000000E+000
-0.11719656E-012 -0.00000000E+000
-0.22205663E-012 -0.00000000E+000
-0.31458023E-012 -0.00000000E+000
-0.39476736E-012 -0.00000000E+000
-0.46261800E-012 -0.00000000E+000
 0.00000000E+000  0.00000000E+000
 0.80917030E-001  0.38931805E-001
 0.77902771E-001  0.98323538E-001
 0.45404750E-001  0.14205294E+000
-0.51813214E-012 -0.00000000E+000
 0.99489968E-002  0.16137978E+000
-0.18957955E-001  0.15845374E+000
-0.38529731E-001  0.13915026E+000
-0.56130984E-012 -0.00000000E+000
-0.49877509E-001  0.10967342E+000
 0.00000000E+000  0.00000000E+000
 0.16426819E+000  0.79501094E-002
 0.16663414E+000  0.22671522E-001
 0.10411590E+000  0.40241848E-001
 0.28619810E-001  0.52525121E-001
-0.34674488E-001  0.56489706E-001
-0.78789837E-001  0.52904710E-001
-0.59215100E-012 -0.00000000E+000
-0.55349685E-001  0.74854359E-001
-0.10491354E+000  0.43663498E-001
 0.00000000E+000  0.00000000E+000
 0.17786076E+000  0.99011755E-003
 0.19342684E+000  0.37395327E-002
 0.12930577E+000  0.73490813E-002
 0.44216606E-001  0.11607948E-001
-0.11809587E+000  0.30796945E-001
-0.32042503E-001  0.15029191E-001
-0.61065573E-012 -0.00000000E+000
-0.87645195E-001  0.16172062E-001
-0.57474285E-001  0.37779312E-001
-0.12268593E+000  0.14819085E-001
-0.12347187E+000  0.15851246E-001
-0.14168111E+000  0.11199875E-001
 0.00000000E+000  0.00000000E+000
-0.61682397E-012 -0.00000000E+000
 0.18352995E+000  0.16997549E-002
 0.19988080E+000  0.41084187E-002
 0.13751125E+000  0.65589300E-002
 0.50999075E-001  0.83387475E-002
-0.28351375E-001  0.91357436E-002
-0.57967495E-001 -0.18597915E-008
-0.88585235E-001  0.91091515E-002
-0.12794226E+000  0.79910783E-002
-0.15035603E+000  0.60116960E-002
-0.12483895E+000  0.41710537E-008
-0.15057021E+000  0.59637986E-002
-0.61065573E-012 -0.00000000E+000
-0.57474285E-001 -0.37779308E-001
 0.00000000E+000  0.00000000E+000
-0.15271985E+000 -0.56046869E-008
 0.18706804E+000  0.40468963E-003
 0.20516623E+000  0.16119623E-002
 0.14133572E+000  0.28060157E-002
 0.53580876E-001  0.36027585E-002
-0.27789471E-001  0.40594479E-002
-0.16143853E+000  0.31727489E-002
-0.89699365E-001  0.38692129E-002
-0.13095901E+000  0.33447304E-002
-0.12347187E+000 -0.15851253E-001
-0.15495909E+000  0.24153450E-002
-0.16462855E+000  0.73473382E-008
-0.59215100E-012 -0.00000000E+000
-0.15035603E+000 -0.60116839E-002
-0.55349685E-001 -0.74854366E-001
-0.16688238E+000  0.12808961E-002
 0.00000000E+000  0.00000000E+000
 0.18838542E+000  0.22710414E-003
 0.20688423E+000  0.36160269E-003
 0.14340730E+000  0.71180524E-003
 0.54705355E-001  0.11909048E-002
-0.27324633E-001  0.13731942E-002
-0.11809587E+000 -0.30796935E-001
-0.90302042E-001  0.15097191E-002
-0.13216243E+000  0.13110191E-002
-0.16143853E+000 -0.31727645E-002
-0.56130984E-012 -0.00000000E+000
-0.17033062E+000 -0.94281613E-008
-0.15685567E+000  0.10047027E-002
-0.14168111E+000 -0.11199886E-001
-0.49877509E-001 -0.10967341E+000
-0.10491354E+000 -0.43663505E-001
-0.16902828E+000  0.52344478E-003
-0.51813214E-012 -0.00000000E+000
-0.15057021E+000 -0.59637827E-002
-0.16688238E+000 -0.12808779E-002
 0.00000000E+000  0.00000000E+000
 0.18871276E+000  0.10349415E-004
 0.20758815E+000  0.26442942E-003
 0.14396616E+000  0.43579580E-003
-0.38529731E-001 -0.13915026E+000
 0.55388692E-001  0.46091870E-003
-0.27154732E-001  0.62161631E-003
-0.12268593E+000 -0.14819072E-001
-0.90311795E-001  0.54887298E-003
-0.13268774E+000  0.53690117E-003
-0.17270310E+000  0.10345576E-007
-0.78789837E-001 -0.52904702E-001
-0.46261800E-012 -0.00000000E+000
-0.15750791E+000  0.37122395E-003
-0.18957953E-001 -0.15845374E+000
-0.12794224E+000 -0.79910960E-002
-0.87645195E-001 -0.16172075E-001
-0.15495909E+000 -0.24153653E-002
-0.34674488E-001 -0.56489713E-001
-0.39476736E-012 -0.00000000E+000
-0.16998440E+000  0.21145329E-003
 0.99489949E-002 -0.16137979E+000
-0.16902828E+000 -0.52346719E-003
-0.31458023E-012 -0.00000000E+000
 0.45404754E-001 -0.14205293E+000
 0.28619816E-001 -0.52525110E-001
-0.22205663E-012 -0.00000000E+000
-0.32042503E-001 -0.15029178E-001
 0.77902764E-001 -0.98323538E-001
-0.11719656E-012 -0.00000000E+000
 0.00000000E+000  0.00000000E+000
 0.00000000E+000  0.00000000E+000
 0.18894006E+000  0.68913061E-004
 0.20781582E+000  0.36975794E-004
 0.14428873E+000  0.74104347E-004
-0.88585242E-001 -0.91091347E-002
 0.55449023E-001  0.20433221E-003
 0.80917030E-001 -0.38931801E-001
-0.26996945E-001  0.12954909E-003
 0.10411589E+000 -0.40241856E-001
 0.00000000E+000  0.00000000E+000
-0.17358529E+000 -0.12604503E-007
-0.90459473E-001  0.20885310E-003
-0.13095901E+000 -0.33447099E-002
 0.16663414E+000 -0.22671516E-001
-0.13276816E+000  0.12734046E-003
 0.44216606E-001 -0.11607960E-001
 0.16426818E+000 -0.79501112E-002
 0.00000000E+000  0.00000000E+000
-0.15685567E+000 -0.10046801E-002
-0.15785017E+000  0.12645211E-003
 0.12930577E+000 -0.73490715E-002
-0.28351373E-001 -0.91357631E-002
 0.19342683E+000 -0.37395397E-002
 0.17786076E+000 -0.99011510E-003
-0.16998441E+000 -0.21142925E-003
 0.00000000E+000  0.00000000E+000
-0.89699365E-001 -0.38692366E-002
-0.17022445E+000  0.52266255E-004
 0.50999078E-001 -0.83387317E-002
 0.13751125E+000 -0.65589449E-002
-0.13216242E+000 -0.13110451E-002
 0.19988080E+000 -0.41084107E-002
-0.27789473E-001 -0.40594255E-002
 0.18352995E+000 -0.16997585E-002
-0.17400662E+000  0.12749451E-007
 0.00000000E+000  0.00000000E+000
 0.00000000E+000  0.00000000E+000
 0.18895426E+000 -0.29663560E-004
 0.20791238E+000  0.23167684E-004
 0.14431823E+000  0.52240760E-004
 0.55592142E-001 -0.14206080E-004
-0.27070356E-001  0.91992282E-004
-0.15750789E+000 -0.37125169E-003
-0.90379603E-001  0.12100074E-004
 0.53580872E-001 -0.36027815E-002
-0.13291582E+000  0.69439265E-004
-0.90302050E-001 -0.15096921E-002
 0.14133574E+000 -0.28059987E-002
-0.15783025E+000  0.16981452E-004
 0.20516622E+000 -0.16119742E-002
-0.17022445E+000 -0.52295214E-004
 0.18706806E+000 -0.40468666E-003
 0.00000000E+000  0.00000000E+000
-0.27324629E-001 -0.13732229E-002
-0.13268774E+000 -0.53687213E-003
-0.17041409E+000  0.24863898E-004
 0.54705355E-001 -0.11908778E-002
-0.15785017E+000 -0.12642366E-003
 0.14340730E+000 -0.71182724E-003
-0.17400883E+000 -0.15542946E-007
-0.90311788E-001 -0.54890551E-003
 0.20688423E+000 -0.36158971E-003
 0.18838542E+000 -0.22710755E-003
 0.00000000E+000  0.00000000E+000
 0.00000000E+000  0.00000000E+000
 0.18898718E+000  0.23112263E-004
 0.20791287E+000  0.58995301E-005
 0.14437606E+000 -0.14424286E-004
 0.55537957E-001  0.61791142E-004
-0.26969812E-001 -0.30942192E-004
-0.90485125E-001  0.51077491E-004
-0.13282129E+000 -0.14001057E-004
-0.27154736E-001 -0.62158197E-003
-0.13276815E+000 -0.12737515E-003
-0.17041409E+000 -0.24835619E-004
-0.15796434E+000  0.25198378E-004
 0.55388692E-001 -0.46095054E-003
-0.17032663E+000 -0.29033624E-005
 0.14396616E+000 -0.43576871E-003
 0.20758813E+000 -0.26444456E-003
-0.90459488E-001 -0.20881652E-003
 0.18871276E+000 -0.10345374E-004
 0.00000000E+000  0.00000000E+000
-0.15783025E+000 -0.17017027E-004
-0.17415259E+000  0.14387630E-007
-0.26996940E-001 -0.12958874E-003
 0.00000000E+000  0.00000000E+000
 0.18897627E+000 -0.85033025E-005
 0.20794074E+000 -0.30345181E-005
 0.14434853E+000  0.32103009E-004
 0.55604882E-001 -0.38054178E-004
-0.27062142E-001  0.51203584E-004
-0.13291582E+000 -0.69403475E-004
 0.55449020E-001 -0.20429409E-003
-0.90378217E-001 -0.29950178E-004
-0.13294771E+000  0.31175131E-004
-0.17032663E+000  0.28678546E-005
 0.14428873E+000 -0.74133800E-004
-0.15784166E+000 -0.12310354E-004
 0.20781584E+000 -0.36957320E-004
 0.18894006E+000 -0.68916582E-004
 0.00000000E+000  0.00000000E+000
-0.90379588E-001 -0.12143926E-004
-0.17046922E+000  0.95491877E-005
-0.15796436E+000 -0.25164719E-004
-0.27070362E-001 -0.91948517E-004
-0.17402522E+000 -0.18155692E-007
 0.55592145E-001  0.14161076E-004
-0.13282127E+000  0.13956781E-004
 0.14431823E+000 -0.52206443E-004
 0.20791238E+000 -0.23188176E-004
 0.00000000E+000  0.00000000E+000
 0.18899704E+000  0.11530950E-005
 0.20792262E+000  0.13907834E-004
 0.14438824E+000 -0.26931398E-004
 0.55543392E-001  0.45270619E-004
 0.18895426E+000  0.29668170E-004
-0.26966571E-001 -0.38274098E-004
-0.17046922E+000 -0.95168388E-005
 0.00000000E+000  0.00000000E+000
-0.90498849E-001  0.38677389E-004
-0.13281342E+000 -0.21315898E-004
-0.90485140E-001 -0.51032657E-004
-0.15799455E+000  0.17801829E-004
-0.15784166E+000  0.12268178E-004
-0.17031629E+000 -0.58799641E-005
-0.26969799E-001  0.30888018E-004
 0.55537953E-001 -0.61744533E-004
-0.17418888E+000  0.17409925E-007
 0.14437606E+000  0.14382155E-004
-0.13294772E+000 -0.31132509E-004
 0.20791287E+000 -0.58788364E-005
 0.18898718E+000 -0.23118598E-004
 0.00000000E+000  0.00000000E+000
-0.17031629E+000  0.58404934E-005
 0.00000000E+000  0.00000000E+000
 0.18897865E+000  0.68078729E-005
 0.20795160E+000 -0.17628877E-004
 0.14434900E+000  0.33421682E-004
-0.90378202E-001  0.29894059E-004
 0.55613372E-001 -0.37993679E-004
-0.27068551E-001  0.41696181E-004
-0.90367473E-001 -0.30089260E-004
-0.13297013E+000  0.24585446E-004
-0.15782454E+000 -0.12546209E-004
-0.27062153E-001 -0.51149203E-004
-0.15799456E+000 -0.17761740E-004
-0.17050120E+000  0.71637136E-005
 0.55604889E-001  0.37997331E-004
 0.14434853E+000 -0.32061052E-004
 0.20794074E+000  0.30065086E-005
 0.18897627E+000  0.85073334E-005
-0.13281340E+000  0.21263746E-004
 0.00000000E+000  0.00000000E+000
-0.17400555E+000 -0.18531729E-007
-0.90498872E-001 -0.38621459E-004
-0.17050120E+000 -0.71247286E-005
 0.00000000E+000  0.00000000E+000
 0.18900190E+000 -0.12250539E-004
 0.20792019E+000  0.24478571E-004
 0.14439907E+000 -0.33482352E-004
 0.55536579E-001  0.39416321E-004
-0.26954678E-001 -0.35252436E-004
-0.90516075E-001  0.29934008E-004
-0.26966556E-001  0.38210226E-004
-0.13279394E+000 -0.18975586E-004
-0.15802384E+000  0.12514075E-004
-0.15782451E+000  0.12499946E-004
 0.55543381E-001 -0.45210021E-004
 0.14438824E+000  0.26883062E-004
-0.17029115E+000 -0.50133289E-005
 0.20792263E+000 -0.13878980E-004
 0.18899704E+000 -0.11588854E-005
 0.00000000E+000  0.00000000E+000
-0.13297016E+000 -0.24531129E-004
-0.17422270E+000  0.20203634E-007
-0.90367451E-001  0.30025927E-004
-0.17029115E+000  0.49729187E-005
-0.27068570E-001 -0.41625069E-004
 0.00000000E+000  0.00000000E+000
 0.18897682E+000  0.17335320E-004
 0.20795996E+000 -0.29040400E-004
 0.14434099E+000  0.36275858E-004
 0.55626604E-001 -0.36656452E-004
-0.27083586E-001  0.33035776E-004
-0.90347610E-001 -0.24256529E-004
 0.55613383E-001  0.37929541E-004
-0.13299676E+000  0.16601072E-004
-0.15802386E+000 -0.12464209E-004
 0.14434899E+000 -0.33364111E-004
-0.15779620E+000 -0.88127608E-005
 0.20795160E+000  0.17602947E-004
 0.18897865E+000 -0.67986625E-005
 0.00000000E+000  0.00000000E+000
-0.17053590E+000  0.41109283E-005
-0.13279391E+000  0.18918866E-004
-0.17397387E+000 -0.18391736E-007
-0.90516097E-001 -0.29862638E-004
-0.17053590E+000 -0.40649283E-005
-0.26954656E-001  0.35181172E-004
 0.55536564E-001 -0.39338436E-004
 0.00000000E+000  0.00000000E+000
 0.18900549E+000 -0.21553712E-004
 0.20791342E+000  0.33598411E-004
 0.14441117E+000 -0.37416109E-004
 0.55522084E-001  0.35247896E-004
-0.26935020E-001 -0.28113221E-004
 0.14439909E+000  0.33430605E-004
-0.90540729E-001  0.19851906E-004
-0.15779618E+000  0.87645921E-005
 0.20792019E+000 -0.24439070E-004
-0.13276457E+000 -0.11450930E-004
 0.18900188E+000  0.12247253E-004
 0.00000000E+000  0.00000000E+000
-0.15805882E+000  0.58709874E-005
-0.17025503E+000 -0.20973348E-005
-0.13299679E+000 -0.16536450E-004
-0.17426170E+000  0.22939669E-007
-0.90347588E-001  0.24186607E-004
-0.27083611E-001 -0.32948893E-004
-0.17025502E+000  0.20560200E-005
 0.55626623E-001  0.36581699E-004
 0.14434099E+000 -0.36204870E-004
 0.20795996E+000  0.29006680E-004
 0.18897682E+000 -0.17325108E-004
-0.15805885E+000 -0.58144792E-005
 0.00000000E+000  0.00000000E+000
 0.00000000E+000  0.00000000E+000
 0.18897339E+000  0.25368979E-004
 0.20796842E+000 -0.37249781E-004
 0.14432831E+000  0.38464830E-004
 0.55644840E-001 -0.32428339E-004
-0.27106877E-001  0.23263040E-004
-0.90318538E-001 -0.13577874E-004
-0.13303153E+000  0.62302660E-005
-0.15775756E+000 -0.16323673E-005
-0.13276454E+000  0.11387081E-004
-0.17057806E+000  0.69447963E-007
-0.90540759E-001 -0.19768924E-004
-0.17393159E+000 -0.20123685E-007
-0.26934988E-001  0.28032058E-004
-0.17057807E+000 -0.20103829E-007
 0.55522065E-001 -0.35158100E-004
 0.14441119E+000  0.37349615E-004
 0.20791342E+000 -0.33555381E-004
 0.18900549E+000  0.21548001E-004
 0.00000000E+000  0.00000000E+000
-0.15775753E+000  0.15780027E-005
 0.00000000E+000  0.00000000E+000
 0.18900957E+000 -0.28783795E-004
 0.20790454E+000  0.40375729E-004
 0.14442603E+000 -0.38514874E-004
 0.55501185E-001  0.28984772E-004
-0.26907363E-001 -0.16994992E-004
-0.90574763E-001  0.66371271E-005
-0.13272494E+000  0.28398008E-006
-0.15810307E+000 -0.30125404E-005
-0.13303156E+000 -0.61588380E-005
-0.17020834E+000  0.24561677E-005
-0.90318500E-001  0.13496995E-004
-0.17430965E+000  0.22897586E-007
-0.27106903E-001 -0.23165981E-004
 0.55644869E-001  0.32339277E-004
-0.17020833E+000 -0.25012957E-005
 0.14432831E+000 -0.38386413E-004
 0.20796842E+000  0.37205114E-004
 0.18897339E+000 -0.25358274E-004
 0.00000000E+000  0.00000000E+000
-0.15810310E+000  0.30713790E-005
 0.00000000E+000  0.00000000E+000
 0.18896889E+000  0.31940970E-004
 0.20797844E+000 -0.42824714E-004
 0.14431168E+000  0.37674875E-004
 0.55669192E-001 -0.24215050E-004
-0.27138989E-001  0.96062776E-005
-0.90279214E-001  0.16564772E-005
-0.13307686E+000 -0.76273336E-005
-0.13272489E+000 -0.35712196E-006
-0.15770794E+000  0.84453140E-005
-0.17063044E+000 -0.52615882E-005
-0.90574800E-001 -0.65479821E-005
-0.17387850E+000 -0.20985824E-007
-0.26907324E-001  0.16896547E-004
 0.55501159E-001 -0.28884200E-004
 0.14442604E+000  0.38434653E-004
-0.17063045E+000  0.53105673E-005
 0.20790453E+000 -0.40325110E-004
 0.18900957E+000  0.28772619E-004
 0.00000000E+000  0.00000000E+000
-0.15770791E+000 -0.85047386E-005
 0.00000000E+000  0.00000000E+000
 0.18901470E+000 -0.34894532E-004
 0.20789337E+000  0.44611526E-004
 0.14444504E+000 -0.35622513E-004
 0.55473148E-001  0.18001555E-004
-0.26870181E-001 -0.64771558E-006
-0.90619899E-001 -0.11212212E-004
-0.13307690E+000  0.77040813E-005
-0.13267362E+000  0.16037287E-004
-0.15815871E+000 -0.14497722E-004
-0.90279169E-001 -0.17496209E-005
-0.17015030E+000  0.84112252E-005
-0.27139026E-001 -0.95009463E-005
-0.17436854E+000  0.21707645E-007
 0.55669225E-001  0.24109234E-004
 0.14431166E+000 -0.37585083E-004
 0.20797845E+000  0.42769835E-004
-0.17015029E+000 -0.84595849E-005
 0.18896889E+000 -0.31926920E-004
 0.00000000E+000  0.00000000E+000
-0.15815874E+000  0.14561244E-004
-0.13267357E+000 -0.16115598E-004
 0.00000000E+000  0.00000000E+000
 0.18896308E+000  0.37711382E-004
 0.20799113E+000 -0.45655961E-004
 0.14428991E+000  0.32150543E-004
 0.55701635E-001 -0.99707403E-005
-0.27181861E-001 -0.10053943E-004
-0.90227663E-001  0.22226915E-004
-0.13313470E+000 -0.25443119E-004
-0.15764605E+000  0.21191983E-004
-0.90619944E-001  0.11310982E-004
-0.17069451E+000 -0.11845851E-004
-0.26870138E-001  0.53608783E-006
-0.17381376E+000 -0.22191970E-007
 0.55473115E-001 -0.17888416E-004
 0.14444506E+000  0.35526343E-004
 0.20789337E+000 -0.44554795E-004
 0.18901470E+000  0.34880984E-004
 0.00000000E+000  0.00000000E+000
-0.17069453E+000  0.11895512E-004
-0.15764601E+000 -0.21251868E-004
-0.13313475E+000  0.25528062E-004
 0.00000000E+000  0.00000000E+000
 0.18902139E+000 -0.40442595E-004
 0.20787882E+000  0.45841832E-004
 0.14447027E+000 -0.26946439E-004
 0.55435486E-001 -0.20175342E-006
-0.26820717E-001  0.22768104E-004
-0.90678572E-001 -0.34747645E-004
-0.13260875E+000  0.35854121E-004
-0.90227618E-001 -0.22330295E-004
-0.15822717E+000 -0.28436488E-004
-0.17008006E+000  0.15531379E-004
-0.27181910E-001  0.10174923E-004
 0.55701669E-001  0.98513846E-005
-0.17443931E+000  0.22093974E-007
 0.14428989E+000 -0.32048956E-004
 0.20799113E+000  0.45591925E-004
 0.18896307E+000 -0.37695896E-004
 0.00000000E+000  0.00000000E+000
-0.17008005E+000 -0.15576719E-004
-0.15822722E+000  0.28503425E-004
-0.13260871E+000 -0.35939774E-004
 0.00000000E+000  0.00000000E+000
 0.18895530E+000  0.43117499E-004
 0.20800806E+000 -0.45004479E-004
 0.14426036E+000  0.19639091E-004
 0.55745668E-001  0.12917179E-004
-0.27238998E-001 -0.37695179E-004
-0.90161010E-001  0.48833080E-004
-0.13320708E+000 -0.47161549E-004
-0.90678632E-001  0.34859160E-004
-0.15757079E+000  0.36137767E-004
-0.26820667E-001 -0.22891434E-004
-0.17077097E+000 -0.19387933E-004
 0.55435445E-001  0.33185040E-006
 0.14447028E+000  0.26837855E-004
-0.17373698E+000 -0.18574038E-007
 0.20787881E+000 -0.45775967E-004
 0.18902139E+000  0.40423077E-004
 0.00000000E+000  0.00000000E+000
-0.17077100E+000  0.19438251E-004
-0.15757074E+000 -0.36201705E-004
-0.13320714E+000  0.47253553E-004
 0.00000000E+000  0.00000000E+000
 0.18903052E+000 -0.45771452E-004
 0.20785881E+000  0.42891853E-004
 0.14450535E+000 -0.97282918E-005
 0.55383622E-001 -0.28573951E-004
-0.26754541E-001  0.55054617E-004
-0.90160951E-001 -0.48947054E-004
-0.90754151E-001 -0.64380255E-004
-0.13252839E+000  0.59243015E-004
-0.15830938E+000 -0.44107393E-004
-0.27239054E-001  0.37829719E-004
-0.16999746E+000  0.23349801E-004
 0.55745713E-001 -0.13051926E-004
 0.14426033E+000 -0.19522007E-004
 0.20800808E+000  0.44932843E-004
-0.17452198E+000  0.18573798E-007
 0.18895530E+000 -0.43099236E-004
 0.00000000E+000  0.00000000E+000
-0.16999743E+000 -0.23395175E-004
-0.15830942E+000  0.44175500E-004
-0.13252831E+000 -0.59334193E-004
-0.90754218E-001  0.64502797E-004
 0.00000000E+000  0.00000000E+000
 0.18894441E+000  0.48427482E-004
 0.20803217E+000 -0.39087917E-004
 0.14421822E+000 -0.32982788E-005
 0.55807352E-001  0.47794674E-004
-0.27315821E-001 -0.74751776E-004
-0.90075492E-001  0.81442340E-004
-0.13329590E+000 -0.71624883E-004
-0.26754476E-001 -0.55198503E-004
-0.15748175E+000  0.52298160E-004
 0.55383574E-001  0.28721708E-004
-0.17085961E+000 -0.27206571E-004
 0.14450538E+000  0.96049807E-005
 0.20785880E+000 -0.42812349E-004
 0.18903054E+000  0.45752658E-004
 0.00000000E+000  0.00000000E+000
-0.17364884E+000 -0.19916157E-007
-0.17085964E+000  0.27248193E-004
-0.15748170E+000 -0.52364412E-004
-0.13329598E+000  0.71723836E-004
-0.90075410E-001 -0.81569989E-004
 0.00000000E+000  0.00000000E+000
 0.18904387E+000 -0.51017650E-004
 0.20782949E+000  0.33252523E-004
 0.14455705E+000  0.20588891E-004
 0.55309846E-001 -0.70549744E-004
-0.26664981E-001  0.97373718E-004
-0.90850681E-001 -0.99019896E-004
-0.13243101E+000  0.84540784E-004
-0.27315892E-001  0.74905605E-004
-0.15840537E+000 -0.59973426E-004
 0.55807407E-001 -0.47952686E-004
-0.16990363E+000  0.31060400E-004
 0.14421819E+000  0.34317451E-005
 0.20803219E+000  0.39008624E-004
 0.18894441E+000 -0.48410282E-004
 0.00000000E+000  0.00000000E+000
-0.17461554E+000  0.14899222E-007
-0.16990360E+000 -0.31104686E-004
-0.15840545E+000  0.60037276E-004
-0.13243094E+000 -0.84640632E-004
-0.90850770E-001  0.99157157E-004
 0.00000000E+000  0.00000000E+000
 0.18892817E+000  0.53621293E-004
 0.20806922E+000 -0.24208773E-004
 0.14415442E+000 -0.42452371E-004
 0.55896878E-001  0.98231765E-004
-0.27420222E-001 -0.12157459E-003
-0.26664899E-001 -0.97536270E-004
-0.89967079E-001  0.11763013E-003
-0.13340230E+000 -0.96561467E-004
 0.55309787E-001  0.70716778E-004
-0.15737982E+000  0.67468383E-004
 0.14455708E+000 -0.20732302E-004
 0.20782947E+000 -0.33166044E-004
-0.17095877E+000 -0.34409051E-004
 0.18904389E+000  0.50992151E-004
 0.00000000E+000  0.00000000E+000
-0.17355132E+000 -0.14193066E-007
-0.17095881E+000  0.34443753E-004
-0.15737974E+000 -0.67533321E-004
-0.13340239E+000  0.96664865E-004
-0.89966982E-001 -0.11777242E-003
-0.27420315E-001  0.12175010E-003
 0.00000000E+000  0.00000000E+000
 0.18906502E+000 -0.55846037E-004
 0.20778289E+000  0.11571787E-004
 0.14463824E+000  0.71458132E-004
 0.55201053E-001 -0.12943500E-003
-0.26543073E-001  0.14863240E-003
-0.90972058E-001 -0.13461678E-003
-0.13231657E+000  0.10864203E-003
 0.55896941E-001 -0.98416654E-004
-0.15851357E+000 -0.73257047E-004
 0.14415438E+000  0.42603209E-004
 0.20806923E+000  0.24117278E-004
 0.18892815E+000 -0.53600240E-004
 0.00000000E+000  0.00000000E+000
-0.16980119E+000  0.37665660E-004
-0.17471736E+000  0.94468832E-008
-0.16980114E+000 -0.37698708E-004
-0.15851365E+000  0.73320028E-004
-0.13231647E+000 -0.10874404E-003
-0.90972177E-001  0.13477062E-003
-0.26542976E-001 -0.14882188E-003
 0.00000000E+000  0.00000000E+000
 0.18890213E+000  0.58205656E-004
 0.20813243E+000  0.85854890E-005
 0.14405232E+000 -0.10528559E-003
 0.56032057E-001  0.16939577E-003
-0.27561349E-001 -0.17120520E-003
 0.55200979E-001  0.12962929E-003
-0.89832849E-001  0.15527939E-003
-0.13352580E+000 -0.11423249E-003
 0.14463828E+000 -0.71623428E-004
-0.15726922E+000  0.81375830E-004
 0.20778287E+000 -0.11475308E-004
 0.18906502E+000  0.55822056E-004
 0.00000000E+000  0.00000000E+000
-0.17106702E+000 -0.38231424E-004
-0.17345027E+000 -0.73035253E-008
-0.17106707E+000  0.38255511E-004
-0.15726912E+000 -0.81433208E-004
-0.13352592E+000  0.11434193E-003
-0.89832723E-001 -0.15543808E-003
-0.27561461E-001  0.17140578E-003
 0.56032132E-001 -0.16960693E-003
 0.00000000E+000  0.00000000E+000
 0.18910400E+000 -0.58161280E-004
 0.20770364E+000 -0.33043332E-004
 0.14477705E+000  0.15567474E-003
 0.55038377E-001 -0.20380396E-003
-0.26378266E-001  0.20310051E-003
-0.91119922E-001 -0.16230261E-003
 0.14405228E+000  0.10546005E-003
-0.13219000E+000  0.12674045E-003
 0.20813244E+000 -0.86871959E-005
 0.18890212E+000 -0.58184079E-004
 0.00000000E+000  0.00000000E+000
-0.15863302E+000 -0.80857986E-004
-0.16969817E+000  0.41495975E-004
-0.17482662E+000  0.11808261E-008
-0.16969811E+000 -0.41514413E-004
-0.15863312E+000  0.80910853E-004
-0.13218986E+000 -0.12684846E-003
-0.91120064E-001  0.16246877E-003
-0.26378147E-001 -0.20331593E-003
 0.55038284E-001  0.20403307E-003
 0.14477710E+000 -0.15586553E-003
 0.00000000E+000  0.00000000E+000
 0.18885296E+000  0.56707322E-004
 0.20824781E+000  0.71003778E-004
 0.14387175E+000 -0.21649285E-003
 0.56232519E-001  0.23890662E-003
-0.27752682E-001 -0.23482572E-003
-0.89678570E-001  0.15774610E-003
 0.20770363E+000  0.33153944E-004
 0.18910402E+000  0.58137258E-004
-0.13366094E+000 -0.14515017E-003
 0.00000000E+000  0.00000000E+000
-0.15714929E+000  0.69646885E-004
-0.17116856E+000 -0.48795965E-004
-0.17333917E+000  0.21438944E-010
-0.17116862E+000  0.48797788E-004
-0.15714918E+000 -0.69697125E-004
-0.13366107E+000  0.14525323E-003
-0.89678421E-001 -0.15792771E-003
-0.27752812E-001  0.23505611E-003
 0.56232616E-001 -0.23915033E-003
 0.14387169E+000  0.21669195E-003
 0.20824784E+000 -0.71120339E-004
 0.00000000E+000  0.00000000E+000
 0.18916326E+000 -0.58805206E-004
 0.20751494E+000 -0.15082057E-003
 0.14498728E+000  0.24324555E-003
 0.54758995E-001 -0.34195857E-003
 0.18885296E+000 -0.56680506E-004
-0.26191582E-001  0.16687464E-003
 0.00000000E+000  0.00000000E+000
-0.91292142E-001 -0.25068747E-003
-0.13203833E+000  0.60044396E-004
-0.15871378E+000 -0.13501258E-003
-0.16954071E+000  0.10872782E-004
-0.17487032E+000 -0.17502156E-007
-0.16954065E+000 -0.10881225E-004
-0.15871390E+000  0.13504180E-003
-0.13203817E+000 -0.60165351E-004
-0.91292299E-001  0.25086317E-003
-0.26191437E-001 -0.16712566E-003
 0.54758895E-001  0.34221506E-003
 0.14498734E+000 -0.24346513E-003
 0.20751491E+000  0.15094774E-003
 0.18916328E+000  0.58776626E-004
 0.00000000E+000  0.00000000E+000
 0.00000000E+000  0.00000000E+000
 0.18868793E+000  0.24089811E-004
 0.20840339E+000  0.16993800E-003
 0.14344953E+000 -0.44188875E-003
 0.56448653E-001  0.20008404E-003
-0.28026040E-001 -0.37387025E-003
-0.89507192E-001  0.31449446E-004
-0.13374127E+000 -0.25344602E-003
-0.15692804E+000 -0.20574716E-004
-0.17112788E+000 -0.90074587E-004
-0.17308732E+000  0.21520649E-008
-0.17112794E+000  0.90028370E-004
-0.15692789E+000  0.20511472E-004
-0.13374142E+000  0.25353318E-003
-0.89507013E-001 -0.31662544E-004
-0.28026174E-001  0.37411352E-003
 0.56448780E-001 -0.20036973E-003
 0.14344945E+000  0.44211378E-003
 0.20840343E+000 -0.17007776E-003
 0.18868792E+000 -0.24053009E-004
 0.00000000E+000  0.00000000E+000
 0.00000000E+000  0.00000000E+000
 0.18923470E+000 -0.29766857E-004
 0.20698115E+000 -0.39741364E-003
 0.14525939E+000  0.33845414E-003
 0.54286181E-001 -0.45569680E-003
-0.26019336E-001  0.70143010E-004
-0.91434441E-001 -0.31575516E-003
-0.13179168E+000 -0.12987480E-004
-0.15864388E+000 -0.15898214E-003
-0.16922709E+000 -0.12025231E-004
-0.17472967E+000 -0.54875016E-007
-0.16922700E+000  0.11999030E-004
-0.15864400E+000  0.15895954E-003
-0.13179148E+000  0.12832865E-004
-0.91434575E-001  0.31592143E-003
-0.26019154E-001 -0.70444177E-004
 0.54286085E-001  0.45596904E-003
 0.14525951E+000 -0.33870851E-003
 0.20698110E+000  0.39755215E-003
 0.18923473E+000  0.29713699E-004
 0.00000000E+000  0.00000000E+000
 0.00000000E+000  0.00000000E+000
 0.18825612E+000 -0.62386170E-004
 0.20881804E+000  0.49395527E-003
 0.14271289E+000 -0.52477070E-003
 0.56719686E-001  0.25507461E-003
-0.28254132E-001 -0.21184637E-003
-0.89264161E-001  0.16477925E-003
-0.13374461E+000 -0.63127044E-004
-0.15668265E+000  0.93777132E-004
-0.17106199E+000 -0.71173271E-005
-0.17285056E+000 -0.12256855E-007
-0.17106205E+000  0.69921288E-005
-0.15668247E+000 -0.93875554E-004
-0.13374473E+000  0.63171675E-004
-0.89263938E-001 -0.16504735E-003
-0.28254231E-001  0.21208391E-003
 0.56719869E-001 -0.25540820E-003
 0.14271284E+000  0.52500498E-003
 0.20881813E+000 -0.49412768E-003
 0.18825612E+000  0.62442843E-004
 0.00000000E+000  0.00000000E+000
 0.00000000E+000  0.00000000E+000
 0.18979883E+000  0.21643105E-003
 0.20602057E+000 -0.67519390E-003
 0.14601102E+000  0.60819397E-003
 0.54063882E-001  0.39504779E-004
-0.25684958E-001  0.49844494E-003
-0.91520518E-001  0.22471253E-003
-0.13167744E+000  0.39075958E-003
-0.15881530E+000  0.19835768E-003
-0.16930095E+000  0.15552283E-003
-0.17497834E+000 -0.92981970E-007
-0.16930085E+000 -0.15557676E-003
-0.15881539E+000 -0.19844216E-003
-0.13167721E+000 -0.39096799E-003
-0.91520600E-001 -0.22457313E-003
-0.25684714E-001 -0.49880112E-003
 0.54063837E-001 -0.39242775E-004
 0.14601121E+000 -0.60849264E-003
 0.20602056E+000  0.67535211E-003
 0.18979889E+000 -0.21651029E-003
 0.00000000E+000  0.00000000E+000
 0.00000000E+000  0.00000000E+000
 0.18717722E+000 -0.45089918E-003
 0.21071831E+000  0.11585855E-002
 0.14248910E+000  0.15220355E-003
 0.57328600E-001  0.64348778E-003
-0.28277514E-001  0.40877918E-003
-0.89121587E-001  0.63063285E-003
-0.13406430E+000  0.45601377E-003
-0.15704980E+000  0.41417902E-003
-0.17172323E+000  0.19298812E-003
-0.17344339E+000 -0.13040168E-007
-0.17172327E+000 -0.19316961E-003
-0.15704959E+000 -0.41430763E-003
-0.13406437E+000 -0.45599869E-003
-0.89121304E-001 -0.63094997E-003
-0.28277534E-001 -0.40855963E-003
 0.57328861E-001 -0.64386811E-003
 0.14248912E+000 -0.15197045E-003
 0.21071848E+000 -0.11587985E-002
 0.18717725E+000  0.45097828E-003
 0.00000000E+000  0.00000000E+000
 0.00000000E+000  0.00000000E+000
 0.19334734E+000  0.12633376E-002
 0.20433983E+000 -0.67075336E-003
 0.14645025E+000 -0.23666433E-003
 0.54038744E-001 -0.31787919E-003
-0.25205284E-001  0.12031397E-004
-0.91521650E-001  0.10847426E-003
-0.13182355E+000  0.27271965E-003
-0.15944211E+000  0.24864374E-003
-0.17007337E+000  0.16734795E-003
-0.17593921E+000 -0.10686498E-006
-0.17007324E+000 -0.16739025E-003
-0.15944217E+000 -0.24874170E-003
-0.13182325E+000 -0.27294541E-003
-0.91521658E-001 -0.10832733E-003
-0.25204969E-001 -0.12398300E-004
 0.54038792E-001  0.31815285E-003
 0.14645050E+000  0.23634308E-003
 0.20433989E+000  0.67093578E-003
 0.19334743E+000 -0.12634464E-002
 0.00000000E+000  0.00000000E+000
 0.00000000E+000  0.00000000E+000
 0.17588083E+000 -0.35682779E-002
 0.20926231E+000 -0.43620681E-002
 0.14349819E+000 -0.41899112E-002
 0.60685306E-001 -0.32999729E-002
-0.25131538E-001 -0.18847235E-002
-0.86643613E-001 -0.70518732E-003
-0.13297571E+000  0.10196890E-003
-0.15703135E+000  0.36082469E-003
-0.17255945E+000  0.28325236E-003
-0.17448598E+000  0.48876362E-007
-0.17255946E+000 -0.28351508E-003
-0.15703108E+000 -0.36083941E-003
-0.13297571E+000 -0.10199201E-003
-0.86643241E-001  0.70496037E-003
-0.25131437E-001  0.18849846E-002
 0.60685679E-001  0.32996202E-002
 0.14349831E+000  0.41903238E-002
 0.20926252E+000  0.43618101E-002
 0.17588089E+000  0.35685086E-002
 0.00000000E+000  0.00000000E+000
 0.00000000E+000  0.00000000E+000
 0.21898777E+000 -0.12068183E-001
 0.22522780E+000 -0.11427991E-001
 0.16230221E+000 -0.96139367E-002
 0.63622653E-001 -0.58380714E-002
-0.20437350E-001 -0.31864878E-002
-0.90604349E-001 -0.99864916E-003
-0.13330040E+000 -0.51553015E-004
-0.16236089E+000  0.39313262E-003
-0.17360796E+000  0.27415211E-003
-0.17968802E+000 -0.52162125E-007
-0.17360778E+000 -0.27426285E-003
-0.16236089E+000 -0.39309175E-003
-0.13330000E+000  0.51261176E-004
-0.90604215E-001  0.99893950E-003
-0.20436899E-001  0.31861776E-002
 0.63622906E-001  0.58384006E-002
 0.16230262E+000  0.96137914E-002
 0.22522798E+000  0.11428263E-001
 0.21898776E+000  0.12068336E-001
 0.00000000E+000  0.00000000E+000
