 0.00000000E+000  0.40000000E+000
 0.00000000E+000  0.35999999E+000
 0.00000000E+000  0.32000000E+000
 0.00000000E+000  0.28000000E+000
 0.00000000E+000  0.23999999E+000
 0.00000000E+000  0.20000000E+000
 0.10000000E+000  0.40000000E+000
 0.10000000E+000  0.35999999E+000
 0.10000000E+000  0.32000000E+000
 0.10000000E+000  0.28000000E+000
 0.00000000E+000  0.16000000E+000
 0.10000000E+000  0.23999999E+000
 0.10000000E+000  0.20000000E+000
 0.10000000E+000  0.16000000E+000
 0.00000000E+000  0.12000000E+000
 0.10000000E+000  0.12000000E+000
 0.20000000E+000  0.40000000E+000
 0.20000000E+000  0.35999999E+000
 0.20000000E+000  0.32000000E+000
 0.20000000E+000  0.28000000E+000
 0.20000000E+000  0.23999999E+000
 0.20000000E+000  0.20000000E+000
 0.20000000E+000  0.16000000E+000
 0.00000000E+000  0.80000000E-001
 0.10000000E+000  0.80000000E-001
 0.20000000E+000  0.12000000E+000
 0.29999999E+000  0.40000000E+000
 0.29999999E+000  0.35999999E+000
 0.29999999E+000  0.32000000E+000
 0.29999999E+000  0.28000000E+000
 0.29999999E+000  0.23999999E+000
 0.20000000E+000  0.80000000E-001
 0.29999999E+000  0.20000000E+000
 0.00000000E+000  0.40000000E-001
 0.29999999E+000  0.16000000E+000
 0.10000000E+000  0.40000000E-001
 0.29999999E+000  0.12000000E+000
 0.20000000E+000  0.40000000E-001
 0.29999999E+000  0.80000000E-001
 0.40000000E+000  0.40000000E+000
 0.00000000E+000  0.00000000E+000
 0.40000000E+000  0.35999999E+000
 0.40000000E+000  0.32000000E+000
 0.40000000E+000  0.28000000E+000
 0.40000000E+000  0.23999999E+000
 0.40000000E+000  0.20000000E+000
 0.10000000E+000  0.00000000E+000
 0.40000000E+000  0.16000000E+000
 0.40000000E+000  0.12000000E+000
 0.29999999E+000  0.40000000E-001
 0.20000000E+000  0.00000000E+000
 0.40000000E+000  0.80000000E-001
 0.00000000E+000 -0.40000000E-001
 0.10000000E+000 -0.40000000E-001
 0.50000000E+000  0.40000000E+000
 0.29999999E+000  0.00000000E+000
 0.50000000E+000  0.35999999E+000
 0.50000000E+000  0.32000000E+000
 0.50000000E+000  0.28000000E+000
 0.50000000E+000  0.23999999E+000
 0.50000000E+000  0.20000000E+000
 0.40000000E+000  0.40000000E-001
 0.50000000E+000  0.16000000E+000
 0.50000000E+000  0.12000000E+000
 0.20000000E+000 -0.40000000E-001
 0.50000000E+000  0.80000000E-001
 0.40000000E+000  0.00000000E+000
 0.00000000E+000 -0.80000000E-001
 0.29999999E+000 -0.40000000E-001
 0.10000000E+000 -0.80000000E-001
 0.50000000E+000  0.40000000E-001
 0.59999999E+000  0.40000000E+000
 0.59999999E+000  0.35999999E+000
 0.59999999E+000  0.32000000E+000
 0.59999999E+000  0.28000000E+000
 0.59999999E+000  0.23999999E+000
 0.59999999E+000  0.20000000E+000
 0.20000000E+000 -0.80000000E-001
 0.59999999E+000  0.16000000E+000
 0.59999999E+000  0.12000000E+000
 0.40000000E+000 -0.40000000E-001
 0.00000000E+000 -0.12000000E+000
 0.50000000E+000  0.00000000E+000
 0.59999999E+000  0.80000000E-001
 0.29999999E+000 -0.80000000E-001
 0.10000000E+000 -0.12000000E+000
 0.20000000E+000 -0.12000000E+000
 0.59999999E+000  0.40000000E-001
 0.00000000E+000 -0.16000000E+000
 0.40000000E+000 -0.80000000E-001
 0.50000000E+000 -0.40000000E-001
 0.69999999E+000  0.40000000E+000
 0.69999999E+000  0.35999999E+000
 0.69999999E+000  0.32000000E+000
 0.69999999E+000  0.28000000E+000
 0.10000000E+000 -0.16000000E+000
 0.69999999E+000  0.23999999E+000
 0.69999999E+000  0.20000000E+000
 0.29999999E+000 -0.12000000E+000
 0.69999999E+000  0.16000000E+000
 0.69999999E+000  0.12000000E+000
 0.59999999E+000  0.00000000E+000
 0.20000000E+000 -0.16000000E+000
 0.00000000E+000 -0.20000000E+000
 0.69999999E+000  0.80000000E-001
 0.10000000E+000 -0.20000000E+000
 0.40000000E+000 -0.12000000E+000
 0.29999999E+000 -0.16000000E+000
 0.50000000E+000 -0.80000000E-001
 0.20000000E+000 -0.20000000E+000
 0.00000000E+000 -0.23999999E+000
 0.69999999E+000  0.40000000E-001
 0.10000000E+000 -0.23999999E+000
 0.59999999E+000 -0.40000000E-001
 0.00000000E+000 -0.28000000E+000
 0.10000000E+000 -0.28000000E+000
 0.20000000E+000 -0.23999999E+000
 0.00000000E+000 -0.32000000E+000
 0.29999999E+000 -0.20000000E+000
 0.10000000E+000 -0.32000000E+000
 0.00000000E+000 -0.35999999E+000
 0.80000000E+000  0.40000000E+000
 0.00000000E+000 -0.40000000E+000
 0.80000000E+000  0.35999999E+000
 0.80000000E+000  0.32000000E+000
 0.80000000E+000  0.28000000E+000
 0.40000000E+000 -0.16000000E+000
 0.80000000E+000  0.23999999E+000
 0.10000000E+000 -0.35999999E+000
 0.80000000E+000  0.20000000E+000
 0.20000000E+000 -0.28000000E+000
 0.10000000E+000 -0.40000000E+000
 0.69999999E+000  0.00000000E+000
 0.80000000E+000  0.16000000E+000
 0.50000000E+000 -0.12000000E+000
 0.20000000E+000 -0.32000000E+000
 0.80000000E+000  0.12000000E+000
 0.29999999E+000 -0.23999999E+000
 0.20000000E+000 -0.35999999E+000
 0.20000000E+000 -0.40000000E+000
 0.59999999E+000 -0.80000000E-001
 0.80000000E+000  0.80000000E-001
 0.29999999E+000 -0.28000000E+000
 0.40000000E+000 -0.20000000E+000
 0.29999999E+000 -0.32000000E+000
 0.29999999E+000 -0.35999999E+000
 0.69999999E+000 -0.40000000E-001
 0.29999999E+000 -0.40000000E+000
 0.50000000E+000 -0.16000000E+000
 0.80000000E+000  0.40000000E-001
 0.40000000E+000 -0.23999999E+000
 0.40000000E+000 -0.28000000E+000
 0.59999999E+000 -0.12000000E+000
 0.40000000E+000 -0.32000000E+000
 0.50000000E+000 -0.20000000E+000
 0.40000000E+000 -0.35999999E+000
 0.80000000E+000  0.00000000E+000
 0.40000000E+000 -0.40000000E+000
 0.90000000E+000  0.40000000E+000
 0.90000000E+000  0.35999999E+000
 0.90000000E+000  0.32000000E+000
 0.90000000E+000  0.28000000E+000
 0.90000000E+000  0.23999999E+000
 0.90000000E+000  0.20000000E+000
 0.69999999E+000 -0.80000000E-001
 0.90000000E+000  0.16000000E+000
 0.50000000E+000 -0.23999999E+000
 0.90000000E+000  0.12000000E+000
 0.59999999E+000 -0.16000000E+000
 0.50000000E+000 -0.28000000E+000
 0.90000000E+000  0.80000000E-001
 0.50000000E+000 -0.32000000E+000
 0.80000000E+000 -0.40000000E-001
 0.50000000E+000 -0.35999999E+000
 0.50000000E+000 -0.40000000E+000
 0.59999999E+000 -0.20000000E+000
 0.69999999E+000 -0.12000000E+000
 0.90000000E+000  0.40000000E-001
 0.59999999E+000 -0.23999999E+000
 0.80000000E+000 -0.80000000E-001
 0.59999999E+000 -0.28000000E+000
 0.90000000E+000  0.00000000E+000
 0.69999999E+000 -0.16000000E+000
 0.59999999E+000 -0.32000000E+000
 0.59999999E+000 -0.35999999E+000
 0.10000000E+001  0.40000000E+000
 0.59999999E+000 -0.40000000E+000
 0.10000000E+001  0.35999999E+000
 0.10000000E+001  0.32000000E+000
 0.10000000E+001  0.28000000E+000
 0.10000000E+001  0.23999999E+000
 0.10000000E+001  0.20000000E+000
 0.10000000E+001  0.16000000E+000
 0.10000000E+001  0.12000000E+000
 0.69999999E+000 -0.20000000E+000
 0.80000000E+000 -0.12000000E+000
 0.90000000E+000 -0.40000000E-001
 0.10000000E+001  0.80000000E-001
 0.69999999E+000 -0.23999999E+000
 0.10000000E+001  0.40000000E-001
 0.69999999E+000 -0.28000000E+000
 0.69999999E+000 -0.32000000E+000
 0.80000000E+000 -0.16000000E+000
 0.69999999E+000 -0.35999999E+000
 0.69999999E+000 -0.40000000E+000
 0.90000000E+000 -0.80000000E-001
 0.10000000E+001  0.00000000E+000
 0.80000000E+000 -0.20000000E+000
 0.11000000E+001  0.40000000E+000
 0.11000000E+001  0.35999999E+000
 0.11000000E+001  0.32000000E+000
 0.11000000E+001  0.28000000E+000
 0.11000000E+001  0.23999999E+000
 0.11000000E+001  0.20000000E+000
 0.90000000E+000 -0.12000000E+000
 0.80000000E+000 -0.23999999E+000
 0.11000000E+001  0.16000000E+000
 0.11000000E+001  0.12000000E+000
 0.10000000E+001 -0.40000000E-001
 0.80000000E+000 -0.28000000E+000
 0.11000000E+001  0.80000000E-001
 0.80000000E+000 -0.32000000E+000
 0.80000000E+000 -0.35999999E+000
 0.80000000E+000 -0.40000000E+000
 0.90000000E+000 -0.16000000E+000
 0.11000000E+001  0.40000000E-001
 0.10000000E+001 -0.80000000E-001
 0.90000000E+000 -0.20000000E+000
 0.11000000E+001  0.00000000E+000
 0.90000000E+000 -0.23999999E+000
 0.10000000E+001 -0.12000000E+000
 0.90000000E+000 -0.28000000E+000
 0.90000000E+000 -0.32000000E+000
 0.12000000E+001  0.40000000E+000
 0.12000000E+001  0.35999999E+000
 0.12000000E+001  0.32000000E+000
 0.12000000E+001  0.28000000E+000
 0.12000000E+001  0.23999999E+000
 0.90000000E+000 -0.35999999E+000
 0.12000000E+001  0.20000000E+000
 0.11000000E+001 -0.40000000E-001
 0.90000000E+000 -0.40000000E+000
 0.12000000E+001  0.16000000E+000
 0.12000000E+001  0.12000000E+000
 0.10000000E+001 -0.16000000E+000
 0.12000000E+001  0.80000000E-001
 0.11000000E+001 -0.80000000E-001
 0.12000000E+001  0.40000000E-001
 0.10000000E+001 -0.20000000E+000
 0.10000000E+001 -0.23999999E+000
 0.12000000E+001  0.00000000E+000
 0.10000000E+001 -0.28000000E+000
 0.11000000E+001 -0.12000000E+000
 0.10000000E+001 -0.32000000E+000
 0.10000000E+001 -0.35999999E+000
 0.10000000E+001 -0.40000000E+000
 0.12000000E+001 -0.40000000E-001
 0.13000000E+001  0.40000000E+000
 0.13000000E+001  0.35999999E+000
 0.13000000E+001  0.32000000E+000
 0.13000000E+001  0.28000000E+000
 0.11000000E+001 -0.16000000E+000
 0.13000000E+001  0.23999999E+000
 0.13000000E+001  0.20000000E+000
 0.13000000E+001  0.16000000E+000
 0.13000000E+001  0.12000000E+000
 0.13000000E+001  0.80000000E-001
 0.11000000E+001 -0.20000000E+000
 0.12000000E+001 -0.80000000E-001
 0.13000000E+001  0.40000000E-001
 0.11000000E+001 -0.23999999E+000
 0.11000000E+001 -0.28000000E+000
 0.11000000E+001 -0.32000000E+000
 0.11000000E+001 -0.35999999E+000
 0.12000000E+001 -0.12000000E+000
 0.11000000E+001 -0.40000000E+000
 0.13000000E+001  0.00000000E+000
 0.12000000E+001 -0.16000000E+000
 0.13000000E+001 -0.40000000E-001
 0.13999999E+001  0.40000000E+000
 0.13999999E+001  0.35999999E+000
 0.13999999E+001  0.32000000E+000
 0.13999999E+001  0.28000000E+000
 0.13999999E+001  0.23999999E+000
 0.13999999E+001  0.20000000E+000
 0.13999999E+001  0.16000000E+000
 0.12000000E+001 -0.20000000E+000
 0.13999999E+001  0.12000000E+000
 0.13999999E+001  0.80000000E-001
 0.13000000E+001 -0.80000000E-001
 0.12000000E+001 -0.23999999E+000
 0.12000000E+001 -0.28000000E+000
 0.13999999E+001  0.40000000E-001
 0.12000000E+001 -0.32000000E+000
 0.12000000E+001 -0.35999999E+000
 0.12000000E+001 -0.40000000E+000
 0.13000000E+001 -0.12000000E+000
 0.13999999E+001  0.00000000E+000
 0.13000000E+001 -0.16000000E+000
 0.13999999E+001 -0.40000000E-001
 0.13000000E+001 -0.20000000E+000
 0.15000000E+001  0.40000000E+000
 0.15000000E+001  0.35999999E+000
 0.15000000E+001  0.32000000E+000
 0.15000000E+001  0.28000000E+000
 0.15000000E+001  0.23999999E+000
 0.15000000E+001  0.20000000E+000
 0.15000000E+001  0.16000000E+000
 0.13000000E+001 -0.23999999E+000
 0.15000000E+001  0.12000000E+000
 0.13999999E+001 -0.80000000E-001
 0.13000000E+001 -0.28000000E+000
 0.15000000E+001  0.80000000E-001
 0.13000000E+001 -0.32000000E+000
 0.13000000E+001 -0.35999999E+000
 0.13000000E+001 -0.40000000E+000
 0.15000000E+001  0.40000000E-001
 0.13999999E+001 -0.12000000E+000
 0.15000000E+001  0.00000000E+000
 0.13999999E+001 -0.16000000E+000
 0.15000000E+001 -0.40000000E-001
 0.13999999E+001 -0.20000000E+000
 0.13999999E+001 -0.23999999E+000
 0.16000000E+001  0.40000000E+000
 0.16000000E+001  0.35999999E+000
 0.16000000E+001  0.32000000E+000
 0.16000000E+001  0.28000000E+000
 0.16000000E+001  0.23999999E+000
 0.16000000E+001  0.20000000E+000
 0.13999999E+001 -0.28000000E+000
 0.16000000E+001  0.16000000E+000
 0.15000000E+001 -0.80000000E-001
 0.13999999E+001 -0.32000000E+000
 0.16000000E+001  0.12000000E+000
 0.13999999E+001 -0.35999999E+000
 0.13999999E+001 -0.40000000E+000
 0.16000000E+001  0.80000000E-001
 0.16000000E+001  0.40000000E-001
 0.15000000E+001 -0.12000000E+000
 0.16000000E+001  0.00000000E+000
 0.15000000E+001 -0.16000000E+000
 0.15000000E+001 -0.20000000E+000
 0.16000000E+001 -0.40000000E-001
 0.15000000E+001 -0.23999999E+000
 0.15000000E+001 -0.28000000E+000
 0.15000000E+001 -0.32000000E+000
 0.15000000E+001 -0.35999999E+000
 0.16000000E+001 -0.80000000E-001
 0.15000000E+001 -0.40000000E+000
 0.17000000E+001  0.40000000E+000
 0.17000000E+001  0.35999999E+000
 0.17000000E+001  0.32000000E+000
 0.17000000E+001  0.28000000E+000
 0.17000000E+001  0.23999999E+000
 0.17000000E+001  0.20000000E+000
 0.17000000E+001  0.16000000E+000
 0.17000000E+001  0.12000000E+000
 0.17000000E+001  0.80000000E-001
 0.16000000E+001 -0.12000000E+000
 0.17000000E+001  0.40000000E-001
 0.16000000E+001 -0.16000000E+000
 0.17000000E+001  0.00000000E+000
 0.16000000E+001 -0.20000000E+000
 0.17000000E+001 -0.40000000E-001
 0.16000000E+001 -0.23999999E+000
 0.16000000E+001 -0.28000000E+000
 0.16000000E+001 -0.32000000E+000
 0.16000000E+001 -0.35999999E+000
 0.16000000E+001 -0.40000000E+000
 0.17000000E+001 -0.80000000E-001
 0.18000000E+001  0.40000000E+000
 0.18000000E+001  0.35999999E+000
 0.18000000E+001  0.32000000E+000
 0.18000000E+001  0.28000000E+000
 0.18000000E+001  0.23999999E+000
 0.18000000E+001  0.20000000E+000
 0.18000000E+001  0.16000000E+000
 0.18000000E+001  0.12000000E+000
 0.18000000E+001  0.80000000E-001
 0.17000000E+001 -0.12000000E+000
 0.18000000E+001  0.40000000E-001
 0.17000000E+001 -0.16000000E+000
 0.18000000E+001  0.00000000E+000
 0.17000000E+001 -0.20000000E+000
 0.17000000E+001 -0.23999999E+000
 0.18000000E+001 -0.40000000E-001
 0.17000000E+001 -0.28000000E+000
 0.17000000E+001 -0.32000000E+000
 0.17000000E+001 -0.35999999E+000
 0.17000000E+001 -0.40000000E+000
 0.18000000E+001 -0.80000000E-001
 0.18999999E+001  0.40000000E+000
 0.18999999E+001  0.35999999E+000
 0.18999999E+001  0.32000000E+000
 0.18999999E+001  0.28000000E+000
 0.18999999E+001  0.23999999E+000
 0.18999999E+001  0.20000000E+000
 0.18999999E+001  0.16000000E+000
 0.18999999E+001  0.12000000E+000
 0.18000000E+001 -0.12000000E+000
 0.18999999E+001  0.80000000E-001
 0.18999999E+001  0.40000000E-001
 0.18000000E+001 -0.16000000E+000
 0.18999999E+001  0.00000000E+000
 0.18000000E+001 -0.20000000E+000
 0.18000000E+001 -0.23999999E+000
 0.18000000E+001 -0.28000000E+000
 0.18999999E+001 -0.40000000E-001
 0.18000000E+001 -0.32000000E+000
 0.18000000E+001 -0.35999999E+000
 0.18000000E+001 -0.40000000E+000
 0.18999999E+001 -0.80000000E-001
 0.20000000E+001  0.40000000E+000
 0.20000000E+001  0.35999999E+000
 0.20000000E+001  0.32000000E+000
 0.20000000E+001  0.28000000E+000
 0.20000000E+001  0.23999999E+000
 0.20000000E+001  0.20000000E+000
 0.20000000E+001  0.16000000E+000
 0.18999999E+001 -0.12000000E+000
 0.20000000E+001  0.12000000E+000
 0.20000000E+001  0.80000000E-001
 0.18999999E+001 -0.16000000E+000
 0.20000000E+001  0.40000000E-001
 0.18999999E+001 -0.20000000E+000
 0.20000000E+001  0.00000000E+000
 0.18999999E+001 -0.23999999E+000
 0.18999999E+001 -0.28000000E+000
 0.18999999E+001 -0.32000000E+000
 0.20000000E+001 -0.40000000E-001
 0.18999999E+001 -0.35999999E+000
 0.18999999E+001 -0.40000000E+000
 0.20000000E+001 -0.80000000E-001
 0.20000000E+001 -0.12000000E+000
 0.21000000E+001  0.40000000E+000
 0.21000000E+001  0.35999999E+000
 0.21000000E+001  0.32000000E+000
 0.21000000E+001  0.28000000E+000
 0.21000000E+001  0.23999999E+000
 0.21000000E+001  0.20000000E+000
 0.21000000E+001  0.16000000E+000
 0.21000000E+001  0.12000000E+000
 0.21000000E+001  0.80000000E-001
 0.20000000E+001 -0.16000000E+000
 0.21000000E+001  0.40000000E-001
 0.20000000E+001 -0.20000000E+000
 0.21000000E+001  0.00000000E+000
 0.20000000E+001 -0.23999999E+000
 0.20000000E+001 -0.28000000E+000
 0.20000000E+001 -0.32000000E+000
 0.20000000E+001 -0.35999999E+000
 0.20000000E+001 -0.40000000E+000
 0.21000000E+001 -0.40000000E-001
 0.21000000E+001 -0.80000000E-001
 0.21000000E+001 -0.12000000E+000
 0.22000000E+001  0.40000000E+000
 0.22000000E+001  0.35999999E+000
 0.22000000E+001  0.32000000E+000
 0.22000000E+001  0.28000000E+000
 0.22000000E+001  0.23999999E+000
 0.22000000E+001  0.20000000E+000
 0.22000000E+001  0.16000000E+000
 0.22000000E+001  0.12000000E+000
 0.21000000E+001 -0.16000000E+000
 0.22000000E+001  0.80000000E-001
 0.22000000E+001  0.40000000E-001
 0.21000000E+001 -0.20000000E+000
 0.21000000E+001 -0.23999999E+000
 0.22000000E+001  0.00000000E+000
 0.21000000E+001 -0.28000000E+000
 0.21000000E+001 -0.32000000E+000
 0.21000000E+001 -0.35999999E+000
 0.21000000E+001 -0.40000000E+000
 0.22000000E+001 -0.40000000E-001
 0.22000000E+001 -0.80000000E-001
 0.22000000E+001 -0.12000000E+000
 0.22999999E+001  0.40000000E+000
 0.22999999E+001  0.35999999E+000
 0.22999999E+001  0.32000000E+000
 0.22999999E+001  0.28000000E+000
 0.22999999E+001  0.23999999E+000
 0.22999999E+001  0.20000000E+000
 0.22999999E+001  0.16000000E+000
 0.22999999E+001  0.12000000E+000
 0.22000000E+001 -0.16000000E+000
 0.22999999E+001  0.80000000E-001
 0.22000000E+001 -0.20000000E+000
 0.22999999E+001  0.40000000E-001
 0.22000000E+001 -0.23999999E+000
 0.22000000E+001 -0.28000000E+000
 0.22999999E+001  0.00000000E+000
 0.22000000E+001 -0.32000000E+000
 0.22000000E+001 -0.35999999E+000
 0.22000000E+001 -0.40000000E+000
 0.22999999E+001 -0.40000000E-001
 0.22999999E+001 -0.80000000E-001
 0.22999999E+001 -0.12000000E+000
 0.23999999E+001  0.40000000E+000
 0.23999999E+001  0.35999999E+000
 0.23999999E+001  0.32000000E+000
 0.23999999E+001  0.28000000E+000
 0.23999999E+001  0.23999999E+000
 0.23999999E+001  0.20000000E+000
 0.22999999E+001 -0.16000000E+000
 0.23999999E+001  0.16000000E+000
 0.23999999E+001  0.12000000E+000
 0.23999999E+001  0.80000000E-001
 0.22999999E+001 -0.20000000E+000
 0.23999999E+001  0.40000000E-001
 0.22999999E+001 -0.23999999E+000
 0.22999999E+001 -0.28000000E+000
 0.22999999E+001 -0.32000000E+000
 0.23999999E+001  0.00000000E+000
 0.22999999E+001 -0.35999999E+000
 0.22999999E+001 -0.40000000E+000
 0.23999999E+001 -0.40000000E-001
 0.23999999E+001 -0.80000000E-001
 0.23999999E+001 -0.12000000E+000
 0.23999999E+001 -0.16000000E+000
 0.25000000E+001  0.40000000E+000
 0.25000000E+001  0.35999999E+000
 0.25000000E+001  0.32000000E+000
 0.25000000E+001  0.28000000E+000
 0.25000000E+001  0.23999999E+000
 0.25000000E+001  0.20000000E+000
 0.25000000E+001  0.16000000E+000
 0.25000000E+001  0.12000000E+000
 0.23999999E+001 -0.20000000E+000
 0.25000000E+001  0.80000000E-001
 0.23999999E+001 -0.23999999E+000
 0.25000000E+001  0.40000000E-001
 0.23999999E+001 -0.28000000E+000
 0.23999999E+001 -0.32000000E+000
 0.23999999E+001 -0.35999999E+000
 0.23999999E+001 -0.40000000E+000
 0.25000000E+001  0.00000000E+000
 0.25000000E+001 -0.40000000E-001
 0.25000000E+001 -0.80000000E-001
 0.25000000E+001 -0.12000000E+000
 0.25000000E+001 -0.16000000E+000
 0.26000000E+001  0.40000000E+000
 0.26000000E+001  0.35999999E+000
 0.26000000E+001  0.32000000E+000
 0.26000000E+001  0.28000000E+000
 0.26000000E+001  0.23999999E+000
 0.26000000E+001  0.20000000E+000
 0.26000000E+001  0.16000000E+000
 0.26000000E+001  0.12000000E+000
 0.25000000E+001 -0.20000000E+000
 0.26000000E+001  0.80000000E-001
 0.25000000E+001 -0.23999999E+000
 0.26000000E+001  0.40000000E-001
 0.25000000E+001 -0.28000000E+000
 0.25000000E+001 -0.32000000E+000
 0.25000000E+001 -0.35999999E+000
 0.25000000E+001 -0.40000000E+000
 0.26000000E+001  0.00000000E+000
 0.26000000E+001 -0.40000000E-001
 0.26000000E+001 -0.80000000E-001
 0.26000000E+001 -0.12000000E+000
 0.26000000E+001 -0.16000000E+000
 0.27000000E+001  0.40000000E+000
 0.27000000E+001  0.35999999E+000
 0.27000000E+001  0.32000000E+000
 0.27000000E+001  0.28000000E+000
 0.27000000E+001  0.23999999E+000
 0.27000000E+001  0.20000000E+000
 0.26000000E+001 -0.20000000E+000
 0.27000000E+001  0.16000000E+000
 0.27000000E+001  0.12000000E+000
 0.26000000E+001 -0.23999999E+000
 0.27000000E+001  0.80000000E-001
 0.26000000E+001 -0.28000000E+000
 0.26000000E+001 -0.32000000E+000
 0.27000000E+001  0.40000000E-001
 0.26000000E+001 -0.35999999E+000
 0.26000000E+001 -0.40000000E+000
 0.27000000E+001  0.00000000E+000
 0.27000000E+001 -0.40000000E-001
 0.27000000E+001 -0.80000000E-001
 0.27000000E+001 -0.12000000E+000
 0.27000000E+001 -0.16000000E+000
 0.27000000E+001 -0.20000000E+000
 0.27999999E+001  0.40000000E+000
 0.27999999E+001  0.35999999E+000
 0.27999999E+001  0.32000000E+000
 0.27999999E+001  0.28000000E+000
 0.27999999E+001  0.23999999E+000
 0.27999999E+001  0.20000000E+000
 0.27999999E+001  0.16000000E+000
 0.27999999E+001  0.12000000E+000
 0.27000000E+001 -0.23999999E+000
 0.27999999E+001  0.80000000E-001
 0.27000000E+001 -0.28000000E+000
 0.27000000E+001 -0.32000000E+000
 0.27000000E+001 -0.35999999E+000
 0.27000000E+001 -0.40000000E+000
 0.27999999E+001  0.40000000E-001
 0.27999999E+001  0.11102230E-015
 0.27999999E+001 -0.40000000E-001
 0.27999999E+001 -0.80000000E-001
 0.27999999E+001 -0.12000000E+000
 0.27999999E+001 -0.16000000E+000
 0.27999999E+001 -0.20000000E+000
 0.28999999E+001  0.40000000E+000
 0.28999999E+001  0.35999999E+000
 0.28999999E+001  0.32000000E+000
 0.28999999E+001  0.28000000E+000
 0.28999999E+001  0.23999999E+000
 0.28999999E+001  0.20000000E+000
 0.27999999E+001 -0.23999999E+000
 0.28999999E+001  0.16000000E+000
 0.28999999E+001  0.12000000E+000
 0.27999999E+001 -0.28000000E+000
 0.28999999E+001  0.80000000E-001
 0.27999999E+001 -0.32000000E+000
 0.27999999E+001 -0.35999999E+000
 0.27999999E+001 -0.40000000E+000
 0.28999999E+001  0.40000000E-001
 0.28999999E+001  0.00000000E+000
 0.28999999E+001 -0.40000000E-001
 0.28999999E+001 -0.80000000E-001
 0.28999999E+001 -0.12000000E+000
 0.28999999E+001 -0.16000000E+000
 0.28999999E+001 -0.20000000E+000
 0.28999999E+001 -0.23999999E+000
 0.30000000E+001  0.40000000E+000
 0.30000000E+001  0.35999999E+000
 0.30000000E+001  0.32000000E+000
 0.30000000E+001  0.28000000E+000
 0.30000000E+001  0.23999999E+000
 0.30000000E+001  0.20000000E+000
 0.30000000E+001  0.16000000E+000
 0.28999999E+001 -0.28000000E+000
 0.30000000E+001  0.12000000E+000
 0.28999999E+001 -0.32000000E+000
 0.28999999E+001 -0.35999999E+000
 0.28999999E+001 -0.40000000E+000
 0.30000000E+001  0.80000000E-001
 0.30000000E+001  0.40000000E-001
 0.30000000E+001  0.00000000E+000
 0.30000000E+001 -0.40000000E-001
 0.30000000E+001 -0.80000000E-001
 0.30000000E+001 -0.12000000E+000
 0.30000000E+001 -0.16000000E+000
 0.30000000E+001 -0.20000000E+000
 0.30000000E+001 -0.23999999E+000
 0.30000000E+001 -0.28000000E+000
 0.31000000E+001  0.40000000E+000
 0.31000000E+001  0.35999999E+000
 0.31000000E+001  0.32000000E+000
 0.31000000E+001  0.28000000E+000
 0.31000000E+001  0.23999999E+000
 0.31000000E+001  0.20000000E+000
 0.31000000E+001  0.16000000E+000
 0.30000000E+001 -0.32000000E+000
 0.30000000E+001 -0.35999999E+000
 0.31000000E+001  0.12000000E+000
 0.30000000E+001 -0.40000000E+000
 0.31000000E+001  0.80000000E-001
 0.31000000E+001  0.40000000E-001
 0.31000000E+001  0.00000000E+000
 0.31000000E+001 -0.40000000E-001
 0.31000000E+001 -0.80000000E-001
 0.31000000E+001 -0.12000000E+000
 0.31000000E+001 -0.16000000E+000
 0.31000000E+001 -0.20000000E+000
 0.31000000E+001 -0.23999999E+000
 0.31000000E+001 -0.28000000E+000
 0.31000000E+001 -0.32000000E+000
 0.32000000E+001  0.40000000E+000
 0.32000000E+001  0.35999999E+000
 0.32000000E+001  0.32000000E+000
 0.32000000E+001  0.28000000E+000
 0.32000000E+001  0.23999999E+000
 0.31000000E+001 -0.35999999E+000
 0.32000000E+001  0.20000000E+000
 0.31000000E+001 -0.40000000E+000
 0.32000000E+001  0.16000000E+000
 0.32000000E+001  0.12000000E+000
 0.32000000E+001  0.80000000E-001
 0.32000000E+001  0.40000000E-001
 0.32000000E+001  0.00000000E+000
 0.32000000E+001 -0.40000000E-001
 0.32000000E+001 -0.80000000E-001
 0.32000000E+001 -0.12000000E+000
 0.32000000E+001 -0.16000000E+000
 0.32000000E+001 -0.20000000E+000
 0.32000000E+001 -0.23999999E+000
 0.32000000E+001 -0.28000000E+000
 0.32000000E+001 -0.32000000E+000
 0.32000000E+001 -0.35999999E+000
 0.32000000E+001 -0.40000000E+000
 0.32999999E+001  0.40000000E+000
 0.32999999E+001  0.35999999E+000
 0.32999999E+001  0.32000000E+000
 0.32999999E+001  0.28000000E+000
 0.32999999E+001  0.23999999E+000
 0.32999999E+001  0.20000000E+000
 0.32999999E+001  0.16000000E+000
 0.32999999E+001  0.12000000E+000
 0.32999999E+001  0.80000000E-001
 0.32999999E+001  0.40000000E-001
 0.32999999E+001  0.00000000E+000
 0.32999999E+001 -0.40000000E-001
 0.32999999E+001 -0.80000000E-001
 0.32999999E+001 -0.12000000E+000
 0.32999999E+001 -0.16000000E+000
 0.32999999E+001 -0.20000000E+000
 0.32999999E+001 -0.23999999E+000
 0.32999999E+001 -0.28000000E+000
 0.32999999E+001 -0.32000000E+000
 0.32999999E+001 -0.35999999E+000
 0.32999999E+001 -0.40000000E+000
 0.33999999E+001  0.40000000E+000
 0.33999999E+001  0.35999999E+000
 0.33999999E+001  0.32000000E+000
 0.33999999E+001  0.28000000E+000
 0.33999999E+001  0.23999999E+000
 0.33999999E+001  0.20000000E+000
 0.33999999E+001  0.16000000E+000
 0.33999999E+001  0.12000000E+000
 0.33999999E+001  0.80000000E-001
 0.33999999E+001  0.40000000E-001
 0.33999999E+001  0.00000000E+000
 0.33999999E+001 -0.40000000E-001
 0.33999999E+001 -0.80000000E-001
 0.33999999E+001 -0.12000000E+000
 0.33999999E+001 -0.16000000E+000
 0.33999999E+001 -0.20000000E+000
 0.33999999E+001 -0.23999999E+000
 0.33999999E+001 -0.28000000E+000
 0.33999999E+001 -0.32000000E+000
 0.33999999E+001 -0.35999999E+000
 0.33999999E+001 -0.40000000E+000
 0.35000000E+001  0.40000000E+000
 0.35000000E+001  0.35999999E+000
 0.35000000E+001  0.32000000E+000
 0.35000000E+001  0.28000000E+000
 0.35000000E+001  0.23999999E+000
 0.35000000E+001  0.20000000E+000
 0.35000000E+001  0.16000000E+000
 0.35000000E+001  0.12000000E+000
 0.35000000E+001  0.80000000E-001
 0.35000000E+001  0.40000000E-001
 0.35000000E+001  0.00000000E+000
 0.35000000E+001 -0.40000000E-001
 0.35000000E+001 -0.80000000E-001
 0.35000000E+001 -0.12000000E+000
 0.35000000E+001 -0.16000000E+000
 0.35000000E+001 -0.20000000E+000
 0.35000000E+001 -0.23999999E+000
 0.35000000E+001 -0.28000000E+000
 0.35000000E+001 -0.32000000E+000
 0.35000000E+001 -0.35999999E+000
 0.35000000E+001 -0.40000000E+000
 0.36000000E+001  0.40000000E+000
 0.36000000E+001  0.35999999E+000
 0.36000000E+001  0.32000000E+000
 0.36000000E+001  0.28000000E+000
 0.36000000E+001  0.23999999E+000
 0.36000000E+001  0.20000000E+000
 0.36000000E+001  0.16000000E+000
 0.36000000E+001  0.12000000E+000
 0.36000000E+001  0.80000000E-001
 0.36000000E+001  0.40000000E-001
 0.36000000E+001  0.00000000E+000
 0.36000000E+001 -0.40000000E-001
 0.36000000E+001 -0.80000000E-001
 0.36000000E+001 -0.12000000E+000
 0.36000000E+001 -0.16000000E+000
 0.36000000E+001 -0.20000000E+000
 0.36000000E+001 -0.23999999E+000
 0.36000000E+001 -0.28000000E+000
 0.36000000E+001 -0.32000000E+000
 0.36000000E+001 -0.35999999E+000
 0.36000000E+001 -0.40000000E+000
 0.37000000E+001  0.40000000E+000
 0.37000000E+001  0.35999999E+000
 0.37000000E+001  0.32000000E+000
 0.37000000E+001  0.28000000E+000
 0.37000000E+001  0.23999999E+000
 0.37000000E+001  0.20000000E+000
 0.37000000E+001  0.16000000E+000
 0.37000000E+001  0.12000000E+000
 0.37000000E+001  0.80000000E-001
 0.37000000E+001  0.40000000E-001
 0.37000000E+001  0.00000000E+000
 0.37000000E+001 -0.40000000E-001
 0.37000000E+001 -0.80000000E-001
 0.37000000E+001 -0.12000000E+000
 0.37000000E+001 -0.16000000E+000
 0.37000000E+001 -0.20000000E+000
 0.37000000E+001 -0.23999999E+000
 0.37000000E+001 -0.28000000E+000
 0.37000000E+001 -0.32000000E+000
 0.37000000E+001 -0.35999999E+000
 0.37000000E+001 -0.40000000E+000
 0.37999999E+001  0.40000000E+000
 0.37999999E+001  0.35999999E+000
 0.37999999E+001  0.32000000E+000
 0.37999999E+001  0.28000000E+000
 0.37999999E+001  0.23999999E+000
 0.37999999E+001  0.20000000E+000
 0.37999999E+001  0.16000000E+000
 0.37999999E+001  0.12000000E+000
 0.37999999E+001  0.80000000E-001
 0.37999999E+001  0.40000000E-001
 0.37999999E+001  0.00000000E+000
 0.37999999E+001 -0.40000000E-001
 0.37999999E+001 -0.80000000E-001
 0.37999999E+001 -0.12000000E+000
 0.37999999E+001 -0.16000000E+000
 0.37999999E+001 -0.20000000E+000
 0.37999999E+001 -0.23999999E+000
 0.37999999E+001 -0.28000000E+000
 0.37999999E+001 -0.32000000E+000
 0.37999999E+001 -0.35999999E+000
 0.37999999E+001 -0.40000000E+000
 0.38999999E+001  0.40000000E+000
 0.38999999E+001  0.35999999E+000
 0.38999999E+001  0.32000000E+000
 0.38999999E+001  0.28000000E+000
 0.38999999E+001  0.23999999E+000
 0.38999999E+001  0.20000000E+000
 0.38999999E+001  0.16000000E+000
 0.38999999E+001  0.12000000E+000
 0.38999999E+001  0.80000000E-001
 0.38999999E+001  0.40000000E-001
 0.38999999E+001  0.00000000E+000
 0.38999999E+001 -0.40000000E-001
 0.38999999E+001 -0.80000000E-001
 0.38999999E+001 -0.12000000E+000
 0.38999999E+001 -0.16000000E+000
 0.38999999E+001 -0.20000000E+000
 0.38999999E+001 -0.23999999E+000
 0.38999999E+001 -0.28000000E+000
 0.38999999E+001 -0.32000000E+000
 0.38999999E+001 -0.35999999E+000
 0.38999999E+001 -0.40000000E+000
 0.40000000E+001  0.40000000E+000
 0.40000000E+001  0.35999999E+000
 0.40000000E+001  0.32000000E+000
 0.40000000E+001  0.28000000E+000
 0.40000000E+001  0.23999999E+000
 0.40000000E+001  0.20000000E+000
 0.40000000E+001  0.16000000E+000
 0.40000000E+001  0.12000000E+000
 0.40000000E+001  0.80000000E-001
 0.40000000E+001  0.40000000E-001
 0.40000000E+001  0.00000000E+000
 0.40000000E+001 -0.40000000E-001
 0.40000000E+001 -0.80000000E-001
 0.40000000E+001 -0.12000000E+000
 0.40000000E+001 -0.16000000E+000
 0.40000000E+001 -0.20000000E+000
 0.40000000E+001 -0.23999999E+000
 0.40000000E+001 -0.28000000E+000
 0.40000000E+001 -0.32000000E+000
 0.40000000E+001 -0.35999999E+000
 0.40000000E+001 -0.40000000E+000
