 0.00000000E+000  0.00000000E+000
 0.29766643E-001  0.00000000E+000
 0.56399956E-001  0.00000000E+000
 0.79899936E-001  0.00000000E+000
 0.10026658E+000  0.00000000E+000
 0.11749990E+000  0.00000000E+000
 0.00000000E+000  0.00000000E+000
 0.11246224E+000  0.40874037E-001
 0.13823139E+000  0.10377786E+000
 0.12969277E+000  0.15185312E+000
 0.13159988E+000  0.00000000E+000
 0.11373987E+000  0.17504577E+000
 0.10013344E+000  0.17460668E+000
 0.92059381E-001  0.15583425E+000
 0.14256654E+000  0.00000000E+000
 0.88902860E-001  0.12471102E+000
 0.00000000E+000  0.00000000E+000
 0.20480126E+000  0.10508384E-001
 0.23918335E+000  0.30338225E-001
 0.19991838E+000  0.53092256E-001
 0.14020428E+000  0.69272145E-001
 0.87058112E-001  0.74949450E-001
 0.48974979E-001  0.70730239E-001
 0.15039987E+000  0.00000000E+000
 0.88856406E-001  0.86209617E-001
 0.26134969E-001  0.58801297E-001
 0.00000000E+000  0.00000000E+000
 0.22392986E+000  0.12558354E-002
 0.27419704E+000  0.45102089E-002
 0.23272164E+000  0.92371692E-002
 0.16076397E+000  0.14596200E-001
 0.14533970E-001  0.41709098E-001
 0.90973258E-001  0.18802316E-001
 0.15509988E+000  0.00000000E+000
 0.37833921E-001  0.20166432E-001
 0.89812010E-001  0.43885000E-001
 0.30953993E-002  0.18428025E-001
 0.98112635E-002  0.21545374E-001
-0.16448268E-001  0.13904412E-001
 0.00000000E+000  0.00000000E+000
 0.15666654E+000  0.00000000E+000
 0.22970892E+000  0.15000728E-002
 0.28170216E+000  0.38751685E-002
 0.24279940E+000  0.63780802E-002
 0.16934718E+000  0.85280137E-002
 0.95841988E-001  0.97328284E-002
 0.90319313E-001 -0.25491395E-008
 0.37024769E-001  0.10004391E-001
-0.30593103E-002  0.89561128E-002
-0.25744145E-001  0.74557522E-002
 0.86078187E-002  0.49373340E-008
-0.27090990E-001  0.67654238E-002
 0.15509988E+000  0.00000000E+000
 0.89812010E-001 -0.43884992E-001
 0.00000000E+000  0.00000000E+000
-0.28352912E-001 -0.71997070E-008
 0.23325216E+000  0.55628141E-003
 0.28725478E+000  0.18914414E-002
 0.24711208E+000  0.33303594E-002
 0.17263390E+000  0.42344206E-002
 0.96934989E-001  0.47701080E-002
-0.39098612E-001  0.36223311E-002
 0.36135766E-001  0.45688068E-002
-0.62899263E-002  0.39661284E-002
 0.98112616E-002 -0.21545384E-001
-0.32052390E-001  0.28798873E-002
-0.42724076E-001  0.10178513E-007
 0.15039987E+000  0.00000000E+000
-0.25744143E-001 -0.74557368E-002
 0.88856406E-001 -0.86209625E-001
-0.45382138E-001  0.15316847E-002
 0.00000000E+000  0.00000000E+000
 0.23481516E+000  0.19505881E-003
 0.28926151E+000  0.40764099E-003
 0.24950791E+000  0.75324880E-003
 0.17391763E+000  0.13117501E-002
 0.97492970E-001  0.15125372E-002
 0.14533973E-001 -0.41709087E-001
 0.35464037E-001  0.16674821E-002
-0.76626790E-002  0.14489449E-002
-0.39098612E-001 -0.36223521E-002
 0.14256654E+000  0.00000000E+000
-0.49339406E-001 -0.13420927E-007
-0.34249626E-001  0.11096495E-002
-0.16448272E-001 -0.13904427E-001
 0.88902860E-001 -0.12471102E+000
 0.26134965E-001 -0.58801304E-001
-0.47887183E-001  0.57779427E-003
 0.13159988E+000  0.00000000E+000
-0.27090989E-001 -0.67654033E-002
-0.45382138E-001 -0.15316595E-002
 0.00000000E+000  0.00000000E+000
 0.23510907E+000  0.22567122E-004
 0.29003208E+000  0.21444722E-003
 0.25012323E+000  0.43675972E-003
 0.92059381E-001 -0.15583427E+000
 0.17472723E+000  0.45603787E-003
 0.97705647E-001  0.66511664E-003
 0.30954030E-002 -0.18428010E-001
 0.35484571E-001  0.60260045E-003
-0.82383845E-002  0.60198607E-003
-0.52116155E-001  0.15404895E-007
 0.48974987E-001 -0.70730224E-001
 0.11749990E+000  0.00000000E+000
-0.34968234E-001  0.42246107E-003
 0.10013345E+000 -0.17460666E+000
-0.30593129E-002 -0.89561333E-002
 0.37833914E-001 -0.20166445E-001
-0.32052390E-001 -0.28799138E-002
 0.87058104E-001 -0.74949458E-001
 0.10026658E+000  0.00000000E+000
-0.48955701E-001  0.24187614E-003
 0.11373986E+000 -0.17504577E+000
-0.47887187E-001 -0.57782611E-003
 0.79899936E-001  0.00000000E+000
 0.12969279E+000 -0.15185311E+000
 0.14020428E+000 -0.69272130E-001
 0.56399956E-001  0.00000000E+000
 0.90973265E-001 -0.18802301E-001
 0.13823138E+000 -0.10377786E+000
 0.29766643E-001  0.00000000E+000
 0.00000000E+000  0.00000000E+000
 0.00000000E+000  0.00000000E+000
 0.23534284E+000  0.56964210E-004
 0.29024353E+000  0.78895005E-004
 0.25050455E+000  0.83462080E-004
 0.37024773E-001 -0.10004372E-001
 0.17480230E+000  0.24766061E-003
 0.11246225E+000 -0.40874034E-001
 0.97921483E-001  0.15385088E-003
 0.19991838E+000 -0.53092259E-001
 0.00000000E+000  0.00000000E+000
-0.53098291E-001 -0.17931224E-007
 0.35334683E-001  0.24484263E-003
-0.62899240E-002 -0.39661023E-002
 0.23918335E+000 -0.30338220E-001
-0.83145042E-002  0.15249960E-003
 0.16076396E+000 -0.14596211E-001
 0.20480126E+000 -0.10508388E-001
 0.00000000E+000  0.00000000E+000
-0.34249626E-001 -0.11096181E-002
-0.35356119E-001  0.14886469E-003
 0.23272165E+000 -0.92371618E-002
 0.95841981E-001 -0.97328471E-002
 0.27419704E+000 -0.45102159E-002
 0.22392986E+000 -0.12558319E-002
-0.48955705E-001 -0.24183912E-003
 0.00000000E+000  0.00000000E+000
 0.36135762E-001 -0.45688324E-002
-0.49232412E-001  0.62636245E-004
 0.16934718E+000 -0.85279997E-002
 0.24279938E+000 -0.63780932E-002
-0.76626809E-002 -0.14489764E-002
 0.28170216E+000 -0.38751610E-002
 0.96934996E-001 -0.47700852E-002
 0.22970892E+000 -0.15000771E-002
-0.53585238E-001  0.20834486E-007
 0.00000000E+000  0.00000000E+000
 0.00000000E+000  0.00000000E+000
 0.23535959E+000 -0.17147707E-004
 0.29037427E+000 -0.19853976E-005
 0.25052019E+000  0.65598229E-004
 0.17497801E+000 -0.26589141E-004
 0.97830191E-001  0.10384150E-003
-0.34968234E-001 -0.42249800E-003
 0.35431575E-001  0.12202474E-004
 0.17263388E+000 -0.42344415E-002
-0.84847854E-002  0.78256685E-004
 0.35464037E-001 -0.16674505E-002
 0.24711209E+000 -0.33303445E-002
-0.35335011E-001  0.19949093E-004
 0.28725478E+000 -0.18914515E-002
-0.49232408E-001 -0.62677958E-004
 0.23325218E+000 -0.55627874E-003
 0.00000000E+000  0.00000000E+000
 0.97492963E-001 -0.15125658E-002
-0.82383854E-002 -0.60194818E-003
-0.49451924E-001  0.28440616E-004
 0.17391765E+000 -0.13117248E-002
-0.35356123E-001 -0.14882160E-003
 0.24950790E+000 -0.75326766E-003
-0.53592469E-001 -0.23969004E-007
 0.35484567E-001 -0.60263701E-003
 0.28926151E+000 -0.40763014E-003
 0.23481515E+000 -0.19506187E-003
 0.00000000E+000  0.00000000E+000
 0.00000000E+000  0.00000000E+000
 0.23539307E+000  0.10592114E-004
 0.29035755E+000  0.22878091E-004
 0.25060486E+000 -0.30710551E-004
 0.17490778E+000  0.74535630E-004
 0.97956500E-001 -0.37833564E-004
 0.35309974E-001  0.59634887E-004
-0.83746602E-002 -0.14373641E-004
 0.97705654E-001 -0.66508143E-003
-0.83145024E-002 -0.15254293E-003
-0.49451924E-001 -0.28394368E-004
-0.35487379E-001  0.29701199E-004
 0.17472721E+000 -0.45606700E-003
-0.49354828E-001 -0.24791831E-005
 0.25012323E+000 -0.43673662E-003
 0.29003208E+000 -0.21445918E-003
 0.35334687E-001 -0.24480032E-003
 0.23510907E+000 -0.22564057E-004
 0.00000000E+000  0.00000000E+000
-0.35335011E-001 -0.19998453E-004
-0.53755953E-001  0.25166885E-007
 0.97921483E-001 -0.15389101E-003
 0.00000000E+000  0.00000000E+000
 0.23537789E+000  0.17766780E-005
 0.29039880E+000 -0.17757700E-004
 0.25055876E+000  0.47328390E-004
 0.17499652E+000 -0.49596827E-004
 0.97846210E-001  0.60116635E-004
-0.84847854E-002 -0.78208831E-004
 0.17480231E+000 -0.24762537E-003
 0.35435777E-001 -0.35905668E-004
-0.85182245E-002  0.34921315E-004
-0.49354828E-001  0.24245571E-005
 0.25050455E+000 -0.83487298E-004
-0.35349778E-001 -0.14418013E-004
 0.29024356E+000 -0.78879820E-004
 0.23534283E+000 -0.56966415E-004
 0.00000000E+000  0.00000000E+000
 0.35431578E-001 -0.12252245E-004
-0.49514725E-001  0.10618552E-004
-0.35487383E-001 -0.29649980E-004
 0.97830198E-001 -0.10379672E-003
-0.53614962E-001 -0.29921320E-007
 0.17497800E+000  0.26548637E-004
-0.83746565E-002  0.14316540E-004
 0.25052019E+000 -0.65569394E-004
 0.29037427E+000  0.19689207E-005
 0.00000000E+000  0.00000000E+000
 0.23540212E+000 -0.77041777E-005
 0.29036980E+000  0.26309095E-004
 0.25061509E+000 -0.41220751E-004
 0.17491668E+000  0.56127741E-004
 0.23535960E+000  0.17150998E-004
 0.97960039E-001 -0.47194964E-004
-0.49514729E-001 -0.10563033E-004
 0.00000000E+000  0.00000000E+000
 0.35297580E-001  0.44699307E-004
-0.83665307E-002 -0.25161745E-004
 0.35309974E-001 -0.59583337E-004
-0.35519536E-001  0.20135134E-004
-0.35349775E-001  0.14356379E-004
-0.49345228E-001 -0.69073480E-005
 0.97956500E-001  0.37779438E-004
 0.17490780E+000 -0.74493196E-004
-0.53795345E-001  0.30751881E-007
 0.25060483E+000  0.30675160E-004
-0.85182264E-002 -0.34863849E-004
 0.29035755E+000 -0.22861420E-004
 0.23539306E+000 -0.10596286E-004
 0.00000000E+000  0.00000000E+000
-0.49345228E-001  0.68429594E-005
 0.00000000E+000  0.00000000E+000
 0.23538003E+000  0.14120882E-004
 0.29040753E+000 -0.29019531E-004
 0.25056174E+000  0.45754019E-004
 0.35435780E-001  0.35842542E-004
 0.17500355E+000 -0.48846526E-004
 0.97841456E-001  0.50014186E-004
 0.35446375E-001 -0.36220117E-004
-0.85406797E-002  0.28443166E-004
-0.35331886E-001 -0.14927518E-004
 0.97846210E-001 -0.60061935E-004
-0.35519540E-001 -0.20072768E-004
-0.49547754E-001  0.82244587E-005
 0.17499652E+000  0.49544280E-004
 0.25055876E+000 -0.47294081E-004
 0.29039877E+000  0.17735756E-004
 0.23537790E+000 -0.17747313E-005
-0.83665270E-002  0.25093841E-004
 0.00000000E+000  0.00000000E+000
-0.53594414E-001 -0.33469898E-007
 0.35297576E-001 -0.44635071E-004
-0.49547757E-001 -0.81558955E-005
 0.00000000E+000  0.00000000E+000
 0.23540613E+000 -0.18558435E-004
 0.29036837E+000  0.34496886E-004
 0.25062397E+000 -0.44732918E-004
 0.17491181E+000  0.49450347E-004
 0.97971089E-001 -0.43369793E-004
 0.35281103E-001  0.35752087E-004
 0.97960039E-001  0.47129757E-004
-0.83467504E-002 -0.22887232E-004
-0.35549391E-001  0.14818918E-004
-0.35331882E-001  0.14857116E-004
 0.17491669E+000 -0.56073680E-004
 0.25061509E+000  0.41178511E-004
-0.49319166E-001 -0.60984734E-005
 0.29036980E+000 -0.26288458E-004
 0.23540212E+000  0.76995111E-005
 0.00000000E+000  0.00000000E+000
-0.85406852E-002 -0.28372505E-004
-0.53830131E-001  0.36615659E-007
 0.35446379E-001  0.36146662E-004
-0.49319162E-001  0.60264387E-005
 0.97841456E-001 -0.49944930E-004
 0.00000000E+000  0.00000000E+000
 0.23537845E+000  0.22787378E-004
 0.29041472E+000 -0.38012276E-004
 0.25055521E+000  0.46326167E-004
 0.17501527E+000 -0.46058663E-004
 0.97827494E-001  0.40602270E-004
 0.35465851E-001 -0.29868357E-004
 0.17500355E+000  0.48787864E-004
-0.85673741E-002  0.20316123E-004
-0.35549394E-001 -0.14742605E-004
 0.25056177E+000 -0.45707507E-004
-0.35302888E-001 -0.11073131E-004
 0.29040750E+000  0.28996424E-004
 0.23538003E+000 -0.14117548E-004
 0.00000000E+000  0.00000000E+000
-0.49583256E-001  0.51492911E-005
-0.83467438E-002  0.22810565E-004
-0.53561747E-001 -0.38052554E-007
 0.35281099E-001 -0.35672343E-004
-0.49583259E-001 -0.50686421E-005
 0.97971096E-001  0.43297142E-004
 0.17491182E+000 -0.49380993E-004
 0.00000000E+000  0.00000000E+000
 0.23540937E+000 -0.26365865E-004
 0.29036238E+000  0.41551960E-004
 0.25063478E+000 -0.46525477E-004
 0.17489860E+000  0.43814015E-004
 0.97989879E-001 -0.35188546E-004
 0.25062394E+000  0.44687360E-004
 0.35256858E-001  0.25048526E-004
-0.35302881E-001  0.10994638E-004
 0.29036840E+000 -0.34467593E-004
-0.83171650E-002 -0.14961879E-004
 0.23540611E+000  0.18555347E-004
 0.00000000E+000  0.00000000E+000
-0.35584934E-001  0.79722949E-005
-0.49282152E-001 -0.30851927E-005
-0.85673816E-002 -0.20229315E-004
-0.53870014E-001  0.42510798E-007
 0.35465858E-001  0.29787142E-004
 0.97827494E-001 -0.40518465E-004
-0.49282148E-001  0.30043347E-005
 0.17501527E+000  0.45992335E-004
 0.25055524E+000 -0.46269899E-004
 0.29041472E+000  0.37987840E-004
 0.23537845E+000 -0.22780543E-004
-0.35584937E-001 -0.78827524E-005
 0.00000000E+000  0.00000000E+000
 0.00000000E+000  0.00000000E+000
 0.23537518E+000  0.29643033E-004
 0.29042249E+000 -0.44349548E-004
 0.25054353E+000  0.46628167E-004
 0.17503248E+000 -0.40216877E-004
 0.97804963E-001  0.29686090E-004
 0.35494688E-001 -0.18338079E-004
-0.86023602E-002  0.94080696E-005
-0.35263583E-001 -0.35532016E-005
-0.83171548E-002  0.14875392E-004
-0.49626260E-001  0.96103599E-006
 0.35256851E-001 -0.24954968E-004
-0.53518503E-001 -0.42801165E-007
 0.97989886E-001  0.35103999E-004
-0.49626264E-001 -0.87049340E-006
 0.17489860E+000 -0.43733729E-004
 0.25063478E+000  0.46473247E-004
 0.29036238E+000 -0.41519288E-004
 0.23540937E+000  0.26361669E-004
 0.00000000E+000  0.00000000E+000
-0.35263571E-001  0.34636889E-005
 0.00000000E+000  0.00000000E+000
 0.23541334E+000 -0.32623742E-004
 0.29035395E+000  0.46706914E-004
 0.25064885E+000 -0.45818083E-004
 0.17487850E+000  0.35935565E-004
 0.98016984E-001 -0.22741005E-004
 0.35222940E-001  0.10842830E-004
-0.82771638E-002 -0.25171216E-005
-0.35629883E-001 -0.13445529E-005
-0.86023677E-002 -0.93102971E-005
-0.49234535E-001  0.16765208E-005
 0.35494700E-001  0.18243426E-004
-0.53918950E-001  0.46235644E-007
 0.97804963E-001 -0.29590742E-004
 0.17503248E+000  0.40138445E-004
-0.49234531E-001 -0.17688574E-005
 0.25054353E+000 -0.46564742E-004
 0.29042249E+000  0.44319414E-004
 0.23537518E+000 -0.29636477E-004
 0.00000000E+000  0.00000000E+000
-0.35629894E-001  0.14432274E-005
 0.00000000E+000  0.00000000E+000
 0.23537072E+000  0.35410856E-004
 0.29043218E+000 -0.48472775E-004
 0.25052747E+000  0.44133401E-004
 0.17505624E+000 -0.30323890E-004
 0.97773201E-001  0.14586479E-004
 0.35534087E-001 -0.19372419E-005
-0.86481776E-002 -0.52854006E-005
-0.82771517E-002  0.24175240E-005
-0.35213146E-001  0.70661826E-005
-0.49679629E-001 -0.46222189E-005
 0.35222932E-001 -0.10738146E-004
-0.53464330E-001 -0.47835847E-007
 0.98016992E-001  0.22643160E-004
 0.17487850E+000 -0.35845892E-004
 0.25064885E+000  0.45753746E-004
-0.49679636E-001  0.47220528E-005
 0.29035398E+000 -0.46671026E-004
 0.23541334E+000  0.32619947E-004
 0.00000000E+000  0.00000000E+000
-0.35213135E-001 -0.71675103E-005
 0.00000000E+000  0.00000000E+000
 0.23541843E+000 -0.38050719E-004
 0.29034301E+000  0.49633759E-004
 0.25066745E+000 -0.41260889E-004
 0.17485083E+000  0.23224887E-004
 0.98054051E-001 -0.48048159E-005
 0.35177525E-001 -0.83113609E-005
-0.86481906E-002  0.53925004E-005
-0.82251746E-002  0.14205385E-004
-0.35686455E-001 -0.13454820E-004
 0.35534102E-001  0.18292668E-005
-0.49175389E-001  0.79336050E-005
 0.97773194E-001 -0.14479599E-004
-0.53978994E-001  0.52239165E-007
 0.17505624E+000  0.30230788E-004
 0.25052747E+000 -0.44063366E-004
 0.29043218E+000  0.48436428E-004
-0.49175381E-001 -0.80351228E-005
 0.23537074E+000 -0.35405795E-004
 0.00000000E+000  0.00000000E+000
-0.35686466E-001  0.13562452E-004
-0.82251606E-002 -0.14317923E-004
 0.00000000E+000  0.00000000E+000
 0.23536488E+000  0.40588896E-004
 0.29044473E+000 -0.50087386E-004
 0.25050592E+000  0.36964051E-004
 0.17508855E+000 -0.14271044E-004
 0.97730189E-001 -0.67955697E-005
 0.35586167E-001  0.20084371E-004
-0.87068937E-002 -0.24184673E-004
-0.35150159E-001  0.20517032E-004
 0.35177510E-001  0.84280100E-005
-0.49744941E-001 -0.11545744E-004
 0.98054058E-001  0.46919440E-005
-0.53398311E-001 -0.51209347E-007
 0.17485082E+000 -0.23126605E-004
 0.25066745E+000  0.41187278E-004
 0.29034304E+000 -0.49594935E-004
 0.23541843E+000  0.38045152E-004
 0.00000000E+000  0.00000000E+000
-0.49744948E-001  0.11654312E-004
-0.35150147E-001 -0.20629371E-004
-0.87069105E-002  0.24304878E-004
 0.00000000E+000  0.00000000E+000
 0.23542518E+000 -0.43062264E-004
 0.29032850E+000  0.49701262E-004
 0.25069263E+000 -0.30918366E-004
 0.17481307E+000  0.31089941E-005
 0.98103925E-001  0.20477840E-004
 0.35118043E-001 -0.33439187E-004
-0.81592146E-002  0.35211884E-004
 0.35586182E-001 -0.20205690E-004
-0.35756200E-001 -0.28163924E-004
-0.49103770E-001  0.15424646E-004
 0.97730174E-001  0.69142447E-005
 0.17508855E+000  0.14164507E-004
-0.54051168E-001  0.56039294E-007
 0.25050592E+000 -0.36885528E-004
 0.29044473E+000  0.50046004E-004
 0.23536488E+000 -0.40582432E-004
 0.00000000E+000  0.00000000E+000
-0.49103762E-001 -0.15535328E-004
-0.35756215E-001  0.28282007E-004
-0.81591960E-002 -0.35334327E-004
 0.00000000E+000  0.00000000E+000
 0.23535701E+000  0.45501856E-004
 0.29046171E+000 -0.48287722E-004
 0.25047627E+000  0.22723681E-004
 0.17513293E+000  0.10667698E-004
 0.97672320E-001 -0.36465760E-004
 0.35653933E-001  0.48414625E-004
-0.87806321E-002 -0.47181976E-004
 0.35118024E-001  0.33568881E-004
-0.35073414E-001  0.36289857E-004
 0.98103940E-001 -0.20604829E-004
-0.49822948E-001 -0.19487228E-004
 0.17481306E+000 -0.29966722E-005
 0.25069260E+000  0.30835548E-004
-0.53319975E-001 -0.56168691E-007
 0.29032850E+000 -0.49657872E-004
 0.23542518E+000  0.43057552E-004
 0.00000000E+000  0.00000000E+000
-0.49822960E-001  0.19604129E-004
-0.35073395E-001 -0.36412082E-004
-0.87806517E-002  0.47312256E-004
 0.00000000E+000  0.00000000E+000
 0.23543447E+000 -0.47923913E-004
 0.29030835E+000  0.45580149E-004
 0.25072798E+000 -0.11851983E-004
 0.17476058E+000 -0.27488735E-004
 0.98171189E-001  0.54977746E-004
 0.35653956E-001 -0.48549762E-004
 0.35041008E-001 -0.64915133E-004
-0.80772014E-002  0.59961086E-004
-0.35840108E-001 -0.44700936E-004
 0.97672306E-001  0.36599554E-004
-0.49019452E-001  0.23662019E-004
 0.17513293E+000 -0.10785883E-004
 0.25047627E+000 -0.22634307E-004
 0.29046171E+000  0.48242269E-004
-0.54135568E-001  0.59000232E-007
 0.23535703E+000 -0.45494798E-004
 0.00000000E+000  0.00000000E+000
-0.49019441E-001 -0.23782949E-004
-0.35840127E-001  0.44826050E-004
-0.80771772E-002 -0.60097969E-004
 0.35040985E-001  0.65058389E-004
 0.00000000E+000  0.00000000E+000
 0.23534597E+000  0.50355651E-004
 0.29048606E+000 -0.41135146E-004
 0.25043365E+000 -0.22409385E-005
 0.17519557E+000  0.47996803E-004
 0.97594000E-001 -0.75923751E-004
 0.35741306E-001  0.82978796E-004
-0.88714007E-002 -0.73073941E-004
 0.98171211E-001 -0.55118278E-004
-0.34982431E-001  0.53335723E-004
 0.17476056E+000  0.27614294E-004
-0.49913492E-001 -0.27737938E-004
 0.25072798E+000  0.11759108E-004
 0.29030835E+000 -0.45529388E-004
 0.23543445E+000  0.47917528E-004
 0.00000000E+000  0.00000000E+000
-0.53229946E-001 -0.60698120E-007
-0.49913503E-001  0.27859990E-004
-0.34982409E-001 -0.53470703E-004
-0.88714258E-002  0.73213661E-004
 0.35741332E-001 -0.83128070E-004
 0.00000000E+000  0.00000000E+000
 0.23544800E+000 -0.52719111E-004
 0.29027870E+000  0.34570053E-004
 0.25078040E+000  0.20715966E-004
 0.17468543E+000 -0.72222610E-004
 0.98262719E-001  0.99847937E-004
 0.34942194E-001 -0.10165243E-003
-0.79775350E-002  0.86681277E-004
 0.97593985E-001  0.76072072E-004
-0.35938281E-001 -0.61496393E-004
 0.17519558E+000 -0.48130004E-004
-0.48923484E-001  0.31792595E-004
 0.25043365E+000  0.23388001E-005
 0.29048606E+000  0.41083036E-004
 0.23534597E+000 -0.50349004E-004
 0.00000000E+000  0.00000000E+000
-0.54231174E-001  0.61687281E-007
-0.48923470E-001 -0.31922012E-004
-0.35938303E-001  0.61630482E-004
-0.79775080E-002 -0.86831438E-004
 0.34942165E-001  0.10180751E-003
 0.00000000E+000  0.00000000E+000
 0.23532944E+000  0.55080839E-004
 0.29052352E+000 -0.24707969E-004
 0.25036883E+000 -0.43998661E-004
 0.17528691E+000  0.10149233E-003
 0.97487084E-001 -0.12549919E-003
 0.98262742E-001 -0.10000466E-003
 0.35852488E-001  0.12133650E-003
-0.89804008E-002 -0.99430995E-004
 0.17468541E+000  0.72360562E-004
-0.34878034E-001  0.69443623E-004
 0.25078040E+000 -0.20822175E-004
 0.29027870E+000 -0.34516113E-004
-0.50014935E-001 -0.35346532E-004
 0.23544800E+000  0.52709576E-004
 0.00000000E+000  0.00000000E+000
-0.53130157E-001 -0.64129686E-007
-0.50014950E-001  0.35476379E-004
-0.34878011E-001 -0.69584872E-004
-0.89804343E-002  0.99583892E-004
 0.35852517E-001 -0.12150174E-003
 0.97487054E-001  0.12566153E-003
 0.00000000E+000  0.00000000E+000
 0.23546946E+000 -0.57045584E-004
 0.29023155E+000  0.11121266E-004
 0.25086304E+000  0.74729869E-004
 0.17457427E+000 -0.13437138E-003
 0.98387829E-001  0.15422565E-003
 0.34817572E-001 -0.13922656E-003
-0.78601296E-002  0.11239950E-003
 0.17528693E+000 -0.10164127E-003
-0.36049220E-001 -0.75528689E-004
 0.25036880E+000  0.44110685E-004
 0.29052352E+000  0.24649942E-004
 0.23532944E+000 -0.55077038E-004
 0.00000000E+000  0.00000000E+000
-0.48818636E-001  0.38874088E-004
-0.54335515E-001  0.65556683E-007
-0.48818625E-001 -0.39007991E-004
-0.36049250E-001  0.75674121E-004
-0.78600971E-002 -0.11255905E-003
 0.34817535E-001  0.13939652E-003
 0.98387852E-001 -0.15439830E-003
 0.00000000E+000  0.00000000E+000
 0.23530313E+000  0.59136695E-004
 0.29058760E+000  0.10297512E-004
 0.25026494E+000 -0.11044077E-003
 0.17542538E+000  0.17643709E-003
 0.97342126E-001 -0.17820700E-003
 0.17457425E+000  0.13452717E-003
 0.35990502E-001  0.16107797E-003
-0.91073252E-002 -0.11857494E-003
 0.25086304E+000 -0.74843002E-004
-0.34764602E-001  0.84113067E-004
 0.29023155E+000 -0.11060057E-004
 0.23546944E+000  0.57036344E-004
 0.00000000E+000  0.00000000E+000
-0.50125993E-001 -0.39576894E-004
-0.53026672E-001 -0.66168873E-007
-0.50126012E-001  0.39716131E-004
-0.34764576E-001 -0.84261242E-004
-0.91073643E-002  0.11873802E-003
 0.35990539E-001 -0.16125562E-003
 0.97342088E-001  0.17838862E-003
 0.17542541E+000 -0.17659967E-003
 0.00000000E+000  0.00000000E+000
 0.23550871E+000 -0.58883728E-004
 0.29015111E+000 -0.36582321E-004
 0.25100433E+000  0.16275049E-003
 0.17440734E+000 -0.21360520E-003
 0.98557315E-001  0.21091118E-003
 0.34665443E-001 -0.16984179E-003
 0.25026491E+000  0.11056616E-003
-0.77296579E-002  0.13107132E-003
 0.29058760E+000 -0.10360375E-004
 0.23530313E+000 -0.59130838E-004
 0.00000000E+000  0.00000000E+000
-0.36171618E-001 -0.84399522E-004
-0.48712555E-001  0.42764309E-004
-0.54447241E-001  0.67449782E-007
-0.48712536E-001 -0.42904481E-004
-0.36171648E-001  0.84553634E-004
-0.77296183E-002 -0.13124172E-003
 0.34665398E-001  0.17002610E-003
 0.98557353E-001 -0.21109930E-003
 0.17440731E+000  0.21377655E-003
 0.25100433E+000 -0.16287998E-003
 0.00000000E+000  0.00000000E+000
 0.23525284E+000  0.56818305E-004
 0.29070347E+000  0.75874959E-004
 0.25008001E+000 -0.22758760E-003
 0.17563100E+000  0.24959075E-003
 0.97145482E-001 -0.24530480E-003
 0.36150328E-001  0.16524012E-003
 0.29015111E+000  0.36650926E-004
 0.23550871E+000  0.58875117E-004
-0.92458343E-002 -0.15064227E-003
 0.00000000E+000  0.00000000E+000
-0.34640692E-001  0.73166724E-004
-0.50230037E-001 -0.50292317E-004
-0.52912343E-001 -0.71015996E-007
-0.50230056E-001  0.50430720E-004
-0.34640654E-001 -0.73324015E-004
-0.92458780E-002  0.15081545E-003
 0.36150377E-001 -0.16543603E-003
 0.97145445E-001  0.24550012E-003
 0.17563103E+000 -0.24977358E-003
 0.25008001E+000  0.22772424E-003
 0.29070347E+000 -0.75945594E-004
 0.00000000E+000  0.00000000E+000
 0.23556794E+000 -0.58478155E-004
 0.28996026E+000 -0.15823577E-003
 0.25122028E+000  0.25869949E-003
 0.17412243E+000 -0.35284896E-003
 0.23525284E+000 -0.56812848E-004
 0.98752237E-001  0.18162719E-003
 0.00000000E+000  0.00000000E+000
 0.34489009E-001 -0.25505744E-003
-0.75733540E-002  0.70125228E-004
-0.36257013E-001 -0.13522295E-003
-0.48554208E-001  0.14455344E-004
-0.54496414E-001  0.63795297E-007
-0.48554185E-001 -0.14612351E-004
-0.36257047E-001  0.13537479E-003
-0.75733009E-002 -0.70316440E-004
 0.34488964E-001  0.25524586E-003
 0.98752290E-001 -0.18183849E-003
 0.17412240E+000  0.35303455E-003
 0.25122028E+000 -0.25884466E-003
 0.28996026E+000  0.15831139E-003
 0.23556792E+000  0.58471356E-004
 0.00000000E+000  0.00000000E+000
 0.00000000E+000  0.00000000E+000
 0.23508989E+000  0.24867173E-004
 0.29086655E+000  0.18594891E-003
 0.24965646E+000 -0.45288313E-003
 0.17586189E+000  0.22524951E-003
 0.96868693E-001 -0.37378110E-003
 0.36328066E-001  0.53465988E-004
-0.93349283E-002 -0.24822950E-003
-0.34423492E-001 -0.86061218E-005
-0.50202321E-001 -0.87516025E-004
-0.52668157E-001 -0.84149988E-007
-0.50202336E-001  0.87635853E-004
-0.34423444E-001  0.84186849E-005
-0.93349656E-002  0.24839103E-003
 0.36328136E-001 -0.53694155E-004
 0.96868656E-001  0.37398224E-003
 0.17586193E+000 -0.22545795E-003
 0.24965645E+000  0.45302964E-003
 0.29086655E+000 -0.18602877E-003
 0.23508989E+000 -0.24859147E-004
 0.00000000E+000  0.00000000E+000
 0.00000000E+000  0.00000000E+000
 0.23564946E+000 -0.26225156E-004
 0.28943699E+000 -0.40818430E-003
 0.25151839E+000  0.37341230E-003
 0.17364946E+000 -0.45553600E-003
 0.98935678E-001  0.99727702E-004
 0.34334830E-001 -0.31024354E-003
-0.73334593E-002  0.53223802E-005
-0.36206603E-001 -0.15414145E-003
-0.48255786E-001 -0.58571013E-005
-0.54377749E-001  0.45969656E-007
-0.48255752E-001  0.56574790E-005
-0.36206625E-001  0.15425938E-003
-0.73333773E-002 -0.55544469E-005
 0.34334801E-001  0.31042238E-003
 0.98935760E-001 -0.99980941E-004
 0.17364944E+000  0.45572390E-003
 0.25151842E+000 -0.37358241E-003
 0.28943699E+000  0.40826093E-003
 0.23564946E+000  0.26213847E-004
 0.00000000E+000  0.00000000E+000
 0.00000000E+000  0.00000000E+000
 0.23467248E+000 -0.62462946E-004
 0.29130810E+000  0.52507856E-003
 0.24891927E+000 -0.54647639E-003
 0.17615164E+000  0.27357708E-003
 0.96627496E-001 -0.22385542E-003
 0.36566436E-001  0.17347866E-003
-0.93587245E-002 -0.72481125E-004
-0.34189783E-001  0.92367881E-004
-0.50151936E-001 -0.12559830E-004
-0.52439644E-001 -0.11035355E-006
-0.50151940E-001  0.12631082E-004
-0.34189704E-001 -0.92610171E-004
-0.93587376E-002  0.72613300E-004
 0.36566551E-001 -0.17375641E-003
 0.96627496E-001  0.22404394E-003
 0.17615173E+000 -0.27382813E-003
 0.24891929E+000  0.54662191E-003
 0.29130816E+000 -0.52517384E-003
 0.23467250E+000  0.62466744E-004
 0.00000000E+000  0.00000000E+000
 0.00000000E+000  0.00000000E+000
 0.23621760E+000  0.21527851E-003
 0.28846526E+000 -0.72830793E-003
 0.25228893E+000  0.61543431E-003
 0.17339900E+000 -0.26723280E-005
 0.99258385E-001  0.47170207E-003
 0.34224092E-001  0.16630320E-003
-0.72168414E-002  0.34738954E-003
-0.36366526E-001  0.15813369E-003
-0.48301082E-001  0.13816043E-003
-0.54599910E-001  0.19359452E-007
-0.48301026E-001 -0.13841247E-003
-0.36366522E-001 -0.15805847E-003
-0.72167087E-002 -0.34767744E-003
 0.34224111E-001 -0.16614931E-003
 0.99258534E-001 -0.47200973E-003
 0.17339904E+000  0.28545239E-005
 0.25228902E+000 -0.61563646E-003
 0.28846529E+000  0.72837912E-003
 0.23621764E+000 -0.21529408E-003
 0.00000000E+000  0.00000000E+000
 0.00000000E+000  0.00000000E+000
 0.23356156E+000 -0.46898322E-003
 0.29317986E+000  0.11867254E-002
 0.24858474E+000  0.60386912E-004
 0.17669652E+000  0.54105016E-003
 0.96554495E-001  0.26042087E-003
 0.36729011E-001  0.51153876E-003
-0.96286097E-002  0.35074565E-003
-0.34474190E-001  0.34691198E-003
-0.50719708E-001  0.15414788E-003
-0.52927825E-001 -0.13104884E-006
-0.50719700E-001 -0.15411186E-003
-0.34474071E-001 -0.34719347E-003
-0.96285790E-002 -0.35064065E-003
 0.36729197E-001 -0.51186583E-003
 0.96554554E-001 -0.26023920E-003
 0.17669668E+000 -0.54134969E-003
 0.24858482E+000 -0.60248101E-004
 0.29317995E+000 -0.11868366E-002
 0.23356160E+000  0.46898188E-003
 0.00000000E+000  0.00000000E+000
 0.00000000E+000  0.00000000E+000
 0.23963293E+000  0.12307574E-002
 0.28651931E+000 -0.91072346E-003
 0.25261056E+000 -0.46760484E-003
 0.17331638E+000 -0.56486949E-003
 0.99774695E-001 -0.18469589E-003
 0.34282770E-001 -0.88239619E-004
-0.72473664E-002  0.98681244E-004
-0.36829363E-001  0.10548574E-003
-0.48865400E-001  0.92674359E-004
-0.55343870E-001  0.13624942E-007
-0.48865325E-001 -0.92936490E-004
-0.36829330E-001 -0.10541656E-003
-0.72471722E-002 -0.98986150E-004
 0.34282851E-001  0.88406704E-004
 0.99774926E-001  0.18436403E-003
 0.17331650E+000  0.56507403E-003
 0.25261074E+000  0.46738542E-003
 0.28651940E+000  0.91079022E-003
 0.23963302E+000 -0.12307680E-002
 0.00000000E+000  0.00000000E+000
 0.00000000E+000  0.00000000E+000
 0.22183257E+000 -0.36476631E-002
 0.29138982E+000 -0.43343002E-002
 0.24914462E+000 -0.42791729E-002
 0.17966338E+000 -0.35691433E-002
 0.99454522E-001 -0.23557615E-002
 0.39245393E-001 -0.12422318E-002
-0.82730380E-002 -0.37297565E-003
-0.34053955E-001  0.39723006E-004
-0.51107261E-001  0.12158844E-003
-0.53505893E-001 -0.11860607E-006
-0.51107235E-001 -0.12153470E-003
-0.34053783E-001 -0.39986192E-004
-0.82729449E-002  0.37312271E-003
 0.39245672E-001  0.12419305E-002
 0.99454678E-001  0.23560149E-002
 0.17966367E+000  0.35688774E-002
 0.24914479E+000  0.42793974E-002
 0.29139000E+000  0.43342476E-002
 0.22183261E+000  0.36476636E-002
 0.00000000E+000  0.00000000E+000
 0.00000000E+000  0.00000000E+000
 0.26645660E+000 -0.12916759E-001
 0.30852839E+000 -0.12631651E-001
 0.26960954E+000 -0.10968390E-001
 0.18405799E+000 -0.71581983E-002
 0.10571251E+000 -0.43217330E-002
 0.36206077E-001 -0.18360345E-002
-0.79700797E-002 -0.54126145E-003
-0.39257273E-001  0.14510097E-003
-0.52093915E-001  0.17818137E-003
-0.58857899E-001  0.21076143E-007
-0.52093796E-001 -0.17840952E-003
-0.39257183E-001 -0.14499950E-003
-0.79697892E-002  0.54099276E-003
 0.36206278E-001  0.18362685E-002
 0.10571289E+000  0.43214494E-002
 0.18405826E+000  0.71585103E-002
 0.26960986E+000  0.10968257E-001
 0.30852854E+000  0.12631821E-001
 0.26645672E+000  0.12916860E-001
 0.00000000E+000  0.00000000E+000
