 0.00000000E+000  0.00000000E+000
 0.87429583E-001  0.00000000E+000
 0.16565604E+000  0.00000000E+000
 0.23467940E+000  0.00000000E+000
 0.29449963E+000  0.00000000E+000
 0.34511676E+000  0.00000000E+000
 0.00000000E+000  0.00000000E+000
 0.21634578E-001 -0.30837826E-001
 0.10492710E+000 -0.77864229E-001
 0.20013566E+000 -0.11200131E+000
 0.38653078E+000  0.00000000E+000
 0.28629621E+000 -0.12722365E+000
 0.35720276E+000 -0.12572081E+000
 0.41242548E+000 -0.11186344E+000
 0.41874167E+000  0.00000000E+000
 0.45344558E+000 -0.89707501E-001
 0.00000000E+000  0.00000000E+000
-0.44577077E-001 -0.77241309E-002
 0.32227892E-001 -0.21530438E-001
 0.15012300E+000 -0.38947299E-001
 0.26728710E+000 -0.52383024E-001
 0.36625045E+000 -0.58291729E-001
 0.44316270E+000 -0.56351710E-001
 0.44174945E+000  0.00000000E+000
 0.48174700E+000 -0.62299992E-001
 0.49936285E+000 -0.47796484E-001
 0.00000000E+000  0.00000000E+000
-0.56857895E-001 -0.65873272E-003
 0.12903752E-001 -0.97698054E-003
 0.13224194E+000  0.93295041E-003
 0.25622785E+000  0.24702320E-002
 0.53743600E+000 -0.34423254E-001
 0.36431080E+000  0.30261510E-002
 0.45555412E+000  0.00000000E+000
 0.44978988E+000  0.28733310E-002
 0.49835485E+000 -0.31849298E-001
 0.51286172E+000  0.22977064E-002
 0.55947589E+000 -0.17955515E-001
 0.55573159E+000  0.15795123E-002
 0.00000000E+000  0.00000000E+000
 0.46015569E+000  0.00000000E+000
-0.53027905E-001  0.25356730E-002
 0.23096609E-001  0.84079084E-002
 0.14411458E+000  0.15293229E-001
 0.26564520E+000  0.22333344E-001
 0.36862269E+000  0.27350308E-001
 0.50383824E+000  0.10585046E-007
 0.44834682E+000  0.28729535E-001
 0.50603806E+000  0.26065487E-001
 0.58054864E+000  0.79333252E-003
 0.56668531E+000 -0.25924309E-007
 0.54466360E+000  0.19672237E-001
 0.45555412E+000  0.00000000E+000
 0.49835485E+000  0.31849272E-001
 0.00000000E+000  0.00000000E+000
 0.58868026E+000  0.37561818E-007
-0.42874101E-001  0.25451497E-002
 0.38900274E-001  0.74662310E-002
 0.16231611E+000  0.14335012E-001
 0.28140655E+000  0.20975334E-001
 0.37757381E+000  0.25935150E-001
 0.56679075E+000  0.10561817E-001
 0.44757190E+000  0.27912847E-001
 0.49499315E+000  0.25917485E-001
 0.55947595E+000  0.17955560E-001
 0.52477133E+000  0.19991233E-001
 0.57398831E+000 -0.56125912E-007
 0.44174945E+000  0.00000000E+000
 0.58054864E+000 -0.79341040E-003
 0.48174703E+000  0.62300011E-001
 0.54099559E+000  0.10865235E-001
 0.00000000E+000  0.00000000E+000
-0.36235064E-001  0.10842392E-002
 0.50564952E-001  0.37820814E-002
 0.17585888E+000  0.71287434E-002
 0.29378670E+000  0.10919349E-001
 0.38547959E+000  0.14118825E-001
 0.53743594E+000  0.34423209E-001
 0.44840025E+000  0.15672976E-001
 0.48743009E+000  0.15012574E-001
 0.56679075E+000 -0.10561704E-001
 0.41874167E+000  0.00000000E+000
 0.54613506E+000  0.78484397E-007
 0.50944632E+000  0.11810730E-001
 0.55573165E+000 -0.15794347E-002
 0.45344552E+000  0.89707478E-001
 0.49936291E+000  0.47796525E-001
 0.52021956E+000  0.65190671E-002
 0.38653078E+000  0.00000000E+000
 0.54466348E+000 -0.19672341E-001
 0.54099553E+000 -0.10865382E-001
 0.00000000E+000  0.00000000E+000
-0.33686317E-001  0.24485724E-003
 0.55035557E-001  0.53812377E-003
 0.18181172E+000  0.14008363E-002
 0.41242554E+000  0.11186345E+000
 0.29991644E+000  0.24575667E-002
 0.39011663E+000  0.35650490E-002
 0.51286160E+000 -0.22977720E-002
 0.44981861E+000  0.44394000E-002
 0.48461696E+000  0.45459452E-002
 0.52340841E+000 -0.97567273E-007
 0.44316262E+000  0.56351669E-001
 0.34511676E+000  0.00000000E+000
 0.50233727E+000  0.37877047E-002
 0.35720270E+000  0.12572079E+000
 0.50603818E+000 -0.26065386E-001
 0.44979000E+000 -0.28732712E-002
 0.52477145E+000 -0.19991092E-001
 0.36625054E+000  0.58291759E-001
 0.29449963E+000  0.00000000E+000
 0.50997215E+000  0.21415383E-002
 0.28629624E+000  0.12722367E+000
 0.52021962E+000 -0.65188729E-002
 0.23467940E+000  0.00000000E+000
 0.20013561E+000  0.11200129E+000
 0.26728701E+000  0.52382990E-001
 0.16565604E+000  0.00000000E+000
 0.36431068E+000 -0.30262013E-002
 0.10492712E+000  0.77864244E-001
 0.87429583E-001  0.00000000E+000
 0.00000000E+000  0.00000000E+000
 0.00000000E+000  0.00000000E+000
-0.33797152E-001 -0.25647578E-003
 0.55327378E-001 -0.49937178E-003
 0.18265682E+000 -0.89821923E-003
 0.44834664E+000 -0.28729617E-001
 0.30131739E+000 -0.10741888E-002
 0.21634556E-001  0.30837811E-001
 0.39166668E+000 -0.10111685E-002
 0.15012307E+000  0.38947321E-001
 0.00000000E+000  0.00000000E+000
 0.51199102E+000  0.12045006E-006
 0.45091316E+000 -0.84041315E-003
 0.49499300E+000 -0.25917610E-001
 0.32227829E-001  0.21530410E-001
 0.48461091E+000 -0.51422149E-003
 0.25622797E+000 -0.24701862E-002
-0.44577047E-001  0.77241561E-002
 0.00000000E+000  0.00000000E+000
 0.50944620E+000 -0.11810908E-001
 0.50105196E+000 -0.27651165E-003
 0.13224184E+000 -0.93298550E-003
 0.36862283E+000 -0.27350237E-001
 0.12903827E-001  0.97701803E-003
-0.56857939E-001  0.65869826E-003
 0.50997209E+000 -0.21417790E-002
 0.00000000E+000  0.00000000E+000
 0.44757211E+000 -0.27912735E-001
 0.50760006E+000 -0.92332520E-004
 0.26564502E+000 -0.22333394E-001
 0.14411473E+000 -0.15293180E-001
 0.48743030E+000 -0.15012408E-001
 0.23096511E-001 -0.84079476E-002
 0.37757360E+000 -0.25935238E-001
-0.53027853E-001 -0.25356365E-002
 0.50924021E+000 -0.14894888E-006
 0.00000000E+000  0.00000000E+000
 0.00000000E+000  0.00000000E+000
-0.34438718E-001 -0.11833110E-003
 0.54412368E-001 -0.50996395E-003
 0.18185426E+000 -0.83003245E-003
 0.30087405E+000 -0.11577678E-002
 0.39169779E+000 -0.14005432E-002
 0.50233745E+000 -0.37874809E-002
 0.45133325E+000 -0.13950275E-002
 0.28140673E+000 -0.20975265E-001
 0.48532229E+000 -0.12766212E-002
 0.44840002E+000 -0.15673110E-001
 0.16231594E+000 -0.14335060E-001
 0.50180268E+000 -0.93020475E-003
 0.38900393E-001 -0.74661858E-002
 0.50760018E+000  0.92615686E-004
-0.42874157E-001 -0.25451851E-002
 0.00000000E+000  0.00000000E+000
 0.38547986E+000 -0.14118719E-001
 0.48461675E+000 -0.45461403E-002
 0.50837916E+000 -0.50519686E-003
 0.29378649E+000 -0.10919426E-001
 0.50105184E+000  0.27624290E-003
 0.17585907E+000 -0.71286857E-002
 0.50995564E+000  0.17108598E-006
 0.44981884E+000 -0.44392365E-002
 0.50564821E-001 -0.37821221E-002
-0.36235000E-001 -0.10842048E-002
 0.00000000E+000  0.00000000E+000
 0.00000000E+000  0.00000000E+000
-0.34843001E-001 -0.86654850E-004
 0.53817111E-001 -0.14021540E-003
 0.18122258E+000 -0.30748237E-003
 0.30035752E+000 -0.45272617E-003
 0.39142119E+000 -0.52482838E-003
 0.45142149E+000 -0.61225559E-003
 0.48570677E+000 -0.54015463E-003
 0.39011636E+000 -0.35651733E-002
 0.48461112E+000  0.51445589E-003
 0.50837910E+000  0.50485687E-003
 0.50253540E+000 -0.44321789E-003
 0.29991668E+000 -0.24574815E-002
 0.50923568E+000 -0.23187517E-003
 0.18181152E+000 -0.14008928E-002
 0.55035706E-001 -0.53808192E-003
 0.45091289E+000  0.84022042E-003
-0.33686384E-001 -0.24488911E-003
 0.00000000E+000  0.00000000E+000
 0.50180286E+000  0.93051686E-003
 0.51094424E+000 -0.20109241E-006
 0.39166697E+000  0.10113107E-002
 0.00000000E+000  0.00000000E+000
-0.34944023E-001  0.10243375E-004
 0.53635068E-001 -0.41208182E-004
 0.18101635E+000 -0.46268934E-004
 0.30016836E+000 -0.50475846E-004
 0.39131480E+000 -0.10280314E-003
 0.48532205E+000  0.12763486E-002
 0.30131712E+000  0.10740922E-002
 0.45137736E+000 -0.70614347E-004
 0.48585611E+000 -0.10407859E-003
 0.50923579E+000  0.23226400E-003
 0.18265703E+000  0.89827651E-003
 0.50273084E+000 -0.60667363E-004
 0.55327221E-001  0.49933459E-003
-0.33797081E-001  0.25650404E-003
 0.00000000E+000  0.00000000E+000
 0.45133352E+000  0.13952449E-002
 0.50961190E+000 -0.44959066E-004
 0.50253522E+000  0.44285834E-003
 0.39169749E+000  0.14003826E-002
 0.51125925E+000  0.22881161E-006
 0.30087432E+000  0.11578697E-002
 0.48570704E+000  0.54046855E-003
 0.18185402E+000  0.82997453E-003
 0.54412525E-001  0.50999736E-003
 0.00000000E+000  0.00000000E+000
-0.34973848E-001 -0.12290850E-004
 0.53611781E-001  0.34981698E-006
 0.18098305E+000 -0.44373841E-005
 0.30015221E+000 -0.29753911E-004
-0.34438796E-001  0.11830620E-003
 0.39127600E+000  0.80640011E-005
 0.50961178E+000  0.44516364E-004
 0.00000000E+000  0.00000000E+000
 0.45141109E+000 -0.30990329E-004
 0.48582312E+000  0.68602957E-005
 0.45142117E+000  0.61200873E-003
 0.50282287E+000 -0.15492942E-004
 0.50273108E+000  0.61074031E-004
 0.50959950E+000  0.23042553E-005
 0.39142149E+000  0.52500766E-003
 0.30035722E+000  0.45261596E-003
 0.51137953E+000 -0.25461656E-006
 0.18122282E+000  0.30753994E-003
 0.48585584E+000  0.10373111E-003
 0.53816936E-001  0.14018836E-003
-0.34842923E-001  0.86677282E-004
 0.00000000E+000  0.00000000E+000
 0.50959962E+000 -0.18069230E-005
 0.00000000E+000  0.00000000E+000
-0.34968338E-001  0.55727070E-006
 0.53588852E-001 -0.46997661E-005
 0.18098078E+000 -0.23288328E-004
 0.45137766E+000  0.70897476E-004
 0.30012604E+000  0.82585250E-006
 0.39130595E+000 -0.43150030E-004
 0.45136675E+000 -0.42037036E-005
 0.48589479E+000 -0.35256252E-004
 0.50276041E+000 -0.63693601E-005
 0.39131447E+000  0.10260845E-003
 0.50282269E+000  0.15034227E-004
 0.50969433E+000 -0.12934983E-004
 0.30016866E+000  0.50596449E-004
 0.18101610E+000  0.46216860E-004
 0.53635243E-001  0.41230414E-004
-0.34944105E-001 -0.10255364E-004
 0.48582339E+000 -0.64656933E-005
 0.00000000E+000  0.00000000E+000
 0.51130998E+000  0.28352238E-006
 0.45141077E+000  0.30685048E-004
 0.50969421E+000  0.12377895E-004
 0.00000000E+000  0.00000000E+000
-0.34988567E-001  0.34132579E-005
 0.53597185E-001 -0.10663836E-004
 0.18095120E+000  0.12388310E-004
 0.30014437E+000 -0.26888341E-004
 0.39125487E+000  0.12044529E-004
 0.45142942E+000 -0.28362641E-004
 0.39127632E+000 -0.78454022E-005
 0.48582023E+000  0.23204258E-005
 0.50286686E+000 -0.16843036E-004
 0.50276058E+000  0.68755916E-005
 0.30015188E+000  0.29630622E-004
 0.18098331E+000  0.44894391E-005
 0.50960695E+000 -0.85822608E-006
 0.53611606E-001 -0.36250978E-006
-0.34973759E-001  0.12301476E-004
 0.00000000E+000  0.00000000E+000
 0.48589450E+000  0.34826127E-004
 0.51143324E+000 -0.31751031E-006
 0.45136708E+000  0.45426486E-005
 0.50960707E+000  0.14667215E-005
 0.39130559E+000  0.42912961E-004
 0.00000000E+000  0.00000000E+000
-0.34970570E-001 -0.90954999E-005
 0.53572207E-001  0.16493395E-004
 0.18097779E+000 -0.19143075E-004
 0.30009981E+000  0.23918410E-004
 0.39131137E+000 -0.18756263E-004
 0.45134618E+000  0.17376623E-004
 0.30012637E+000 -0.69746630E-006
 0.48592260E+000 -0.10312713E-004
 0.50286668E+000  0.16283747E-004
 0.18098051E+000  0.23234775E-004
 0.50275206E+000  0.70508508E-005
 0.53589049E-001  0.47030598E-005
-0.34968420E-001 -0.56466433E-006
 0.00000000E+000  0.00000000E+000
 0.50974106E+000 -0.30773408E-005
 0.48582053E+000 -0.18444897E-005
 0.51130753E+000  0.34342863E-006
 0.45142906E+000  0.27985806E-004
 0.50974094E+000  0.24027053E-005
 0.39125525E+000 -0.11799783E-004
 0.30014404E+000  0.26747122E-004
 0.00000000E+000  0.00000000E+000
-0.34990955E-001  0.14434785E-004
 0.53604461E-001 -0.21049505E-004
 0.18093836E+000  0.25318857E-004
 0.30015632E+000 -0.22252912E-004
 0.39123347E+000  0.20826706E-004
 0.18095149E+000 -0.12351031E-004
 0.45144841E+000 -0.12290313E-004
 0.50275230E+000 -0.64405935E-005
 0.53596999E-001  0.10655063E-004
 0.48579514E+000  0.10202666E-004
-0.34988470E-001 -0.34194558E-005
 0.00000000E+000  0.00000000E+000
 0.50289660E+000 -0.36219196E-005
 0.50958240E+000  0.27941150E-005
 0.48592227E+000  0.97879337E-005
 0.51146841E+000 -0.38095379E-006
 0.45134654E+000 -0.16983762E-004
 0.39131098E+000  0.18479251E-004
 0.50958251E+000 -0.20637735E-005
 0.30010017E+000 -0.23783944E-004
 0.18097749E+000  0.19095235E-004
 0.53572408E-001 -0.16509311E-004
-0.34970667E-001  0.90937855E-005
 0.50289636E+000  0.29497487E-005
 0.00000000E+000  0.00000000E+000
 0.00000000E+000  0.00000000E+000
-0.34966018E-001 -0.18586888E-004
 0.53565908E-001  0.26819114E-004
 0.18099184E+000 -0.27682182E-004
 0.30008396E+000  0.24185346E-004
 0.39133262E+000 -0.17522292E-004
 0.45132052E+000  0.11143730E-004
 0.48594999E+000 -0.56388385E-005
 0.50271904E+000  0.25126159E-005
 0.48579546E+000 -0.96436315E-005
 0.50977247E+000 -0.87189857E-006
 0.45144802E+000  0.11852324E-004
 0.51127201E+000  0.41039771E-006
 0.39123389E+000 -0.20548692E-004
 0.50977230E+000  0.72144850E-007
 0.30015593E+000  0.22102261E-004
 0.18093866E+000 -0.25288141E-004
 0.53604256E-001  0.21061017E-004
-0.34990854E-001 -0.14442516E-004
 0.00000000E+000  0.00000000E+000
 0.50271928E+000 -0.17911573E-005
 0.00000000E+000  0.00000000E+000
-0.34994188E-001  0.22638490E-004
 0.53613703E-001 -0.31186540E-004
 0.18092511E+000  0.30590221E-004
 0.30017590E+000 -0.23595061E-004
 0.39120945E+000  0.15355824E-004
 0.45147725E+000 -0.72122320E-005
 0.48576191E+000  0.22582053E-005
 0.50293165E+000  0.42832655E-006
 0.48594963E+000  0.50259491E-005
 0.50954401E+000 -0.51571771E-006
 0.45132091E+000 -0.10684731E-004
 0.51150548E+000 -0.44388670E-006
 0.39133220E+000  0.17212601E-004
 0.30008435E+000 -0.24040264E-004
 0.50954413E+000  0.13801187E-005
 0.18099153E+000  0.27646368E-004
 0.53566124E-001 -0.26850211E-004
-0.34966118E-001  0.18599812E-004
 0.00000000E+000  0.00000000E+000
 0.50293141E+000 -0.12104180E-005
 0.00000000E+000  0.00000000E+000
-0.34961640E-001 -0.26267995E-004
 0.53556792E-001  0.35288376E-004
 0.18100750E+000 -0.32049283E-004
 0.30006235E+000  0.22719310E-004
 0.39136040E+000 -0.11421698E-004
 0.45128726E+000  0.30896057E-005
 0.48598715E+000  0.23680856E-005
 0.48576226E+000 -0.16061185E-005
 0.50267851E+000 -0.34277109E-005
 0.50981426E+000  0.23360246E-005
 0.45147684E+000  0.67119362E-005
 0.51122909E+000  0.48347965E-006
 0.39120987E+000 -0.15038157E-004
 0.30017548E+000  0.23439046E-004
 0.18092544E+000 -0.30567112E-004
 0.50981408E+000 -0.32661332E-005
 0.53613476E-001  0.31217972E-004
-0.34994084E-001 -0.22660213E-004
 0.00000000E+000  0.00000000E+000
 0.50267875E+000  0.42710330E-005
 0.00000000E+000  0.00000000E+000
-0.34998718E-001  0.29757144E-004
 0.53624372E-001 -0.38541533E-004
 0.18090799E+000  0.32882056E-004
 0.30020076E+000 -0.20085984E-004
 0.39117771E+000  0.69277357E-005
 0.45151495E+000  0.26644659E-005
 0.48598679E+000 -0.30729361E-005
 0.48571953E+000 -0.71618228E-005
 0.50297665E+000  0.72890197E-005
 0.45128771E+000 -0.25620713E-005
 0.50949692E+000 -0.41488397E-005
 0.39135995E+000  0.11087271E-004
 0.51155251E+000 -0.51771797E-006
 0.30006277E+000 -0.22560947E-004
 0.18100716E+000  0.32030140E-004
 0.53557023E-001 -0.35337921E-004
 0.50949704E+000  0.51524893E-005
-0.34961752E-001  0.26296980E-004
 0.00000000E+000  0.00000000E+000
 0.50297635E+000 -0.81909693E-005
 0.48571991E+000  0.79137389E-005
 0.00000000E+000  0.00000000E+000
-0.34956298E-001 -0.33058695E-004
 0.53545050E-001  0.41198494E-004
 0.18102726E+000 -0.32394415E-004
 0.30003416E+000  0.16187619E-004
 0.39139682E+000 -0.80862434E-006
 0.45124438E+000 -0.92379232E-005
 0.48603460E+000  0.12932202E-004
 0.50262808E+000 -0.11387352E-004
 0.45151451E+000 -0.32246939E-005
 0.50986588E+000  0.62708040E-005
 0.39117819E+000 -0.65672552E-005
 0.51117676E+000  0.55619290E-006
 0.30020034E+000  0.19929158E-004
 0.18090835E+000 -0.32869349E-004
 0.53624130E-001  0.38604222E-004
-0.34998606E-001 -0.29795430E-004
 0.00000000E+000  0.00000000E+000
 0.50986576E+000 -0.73442561E-005
 0.50262838E+000  0.12358100E-004
 0.48603421E+000 -0.13736540E-004
 0.00000000E+000  0.00000000E+000
-0.35004813E-001  0.36245630E-004
 0.53637880E-001 -0.43090782E-004
 0.18088535E+000  0.30508648E-004
 0.30023339E+000 -0.10552778E-004
 0.39113602E+000 -0.68279960E-005
 0.45156362E+000  0.16973921E-004
 0.48566636E+000 -0.19401941E-004
 0.45124486E+000  0.98351056E-005
 0.50303226E+000  0.15887153E-004
 0.50944006E+000 -0.85391275E-005
 0.39139634E+000  0.44276922E-006
 0.30003461E+000 -0.16022408E-004
 0.51160973E+000 -0.59478298E-006
 0.18102689E+000  0.32400435E-004
 0.53545299E-001 -0.41273495E-004
-0.34956406E-001  0.33105341E-004
 0.00000000E+000  0.00000000E+000
 0.50944024E+000  0.96903913E-005
 0.50303196E+000 -0.16923879E-004
 0.48566681E+000  0.20259116E-004
 0.00000000E+000  0.00000000E+000
-0.34949205E-001 -0.39337970E-004
 0.53529359E-001  0.44108033E-004
 0.18105368E+000 -0.26903901E-004
 0.29999625E+000  0.29540221E-005
 0.39144480E+000  0.16190351E-004
 0.45118927E+000 -0.25838007E-004
 0.48609384E+000  0.26523017E-004
 0.45156311E+000 -0.17604435E-004
 0.50256687E+000 -0.20689072E-004
 0.39113655E+000  0.72198140E-005
 0.50992786E+000  0.10927685E-004
 0.30023288E+000  0.10397327E-004
 0.18088574E+000 -0.30525829E-004
 0.51111459E+000  0.63708660E-006
 0.53637631E-001  0.43188374E-004
-0.35004697E-001 -0.36299341E-004
 0.00000000E+000  0.00000000E+000
 0.50992769E+000 -0.12157574E-004
 0.50256723E+000  0.21793603E-004
 0.48609337E+000 -0.27432695E-004
 0.00000000E+000  0.00000000E+000
-0.35013169E-001  0.42345633E-004
 0.53656451E-001 -0.44024338E-004
 0.18085411E+000  0.21246147E-004
 0.30027785E+000  0.69587654E-005
 0.39108070E+000 -0.27334363E-004
 0.45118981E+000  0.26506795E-004
 0.45162591E+000  0.35816981E-004
 0.48560070E+000 -0.34139131E-004
 0.50309914E+000  0.25689394E-004
 0.39144423E+000 -0.16597279E-004
 0.50937300E+000 -0.13355669E-004
 0.29999676E+000 -0.27950459E-005
 0.18105328E+000  0.26943669E-004
 0.53529623E-001 -0.44221229E-004
 0.51167672E+000 -0.67639109E-006
-0.34949325E-001  0.39395552E-004
 0.00000000E+000  0.00000000E+000
 0.50937318E+000  0.14669923E-004
 0.50309878E+000 -0.26865947E-004
 0.48560118E+000  0.35108227E-004
 0.45162534E+000 -0.36524434E-004
 0.00000000E+000  0.00000000E+000
-0.34939162E-001 -0.45266984E-004
 0.53507018E-001  0.42540141E-004
 0.18109121E+000 -0.13039160E-004
 0.29994359E+000 -0.19457818E-004
 0.39150884E+000  0.40340299E-004
 0.45111900E+000 -0.46690667E-004
 0.48616626E+000  0.42085066E-004
 0.39108127E+000  0.27753776E-004
 0.50249439E+000 -0.30698953E-004
 0.30027732E+000 -0.71059153E-005
 0.50999981E+000  0.15755604E-004
 0.18085452E+000 -0.21301581E-004
 0.53656175E-001  0.44155374E-004
-0.35013046E-001 -0.42423398E-004
 0.00000000E+000  0.00000000E+000
 0.51104289E+000  0.72739567E-006
 0.50999963E+000 -0.17148760E-004
 0.50249475E+000  0.31954230E-004
 0.48616579E+000 -0.43111795E-004
 0.45111960E+000  0.47436569E-004
 0.00000000E+000  0.00000000E+000
-0.35025425E-001  0.48027755E-004
 0.53683925E-001 -0.39187201E-004
 0.18080835E+000  0.17512342E-005
 0.30034080E+000  0.34919892E-004
 0.39100641E+000 -0.55026855E-004
 0.45170497E+000  0.58262485E-004
 0.48552122E+000 -0.49982274E-004
 0.39150822E+000 -0.40775070E-004
 0.50317716E+000  0.35567922E-004
 0.29994416E+000  0.19596312E-004
 0.50929641E+000 -0.17981814E-004
 0.18109078E+000  0.13117726E-004
 0.53507301E-001 -0.42689880E-004
-0.34939296E-001  0.45348824E-004
 0.00000000E+000  0.00000000E+000
 0.51175266E+000 -0.76652992E-006
 0.50929659E+000  0.19473929E-004
 0.50317674E+000 -0.36897708E-004
 0.48552176E+000  0.51074915E-004
 0.45170438E+000 -0.59042358E-004
 0.00000000E+000  0.00000000E+000
-0.34923814E-001 -0.50476199E-004
 0.53472612E-001  0.33378732E-004
 0.18114805E+000  0.13481803E-004
 0.29986780E+000 -0.53372219E-004
 0.39159518E+000  0.71331080E-004
 0.39100703E+000  0.55473530E-004
 0.45103034E+000 -0.69841829E-004
 0.48625275E+000  0.57666500E-004
 0.30034023E+000 -0.35048677E-004
 0.50241106E+000 -0.39882448E-004
 0.18080879E+000 -0.18505558E-005
 0.53683627E-001  0.39366263E-004
 0.51008045E+000  0.20005201E-004
-0.35025287E-001 -0.48129269E-004
 0.00000000E+000  0.00000000E+000
 0.51096308E+000  0.82339880E-006
 0.51008021E+000 -0.21581287E-004
 0.50241148E+000  0.41295985E-004
 0.48625218E+000 -0.58816360E-004
 0.45103099E+000  0.70664245E-004
 0.39159452E+000 -0.71787930E-004
 0.00000000E+000  0.00000000E+000
-0.35044953E-001  0.52429724E-004
 0.53728312E-001 -0.23951261E-004
 0.18073694E+000 -0.33170377E-004
 0.30043295E+000  0.75367839E-004
 0.39090621E+000 -0.88096734E-004
 0.45180374E+000  0.81384605E-004
 0.48542776E+000 -0.64104759E-004
 0.29986840E+000  0.53490344E-004
 0.50326490E+000  0.43752843E-004
 0.18114757E+000 -0.13356561E-004
 0.53472932E-001 -0.33576143E-004
-0.34923952E-001  0.50602982E-004
 0.00000000E+000  0.00000000E+000
 0.50921201E+000 -0.21458554E-004
 0.51183533E+000 -0.86900877E-006
 0.50921225E+000  0.23140430E-004
 0.50326448E+000 -0.45251341E-004
 0.48542836E+000  0.65317741E-004
 0.45180308E+000 -0.82243459E-004
 0.39090690E+000  0.88564120E-004
 0.00000000E+000  0.00000000E+000
-0.34897781E-001 -0.53234209E-004
 0.53414706E-001  0.99973585E-005
 0.18124002E+000  0.59203357E-004
 0.29975578E+000 -0.99302822E-004
 0.39171123E+000  0.10584463E-003
 0.30043232E+000 -0.75470474E-004
 0.45092114E+000 -0.90522538E-004
 0.48635226E+000  0.70100650E-004
 0.18073745E+000  0.33020543E-004
 0.50231885E+000 -0.45865472E-004
 0.53727991E-001  0.24180968E-004
-0.35044804E-001 -0.52574152E-004
 0.00000000E+000  0.00000000E+000
 0.51016682E+000  0.22730881E-004
 0.51087749E+000  0.92402865E-006
 0.51016658E+000 -0.24516388E-004
 0.50231927E+000  0.47450175E-004
 0.48635163E+000 -0.71382521E-004
 0.45092186E+000  0.91413807E-004
 0.39171051E+000 -0.10632252E-003
 0.29975643E+000  0.99391683E-004
 0.00000000E+000  0.00000000E+000
-0.35079456E-001  0.52421484E-004
 0.53807951E-001  0.11824570E-004
 0.18061876E+000 -0.90261244E-004
 0.30057081E+000  0.12722192E-003
 0.39077332E+000 -0.11962729E-003
 0.45192262E+000  0.99722805E-004
 0.18123950E+000 -0.59025554E-004
 0.48532196E+000 -0.72009504E-004
 0.53415045E-001 -0.10265032E-004
-0.34897930E-001  0.53393396E-004
 0.00000000E+000  0.00000000E+000
 0.50335890E+000  0.48136513E-004
 0.50912261E+000 -0.22465013E-004
 0.51192051E+000 -0.98507177E-006
 0.50912284E+000  0.24351102E-004
 0.50335842E+000 -0.49819936E-004
 0.48532262E+000  0.73349518E-004
 0.45192191E+000 -0.10065903E-003
 0.39077410E+000  0.12010975E-003
 0.30057010E+000 -0.12729559E-003
 0.18061929E+000  0.90049128E-004
 0.00000000E+000  0.00000000E+000
-0.34847173E-001 -0.47362897E-004
 0.53306765E-001 -0.41733332E-004
 0.18139809E+000  0.13155180E-003
 0.29958963E+000 -0.15064826E-003
 0.39186218E+000  0.13468386E-003
 0.45079278E+000 -0.10065690E-003
 0.53807605E-001 -0.11519920E-004
-0.35079304E-001 -0.52607098E-004
 0.48646056E+000  0.75532057E-004
 0.00000000E+000  0.00000000E+000
 0.50222074E+000 -0.45581597E-004
 0.51025354E+000  0.22985246E-004
 0.51078915E+000  0.10405714E-005
 0.51025325E+000 -0.24996201E-004
 0.50222128E+000  0.47345427E-004
 0.48645988E+000 -0.76957898E-004
 0.45079356E+000  0.10161915E-003
 0.39186140E+000 -0.13517838E-003
 0.29959037E+000  0.15070168E-003
 0.18139754E+000 -0.13130082E-003
 0.53307127E-001  0.41384515E-004
 0.00000000E+000  0.00000000E+000
-0.35149782E-001  0.36895478E-004
 0.53968407E-001  0.89612418E-004
 0.18041427E+000 -0.17240128E-003
 0.30077379E+000  0.17855687E-003
-0.34847326E-001  0.47560599E-004
 0.39060693E+000 -0.13433220E-003
 0.00000000E+000  0.00000000E+000
 0.45205649E+000  0.10636720E-003
 0.48520788E+000 -0.67911969E-004
 0.50345212E+000  0.46797460E-004
 0.50903129E+000 -0.19468170E-004
 0.51200133E+000 -0.11100536E-005
 0.50903159E+000  0.21583624E-004
 0.50345158E+000 -0.48677655E-004
 0.48520860E+000  0.69383670E-004
 0.45205569E+000 -0.10738562E-003
 0.39060780E+000  0.13482240E-003
 0.30077305E+000 -0.17859309E-003
 0.18041487E+000  0.17210227E-003
 0.53968049E-001 -0.89225082E-004
-0.35149622E-001 -0.37120491E-004
 0.00000000E+000  0.00000000E+000
 0.00000000E+000  0.00000000E+000
-0.34729436E-001 -0.10396283E-004
 0.53081728E-001 -0.14855068E-003
 0.18167923E+000  0.22846971E-003
 0.29935762E+000 -0.17908378E-003
 0.39204242E+000  0.14516005E-003
 0.45065182E+000 -0.87760941E-004
 0.48656818E+000  0.72970455E-004
 0.50211983E+000 -0.33646163E-004
 0.51033055E+000  0.21285210E-004
 0.51069921E+000  0.11638428E-005
 0.51033025E+000 -0.23549937E-004
 0.50212037E+000  0.35608780E-004
 0.48656743E+000 -0.74536837E-004
 0.45065265E+000  0.88790970E-004
 0.39204159E+000 -0.14567488E-003
 0.29935842E+000  0.17908129E-003
 0.18167863E+000 -0.22812675E-003
 0.53082108E-001  0.14810552E-003
-0.34729596E-001  0.10637052E-004
 0.00000000E+000  0.00000000E+000
 0.00000000E+000  0.00000000E+000
-0.35322625E-001 -0.35254262E-004
 0.54337739E-001  0.25004110E-003
 0.18007089E+000 -0.24251158E-003
 0.30104762E+000  0.20509024E-003
 0.39042398E+000 -0.98734628E-004
 0.45219203E+000  0.11028041E-003
 0.48508715E+000 -0.32801603E-004
 0.50352627E+000  0.48061585E-004
 0.50893169E+000 -0.62417984E-005
 0.51205819E+000 -0.12560336E-005
 0.50893205E+000  0.85981173E-005
 0.50352567E+000 -0.50160993E-004
 0.48508793E+000  0.34407388E-004
 0.45219117E+000 -0.11138371E-003
 0.39042487E+000  0.99222525E-004
 0.30104684E+000 -0.20507676E-003
 0.18007153E+000  0.24210647E-003
 0.54337363E-001 -0.24955256E-003
-0.35322446E-001  0.34989123E-004
 0.00000000E+000  0.00000000E+000
 0.00000000E+000  0.00000000E+000
-0.34371547E-001  0.15365360E-003
 0.52579995E-001 -0.31593051E-003
 0.18216747E+000  0.31441883E-003
 0.29911220E+000 -0.89859793E-004
 0.39223629E+000  0.17643271E-003
 0.45050078E+000  0.49304385E-005
 0.48664021E+000  0.10054754E-003
 0.50199121E+000  0.21969781E-004
 0.51035177E+000  0.33339070E-004
 0.51057273E+000  0.12971190E-005
 0.51035147E+000 -0.35895616E-004
 0.50199180E+000 -0.19819872E-004
 0.48663941E+000 -0.10228296E-003
 0.45050173E+000 -0.38493167E-005
 0.39223536E+000 -0.17696761E-003
 0.29911306E+000  0.89790199E-004
 0.18216684E+000 -0.31397509E-003
 0.52580427E-001  0.31538191E-003
-0.34371707E-001 -0.15335311E-003
 0.00000000E+000  0.00000000E+000
 0.00000000E+000  0.00000000E+000
-0.35849239E-001 -0.33501375E-003
 0.55324859E-001  0.50010182E-003
 0.17970237E+000 -0.77245727E-004
 0.30137905E+000  0.27925241E-003
 0.39025911E+000  0.11590011E-003
 0.45228734E+000  0.22818970E-003
 0.48491162E+000  0.14772570E-003
 0.50347954E+000  0.13652954E-003
 0.50871717E+000  0.63164989E-004
 0.51196336E+000 -0.14298735E-005
 0.50871753E+000 -0.60566213E-004
 0.50347894E+000 -0.13889309E-003
 0.48491248E+000 -0.14601745E-003
 0.45228642E+000 -0.22938694E-003
 0.39026010E+000 -0.11543336E-003
 0.30137825E+000 -0.27920759E-003
 0.17970311E+000  0.76713375E-004
 0.55324476E-001 -0.49950252E-003
-0.35849031E-001  0.33466808E-003
 0.00000000E+000  0.00000000E+000
 0.00000000E+000  0.00000000E+000
-0.32875612E-001  0.88409625E-003
 0.51588382E-001 -0.13415771E-003
 0.18280680E+000  0.38357134E-003
 0.29906880E+000  0.34463600E-003
 0.39249712E+000  0.50449901E-003
 0.45032232E+000  0.47724298E-003
 0.48650965E+000  0.41507481E-003
 0.50160729E+000  0.30577107E-003
 0.51002490E+000  0.15523194E-003
 0.51011556E+000  0.14292297E-005
 0.51002454E+000 -0.15814928E-003
 0.50160801E+000 -0.30345839E-003
 0.48650884E+000 -0.41700134E-003
 0.45032334E+000 -0.47615298E-003
 0.39249622E+000 -0.50507189E-003
 0.29906979E+000 -0.34477617E-003
 0.18280617E+000 -0.38305253E-003
 0.51588904E-001  0.13344736E-003
-0.32875765E-001 -0.88369712E-003
 0.00000000E+000  0.00000000E+000
 0.00000000E+000  0.00000000E+000
-0.38093868E-001 -0.14812789E-002
 0.57905763E-001  0.17503902E-003
 0.18077959E+000  0.94650959E-003
 0.30236020E+000  0.12996057E-002
 0.39022901E+000  0.14094200E-002
 0.45202216E+000  0.11978347E-002
 0.48419156E+000  0.10070094E-002
 0.50270205E+000  0.65380206E-003
 0.50775426E+000  0.35164147E-003
 0.51106017E+000 -0.16387098E-005
 0.50775468E+000 -0.34880702E-003
 0.50270140E+000 -0.65647467E-003
 0.48419252E+000 -0.10052504E-002
 0.45202127E+000 -0.11991580E-002
 0.39023011E+000 -0.14090379E-002
 0.30235946E+000 -0.12996004E-002
 0.18078052E+000 -0.94714184E-003
 0.57905405E-001 -0.17426868E-003
-0.38093596E-001  0.14807754E-002
 0.00000000E+000  0.00000000E+000
 0.00000000E+000  0.00000000E+000
-0.23506294E-001  0.31210994E-002
 0.53821545E-001  0.38262412E-002
 0.18328577E+000  0.30525801E-002
 0.29780057E+000  0.28559975E-002
 0.39099586E+000  0.21386386E-002
 0.44853660E+000  0.17976515E-002
 0.48489966E+000  0.11623071E-002
 0.50003790E+000  0.79772045E-003
 0.50863027E+000  0.34356824E-003
 0.50869983E+000  0.15643580E-005
 0.50862991E+000 -0.34685514E-003
 0.50003862E+000 -0.79528056E-003
 0.48489883E+000 -0.11643931E-002
 0.44853767E+000 -0.17966972E-002
 0.39099496E+000 -0.21392528E-002
 0.29780161E+000 -0.28564147E-002
 0.18328519E+000 -0.30521661E-002
 0.53822327E-001 -0.38272486E-002
-0.23506343E-001 -0.31206868E-002
 0.00000000E+000  0.00000000E+000
 0.00000000E+000  0.00000000E+000
-0.57157438E-001  0.87455119E-002
 0.44907882E-001  0.83868820E-002
 0.17417104E+000  0.74498066E-002
 0.30094769E+000  0.41463440E-002
 0.39105930E+000  0.22391090E-002
 0.45356592E+000  0.48131673E-003
 0.48541739E+000 -0.39556660E-004
 0.50346249E+000 -0.38699342E-003
 0.50805854E+000 -0.20886711E-003
 0.51124358E+000 -0.18462804E-005
 0.50805896E+000  0.21200733E-003
 0.50346183E+000  0.38400801E-003
 0.48541831E+000  0.41434268E-004
 0.45356500E+000 -0.48282081E-003
 0.39106032E+000 -0.22387532E-002
 0.30094680E+000 -0.41466136E-002
 0.17417185E+000 -0.74507035E-002
 0.44907253E-001 -0.83864070E-002
-0.57156875E-001 -0.87470579E-002
 0.00000000E+000  0.00000000E+000
