 0.10000000E+001
 0.10000000E+001
 0.20000000E+001
 0.30000000E+001
 0.40000000E+001
 0.50000000E+001
 0.60000000E+001
 0.70000000E+001
 0.80000000E+001
 0.90000000E+001
 0.10000000E+002
 0.11000000E+002
 0.12000000E+002
 0.13000000E+002
 0.14000000E+002
 0.15000000E+002
 0.16000000E+002
 0.17000000E+002
 0.18000000E+002
 0.19000000E+002
 0.20000000E+002
 0.21000000E+002
 0.22000000E+002
 0.23000000E+002
 0.24000000E+002
 0.25000000E+002
 0.26000000E+002
 0.27000000E+002
 0.28000000E+002
 0.29000000E+002
 0.30000000E+002
 0.31000000E+002
 0.32000000E+002
 0.33000000E+002
 0.34000000E+002
 0.35000000E+002
 0.36000000E+002
 0.37000000E+002
 0.38000000E+002
 0.39000000E+002
 0.40000000E+002
 0.40000000E+002
 0.41000000E+002
 0.80000000E+002
 0.81000000E+002
 0.12000000E+003
 0.12100000E+003
 0.16000000E+003
 0.16100000E+003
 0.20000000E+003
 0.20100000E+003
 0.24000000E+003
 0.24100000E+003
 0.28000000E+003
 0.28100000E+003
 0.32000000E+003
 0.32100000E+003
 0.36000000E+003
 0.36100000E+003
 0.40000000E+003
 0.40100000E+003
 0.44000000E+003
 0.44100000E+003
 0.48000000E+003
 0.48100000E+003
 0.52000000E+003
 0.52100000E+003
 0.56000000E+003
 0.56100000E+003
 0.60000000E+003
 0.60100000E+003
 0.64000000E+003
 0.64100000E+003
 0.68000000E+003
 0.68100000E+003
 0.72000000E+003
 0.72100000E+003
 0.76000000E+003
 0.76100000E+003
 0.76100000E+003
 0.76200000E+003
 0.76300000E+003
 0.76400000E+003
 0.76500000E+003
 0.76600000E+003
 0.76700000E+003
 0.76800000E+003
 0.76900000E+003
 0.77000000E+003
 0.77100000E+003
 0.77200000E+003
 0.77300000E+003
 0.77400000E+003
 0.77500000E+003
 0.77600000E+003
 0.77700000E+003
 0.77800000E+003
 0.77900000E+003
 0.78000000E+003
 0.78100000E+003
 0.78200000E+003
 0.78300000E+003
 0.78400000E+003
 0.78500000E+003
 0.78600000E+003
 0.78700000E+003
 0.78800000E+003
 0.78900000E+003
 0.79000000E+003
 0.79100000E+003
 0.79200000E+003
 0.79300000E+003
 0.79400000E+003
 0.79500000E+003
 0.79600000E+003
 0.79700000E+003
 0.79800000E+003
 0.79900000E+003
 0.80000000E+003
 0.80000000E+003
