 0.00000000E+000  0.00000000E+000
-0.20052787E+000 -0.00000000E+000
-0.37994757E+000 -0.00000000E+000
-0.53825902E+000 -0.00000000E+000
-0.67546236E+000 -0.00000000E+000
-0.79155743E+000 -0.00000000E+000
 0.00000000E+000  0.00000000E+000
-0.28445422E+000 -0.39059601E-001
-0.49344453E+000 -0.11274674E+000
-0.63813841E+000 -0.18965831E+000
-0.88654434E+000 -0.00000000E+000
-0.73667985E+000 -0.24801163E+000
-0.80303013E+000 -0.27611657E+000
-0.84824633E+000 -0.27030813E+000
-0.96042299E+000 -0.00000000E+000
-0.87932533E+000 -0.23293943E+000
 0.00000000E+000  0.00000000E+000
-0.38690903E+000 -0.14679687E-001
-0.62406194E+000 -0.38521803E-001
-0.75360155E+000 -0.62542662E-001
-0.80893337E+000 -0.80862820E-001
-0.82081979E+000 -0.89635670E-001
-0.81112986E+000 -0.87906666E-001
-0.10131934E+001 -0.00000000E+000
-0.90015459E+000 -0.17000626E+000
-0.79452538E+000 -0.76105415E-001
 0.00000000E+000  0.00000000E+000
-0.41584503E+000 -0.24561423E-002
-0.66815006E+000 -0.95008155E-002
-0.79280048E+000 -0.19007008E-001
-0.83427917E+000 -0.26494843E-001
-0.77917861E+000 -0.55876277E-001
-0.82765537E+000 -0.30589634E-001
-0.10448558E+001 -0.00000000E+000
-0.79956257E+000 -0.30455548E-001
-0.91236627E+000 -0.89461527E-001
-0.76665443E+000 -0.26538886E-001
-0.76901936E+000 -0.29533272E-001
-0.73869681E+000 -0.19479805E-001
 0.00000000E+000  0.00000000E+000
-0.10554099E+001 -0.00000000E+000
-0.42384615E+000 -0.15822207E-002
-0.67964738E+000 -0.27842093E-002
-0.80457663E+000 -0.28490351E-002
-0.84152728E+000 -0.30463775E-002
-0.82958239E+000 -0.26538677E-002
-0.91641038E+000  0.30444436E-007
-0.79600834E+000 -0.21575379E-002
-0.75872081E+000 -0.14840427E-002
-0.72055727E+000 -0.10295673E-001
-0.76553177E+000 -0.66104099E-007
-0.72755998E+000 -0.91483735E-003
-0.10448558E+001 -0.00000000E+000
-0.91236627E+000  0.89461468E-001
 0.00000000E+000  0.00000000E+000
-0.71431577E+000  0.10546855E-006
-0.42509981E+000  0.63863495E-003
-0.68002814E+000  0.11385221E-002
-0.80341154E+000  0.15207327E-002
-0.84015882E+000  0.27016506E-002
-0.82791113E+000  0.35070546E-002
-0.70750546E+000 -0.40992596E-003
-0.79492688E+000  0.40993238E-002
-0.75846219E+000  0.39473967E-002
-0.76901930E+000  0.29533402E-001
-0.72831517E+000  0.31734248E-002
-0.70064604E+000 -0.14740528E-006
-0.10131934E+001 -0.00000000E+000
-0.72055733E+000  0.10295464E-001
-0.90015453E+000  0.17000631E+000
-0.70903629E+000  0.17478228E-002
 0.00000000E+000  0.00000000E+000
-0.42382284E+000  0.88947854E-005
-0.67834734E+000  0.64094166E-003
-0.80141836E+000  0.17039898E-002
-0.83779197E+000  0.22685069E-002
-0.82637804E+000  0.30177929E-002
-0.77917867E+000  0.55876150E-001
-0.79445987E+000  0.32184959E-002
-0.75957220E+000  0.31104963E-002
-0.70750540E+000  0.41021683E-003
-0.96042299E+000 -0.00000000E+000
-0.70245504E+000  0.18986216E-006
-0.73088252E+000  0.24068087E-002
-0.73869669E+000  0.19480008E-001
-0.87932538E+000  0.23293939E+000
-0.79452526E+000  0.76105535E-001
-0.71269118E+000  0.13409578E-002
-0.88654434E+000 -0.00000000E+000
-0.72756010E+000  0.91455469E-003
-0.70903640E+000 -0.17482003E-002
 0.00000000E+000  0.00000000E+000
-0.42339506E+000  0.16963432E-003
-0.67707073E+000  0.26048542E-003
-0.79992145E+000  0.30407789E-003
-0.84824627E+000  0.27030819E+000
-0.83664637E+000  0.78819564E-003
-0.82545417E+000  0.86477241E-003
-0.76665461E+000  0.26538692E-001
-0.79433447E+000  0.10843812E-002
-0.76021736E+000  0.98103366E-003
-0.70651239E+000 -0.23491932E-006
-0.81113004E+000  0.87906546E-001
-0.79155743E+000 -0.00000000E+000
-0.73239213E+000  0.82327326E-003
-0.80303025E+000  0.27611654E+000
-0.75872057E+000  0.14843113E-002
-0.79956233E+000  0.30455730E-001
-0.72831499E+000 -0.31730607E-002
-0.82081961E+000  0.89635781E-001
-0.67546236E+000 -0.00000000E+000
-0.71479982E+000  0.43884202E-003
-0.73667973E+000  0.24801169E+000
-0.71269112E+000 -0.13404950E-002
-0.53825902E+000 -0.00000000E+000
-0.63813853E+000  0.18965826E+000
-0.80893355E+000  0.80862723E-001
-0.37994757E+000 -0.00000000E+000
-0.82765561E+000  0.30589466E-001
-0.49344444E+000  0.11274679E+000
-0.20052787E+000 -0.00000000E+000
 0.00000000E+000  0.00000000E+000
 0.00000000E+000  0.00000000E+000
-0.42327252E+000 -0.10181300E-003
-0.67702966E+000 -0.15146583E-003
-0.79970639E+000 -0.88077918E-004
-0.79600858E+000  0.21572867E-002
-0.83626675E+000 -0.33400859E-003
-0.28445428E+000  0.39059557E-001
-0.82528668E+000 -0.19151935E-003
-0.75360137E+000  0.62542758E-001
 0.00000000E+000  0.00000000E+000
-0.70885014E+000  0.27960723E-006
-0.79418057E+000 -0.28417093E-003
-0.75846242E+000 -0.39477422E-002
-0.62406212E+000  0.38521721E-001
-0.76032388E+000 -0.15932414E-003
-0.83427894E+000  0.26494992E-001
-0.38690894E+000  0.14679755E-001
 0.00000000E+000  0.00000000E+000
-0.73088270E+000 -0.24072586E-002
-0.73266029E+000 -0.15322501E-003
-0.79280072E+000  0.19006876E-001
-0.82958209E+000  0.26540930E-002
-0.66814982E+000  0.95009226E-002
-0.41584518E+000  0.24560634E-002
-0.71479988E+000 -0.43939476E-003
 0.00000000E+000  0.00000000E+000
-0.79492658E+000 -0.40990049E-002
-0.71525353E+000 -0.56444681E-004
-0.84152764E+000  0.30461777E-002
-0.80457633E+000  0.28492014E-002
-0.75957196E+000 -0.31100732E-002
-0.67964762E+000  0.27840773E-002
-0.82791143E+000 -0.35073417E-002
-0.42384600E+000  0.15823012E-002
-0.70935040E+000 -0.32508859E-006
 0.00000000E+000  0.00000000E+000
 0.00000000E+000  0.00000000E+000
-0.42351359E+000 -0.33588072E-004
-0.67720794E+000 -0.14192136E-003
-0.79994034E+000 -0.37939942E-003
-0.83648943E+000 -0.31471703E-003
-0.82527744E+000 -0.54368114E-003
-0.73239195E+000 -0.82273961E-003
-0.79416143E+000 -0.43709759E-003
-0.84015846E+000 -0.27014035E-002
-0.76012367E+000 -0.47589509E-003
-0.79446017E+000 -0.32188855E-002
-0.80341190E+000 -0.15209352E-002
-0.73243266E+000 -0.30846262E-003
-0.68002784E+000 -0.11383738E-002
-0.71525341E+000  0.57087218E-004
-0.42509999E+000 -0.63871778E-003
 0.00000000E+000  0.00000000E+000
-0.82637768E+000 -0.30174464E-002
-0.76021766E+000 -0.98153704E-003
-0.71494007E+000 -0.18972691E-003
-0.83779233E+000 -0.22688026E-002
-0.73266053E+000  0.15260466E-003
-0.80141800E+000 -0.17037553E-002
-0.70905011E+000  0.37065436E-006
-0.79433411E+000 -0.10839215E-002
-0.67834764E+000 -0.64110645E-003
-0.42382270E+000 -0.88149063E-005
 0.00000000E+000  0.00000000E+000
 0.00000000E+000  0.00000000E+000
-0.42366006E+000 -0.35060798E-004
-0.67750918E+000 -0.12383835E-003
-0.80018383E+000 -0.97742107E-004
-0.83664357E+000 -0.32520815E-003
-0.82542496E+000 -0.21446406E-003
-0.79408735E+000 -0.35265099E-003
-0.76000058E+000 -0.23232678E-003
-0.82545459E+000 -0.86517981E-003
-0.76032358E+000  0.15990668E-003
-0.71494013E+000  0.18899179E-003
-0.73213267E+000 -0.23216020E-003
-0.83664596E+000 -0.78785378E-003
-0.71461552E+000 -0.99493918E-004
-0.79992187E+000 -0.30434253E-003
-0.67707043E+000 -0.26030832E-003
-0.79418092E+000  0.28363813E-003
-0.42339524E+000 -0.16971099E-003
 0.00000000E+000  0.00000000E+000
-0.73243248E+000  0.30916844E-003
-0.70865124E+000 -0.41896532E-006
-0.82528626E+000  0.19198576E-003
 0.00000000E+000  0.00000000E+000
-0.42374825E+000 -0.19393470E-004
-0.67760545E+000  0.33036731E-005
-0.80032312E+000 -0.12539485E-003
-0.83677423E+000 -0.12653841E-005
-0.82543194E+000 -0.17031368E-003
-0.76012396E+000  0.47523024E-003
-0.83626717E+000  0.33362078E-003
-0.79412168E+000 -0.45769989E-004
-0.75988149E+000 -0.13473157E-003
-0.71461540E+000  0.10031718E-003
-0.79970604E+000  0.88372013E-004
-0.73203116E+000 -0.44572891E-004
-0.67702996E+000  0.15127958E-003
-0.42327234E+000  0.10188657E-003
 0.00000000E+000  0.00000000E+000
-0.79416108E+000  0.43770018E-003
-0.71440058E+000 -0.51862141E-004
-0.73213285E+000  0.23136180E-003
-0.82527786E+000  0.54315390E-003
-0.70848923E+000  0.46352752E-006
-0.83648896E+000  0.31514704E-003
-0.76000022E+000  0.23306981E-003
-0.79994076E+000  0.37907803E-003
-0.67720758E+000  0.14211604E-003
 0.00000000E+000  0.00000000E+000
-0.42377075E+000  0.16423577E-004
-0.67765563E+000 -0.45690983E-004
-0.80035954E+000  0.55909415E-004
-0.83678299E+000 -0.91836984E-004
-0.42351377E+000  0.33520220E-004
-0.82548964E+000  0.54640491E-004
-0.71440070E+000  0.50939703E-004
 0.00000000E+000  0.00000000E+000
-0.79407072E+000 -0.75959484E-004
-0.75990563E+000  0.26498597E-004
-0.79408770E+000  0.35197421E-003
-0.73194223E+000 -0.39866154E-004
-0.73203092E+000  0.45453656E-004
-0.71439325E+000  0.72956640E-005
-0.82542455E+000  0.21504629E-003
-0.83664405E+000  0.32473291E-003
-0.70838409E+000 -0.51319500E-006
-0.80018341E+000  0.98085423E-004
-0.75988185E+000  0.13390113E-003
-0.67750954E+000  0.12363342E-003
-0.42365986E+000  0.35122171E-004
 0.00000000E+000  0.00000000E+000
-0.71439313E+000 -0.62870340E-005
 0.00000000E+000  0.00000000E+000
-0.42376759E+000 -0.24604194E-004
-0.67766046E+000  0.45859596E-004
-0.80036199E+000 -0.66573775E-004
-0.79412126E+000  0.46512235E-004
-0.83681136E+000  0.74905190E-004
-0.82545042E+000 -0.71957299E-004
-0.79412168E+000  0.57696870E-004
-0.75984472E+000 -0.43825344E-004
-0.73199552E+000  0.27828518E-004
-0.82543236E+000  0.16967048E-003
-0.73194247E+000  0.38888338E-004
-0.71432369E+000 -0.14244929E-004
-0.83677375E+000  0.17799429E-005
-0.80032354E+000  0.12502515E-003
-0.67760515E+000 -0.30974847E-005
-0.42374846E+000  0.19331911E-004
-0.75990527E+000 -0.25593824E-004
 0.00000000E+000  0.00000000E+000
-0.70843744E+000  0.56036054E-006
-0.79407119E+000  0.75140167E-004
-0.71432381E+000  0.13135412E-004
 0.00000000E+000  0.00000000E+000
-0.42377862E+000  0.29679027E-004
-0.67765235E+000 -0.51226747E-004
-0.80037474E+000  0.67505512E-004
-0.83678436E+000 -0.74907853E-004
-0.82549583E+000  0.69852452E-004
-0.79406255E+000 -0.58519039E-004
-0.82548916E+000 -0.53945008E-004
-0.75991284E+000  0.42659317E-004
-0.73192018E+000 -0.28496900E-004
-0.73199528E+000 -0.26768799E-004
-0.83678346E+000  0.91281995E-004
-0.80035907E+000 -0.55516826E-004
-0.71440213E+000  0.13821627E-004
-0.67765599E+000  0.45477798E-004
-0.42377054E+000 -0.16368290E-004
 0.00000000E+000  0.00000000E+000
-0.75984507E+000  0.42834508E-004
-0.70835679E+000 -0.60994358E-006
-0.79412126E+000 -0.56813627E-004
-0.71440201E+000 -0.12621751E-004
-0.82545089E+000  0.71206028E-004
 0.00000000E+000  0.00000000E+000
-0.42376390E+000 -0.33992266E-004
-0.67766880E+000  0.55877091E-004
-0.80035406E+000 -0.69739238E-004
-0.83681881E+000  0.74335483E-004
-0.82544368E+000 -0.69129513E-004
-0.79413199E+000  0.56907123E-004
-0.83681088E+000 -0.74309180E-004
-0.75982981E+000 -0.42372197E-004
-0.73192042E+000  0.27343492E-004
-0.80036246E+000  0.66166212E-004
-0.73201316E+000  0.27321375E-004
-0.67766010E+000 -0.45633041E-004
-0.42376780E+000  0.24559103E-004
 0.00000000E+000  0.00000000E+000
-0.71430224E+000 -0.13769370E-004
-0.75991249E+000 -0.41589784E-004
-0.70845806E+000  0.65873405E-006
-0.79406303E+000  0.57566983E-004
-0.71430236E+000  0.12473227E-004
-0.82549530E+000 -0.69042129E-004
-0.83678489E+000  0.74282877E-004
 0.00000000E+000  0.00000000E+000
-0.42378214E+000  0.37841109E-004
-0.67764502E+000 -0.60096710E-004
-0.80038356E+000  0.72357164E-004
-0.83677542E+000 -0.73892682E-004
-0.82550638E+000  0.68122579E-004
-0.80037426E+000 -0.67065207E-004
-0.79404914E+000 -0.54803196E-004
-0.73201292E+000 -0.26078172E-004
-0.67765271E+000  0.51012033E-004
-0.75993090E+000  0.40961134E-004
-0.42377841E+000 -0.29631115E-004
 0.00000000E+000  0.00000000E+000
-0.73189836E+000 -0.25893612E-004
-0.71442615E+000  0.13162195E-004
-0.75983023E+000  0.41222334E-004
-0.70833134E+000 -0.70423561E-006
-0.79413157E+000 -0.55882352E-004
-0.82544422E+000  0.68274850E-004
-0.71442604E+000 -0.11765641E-004
-0.83681827E+000 -0.73663948E-004
-0.80035454E+000  0.69298293E-004
-0.67766845E+000 -0.55648808E-004
-0.42376410E+000  0.33963118E-004
-0.73189860E+000  0.24564911E-004
 0.00000000E+000  0.00000000E+000
 0.00000000E+000  0.00000000E+000
-0.42376011E+000 -0.41258117E-004
-0.67767536E+000  0.64473948E-004
-0.80034428E+000 -0.74178642E-004
-0.83682960E+000  0.74432718E-004
-0.82543015E+000 -0.65507469E-004
-0.79414945E+000  0.53096904E-004
-0.75980836E+000 -0.37757123E-004
-0.73203927E+000  0.24532657E-004
-0.75993055E+000 -0.39729722E-004
-0.71427440E+000 -0.11839097E-004
-0.79404962E+000  0.53716903E-004
-0.70848768E+000  0.75704031E-006
-0.82550585E+000 -0.67204040E-004
-0.71427452E+000  0.10354754E-004
-0.83677595E+000  0.73195049E-004
-0.80038309E+000 -0.71888556E-004
-0.67764544E+000  0.59872727E-004
-0.42378190E+000 -0.37813395E-004
 0.00000000E+000  0.00000000E+000
-0.73203897E+000 -0.23109649E-004
 0.00000000E+000  0.00000000E+000
-0.42378544E+000  0.44684595E-004
-0.67763757E+000 -0.68212284E-004
-0.80039328E+000  0.76552336E-004
-0.83676201E+000 -0.73568968E-004
-0.82552284E+000  0.63539926E-004
-0.79402798E+000 -0.49204627E-004
-0.75995719E+000  0.34882046E-004
-0.73186868E+000 -0.21589241E-004
-0.75980877E+000  0.36449229E-004
-0.71445953E+000  0.10654009E-004
-0.79414892E+000 -0.51935661E-004
-0.70829826E+000 -0.80307160E-006
-0.82543069E+000  0.64549967E-004
-0.83682900E+000 -0.73694725E-004
-0.71445935E+000 -0.90666262E-005
-0.80034476E+000  0.73701536E-004
-0.67767494E+000 -0.64251136E-004
-0.42376035E+000  0.41244875E-004
 0.00000000E+000  0.00000000E+000
-0.73186898E+000  0.20079383E-004
 0.00000000E+000  0.00000000E+000
-0.42375615E+000 -0.48015946E-004
-0.67768257E+000  0.71947666E-004
-0.80033290E+000 -0.78174787E-004
-0.83684468E+000  0.72648275E-004
-0.82541000E+000 -0.60069833E-004
-0.79417490E+000  0.44997406E-004
-0.75977784E+000 -0.30444800E-004
-0.75995677E+000 -0.33491323E-004
-0.73207443E+000  0.18419141E-004
-0.71423703E+000 -0.88424949E-005
-0.79402852E+000  0.47984049E-004
-0.70852667E+000  0.85577238E-006
-0.82552230E+000 -0.62525417E-004
-0.83676260E+000  0.72807903E-004
-0.80039274E+000 -0.76054449E-004
-0.71423715E+000  0.71623676E-005
-0.67763799E+000  0.67993030E-004
-0.42378520E+000 -0.44677093E-004
 0.00000000E+000  0.00000000E+000
-0.73207414E+000 -0.16816318E-004
 0.00000000E+000  0.00000000E+000
-0.42378962E+000  0.51428542E-004
-0.67762947E+000 -0.75429197E-004
-0.80040568E+000  0.79392237E-004
-0.83674418E+000 -0.70690482E-004
-0.82554668E+000  0.55718865E-004
-0.79399788E+000 -0.39409660E-004
-0.75977826E+000  0.28976501E-004
-0.75999307E+000  0.25201699E-004
-0.73182851E+000 -0.14370420E-004
-0.79417431E+000 -0.43708580E-004
-0.71450263E+000  0.67428727E-005
-0.82541060E+000  0.59011079E-004
-0.70825445E+000 -0.90433474E-006
-0.83684408E+000 -0.71854599E-004
-0.80033344E+000  0.77674369E-004
-0.67768210E+000 -0.71732079E-004
-0.71450245E+000 -0.49633595E-005
-0.42375639E+000  0.48023073E-004
 0.00000000E+000  0.00000000E+000
-0.73182886E+000  0.12681604E-004
-0.75999259E+000 -0.23650381E-004
 0.00000000E+000  0.00000000E+000
-0.42375144E+000 -0.54966356E-004
-0.67769145E+000  0.78711498E-004
-0.80031865E+000 -0.79859295E-004
-0.83686542E+000  0.67648710E-004
-0.82538181E+000 -0.49944821E-004
-0.79421025E+000  0.32575502E-004
-0.75973629E+000 -0.18809010E-004
-0.73212051E+000  0.96393741E-005
-0.79399847E+000  0.38060370E-004
-0.71418833E+000 -0.42573497E-005
-0.82554602E+000 -0.54611180E-004
-0.70857626E+000  0.95370967E-006
-0.83674478E+000  0.69871173E-004
-0.80040514E+000 -0.78881683E-004
-0.67762994E+000  0.75215662E-004
-0.42378938E+000 -0.51444250E-004
 0.00000000E+000  0.00000000E+000
-0.71418851E+000  0.23809413E-005
-0.73212015E+000 -0.78522034E-005
-0.75973683E+000  0.17185328E-004
 0.00000000E+000  0.00000000E+000
-0.42379495E+000  0.58705987E-004
-0.67761933E+000 -0.81744983E-004
-0.80042207E+000  0.79402736E-004
-0.83671975E+000 -0.63138490E-004
-0.82557982E+000  0.42561296E-004
-0.79395657E+000 -0.24235092E-004
-0.76004087E+000  0.11324434E-004
-0.79420965E+000 -0.31159102E-004
-0.73177623E+000 -0.41862294E-005
-0.71455734E+000  0.14506559E-005
-0.82538247E+000  0.48800164E-004
-0.83686476E+000 -0.66802102E-004
-0.70819896E+000 -0.10032848E-005
-0.80031925E+000  0.79341501E-004
-0.67769104E+000 -0.78514218E-004
-0.42375168E+000  0.55001226E-004
 0.00000000E+000  0.00000000E+000
-0.71455717E+000  0.53019527E-006
-0.73177665E+000  0.23151392E-005
-0.76004034E+000 -0.96175581E-005
 0.00000000E+000  0.00000000E+000
-0.42374527E+000 -0.62732513E-004
-0.67770314E+000  0.84431136E-004
-0.80029946E+000 -0.77740885E-004
-0.83689433E+000  0.56813005E-004
-0.82534271E+000 -0.33256495E-004
-0.79425835E+000  0.14291060E-004
-0.75968158E+000 -0.27257131E-005
-0.79395717E+000  0.22762962E-004
-0.73217940E+000 -0.19163555E-005
-0.82557916E+000 -0.41364364E-004
-0.71412736E+000  0.16462846E-005
-0.83672046E+000  0.62274295E-004
-0.80042147E+000 -0.78882359E-004
-0.70863783E+000  0.10601249E-005
-0.67761981E+000  0.81554448E-004
-0.42379471E+000 -0.58763289E-004
 0.00000000E+000  0.00000000E+000
-0.71412760E+000 -0.37176266E-005
-0.73217898E+000  0.38825469E-005
-0.75968211E+000  0.94635879E-006
 0.00000000E+000  0.00000000E+000
-0.42380216E+000  0.67100925E-004
-0.67760562E+000 -0.86681255E-004
-0.80044490E+000  0.74504248E-004
-0.83668529E+000 -0.48262605E-004
-0.82562613E+000  0.21720597E-004
-0.79425770E+000 -0.12751483E-004
-0.79390060E+000 -0.26657271E-005
-0.76010322E+000 -0.69222678E-005
-0.73171043E+000  0.85344609E-005
-0.82534343E+000  0.32023115E-004
-0.71462464E+000 -0.49443810E-005
-0.83689361E+000 -0.55923635E-004
-0.80030006E+000  0.77221782E-004
-0.67770266E+000 -0.84262777E-004
-0.70813125E+000 -0.11092780E-005
-0.42374554E+000  0.62807521E-004
 0.00000000E+000  0.00000000E+000
-0.71462446E+000  0.71211502E-005
-0.73171085E+000 -0.10586419E-004
-0.76010268E+000  0.87881644E-005
-0.79390126E+000  0.10722037E-005
 0.00000000E+000  0.00000000E+000
-0.42373675E+000 -0.71908631E-004
-0.67771953E+000  0.88275883E-004
-0.80027186E+000 -0.69243229E-004
-0.83693587E+000  0.36957644E-004
-0.82528769E+000 -0.77199820E-005
-0.79432338E+000 -0.10649097E-004
-0.75961095E+000  0.17423963E-004
-0.82562536E+000 -0.20451119E-004
-0.73225235E+000 -0.15497633E-004
-0.83668601E+000  0.47360157E-004
-0.71405375E+000  0.83230133E-005
-0.80044430E+000 -0.73989351E-004
-0.67760610E+000  0.86534826E-004
-0.42380189E+000 -0.67198634E-004
 0.00000000E+000  0.00000000E+000
-0.70871150E+000  0.11575233E-005
-0.71405398E+000 -0.10604484E-004
-0.73225194E+000  0.17649059E-004
-0.75961148E+000 -0.19358474E-004
-0.79432266E+000  0.12304924E-004
 0.00000000E+000  0.00000000E+000
-0.42381247E+000  0.77232485E-004
-0.67758566E+000 -0.88934139E-004
-0.80047887E+000  0.61293532E-004
-0.83663463E+000 -0.22368445E-004
-0.82569181E+000 -0.90015346E-005
-0.79382526E+000  0.25458935E-004
-0.76018279E+000 -0.28501412E-004
-0.82528847E+000  0.64149567E-005
-0.73163020E+000  0.22504136E-004
-0.83693510E+000 -0.36042896E-004
-0.71470433E+000 -0.11671817E-004
-0.80027252E+000  0.68739034E-004
-0.67771905E+000 -0.88147375E-004
-0.42373701E+000  0.72027345E-004
 0.00000000E+000  0.00000000E+000
-0.70805191E+000 -0.12156698E-005
-0.71470409E+000  0.14046537E-004
-0.73163068E+000 -0.24748253E-004
-0.76018214E+000  0.30516739E-004
-0.79382598E+000 -0.27165749E-004
 0.00000000E+000  0.00000000E+000
-0.42372408E+000 -0.83196806E-004
-0.67774444E+000  0.88136439E-004
-0.80022943E+000 -0.49884634E-004
-0.83699846E+000  0.37486704E-005
-0.82520890E+000  0.28431250E-004
-0.82569098E+000  0.10347916E-004
-0.79441052E+000 -0.41480183E-004
-0.75952202E+000  0.39626978E-004
-0.83663541E+000  0.21442712E-004
-0.73233956E+000 -0.29239850E-004
-0.80047816E+000 -0.60800539E-004
-0.67758619E+000  0.88839733E-004
-0.71396851E+000  0.14778770E-004
-0.42381221E+000 -0.77391981E-004
 0.00000000E+000  0.00000000E+000
-0.70879590E+000  0.12656682E-005
-0.71396875E+000 -0.17269108E-004
-0.73233908E+000  0.31571769E-004
-0.75952267E+000 -0.41716502E-004
-0.79440975E+000  0.43249499E-004
-0.82520973E+000 -0.29799530E-004
 0.00000000E+000  0.00000000E+000
-0.42382842E+000  0.89843219E-004
-0.67755407E+000 -0.85240098E-004
-0.80053305E+000  0.33744730E-004
-0.83655643E+000  0.19440289E-004
-0.82578665E+000 -0.50519789E-004
-0.79372477E+000  0.57896384E-004
-0.76028114E+000 -0.50241058E-004
-0.83699762E+000 -0.28217596E-005
-0.73153650E+000  0.35189001E-004
-0.80023020E+000  0.49407808E-004
-0.67774385E+000 -0.88073044E-004
-0.42372438E+000  0.83380895E-004
 0.00000000E+000  0.00000000E+000
-0.71479433E+000 -0.17511651E-004
-0.70796316E+000 -0.13254428E-005
-0.71479403E+000  0.20098348E-004
-0.73153698E+000 -0.37614958E-004
-0.76028043E+000  0.52412153E-004
-0.79372560E+000 -0.59711830E-004
-0.82578575E+000  0.51917817E-004
 0.00000000E+000  0.00000000E+000
-0.42370364E+000 -0.97281168E-004
-0.67778593E+000  0.78941979E-004
-0.80015903E+000 -0.11642393E-004
-0.83709758E+000 -0.48273934E-004
-0.82509469E+000  0.74028488E-004
-0.83655732E+000 -0.20376193E-004
-0.79452538E+000 -0.74251991E-004
-0.75941443E+000  0.58942980E-004
-0.80053228E+000 -0.33295786E-004
-0.73243862E+000 -0.40302111E-004
-0.67755466E+000  0.85214545E-004
-0.42382812E+000 -0.90070978E-004
 0.00000000E+000  0.00000000E+000
-0.71387451E+000  0.19436994E-004
-0.70888763E+000  0.13768095E-005
-0.71387475E+000 -0.22135202E-004
-0.73243814E+000  0.42826097E-004
-0.75941514E+000 -0.61180551E-004
-0.79452449E+000  0.76125012E-004
-0.82509565E+000 -0.75455456E-004
-0.83709663E+000  0.49201695E-004
 0.00000000E+000  0.00000000E+000
-0.42385628E+000  0.10510392E-003
-0.67749923E+000 -0.68448876E-004
-0.80062776E+000 -0.20272456E-004
-0.83643043E+000  0.80599085E-004
-0.82592403E+000 -0.10016035E-003
-0.79359471E+000  0.86490210E-004
-0.80015987E+000  0.11218657E-004
-0.76039600E+000 -0.66794025E-004
-0.67778533E+000 -0.78960525E-004
-0.42370396E+000  0.97545831E-004
 0.00000000E+000  0.00000000E+000
-0.73143231E+000  0.42718391E-004
-0.71488988E+000 -0.21066662E-004
-0.70786875E+000 -0.14341632E-005
-0.71488958E+000  0.23869653E-004
-0.73143291E+000 -0.45331300E-004
-0.76039522E+000  0.69112393E-004
-0.79359561E+000 -0.88415836E-004
-0.82592308E+000  0.10161256E-003
-0.83643138E+000 -0.81519407E-004
-0.80062693E+000  0.20657704E-004
 0.00000000E+000  0.00000000E+000
-0.42366728E+000 -0.11393824E-003
-0.67786502E+000  0.48183861E-004
-0.80003249E+000  0.60050911E-004
-0.83726131E+000 -0.12173198E-003
-0.82493138E+000  0.11953199E-003
-0.79466885E+000 -0.99350363E-004
-0.67749989E+000  0.68525507E-004
-0.42385596E+000 -0.10541715E-003
-0.75929218E+000  0.66838503E-004
 0.00000000E+000  0.00000000E+000
-0.73254311E+000 -0.46658245E-004
-0.71377509E+000  0.19625513E-004
-0.70897889E+000  0.14897175E-005
-0.71377539E+000 -0.22540443E-004
-0.73254251E+000  0.49374448E-004
-0.75929296E+000 -0.69232664E-004
-0.79466789E+000  0.10131594E-003
-0.82493239E+000 -0.12099734E-003
-0.83726024E+000  0.12264851E-003
-0.80003345E+000 -0.60403988E-004
-0.67786431E+000 -0.48316178E-004
 0.00000000E+000  0.00000000E+000
-0.42391312E+000  0.12072097E-003
-0.67739230E+000 -0.19910316E-004
-0.80081123E+000 -0.12249466E-003
-0.83622497E+000  0.15223138E-003
-0.42366760E+000  0.11431027E-003
-0.82611763E+000 -0.14773169E-003
 0.00000000E+000  0.00000000E+000
-0.79343968E+000  0.90097695E-004
-0.76051688E+000 -0.76769822E-004
-0.73131990E+000  0.38298381E-004
-0.71497952E+000 -0.21896710E-004
-0.70777022E+000 -0.15533371E-005
-0.71497917E+000  0.24916362E-004
-0.73132050E+000 -0.41104587E-004
-0.76051598E+000  0.79229743E-004
-0.79344069E+000 -0.92120266E-004
-0.82611656E+000  0.14922443E-003
-0.83622604E+000 -0.15313657E-003
-0.80081021E+000  0.12279726E-003
-0.67739301E+000  0.20123403E-004
-0.42391276E+000 -0.12115282E-003
 0.00000000E+000  0.00000000E+000
 0.00000000E+000  0.00000000E+000
-0.42359903E+000 -0.13213181E-003
-0.67805033E+000 -0.49321315E-004
-0.79979372E+000  0.16794785E-003
-0.83753514E+000 -0.21879699E-003
-0.82471245E+000  0.12160586E-003
-0.79481750E+000 -0.10955252E-003
-0.75915509E+000  0.54969368E-004
-0.73263663E+000 -0.45242431E-004
-0.71367120E+000  0.13554044E-004
-0.70905590E+000  0.16052790E-005
-0.71367150E+000 -0.16704165E-004
-0.73263597E+000  0.48132907E-004
-0.75915598E+000 -0.57504643E-004
-0.79481649E+000  0.11160921E-003
-0.82471358E+000 -0.12312199E-003
-0.83753395E+000  0.21968997E-003
-0.79979473E+000 -0.16819938E-003
-0.67804956E+000  0.49028403E-004
-0.42359939E+000  0.13264392E-003
 0.00000000E+000  0.00000000E+000
 0.00000000E+000  0.00000000E+000
-0.42406833E+000  0.12254784E-003
-0.67715442E+000  0.11873391E-003
-0.80118978E+000 -0.27750743E-003
-0.83589392E+000  0.20909821E-003
-0.82633835E+000 -0.13208600E-003
-0.79327815E+000  0.71477224E-004
-0.76063174E+000 -0.73724077E-004
-0.73120331E+000  0.13358366E-004
-0.71504312E+000 -0.23369231E-004
-0.70766180E+000 -0.16842869E-005
-0.71504276E+000  0.26600160E-004
-0.73120397E+000 -0.16364601E-004
-0.76063078E+000  0.76312317E-004
-0.79327923E+000 -0.73589326E-004
-0.82633715E+000  0.13360788E-003
-0.83589512E+000 -0.20998356E-003
-0.80118864E+000  0.27770962E-003
-0.67715525E+000 -0.11835079E-003
-0.42406794E+000 -0.12315937E-003
 0.00000000E+000  0.00000000E+000
 0.00000000E+000  0.00000000E+000
-0.42339274E+000 -0.10543884E-003
-0.67851126E+000 -0.27864682E-003
-0.79929727E+000  0.32614258E-003
-0.83795034E+000 -0.23605307E-003
-0.82453286E+000  0.17141577E-004
-0.79497081E+000 -0.15092891E-003
-0.75900518E+000 -0.24527724E-004
-0.73268055E+000 -0.57108820E-004
-0.71354222E+000 -0.79320388E-005
-0.70908159E+000  0.17158052E-005
-0.71354258E+000  0.45328833E-005
-0.73267978E+000  0.60167290E-004
-0.75900614E+000  0.21848554E-004
-0.79496967E+000  0.15305361E-003
-0.82453405E+000 -0.18697022E-004
-0.83794903E+000  0.23692889E-003
-0.79929846E+000 -0.32629244E-003
-0.67851036E+000  0.27814932E-003
-0.42339318E+000  0.10614818E-003
 0.00000000E+000  0.00000000E+000
 0.00000000E+000  0.00000000E+000
-0.42466285E+000 -0.57112672E-004
-0.67660671E+000  0.28245072E-003
-0.80209088E+000 -0.70066651E-003
-0.83558839E+000 -0.29498321E-003
-0.82639122E+000 -0.36764930E-003
-0.79291796E+000 -0.11144900E-003
-0.76055896E+000 -0.48878540E-004
-0.73102474E+000  0.30190654E-004
-0.71508020E+000  0.24628483E-004
-0.70758932E+000 -0.18201117E-005
-0.71507978E+000 -0.21194033E-004
-0.73102551E+000 -0.33407966E-004
-0.76055788E+000  0.51557974E-004
-0.79291909E+000  0.10924821E-003
-0.82638990E+000  0.36919215E-003
-0.83558964E+000  0.29409717E-003
-0.80208957E+000  0.70076377E-003
-0.67660772E+000 -0.28183453E-003
-0.42466238E+000  0.56274362E-004
 0.00000000E+000  0.00000000E+000
 0.00000000E+000  0.00000000E+000
-0.42298856E+000  0.38166959E-004
-0.68045616E+000 -0.12271723E-002
-0.79854685E+000 -0.34290240E-003
-0.83760291E+000 -0.16741646E-003
-0.82362508E+000  0.23886687E-003
-0.79458171E+000  0.41982595E-003
-0.75871562E+000  0.44929730E-003
-0.73283010E+000  0.38387547E-003
-0.71375912E+000  0.20215808E-003
-0.70947575E+000  0.18251751E-005
-0.71375954E+000 -0.20582952E-003
-0.73282927E+000 -0.38069253E-003
-0.75871664E+000 -0.45212873E-003
-0.79458045E+000 -0.41767454E-003
-0.82362627E+000 -0.24048439E-003
-0.83760148E+000  0.16825637E-003
-0.79854816E+000  0.34281885E-003
-0.68045502E+000  0.12264272E-002
-0.42298910E+000 -0.37168847E-004
 0.00000000E+000  0.00000000E+000
 0.00000000E+000  0.00000000E+000
-0.42809465E+000 -0.95386448E-003
-0.67395478E+000  0.13397933E-002
-0.80075174E+000  0.22749307E-002
-0.83398723E+000  0.27537134E-002
-0.82594728E+000  0.28145047E-002
-0.79293936E+000  0.23278554E-002
-0.76128798E+000  0.18590382E-002
-0.73200547E+000  0.11879428E-002
-0.71636641E+000  0.61884714E-003
-0.70886045E+000 -0.19745832E-005
-0.71636587E+000 -0.61524484E-003
-0.73200631E+000 -0.11913897E-002
-0.76128679E+000 -0.18563215E-002
-0.79294049E+000 -0.23301574E-002
-0.82594585E+000 -0.28129671E-002
-0.83398854E+000 -0.27546165E-002
-0.80075025E+000 -0.22749213E-002
-0.67395603E+000 -0.13389629E-002
-0.42809399E+000  0.95266412E-003
 0.00000000E+000  0.00000000E+000
 0.00000000E+000  0.00000000E+000
-0.40792778E+000  0.59983558E-002
-0.67316865E+000  0.93374289E-002
-0.79480135E+000  0.95284171E-002
-0.83805823E+000  0.88701583E-002
-0.82601702E+000  0.68800817E-002
-0.79811006E+000  0.52953562E-002
-0.76235330E+000  0.34982019E-002
-0.73642140E+000  0.22360309E-002
-0.71711409E+000  0.10096303E-002
-0.71281057E+000  0.19188432E-005
-0.71711450E+000 -0.10135973E-002
-0.73642045E+000 -0.22327429E-002
-0.76235431E+000 -0.35011915E-002
-0.79810869E+000 -0.52932240E-002
-0.82601809E+000 -0.68817725E-002
-0.83805656E+000 -0.88693061E-002
-0.79480266E+000 -0.95283519E-002
-0.67316716E+000 -0.93382857E-002
-0.40792858E+000 -0.59969290E-002
 0.00000000E+000  0.00000000E+000
 0.00000000E+000  0.00000000E+000
-0.44716656E+000  0.85952421E-002
-0.69202369E+000  0.62946197E-002
-0.81754374E+000  0.61998353E-002
-0.84749388E+000  0.47137816E-002
-0.83631455E+000  0.46320352E-002
-0.80042564E+000  0.36514387E-002
-0.76664799E+000  0.30946370E-002
-0.73581975E+000  0.19796227E-002
-0.71931391E+000  0.10632494E-002
-0.71149039E+000 -0.21263672E-005
-0.71931338E+000 -0.10594568E-002
-0.73582059E+000 -0.19832709E-002
-0.76664668E+000 -0.30918798E-002
-0.80042672E+000 -0.36538082E-002
-0.83631300E+000 -0.46305130E-002
-0.84749490E+000 -0.47147697E-002
-0.81754171E+000 -0.61998721E-002
-0.69202452E+000 -0.62934327E-002
-0.44716525E+000 -0.85965357E-002
 0.00000000E+000  0.00000000E+000
