 0.00000000E+000  0.00000000E+000
-0.73391534E-001 -0.00000000E+000
-0.13905765E+000 -0.00000000E+000
-0.19699832E+000 -0.00000000E+000
-0.24721360E+000 -0.00000000E+000
-0.28970342E+000 -0.00000000E+000
 0.00000000E+000  0.00000000E+000
-0.58529637E-002  0.30738577E-001
-0.81550873E-001  0.75569242E-001
-0.17136009E+000  0.10344221E+000
-0.32446783E+000 -0.00000000E+000
-0.25129392E+000  0.10981653E+000
-0.31351056E+000  0.99550440E-001
-0.35713773E+000  0.79990476E-001
-0.35150682E+000 -0.00000000E+000
-0.38507619E+000  0.57542059E-001
 0.00000000E+000  0.00000000E+000
 0.49402497E-001  0.21718153E-002
-0.28888454E-001  0.54236389E-002
-0.14487990E+000  0.11380613E-001
-0.25307628E+000  0.15461161E-001
-0.33475977E+000  0.16407916E-001
-0.38781660E+000  0.14854008E-001
-0.37082040E+000 -0.00000000E+000
-0.40127050E+000  0.36152865E-001
-0.41738528E+000  0.11753393E-001
 0.00000000E+000  0.00000000E+000
 0.51983177E-001  0.90290559E-003
-0.19585160E-001  0.33472068E-002
-0.13565188E+000  0.51346858E-002
-0.24754530E+000  0.71643190E-002
-0.43122801E+000  0.79753361E-002
-0.33429026E+000  0.87407026E-002
-0.38240852E+000 -0.00000000E+000
-0.39142516E+000  0.91279307E-002
-0.40936371E+000  0.17197400E-001
-0.42387625E+000  0.82501899E-002
-0.43635150E+000  0.39901589E-002
-0.43938195E+000  0.61973785E-002
 0.00000000E+000  0.00000000E+000
-0.38627123E+000 -0.00000000E+000
 0.57499703E-001  0.17275594E-002
-0.15141512E-001  0.35344851E-002
-0.13154372E+000  0.53295008E-002
-0.24475385E+000  0.61080153E-002
-0.33321624E+000  0.61054099E-002
-0.41177782E+000  0.80750117E-008
-0.39265984E+000  0.56671900E-002
-0.42720529E+000  0.47262124E-002
-0.44536119E+000  0.33226979E-002
-0.43751358E+000 -0.17562896E-007
-0.44447746E+000  0.34190677E-002
-0.38240852E+000 -0.00000000E+000
-0.40936374E+000 -0.17197417E-001
 0.00000000E+000  0.00000000E+000
-0.44676285E+000  0.28365176E-007
 0.60178641E-001  0.33995176E-004
-0.11431920E-001  0.90735574E-003
-0.12924134E+000  0.15559467E-002
-0.24370750E+000  0.21482822E-002
-0.33346021E+000  0.24825118E-002
-0.45155346E+000  0.17854354E-002
-0.39379343E+000  0.23761694E-002
-0.42924481E+000  0.20548878E-002
-0.43635147E+000 -0.39901225E-002
-0.44715315E+000  0.14777565E-002
-0.45336091E+000 -0.42339667E-007
-0.37082040E+000 -0.00000000E+000
-0.44536122E+000 -0.33227559E-002
-0.40127047E+000 -0.36152854E-001
-0.45470502E+000  0.78388513E-003
 0.00000000E+000  0.00000000E+000
 0.60987416E-001  0.34208601E-003
-0.10322516E-001  0.36431889E-003
-0.12793138E+000  0.71183283E-003
-0.24292312E+000  0.96182542E-003
-0.33318910E+000  0.10531235E-002
-0.43122804E+000 -0.79753678E-002
-0.39419674E+000  0.11100235E-002
-0.43005681E+000  0.94517628E-003
-0.45155343E+000 -0.17853552E-002
-0.35150682E+000 -0.00000000E+000
-0.45663574E+000  0.54845209E-007
-0.44836789E+000  0.71497890E-003
-0.43938189E+000 -0.61973249E-002
-0.38507622E+000 -0.57542074E-001
-0.41738522E+000 -0.11753359E-001
-0.45608955E+000  0.36928892E-003
-0.32446783E+000 -0.00000000E+000
-0.44447755E+000 -0.34191454E-002
-0.45470508E+000 -0.78399485E-003
 0.00000000E+000  0.00000000E+000
 0.61396118E-001 -0.58362100E-004
-0.98136235E-002  0.26018466E-003
-0.12753769E+000  0.29368535E-003
-0.35713770E+000 -0.79990461E-001
-0.24258869E+000  0.33907030E-003
-0.33312731E+000  0.40907214E-003
-0.42387631E+000 -0.82502383E-002
-0.39428201E+000  0.34170004E-003
-0.43042907E+000  0.32629829E-003
-0.45813760E+000 -0.70868281E-007
-0.38781666E+000 -0.14854034E-001
-0.28970342E+000 -0.00000000E+000
-0.44883814E+000  0.21827683E-003
-0.31351062E+000 -0.99550448E-001
-0.42720520E+000 -0.47261440E-002
-0.39142504E+000 -0.91278860E-002
-0.44715306E+000 -0.14776568E-002
-0.33475971E+000 -0.16407888E-001
-0.24721360E+000 -0.00000000E+000
-0.45672070E+000  0.12502707E-003
-0.25129389E+000 -0.10981652E+000
-0.45608949E+000 -0.36915368E-003
-0.19699832E+000 -0.00000000E+000
-0.17136012E+000 -0.10344222E+000
-0.25307637E+000 -0.15461184E-001
-0.13905765E+000 -0.00000000E+000
-0.33429035E+000 -0.87407417E-002
-0.81550851E-001 -0.75569227E-001
-0.73391534E-001 -0.00000000E+000
 0.00000000E+000  0.00000000E+000
 0.00000000E+000  0.00000000E+000
 0.61525363E-001  0.97897413E-004
-0.96061453E-002 -0.39278696E-004
-0.12738047E+000  0.60474962E-004
-0.39265999E+000 -0.56672510E-002
-0.24253599E+000  0.10386114E-003
-0.58529805E-002 -0.30738590E-001
-0.33308535E+000  0.69408983E-004
-0.14487984E+000 -0.11380589E-001
 0.00000000E+000  0.00000000E+000
-0.45874217E+000  0.84742993E-007
-0.39437818E+000  0.11779888E-003
-0.42924496E+000 -0.20549800E-002
-0.28888499E-001 -0.54236617E-002
-0.43049991E+000  0.64150743E-004
-0.24754519E+000 -0.71642841E-002
 0.49402523E-001 -0.21717932E-002
 0.00000000E+000  0.00000000E+000
-0.44836798E+000 -0.71510736E-003
-0.44903209E+000  0.68330940E-004
-0.13565197E+000 -0.51347180E-002
-0.33321613E+000 -0.61053587E-002
-0.19585095E-001 -0.33471772E-002
 0.51983144E-001 -0.90293417E-003
-0.45672076E+000 -0.12519700E-003
 0.00000000E+000  0.00000000E+000
-0.39379328E+000 -0.23760925E-002
-0.45686483E+000  0.25274441E-004
-0.24475397E+000 -0.61080604E-002
-0.13154362E+000 -0.53294654E-002
-0.43005666E+000 -0.94506493E-003
-0.15141589E-001 -0.35345216E-002
-0.33346039E+000 -0.24825779E-002
 0.57499743E-001 -0.17275294E-002
-0.45897519E+000 -0.10356698E-006
 0.00000000E+000  0.00000000E+000
 0.00000000E+000  0.00000000E+000
 0.61551820E-001 -0.55603875E-004
-0.95974467E-002  0.69628949E-004
-0.12732952E+000  0.11592129E-004
-0.24249358E+000 -0.10817442E-005
-0.33311143E+000  0.43914184E-004
-0.44883802E+000 -0.21812356E-003
-0.39435082E+000 -0.72384877E-005
-0.24370734E+000 -0.21482319E-002
-0.43057477E+000  0.30142085E-004
-0.39419689E+000 -0.11101204E-002
-0.12924148E+000 -0.15559908E-002
-0.44902116E+000 -0.16665571E-005
-0.11431827E-001 -0.90731948E-003
-0.45686477E+000 -0.25078155E-004
 0.60178596E-001 -0.34027329E-004
 0.00000000E+000  0.00000000E+000
-0.33318892E+000 -0.10530474E-002
-0.43042922E+000 -0.32643668E-003
-0.45695805E+000  0.98053324E-005
-0.24292330E+000 -0.96188404E-003
-0.44903221E+000 -0.68517743E-004
-0.12793123E+000 -0.71178976E-003
-0.45896860E+000  0.11780487E-006
-0.39428183E+000 -0.34158711E-003
-0.10322618E-001 -0.36435693E-003
 0.60987468E-001 -0.34205490E-003
 0.00000000E+000  0.00000000E+000
 0.00000000E+000  0.00000000E+000
 0.61568263E-001  0.44583317E-004
-0.95640141E-002 -0.36682802E-004
-0.12734477E+000  0.12668134E-004
-0.24250580E+000  0.23307986E-004
-0.33308476E+000 -0.21167612E-004
-0.39440065E+000  0.24663122E-004
-0.43052607E+000 -0.16276138E-004
-0.33312752E+000 -0.40916103E-003
-0.43049973E+000 -0.63993305E-004
-0.45695814E+000 -0.10041748E-004
-0.44908687E+000  0.11000600E-004
-0.24258849E+000 -0.33900572E-003
-0.45690053E+000 -0.51377041E-005
-0.12753786E+000 -0.29373014E-003
-0.98135117E-002 -0.26014816E-003
-0.39437839E+000 -0.11793350E-003
 0.61396066E-001  0.58331865E-004
 0.00000000E+000  0.00000000E+000
-0.44902101E+000  0.18771796E-005
-0.45903906E+000 -0.14103082E-006
-0.33308511E+000 -0.69310124E-004
 0.00000000E+000  0.00000000E+000
 0.61566557E-001 -0.27552929E-004
-0.95736561E-002  0.30018878E-004
-0.12732909E+000 -0.12125424E-005
-0.24249842E+000 -0.12446963E-004
-0.33312049E+000  0.27096681E-004
-0.43057495E+000 -0.30332192E-004
-0.24253620E+000 -0.10392843E-003
-0.39435261E+000 -0.18420925E-004
-0.43059244E+000  0.18670918E-004
-0.45690044E+000  0.53985272E-005
-0.12738029E+000 -0.60429167E-004
-0.44901502E+000 -0.89013765E-005
-0.96062654E-002  0.39247639E-004
 0.61525419E-001 -0.97867814E-004
 0.00000000E+000  0.00000000E+000
-0.39435058E+000  0.73839310E-005
-0.45698016E+000  0.56235435E-005
-0.44908702E+000 -0.11250665E-004
-0.33311167E+000 -0.44027929E-004
-0.45895934E+000  0.15149615E-006
-0.24249334E+000  0.11509698E-005
-0.43052586E+000  0.16482277E-004
-0.12732972E+000 -0.11637568E-004
-0.95973145E-002 -0.69599467E-004
 0.00000000E+000  0.00000000E+000
 0.61578247E-001  0.18051287E-004
-0.95662809E-002 -0.14326783E-004
-0.12733298E+000  0.35144064E-005
-0.24251118E+000  0.18651249E-004
 0.61551760E-001  0.55579159E-004
-0.33308315E+000 -0.18282484E-004
-0.45698022E+000 -0.59336475E-005
 0.00000000E+000  0.00000000E+000
-0.39441400E+000  0.22857564E-004
-0.43051743E+000 -0.12641351E-004
-0.39440089E+000 -0.24836654E-004
-0.44910615E+000  0.11195770E-004
-0.44901487E+000  0.91704259E-005
-0.45688560E+000 -0.35625917E-005
-0.33308452E+000  0.21283025E-004
-0.24250604E+000 -0.23389062E-004
-0.45906046E+000 -0.17825264E-006
-0.12734457E+000 -0.12633466E-004
-0.43059265E+000 -0.18916283E-004
-0.95641436E-002  0.36653087E-004
 0.61568334E-001 -0.44564174E-004
 0.00000000E+000  0.00000000E+000
-0.45688551E+000  0.38966732E-005
 0.00000000E+000  0.00000000E+000
 0.61568446E-001 -0.79159844E-005
-0.95592644E-002  0.74421632E-005
-0.12733668E+000  0.54070283E-005
-0.39435234E+000  0.18599474E-004
-0.24248884E+000 -0.13199161E-004
-0.33313056E+000  0.21633853E-004
-0.39434286E+000 -0.15804394E-004
-0.43061134E+000  0.14808611E-004
-0.44899982E+000 -0.69712746E-005
-0.33312076E+000 -0.27231895E-004
-0.44910630E+000 -0.11512805E-004
-0.45700484E+000  0.43320887E-005
-0.24249817E+000  0.12521926E-004
-0.12732930E+000  0.11682034E-005
-0.95735117E-002 -0.30003413E-004
 0.61566490E-001  0.27528987E-004
-0.43051719E+000  0.12895402E-004
 0.00000000E+000  0.00000000E+000
-0.45894163E+000  0.19244291E-006
-0.39441430E+000 -0.23066231E-004
-0.45700493E+000 -0.47134067E-005
 0.00000000E+000  0.00000000E+000
 0.61584088E-001  0.93775787E-006
-0.95720095E-002  0.21666708E-005
-0.12731847E+000 -0.78342236E-005
-0.24252201E+000  0.16128087E-004
-0.33307057E+000 -0.16458981E-004
-0.39443078E+000  0.16090714E-004
-0.33308288E+000  0.18419023E-004
-0.43050038E+000 -0.98640148E-005
-0.44913092E+000  0.69630077E-005
-0.44899964E+000  0.73117566E-005
-0.24251145E+000 -0.18730988E-004
-0.12733277E+000 -0.34759757E-005
-0.45686435E+000 -0.24160833E-005
-0.95664355E-002  0.14313784E-004
 0.61578314E-001 -0.18035952E-004
 0.00000000E+000  0.00000000E+000
-0.43061158E+000 -0.15099799E-004
-0.45908850E+000 -0.21763250E-006
-0.39434260E+000  0.16026211E-004
-0.45686426E+000  0.28320450E-005
-0.33313089E+000 -0.21778127E-004
 0.00000000E+000  0.00000000E+000
 0.61566177E-001  0.54763627E-005
-0.95487479E-002 -0.87789194E-005
-0.12734808E+000  0.13001807E-004
-0.24247334E+000 -0.15036989E-004
-0.33314663E+000  0.15579258E-004
-0.39432415E+000 -0.11468529E-004
-0.24248857E+000  0.13287799E-004
-0.43063515E+000  0.80875461E-005
-0.44913113E+000 -0.73390501E-005
-0.12733691E+000 -0.54305346E-005
-0.44897547E+000 -0.37533923E-005
-0.95591163E-002 -0.74261238E-005
 0.61568360E-001  0.79131195E-005
 0.00000000E+000  0.00000000E+000
-0.45703452E+000  0.16705278E-005
-0.43050011E+000  0.10181941E-004
-0.45891484E+000  0.23722769E-006
-0.39443108E+000 -0.16327270E-004
-0.45703461E+000 -0.21240159E-005
-0.33307024E+000  0.16623956E-004
-0.24252229E+000 -0.16197123E-004
 0.00000000E+000  0.00000000E+000
 0.61588183E-001 -0.10688907E-004
-0.95802210E-002  0.15212828E-004
-0.12730415E+000 -0.16191579E-004
-0.24253836E+000  0.15555906E-004
-0.33305075E+000 -0.12209751E-004
-0.12731823E+000  0.78677448E-005
-0.39445403E+000  0.83562817E-005
-0.44897526E+000  0.41696580E-005
-0.95721706E-002 -0.21538251E-005
-0.43047413E+000 -0.38639682E-005
 0.61584178E-001 -0.92443377E-006
 0.00000000E+000  0.00000000E+000
-0.44916152E+000  0.14114134E-005
-0.45683327E+000  0.55287173E-007
-0.43063542E+000 -0.84282701E-005
-0.45912209E+000 -0.25525955E-006
-0.39432385E+000  0.11727683E-004
-0.33314695E+000 -0.15744681E-004
-0.45683318E+000  0.44638065E-006
-0.24247303E+000  0.15127061E-004
-0.12734831E+000 -0.13004148E-004
-0.95485709E-002  0.87715989E-005
 0.61566103E-001 -0.54790184E-005
-0.44916173E+000 -0.18547092E-005
 0.00000000E+000  0.00000000E+000
 0.00000000E+000  0.00000000E+000
 0.61562620E-001  0.15314719E-004
-0.95392484E-002 -0.20410856E-004
-0.12736226E+000  0.19258528E-004
-0.24245412E+000 -0.14690210E-004
-0.33316954E+000  0.92116961E-005
-0.39429715E+000 -0.35947418E-005
-0.43066638E+000 -0.15694847E-006
-0.44894155E+000  0.20723823E-005
-0.43047386E+000  0.42430901E-005
-0.45707124E+000 -0.17057492E-005
-0.39445436E+000 -0.86275331E-005
-0.45887824E+000  0.27916229E-006
-0.33305042E+000  0.12386798E-004
-0.45707136E+000  0.11689955E-005
-0.24253869E+000 -0.15630695E-004
-0.12730388E+000  0.16193163E-004
-0.95803905E-002 -0.15190563E-004
 0.61588268E-001  0.10685905E-004
 0.00000000E+000  0.00000000E+000
-0.44894132E+000 -0.15821814E-005
 0.00000000E+000  0.00000000E+000
 0.61592303E-001 -0.19364591E-004
-0.95896767E-002  0.24938615E-004
-0.12728841E+000 -0.21200412E-004
-0.24255955E+000  0.13382475E-004
-0.33302426E+000 -0.49835289E-005
-0.39448535E+000 -0.15228907E-005
-0.43043863E+000  0.52895334E-005
-0.44920060E+000 -0.57750648E-005
-0.43066668E+000 -0.23602751E-006
-0.45679244E+000  0.37876973E-005
-0.39429682E+000  0.38951775E-005
-0.45916399E+000 -0.30001345E-006
-0.33316990E+000 -0.93921116E-005
-0.24245378E+000  0.14765249E-004
-0.45679232E+000 -0.32024722E-005
-0.12736253E+000 -0.19253435E-004
-0.95390724E-002  0.20377821E-004
 0.61562534E-001 -0.15308924E-004
 0.00000000E+000  0.00000000E+000
-0.44920083E+000  0.52554028E-005
 0.00000000E+000  0.00000000E+000
 0.61558246E-001  0.23035207E-004
-0.95289768E-002 -0.28631951E-004
-0.12737917E+000  0.22259557E-004
-0.24243026E+000 -0.10861934E-004
-0.33319976E+000 -0.97713105E-007
-0.39426130E+000  0.77677277E-005
-0.43070694E+000 -0.11012901E-004
-0.43043833E+000 -0.48606393E-005
-0.44889768E+000  0.10137312E-004
-0.45711731E+000 -0.60647303E-005
-0.39448574E+000  0.12081379E-005
-0.45883166E+000  0.32509029E-006
-0.33302387E+000  0.51672568E-005
-0.24255988E+000 -0.13448729E-004
-0.12728813E+000  0.21192166E-004
-0.45711743E+000  0.54381448E-005
-0.95898527E-002 -0.24898459E-004
 0.61592388E-001  0.19354007E-004
 0.00000000E+000  0.00000000E+000
-0.44889745E+000 -0.95762861E-005
 0.00000000E+000  0.00000000E+000
 0.61597190E-001 -0.26415875E-004
-0.96007501E-002  0.31585430E-004
-0.12726968E+000 -0.22120271E-004
-0.24258629E+000  0.70771943E-005
-0.33298987E+000  0.65080348E-005
-0.39452618E+000 -0.15012281E-004
-0.43070727E+000  0.10555403E-004
-0.43039289E+000  0.17609150E-004
-0.44924983E+000 -0.14979144E-004
-0.39426091E+000 -0.74379922E-005
-0.45674130E+000  0.86308455E-005
-0.33320015E+000 -0.90756330E-007
-0.45921584E+000 -0.34946833E-006
-0.24242991E+000  0.10919677E-004
-0.12737946E+000 -0.22235577E-004
-0.95287850E-002  0.28588216E-004
-0.45674118E+000 -0.79568217E-005
 0.61558164E-001 -0.23022061E-004
 0.00000000E+000  0.00000000E+000
-0.44925010E+000  0.14377528E-004
-0.43039253E+000 -0.17118762E-004
 0.00000000E+000  0.00000000E+000
 0.61552815E-001  0.29591134E-004
-0.95166675E-002 -0.33753312E-004
-0.12740008E+000  0.20660560E-004
-0.24239993E+000 -0.16943766E-005
-0.33323886E+000 -0.14377922E-004
-0.39421504E+000  0.23475058E-004
-0.43075838E+000 -0.25018245E-004
-0.44884294E+000  0.20344954E-004
-0.39452660E+000  0.14677068E-004
-0.45717385E+000 -0.11421432E-004
-0.33298945E+000 -0.63159041E-005
-0.45877456E+000  0.37883859E-006
-0.24258668E+000 -0.71308445E-005
-0.12726938E+000  0.22087304E-004
-0.96009615E-002 -0.31533276E-004
 0.61597265E-001  0.26394724E-004
 0.00000000E+000  0.00000000E+000
-0.45717400E+000  0.10700763E-004
-0.44884267E+000 -0.19704526E-004
-0.43075874E+000  0.24510474E-004
 0.00000000E+000  0.00000000E+000
 0.61603356E-001 -0.32601361E-004
-0.96146222E-002  0.35070155E-004
-0.12724591E+000 -0.17625172E-004
-0.24262093E+000 -0.55394830E-005
-0.33294525E+000  0.23968517E-004
-0.39457851E+000 -0.33191881E-004
-0.43033537E+000  0.33273561E-004
-0.39421460E+000 -0.23109487E-004
-0.44931036E+000 -0.26168852E-004
-0.45667925E+000  0.14429233E-004
-0.33323931E+000  0.14190851E-004
-0.24239952E+000  0.17456474E-005
-0.45927834E+000 -0.39610421E-006
-0.12740039E+000 -0.20605035E-004
-0.95164654E-002  0.33680422E-004
 0.61552710E-001 -0.29556631E-004
 0.00000000E+000  0.00000000E+000
-0.45667913E+000 -0.13648431E-004
-0.44931066E+000  0.25488499E-004
-0.43033498E+000 -0.32726187E-004
 0.00000000E+000  0.00000000E+000
 0.61545692E-001  0.35504341E-004
-0.95007391E-002 -0.35431119E-004
-0.12742748E+000  0.12740808E-004
-0.24235999E+000  0.14963753E-004
-0.33328989E+000 -0.35420034E-004
-0.39415594E+000  0.44252796E-004
-0.43082237E+000 -0.42280349E-004
-0.39457896E+000  0.32828367E-004
-0.44877645E+000  0.32392934E-004
-0.33294478E+000 -0.23765805E-004
-0.45724144E+000 -0.17566382E-004
-0.24262134E+000  0.55059103E-005
-0.12724559E+000  0.17560023E-004
-0.45870670E+000  0.43572842E-006
-0.96148420E-002 -0.34977882E-004
 0.61603464E-001  0.32561616E-004
 0.00000000E+000  0.00000000E+000
-0.45724159E+000  0.16752394E-004
-0.44877615E+000 -0.31664385E-004
-0.43082278E+000  0.41713567E-004
 0.00000000E+000  0.00000000E+000
 0.61611704E-001 -0.38338181E-004
-0.96332216E-002  0.34625765E-004
-0.12721380E+000 -0.56134126E-005
-0.24266743E+000 -0.26892897E-004
-0.33288660E+000  0.48940968E-004
-0.39415547E+000 -0.43857024E-004
-0.39464518E+000 -0.56562992E-004
-0.43026447E+000  0.51956903E-004
-0.44938296E+000 -0.38851383E-004
-0.33329036E+000  0.35227069E-004
-0.45660626E+000  0.20809502E-004
-0.24235954E+000 -0.14937888E-004
-0.12742783E+000 -0.12650327E-004
-0.95005100E-002  0.35313587E-004
-0.45935145E+000 -0.45471810E-006
 0.61545588E-001 -0.35454009E-004
 0.00000000E+000  0.00000000E+000
-0.45660609E+000 -0.19924296E-004
-0.44938328E+000  0.38088783E-004
-0.43026405E+000 -0.51350467E-004
-0.39464569E+000  0.56166089E-004
 0.00000000E+000  0.00000000E+000
 0.61535838E-001  0.41154587E-004
-0.94785420E-002 -0.32340289E-004
-0.12746565E+000 -0.41868852E-005
-0.24230518E+000  0.41812250E-004
-0.33335751E+000 -0.64442720E-004
-0.39408078E+000  0.70175148E-004
-0.43090054E+000 -0.61920312E-004
-0.33288609E+000 -0.48740450E-004
-0.44869789E+000  0.45509848E-004
-0.24266789E+000  0.26880388E-004
-0.45731976E+000 -0.23961676E-004
-0.12721344E+000  0.54992519E-005
-0.96334619E-002 -0.34481410E-004
 0.61611805E-001  0.38278045E-004
 0.00000000E+000  0.00000000E+000
-0.45862877E+000  0.48665197E-006
-0.45731994E+000  0.23032429E-004
-0.44869756E+000 -0.44694290E-004
-0.43090099E+000  0.61287391E-004
-0.39408025E+000 -0.69745598E-004
 0.00000000E+000  0.00000000E+000
 0.61623744E-001 -0.43879939E-004
-0.96599850E-002  0.28335347E-004
-0.12716735E+000  0.17642640E-004
-0.24273246E+000 -0.59584283E-004
-0.33280816E+000  0.82548205E-004
-0.39472973E+000 -0.84105246E-004
-0.43017894E+000  0.72481372E-004
-0.33335804E+000  0.64257226E-004
-0.44946762E+000 -0.51646198E-004
-0.24230468E+000 -0.41816401E-004
-0.45652344E+000  0.27169715E-004
-0.12746603E+000  0.43352642E-005
-0.94782952E-002  0.32178897E-004
 0.61535727E-001 -0.41071838E-004
 0.00000000E+000  0.00000000E+000
-0.45943424E+000 -0.51595372E-006
-0.45652323E+000 -0.26183575E-004
-0.44946798E+000  0.50780996E-004
-0.43017846E+000 -0.71809205E-004
-0.39473029E+000  0.83674429E-004
 0.00000000E+000  0.00000000E+000
 0.61521273E-001  0.46667224E-004
-0.94447853E-002 -0.21487478E-004
-0.12752242E+000 -0.34701119E-004
-0.24222667E+000  0.81743884E-004
-0.33344852E+000 -0.10166794E-003
-0.33280760E+000 -0.82349019E-004
-0.39398610E+000  0.99226483E-004
-0.43099394E+000 -0.82050100E-004
-0.24273298E+000  0.59624730E-004
-0.44860821E+000  0.57793968E-004
-0.12716694E+000 -0.17808306E-004
-0.96602430E-002 -0.28144862E-004
-0.45740741E+000 -0.29867749E-004
 0.61623863E-001  0.43782809E-004
 0.00000000E+000  0.00000000E+000
-0.45854270E+000  0.54679873E-006
-0.45740762E+000  0.28820004E-004
-0.44860786E+000 -0.56882039E-004
-0.43099448E+000  0.81345075E-004
-0.39398550E+000 -0.98773329E-004
-0.33344915E+000  0.10149217E-003
 0.00000000E+000  0.00000000E+000
 0.61642792E-001 -0.49117938E-004
-0.97022289E-002  0.11670950E-004
-0.12709550E+000  0.57681714E-004
-0.24282743E+000 -0.10685728E-003
-0.33270239E+000  0.12300490E-003
-0.39483568E+000 -0.11327317E-003
-0.43007868E+000  0.91325164E-004
-0.24222612E+000 -0.81796089E-004
-0.44956266E+000 -0.62788385E-004
-0.12752285E+000  0.34908163E-004
-0.94444947E-002  0.21260369E-004
 0.61521165E-001 -0.46552293E-004
 0.00000000E+000  0.00000000E+000
-0.45643284E+000  0.32309566E-004
-0.45952388E+000 -0.58097288E-006
-0.45643264E+000 -0.31198633E-004
-0.44956305E+000  0.61830818E-004
-0.43007814E+000 -0.90582565E-004
-0.39483630E+000  0.11280809E-003
-0.33270177E+000 -0.12282675E-003
 0.00000000E+000  0.00000000E+000
 0.61497572E-001  0.51613409E-004
-0.93880910E-002  0.41696962E-005
-0.12761294E+000 -0.85097308E-004
-0.24210982E+000  0.13830441E-003
-0.33357104E+000 -0.14169047E-003
-0.24282802E+000  0.10693525E-003
-0.39386925E+000  0.12914634E-003
-0.43110173E+000 -0.96262323E-004
-0.12709505E+000 -0.57924225E-004
-0.44851052E+000  0.68816021E-004
-0.97025278E-002 -0.11424143E-004
 0.61642933E-001  0.48979221E-004
 0.00000000E+000  0.00000000E+000
-0.45750212E+000 -0.32955475E-004
-0.45845279E+000  0.61116281E-006
-0.45750236E+000  0.31787469E-004
-0.44851011E+000 -0.67797955E-004
-0.43110230E+000  0.95485935E-004
-0.39386859E+000 -0.12865637E-003
-0.33357173E+000  0.14152664E-003
-0.24210920E+000 -0.13841978E-003
 0.00000000E+000  0.00000000E+000
 0.61678070E-001 -0.51901217E-004
-0.97738504E-002 -0.23177733E-004
-0.12697355E+000  0.12668455E-003
-0.24296788E+000 -0.16414865E-003
-0.33255991E+000  0.16907532E-003
-0.39496421E+000 -0.13256091E-003
-0.12761344E+000  0.85391497E-004
-0.42996817E+000  0.10773995E-003
-0.93877920E-002 -0.44584912E-005
 0.61497408E-001 -0.51470964E-004
 0.00000000E+000  0.00000000E+000
-0.44966763E+000 -0.66927364E-004
-0.45634236E+000  0.36194589E-004
-0.45962044E+000 -0.64909340E-006
-0.45634213E+000 -0.34955337E-004
-0.44966807E+000  0.65853222E-004
-0.42996758E+000 -0.10692812E-003
-0.39496493E+000  0.13207062E-003
-0.33255916E+000 -0.16891668E-003
-0.24296854E+000  0.16429608E-003
-0.12697304E+000 -0.12699727E-003
 0.00000000E+000  0.00000000E+000
 0.61454456E-001  0.51906856E-004
-0.92815896E-002  0.56194861E-004
-0.12776887E+000 -0.17173364E-003
-0.24193625E+000  0.19639753E-003
-0.33373630E+000 -0.18977715E-003
-0.39373663E+000  0.13196624E-003
-0.97741726E-002  0.23514632E-004
 0.61678219E-001  0.51741193E-004
-0.43122154E+000 -0.11955839E-003
 0.00000000E+000  0.00000000E+000
-0.44840762E+000  0.58932397E-004
-0.45759344E+000 -0.41393508E-004
-0.45835691E+000  0.67673255E-006
-0.45759367E+000  0.40083123E-004
-0.44840714E+000 -0.57805333E-004
-0.43122217E+000  0.11869286E-003
-0.39373588E+000 -0.13145715E-003
-0.33373704E+000  0.18963711E-003
-0.24193555E+000 -0.19657626E-003
-0.12776941E+000  0.17211641E-003
-0.92812422E-002 -0.56567605E-004
 0.00000000E+000  0.00000000E+000
 0.61735112E-001 -0.53870011E-004
-0.99418964E-002 -0.12236541E-003
-0.12679089E+000  0.18875137E-003
-0.24321079E+000 -0.28583392E-003
 0.61454318E-001 -0.51708211E-004
-0.33240386E+000  0.12288821E-003
 0.00000000E+000  0.00000000E+000
-0.39511743E+000 -0.22038670E-003
-0.42983773E+000  0.34924381E-004
-0.44973662E+000 -0.12379499E-003
-0.45620033E+000  0.34844595E-005
-0.45965424E+000 -0.73320535E-006
-0.45620006E+000 -0.21261234E-005
-0.44973710E+000  0.12259323E-003
-0.42983704E+000 -0.34042717E-004
-0.39511820E+000  0.21985877E-003
-0.33240306E+000 -0.12275976E-003
-0.24321150E+000  0.28604266E-003
-0.12679032E+000 -0.18917494E-003
-0.99422540E-002  0.12279994E-003
 0.61735264E-001  0.53645195E-004
 0.00000000E+000  0.00000000E+000
 0.00000000E+000  0.00000000E+000
 0.61296392E-001  0.18027549E-004
-0.91532999E-002  0.11826618E-003
-0.12815526E+000 -0.38389078E-003
-0.24177369E+000  0.11550585E-003
-0.33398535E+000 -0.35577322E-003
-0.39359009E+000 -0.29285698E-004
-0.43127909E+000 -0.25481302E-003
-0.44819155E+000 -0.51539365E-004
-0.45752742E+000 -0.93609211E-004
-0.45810315E+000  0.74315153E-006
-0.45752769E+000  0.92121124E-004
-0.44819101E+000  0.52762574E-004
-0.43127980E+000  0.25385568E-003
-0.39358925E+000  0.29801685E-004
-0.33398619E+000  0.35564831E-003
-0.24177290E+000 -0.11576858E-003
-0.12815585E+000  0.38436835E-003
-0.91529106E-002 -0.11876014E-003
 0.61296235E-001 -0.17755965E-004
 0.00000000E+000  0.00000000E+000
 0.00000000E+000  0.00000000E+000
 0.61772625E-001 -0.36725821E-004
-0.10475541E-001 -0.35289669E-003
-0.12661796E+000  0.20477130E-003
-0.24365733E+000 -0.44315887E-003
-0.33227249E+000 -0.31010455E-004
-0.39522501E+000 -0.33516783E-003
-0.42958235E+000 -0.79000288E-004
-0.44961419E+000 -0.17715833E-003
-0.45585513E+000 -0.32932988E-004
-0.45945715E+000 -0.83440869E-006
-0.45585480E+000  0.34404278E-004
-0.44961470E+000  0.17579511E-003
-0.42958158E+000  0.79928555E-004
-0.39522585E+000  0.33458409E-003
-0.33227157E+000  0.31091058E-004
-0.24365812E+000  0.44343681E-003
-0.12661731E+000 -0.20532796E-003
-0.10475945E-001  0.35344468E-003
 0.61772797E-001  0.36407371E-004
 0.00000000E+000  0.00000000E+000
 0.00000000E+000  0.00000000E+000
 0.60830082E-001 -0.70300695E-004
-0.88646430E-002  0.36032561E-003
-0.12885975E+000 -0.45130777E-003
-0.24159067E+000  0.15042709E-003
-0.33417719E+000 -0.21264723E-003
-0.39333581E+000  0.96399249E-004
-0.43121087E+000 -0.64130283E-004
-0.44790223E+000  0.72483999E-004
-0.45739480E+000 -0.58737869E-005
-0.45782282E+000  0.79906300E-006
-0.45739507E+000  0.41742164E-005
-0.44790160E+000 -0.71187052E-004
-0.43121162E+000  0.63050298E-004
-0.39333483E+000 -0.95894276E-004
-0.33417806E+000  0.21252065E-003
-0.24158976E+000 -0.15078936E-003
-0.12886039E+000  0.45189901E-003
-0.88641708E-002 -0.36096529E-003
 0.60829907E-001  0.70651200E-004
 0.00000000E+000  0.00000000E+000
 0.00000000E+000  0.00000000E+000
 0.62264028E-001  0.21259897E-003
-0.11391669E-001 -0.49158645E-003
-0.12602180E+000  0.50853320E-003
-0.24380493E+000  0.11906670E-003
-0.33191132E+000  0.52125740E-003
-0.39523002E+000  0.34429816E-003
-0.42945343E+000  0.45931301E-003
-0.44976741E+000  0.27280725E-003
-0.45595046E+000  0.18580234E-003
-0.45971342E+000 -0.94643758E-006
-0.45595011E+000 -0.18421981E-003
-0.44976797E+000 -0.27434914E-003
-0.42945253E+000 -0.45835279E-003
-0.39523088E+000 -0.34495117E-003
-0.33191028E+000 -0.52125065E-003
-0.24380572E+000 -0.11873277E-003
-0.12602098E+000 -0.50923757E-003
-0.11392087E-001  0.49228116E-003
 0.62264267E-001 -0.21300246E-003
 0.00000000E+000  0.00000000E+000
 0.00000000E+000  0.00000000E+000
 0.59846486E-001 -0.40621589E-003
-0.70421909E-002  0.95929770E-003
-0.12874178E+000  0.41568695E-003
-0.24084244E+000  0.91272202E-003
-0.33408507E+000  0.78942615E-003
-0.39323467E+000  0.91238139E-003
-0.43161341E+000  0.72241236E-003
-0.44843739E+000  0.58805331E-003
-0.45824164E+000  0.29145859E-003
-0.45863133E+000  0.87051932E-006
-0.45824196E+000 -0.29335386E-003
-0.44843667E+000 -0.58665563E-003
-0.43161419E+000 -0.72361039E-003
-0.39323356E+000 -0.91188342E-003
-0.33408594E+000 -0.78955251E-003
-0.24084138E+000 -0.91321935E-003
-0.12874242E+000 -0.41498595E-003
-0.70415488E-002 -0.96009566E-003
 0.59846330E-001  0.40668036E-003
 0.00000000E+000  0.00000000E+000
 0.00000000E+000  0.00000000E+000
 0.65929770E-001  0.13383972E-002
-0.12288021E-001  0.13729342E-003
-0.12536589E+000  0.39348329E-003
-0.24364779E+000  0.32682286E-003
-0.33145704E+000  0.56889827E-003
-0.39536091E+000  0.71062735E-003
-0.42992398E+000  0.77479134E-003
-0.45082288E+000  0.62721752E-003
-0.45723998E+000  0.35983603E-003
-0.46119940E+000 -0.10397756E-005
-0.45723956E+000 -0.35809140E-003
-0.45082345E+000 -0.62889821E-003
-0.42992296E+000 -0.77375880E-003
-0.39536175E+000 -0.71131146E-003
-0.33145582E+000 -0.56892138E-003
-0.24364858E+000 -0.32638115E-003
-0.12536495E+000 -0.39432724E-003
-0.12288478E-001 -0.13647395E-003
 0.65930157E-001 -0.13389626E-002
 0.00000000E+000  0.00000000E+000
 0.00000000E+000  0.00000000E+000
 0.50639070E-001 -0.31789455E-002
-0.72278138E-002 -0.41718166E-002
-0.12633851E+000 -0.34077754E-002
-0.23672641E+000 -0.19501666E-002
-0.33086690E+000 -0.22443833E-003
-0.39136651E+000  0.74307870E-003
-0.43146798E+000  0.11787627E-002
-0.44949182E+000  0.10183335E-002
-0.46013107E+000  0.58931962E-003
-0.46072176E+000  0.95425127E-006
-0.46013137E+000 -0.59133005E-003
-0.44949102E+000 -0.10168348E-002
-0.43146869E+000 -0.11799671E-002
-0.39136525E+000 -0.74258155E-003
-0.33086767E+000  0.22449577E-003
-0.23672515E+000  0.19495603E-002
-0.12633907E+000  0.34088338E-002
-0.72271255E-002  0.41711023E-002
 0.50638750E-001  0.31793657E-002
 0.00000000E+000  0.00000000E+000
 0.00000000E+000  0.00000000E+000
 0.87244570E-001 -0.89360158E-002
 0.45781759E-002 -0.73364330E-002
-0.11366951E+000 -0.53283986E-002
-0.23798742E+000 -0.21359431E-002
-0.33021602E+000 -0.63071335E-003
-0.39716216E+000  0.46666062E-003
-0.43318629E+000  0.62608055E-003
-0.45465528E+000  0.63022522E-003
-0.46112042E+000  0.32860215E-003
-0.46508735E+000 -0.11594544E-005
-0.46111994E+000 -0.32659474E-003
-0.45465582E+000 -0.63209916E-003
-0.43318513E+000 -0.62485312E-003
-0.39716288E+000 -0.46739570E-003
-0.33021456E+000  0.63085259E-003
-0.23798793E+000  0.21364486E-002
-0.11366812E+000  0.53276270E-002
 0.45779841E-002  0.73377909E-002
 0.87245211E-001  0.89354217E-002
 0.00000000E+000  0.00000000E+000
