 0.00000000E+000  0.00000000E+000
-0.14912748E-001 -0.00000000E+000
-0.28255734E-001 -0.00000000E+000
-0.40028955E-001 -0.00000000E+000
-0.50232414E-001 -0.00000000E+000
-0.58866113E-001 -0.00000000E+000
 0.00000000E+000  0.00000000E+000
-0.10109498E+000 -0.40168240E-001
-0.11848584E+000 -0.10558654E+000
-0.99918477E-001 -0.15933382E+000
-0.65930046E-001 -0.00000000E+000
-0.71973897E-001 -0.18895345E+000
-0.46178303E-001 -0.19345512E+000
-0.26680354E-001 -0.17683093E+000
-0.71424216E-001 -0.00000000E+000
-0.13519989E-001 -0.14452971E+000
 0.00000000E+000  0.00000000E+000
-0.19541612E+000 -0.12039993E-001
-0.22828415E+000 -0.33725522E-001
-0.18432272E+000 -0.60069020E-001
-0.11348529E+000 -0.81622548E-001
-0.43607473E-001 -0.92684097E-001
 0.13881581E-001 -0.91600790E-001
-0.75348623E-001 -0.00000000E+000
-0.54621868E-002 -0.10160514E+000
 0.55986624E-001 -0.79195782E-001
 0.00000000E+000  0.00000000E+000
-0.22021342E+000 -0.31444404E-002
-0.26768153E+000 -0.90097142E-002
-0.22161132E+000 -0.13961995E-001
-0.13890524E+000 -0.17856026E-001
 0.83832457E-001 -0.57854261E-001
-0.51598083E-001 -0.20368002E-001
-0.77703267E-001 -0.00000000E+000
 0.24032557E-001 -0.20683148E-001
-0.11935060E-002 -0.52287612E-001
 0.82319058E-001 -0.18550898E-001
 0.99468305E-001 -0.30439997E-001
 0.12249117E+000 -0.13960002E-001
 0.00000000E+000  0.00000000E+000
-0.78488148E-001 -0.00000000E+000
-0.22496473E+000  0.56059844E-003
-0.27042394E+000  0.29625911E-002
-0.22309857E+000  0.59328274E-002
-0.13899455E+000  0.90648569E-002
-0.51165457E-001  0.11615019E-001
 0.14052928E-003 -0.20307149E-008
 0.25160271E-001  0.12505374E-001
 0.84175907E-001  0.11572603E-001
 0.14575524E+000 -0.74988803E-002
 0.10448285E+000  0.26323976E-008
 0.12518371E+000  0.88076731E-002
-0.77703267E-001 -0.00000000E+000
-0.11935068E-002  0.52287615E-001
 0.00000000E+000  0.00000000E+000
 0.15335151E+000 -0.78042541E-008
-0.21958428E+000  0.18120752E-002
-0.26204764E+000  0.50097224E-002
-0.21276319E+000  0.95120323E-002
-0.12989254E+000  0.14083182E-001
-0.45543391E-001  0.17363056E-001
 0.14907422E+000  0.47553461E-002
 0.25253109E-001  0.18742676E-001
 0.78359737E-001  0.17412183E-001
 0.99468305E-001  0.30439987E-001
 0.11413739E+000  0.13476211E-001
 0.15690079E+000  0.78986168E-008
-0.75348623E-001 -0.00000000E+000
 0.14575524E+000  0.74988910E-002
-0.54621868E-002  0.10160513E+000
 0.13454437E+000  0.73311463E-002
 0.00000000E+000  0.00000000E+000
-0.21457557E+000  0.86243293E-003
-0.25339114E+000  0.32349769E-002
-0.20302154E+000  0.61209197E-002
-0.12097889E+000  0.90178763E-002
-0.40035497E-001  0.11501532E-001
 0.83832457E-001  0.57854268E-001
 0.25777226E-001  0.12543659E-001
 0.72884365E-001  0.11928767E-001
 0.14907422E+000 -0.47553610E-002
-0.71424216E-001 -0.00000000E+000
 0.14114168E+000 -0.76978912E-008
 0.10315626E+000  0.93135833E-002
 0.12249117E+000  0.13959992E-001
-0.13519990E-001  0.14452973E+000
 0.55986620E-001  0.79195767E-001
 0.11963041E+000  0.51318118E-002
-0.65930046E-001 -0.00000000E+000
 0.12518371E+000 -0.88076544E-002
 0.13454437E+000 -0.73311259E-002
 0.00000000E+000  0.00000000E+000
-0.21202152E+000  0.40573781E-003
-0.24911251E+000  0.90583588E-003
-0.19776643E+000  0.18590595E-002
-0.26680355E-001  0.17683093E+000
-0.11606256E+000  0.30469400E-002
-0.36497592E-001  0.39579048E-002
 0.82319058E-001  0.18550911E-001
 0.26526508E-001  0.46515217E-002
 0.70262379E-001  0.45331325E-002
 0.12483731E+000  0.11767052E-007
 0.13881583E-001  0.91600798E-001
-0.58866113E-001 -0.00000000E+000
 0.97088515E-001  0.36923107E-002
-0.46178307E-001  0.19345512E+000
 0.84175914E-001 -0.11572618E-001
 0.24032553E-001  0.20683133E-001
 0.11413739E+000 -0.13476231E-001
-0.43607477E-001  0.92684082E-001
-0.50232414E-001 -0.00000000E+000
 0.11111003E+000  0.20508135E-002
-0.71973904E-001  0.18895345E+000
 0.11963042E+000 -0.51318327E-002
-0.40028955E-001 -0.00000000E+000
-0.99918469E-001  0.15933382E+000
-0.11348529E+000  0.81622555E-001
-0.28255734E-001 -0.00000000E+000
-0.51598079E-001  0.20368013E-001
-0.11848584E+000  0.10558654E+000
-0.14912748E-001 -0.00000000E+000
 0.00000000E+000  0.00000000E+000
 0.00000000E+000  0.00000000E+000
-0.21164987E+000 -0.16021988E-003
-0.24827660E+000 -0.18353736E-003
-0.19653278E+000 -0.27962474E-003
 0.25160271E-001 -0.12505357E-001
-0.11454247E+000 -0.35549208E-003
-0.10109498E+000  0.40168240E-001
-0.35232651E-001 -0.13567194E-003
-0.18432272E+000  0.60069013E-001
 0.00000000E+000  0.00000000E+000
 0.11537032E+000 -0.12747663E-007
 0.27224654E-001 -0.38482539E-004
 0.78359737E-001 -0.17412159E-001
-0.22828415E+000  0.33725526E-001
 0.69808401E-001  0.18613904E-003
-0.13890524E+000  0.17856016E-001
-0.19541612E+000  0.12039990E-001
 0.00000000E+000  0.00000000E+000
 0.10315626E+000 -0.93135591E-002
 0.95483735E-001  0.20393783E-003
-0.22161132E+000  0.13962004E-001
-0.51165461E-001 -0.11615035E-001
-0.26768153E+000  0.90097105E-002
-0.22021341E+000  0.31444428E-002
 0.11111003E+000 -0.20507897E-002
 0.00000000E+000  0.00000000E+000
 0.25253111E-001 -0.18742697E-001
 0.10849440E+000  0.16251982E-003
-0.13899454E+000 -0.90648392E-002
-0.22309857E+000 -0.59328363E-002
 0.72884373E-001 -0.11928791E-001
-0.27042391E+000 -0.29625820E-002
-0.45543391E-001 -0.17363036E-001
-0.22496473E+000 -0.56060100E-003
 0.11244615E+000  0.11518892E-007
 0.00000000E+000  0.00000000E+000
 0.00000000E+000  0.00000000E+000
-0.21206082E+000 -0.80493700E-004
-0.24879710E+000 -0.41303527E-003
-0.19697357E+000 -0.71510893E-003
-0.11477220E+000 -0.89511944E-003
-0.35100288E-001 -0.11530946E-002
 0.97088523E-001 -0.36923363E-002
 0.27497427E-001 -0.10815155E-002
-0.12989255E+000 -0.14083200E-001
 0.70260949E-001 -0.10218372E-002
 0.25777224E-001 -0.12543633E-001
-0.21276319E+000 -0.95120146E-002
 0.95830954E-001 -0.71833701E-003
-0.26204764E+000 -0.50097308E-002
 0.10849441E+000 -0.16254931E-003
-0.21958428E+000 -0.18120720E-002
 0.00000000E+000  0.00000000E+000
-0.40035493E-001 -0.11501559E-001
 0.70262372E-001 -0.45331032E-002
 0.10884738E+000 -0.39979818E-003
-0.12097888E+000 -0.90178530E-002
 0.95483727E-001 -0.20390962E-003
-0.20302154E+000 -0.61209360E-002
 0.11268563E+000 -0.15288705E-007
 0.26526516E-001 -0.46515520E-002
-0.25339111E+000 -0.32349640E-002
-0.21457558E+000 -0.86243671E-003
 0.00000000E+000  0.00000000E+000
 0.00000000E+000  0.00000000E+000
-0.21244017E+000 -0.98232441E-004
-0.24937883E+000 -0.18642781E-003
-0.19754761E+000 -0.33501262E-003
-0.11520928E+000 -0.56911940E-003
-0.35363856E-001 -0.58442645E-003
 0.27616616E-001 -0.72000146E-003
 0.70586524E-001 -0.59913948E-003
-0.36497592E-001 -0.39578746E-002
 0.69808408E-001 -0.18617133E-003
 0.10884738E+000  0.39982498E-003
 0.96510969E-001 -0.50564052E-003
-0.11606256E+000 -0.30469691E-002
 0.10958719E+000 -0.25550823E-003
-0.19776642E+000 -0.18590380E-002
-0.24911251E+000 -0.90584775E-003
 0.27224648E-001  0.38516522E-004
-0.21202152E+000 -0.40573315E-003
 0.00000000E+000  0.00000000E+000
 0.95830962E-001  0.71830447E-003
 0.11358837E+000  0.14205600E-007
-0.35232648E-001  0.13563621E-003
 0.00000000E+000  0.00000000E+000
-0.21258604E+000  0.15164718E-006
-0.24960593E+000 -0.49597063E-004
-0.19781920E+000 -0.11859449E-003
-0.11545480E+000 -0.82145277E-004
-0.35465020E-001 -0.21449789E-003
 0.70260941E-001  0.10218715E-002
-0.11454247E+000  0.35552217E-003
 0.27558051E-001 -0.13713272E-003
 0.70798017E-001 -0.20248049E-003
 0.10958719E+000  0.25547685E-003
-0.19653278E+000  0.27959787E-003
 0.96744127E-001 -0.11509179E-003
-0.24827660E+000  0.18355312E-003
-0.21164989E+000  0.16021709E-003
 0.00000000E+000  0.00000000E+000
 0.27497433E-001  0.10814757E-002
 0.11006290E+000 -0.84456281E-004
 0.96510961E-001  0.50567399E-003
-0.35100296E-001  0.11531335E-002
 0.11396200E+000 -0.14524276E-007
-0.11477220E+000  0.89508137E-003
 0.70586532E-001  0.59910118E-003
-0.19697357E+000  0.71513577E-003
-0.24879710E+000  0.41301888E-003
 0.00000000E+000  0.00000000E+000
-0.21262520E+000 -0.51411416E-005
-0.24966126E+000 -0.12564264E-004
-0.19787360E+000  0.26302675E-004
-0.11548797E+000 -0.57655790E-004
-0.21206082E+000  0.80498793E-004
-0.35540699E-001  0.39635888E-004
 0.11006289E+000  0.84488761E-004
 0.00000000E+000  0.00000000E+000
 0.27612909E-001 -0.53617295E-004
 0.70753335E-001  0.21310723E-004
 0.27616607E-001  0.72004500E-003
 0.96893958E-001 -0.27924785E-004
 0.96744135E-001  0.11505498E-003
 0.11006715E+000  0.53573712E-005
-0.35363852E-001  0.58438180E-003
-0.11520929E+000  0.56916009E-003
 0.11415770E+000  0.16854961E-007
-0.19754761E+000  0.33498008E-003
 0.70798009E-001  0.20252363E-003
-0.24937881E+000  0.18644540E-003
-0.21244019E+000  0.98230775E-004
 0.00000000E+000  0.00000000E+000
 0.11006716E+000 -0.53913440E-005
 0.00000000E+000  0.00000000E+000
-0.21261519E+000 -0.63114848E-005
-0.24966993E+000  0.17438458E-004
-0.19787342E+000 -0.39867340E-004
 0.27558060E-001  0.13708863E-003
-0.11551564E+000  0.45371514E-004
-0.35492796E-001 -0.53964238E-004
 0.27541467E-001  0.37925707E-004
 0.70847578E-001 -0.33828062E-004
 0.96794597E-001  0.17590053E-004
-0.35465028E-001  0.21454729E-003
 0.96893951E-001  0.27962785E-004
 0.11018614E+000 -0.10301720E-004
-0.11545480E+000  0.82100727E-004
-0.19781920E+000  0.11863028E-003
-0.24960593E+000  0.49576708E-004
-0.21258603E+000 -0.14539658E-006
 0.70753350E-001 -0.21353624E-004
 0.00000000E+000  0.00000000E+000
 0.11404900E+000 -0.16853105E-007
 0.27612902E-001  0.53669758E-004
 0.11018613E+000  0.10335191E-004
 0.00000000E+000  0.00000000E+000
-0.21263313E+000  0.13717335E-004
-0.24966056E+000 -0.29215480E-004
-0.19789306E+000  0.38948732E-004
-0.11548550E+000 -0.55155589E-004
-0.35555250E-001  0.42164196E-004
 0.27629850E-001 -0.48117988E-004
-0.35540692E-001 -0.39687060E-004
 0.70738807E-001  0.21931913E-004
 0.96927411E-001 -0.24340757E-004
 0.96794612E-001 -0.17630141E-004
-0.11548797E+000  0.57704764E-004
-0.19787360E+000 -0.26340738E-004
 0.11005167E+000  0.54998117E-005
-0.24966125E+000  0.12586310E-004
-0.21262522E+000  0.51354254E-005
 0.00000000E+000  0.00000000E+000
 0.70847570E-001  0.33876618E-004
 0.11419764E+000  0.16425442E-007
 0.27541480E-001 -0.37978959E-004
 0.11005168E+000 -0.55377199E-005
-0.35492800E-001  0.54019597E-004
 0.00000000E+000  0.00000000E+000
-0.21261392E+000 -0.21118163E-004
-0.24968373E+000  0.36053836E-004
-0.19786828E+000 -0.46787459E-004
-0.11553501E+000  0.51154765E-004
-0.35482000E-001 -0.48319197E-004
 0.27521129E-001  0.37187128E-004
-0.11551564E+000 -0.45426524E-004
 0.70875339E-001 -0.28657610E-004
 0.96927396E-001  0.24382219E-004
-0.19787341E+000  0.39907296E-004
 0.96773497E-001  0.15369681E-004
-0.24966993E+000 -0.17465430E-004
-0.21261517E+000  0.63161623E-005
 0.00000000E+000  0.00000000E+000
 0.11022706E+000 -0.86412628E-005
 0.70738822E-001 -0.21982010E-004
 0.11402786E+000 -0.18464467E-007
 0.27629842E-001  0.48170564E-004
 0.11022705E+000  0.86761838E-005
-0.35555236E-001 -0.42228235E-004
-0.11548549E+000  0.55208729E-004
 0.00000000E+000  0.00000000E+000
-0.21263712E+000  0.27669397E-004
-0.24965256E+000 -0.42654643E-004
-0.19790813E+000  0.52617833E-004
-0.11547287E+000 -0.50870461E-004
-0.35577405E-001  0.47659679E-004
-0.19789305E+000 -0.38997299E-004
 0.27651851E-001 -0.33761341E-004
 0.96773512E-001 -0.15413910E-004
-0.24966056E+000  0.29236653E-004
 0.70710472E-001  0.25743092E-004
-0.21263313E+000 -0.13726428E-004
 0.00000000E+000  0.00000000E+000
 0.96963316E-001 -0.13253275E-004
 0.11002106E+000  0.71545700E-005
 0.70875324E-001  0.28705737E-004
 0.11423992E+000  0.16147593E-007
 0.27521146E-001 -0.37253161E-004
-0.35482008E-001  0.48377885E-004
 0.11002106E+000 -0.71948284E-005
-0.11553500E+000 -0.51220413E-004
-0.19786828E+000  0.46832770E-004
-0.24968373E+000 -0.36086308E-004
-0.21261392E+000  0.21121650E-004
 0.96963301E-001  0.13295461E-004
 0.00000000E+000  0.00000000E+000
 0.00000000E+000  0.00000000E+000
-0.21260869E+000 -0.33062449E-004
-0.24969166E+000  0.50220583E-004
-0.19785305E+000 -0.55358563E-004
-0.11555285E+000  0.53412644E-004
-0.35459112E-001 -0.42885258E-004
 0.27491977E-001  0.32505296E-004
 0.70907913E-001 -0.19651097E-004
 0.96734561E-001  0.11993378E-004
 0.70710495E-001 -0.25799501E-004
 0.11026673E+000 -0.46196423E-005
 0.27651838E-001  0.33819214E-004
 0.11398549E+000 -0.17404135E-007
-0.35577394E-001 -0.47732759E-004
 0.11026671E+000  0.46549830E-005
-0.11547288E+000  0.50929669E-004
-0.19790811E+000 -0.52671282E-004
-0.24965256E+000  0.42680625E-004
-0.21263714E+000 -0.27676394E-004
 0.00000000E+000  0.00000000E+000
 0.96734575E-001 -0.12039319E-004
 0.00000000E+000  0.00000000E+000
-0.21264088E+000  0.38454421E-004
-0.24964167E+000 -0.56076594E-004
-0.19792252E+000  0.59445479E-004
-0.11545083E+000 -0.52452407E-004
-0.35604141E-001  0.40465067E-004
 0.27685096E-001 -0.26830422E-004
 0.70670880E-001  0.15763303E-004
 0.97005389E-001 -0.76994847E-005
 0.70907898E-001  0.19705154E-004
 0.10997354E+000  0.30277178E-005
 0.27491996E-001 -0.32575288E-004
 0.11428512E+000  0.18718210E-007
-0.35459127E-001  0.42953350E-004
-0.11555284E+000 -0.53484603E-004
 0.10997355E+000 -0.30646431E-005
-0.19785305E+000  0.55409931E-004
-0.24969166E+000 -0.50254620E-004
-0.21260869E+000  0.33068699E-004
 0.00000000E+000  0.00000000E+000
 0.97005374E-001  0.77450085E-005
 0.00000000E+000  0.00000000E+000
-0.21260353E+000 -0.43463878E-004
-0.24970190E+000  0.61773578E-004
-0.19783553E+000 -0.62014085E-004
-0.11557686E+000  0.51419141E-004
-0.35427317E-001 -0.35743210E-004
 0.27453226E-001  0.21157076E-004
 0.70952355E-001 -0.98675827E-005
 0.70670895E-001 -0.15821100E-004
 0.96685096E-001  0.35334944E-005
 0.11031791E+000 -0.66521585E-006
 0.27685077E-001  0.26897187E-004
 0.11393235E+000 -0.15102358E-007
-0.35604126E-001 -0.40541053E-004
-0.11545084E+000  0.52522307E-004
-0.19792252E+000 -0.59503374E-004
 0.11031790E+000  0.70244340E-006
-0.24964167E+000  0.56104934E-004
-0.21264088E+000 -0.38462152E-004
 0.00000000E+000  0.00000000E+000
 0.96685118E-001 -0.35784330E-005
 0.00000000E+000  0.00000000E+000
-0.21264624E+000  0.48404952E-004
-0.24962987E+000 -0.66749023E-004
-0.19794164E+000  0.63861421E-004
-0.11542285E+000 -0.48663241E-004
-0.35640794E-001  0.30028475E-004
 0.27729671E-001 -0.13745925E-004
 0.70952340E-001  0.99276076E-005
 0.70619866E-001  0.33307244E-005
 0.97060509E-001  0.15673533E-005
 0.27453249E-001 -0.21227466E-004
 0.10991561E+000 -0.18755026E-005
-0.35427331E-001  0.35823530E-004
 0.11434351E+000  0.16310842E-007
-0.11557685E+000 -0.51493443E-004
-0.19783553E+000  0.62072453E-004
-0.24970190E+000 -0.61808983E-004
 0.10991562E+000  0.18411941E-005
-0.21260353E+000  0.43470012E-004
 0.00000000E+000  0.00000000E+000
 0.97060494E-001 -0.15199622E-005
 0.70619888E-001 -0.33891897E-005
 0.00000000E+000  0.00000000E+000
-0.21259731E+000 -0.53288822E-004
-0.24971489E+000  0.71224239E-004
-0.19781355E+000 -0.64329615E-004
-0.11560895E+000  0.44454300E-004
-0.35384859E-001 -0.22352851E-004
 0.27402032E-001  0.51608612E-005
 0.71009978E-001  0.44798216E-005
 0.96623159E-001 -0.71155741E-005
 0.27729650E-001  0.13822326E-004
 0.11038188E+000  0.48142887E-005
-0.35640776E-001 -0.30107879E-004
 0.11386743E+000 -0.12945765E-007
-0.11542286E+000  0.48743997E-004
-0.19794163E+000 -0.63923042E-004
-0.24962985E+000  0.66785396E-004
-0.21264624E+000 -0.48415520E-004
 0.00000000E+000  0.00000000E+000
 0.11038187E+000 -0.47789599E-005
 0.96623182E-001  0.70706637E-005
 0.71009948E-001 -0.44187695E-005
 0.00000000E+000  0.00000000E+000
-0.21265330E+000  0.58229648E-004
-0.24961493E+000 -0.75019212E-004
-0.19796687E+000  0.63310115E-004
-0.11538548E+000 -0.38171976E-004
-0.35689875E-001  0.12775733E-004
 0.27788234E-001  0.50376925E-005
 0.70554867E-001 -0.13237196E-004
 0.27402056E-001 -0.52359482E-005
 0.97129240E-001  0.13295749E-004
 0.10984496E+000 -0.79673118E-005
-0.35384878E-001  0.22440835E-004
-0.11560894E+000 -0.44535398E-004
 0.11441462E+000  0.15403896E-007
-0.19781355E+000  0.64395579E-004
-0.24971489E+000 -0.71259324E-004
-0.21259731E+000  0.53296160E-004
 0.00000000E+000  0.00000000E+000
 0.10984497E+000  0.79355295E-005
 0.97129225E-001 -0.13252531E-004
 0.70554889E-001  0.13176435E-004
 0.00000000E+000  0.00000000E+000
-0.21258908E+000 -0.63291336E-004
-0.24973221E+000  0.78026816E-004
-0.19778399E+000 -0.60414622E-004
-0.11565271E+000  0.29470171E-004
-0.35327885E-001 -0.97090901E-006
 0.27335179E-001 -0.16830543E-004
 0.71082860E-001  0.22925671E-004
 0.27788210E-001 -0.49593186E-005
 0.96547223E-001 -0.19942372E-004
-0.35689853E-001 -0.12863860E-004
 0.11045909E+000  0.11303228E-004
-0.11538549E+000  0.38259782E-004
-0.19796685E+000 -0.63379608E-004
 0.11378989E+000 -0.12006211E-007
-0.24961493E+000  0.75061077E-004
-0.21265332E+000 -0.58238201E-004
 0.00000000E+000  0.00000000E+000
 0.11045908E+000 -0.11275265E-004
 0.96547245E-001  0.19899582E-004
 0.71082830E-001 -0.22862548E-004
 0.00000000E+000  0.00000000E+000
-0.21266302E+000  0.68527966E-004
-0.24959443E+000 -0.80031561E-004
-0.19800202E+000  0.55173011E-004
-0.11533372E+000 -0.17888205E-004
-0.35756208E-001 -0.13259641E-004
 0.27335207E-001  0.16748028E-004
 0.27864437E-001  0.30173025E-004
 0.70473544E-001 -0.33377666E-004
 0.97212538E-001  0.26896008E-004
-0.35327911E-001  0.10628209E-005
 0.10976119E+000 -0.14728126E-004
-0.11565270E+000 -0.29559481E-004
-0.19778399E+000  0.60487935E-004
-0.24973221E+000 -0.78070603E-004
 0.11449845E+000  0.11612543E-007
-0.21258908E+000  0.63298408E-004
 0.00000000E+000  0.00000000E+000
 0.10976120E+000  0.14702327E-004
 0.97212515E-001 -0.26855001E-004
 0.70473574E-001  0.33316016E-004
 0.27864405E-001 -0.30092705E-004
 0.00000000E+000  0.00000000E+000
-0.21257744E+000 -0.73989838E-004
-0.24975696E+000  0.80691097E-004
-0.19774149E+000 -0.46975921E-004
-0.11571453E+000  0.29444604E-005
-0.35250373E-001  0.30067310E-004
 0.27248488E-001 -0.44883436E-004
 0.71173116E-001  0.44347223E-004
-0.35756185E-001  0.13163384E-004
 0.96456542E-001 -0.33925993E-004
-0.11533373E+000  0.17984493E-004
 0.11054923E+000  0.18133261E-004
-0.19800202E+000 -0.55247503E-004
-0.24959443E+000  0.80070494E-004
-0.21266302E+000 -0.68537454E-004
 0.00000000E+000  0.00000000E+000
 0.11370006E+000 -0.61198437E-008
 0.11054921E+000 -0.18109883E-004
 0.96456564E-001  0.33888438E-004
 0.71173086E-001 -0.44286061E-004
 0.27248518E-001  0.44798620E-004
 0.00000000E+000  0.00000000E+000
-0.21267725E+000  0.79670906E-004
-0.24956391E+000 -0.79517260E-004
-0.19805425E+000  0.35041219E-004
-0.11525910E+000  0.15906636E-004
-0.35847041E-001 -0.49396676E-004
 0.27962822E-001  0.60647485E-004
 0.70374004E-001 -0.55397293E-004
-0.35250402E-001 -0.29966615E-004
 0.97310446E-001  0.40777842E-004
-0.11571452E+000 -0.30420380E-005
 0.10966507E+000 -0.21350208E-004
-0.19774149E+000  0.47055258E-004
-0.24975696E+000 -0.80738420E-004
-0.21257743E+000  0.73998853E-004
 0.00000000E+000  0.00000000E+000
 0.11459381E+000  0.74778094E-008
 0.10966508E+000  0.21334137E-004
 0.97310416E-001 -0.40740571E-004
 0.70374034E-001  0.55339176E-004
 0.27962785E-001 -0.60560527E-004
 0.00000000E+000  0.00000000E+000
-0.21255965E+000 -0.85528779E-004
-0.24979537E+000  0.75754891E-004
-0.19767613E+000 -0.18310382E-004
-0.11580540E+000 -0.39063786E-004
-0.35143662E-001  0.71105336E-004
-0.35847011E-001  0.49294834E-004
 0.27137303E-001 -0.76752956E-004
 0.71282029E-001  0.66129483E-004
-0.11525911E+000 -0.15802310E-004
 0.96351750E-001 -0.47013618E-004
-0.19805423E+000 -0.35124096E-004
-0.24956391E+000  0.79562421E-004
 0.11065064E+000  0.24270673E-004
-0.21267725E+000 -0.79674915E-004
 0.00000000E+000  0.00000000E+000
 0.11359976E+000 -0.85238832E-009
 0.11065062E+000 -0.24255306E-004
 0.96351772E-001  0.46982877E-004
 0.71281991E-001 -0.66069129E-004
 0.27137342E-001  0.76666634E-004
-0.35143692E-001 -0.70997135E-004
 0.00000000E+000  0.00000000E+000
-0.21269997E+000  0.91415058E-004
-0.24951426E+000 -0.68210967E-004
-0.19813726E+000 -0.43624936E-005
-0.11514727E+000  0.67123670E-004
-0.35972293E-001 -0.94196475E-004
 0.28087697E-001  0.92710928E-004
 0.70255838E-001 -0.75534830E-004
-0.11580538E+000  0.38959820E-004
 0.97421266E-001  0.52511881E-004
-0.19767613E+000  0.18395940E-004
-0.24979537E+000 -0.75801202E-004
-0.21255965E+000  0.85537401E-004
 0.00000000E+000  0.00000000E+000
 0.10955897E+000 -0.26549949E-004
 0.11469787E+000  0.25008495E-008
 0.10955899E+000  0.26543848E-004
 0.97421236E-001 -0.52484625E-004
 0.70255883E-001  0.75475800E-004
 0.28087658E-001 -0.92624235E-004
-0.35972256E-001  0.94090784E-004
 0.00000000E+000  0.00000000E+000
-0.21252967E+000 -0.96910211E-004
-0.24986079E+000  0.55387190E-004
-0.19756823E+000  0.35042841E-004
-0.11594348E+000 -0.99263532E-004
-0.34996807E-001  0.11838741E-003
-0.11514729E+000 -0.67007844E-004
 0.26998359E-001 -0.10631731E-003
 0.71408495E-001  0.83805076E-004
-0.19813726E+000  0.42734181E-005
 0.96235401E-001 -0.56135613E-004
-0.24951426E+000  0.68259098E-004
-0.21269997E+000 -0.91420792E-004
 0.00000000E+000  0.00000000E+000
 0.11075964E+000  0.28375465E-004
 0.11349239E+000  0.44371195E-008
 0.11075963E+000 -0.28376432E-004
 0.96235439E-001  0.56110849E-004
 0.71408450E-001 -0.83750572E-004
 0.26998404E-001  0.10622445E-003
-0.34996844E-001 -0.11827312E-003
-0.11594346E+000  0.99150645E-004
 0.00000000E+000  0.00000000E+000
-0.21274028E+000  0.10142087E-003
-0.24942451E+000 -0.34113923E-004
-0.19827842E+000 -0.74373107E-004
-0.11497488E+000  0.13640057E-003
-0.36142475E-001 -0.13936580E-003
 0.28240198E-001  0.11855101E-003
-0.19756823E+000 -0.34950546E-004
 0.70121601E-001 -0.87962849E-004
-0.24986079E+000 -0.55437059E-004
-0.21252965E+000  0.96916628E-004
 0.00000000E+000  0.00000000E+000
 0.97540557E-001  0.59096779E-004
 0.10944692E+000 -0.28643949E-004
 0.11480548E+000 -0.91042906E-008
 0.10944694E+000  0.28646963E-004
 0.97540520E-001 -0.59082420E-004
 0.70121645E-001  0.87907770E-004
 0.28240153E-001 -0.11846391E-003
-0.36142438E-001  0.13924860E-003
-0.11497490E+000 -0.13628082E-003
-0.19827842E+000  0.74277908E-004
 0.00000000E+000  0.00000000E+000
-0.21247224E+000 -0.10313399E-003
-0.24998475E+000  0.16496572E-005
-0.19737729E+000  0.12668340E-003
-0.11615570E+000 -0.17198662E-003
-0.34801147E-001  0.15913027E-003
 0.26833739E-001 -0.12268131E-003
-0.24942451E+000  0.34165979E-004
-0.21274028E+000 -0.10142901E-003
 0.71547172E-001  0.91959911E-004
 0.00000000E+000  0.00000000E+000
 0.96112206E-001 -0.57375847E-004
 0.11086967E+000  0.29083630E-004
 0.11338250E+000  0.11354551E-007
 0.11086965E+000 -0.29103766E-004
 0.96112251E-001  0.57355999E-004
 0.71547120E-001 -0.91914436E-004
 0.26833793E-001  0.12258626E-003
-0.34801188E-001 -0.15901183E-003
-0.11615567E+000  0.17186191E-003
-0.19737729E+000 -0.12658222E-003
-0.24998475E+000 -0.16999699E-005
 0.00000000E+000  0.00000000E+000
-0.21282233E+000  0.99943637E-004
-0.24924141E+000  0.51046270E-004
-0.19853290E+000 -0.18674484E-003
-0.11471085E+000  0.20916743E-003
-0.21247223E+000  0.10313971E-003
-0.36359321E-001 -0.16362089E-003
 0.00000000E+000  0.00000000E+000
 0.28413560E-001  0.12836171E-003
 0.69977432E-001 -0.85105653E-004
 0.97659811E-001  0.58013072E-004
 0.10933367E+000 -0.25554094E-004
 0.11490812E+000 -0.21246865E-007
 0.10933369E+000  0.25573279E-004
 0.97659774E-001 -0.58016928E-004
 0.69977484E-001  0.85050334E-004
 0.28413508E-001 -0.12827497E-003
-0.36359276E-001  0.16349107E-003
-0.11471086E+000 -0.20903960E-003
-0.19853290E+000  0.18664161E-003
-0.24924141E+000 -0.50994585E-004
-0.21282233E+000 -0.99948658E-004
 0.00000000E+000  0.00000000E+000
 0.00000000E+000  0.00000000E+000
-0.21234250E+000 -0.84611929E-004
-0.25025075E+000 -0.12797427E-003
-0.19702023E+000  0.26275560E-003
-0.11646331E+000 -0.21974141E-003
-0.34563247E-001  0.17329216E-003
 0.26654649E-001 -0.10947843E-003
 0.71686670E-001  0.89594381E-004
 0.95986798E-001 -0.43229454E-004
 0.11096777E+000  0.27381132E-004
 0.11327160E+000  0.18020397E-007
 0.11096775E+000 -0.27427553E-004
 0.95986843E-001  0.43223746E-004
 0.71686618E-001 -0.89558663E-004
 0.26654709E-001  0.10937638E-003
-0.34563288E-001 -0.17316947E-003
-0.11646328E+000  0.21959746E-003
-0.19702021E+000 -0.26265138E-003
-0.25025075E+000  0.12792024E-003
-0.21234248E+000  0.84610372E-004
 0.00000000E+000  0.00000000E+000
 0.00000000E+000  0.00000000E+000
-0.21302293E+000  0.49517067E-004
-0.24880458E+000  0.25995567E-003
-0.19898958E+000 -0.30401535E-003
-0.11434148E+000  0.24355783E-003
-0.36593850E-001 -0.12299907E-003
 0.28592383E-001  0.13288354E-003
 0.69827415E-001 -0.42970565E-004
 0.97755700E-001  0.59549463E-004
 0.10921132E+000 -0.95364139E-005
 0.11498056E+000 -0.38309252E-007
 0.10921135E+000  0.95675331E-005
 0.97755655E-001 -0.59576563E-004
 0.69827482E-001  0.42916068E-004
 0.28592335E-001 -0.13280172E-003
-0.36593791E-001  0.12285390E-003
-0.11434148E+000 -0.24342189E-003
-0.19898957E+000  0.30389695E-003
-0.24880455E+000 -0.25990340E-003
-0.21302294E+000 -0.49510101E-004
 0.00000000E+000  0.00000000E+000
 0.00000000E+000  0.00000000E+000
-0.21195003E+000  0.49541544E-004
-0.25088721E+000 -0.40822479E-003
-0.19635555E+000  0.36930595E-003
-0.11678488E+000 -0.12264029E-003
-0.34299954E-001  0.20139814E-003
 0.26472594E-001 -0.30017338E-006
 0.71787245E-001  0.12230873E-003
 0.95830701E-001  0.26229872E-004
 0.11099545E+000  0.43370182E-004
 0.11311495E+000  0.21802021E-007
 0.11099543E+000 -0.43458727E-004
 0.95830760E-001 -0.26235733E-004
 0.71787193E-001 -0.12230218E-003
 0.26472678E-001  0.18269335E-006
-0.34299973E-001 -0.20127336E-003
-0.11678484E+000  0.12247406E-003
-0.19635552E+000 -0.36919195E-003
-0.25088721E+000  0.40817059E-003
-0.21195000E+000 -0.49556514E-004
 0.00000000E+000  0.00000000E+000
 0.00000000E+000  0.00000000E+000
-0.21369530E+000 -0.25071599E-003
-0.24756716E+000  0.68484590E-003
-0.19953973E+000 -0.89888904E-004
-0.11389923E+000  0.31535991E-003
-0.36780171E-001  0.12785645E-003
 0.28743432E-001  0.26725238E-003
 0.69626241E-001  0.17659732E-003
 0.97705818E-001  0.16855678E-003
 0.10894556E+000  0.76958982E-004
 0.11485923E+000 -0.70604990E-007
 0.10894560E+000 -0.76934447E-004
 0.97705781E-001 -0.16863639E-003
 0.69626331E-001 -0.17667170E-003
 0.28743404E-001 -0.26719411E-003
-0.36780089E-001 -0.12802994E-003
-0.11389921E+000 -0.31521759E-003
-0.19953972E+000  0.89743785E-004
-0.24756708E+000 -0.68480317E-003
-0.21369530E+000  0.25073517E-003
 0.00000000E+000  0.00000000E+000
 0.00000000E+000  0.00000000E+000
-0.21007220E+000  0.92911592E-003
-0.25228387E+000 -0.36100344E-003
-0.19549125E+000  0.30881181E-003
-0.11679676E+000  0.35442353E-003
-0.33896815E-001  0.58877252E-003
 0.26308674E-001  0.60898222E-003
 0.71658439E-001  0.55228010E-003
 0.95354422E-001  0.41766831E-003
 0.11056400E+000  0.21808796E-003
 0.11251547E+000  0.12562561E-007
 0.11056399E+000 -0.21825790E-003
 0.95354504E-001 -0.41770280E-003
 0.71658425E-001 -0.55232696E-003
 0.26308799E-001 -0.60913624E-003
-0.33896788E-001 -0.58866065E-003
-0.11679668E+000 -0.35461969E-003
-0.19549117E+000 -0.30868663E-003
-0.25228390E+000  0.36094506E-003
-0.21007215E+000 -0.92914944E-003
 0.00000000E+000  0.00000000E+000
 0.00000000E+000  0.00000000E+000
-0.21738536E+000 -0.23058196E-002
-0.24446317E+000 -0.48630731E-003
-0.19796767E+000  0.68532302E-003
-0.11218708E+000  0.13556767E-002
-0.36380041E-001  0.17750585E-002
 0.28680389E-001  0.16470341E-002
 0.68805180E-001  0.14588928E-002
 0.96663691E-001  0.98959449E-003
 0.10758757E+000  0.53458503E-003
 0.11354252E+000 -0.12050006E-006
 0.10758762E+000 -0.53459848E-003
 0.96663683E-001 -0.98976655E-003
 0.68805314E-001 -0.14590191E-002
 0.28680419E-001 -0.16470330E-002
-0.36379884E-001 -0.17753008E-002
-0.11218697E+000 -0.13555551E-002
-0.19796758E+000 -0.68549887E-003
-0.24446305E+000  0.48636167E-003
-0.21738539E+000  0.23058669E-002
 0.00000000E+000  0.00000000E+000
 0.00000000E+000  0.00000000E+000
-0.19693785E+000  0.58270730E-002
-0.24835659E+000  0.79427510E-002
-0.19405660E+000  0.64965421E-002
-0.11801394E+000  0.54651852E-002
-0.35783488E-001  0.37727635E-002
 0.23825833E-001  0.28790608E-002
 0.69250002E-001  0.18026086E-002
 0.92914827E-001  0.11868240E-002
 0.10828981E+000  0.51662581E-003
 0.11020484E+000  0.42773280E-007
 0.10828980E+000 -0.51699829E-003
 0.92914924E-001 -0.11868420E-002
 0.69250017E-001 -0.18027966E-002
 0.23826008E-001 -0.28793071E-002
-0.35783395E-001 -0.37727339E-002
-0.11801376E+000 -0.54655564E-002
-0.19405639E+000 -0.64964839E-002
-0.24835649E+000 -0.79429633E-002
-0.19693772E+000 -0.58270823E-002
 0.00000000E+000  0.00000000E+000
 0.00000000E+000  0.00000000E+000
-0.24120905E+000  0.10352710E-001
-0.26417264E+000  0.89619858E-002
-0.21246279E+000  0.96053648E-002
-0.12053434E+000  0.70670875E-002
-0.40520500E-001  0.53983656E-002
 0.27236511E-001  0.29305068E-002
 0.68474240E-001  0.16963625E-002
 0.96754699E-001  0.63171237E-003
 0.10767307E+000  0.27078407E-003
 0.11364761E+000 -0.10345863E-006
 0.10767312E+000 -0.27093943E-003
 0.96754699E-001 -0.63187791E-003
 0.68474359E-001 -0.16966109E-002
 0.27236558E-001 -0.29305762E-002
-0.40520310E-001 -0.53987232E-002
-0.12053418E+000 -0.70671285E-002
-0.21246263E+000 -0.96056750E-002
-0.26417237E+000 -0.89621795E-002
-0.24120895E+000 -0.10352705E-001
 0.00000000E+000  0.00000000E+000
