 0.00000000E+000  0.00000000E+000
 0.22082191E+000  0.00000000E+000
 0.41839942E+000  0.00000000E+000
 0.59273248E+000  0.00000000E+000
 0.74382120E+000  0.00000000E+000
 0.87166547E+000  0.00000000E+000
 0.00000000E+000  0.00000000E+000
 0.20563173E+000 -0.37637916E-002
 0.41208988E+000 -0.82251746E-002
 0.59307605E+000 -0.68591507E-002
 0.97626531E+000  0.00000000E+000
 0.74588108E+000 -0.27475131E-002
 0.87243539E+000  0.12259787E-002
 0.97486728E+000  0.36873903E-002
 0.10576207E+001  0.00000000E+000
 0.10541746E+001  0.44303881E-002
 0.00000000E+000  0.00000000E+000
 0.21374198E+000  0.67000561E-002
 0.42960241E+000  0.20702116E-001
 0.61476331E+000  0.34514870E-001
 0.76299744E+000  0.45580200E-001
 0.88019555E+000  0.51250290E-001
 0.97211289E+000  0.50491552E-001
 0.11157318E+001  0.00000000E+000
 0.11107816E+001  0.37505379E-002
 0.10423527E+001  0.43612856E-001
 0.00000000E+000  0.00000000E+000
 0.24267892E+000  0.82177789E-002
 0.47310370E+000  0.24294879E-001
 0.65645700E+000  0.44950310E-001
 0.79230052E+000  0.62505125E-001
 0.10922454E+001  0.31843140E-001
 0.89035683E+000  0.72806864E-001
 0.11505984E+001  0.00000000E+000
 0.96174532E+000  0.73642484E-001
 0.11447380E+001  0.21131571E-002
 0.10134986E+001  0.64969144E-001
 0.11222155E+001  0.16749991E-001
 0.10493689E+001  0.48162944E-001
 0.00000000E+000  0.00000000E+000
 0.11622205E+001  0.00000000E+000
 0.26868486E+000  0.54454910E-002
 0.51507204E+000  0.17457038E-001
 0.70179647E+000  0.32020431E-001
 0.82730948E+000  0.46739708E-001
 0.90658462E+000  0.57032063E-001
 0.11560683E+001  0.72061658E-008
 0.95506805E+000  0.60102250E-001
 0.98484277E+000  0.54710227E-001
 0.10706288E+001  0.25575116E-001
 0.11321985E+001 -0.16749465E-007
 0.10028229E+001  0.41487149E-001
 0.11505984E+001  0.00000000E+000
 0.11447380E+001 -0.21131716E-002
 0.00000000E+000  0.00000000E+000
 0.10777269E+001  0.26032335E-007
 0.28336063E+000  0.21540068E-002
 0.54005879E+000  0.65290634E-002
 0.73082709E+000  0.13658433E-001
 0.85349738E+000  0.21034916E-001
 0.92186874E+000  0.27337830E-001
 0.10126998E+001  0.22323463E-001
 0.95484739E+000  0.30309179E-001
 0.96766179E+000  0.28759269E-001
 0.11222156E+001 -0.16749961E-001
 0.97109389E+000  0.22433074E-001
 0.10158290E+001 -0.35502402E-007
 0.11157318E+001  0.00000000E+000
 0.10706288E+001 -0.25575164E-001
 0.11107816E+001 -0.37505216E-002
 0.97111839E+000  0.12282363E-001
 0.00000000E+000  0.00000000E+000
 0.28737446E+000 -0.70954360E-004
 0.54837393E+000  0.57200941E-003
 0.74268162E+000  0.15053449E-002
 0.86555886E+000  0.36502983E-002
 0.93102091E+000  0.58003962E-002
 0.10922454E+001 -0.31843174E-001
 0.95736920E+000  0.74802846E-002
 0.96208119E+000  0.77984845E-002
 0.10126998E+001 -0.22323390E-001
 0.10576207E+001  0.00000000E+000
 0.97087967E+000  0.47905693E-007
 0.95761013E+000  0.64945193E-002
 0.10493689E+001 -0.48162892E-001
 0.10541746E+001 -0.44304020E-002
 0.10423527E+001 -0.43612826E-001
 0.95219731E+000  0.36792964E-002
 0.97626531E+000  0.00000000E+000
 0.10028228E+001 -0.41487220E-001
 0.97111839E+000 -0.12282458E-001
 0.00000000E+000  0.00000000E+000
 0.28678065E+000 -0.29753387E-003
 0.54855960E+000 -0.11352881E-002
 0.74413734E+000 -0.14636882E-002
 0.97486728E+000 -0.36873766E-002
 0.86860889E+000 -0.18385505E-002
 0.93412673E+000 -0.15533906E-002
 0.10134985E+001 -0.64969196E-001
 0.95959722E+000 -0.11147168E-002
 0.96208131E+000 -0.54993375E-003
 0.94990777E+000 -0.59187271E-007
 0.97211283E+000 -0.50491582E-001
 0.87166547E+000  0.00000000E+000
 0.95529538E+000 -0.17570583E-003
 0.87243533E+000 -0.12259919E-002
 0.98484283E+000 -0.54710160E-001
 0.96174538E+000 -0.73642440E-001
 0.97109395E+000 -0.22432981E-001
 0.88019561E+000 -0.51250260E-001
 0.74382120E+000  0.00000000E+000
 0.94791406E+000 -0.21592786E-005
 0.74588108E+000  0.27475263E-002
 0.95219737E+000 -0.36791765E-002
 0.59273248E+000  0.00000000E+000
 0.59307605E+000  0.68591395E-002
 0.76299738E+000 -0.45580226E-001
 0.41839942E+000  0.00000000E+000
 0.89035677E+000 -0.72806909E-001
 0.41208988E+000  0.82251839E-002
 0.22082191E+000  0.00000000E+000
 0.00000000E+000  0.00000000E+000
 0.00000000E+000  0.00000000E+000
 0.28577873E+000 -0.25089216E-003
 0.54723060E+000 -0.41195453E-003
 0.74328380E+000 -0.97062950E-003
 0.95506793E+000 -0.60102313E-001
 0.86817854E+000 -0.11271561E-002
 0.20563171E+000  0.37637811E-002
 0.93463653E+000 -0.13879959E-002
 0.61476331E+000 -0.34514848E-001
 0.00000000E+000  0.00000000E+000
 0.94500327E+000  0.72617872E-007
 0.96039158E+000 -0.13113492E-002
 0.96766173E+000 -0.28759356E-001
 0.42960235E+000 -0.20702134E-001
 0.96311748E+000 -0.11463243E-002
 0.79230058E+000 -0.62505088E-001
 0.21374200E+000 -0.67000403E-002
 0.00000000E+000  0.00000000E+000
 0.95761007E+000 -0.64946338E-002
 0.95605468E+000 -0.80371397E-003
 0.65645694E+000 -0.44950343E-001
 0.90658473E+000 -0.57032003E-001
 0.47310376E+000 -0.24294851E-001
 0.24267889E+000 -0.82177966E-002
 0.94791400E+000  0.20156028E-005
 0.00000000E+000  0.00000000E+000
 0.95484751E+000 -0.30309097E-001
 0.94854235E+000 -0.42256078E-003
 0.82730937E+000 -0.46739757E-001
 0.70179653E+000 -0.32020390E-001
 0.96208125E+000 -0.77983736E-002
 0.51507198E+000 -0.17457069E-001
 0.92186862E+000 -0.27337901E-001
 0.26868492E+000 -0.54454701E-002
 0.94543737E+000 -0.85925250E-007
 0.00000000E+000  0.00000000E+000
 0.00000000E+000  0.00000000E+000
 0.28539040E+000  0.23434124E-004
 0.54674232E+000 -0.17862587E-003
 0.74265825E+000 -0.79315403E-004
 0.86790770E+000 -0.27857796E-003
 0.93440419E+000 -0.22130789E-003
 0.95529544E+000  0.17584500E-003
 0.96062219E+000 -0.29786105E-003
 0.85349750E+000 -0.21034855E-001
 0.96344733E+000 -0.23939454E-003
 0.95736914E+000 -0.74803838E-002
 0.73082697E+000 -0.13658481E-001
 0.95666891E+000 -0.20418447E-003
 0.54005885E+000 -0.65290257E-002
 0.94854235E+000  0.42272967E-003
 0.28336060E+000 -0.21540271E-002
 0.00000000E+000  0.00000000E+000
 0.93102103E+000 -0.58003081E-002
 0.96208119E+000  0.54980267E-003
 0.94913589E+000 -0.10233071E-003
 0.86555874E+000 -0.36503700E-002
 0.95605462E+000  0.80355035E-003
 0.74268174E+000 -0.15052867E-002
 0.94615566E+000  0.98630891E-007
 0.95959734E+000  0.11148356E-002
 0.54837381E+000 -0.57204894E-003
 0.28737449E+000  0.70974499E-004
 0.00000000E+000  0.00000000E+000
 0.00000000E+000  0.00000000E+000
 0.28531861E+000 -0.63843523E-004
 0.54658859E+000  0.34907778E-004
 0.74264121E+000 -0.12776028E-003
 0.86774301E+000 -0.48204565E-005
 0.93446838E+000 -0.99558114E-004
 0.96055710E+000 -0.24059047E-004
 0.96357870E+000 -0.55191627E-004
 0.93412661E+000  0.15532887E-002
 0.96311759E+000  0.11464769E-002
 0.94913589E+000  0.10213466E-003
 0.95672178E+000 -0.16955238E-004
 0.86860901E+000  0.18386349E-002
 0.94933348E+000 -0.18417727E-004
 0.74413722E+000  0.14636239E-002
 0.54855966E+000  0.11353307E-002
 0.96039146E+000  0.13112118E-002
 0.28678059E+000  0.29751518E-003
 0.00000000E+000  0.00000000E+000
 0.95666897E+000  0.20437242E-003
 0.94626003E+000 -0.11242878E-006
 0.93463665E+000  0.13881131E-002
 0.00000000E+000  0.00000000E+000
 0.28525820E+000  0.28877662E-004
 0.54656320E+000 -0.10099302E-003
 0.74252247E+000 -0.20130348E-005
 0.86780542E+000 -0.14427572E-003
 0.93438744E+000 -0.59216450E-004
 0.96344721E+000  0.23921887E-003
 0.86817836E+000  0.11270605E-002
 0.96066147E+000 -0.12419352E-003
 0.96355134E+000 -0.62954473E-004
 0.94933354E+000  0.18640455E-004
 0.74328392E+000  0.97069941E-003
 0.95682990E+000 -0.68502042E-004
 0.54723054E+000  0.41191032E-003
 0.28577876E+000  0.25091005E-003
 0.00000000E+000  0.00000000E+000
 0.96062231E+000  0.29801644E-003
 0.94933193E+000 -0.24605938E-004
 0.95672172E+000  0.16742522E-004
 0.93440401E+000  0.22117455E-003
 0.94636893E+000  0.12661682E-006
 0.86790782E+000  0.27868361E-003
 0.96357882E+000  0.55389707E-004
 0.74265813E+000  0.79238576E-004
 0.54674237E+000  0.17866924E-003
 0.00000000E+000  0.00000000E+000
 0.28523468E+000 -0.40080565E-004
 0.54647976E+000  0.41333074E-004
 0.74252927E+000 -0.84506900E-004
 0.86769384E+000  0.12461506E-004
 0.28539034E+000 -0.23451206E-004
 0.93445312E+000 -0.89066466E-004
 0.94933187E+000  0.24357525E-004
 0.00000000E+000  0.00000000E+000
 0.96060121E+000 -0.23221500E-004
 0.96365380E+000 -0.66894492E-004
 0.96055698E+000  0.23883119E-004
 0.95682156E+000 -0.24110193E-004
 0.95682996E+000  0.68741966E-004
 0.94944757E+000 -0.24842225E-004
 0.93446850E+000  0.99706230E-004
 0.86774289E+000  0.47037383E-005
 0.94637703E+000 -0.14088882E-006
 0.74264132E+000  0.12784120E-003
 0.96355122E+000  0.62734645E-004
 0.54658854E+000 -0.34951361E-004
 0.28531867E+000  0.63859290E-004
 0.00000000E+000  0.00000000E+000
 0.94944763E+000  0.25119941E-004
 0.00000000E+000  0.00000000E+000
 0.28521874E+000  0.30567956E-004
 0.54649275E+000 -0.49003883E-004
 0.74246066E+000  0.51070550E-004
 0.96066159E+000  0.12439046E-003
 0.86774075E+000 -0.51727733E-004
 0.93437093E+000  0.33864602E-004
 0.96066927E+000 -0.36395998E-004
 0.96360069E+000  0.12549897E-004
 0.95690131E+000 -0.19142822E-004
 0.93438726E+000  0.59053014E-004
 0.95682150E+000  0.23846087E-004
 0.94941985E+000  0.21905350E-005
 0.86780560E+000  0.14440120E-003
 0.74252235E+000  0.19275180E-005
 0.54656332E+000  0.10103748E-003
 0.28525814E+000 -0.28889806E-004
 0.96365392E+000  0.67139400E-004
 0.00000000E+000  0.00000000E+000
 0.94646120E+000  0.15333630E-006
 0.96060103E+000  0.23006259E-004
 0.94941985E+000 -0.24966443E-005
 0.00000000E+000  0.00000000E+000
 0.28522446E+000 -0.26926727E-004
 0.54646772E+000  0.42184365E-004
 0.74250054E+000 -0.49067759E-004
 0.86768156E+000  0.43639651E-004
 0.93443113E+000 -0.39779482E-004
 0.96060407E+000  0.27380867E-004
 0.93445324E+000  0.89245819E-004
 0.96366167E+000 -0.22534020E-004
 0.95684784E+000  0.11732609E-004
 0.95690143E+000  0.19434937E-004
 0.86769366E+000 -0.12598004E-004
 0.74252945E+000  0.84593630E-004
 0.94947910E+000 -0.70748319E-005
 0.54647964E+000 -0.41378192E-004
 0.28523474E+000  0.40091388E-004
 0.00000000E+000  0.00000000E+000
 0.96360057E+000 -0.12819866E-004
 0.94641429E+000 -0.17012879E-006
 0.96066939E+000  0.36631492E-004
 0.94947916E+000  0.74068248E-005
 0.93437075E+000 -0.34060802E-004
 0.00000000E+000  0.00000000E+000
 0.28521856E+000  0.23390419E-004
 0.54648596E+000 -0.38605216E-004
 0.74246358E+000  0.42770923E-004
 0.86772888E+000 -0.43735017E-004
 0.93437486E+000  0.34569431E-004
 0.96066170E+000 -0.30990839E-004
 0.86774092E+000  0.51869552E-004
 0.96360623E+000  0.19147306E-004
 0.95684778E+000 -0.12053396E-004
 0.74246054E+000 -0.51166043E-004
 0.95690280E+000 -0.14892269E-004
 0.54649287E+000  0.49042108E-004
 0.28521868E+000 -0.30579434E-004
 0.00000000E+000  0.00000000E+000
 0.94942939E+000  0.57821521E-005
 0.96366178E+000  0.22825561E-004
 0.94646716E+000  0.18349679E-006
 0.96060395E+000 -0.27640357E-004
 0.94942933E+000 -0.61466803E-005
 0.93443131E+000  0.39984199E-004
 0.86768144E+000 -0.43798656E-004
 0.00000000E+000  0.00000000E+000
 0.28522273E+000 -0.20770643E-004
 0.54646974E+000  0.34629036E-004
 0.74249261E+000 -0.39631391E-004
 0.86768692E+000  0.39939150E-004
 0.93442285E+000 -0.34608267E-004
 0.74250066E+000  0.49157541E-004
 0.96061021E+000  0.28599966E-004
 0.95690292E+000  0.15236470E-004
 0.54646760E+000 -0.42233019E-004
 0.96365779E+000 -0.20908819E-004
 0.28522452E+000  0.26931187E-004
 0.00000000E+000  0.00000000E+000
 0.95685374E+000  0.13747646E-004
 0.94947856E+000 -0.66652073E-005
 0.96360611E+000 -0.19467490E-004
 0.94642031E+000 -0.20016869E-006
 0.96066182E+000  0.31262516E-004
 0.93437474E+000 -0.34797798E-004
 0.94947862E+000  0.70561814E-005
 0.86772906E+000  0.43893654E-004
 0.74246340E+000 -0.42877501E-004
 0.54648607E+000  0.38645008E-004
 0.28521850E+000 -0.23397346E-004
 0.95685368E+000 -0.14122622E-004
 0.00000000E+000  0.00000000E+000
 0.00000000E+000  0.00000000E+000
 0.28521975E+000  0.18794271E-004
 0.54648280E+000 -0.31094488E-004
 0.74246853E+000  0.37098980E-004
 0.86772161E+000 -0.36733588E-004
 0.93438118E+000  0.33849126E-004
 0.96065503E+000 -0.27266360E-004
 0.96361178E+000  0.21219982E-004
 0.95689868E+000 -0.13534227E-004
 0.96365791E+000  0.21249257E-004
 0.94943410E+000  0.68758381E-005
 0.96061003E+000 -0.28900296E-004
 0.94646412E+000  0.21449221E-006
 0.93442302E+000  0.34840522E-004
 0.94943404E+000 -0.73004543E-005
 0.86768674E+000 -0.40114773E-004
 0.74249273E+000  0.39735918E-004
 0.54646962E+000 -0.34672786E-004
 0.28522279E+000  0.20771889E-004
 0.00000000E+000  0.00000000E+000
 0.95689880E+000  0.13937154E-004
 0.00000000E+000  0.00000000E+000
 0.28522214E+000 -0.17073854E-004
 0.54647302E+000  0.28623262E-004
 0.74248808E+000 -0.34256558E-004
 0.86769336E+000  0.34843025E-004
 0.93441611E+000 -0.32068401E-004
 0.96061640E+000  0.26878858E-004
 0.96365165E+000 -0.20616973E-004
 0.95685857E+000  0.13755603E-004
 0.96361160E+000 -0.21586611E-004
 0.94947355E+000 -0.67686200E-005
 0.96065521E+000  0.27579539E-004
 0.94642448E+000 -0.23173927E-006
 0.93438100E+000 -0.34104996E-004
 0.86772179E+000  0.36913155E-004
 0.94947361E+000  0.72237480E-005
 0.74246835E+000 -0.37208774E-004
 0.54648292E+000  0.31136889E-004
 0.28521969E+000 -0.18790862E-004
 0.00000000E+000  0.00000000E+000
 0.95685845E+000 -0.14184346E-004
 0.00000000E+000  0.00000000E+000
 0.28522068E+000  0.15770736E-004
 0.54648017E+000 -0.26557016E-004
 0.74247318E+000  0.32057851E-004
 0.86771577E+000 -0.32991258E-004
 0.93438780E+000  0.30735442E-004
 0.96064853E+000 -0.26136754E-004
 0.96361780E+000  0.20272627E-004
 0.96365177E+000  0.21008412E-004
 0.95689290E+000 -0.13649610E-004
 0.94943922E+000  0.67552996E-005
 0.96061629E+000 -0.27214200E-004
 0.94645875E+000  0.24792149E-006
 0.93441629E+000  0.32335214E-004
 0.86769318E+000 -0.35037384E-004
 0.74248826E+000  0.34367007E-004
 0.94943916E+000 -0.72395541E-005
 0.54647290E+000 -0.28664617E-004
 0.28522220E+000  0.17070306E-004
 0.00000000E+000  0.00000000E+000
 0.95689302E+000  0.14109664E-004
 0.00000000E+000  0.00000000E+000
 0.28522133E+000 -0.14782238E-004
 0.54647558E+000  0.24989480E-004
 0.74248379E+000 -0.30247101E-004
 0.86769902E+000  0.31487343E-004
 0.93440967E+000 -0.29517066E-004
 0.96062302E+000  0.25474926E-004
 0.96361768E+000 -0.20687612E-004
 0.96364527E+000 -0.19866378E-004
 0.95686459E+000  0.13528540E-004
 0.96064871E+000  0.26492047E-004
 0.94946771E+000 -0.66882848E-005
 0.93438762E+000 -0.31015722E-004
 0.94643014E+000 -0.26186012E-006
 0.86771595E+000  0.33191692E-004
 0.74247300E+000 -0.32174400E-004
 0.54648029E+000  0.26594432E-004
 0.94946777E+000  0.72069447E-005
 0.28522062E+000 -0.15763913E-004
 0.00000000E+000  0.00000000E+000
 0.95686453E+000 -0.14018938E-004
 0.96364539E+000  0.20306655E-004
 0.00000000E+000  0.00000000E+000
 0.28522151E+000  0.14107077E-004
 0.54647779E+000 -0.23811358E-004
 0.74247741E+000  0.28909807E-004
 0.86771023E+000 -0.30214141E-004
 0.93439418E+000  0.28570813E-004
 0.96064180E+000 -0.24805374E-004
 0.96362441E+000  0.19529210E-004
 0.95688647E+000 -0.13333597E-004
 0.96062284E+000 -0.25848768E-004
 0.94944536E+000  0.66298002E-005
 0.93440991E+000  0.29811290E-004
 0.94645261E+000  0.28323262E-006
 0.86769884E+000 -0.31697647E-004
 0.74248391E+000  0.30365967E-004
 0.54647547E+000 -0.25021261E-004
 0.28522142E+000  0.14769757E-004
 0.00000000E+000  0.00000000E+000
 0.94944530E+000 -0.71796180E-005
 0.95688658E+000  0.13848690E-004
 0.96362429E+000 -0.19994045E-004
 0.00000000E+000  0.00000000E+000
 0.28522050E+000 -0.13706224E-004
 0.54647803E+000  0.23047878E-004
 0.74247962E+000 -0.27951014E-004
 0.86770457E+000  0.29265785E-004
 0.93440335E+000 -0.27809024E-004
 0.96062982E+000  0.24257018E-004
 0.96363842E+000 -0.19195753E-004
 0.96064198E+000  0.25198411E-004
 0.95687133E+000  0.13151638E-004
 0.94946116E+000 -0.65465137E-005
 0.93439394E+000 -0.28884924E-004
 0.86771047E+000  0.30430543E-004
 0.94643664E+000 -0.29703218E-006
 0.74247723E+000 -0.29023867E-004
 0.54647791E+000  0.23847500E-004
 0.28522145E+000 -0.14091650E-004
 0.00000000E+000  0.00000000E+000
 0.94946122E+000  0.71285048E-005
 0.95687121E+000 -0.13701111E-004
 0.96363854E+000  0.19687293E-004
 0.00000000E+000  0.00000000E+000
 0.28522244E+000  0.13587451E-004
 0.54647523E+000 -0.22667996E-004
 0.74248158E+000  0.27378018E-004
 0.86770468E+000 -0.28625250E-004
 0.93440061E+000  0.27255933E-004
 0.96063488E+000 -0.23833974E-004
 0.96363151E+000  0.18911823E-004
 0.96062964E+000 -0.24672070E-004
 0.95687949E+000 -0.12970537E-004
 0.93440353E+000  0.28129885E-004
 0.94945228E+000  0.64528503E-005
 0.86770433E+000 -0.29488646E-004
 0.74247980E+000  0.28070020E-004
 0.94644582E+000  0.31310727E-006
 0.54647791E+000 -0.23076874E-004
 0.28522056E+000  0.13689935E-004
 0.00000000E+000  0.00000000E+000
 0.94945222E+000 -0.70725554E-005
 0.95687961E+000  0.13550172E-004
 0.96363133E+000 -0.19427587E-004
 0.00000000E+000  0.00000000E+000
 0.28521952E+000 -0.13734864E-004
 0.54648071E+000  0.22679472E-004
 0.74247527E+000 -0.27167890E-004
 0.86771023E+000  0.28307187E-004
 0.93439674E+000 -0.26912715E-004
 0.96063512E+000  0.24265214E-004
 0.96063691E+000  0.23544891E-004
 0.96363115E+000 -0.18669745E-004
 0.95687854E+000  0.12804865E-004
 0.93440037E+000 -0.27592215E-004
 0.94945406E+000 -0.63559609E-005
 0.86770492E+000  0.28852882E-004
 0.74248141E+000 -0.27495842E-004
 0.54647541E+000  0.22695901E-004
 0.94644367E+000 -0.33266033E-006
 0.28522235E+000 -0.13561759E-004
 0.00000000E+000  0.00000000E+000
 0.94945412E+000  0.70085225E-005
 0.95687842E+000 -0.13416039E-004
 0.96363133E+000  0.19209272E-004
 0.96063667E+000 -0.23998616E-004
 0.00000000E+000  0.00000000E+000
 0.28522354E+000  0.14170786E-004
 0.54647237E+000 -0.23070408E-004
 0.74248623E+000  0.27338515E-004
 0.86769878E+000 -0.28275615E-004
 0.93440741E+000  0.26817901E-004
 0.96062761E+000 -0.23374854E-004
 0.96363896E+000  0.18502512E-004
 0.93439698E+000  0.27264821E-004
 0.95687210E+000 -0.12631940E-004
 0.86770999E+000 -0.28542544E-004
 0.94945955E+000  0.62637250E-005
 0.74247545E+000  0.27283122E-004
 0.54648059E+000 -0.22704765E-004
 0.28521957E+000  0.13701353E-004
 0.00000000E+000  0.00000000E+000
 0.94643855E+000  0.35358871E-006
 0.94945949E+000 -0.69463453E-005
 0.95687222E+000  0.13272432E-004
 0.96363878E+000 -0.19072927E-004
 0.96062785E+000  0.23848057E-004
 0.00000000E+000  0.00000000E+000
 0.28521826E+000 -0.14906010E-004
 0.54648399E+000  0.23873355E-004
 0.74247032E+000 -0.27834632E-004
 0.86771649E+000  0.28592427E-004
 0.93438971E+000 -0.26902789E-004
 0.96064442E+000  0.23389595E-004
 0.96362346E+000 -0.18340144E-004
 0.93440717E+000 -0.27180496E-004
 0.95688611E+000  0.12499710E-004
 0.86769902E+000  0.28514956E-004
 0.94944661E+000 -0.61319055E-005
 0.74248600E+000 -0.27455111E-004
 0.54647248E+000  0.23085995E-004
 0.28522345E+000 -0.14130310E-004
 0.00000000E+000  0.00000000E+000
 0.94645106E+000 -0.36687396E-006
 0.94944667E+000  0.68588269E-005
 0.95688599E+000 -0.13167159E-004
 0.96362364E+000  0.18935001E-004
 0.96064418E+000 -0.23885113E-004
 0.00000000E+000  0.00000000E+000
 0.28522503E+000  0.15997629E-004
 0.54646873E+000 -0.25029263E-004
 0.74249172E+000  0.28764605E-004
 0.86769223E+000 -0.29104017E-004
 0.93441480E+000  0.27350693E-004
 0.93438994E+000  0.27276952E-004
 0.96061980E+000 -0.23394386E-004
 0.96364676E+000  0.18326965E-004
 0.86771625E+000 -0.28832169E-004
 0.95686429E+000 -0.12253063E-004
 0.74247050E+000  0.27950294E-004
 0.54648381E+000 -0.23882606E-004
 0.94946700E+000  0.60408242E-005
 0.28521835E+000  0.14865401E-004
 0.00000000E+000  0.00000000E+000
 0.94643104E+000  0.38911912E-006
 0.94946694E+000 -0.67898208E-005
 0.95686447E+000  0.12963081E-004
 0.96364659E+000 -0.18948730E-004
 0.96062004E+000  0.23907858E-004
 0.93441456E+000 -0.27738253E-004
 0.00000000E+000  0.00000000E+000
 0.28521656E+000 -0.17431171E-004
 0.54648840E+000  0.26718395E-004
 0.74246436E+000 -0.29806928E-004
 0.86772370E+000  0.30233330E-004
 0.93438196E+000 -0.27670326E-004
 0.96065253E+000  0.23880420E-004
 0.96361529E+000 -0.17990832E-004
 0.86769247E+000  0.29355283E-004
 0.95689380E+000  0.12222920E-004
 0.74249154E+000 -0.28873886E-004
 0.54646885E+000  0.25029017E-004
 0.28522494E+000 -0.15945528E-004
 0.00000000E+000  0.00000000E+000
 0.94943886E+000 -0.57835009E-005
 0.94645833E+000 -0.40098743E-006
 0.94943892E+000  0.65805170E-005
 0.95689368E+000 -0.12957134E-004
 0.96361547E+000  0.18637980E-004
 0.96065229E+000 -0.24418122E-004
 0.93438220E+000  0.28074699E-004
 0.00000000E+000  0.00000000E+000
 0.28522747E+000  0.19422521E-004
 0.54646384E+000 -0.28461248E-004
 0.74249887E+000  0.31744079E-004
 0.86768472E+000 -0.30891627E-004
 0.93442320E+000  0.29150192E-004
 0.86772340E+000 -0.30478846E-004
 0.96061116E+000 -0.23522785E-004
 0.96365487E+000  0.18413551E-004
 0.74246460E+000  0.29913271E-004
 0.95685613E+000 -0.11527416E-004
 0.54648828E+000 -0.26710195E-004
 0.28521662E+000  0.17369751E-004
 0.00000000E+000  0.00000000E+000
 0.94947415E+000  0.58189743E-005
 0.94642323E+000  0.42626476E-006
 0.94947409E+000 -0.66413235E-005
 0.95685631E+000  0.12295837E-004
 0.96365469E+000 -0.19091919E-004
 0.96061140E+000  0.24080862E-004
 0.93442291E+000 -0.29560349E-004
 0.86768496E+000  0.31145656E-004
 0.00000000E+000  0.00000000E+000
 0.28521415E+000 -0.21661022E-004
 0.54649531E+000  0.31219107E-004
 0.74245709E+000 -0.32849799E-004
 0.86773234E+000  0.33375512E-004
 0.93437314E+000 -0.29255079E-004
 0.96066141E+000  0.24780707E-004
 0.74249869E+000 -0.31843257E-004
 0.96360647E+000 -0.17335563E-004
 0.54646402E+000  0.28442042E-004
 0.28522738E+000 -0.19350594E-004
 0.00000000E+000  0.00000000E+000
 0.95690107E+000  0.11778121E-004
 0.94943082E+000 -0.52423224E-005
 0.94646483E+000 -0.43979648E-006
 0.94943088E+000  0.61039449E-005
 0.95690089E+000 -0.12578430E-004
 0.96360665E+000  0.18041429E-004
 0.96066117E+000 -0.25357496E-004
 0.93437337E+000  0.29682016E-004
 0.86773210E+000 -0.33634045E-004
 0.74245733E+000  0.32944921E-004
 0.00000000E+000  0.00000000E+000
 0.28523173E+000  0.24761025E-004
 0.54645645E+000 -0.33434153E-004
 0.74250787E+000  0.35238655E-004
 0.86767560E+000 -0.35241610E-004
 0.93443274E+000  0.30654897E-004
 0.96060150E+000 -0.25016133E-004
 0.54649513E+000 -0.31183510E-004
 0.28521424E+000  0.21577550E-004
 0.96366322E+000  0.16832598E-004
 0.00000000E+000  0.00000000E+000
 0.95684814E+000 -0.11383176E-004
 0.94948095E+000  0.48802016E-005
 0.94641590E+000  0.45947743E-006
 0.94948089E+000 -0.57769152E-005
 0.95684832E+000  0.12211576E-004
 0.96366298E+000 -0.17565520E-004
 0.96060174E+000  0.25619972E-004
 0.93443244E+000 -0.31098159E-004
 0.86767590E+000  0.35496555E-004
 0.74250763E+000 -0.35321136E-004
 0.54645663E+000  0.33387241E-004
 0.00000000E+000  0.00000000E+000
 0.28520888E+000 -0.28401567E-004
 0.54650372E+000  0.34920140E-004
 0.74244529E+000 -0.39889240E-004
 0.86774051E+000  0.34345030E-004
 0.28523164E+000 -0.24670718E-004
 0.93436139E+000 -0.36833502E-004
 0.00000000E+000  0.00000000E+000
 0.96067136E+000  0.19934797E-004
 0.96359890E+000 -0.20771840E-004
 0.95691031E+000  0.72628981E-005
 0.94942629E+000 -0.63774577E-005
 0.94647395E+000 -0.47775790E-006
 0.94942635E+000  0.73030096E-005
 0.95691019E+000 -0.81318003E-005
 0.96359914E+000  0.21527655E-004
 0.96067106E+000 -0.20564888E-004
 0.93436169E+000  0.37285393E-004
 0.86774021E+000 -0.34610937E-004
 0.74244552E+000  0.39962258E-004
 0.54650354E+000 -0.34857399E-004
 0.28520897E+000  0.28291309E-004
 0.00000000E+000  0.00000000E+000
 0.00000000E+000  0.00000000E+000
 0.28523573E+000  0.30856590E-004
 0.54643791E+000 -0.40832383E-004
 0.74251091E+000  0.34568842E-004
 0.86765813E+000 -0.50749091E-004
 0.93444120E+000  0.22712029E-004
 0.96059149E+000 -0.35825552E-004
 0.96367567E+000  0.47820740E-005
 0.95684850E+000 -0.17960757E-004
 0.94949710E+000 -0.32519264E-006
 0.94642019E+000  0.48610434E-006
 0.94949704E+000 -0.64754584E-006
 0.95684868E+000  0.18848699E-004
 0.96367549E+000 -0.55848831E-005
 0.96059179E+000  0.36467306E-004
 0.93444091E+000 -0.23187558E-004
 0.86765843E+000  0.51006350E-004
 0.74251067E+000 -0.34639455E-004
 0.54643809E+000  0.40748556E-004
 0.28523564E+000 -0.30740658E-004
 0.00000000E+000  0.00000000E+000
 0.00000000E+000  0.00000000E+000
 0.28519231E+000 -0.35332108E-004
 0.54650413E+000  0.33518015E-004
 0.74241679E+000 -0.55513806E-004
 0.86773848E+000  0.31310974E-004
 0.93433970E+000 -0.54188603E-004
 0.96068233E+000  0.17340460E-005
 0.96360081E+000 -0.33699157E-004
 0.95693433E+000 -0.58609766E-005
 0.94944256E+000 -0.11362606E-004
 0.94650357E+000 -0.52083123E-006
 0.94944262E+000  0.12339910E-004
 0.95693421E+000  0.49169966E-005
 0.96360105E+000  0.34501212E-004
 0.96068203E+000 -0.24272474E-005
 0.93434000E+000  0.54667412E-004
 0.86773818E+000 -0.31590203E-004
 0.74241709E+000  0.55553922E-004
 0.54650396E+000 -0.33406995E-004
 0.28519240E+000  0.35203411E-004
 0.00000000E+000  0.00000000E+000
 0.00000000E+000  0.00000000E+000
 0.28523847E+000  0.29976728E-004
 0.54639881E+000 -0.41639632E-004
 0.74249505E+000  0.44497603E-004
 0.86761873E+000 -0.69707028E-004
 0.93444341E+000  0.12211901E-004
 0.96058297E+000 -0.43522697E-004
 0.96369767E+000 -0.77448312E-005
 0.95686882E+000 -0.23648641E-004
 0.94953715E+000 -0.60966508E-005
 0.94645285E+000  0.51232154E-006
 0.94953709E+000  0.50334369E-005
 0.95686900E+000  0.24568756E-004
 0.96369749E+000  0.68675362E-005
 0.96058326E+000  0.44202894E-004
 0.93444311E+000 -0.12747149E-004
 0.86761909E+000  0.69957932E-004
 0.74249476E+000 -0.44539272E-004
 0.54639899E+000  0.41503382E-004
 0.28523838E+000 -0.29828639E-004
 0.00000000E+000  0.00000000E+000
 0.00000000E+000  0.00000000E+000
 0.28517481E+000 -0.33619146E-005
 0.54650199E+000  0.47302488E-004
 0.74237436E+000 -0.69010289E-004
 0.86773091E+000  0.56783872E-004
 0.93430393E+000 -0.35134442E-004
 0.96068328E+000  0.76396927E-005
 0.96360498E+000 -0.26204517E-004
 0.95696789E+000 -0.73296037E-005
 0.94947773E+000 -0.96529020E-005
 0.94655174E+000 -0.57844084E-006
 0.94947779E+000  0.10657408E-004
 0.95696777E+000  0.62946514E-005
 0.96360522E+000  0.27028661E-004
 0.96068304E+000 -0.84201192E-005
 0.93430429E+000  0.35633827E-004
 0.86773061E+000 -0.57088276E-004
 0.74237471E+000  0.69005036E-004
 0.54650175E+000 -0.47145585E-004
 0.28517493E+000  0.31862957E-005
 0.00000000E+000  0.00000000E+000
 0.00000000E+000  0.00000000E+000
 0.28527244E+000 -0.71979273E-004
 0.54638677E+000 -0.56345441E-004
 0.74248707E+000  0.13195459E-003
 0.86754137E+000 -0.32294847E-004
 0.93441098E+000  0.18581984E-004
 0.96055930E+000 -0.39872618E-004
 0.96371412E+000 -0.14517284E-004
 0.95689320E+000 -0.21342570E-004
 0.94957983E+000 -0.75591492E-005
 0.94649118E+000  0.51984034E-006
 0.94957977E+000  0.63736679E-005
 0.95689338E+000  0.22260135E-004
 0.96371394E+000  0.13539298E-004
 0.96055966E+000  0.40568775E-004
 0.93441069E+000 -0.19203722E-004
 0.86754179E+000  0.32542462E-004
 0.74248683E+000 -0.13197495E-003
 0.54638707E+000  0.56125354E-004
 0.28527238E+000  0.72178008E-004
 0.00000000E+000  0.00000000E+000
 0.00000000E+000  0.00000000E+000
 0.28526896E+000  0.42307403E-003
 0.54647314E+000  0.30906693E-003
 0.74218851E+000 -0.19687890E-003
 0.86764073E+000 -0.18591959E-003
 0.93426519E+000 -0.25978396E-003
 0.96071606E+000 -0.17338087E-003
 0.96365457E+000 -0.13658158E-003
 0.95703566E+000 -0.77476906E-004
 0.94954061E+000 -0.37740937E-004
 0.94662022E+000 -0.65447272E-006
 0.94954073E+000  0.38743120E-004
 0.95703554E+000  0.76335949E-004
 0.96365487E+000  0.13738236E-003
 0.96071588E+000  0.17247113E-003
 0.93426561E+000  0.26029298E-003
 0.86764043E+000  0.18555484E-003
 0.74218899E+000  0.19681469E-003
 0.54647302E+000 -0.30883500E-003
 0.28526914E+000 -0.42332007E-003
 0.00000000E+000  0.00000000E+000
 0.00000000E+000  0.00000000E+000
 0.28465867E+000 -0.15089686E-002
 0.54534596E+000 -0.16096383E-002
 0.74171483E+000 -0.71586825E-003
 0.86704409E+000 -0.41033179E-003
 0.93422192E+000 -0.20915473E-003
 0.96060162E+000 -0.24557524E-003
 0.96395289E+000 -0.25085479E-003
 0.95725619E+000 -0.22196973E-003
 0.95002210E+000 -0.13004672E-003
 0.94695341E+000  0.52801419E-006
 0.95002204E+000  0.12875325E-003
 0.95725637E+000  0.22282512E-003
 0.96395272E+000  0.24979808E-003
 0.96060198E+000  0.24623324E-003
 0.93422174E+000  0.20839668E-003
 0.86704468E+000  0.41045082E-003
 0.74171465E+000  0.71583292E-003
 0.54534637E+000  0.16092767E-002
 0.28465864E+000  0.15091372E-002
 0.00000000E+000  0.00000000E+000
 0.00000000E+000  0.00000000E+000
 0.28896978E+000  0.17591290E-003
 0.55473268E+000 -0.92408485E-003
 0.75192117E+000 -0.28422952E-002
 0.87647253E+000 -0.35982215E-002
 0.94111621E+000 -0.36990947E-002
 0.96550375E+000 -0.32080088E-002
 0.96671944E+000 -0.24933468E-002
 0.95888751E+000 -0.16777159E-002
 0.95068186E+000 -0.83609297E-003
 0.94753372E+000 -0.73526592E-006
 0.95068198E+000  0.83714845E-003
 0.95888739E+000  0.16764849E-002
 0.96671974E+000  0.24941675E-002
 0.96550357E+000  0.32069114E-002
 0.94111669E+000  0.36996218E-002
 0.87647235E+000  0.35976262E-002
 0.75192177E+000  0.28420586E-002
 0.55473268E+000  0.92422089E-003
 0.28897029E+000 -0.17650504E-003
 0.00000000E+000  0.00000000E+000
