 0.00000000E+000  0.00000000E+000
 0.19214153E+000  0.00000000E+000
 0.36405766E+000  0.00000000E+000
 0.51574832E+000  0.00000000E+000
 0.64721357E+000  0.00000000E+000
 0.75845342E+000  0.00000000E+000
 0.00000000E+000  0.00000000E+000
 0.24680209E+000  0.32139178E-001
 0.42429682E+000  0.81823229E-001
 0.55549991E+000  0.12398617E+000
 0.84946787E+000  0.00000000E+000
 0.66038912E+000  0.14794394E+000
 0.74716961E+000  0.15249809E+000
 0.81887173E+000  0.14038863E+000
 0.92025685E+000  0.00000000E+000
 0.87557798E+000  0.11552532E+000
 0.00000000E+000  0.00000000E+000
 0.34519079E+000  0.20829653E-001
 0.54224532E+000  0.61984982E-001
 0.64936316E+000  0.10627713E+000
 0.70889765E+000  0.13985568E+000
 0.74777853E+000  0.15498019E+000
 0.77720904E+000  0.15039861E+000
 0.97082036E+000  0.00000000E+000
 0.91680991E+000  0.81673696E-001
 0.80115318E+000  0.12838295E+000
 0.00000000E+000  0.00000000E+000
 0.39953377E+000  0.82775512E-002
 0.62618798E+000  0.24542206E-001
 0.72888392E+000  0.46136111E-001
 0.76227504E+000  0.65950252E-001
 0.81946367E+000  0.92992901E-001
 0.76333433E+000  0.78571073E-001
 0.10011584E+001  0.00000000E+000
 0.75470185E+000  0.80518692E-001
 0.94183748E+000  0.42189672E-001
 0.74586987E+000  0.71544639E-001
 0.83118963E+000  0.48694577E-001
 0.74015384E+000  0.53201433E-001
 0.00000000E+000  0.00000000E+000
 0.10112712E+001  0.00000000E+000
 0.41749948E+000  0.82431250E-003
 0.65624338E+000  0.42745941E-002
 0.76501375E+000  0.92375492E-002
 0.79186391E+000  0.15629962E-001
 0.77854102E+000  0.20859222E-001
 0.95024961E+000  0.26897337E-007
 0.75094139E+000  0.23443484E-001
 0.72411608E+000  0.22173466E-001
 0.73724180E+000  0.28291273E-001
 0.83519607E+000 -0.57214595E-007
 0.70378202E+000  0.17231371E-001
 0.10011584E+001  0.00000000E+000
 0.94183748E+000 -0.42189724E-001
 0.00000000E+000  0.00000000E+000
 0.73646032E+000  0.92518547E-007
 0.41930350E+000  0.72622227E-004
 0.66275447E+000 -0.64039377E-004
 0.77379369E+000  0.10116798E-002
 0.80194121E+000  0.21259589E-002
 0.78555059E+000  0.37022104E-002
 0.69181102E+000  0.93797156E-002
 0.75295293E+000  0.47117318E-002
 0.71961230E+000  0.49782739E-002
 0.83118969E+000 -0.48694465E-001
 0.69375962E+000  0.41014654E-002
 0.68781876E+000 -0.13074675E-006
 0.97082036E+000  0.00000000E+000
 0.73724174E+000 -0.28291460E-001
 0.91680997E+000 -0.81673644E-001
 0.67779892E+000  0.23313187E-002
 0.00000000E+000  0.00000000E+000
 0.41978988E+000  0.37897734E-004
 0.66359329E+000  0.67962240E-003
 0.77627193E+000  0.91854855E-003
 0.80426585E+000  0.17006198E-002
 0.78796368E+000  0.20121957E-002
 0.81946355E+000 -0.92993013E-001
 0.75383245E+000  0.23161508E-002
 0.71897596E+000  0.21436722E-002
 0.69181108E+000 -0.93794511E-002
 0.92025685E+000  0.00000000E+000
 0.67258006E+000  0.17514304E-006
 0.69113582E+000  0.17155709E-002
 0.74015396E+000 -0.53201254E-001
 0.87557792E+000 -0.11552537E+000
 0.80115330E+000 -0.12838284E+000
 0.67404270E+000  0.93037774E-003
 0.84946787E+000  0.00000000E+000
 0.70378184E+000 -0.17231624E-001
 0.67779886E+000 -0.23316573E-002
 0.00000000E+000  0.00000000E+000
 0.42012685E+000  0.13580819E-003
 0.66472333E+000  0.67299755E-004
 0.77708309E+000  0.59486727E-003
 0.81887179E+000 -0.14038857E+000
 0.80552935E+000  0.64414629E-003
 0.78840637E+000  0.10102257E-002
 0.74586969E+000 -0.71544811E-001
 0.75405538E+000  0.96921529E-003
 0.71828287E+000  0.95246807E-003
 0.66818863E+000 -0.21610728E-006
 0.77720886E+000 -0.15039871E+000
 0.75845342E+000  0.00000000E+000
 0.69008988E+000  0.68211968E-003
 0.74716955E+000 -0.15249814E+000
 0.72411626E+000 -0.22173224E-001
 0.75470209E+000 -0.80518521E-001
 0.69375979E+000 -0.41011329E-002
 0.74777871E+000 -0.15498010E+000
 0.64721357E+000  0.00000000E+000
 0.67237907E+000  0.38286199E-003
 0.66038918E+000 -0.14794389E+000
 0.67404282E+000 -0.92995044E-003
 0.51574832E+000  0.00000000E+000
 0.55549979E+000 -0.12398622E+000
 0.70889747E+000 -0.13985578E+000
 0.36405766E+000  0.00000000E+000
 0.76333409E+000 -0.78571230E-001
 0.42429691E+000 -0.81823199E-001
 0.19214153E+000  0.00000000E+000
 0.00000000E+000  0.00000000E+000
 0.00000000E+000  0.00000000E+000
 0.42025724E+000 -0.10499159E-003
 0.66479653E+000  0.49723905E-004
 0.77772140E+000 -0.19671252E-003
 0.75094109E+000 -0.23443710E-001
 0.80571442E+000  0.77985801E-004
 0.24680203E+000 -0.32139215E-001
 0.78888255E+000 -0.24230734E-004
 0.64936333E+000 -0.10627704E+000
 0.00000000E+000  0.00000000E+000
 0.66657298E+000  0.25571119E-006
 0.75394278E+000  0.16210984E-003
 0.71961212E+000 -0.49785911E-002
 0.54224520E+000 -0.61985056E-001
 0.71822625E+000  0.10953656E-003
 0.76227527E+000 -0.65950118E-001
 0.34519088E+000 -0.20829593E-001
 0.00000000E+000  0.00000000E+000
 0.69113564E+000 -0.17159823E-002
 0.68956178E+000  0.14667851E-003
 0.72888368E+000 -0.46136226E-001
 0.77854132E+000 -0.20859017E-001
 0.62618815E+000 -0.24542110E-001
 0.39953365E+000 -0.82776211E-002
 0.67237901E+000 -0.38337777E-003
 0.00000000E+000  0.00000000E+000
 0.75295323E+000 -0.47114430E-002
 0.67195832E+000  0.65149397E-004
 0.79186362E+000 -0.15630139E-001
 0.76501399E+000 -0.92373965E-002
 0.71897619E+000 -0.21432845E-002
 0.65624314E+000 -0.42747096E-002
 0.78555029E+000 -0.37024689E-002
 0.41749960E+000 -0.82424195E-003
 0.66587424E+000 -0.30498145E-006
 0.00000000E+000  0.00000000E+000
 0.00000000E+000  0.00000000E+000
 0.42012462E+000  0.50866681E-004
 0.66488081E+000 -0.13647721E-003
 0.77755850E+000  0.78287834E-004
 0.80601853E+000 -0.14066172E-003
 0.78880882E+000  0.53277879E-004
 0.69009006E+000 -0.68162626E-003
 0.75420302E+000 -0.59577487E-004
 0.80194151E+000 -0.21257335E-002
 0.71809738E+000  0.46844292E-004
 0.75383216E+000 -0.23165072E-002
 0.77379339E+000 -0.10118570E-002
 0.68965691E+000 -0.49570567E-005
 0.66275477E+000  0.64169908E-004
 0.67195844E+000 -0.64554245E-004
 0.41930335E+000 -0.72691720E-004
 0.00000000E+000  0.00000000E+000
 0.78796404E+000 -0.20118802E-002
 0.71828258E+000 -0.95293082E-003
 0.67172485E+000  0.21998555E-004
 0.80426549E+000 -0.17008848E-002
 0.68956160E+000 -0.14725730E-003
 0.77627223E+000 -0.91833859E-003
 0.66589075E+000  0.34686482E-006
 0.75405567E+000 -0.96878973E-003
 0.66359305E+000 -0.67976192E-003
 0.41979002E+000 -0.37831207E-004
 0.00000000E+000  0.00000000E+000
 0.00000000E+000  0.00000000E+000
 0.42014861E+000 -0.58824458E-004
 0.66475582E+000  0.94037473E-004
 0.77771306E+000 -0.11326012E-003
 0.80584561E+000  0.99427597E-004
 0.78902006E+000 -0.80349935E-004
 0.75405073E+000  0.57431334E-004
 0.71827805E+000 -0.39178205E-004
 0.78840601E+000 -0.10105989E-002
 0.71822655E+000 -0.10899540E-003
 0.67172479E+000 -0.22686614E-004
 0.68949908E+000  0.23009013E-004
 0.80552971E+000 -0.64383842E-003
 0.67186683E+000 -0.11139769E-004
 0.77708280E+000 -0.59510138E-003
 0.66472357E+000 -0.67148372E-004
 0.75394248E+000 -0.16260011E-003
 0.42012667E+000 -0.13586963E-003
 0.00000000E+000  0.00000000E+000
 0.68965715E+000  0.56177382E-005
 0.66572088E+000 -0.39516703E-006
 0.78888291E+000  0.24659022E-004
 0.00000000E+000  0.00000000E+000
 0.42010015E+000  0.48676982E-004
 0.66483646E+000 -0.10004432E-003
 0.77757316E+000  0.88076471E-004
 0.80601453E+000 -0.11579816E-003
 0.78884142E+000  0.62056300E-004
 0.71809709E+000 -0.47464302E-004
 0.80571401E+000 -0.78337077E-004
 0.75423580E+000 -0.75068710E-004
 0.71810436E+000  0.27828378E-004
 0.67186695E+000  0.11915246E-004
 0.77772176E+000  0.19696948E-003
 0.68967950E+000 -0.33082797E-004
 0.66479629E+000 -0.49882270E-004
 0.42025738E+000  0.10505213E-003
 0.00000000E+000  0.00000000E+000
 0.75420331E+000  0.60137241E-004
 0.67169892E+000  0.69469992E-005
 0.68949890E+000 -0.23755344E-004
 0.78880840E+000 -0.53761767E-004
 0.66590011E+000  0.43873512E-006
 0.80601888E+000  0.14105376E-003
 0.71827834E+000  0.39876431E-004
 0.77755814E+000 -0.78574863E-004
 0.66488111E+000  0.13664271E-003
 0.00000000E+000  0.00000000E+000
 0.42012566E+000 -0.50698021E-004
 0.66474789E+000  0.80713667E-004
 0.77768713E+000 -0.10308298E-003
 0.80585604E+000  0.86773085E-004
 0.42012447E+000 -0.50918195E-004
 0.78902012E+000 -0.85852152E-004
 0.67169880E+000 -0.78145831E-005
 0.00000000E+000  0.00000000E+000
 0.75405430E+000  0.52574960E-004
 0.71830183E+000 -0.45977529E-004
 0.75405037E+000 -0.58059089E-004
 0.68949389E+000  0.21233392E-004
 0.68967974E+000  0.33916661E-004
 0.67190092E+000 -0.13210898E-004
 0.78902047E+000  0.80890633E-004
 0.80584520E+000 -0.99859571E-004
 0.66571283E+000 -0.48516415E-006
 0.77771341E+000  0.11356466E-003
 0.71810406E+000 -0.28605287E-004
 0.66475552E+000 -0.94211922E-004
 0.42014876E+000  0.58870195E-004
 0.00000000E+000  0.00000000E+000
 0.67190104E+000  0.14170262E-004
 0.00000000E+000  0.00000000E+000
 0.42009109E+000  0.47488174E-004
 0.66481614E+000 -0.79294739E-004
 0.77757257E+000  0.92461159E-004
 0.75423616E+000  0.75767820E-004
 0.80600237E+000 -0.89459557E-004
 0.78884494E+000  0.75259602E-004
 0.75424832E+000 -0.58574361E-004
 0.71809923E+000  0.38931546E-004
 0.68970853E+000 -0.25172088E-004
 0.78884106E+000 -0.62651597E-004
 0.68949365E+000 -0.22152620E-004
 0.67168712E+000  0.10673594E-004
 0.80601495E+000  0.11626934E-003
 0.77757275E+000 -0.88408996E-004
 0.66483676E+000  0.10021943E-003
 0.42009997E+000 -0.48722427E-004
 0.71830213E+000  0.46833323E-004
 0.00000000E+000  0.00000000E+000
 0.66593390E+000  0.53217081E-006
 0.75405395E+000 -0.53341605E-004
 0.67168700E+000 -0.11723526E-004
 0.00000000E+000  0.00000000E+000
 0.42012268E+000 -0.46316759E-004
 0.66474837E+000  0.75228890E-004
 0.77767872E+000 -0.88442080E-004
 0.80585783E+000  0.83754290E-004
 0.78902101E+000 -0.72717244E-004
 0.75404655E+000  0.54302388E-004
 0.78902053E+000  0.86503081E-004
 0.71831959E+000 -0.38443380E-004
 0.68947601E+000  0.22703923E-004
 0.68970876E+000  0.26180847E-004
 0.80585563E+000 -0.87284504E-004
 0.77768748E+000  0.10343197E-003
 0.67192870E+000 -0.10664971E-004
 0.66474759E+000 -0.80901132E-004
 0.42012584E+000  0.50734193E-004
 0.00000000E+000  0.00000000E+000
 0.71809893E+000 -0.39865630E-004
 0.66569131E+000 -0.57891156E-006
 0.75424873E+000  0.59412162E-004
 0.67192882E+000  0.11807749E-004
 0.78884452E+000 -0.75968499E-004
 0.00000000E+000  0.00000000E+000
 0.42009004E+000  0.45213200E-004
 0.66481411E+000 -0.73012874E-004
 0.77757394E+000  0.83089209E-004
 0.80600208E+000 -0.79748853E-004
 0.78883987E+000  0.67015454E-004
 0.75425994E+000 -0.51038045E-004
 0.80600279E+000  0.90006433E-004
 0.71808153E+000  0.34846954E-004
 0.68947577E+000 -0.23798860E-004
 0.77757215E+000 -0.92834132E-004
 0.68973267E+000 -0.20946614E-004
 0.66481643E+000  0.79478457E-004
 0.42009091E+000 -0.47522189E-004
 0.00000000E+000  0.00000000E+000
 0.67166143E+000  0.94130555E-005
 0.71831995E+000  0.39461745E-004
 0.66596281E+000  0.62795896E-006
 0.75404620E+000 -0.55208074E-004
 0.67166131E+000 -0.10650993E-004
 0.78902143E+000  0.73474759E-004
 0.80585741E+000 -0.84347782E-004
 0.00000000E+000  0.00000000E+000
 0.42012327E+000 -0.44772663E-004
 0.66474711E+000  0.70629379E-004
 0.77767950E+000 -0.78923578E-004
 0.80585426E+000  0.74191149E-004
 0.78902971E+000 -0.61426879E-004
 0.77767914E+000  0.88830609E-004
 0.75403201E+000  0.45808676E-004
 0.68973290E+000  0.22128746E-004
 0.66474807E+000 -0.75424344E-004
 0.71834111E+000 -0.30720970E-004
 0.42012289E+000  0.46340453E-004
 0.00000000E+000  0.00000000E+000
 0.68944984E+000  0.18039461E-004
 0.67195856E+000 -0.79149494E-005
 0.71808123E+000 -0.35945602E-004
 0.66566073E+000 -0.67492430E-006
 0.75426036E+000  0.52007882E-004
 0.78883945E+000 -0.67834567E-004
 0.67195868E+000  0.92423042E-005
 0.80600249E+000  0.80368365E-004
 0.77757358E+000 -0.83509556E-004
 0.66481447E+000  0.73206894E-004
 0.42008987E+000 -0.45236600E-004
 0.68944960E+000 -0.19316677E-004
 0.00000000E+000  0.00000000E+000
 0.00000000E+000  0.00000000E+000
 0.42008829E+000  0.44603788E-004
 0.66481643E+000 -0.68657063E-004
 0.77757018E+000  0.74602183E-004
 0.80600905E+000 -0.68243658E-004
 0.78882759E+000  0.54745312E-004
 0.75427865E+000 -0.39520447E-004
 0.71805667E+000  0.25478120E-004
 0.68976265E+000 -0.14372068E-004
 0.71834146E+000  0.31894873E-004
 0.67162829E+000  0.59951917E-005
 0.75403159E+000 -0.46854565E-004
 0.66599702E+000  0.72123873E-006
 0.78903019E+000  0.62291175E-004
 0.67162817E+000 -0.74206636E-005
 0.80585384E+000 -0.74857249E-004
 0.77767992E+000  0.79350837E-004
 0.66474682E+000 -0.70832109E-004
 0.42012345E+000  0.44784868E-004
 0.00000000E+000  0.00000000E+000
 0.68976289E+000  0.15731429E-004
 0.00000000E+000  0.00000000E+000
 0.42012554E+000 -0.44729200E-004
 0.66474318E+000  0.66778062E-004
 0.77768576E+000 -0.70175730E-004
 0.80584383E+000  0.61483704E-004
 0.78904610E+000 -0.47095447E-004
 0.75400912E+000  0.31988191E-004
 0.71837031E+000 -0.19231938E-004
 0.68941581E+000  0.99116177E-005
 0.71805638E+000 -0.26742292E-004
 0.67199569E+000 -0.36823264E-005
 0.75427907E+000  0.40624770E-004
 0.66562259E+000 -0.77037537E-006
 0.78882718E+000 -0.55668442E-004
 0.80600953E+000  0.68941975E-004
 0.67199581E+000  0.52015207E-005
 0.77756977E+000 -0.75058647E-004
 0.66481679E+000  0.68857538E-004
 0.42008811E+000 -0.44616303E-004
 0.00000000E+000  0.00000000E+000
 0.68941557E+000 -0.11366791E-004
 0.00000000E+000  0.00000000E+000
 0.42008531E+000  0.45039731E-004
 0.66482174E+000 -0.64970176E-004
 0.77756142E+000  0.65244043E-004
 0.80602312E+000 -0.53901923E-004
 0.78880697E+000  0.38190919E-004
 0.75430631E+000 -0.23287231E-004
 0.71802288E+000  0.11899618E-004
 0.71837061E+000  0.20562383E-004
 0.68980127E+000 -0.47203584E-005
 0.67158675E+000  0.98728560E-006
 0.75400871E+000 -0.33168780E-004
 0.66603952E+000  0.82036217E-006
 0.78904658E+000  0.48070454E-004
 0.80584335E+000 -0.62217506E-004
 0.77768617E+000  0.70641151E-004
 0.67158663E+000 -0.26030415E-005
 0.66474288E+000 -0.66985427E-004
 0.42012572E+000  0.44726271E-004
 0.00000000E+000  0.00000000E+000
 0.68980151E+000  0.62574340E-005
 0.00000000E+000  0.00000000E+000
 0.42012912E+000 -0.45538257E-004
 0.66473639E+000  0.63039748E-004
 0.77769720E+000 -0.59663489E-004
 0.80582594E+000  0.45172597E-004
 0.78907155E+000 -0.27950540E-004
 0.75397628E+000  0.13288540E-004
 0.71802252E+000 -0.13318992E-004
 0.71840935E+000 -0.35407560E-005
 0.68937218E+000 -0.11936109E-005
 0.75430679E+000  0.24532206E-004
 0.67204207E+000  0.20639217E-005
 0.78880649E+000 -0.39214297E-004
 0.66557532E+000 -0.86921539E-006
 0.80602359E+000  0.54670286E-004
 0.77756094E+000 -0.65732245E-004
 0.66482210E+000  0.65174826E-004
 0.67204219E+000 -0.35416380E-006
 0.42008513E+000 -0.45036867E-004
 0.00000000E+000  0.00000000E+000
 0.68937194E+000 -0.43637814E-006
 0.71840971E+000  0.50376338E-005
 0.00000000E+000  0.00000000E+000
 0.42008101E+000  0.46190405E-004
 0.66483014E+000 -0.60841117E-004
 0.77754706E+000  0.53144391E-004
 0.80604535E+000 -0.35056647E-004
 0.78877615E+000  0.16179294E-004
 0.75434499E+000 -0.19576998E-005
 0.71797806E+000 -0.58526889E-005
 0.68985038E+000  0.77707309E-005
 0.75397580E+000 -0.14601036E-004
 0.67153519E+000 -0.54414763E-005
 0.78907203E+000  0.29030101E-004
 0.66609191E+000  0.91578635E-006
 0.80582541E+000 -0.45971322E-004
 0.77769762E+000  0.60165817E-004
 0.66473603E+000 -0.63244275E-004
 0.42012932E+000  0.45519995E-004
 0.00000000E+000  0.00000000E+000
 0.67153507E+000  0.36383664E-005
 0.68985062E+000 -0.60481020E-005
 0.71797770E+000  0.42721794E-005
 0.00000000E+000  0.00000000E+000
 0.42013424E+000 -0.46964974E-004
 0.66472613E+000  0.58193221E-004
 0.77771490E+000 -0.45390363E-004
 0.80579876E+000  0.23230039E-004
 0.78910839E+000 -0.27077321E-005
 0.75393122E+000 -0.10777117E-004
 0.71846044E+000  0.16212308E-004
 0.75434541E+000  0.33338471E-005
 0.68931728E+000 -0.14940405E-004
 0.67209911E+000  0.90984458E-005
 0.78877568E+000 -0.17306105E-004
 0.80604583E+000  0.35894187E-004
 0.66551762E+000 -0.96808935E-006
 0.77754658E+000 -0.53656174E-004
 0.66483050E+000  0.61046193E-004
 0.42008081E+000 -0.46161079E-004
 0.00000000E+000  0.00000000E+000
 0.67209923E+000 -0.71940826E-005
 0.68931698E+000  0.13132729E-004
 0.71846085E+000 -0.14558080E-004
 0.00000000E+000  0.00000000E+000
 0.42007493E+000  0.47851641E-004
 0.66484260E+000 -0.54881722E-004
 0.77752536E+000  0.36034180E-004
 0.80607831E+000 -0.93478956E-005
 0.78873234E+000 -0.12655323E-004
 0.75439727E+000  0.24903711E-004
 0.71792018E+000 -0.27467478E-004
 0.75393074E+000  0.93307917E-005
 0.68991148E+000  0.22614156E-004
 0.78910893E+000  0.38836506E-005
 0.67147248E+000 -0.12973875E-004
 0.80579823E+000 -0.24096252E-004
 0.77771532E+000  0.45920845E-004
 0.66615509E+000  0.10142545E-005
 0.66472578E+000 -0.58391808E-004
 0.42013445E+000  0.46928598E-004
 0.00000000E+000  0.00000000E+000
 0.67147237E+000  0.10973750E-004
 0.68991178E+000 -0.20711804E-004
 0.71791976E+000  0.25731211E-004
 0.00000000E+000  0.00000000E+000
 0.42014151E+000 -0.48843434E-004
 0.66471093E+000  0.50627859E-004
 0.77774149E+000 -0.24583156E-004
 0.80575883E+000 -0.69613056E-005
 0.78916037E+000  0.30062961E-004
 0.75439774E+000 -0.23393136E-004
 0.75387084E+000 -0.40357190E-004
 0.71852564E+000  0.39488746E-004
 0.68924975E+000 -0.30634626E-004
 0.78873181E+000  0.11427271E-004
 0.67216759E+000  0.16993515E-004
 0.80607885E+000  0.10241949E-004
 0.77752488E+000 -0.36571254E-004
 0.66484302E+000  0.55075382E-004
 0.66544890E+000 -0.10650876E-005
 0.42007473E+000 -0.47804951E-004
 0.00000000E+000  0.00000000E+000
 0.67216771E+000 -0.14897647E-004
 0.68924945E+000  0.28642316E-004
 0.71852606E+000 -0.37668763E-004
 0.75387036E+000  0.38782807E-004
 0.00000000E+000  0.00000000E+000
 0.42006620E+000  0.49899139E-004
 0.66486126E+000 -0.45045304E-004
 0.77749264E+000  0.10520127E-004
 0.80612689E+000  0.26178962E-004
 0.78867095E+000 -0.49536665E-004
 0.75446659E+000  0.57076929E-004
 0.71784722E+000 -0.51965183E-004
 0.78916090E+000 -0.28790269E-004
 0.68998551E+000  0.38880978E-004
 0.80575823E+000  0.60387901E-005
 0.67139828E+000 -0.21034422E-004
 0.77774196E+000  0.25135306E-004
 0.66471058E+000 -0.50819380E-004
 0.42014169E+000  0.48772908E-004
 0.00000000E+000  0.00000000E+000
 0.66622918E+000  0.11180065E-005
 0.67139816E+000  0.18840084E-004
 0.68998581E+000 -0.36798628E-004
 0.71784681E+000  0.50071099E-004
 0.75446707E+000 -0.55433840E-004
 0.00000000E+000  0.00000000E+000
 0.42015218E+000 -0.50975169E-004
 0.66468793E+000  0.37668105E-004
 0.77778220E+000  0.69994084E-005
 0.80569970E+000 -0.48559955E-004
 0.78923290E+000  0.71249291E-004
 0.75379163E+000 -0.74553332E-004
 0.71860665E+000  0.64800588E-004
 0.78867042E+000  0.48216530E-004
 0.68916910E+000 -0.46975492E-004
 0.80612742E+000 -0.25223585E-004
 0.67224723E+000  0.25047997E-004
 0.77749210E+000 -0.11074819E-004
 0.66486161E+000  0.45228927E-004
 0.42006599E+000 -0.49819664E-004
 0.00000000E+000  0.00000000E+000
 0.66536957E+000 -0.11683907E-005
 0.67224735E+000 -0.22751471E-004
 0.68916881E+000  0.44803437E-004
 0.71860706E+000 -0.62820115E-004
 0.75379109E+000  0.72854556E-004
 0.00000000E+000  0.00000000E+000
 0.42005303E+000  0.52029638E-004
 0.66489046E+000 -0.27629463E-004
 0.77744156E+000 -0.28611930E-004
 0.80619937E+000  0.74869247E-004
 0.78858536E+000 -0.94525094E-004
 0.78923350E+000 -0.69883542E-004
 0.75455659E+000  0.92815418E-004
 0.71775788E+000 -0.77151365E-004
 0.80569916E+000  0.47582801E-004
 0.69007223E+000  0.54957243E-004
 0.77778273E+000 -0.64346959E-005
 0.66468751E+000 -0.37838155E-004
 0.67131340E+000 -0.28727434E-004
 0.42015239E+000  0.50882677E-004
 0.00000000E+000  0.00000000E+000
 0.66631305E+000  0.12185995E-005
 0.67131322E+000  0.26332452E-004
 0.69007259E+000 -0.52688403E-004
 0.71775746E+000  0.75102099E-004
 0.75455713E+000 -0.91044377E-004
 0.78858476E+000  0.93112532E-004
 0.00000000E+000  0.00000000E+000
 0.42016917E+000 -0.52753392E-004
 0.66465079E+000  0.14309754E-004
 0.77784776E+000  0.56232278E-004
 0.80561083E+000 -0.10421987E-003
 0.78933387E+000  0.12018661E-003
 0.75369000E+000 -0.10979818E-003
 0.71870386E+000  0.89770474E-004
 0.80619996E+000 -0.73866198E-004
 0.68907606E+000 -0.61549668E-004
 0.77744102E+000  0.28039532E-004
 0.66489088E+000  0.27794678E-004
 0.42005279E+000 -0.51909973E-004
 0.00000000E+000  0.00000000E+000
 0.67233598E+000  0.32416966E-004
 0.66528099E+000 -0.12707855E-005
 0.67233616E+000 -0.29920309E-004
 0.68907576E+000  0.59189031E-004
 0.71870434E+000 -0.87633838E-004
 0.75368940E+000  0.10797255E-003
 0.78933447E+000 -0.11873189E-003
 0.00000000E+000  0.00000000E+000
 0.42003181E+000  0.53283172E-004
 0.66494071E+000  0.51222868E-005
 0.77735829E+000 -0.88866967E-004
 0.80631053E+000  0.13982578E-003
 0.78846752E+000 -0.14334254E-003
 0.80561017E+000  0.10319344E-003
 0.75467008E+000  0.12869929E-003
 0.71765208E+000 -0.98337040E-004
 0.77784830E+000 -0.55661024E-004
 0.69016903E+000  0.69221023E-004
 0.66465038E+000 -0.14452260E-004
 0.42016941E+000  0.52620122E-004
 0.00000000E+000  0.00000000E+000
 0.67121911E+000 -0.34413096E-004
 0.66640275E+000  0.13252868E-005
 0.67121893E+000  0.31813502E-004
 0.69016933E+000 -0.66772125E-004
 0.71765160E+000  0.96124211E-004
 0.75467067E+000 -0.12680777E-003
 0.78846687E+000  0.14184261E-003
 0.80631113E+000 -0.13877225E-003
 0.00000000E+000  0.00000000E+000
 0.42019930E+000 -0.52254606E-004
 0.66458564E+000 -0.30549559E-004
 0.77795976E+000  0.13234399E-003
 0.80547487E+000 -0.17497727E-003
 0.78947198E+000  0.16944788E-003
 0.75356441E+000 -0.14116724E-003
 0.77735769E+000  0.88296917E-004
 0.71881520E+000  0.10876754E-003
 0.66494113E+000 -0.49944801E-005
 0.42003160E+000 -0.53121064E-004
 0.00000000E+000  0.00000000E+000
 0.68897271E+000 -0.72606751E-004
 0.67242956E+000  0.37211633E-004
 0.66518574E+000 -0.13804146E-005
 0.67242974E+000 -0.34508080E-004
 0.68897235E+000  0.70056710E-004
 0.71881574E+000 -0.10648137E-003
 0.75356382E+000  0.13921626E-003
 0.78947263E+000 -0.16791313E-003
 0.80547422E+000  0.17390893E-003
 0.77796036E+000 -0.13176701E-003
 0.00000000E+000  0.00000000E+000
 0.41999092E+000  0.48827561E-004
 0.66503167E+000  0.65765882E-004
 0.77720910E+000 -0.18788219E-003
 0.80647861E+000  0.20747733E-003
 0.78830844E+000 -0.19699239E-003
 0.75480610E+000  0.14480578E-003
 0.66458523E+000  0.30444814E-004
 0.42019954E+000  0.52067131E-004
 0.71753489E+000 -0.12181344E-003
 0.00000000E+000  0.00000000E+000
 0.69027560E+000  0.70002650E-004
 0.67112523E+000 -0.41387749E-004
 0.66649973E+000  0.14332204E-005
 0.67112505E+000  0.38573653E-004
 0.69027596E+000 -0.67374130E-004
 0.71753442E+000  0.11943998E-003
 0.75480669E+000 -0.14279779E-003
 0.78830772E+000  0.19540655E-003
 0.80647927E+000 -0.20638549E-003
 0.77720850E+000  0.18732548E-003
 0.66503214E+000 -0.65683772E-004
 0.00000000E+000  0.00000000E+000
 0.42024937E+000 -0.45561057E-004
 0.66444009E+000 -0.13021660E-003
 0.77814412E+000  0.22941334E-003
 0.80525404E+000 -0.27200471E-003
 0.41999065E+000 -0.48611644E-004
 0.78964263E+000  0.17560830E-003
 0.00000000E+000  0.00000000E+000
 0.75341957E+000 -0.18923425E-003
 0.71894556E+000  0.89755172E-004
 0.68888258E+000 -0.97328716E-004
 0.67254668E+000  0.26973733E-004
 0.66511547E+000 -0.14957040E-005
 0.67254686E+000 -0.24064738E-004
 0.68888223E+000  0.94585564E-004
 0.71894609E+000 -0.87321444E-004
 0.75341898E+000  0.18716037E-003
 0.78964334E+000 -0.17399717E-003
 0.80525332E+000  0.27090308E-003
 0.77814471E+000 -0.22885600E-003
 0.66443961E+000  0.13016072E-003
 0.42024964E+000  0.45315609E-004
 0.00000000E+000  0.00000000E+000
 0.00000000E+000  0.00000000E+000
 0.41987821E+000  0.21433390E-004
 0.66518813E+000  0.17930076E-003
 0.77689689E+000 -0.35103119E-003
 0.80669671E+000  0.22438853E-003
 0.78809767E+000 -0.26739682E-003
 0.75496000E+000  0.10026944E-003
 0.71743535E+000 -0.17093578E-003
 0.69042456E+000  0.32175357E-004
 0.67108964E+000 -0.60171732E-004
 0.66665375E+000  0.15381177E-005
 0.67108941E+000  0.57126922E-004
 0.69042497E+000 -0.29363023E-004
 0.71743476E+000  0.16840222E-003
 0.75496065E+000 -0.98161734E-004
 0.78809696E+000  0.26573042E-003
 0.80669742E+000 -0.22327242E-003
 0.77689629E+000  0.35048162E-003
 0.66518861E+000 -0.17928847E-003
 0.41987797E+000 -0.21157859E-004
 0.00000000E+000  0.00000000E+000
 0.00000000E+000  0.00000000E+000
 0.42034173E+000 -0.65125595E-005
 0.66406714E+000 -0.33879591E-003
 0.77843743E+000  0.33735288E-003
 0.80490475E+000 -0.34281963E-003
 0.78981393E+000  0.12643983E-003
 0.75327241E+000 -0.23703969E-003
 0.71911555E+000  0.37291418E-004
 0.68886208E+000 -0.12294622E-003
 0.67273902E+000  0.68003055E-005
 0.66513961E+000 -0.16260372E-005
 0.67273926E+000 -0.36913274E-005
 0.68886166E+000  0.11999349E-003
 0.71911615E+000 -0.34738135E-004
 0.75327175E+000  0.23483920E-003
 0.78981471E+000 -0.12476980E-003
 0.80490404E+000  0.34167277E-003
 0.77843815E+000 -0.33682925E-003
 0.66406667E+000  0.33880301E-003
 0.42034196E+000  0.61928535E-005
 0.00000000E+000  0.00000000E+000
 0.00000000E+000  0.00000000E+000
 0.41957378E+000 -0.74470466E-004
 0.66557204E+000  0.45035433E-003
 0.77631366E+000 -0.46887577E-003
 0.80693727E+000  0.18967498E-003
 0.78787100E+000 -0.25579074E-003
 0.75513702E+000  0.86796826E-004
 0.71738004E+000 -0.14353034E-003
 0.69061464E+000  0.28861139E-004
 0.67112338E+000 -0.49156409E-004
 0.66685849E+000  0.16411783E-005
 0.67112320E+000  0.45842887E-004
 0.69061511E+000 -0.25903078E-004
 0.71737945E+000  0.14081729E-003
 0.75513780E+000 -0.84620296E-004
 0.78787028E+000  0.25403234E-003
 0.80693805E+000 -0.18855271E-003
 0.77631300E+000  0.46834317E-003
 0.66557258E+000 -0.45042714E-003
 0.41957354E+000  0.74831441E-004
 0.00000000E+000  0.00000000E+000
 0.00000000E+000  0.00000000E+000
 0.42073038E+000  0.19189402E-003
 0.66320252E+000 -0.71755901E-003
 0.77897894E+000  0.35006852E-003
 0.80459177E+000 -0.20496317E-003
 0.79001092E+000  0.17456516E-003
 0.75313943E+000 -0.12508928E-003
 0.71926814E+000  0.70367503E-004
 0.68884485E+000 -0.61115817E-004
 0.67289710E+000  0.21883388E-004
 0.66515582E+000 -0.17831262E-005
 0.67289739E+000 -0.18597957E-004
 0.68884438E+000  0.57925619E-004
 0.71926879E+000 -0.67724009E-004
 0.75313878E+000  0.12275825E-003
 0.79001170E+000 -0.17286391E-003
 0.80459105E+000  0.20375160E-003
 0.77897971E+000 -0.34959687E-003
 0.66320204E+000  0.71765983E-003
 0.42073068E+000 -0.19231115E-003
 0.00000000E+000  0.00000000E+000
 0.00000000E+000  0.00000000E+000
 0.41853642E+000 -0.52133598E-003
 0.66678529E+000  0.88448298E-003
 0.77565366E+000 -0.17733451E-003
 0.80708783E+000  0.61376740E-004
 0.78763395E+000 -0.29954765E-003
 0.75531435E+000 -0.66595355E-004
 0.71736794E+000 -0.16288402E-003
 0.69076889E+000 -0.13814553E-004
 0.67112028E+000 -0.40449853E-004
 0.66697144E+000  0.17453320E-005
 0.67112004E+000  0.36829893E-004
 0.69076943E+000  0.16902413E-004
 0.71736741E+000  0.16001105E-003
 0.75531512E+000  0.68799905E-004
 0.78763329E+000  0.29769109E-003
 0.80708873E+000 -0.60236972E-004
 0.77565306E+000  0.17679683E-003
 0.66678589E+000 -0.88469096E-003
 0.41853621E+000  0.52182230E-003
 0.00000000E+000  0.00000000E+000
 0.00000000E+000  0.00000000E+000
 0.42284643E+000  0.10687544E-002
 0.66081190E+000 -0.12489580E-002
 0.77867192E+000 -0.12224635E-002
 0.80419707E+000 -0.13685171E-002
 0.79044222E+000 -0.94834034E-003
 0.75343513E+000 -0.78536744E-003
 0.71973913E+000 -0.45648121E-003
 0.68910229E+000 -0.32202605E-003
 0.67319726E+000 -0.12704983E-003
 0.66532862E+000 -0.19440533E-005
 0.67319756E+000  0.13055108E-003
 0.68910181E+000  0.31861074E-003
 0.71973991E+000  0.45918373E-003
 0.75343453E+000  0.78294303E-003
 0.79044318E+000  0.95003738E-003
 0.80419641E+000  0.13671881E-002
 0.77867281E+000  0.12229026E-002
 0.66081148E+000  0.12491923E-002
 0.42284679E+000 -0.10693550E-002
 0.00000000E+000  0.00000000E+000
 0.00000000E+000  0.00000000E+000
 0.40837287E+000 -0.35210694E-002
 0.66431647E+000 -0.35787690E-002
 0.77471876E+000 -0.32670754E-002
 0.80822998E+000 -0.30141593E-002
 0.78908854E+000 -0.26279764E-002
 0.75712746E+000 -0.21444414E-002
 0.71892446E+000 -0.16230636E-002
 0.69222038E+000 -0.10558001E-002
 0.67231702E+000 -0.52821898E-003
 0.66817384E+000  0.18453226E-005
 0.67231673E+000  0.52443635E-003
 0.69222098E+000  0.10590013E-002
 0.71892386E+000  0.16201428E-002
 0.75712829E+000  0.21466338E-002
 0.78908789E+000  0.26260714E-002
 0.80823087E+000  0.30152692E-002
 0.77471816E+000  0.32664139E-002
 0.66431730E+000  0.35783350E-002
 0.40837284E+000  0.35216379E-002
 0.00000000E+000  0.00000000E+000
 0.00000000E+000  0.00000000E+000
 0.44828477E+000 -0.11770997E-001
 0.68339318E+000 -0.12486780E-001
 0.79725849E+000 -0.12270471E-001
 0.81727176E+000 -0.98162796E-002
 0.79936701E+000 -0.76060649E-002
 0.75890773E+000 -0.52546896E-002
 0.72293519E+000 -0.34510868E-002
 0.69069415E+000 -0.19748630E-002
 0.67396718E+000 -0.89799071E-003
 0.66577786E+000 -0.21298851E-005
 0.67396748E+000  0.90189283E-003
 0.69069367E+000  0.19712417E-002
 0.72293591E+000  0.34539555E-002
 0.75890707E+000  0.52522323E-002
 0.79936784E+000  0.76078409E-002
 0.81727105E+000  0.98148370E-002
 0.79725921E+000  0.12270862E-001
 0.68339234E+000  0.12486870E-001
 0.44828510E+000  0.11769423E-001
 0.00000000E+000  0.00000000E+000
