 0.00000000E+000  0.00000000E+000
 0.10112258E+000  0.00000000E+000
 0.19160068E+000  0.00000000E+000
 0.27143430E+000  0.00000000E+000
 0.34062343E+000  0.00000000E+000
 0.39916807E+000  0.00000000E+000
 0.00000000E+000  0.00000000E+000
 0.18013609E+000  0.41700053E-001
 0.27335956E+000  0.10635197E+000
 0.32380738E+000  0.15859335E+000
 0.44706824E+000  0.00000000E+000
 0.35764098E+000  0.18666607E+000
 0.38458043E+000  0.19026896E+000
 0.40810778E+000  0.17348152E+000
 0.48432394E+000  0.00000000E+000
 0.42820689E+000  0.14157097E+000
 0.00000000E+000  0.00000000E+000
 0.28651165E+000  0.16470318E-001
 0.39506682E+000  0.48490662E-001
 0.41516733E+000  0.83816401E-001
 0.39973449E+000  0.10991707E+000
 0.37810489E+000  0.12059173E+000
 0.36120754E+000  0.11565042E+000
 0.51093512E+000  0.00000000E+000
 0.44393444E+000  0.99422417E-001
 0.35175549E+000  0.97619153E-001
 0.00000000E+000  0.00000000E+000
 0.32108795E+000  0.29854211E-002
 0.45235273E+000  0.94097582E-002
 0.46901050E+000  0.18862182E-001
 0.43457424E+000  0.28362395E-001
 0.34793677E+000  0.70083297E-001
 0.38642713E+000  0.35019662E-001
 0.52690190E+000  0.00000000E+000
 0.34432759E+000  0.36585565E-001
 0.45397669E+000  0.51134694E-001
 0.31416359E+000  0.32862506E-001
 0.34716132E+000  0.36488059E-001
 0.29587712E+000  0.24554463E-001
 0.00000000E+000  0.00000000E+000
 0.53222411E+000  0.00000000E+000
 0.32860928E+000  0.69230445E-003
 0.46468922E+000  0.25346889E-002
 0.48573362E+000  0.48479065E-002
 0.44891062E+000  0.77612469E-002
 0.39451938E+000  0.10066773E-001
 0.45745044E+000  0.41531134E-008
 0.34327292E+000  0.11307196E-001
 0.30445504E+000  0.10709416E-001
 0.28654110E+000  0.13089834E-001
 0.34714335E+000 -0.93886471E-008
 0.27900284E+000  0.83654327E-002
 0.52690190E+000  0.00000000E+000
 0.45397669E+000 -0.51134701E-001
 0.00000000E+000  0.00000000E+000
 0.28380250E+000  0.15042855E-007
 0.33113801E+000  0.71097945E-003
 0.46990638E+000  0.19853913E-002
 0.49077492E+000  0.37520250E-002
 0.45399096E+000  0.49023255E-002
 0.39739361E+000  0.57762959E-002
 0.26531180E+000  0.45608486E-002
 0.34353089E+000  0.57859411E-002
 0.30125650E+000  0.52052964E-002
 0.34716135E+000 -0.36488041E-001
 0.27305695E+000  0.38843571E-002
 0.26097697E+000 -0.20870521E-007
 0.51093512E+000  0.00000000E+000
 0.28654110E+000 -0.13089864E-001
 0.44393444E+000 -0.99422410E-001
 0.25728598E+000  0.20949202E-002
 0.00000000E+000  0.00000000E+000
 0.33305880E+000  0.18620601E-003
 0.47231200E+000  0.72408927E-003
 0.49380633E+000  0.11458039E-002
 0.45574739E+000  0.18929885E-002
 0.39837980E+000  0.21101140E-002
 0.34793674E+000 -0.70083320E-001
 0.34293159E+000  0.22492806E-002
 0.29963570E+000  0.19347257E-002
 0.26531180E+000 -0.45608067E-002
 0.48432394E+000  0.00000000E+000
 0.25238236E+000  0.26955760E-007
 0.27021491E+000  0.14674576E-002
 0.29587712E+000 -0.24554435E-001
 0.42820689E+000 -0.14157098E+000
 0.35175549E+000 -0.97619131E-001
 0.25391152E+000  0.76491670E-003
 0.44706824E+000  0.00000000E+000
 0.27900284E+000 -0.83654737E-002
 0.25728595E+000 -0.20949738E-002
 0.00000000E+000  0.00000000E+000
 0.33337482E+000  0.30184613E-004
 0.47334623E+000  0.18507822E-004
 0.49458926E+000  0.32675478E-003
 0.40810778E+000 -0.17348150E+000
 0.45681729E+000  0.32546161E-003
 0.39864546E+000  0.64034695E-003
 0.31416356E+000 -0.32862532E-001
 0.34297105E+000  0.62152289E-003
 0.29891675E+000  0.66523306E-003
 0.24861592E+000 -0.33116933E-007
 0.36120751E+000 -0.11565044E+000
 0.39916807E+000  0.00000000E+000
 0.26930877E+000  0.47975787E-003
 0.38458043E+000 -0.19026897E+000
 0.30445507E+000 -0.10709377E-001
 0.34432762E+000 -0.36585539E-001
 0.27305698E+000 -0.38843050E-002
 0.37810492E+000 -0.12059172E+000
 0.34062343E+000  0.00000000E+000
 0.25255981E+000  0.27902662E-003
 0.35764098E+000 -0.18666605E+000
 0.25391152E+000 -0.76485075E-003
 0.27143430E+000  0.00000000E+000
 0.32380738E+000 -0.15859337E+000
 0.39973446E+000 -0.10991708E+000
 0.19160068E+000  0.00000000E+000
 0.38642710E+000 -0.35019684E-001
 0.27335956E+000 -0.10635197E+000
 0.10112258E+000  0.00000000E+000
 0.00000000E+000  0.00000000E+000
 0.00000000E+000  0.00000000E+000
 0.33353057E+000  0.60078050E-005
 0.47342905E+000  0.13530517E-003
 0.49506813E+000  0.44849763E-004
 0.34327289E+000 -0.11307232E-001
 0.45693379E+000  0.28284807E-003
 0.18013608E+000 -0.41700057E-001
 0.39902412E+000  0.16598284E-003
 0.41516736E+000 -0.83816394E-001
 0.00000000E+000  0.00000000E+000
 0.24736252E+000  0.39511995E-007
 0.34286457E+000  0.29506123E-003
 0.30125647E+000 -0.52053458E-002
 0.39506679E+000 -0.48490673E-001
 0.29888814E+000  0.19522367E-003
 0.43457427E+000 -0.28362372E-001
 0.28651165E+000 -0.16470309E-001
 0.00000000E+000  0.00000000E+000
 0.27021488E+000 -0.14675213E-002
 0.26886633E+000  0.19373861E-003
 0.46901047E+000 -0.18862199E-001
 0.39451941E+000 -0.10066741E-001
 0.45235276E+000 -0.94097442E-002
 0.32108792E+000 -0.29854299E-002
 0.25255981E+000 -0.27910489E-003
 0.00000000E+000  0.00000000E+000
 0.34353092E+000 -0.57858950E-002
 0.25223395E+000  0.85537794E-004
 0.44891056E+000 -0.77612753E-002
 0.48573368E+000 -0.48478841E-002
 0.29963573E+000 -0.19346644E-002
 0.46468919E+000 -0.25347054E-002
 0.39739358E+000 -0.57763378E-002
 0.32860931E+000 -0.69229543E-003
 0.24677701E+000 -0.46296765E-007
 0.00000000E+000  0.00000000E+000
 0.00000000E+000  0.00000000E+000
 0.33353704E+000  0.22447415E-004
 0.47361800E+000 -0.47061428E-004
 0.49503406E+000  0.11336244E-003
 0.45718470E+000 -0.40661398E-004
 0.39890620E+000  0.13047963E-003
 0.26930880E+000 -0.47968162E-003
 0.34301161E+000  0.10761394E-004
 0.45399102E+000 -0.49022906E-002
 0.29868787E+000  0.91368179E-004
 0.34293156E+000 -0.22493370E-002
 0.49077489E+000 -0.37520534E-002
 0.26889291E+000  0.21342049E-004
 0.46990644E+000 -0.19853725E-002
 0.25223395E+000 -0.85447412E-004
 0.33113798E+000 -0.71098812E-003
 0.00000000E+000  0.00000000E+000
 0.39837983E+000 -0.21100633E-002
 0.29891672E+000 -0.66530564E-003
 0.25196260E+000  0.32766783E-004
 0.45574733E+000 -0.18930314E-002
 0.26886630E+000 -0.19382771E-003
 0.49380639E+000 -0.11457711E-002
 0.24675409E+000  0.51702865E-007
 0.34297108E+000 -0.62145543E-003
 0.47231197E+000 -0.72411040E-003
 0.33305880E+000 -0.18619757E-003
 0.00000000E+000  0.00000000E+000
 0.00000000E+000  0.00000000E+000
 0.33357578E+000 -0.25645629E-004
 0.47356033E+000  0.52213628E-004
 0.49517682E+000 -0.83883482E-004
 0.45706713E+000  0.84718616E-004
 0.39908209E+000 -0.66031403E-004
 0.34285569E+000  0.64471358E-004
 0.29882887E+000 -0.24675007E-004
 0.39864540E+000 -0.64040644E-003
 0.29888817E+000 -0.19513964E-003
 0.25196260E+000 -0.32871983E-004
 0.26871466E+000  0.32530824E-004
 0.45681735E+000 -0.32541100E-003
 0.25207957E+000 -0.47874655E-005
 0.49458923E+000 -0.32679230E-003
 0.47334629E+000 -0.18484530E-004
 0.34286451E+000 -0.29513923E-003
 0.33337479E+000 -0.30192519E-004
 0.00000000E+000  0.00000000E+000
 0.26889294E+000 -0.21242132E-004
 0.24656608E+000 -0.59655384E-007
 0.39902415E+000 -0.16591357E-003
 0.00000000E+000  0.00000000E+000
 0.33354121E+000  0.27018988E-004
 0.47362461E+000 -0.53778578E-004
 0.49508208E+000  0.80185236E-004
 0.45720726E+000 -0.76498690E-004
 0.39893499E+000  0.75721291E-004
 0.29868787E+000 -0.91465255E-004
 0.45693376E+000 -0.28290523E-003
 0.34302353E+000 -0.50000373E-004
 0.29865893E+000  0.41315892E-004
 0.25207957E+000  0.49027880E-005
 0.49506816E+000 -0.44806838E-004
 0.26888039E+000 -0.19893355E-004
 0.47342899E+000 -0.13533003E-003
 0.33353060E+000 -0.60001316E-005
 0.00000000E+000  0.00000000E+000
 0.34301164E+000 -0.10673236E-004
 0.25189751E+000  0.12348291E-004
 0.26871463E+000 -0.32645977E-004
 0.39890614E+000 -0.13055885E-003
 0.24673050E+000  0.64953987E-007
 0.45718476E+000  0.40725630E-004
 0.29882889E+000  0.24781587E-004
 0.49503400E+000 -0.11340968E-003
 0.47361803E+000  0.47088222E-004
 0.00000000E+000  0.00000000E+000
 0.33357349E+000 -0.28938127E-004
 0.47356894E+000  0.56120112E-004
 0.49517586E+000 -0.73207382E-004
 0.45708325E+000  0.78786935E-004
 0.33353701E+000 -0.22455215E-004
 0.39908856E+000 -0.67036067E-004
 0.25189751E+000 -0.12479499E-004
 0.00000000E+000  0.00000000E+000
 0.34285092E+000  0.55334607E-004
 0.29884192E+000 -0.35276309E-004
 0.34285566E+000 -0.64572624E-004
 0.26868575E+000  0.23833974E-004
 0.26888042E+000  0.20018240E-004
 0.25209239E+000 -0.98939935E-005
 0.39908215E+000  0.66117900E-004
 0.45706707E+000 -0.84791645E-004
 0.24652814E+000 -0.72538881E-007
 0.49517685E+000  0.83934122E-004
 0.29865890E+000 -0.41437451E-004
 0.47356030E+000 -0.52242736E-004
 0.33357581E+000  0.25652891E-004
 0.00000000E+000  0.00000000E+000
 0.25209242E+000  0.10036115E-004
 0.00000000E+000  0.00000000E+000
 0.33354303E+000  0.31120722E-004
 0.47362628E+000 -0.56531152E-004
 0.49508896E+000  0.71952388E-004
 0.34302359E+000  0.50109549E-004
 0.45720791E+000 -0.73347109E-004
 0.39893329E+000  0.66619111E-004
 0.34303346E+000 -0.49849702E-004
 0.29863914E+000  0.36548379E-004
 0.26890054E+000 -0.20578703E-004
 0.39893496E+000 -0.75820134E-004
 0.26868572E+000 -0.23973929E-004
 0.25186663E+000  0.10471895E-004
 0.45720732E+000  0.76575910E-004
 0.49508202E+000 -0.80242723E-004
 0.47362467E+000  0.53808478E-004
 0.33354118E+000 -0.27026057E-004
 0.29884195E+000  0.35407600E-004
 0.00000000E+000  0.00000000E+000
 0.24675391E+000  0.78747163E-007
 0.34285089E+000 -0.55457036E-004
 0.25186663E+000 -0.10628035E-004
 0.00000000E+000  0.00000000E+000
 0.33357426E+000 -0.33148386E-004
 0.47356933E+000  0.57600358E-004
 0.49517855E+000 -0.69318804E-004
 0.45708289E+000  0.71054397E-004
 0.39909666E+000 -0.60826416E-004
 0.34283733E+000  0.48206467E-004
 0.39908859E+000  0.67141860E-004
 0.29886162E+000 -0.31984320E-004
 0.26865762E+000  0.20047904E-004
 0.26890057E+000  0.20730401E-004
 0.45708319E+000 -0.78874552E-004
 0.49517592E+000  0.73266819E-004
 0.25211986E+000 -0.87260041E-005
 0.47356891E+000 -0.56152694E-004
 0.33357352E+000  0.28944688E-004
 0.00000000E+000  0.00000000E+000
 0.29863911E+000 -0.36693010E-004
 0.24649479E+000 -0.84892917E-007
 0.34303349E+000  0.49982380E-004
 0.25211986E+000  0.88963242E-005
 0.39893323E+000 -0.66735075E-004
 0.00000000E+000  0.00000000E+000
 0.33354187E+000  0.35174853E-004
 0.47362974E+000 -0.58140758E-004
 0.49508622E+000  0.68079541E-004
 0.45721510E+000 -0.66379980E-004
 0.39892283E+000  0.56889730E-004
 0.34305098E+000 -0.42508247E-004
 0.45720794E+000  0.73440089E-004
 0.29861432E+000  0.28974882E-004
 0.26865762E+000 -0.20211953E-004
 0.49508890E+000 -0.72018068E-004
 0.26892933E+000 -0.16629908E-004
 0.47362634E+000  0.56565062E-004
 0.33354300E+000 -0.31127343E-004
 0.00000000E+000  0.00000000E+000
 0.25183203E+000  0.76591577E-005
 0.29886165E+000  0.32141273E-004
 0.24678692E+000  0.92744187E-007
 0.34283730E+000 -0.48349738E-004
 0.25183203E+000 -0.78404918E-005
 0.39909669E+000  0.60952163E-004
 0.45708286E+000 -0.71154288E-004
 0.00000000E+000  0.00000000E+000
 0.33357658E+000 -0.37067948E-004
 0.47356551E+000  0.58856883E-004
 0.49518546E+000 -0.66124426E-004
 0.45707345E+000  0.62182087E-004
 0.39911210E+000 -0.50805436E-004
 0.49517861E+000  0.69388988E-004
 0.34281557E+000  0.37012137E-004
 0.26892933E+000  0.16808993E-004
 0.47356930E+000 -0.57635978E-004
 0.29888978E+000 -0.23599250E-004
 0.33357429E+000  0.33154537E-004
 0.00000000E+000  0.00000000E+000
 0.26862332E+000  0.13334774E-004
 0.25215655E+000 -0.56387948E-005
 0.29861429E+000 -0.29142502E-004
 0.24645565E+000 -0.98341573E-007
 0.34305101E+000  0.42664356E-004
 0.39892277E+000 -0.57023320E-004
 0.25215655E+000  0.58363252E-005
 0.45721516E+000  0.66488384E-004
 0.49508616E+000 -0.68152818E-004
 0.47362980E+000  0.58178535E-004
 0.33354187E+000 -0.35180986E-004
 0.26862329E+000 -0.13524248E-004
 0.00000000E+000  0.00000000E+000
 0.00000000E+000  0.00000000E+000
 0.33353903E+000  0.38877991E-004
 0.47363537E+000 -0.59422342E-004
 0.49507755E+000  0.63934785E-004
 0.45722877E+000 -0.57000997E-004
 0.39890345E+000  0.44129152E-004
 0.34307748E+000 -0.29788317E-004
 0.29858115E+000  0.17623953E-004
 0.26896756E+000 -0.88019187E-005
 0.29888981E+000  0.23781652E-004
 0.25178992E+000  0.34108270E-005
 0.34281551E+000 -0.37176800E-004
 0.24682962E+000  0.10654525E-006
 0.39911216E+000  0.50950489E-004
 0.25178992E+000 -0.36192684E-005
 0.45707339E+000 -0.62295774E-004
 0.49518552E+000  0.66203603E-004
 0.47356548E+000 -0.58895384E-004
 0.33357661E+000  0.37073659E-004
 0.00000000E+000  0.00000000E+000
 0.26896759E+000  0.90069715E-005
 0.00000000E+000  0.00000000E+000
 0.33358004E+000 -0.40643593E-004
 0.47355869E+000  0.59782694E-004
 0.49519678E+000 -0.61111888E-004
 0.45705643E+000  0.51012448E-004
 0.39913627E+000 -0.36065779E-004
 0.34278407E+000  0.21495452E-004
 0.29892805E+000 -0.10310963E-004
 0.26857966E+000  0.36119768E-005
 0.29858112E+000 -0.17816559E-004
 0.25220331E+000 -0.66741409E-006
 0.34307751E+000  0.29966218E-004
 0.24640753E+000 -0.11222763E-006
 0.39890339E+000 -0.44282067E-004
 0.45722883E+000  0.57122968E-004
 0.25220331E+000  0.89179707E-006
 0.49507752E+000 -0.64017083E-004
 0.47363543E+000  0.59463440E-004
 0.33353900E+000 -0.38883401E-004
 0.00000000E+000  0.00000000E+000
 0.26857963E+000 -0.38282787E-005
 0.00000000E+000  0.00000000E+000
 0.33353495E+000  0.42379371E-004
 0.47364366E+000 -0.59822927E-004
 0.49506381E+000  0.57515710E-004
 0.45724976E+000 -0.43789019E-004
 0.39887443E+000  0.26653127E-004
 0.34311458E+000 -0.11748471E-004
 0.29853710E+000  0.19215297E-005
 0.29892808E+000  0.10518119E-004
 0.26901677E+000  0.24435250E-005
 0.25173753E+000 -0.24510750E-005
 0.34278401E+000 -0.21683030E-004
 0.24688299E+000  0.11992534E-006
 0.39913633E+000  0.36228695E-004
 0.45705637E+000 -0.51141294E-004
 0.49519684E+000  0.61198697E-004
 0.25173750E+000  0.22145882E-005
 0.47355866E+000 -0.59824527E-004
 0.33358007E+000  0.40647930E-004
 0.00000000E+000  0.00000000E+000
 0.26901677E+000 -0.22120168E-005
 0.00000000E+000  0.00000000E+000
 0.33358481E+000 -0.44108397E-004
 0.47354891E+000  0.59427202E-004
 0.49521335E+000 -0.52888095E-004
 0.45703127E+000  0.35082161E-004
 0.39917084E+000 -0.15592780E-004
 0.34274083E+000  0.53741098E-006
 0.29853707E+000 -0.21389912E-005
 0.29897832E+000  0.76584938E-005
 0.26852434E+000 -0.92551445E-005
 0.34311461E+000  0.11948884E-004
 0.25226154E+000  0.59650569E-005
 0.39887437E+000 -0.26825582E-004
 0.24634833E+000 -0.12612733E-006
 0.45724982E+000  0.43925094E-004
 0.49506375E+000 -0.57606619E-004
 0.47364369E+000  0.59865484E-004
 0.25226154E+000 -0.57132565E-005
 0.33353492E+000 -0.42382940E-004
 0.00000000E+000  0.00000000E+000
 0.26852431E+000  0.90118501E-005
 0.29897838E+000 -0.74264617E-005
 0.00000000E+000  0.00000000E+000
 0.33352938E+000  0.45840966E-004
 0.47365519E+000 -0.58471352E-004
 0.49504405E+000  0.46936635E-004
 0.45727980E+000 -0.24558801E-004
 0.39883372E+000  0.26628722E-005
 0.34316465E+000  0.12262844E-004
 0.29847997E+000 -0.18389711E-004
 0.26907858E+000  0.16800137E-004
 0.34274077E+000 -0.74801914E-006
 0.25167310E+000 -0.98218970E-005
 0.39917090E+000  0.15774969E-004
 0.24694825E+000  0.13430049E-006
 0.45703122E+000 -0.35224762E-004
 0.49521341E+000  0.52983421E-004
 0.47354885E+000 -0.59471363E-004
 0.33358484E+000  0.44111337E-004
 0.00000000E+000  0.00000000E+000
 0.25167307E+000  0.95577306E-005
 0.26907861E+000 -0.16541929E-004
 0.29847994E+000  0.18146329E-004
 0.00000000E+000  0.00000000E+000
 0.33359131E+000 -0.47590918E-004
 0.47353529E+000  0.56779812E-004
 0.49523690E+000 -0.39320413E-004
 0.45699557E+000  0.11844746E-004
 0.39921861E+000  0.12374263E-004
 0.34268316E+000 -0.26719086E-004
 0.29904288E+000  0.30233983E-004
 0.34316468E+000 -0.12039481E-004
 0.26845559E+000 -0.24994251E-004
 0.25233241E+000  0.13973019E-004
 0.39883366E+000 -0.28538270E-005
 0.45727983E+000  0.24708784E-004
 0.24627681E+000 -0.14044749E-006
 0.49504399E+000 -0.47035395E-004
 0.47365522E+000  0.58516077E-004
 0.33352935E+000 -0.45841930E-004
 0.00000000E+000  0.00000000E+000
 0.25233241E+000 -0.13693291E-004
 0.26845556E+000  0.24723454E-004
 0.29904294E+000 -0.29976114E-004
 0.00000000E+000  0.00000000E+000
 0.33352175E+000  0.49365673E-004
 0.47367131E+000 -0.54137184E-004
 0.49501591E+000  0.29606040E-004
 0.45732229E+000  0.34711931E-005
 0.39877775E+000 -0.29750182E-004
 0.34323078E+000  0.42849325E-004
 0.29840743E+000 -0.43090250E-004
 0.34268310E+000  0.26485799E-004
 0.26915454E+000  0.33719068E-004
 0.39921867E+000 -0.12172818E-004
 0.25159561E+000 -0.18342536E-004
 0.45699551E+000 -0.12001070E-004
 0.49523696E+000  0.39423557E-004
 0.24702613E+000  0.14781464E-006
 0.47353526E+000 -0.56825585E-004
 0.33359134E+000  0.47591391E-004
 0.00000000E+000  0.00000000E+000
 0.25159561E+000  0.18049546E-004
 0.26915454E+000 -0.33433469E-004
 0.29840740E+000  0.42820822E-004
 0.00000000E+000  0.00000000E+000
 0.33360034E+000 -0.51165108E-004
 0.47351598E+000  0.50248807E-004
 0.49527081E+000 -0.17244059E-004
 0.45694482E+000 -0.21832493E-004
 0.39928418E+000  0.49680369E-004
 0.34323084E+000 -0.42602769E-004
 0.34260752E+000 -0.60556489E-004
 0.29912394E+000  0.56813270E-004
 0.26837226E+000 -0.42780327E-004
 0.39877769E+000  0.29539920E-004
 0.25241646E+000  0.22849670E-004
 0.45732232E+000 -0.33071823E-005
 0.49501585E+000 -0.29712124E-004
 0.47367134E+000  0.54184078E-004
 0.24619261E+000 -0.15530112E-006
 0.33352172E+000 -0.49364010E-004
 0.00000000E+000  0.00000000E+000
 0.25241646E+000 -0.22541731E-004
 0.26837223E+000  0.42481464E-004
 0.29912400E+000 -0.56530549E-004
 0.34260746E+000  0.60299702E-004
 0.00000000E+000  0.00000000E+000
 0.33351096E+000  0.52996463E-004
 0.47369477E+000 -0.44652268E-004
 0.49497467E+000  0.16440823E-005
 0.45738330E+000  0.43870393E-004
 0.39870092E+000 -0.72111397E-004
 0.34331703E+000  0.79834760E-004
 0.29831734E+000 -0.70964109E-004
 0.39928424E+000 -0.49459617E-004
 0.26924529E+000  0.52084084E-004
 0.45694476E+000  0.21662030E-004
 0.25150510E+000 -0.27299971E-004
 0.49527087E+000  0.17354181E-004
 0.47351595E+000 -0.50295209E-004
 0.33360037E+000  0.51161896E-004
 0.00000000E+000  0.00000000E+000
 0.24711629E+000  0.16266891E-006
 0.25150507E+000  0.26978199E-004
 0.26924529E+000 -0.51771025E-004
 0.29831731E+000  0.70667905E-004
 0.34331709E+000 -0.79565659E-004
 0.00000000E+000  0.00000000E+000
 0.33361357E+000 -0.54787145E-004
 0.47348725E+000  0.36891819E-004
 0.49532178E+000  0.18295917E-004
 0.45687115E+000 -0.69757465E-004
 0.39937439E+000  0.97429772E-004
 0.34250956E+000 -0.99891782E-004
 0.29922333E+000  0.85551640E-004
 0.39870086E+000  0.71881499E-004
 0.26827400E+000 -0.61038583E-004
 0.45738336E+000 -0.43693420E-004
 0.25251287E+000  0.31712545E-004
 0.49497461E+000 -0.17583994E-005
 0.47369483E+000  0.44699139E-004
 0.33351093E+000 -0.52992050E-004
 0.00000000E+000  0.00000000E+000
 0.24609659E+000 -0.16951231E-006
 0.25251287E+000 -0.31374962E-004
 0.26827397E+000  0.60712183E-004
 0.29922336E+000 -0.85242681E-004
 0.34250950E+000  0.99610580E-004
 0.00000000E+000  0.00000000E+000
 0.33349475E+000  0.56555316E-004
 0.47373110E+000 -0.25854054E-004
 0.49491131E+000 -0.43183743E-004
 0.45747318E+000  0.10063196E-003
 0.39859509E+000 -0.12459946E-003
 0.39937445E+000 -0.97190240E-004
 0.34342771E+000  0.12092790E-003
 0.29820832E+000 -0.99386168E-004
 0.45687109E+000  0.69572190E-004
 0.26935023E+000  0.69799432E-004
 0.49532184E+000 -0.18179356E-004
 0.47348719E+000 -0.36938334E-004
 0.25140285E+000 -0.35648154E-004
 0.33361360E+000  0.54778887E-004
 0.00000000E+000  0.00000000E+000
 0.24721699E+000  0.17794424E-006
 0.25140285E+000  0.35298249E-004
 0.26935026E+000 -0.69457339E-004
 0.29820826E+000  0.99063785E-004
 0.34342774E+000 -0.12063502E-003
 0.39859503E+000  0.12434992E-003
 0.00000000E+000  0.00000000E+000
 0.33363452E+000 -0.57920329E-004
 0.47344142E+000  0.11008332E-004
 0.49540284E+000  0.75626907E-004
 0.45676144E+000 -0.13509890E-003
 0.39949873E+000  0.15498431E-003
 0.34238514E+000 -0.14006251E-003
 0.29934123E+000  0.11364953E-003
 0.45747324E+000 -0.10044091E-003
 0.26816201E+000 -0.76601776E-004
 0.49491125E+000  0.43063646E-004
 0.47373116E+000  0.25900104E-004
 0.33349472E+000 -0.56545599E-004
 0.00000000E+000  0.00000000E+000
 0.25261890E+000  0.39648162E-004
 0.24599081E+000 -0.18431232E-006
 0.25261890E+000 -0.39280326E-004
 0.26816198E+000  0.76247582E-004
 0.29934126E+000 -0.11331329E-003
 0.34238508E+000  0.13975884E-003
 0.39949879E+000 -0.15472408E-003
 0.00000000E+000  0.00000000E+000
 0.33346900E+000  0.59321631E-004
 0.47379344E+000  0.11622324E-004
 0.49480918E+000 -0.11341580E-003
 0.45761027E+000  0.17850178E-003
 0.39845064E+000 -0.18098103E-003
 0.45676138E+000  0.13490114E-003
 0.34356600E+000  0.16285030E-003
 0.29808038E+000 -0.12151213E-003
 0.49540290E+000 -0.75503099E-004
 0.26946535E+000  0.85661435E-004
 0.47344136E+000 -0.11052916E-004
 0.33363455E+000  0.57906225E-004
 0.00000000E+000  0.00000000E+000
 0.25129020E+000 -0.40977647E-004
 0.24732251E+000  0.19275411E-006
 0.25129020E+000  0.40597420E-004
 0.26946538E+000 -0.85290477E-004
 0.29808035E+000  0.12116407E-003
 0.34356603E+000 -0.16253243E-003
 0.39845058E+000  0.18071293E-003
 0.45761036E+000 -0.17829587E-003
 0.00000000E+000  0.00000000E+000
 0.33367225E+000 -0.58667861E-004
 0.47336232E+000 -0.40229275E-004
 0.49554127E+000  0.16638387E-003
 0.45659518E+000 -0.21913275E-003
 0.39966788E+000  0.21335210E-003
 0.34223249E+000 -0.17490531E-003
 0.49480912E+000  0.11329040E-003
 0.29947400E+000  0.13380854E-003
 0.47379350E+000 -0.11578057E-004
 0.33346897E+000 -0.59304406E-004
 0.00000000E+000  0.00000000E+000
 0.26803827E+000 -0.87795408E-004
 0.25272816E+000  0.44079853E-004
 0.24587765E+000 -0.20065401E-006
 0.25272816E+000 -0.43683558E-004
 0.26803824E+000  0.87411644E-004
 0.29947406E+000 -0.13344615E-003
 0.34223243E+000  0.17457749E-003
 0.39966794E+000 -0.21307186E-003
 0.45659512E+000  0.21892182E-003
 0.49554133E+000 -0.16625529E-003
 0.00000000E+000  0.00000000E+000
 0.33341911E+000  0.55645159E-004
 0.47390520E+000  0.80715995E-004
 0.49462598E+000 -0.23418867E-003
 0.45781517E+000  0.25633559E-003
 0.39825484E+000 -0.24906199E-003
 0.34372872E+000  0.17309187E-003
 0.47336226E+000  0.40188097E-004
 0.33367228E+000  0.58646674E-004
 0.29794046E+000 -0.15279164E-003
 0.00000000E+000  0.00000000E+000
 0.26959219E+000  0.79238467E-004
 0.25118264E+000 -0.50858616E-004
 0.24743868E+000  0.20604326E-006
 0.25118264E+000  0.50443544E-004
 0.26959222E+000 -0.78842451E-004
 0.29794043E+000  0.15241370E-003
 0.34372878E+000 -0.17275282E-003
 0.39825478E+000  0.24877229E-003
 0.45781522E+000 -0.25611792E-003
 0.49462592E+000  0.23405690E-003
 0.47390526E+000 -0.80676349E-004
 0.00000000E+000  0.00000000E+000
 0.33373051E+000 -0.55409436E-004
 0.47317847E+000 -0.16191380E-003
 0.49575936E+000  0.27452496E-003
 0.45631691E+000 -0.35019859E-003
 0.33341908E+000 -0.55619704E-004
 0.39986905E+000  0.20190619E-003
 0.00000000E+000  0.00000000E+000
 0.34205624E+000 -0.24739070E-003
 0.29963171E+000  0.90381225E-004
 0.26794284E+000 -0.12848635E-003
 0.25287950E+000  0.22974776E-004
 0.24581339E+000 -0.22111119E-006
 0.25287953E+000 -0.22558318E-004
 0.26794281E+000  0.12806372E-003
 0.29963177E+000 -0.90000321E-004
 0.34205618E+000  0.24703177E-003
 0.39986911E+000 -0.20161193E-003
 0.45631685E+000  0.34997030E-003
 0.49575942E+000 -0.27439391E-003
 0.47317841E+000  0.16187621E-003
 0.33373054E+000  0.55378284E-004
 0.00000000E+000  0.00000000E+000
 0.00000000E+000  0.00000000E+000
 0.33327019E+000  0.25518436E-004
 0.47407904E+000  0.20627677E-003
 0.49422451E+000 -0.44632144E-003
 0.45806357E+000  0.25962418E-003
 0.39798718E+000 -0.35262785E-003
 0.34391042E+000  0.93043272E-004
 0.29783558E+000 -0.22809300E-003
 0.26979088E+000  0.16691807E-004
 0.25117695E+000 -0.79557299E-004
 0.24765457E+000  0.21138035E-006
 0.25117692E+000  0.79090386E-004
 0.26979091E+000 -0.16286739E-004
 0.29783555E+000  0.22767145E-003
 0.34391048E+000 -0.92694790E-004
 0.39798712E+000  0.35230672E-003
 0.45806366E+000 -0.25940072E-003
 0.49422442E+000  0.44618148E-003
 0.47407910E+000 -0.20624579E-003
 0.33327016E+000 -0.25482622E-004
 0.00000000E+000  0.00000000E+000
 0.00000000E+000  0.00000000E+000
 0.33382809E+000 -0.18241085E-004
 0.47269850E+000 -0.41014989E-003
 0.49609100E+000  0.40919324E-003
 0.45586919E+000 -0.43686036E-003
 0.40006530E+000  0.14148962E-003
 0.34188765E+000 -0.29298642E-003
 0.29985076E+000  0.34493263E-004
 0.26795211E+000 -0.14601764E-003
 0.25313979E+000  0.38366633E-005
 0.24588385E+000 -0.25494088E-006
 0.25313982E+000 -0.34238987E-005
 0.26795208E+000  0.14553335E-003
 0.29985082E+000 -0.34114655E-004
 0.34188762E+000  0.29257981E-003
 0.40006539E+000 -0.14119510E-003
 0.45586916E+000  0.43660451E-003
 0.49609109E+000 -0.40906688E-003
 0.47269845E+000  0.41011557E-003
 0.33382812E+000  0.18196718E-004
 0.00000000E+000  0.00000000E+000
 0.00000000E+000  0.00000000E+000
 0.33289161E+000 -0.65449625E-004
 0.47454267E+000  0.55022921E-003
 0.49351340E+000 -0.56031910E-003
 0.45836499E+000  0.27850311E-003
 0.39773073E+000 -0.25326991E-003
 0.34413254E+000  0.16100583E-003
 0.29778087E+000 -0.10789115E-003
 0.27000859E+000  0.75214979E-004
 0.25120794E+000 -0.29306280E-004
 0.24787536E+000  0.20417600E-006
 0.25120794E+000  0.28761100E-004
 0.27000865E+000 -0.74825184E-004
 0.29778087E+000  0.10740462E-003
 0.34413263E+000 -0.16066912E-003
 0.39773070E+000  0.25290073E-003
 0.45836511E+000 -0.27828558E-003
 0.49351334E+000  0.56016194E-003
 0.47454276E+000 -0.55021466E-003
 0.33289161E+000  0.65498141E-004
 0.00000000E+000  0.00000000E+000
 0.00000000E+000  0.00000000E+000
 0.33436033E+000  0.20739001E-003
 0.47172358E+000 -0.80191186E-003
 0.49683585E+000  0.56155491E-003
 0.45556685E+000 -0.10716207E-003
 0.40034839E+000  0.37518076E-003
 0.34174329E+000  0.31396946E-004
 0.29998394E+000  0.23906689E-003
 0.26783832E+000  0.59538684E-004
 0.25318238E+000  0.90696026E-004
 0.24575228E+000 -0.29732095E-006
 0.25318244E+000 -0.90301531E-004
 0.26783835E+000 -0.60099770E-004
 0.29998403E+000 -0.23870907E-003
 0.34174329E+000 -0.31864325E-004
 0.40034854E+000 -0.37489866E-003
 0.45556685E+000  0.10686478E-003
 0.49683600E+000 -0.56144146E-003
 0.47172358E+000  0.80188002E-003
 0.33436036E+000 -0.20745718E-003
 0.00000000E+000  0.00000000E+000
 0.00000000E+000  0.00000000E+000
 0.33174630E+000 -0.50120573E-003
 0.47624120E+000  0.11697300E-002
 0.49296295E+000 -0.95863630E-004
 0.45874992E+000  0.32107069E-003
 0.39756286E+000 -0.40506012E-004
 0.34432137E+000  0.24306216E-003
 0.29762348E+000  0.10740047E-003
 0.26992648E+000  0.18995527E-003
 0.25087770E+000  0.68413290E-004
 0.24764809E+000  0.20046684E-006
 0.25087770E+000 -0.69032277E-004
 0.26992657E+000 -0.18957784E-003
 0.29762351E+000 -0.10794967E-003
 0.34432154E+000 -0.24274141E-003
 0.39756289E+000  0.40085873E-004
 0.45875012E+000 -0.32085983E-003
 0.49296298E+000  0.95685245E-004
 0.47624135E+000 -0.11697409E-002
 0.33174633E+000  0.50127378E-003
 0.00000000E+000  0.00000000E+000
 0.00000000E+000  0.00000000E+000
 0.33735391E+000  0.11579680E-002
 0.46935182E+000 -0.12830940E-002
 0.49688857E+000 -0.90499036E-003
 0.45533514E+000 -0.10266804E-002
 0.40088331E+000 -0.56879519E-003
 0.34193584E+000 -0.45087505E-003
 0.30021482E+000 -0.18966452E-003
 0.26771417E+000 -0.12620381E-003
 0.25303018E+000 -0.29224247E-004
 0.24543602E+000 -0.32350033E-006
 0.25303024E+000  0.29635799E-004
 0.26771423E+000  0.12559881E-003
 0.30021497E+000  0.19002679E-003
 0.34193593E+000  0.45037284E-003
 0.40088352E+000  0.56908029E-003
 0.45533522E+000  0.10263466E-002
 0.49688881E+000  0.90509967E-003
 0.46935188E+000  0.12830779E-002
 0.33735400E+000 -0.11580691E-002
 0.00000000E+000  0.00000000E+000
 0.00000000E+000  0.00000000E+000
 0.31980139E+000 -0.37095909E-002
 0.47396931E+000 -0.41094319E-002
 0.49272668E+000 -0.41240327E-002
 0.46092948E+000 -0.37101495E-002
 0.39986914E+000 -0.29203845E-002
 0.34664475E+000 -0.20476575E-002
 0.29921740E+000 -0.12454264E-002
 0.27099171E+000 -0.65288081E-003
 0.25138059E+000 -0.26335145E-003
 0.24805280E+000  0.24534426E-006
 0.25138062E+000  0.26268628E-003
 0.27099183E+000  0.65332488E-003
 0.29921749E+000  0.12448742E-002
 0.34664499E+000  0.20480162E-002
 0.39986926E+000  0.29199759E-002
 0.46092975E+000  0.37103951E-002
 0.49272680E+000  0.41238525E-002
 0.47396951E+000  0.41093789E-002
 0.31980150E+000  0.37097369E-002
 0.00000000E+000  0.00000000E+000
 0.00000000E+000  0.00000000E+000
 0.36553087E+000 -0.13813515E-001
 0.49290674E+000 -0.14137863E-001
 0.51557850E+000 -0.12960954E-001
 0.46788057E+000 -0.94291651E-002
 0.40887519E+000 -0.65180342E-002
 0.34607243E+000 -0.37438666E-002
 0.30170744E+000 -0.19833222E-002
 0.26730519E+000 -0.79722795E-003
 0.25161468E+000 -0.26942524E-003
 0.24363845E+000 -0.30113747E-006
 0.25161474E+000  0.26985953E-003
 0.26730528E+000  0.79666258E-003
 0.30170765E+000  0.19837301E-002
 0.34607261E+000  0.37434000E-002
 0.40887549E+000  0.65183914E-002
 0.46788072E+000  0.94288503E-002
 0.51557874E+000  0.12961117E-001
 0.49290674E+000  0.14137844E-001
 0.36553081E+000  0.13813302E-001
 0.00000000E+000  0.00000000E+000
