 0.00000000E+000  0.00000000E+000
-0.16257993E+000 -0.00000000E+000
-0.30804619E+000 -0.00000000E+000
-0.43639877E+000 -0.00000000E+000
-0.54763770E+000 -0.00000000E+000
-0.64176291E+000 -0.00000000E+000
 0.00000000E+000  0.00000000E+000
-0.12935593E+000  0.13024489E-001
-0.29598912E+000  0.26942759E-001
-0.45078176E+000  0.23550711E-001
-0.71877443E+000 -0.00000000E+000
-0.57696056E+000  0.64093586E-002
-0.67124694E+000 -0.15256359E-001
-0.73676395E+000 -0.32561525E-001
-0.77867233E+000 -0.00000000E+000
-0.77927279E+000 -0.39778433E-001
 0.00000000E+000  0.00000000E+000
-0.11911594E+000 -0.46047377E-002
-0.29906114E+000 -0.13368525E-001
-0.47171753E+000 -0.18813095E-001
-0.60645771E+000 -0.22019341E-001
-0.69709092E+000 -0.22988323E-001
-0.74975615E+000 -0.21678958E-001
-0.82145655E+000 -0.00000000E+000
-0.80475616E+000 -0.35137087E-001
-0.77526950E+000 -0.18285240E-001
 0.00000000E+000  0.00000000E+000
-0.12776495E+000  0.81650115E-003
-0.30848202E+000  0.23311136E-002
-0.47901269E+000  0.12049748E-002
-0.61085730E+000 -0.91788286E-004
-0.78457444E+000 -0.13181936E-001
-0.69801390E+000 -0.11194527E-002
-0.84712702E+000 -0.00000000E+000
-0.74714565E+000 -0.16768174E-002
-0.81801140E+000 -0.20420202E-001
-0.76954692E+000 -0.17129452E-002
-0.78649020E+000 -0.68955887E-002
-0.77658426E+000 -0.13507957E-002
 0.00000000E+000  0.00000000E+000
-0.85568386E+000 -0.00000000E+000
-0.12443758E+000  0.74466783E-003
-0.30828589E+000  0.75123627E-003
-0.48095858E+000  0.12239707E-002
-0.61300611E+000  0.89441798E-003
-0.69958329E+000  0.44309580E-003
-0.82209503E+000  0.35330099E-007
-0.74780923E+000  0.11213756E-003
-0.76944988E+000 -0.75804309E-004
-0.77710145E+000 -0.72953721E-003
-0.78649187E+000 -0.74831937E-007
-0.77590155E+000 -0.12051364E-003
-0.84712702E+000 -0.00000000E+000
-0.81801140E+000  0.20420137E-001
 0.00000000E+000  0.00000000E+000
-0.77667576E+000  0.11967026E-006
-0.12402889E+000 -0.19189498E-003
-0.30747249E+000  0.36665677E-003
-0.48065015E+000  0.37888734E-003
-0.61337172E+000  0.70235587E-003
-0.70003765E+000  0.83274231E-003
-0.77615302E+000 -0.84775580E-004
-0.74825155E+000  0.80744578E-003
-0.76975792E+000  0.69785706E-003
-0.78649014E+000  0.68957353E-002
-0.77618670E+000  0.50443323E-003
-0.77560305E+000 -0.16904006E-006
-0.82145655E+000 -0.00000000E+000
-0.77710157E+000  0.72930118E-003
-0.80475610E+000  0.35137154E-001
-0.77636784E+000  0.26924713E-003
 0.00000000E+000  0.00000000E+000
-0.12361221E+000  0.34050946E-003
-0.30709022E+000  0.17073667E-003
-0.48035085E+000  0.44215578E-003
-0.61304235E+000  0.37833675E-003
-0.70002192E+000  0.38836244E-003
-0.78457456E+000  0.13181794E-001
-0.74836903E+000  0.37610868E-003
-0.77007383E+000  0.31195380E-003
-0.77615290E+000  0.85105843E-004
-0.77867233E+000 -0.00000000E+000
-0.77584815E+000  0.21869652E-006
-0.77656364E+000  0.22999590E-003
-0.77658408E+000  0.13510229E-002
-0.77927291E+000  0.39778370E-001
-0.77526926E+000  0.18285378E-001
-0.77685970E+000  0.11717074E-003
-0.71877443E+000 -0.00000000E+000
-0.77590179E+000  0.12019430E-003
-0.77636796E+000 -0.26968348E-003
 0.00000000E+000  0.00000000E+000
-0.12339305E+000 -0.15580595E-003
-0.30696061E+000  0.13275924E-003
-0.48020336E+000 -0.13282965E-004
-0.73676383E+000  0.32561589E-001
-0.61311072E+000  0.80932812E-004
-0.70000070E+000  0.54935073E-004
-0.76954716E+000  0.17127294E-002
-0.74846595E+000  0.35526722E-004
-0.77015280E+000  0.31223298E-004
-0.77632325E+000 -0.27506794E-006
-0.74975639E+000  0.21678831E-001
-0.64176291E+000 -0.00000000E+000
-0.77672612E+000  0.15489051E-004
-0.67124706E+000  0.15256306E-001
-0.76944959E+000  0.76101794E-004
-0.74714535E+000  0.16770152E-002
-0.77618646E+000 -0.50401996E-003
-0.69709068E+000  0.22988442E-001
-0.54763770E+000 -0.00000000E+000
-0.77699440E+000  0.10346388E-004
-0.57696044E+000 -0.64093004E-002
-0.77685952E+000 -0.11663304E-003
-0.43639877E+000 -0.00000000E+000
-0.45078188E+000 -0.23550760E-001
-0.60645800E+000  0.22019239E-001
-0.30804619E+000 -0.00000000E+000
-0.69801425E+000  0.11192753E-002
-0.29598900E+000 -0.26942711E-001
-0.16257993E+000 -0.00000000E+000
 0.00000000E+000  0.00000000E+000
 0.00000000E+000  0.00000000E+000
-0.12341668E+000  0.11996890E-003
-0.30687859E+000 -0.11225349E-003
-0.48028102E+000  0.24916509E-004
-0.74780964E+000 -0.11241145E-003
-0.61305195E+000 -0.71473572E-004
-0.12935601E+000 -0.13024535E-001
-0.70008265E+000 -0.57675584E-004
-0.47171729E+000  0.18813196E-001
 0.00000000E+000  0.00000000E+000
-0.77650678E+000  0.33105743E-006
-0.74844717E+000 -0.61245831E-004
-0.76975828E+000 -0.69824489E-003
-0.29906135E+000  0.13368440E-001
-0.77018409E+000 -0.63832514E-004
-0.61085695E+000  0.91943395E-004
-0.11911582E+000  0.46048136E-002
 0.00000000E+000  0.00000000E+000
-0.77656394E+000 -0.23051415E-003
-0.77669060E+000 -0.45011427E-004
-0.47901302E+000 -0.12051118E-002
-0.69958281E+000 -0.44285980E-003
-0.30848175E+000 -0.23309995E-002
-0.12776510E+000 -0.81659230E-003
-0.77699458E+000 -0.10997106E-004
 0.00000000E+000  0.00000000E+000
-0.74825114E+000 -0.80710102E-003
-0.77699589E+000 -0.27112970E-004
-0.61300653E+000 -0.89462572E-003
-0.48095819E+000 -0.12238030E-002
-0.77007341E+000 -0.31147871E-003
-0.30828619E+000 -0.75137580E-003
-0.70003813E+000 -0.83304557E-003
-0.12443741E+000 -0.74457598E-003
-0.77646422E+000 -0.38819578E-006
 0.00000000E+000  0.00000000E+000
 0.00000000E+000  0.00000000E+000
-0.12340413E+000 -0.92415357E-004
-0.30699375E+000  0.76319432E-004
-0.48024916E+000 -0.81113124E-004
-0.61316764E+000 -0.24418208E-004
-0.70004606E+000 -0.66058186E-004
-0.77672576E+000 -0.14869609E-004
-0.74848622E+000 -0.66294545E-004
-0.61337119E+000 -0.70210592E-003
-0.77013099E+000 -0.56002936E-004
-0.74836957E+000 -0.37653287E-003
-0.48065063E+000 -0.37908944E-003
-0.77666825E+000 -0.46211840E-004
-0.30747213E+000 -0.36650814E-003
-0.77699571E+000  0.27878100E-004
-0.12402909E+000  0.19179856E-003
 0.00000000E+000  0.00000000E+000
-0.70002138E+000 -0.38799981E-003
-0.77015328E+000 -0.31792838E-004
-0.77691745E+000 -0.22872898E-004
-0.61304295E+000 -0.37863306E-003
-0.77669095E+000  0.44285639E-004
-0.48035034E+000 -0.44192906E-003
-0.77641683E+000  0.44785426E-006
-0.74846535E+000 -0.35024280E-004
-0.30709061E+000 -0.17089695E-003
-0.12361200E+000 -0.34041886E-003
 0.00000000E+000  0.00000000E+000
 0.00000000E+000  0.00000000E+000
-0.12343382E+000  0.64139632E-004
-0.30695435E+000 -0.82691090E-004
-0.48036301E+000  0.32736556E-004
-0.61312568E+000 -0.45584452E-004
-0.70011967E+000 -0.21094911E-004
-0.74844455E+000 -0.30427821E-004
-0.77013897E+000 -0.29649940E-004
-0.70000129E+000 -0.55359760E-004
-0.77018362E+000  0.64496765E-004
-0.77691763E+000  0.21990426E-004
-0.77661550E+000 -0.19847811E-004
-0.61311006E+000 -0.80593803E-004
-0.77688968E+000 -0.11981270E-004
-0.48020392E+000  0.13035678E-004
-0.30696019E+000 -0.13259395E-003
-0.74844777E+000  0.60663191E-004
-0.12339327E+000  0.15572244E-003
 0.00000000E+000  0.00000000E+000
-0.77666789E+000  0.47044410E-004
-0.77635836E+000 -0.51030372E-006
-0.70008200E+000  0.58161363E-004
 0.00000000E+000  0.00000000E+000
-0.12342650E+000 -0.48851288E-004
-0.30701839E+000  0.60559781E-004
-0.48030525E+000 -0.45881344E-004
-0.61320537E+000  0.16203393E-004
-0.70007371E+000 -0.16724030E-004
-0.77013152E+000  0.55240976E-004
-0.61305260E+000  0.71094604E-004
-0.74848157E+000 -0.74143108E-005
-0.77010786E+000 -0.79241553E-005
-0.77688950E+000  0.12977353E-004
-0.48028042E+000 -0.24647590E-004
-0.77661556E+000 -0.71734175E-005
-0.30687904E+000  0.11209119E-003
-0.12341645E+000 -0.11989143E-003
 0.00000000E+000  0.00000000E+000
-0.74848556E+000  0.66956847E-004
-0.77686321E+000 -0.34108099E-005
-0.77661585E+000  0.18897157E-004
-0.70004677E+000  0.65510015E-004
-0.77634537E+000  0.56878712E-006
-0.61316692E+000  0.24831933E-004
-0.77013844E+000  0.30505081E-004
-0.48024979E+000  0.80827710E-004
-0.30699327E+000 -0.76159732E-004
 0.00000000E+000  0.00000000E+000
-0.12343262E+000  0.36303685E-004
-0.30698013E+000 -0.47565208E-004
-0.48037031E+000  0.37603876E-004
-0.61315035E+000 -0.20769002E-004
-0.12340437E+000  0.92348476E-004
-0.70012342E+000  0.88634787E-005
-0.77686345E+000  0.22839178E-005
 0.00000000E+000  0.00000000E+000
-0.74845075E+000 -0.40619111E-005
-0.77012324E+000 -0.25933593E-006
-0.74844521E+000  0.29680579E-004
-0.77660548E+000 -0.11293146E-005
-0.77661514E+000  0.82271417E-005
-0.77685838E+000 -0.95445415E-007
-0.70011895E+000  0.21695788E-004
-0.61312645E+000  0.45128512E-004
-0.77634245E+000 -0.63395134E-006
-0.48036235E+000 -0.32443611E-004
-0.77010846E+000  0.69606444E-005
-0.30695483E+000  0.82530590E-004
-0.12343356E+000 -0.64085630E-004
 0.00000000E+000  0.00000000E+000
-0.77685821E+000  0.13343933E-005
 0.00000000E+000  0.00000000E+000
-0.12342932E+000 -0.25470424E-004
-0.30700862E+000  0.37254663E-004
-0.48032218E+000 -0.30033645E-004
-0.74848085E+000  0.82336455E-005
-0.61320030E+000  0.19885112E-004
-0.70008605E+000 -0.90367439E-005
-0.74847424E+000  0.52098012E-005
-0.77011531E+000 -0.17139831E-005
-0.77660179E+000  0.16761522E-005
-0.70007449E+000  0.16056839E-004
-0.77660590E+000 -0.49973298E-007
-0.77686887E+000 -0.83830968E-006
-0.61320459E+000 -0.15720448E-004
-0.48030593E+000  0.45572334E-004
-0.30701789E+000 -0.60414029E-004
-0.12342676E+000  0.48801768E-004
-0.77012258E+000  0.13151037E-005
 0.00000000E+000  0.00000000E+000
-0.77632856E+000  0.69938425E-006
-0.74845153E+000  0.31534357E-005
-0.77686911E+000 -0.53335281E-006
 0.00000000E+000  0.00000000E+000
-0.12342771E+000  0.17508864E-004
-0.30698928E+000 -0.26462961E-004
-0.48035743E+000  0.24949518E-004
-0.61316293E+000 -0.16351561E-004
-0.70011335E+000  0.10624487E-004
-0.74846261E+000 -0.53969520E-005
-0.70012265E+000 -0.81472589E-005
-0.77011209E+000  0.41827706E-005
-0.77661836E+000 -0.22940862E-005
-0.77660131E+000 -0.38976247E-006
-0.61315119E+000  0.20251485E-004
-0.48036962E+000 -0.37285739E-004
-0.77684497E+000  0.18569809E-005
-0.30698066E+000  0.47423844E-004
-0.12343236E+000 -0.36268498E-004
 0.00000000E+000  0.00000000E+000
-0.77011597E+000  0.55431644E-006
-0.77635622E+000 -0.76281207E-006
-0.74847346E+000 -0.42269957E-005
-0.77684473E+000 -0.36098555E-006
-0.70008689E+000  0.82645638E-005
 0.00000000E+000  0.00000000E+000
-0.12343177E+000 -0.10470871E-004
-0.30699867E+000  0.18256752E-004
-0.48033431E+000 -0.18341366E-004
-0.61318689E+000  0.14806330E-004
-0.70009934E+000 -0.99421640E-005
-0.74846100E+000  0.75959069E-005
-0.61319953E+000 -0.19333710E-004
-0.77013027E+000 -0.51919587E-005
-0.77661883E+000  0.88811367E-006
-0.48032289E+000  0.29719192E-004
-0.77658694E+000  0.41889288E-005
-0.30700811E+000 -0.37112058E-004
-0.12342961E+000  0.25452316E-004
 0.00000000E+000  0.00000000E+000
-0.77688586E+000 -0.24000971E-005
-0.77011138E+000 -0.29204475E-005
-0.77631270E+000  0.83210682E-006
-0.74846339E+000  0.43392674E-005
-0.77688610E+000  0.77741884E-006
-0.70011246E+000 -0.97881556E-005
-0.61316382E+000  0.15785202E-004
 0.00000000E+000  0.00000000E+000
-0.12342425E+000  0.47474459E-005
-0.30699723E+000 -0.10610253E-004
-0.48034453E+000  0.13224796E-004
-0.61317700E+000 -0.12139404E-004
-0.70009815E+000  0.10630521E-004
-0.48035669E+000 -0.24610084E-004
-0.74847882E+000 -0.86569361E-005
-0.77658647E+000 -0.26601828E-005
-0.30698984E+000  0.26355082E-004
-0.77009510E+000  0.74619342E-005
-0.12342743E+000 -0.17491229E-004
 0.00000000E+000  0.00000000E+000
-0.77663719E+000 -0.54701527E-005
-0.77682626E+000  0.34667968E-005
-0.77013099E+000  0.38347079E-005
-0.77637624E+000 -0.89292467E-006
-0.74846017E+000 -0.64459095E-005
-0.70010024E+000  0.90707571E-005
-0.77682596E+000 -0.17030063E-005
-0.61318600E+000 -0.14197305E-004
-0.48033508E+000  0.18027030E-004
-0.30699810E+000 -0.18144219E-004
-0.12343205E+000  0.10486439E-004
-0.77663767E+000  0.38317184E-005
 0.00000000E+000  0.00000000E+000
 0.00000000E+000  0.00000000E+000
-0.12343462E+000  0.27197719E-006
-0.30699044E+000  0.42497767E-005
-0.48034653E+000 -0.82614724E-005
-0.61317145E+000  0.10421281E-004
-0.70011633E+000 -0.10813323E-004
-0.74844247E+000  0.10663724E-004
-0.77015060E+000 -0.93545668E-005
-0.77656579E+000  0.74096205E-005
-0.77009439E+000 -0.59973804E-005
-0.77690845E+000 -0.43904287E-005
-0.74847972E+000  0.74429362E-005
-0.77629035E+000  0.96884969E-006
-0.70009720E+000 -0.96845960E-005
-0.77690875E+000  0.25078052E-005
-0.61317795E+000  0.11522461E-004
-0.48034372E+000 -0.12892074E-004
-0.30699780E+000  0.10523436E-004
-0.12342394E+000 -0.47693820E-005
 0.00000000E+000  0.00000000E+000
-0.77656519E+000 -0.56419130E-005
 0.00000000E+000  0.00000000E+000
-0.12342108E+000 -0.46068125E-005
-0.30700492E+000  0.13697431E-005
-0.48033186E+000  0.42759020E-005
-0.61319321E+000 -0.88815104E-005
-0.70007914E+000  0.11762566E-004
-0.74850010E+000 -0.12644095E-004
-0.77007204E+000  0.11871629E-004
-0.77666193E+000 -0.93242933E-005
-0.77015137E+000  0.77928907E-005
-0.77680081E+000  0.55735636E-005
-0.74844151E+000 -0.93591934E-005
-0.77640235E+000 -0.10337881E-005
-0.70011734E+000  0.98400305E-005
-0.61317050E+000 -0.97681840E-005
-0.77680051E+000 -0.35462232E-005
-0.48034733E+000  0.79452202E-005
-0.30698984E+000 -0.41788198E-005
-0.12343493E+000 -0.22564167E-006
 0.00000000E+000  0.00000000E+000
-0.77666252E+000  0.74378995E-005
 0.00000000E+000  0.00000000E+000
-0.12343781E+000  0.84929306E-005
-0.30698251E+000 -0.61473001E-005
-0.48035943E+000 -0.98542659E-006
-0.61315399E+000  0.81653797E-005
-0.70013749E+000 -0.13099104E-004
-0.74841839E+000  0.15254882E-004
-0.77017694E+000 -0.14595396E-004
-0.77007120E+000 -0.10202873E-004
-0.77653783E+000  0.11599278E-004
-0.77693754E+000 -0.68199879E-005
-0.74850112E+000  0.11272960E-004
-0.77626115E+000  0.11089313E-005
-0.70007807E+000 -0.10728053E-004
-0.61319422E+000  0.82257620E-005
-0.48033100E+000 -0.39559645E-005
-0.77693784E+000  0.46572085E-005
-0.30700552E+000 -0.14151406E-005
-0.12342076E+000  0.45483138E-005
 0.00000000E+000  0.00000000E+000
-0.77653723E+000 -0.95850173E-005
 0.00000000E+000  0.00000000E+000
-0.12341763E+000 -0.12001727E-004
-0.30701306E+000  0.10212258E-004
-0.48031818E+000 -0.13806082E-005
-0.61321216E+000 -0.82355891E-005
-0.70005559E+000  0.15217011E-004
-0.74852722E+000 -0.18369837E-004
-0.77017778E+000  0.12825877E-004
-0.77004235E+000  0.17796031E-004
-0.77669340E+000 -0.14096705E-004
-0.74841737E+000 -0.13804436E-004
-0.77676838E+000  0.82152928E-005
-0.70013856E+000  0.12025406E-004
-0.77643513E+000 -0.11819215E-005
-0.61315292E+000 -0.74891690E-005
-0.48036029E+000  0.68834486E-006
-0.30698189E+000  0.61692189E-005
-0.77676802E+000 -0.59106096E-005
-0.12343813E+000 -0.84091352E-005
 0.00000000E+000  0.00000000E+000
-0.77669405E+000  0.11961494E-004
-0.77004146E+000 -0.15920002E-004
 0.00000000E+000  0.00000000E+000
-0.12344156E+000  0.15230260E-004
-0.30697378E+000 -0.13575730E-004
-0.48037415E+000  0.27825956E-005
-0.61313307E+000  0.93305470E-005
-0.70016366E+000 -0.18181828E-004
-0.74838805E+000  0.22172043E-004
-0.77021020E+000 -0.21424411E-004
-0.77650278E+000  0.16881689E-004
-0.74852824E+000  0.16844323E-004
-0.77697354E+000 -0.97358397E-005
-0.70005452E+000 -0.14099004E-004
-0.77622479E+000  0.12528448E-005
-0.61321324E+000  0.75512148E-005
-0.48031726E+000  0.16621695E-005
-0.30701375E+000 -0.10210897E-004
-0.12341729E+000  0.11898974E-004
 0.00000000E+000  0.00000000E+000
-0.77697390E+000  0.72863176E-005
-0.77650213E+000 -0.14606075E-004
-0.77021110E+000  0.19447294E-004
 0.00000000E+000  0.00000000E+000
-0.12341343E+000 -0.18244094E-004
-0.30702266E+000  0.16220257E-004
-0.48030188E+000 -0.30961307E-005
-0.61323547E+000 -0.11594708E-004
-0.70002621E+000  0.22163005E-004
-0.74856114E+000 -0.26695755E-004
-0.77000540E+000  0.25536641E-004
-0.74838697E+000 -0.20573899E-004
-0.77673214E+000 -0.19928695E-004
-0.77672874E+000  0.11377584E-004
-0.70016485E+000  0.17032603E-004
-0.61313199E+000 -0.86398868E-005
-0.77647507E+000 -0.13325152E-005
-0.48037511E+000 -0.30502746E-005
-0.30697309E+000  0.13532812E-004
-0.12344191E+000 -0.15098600E-004
 0.00000000E+000  0.00000000E+000
-0.77672839E+000 -0.87735215E-005
-0.77673286E+000  0.17532289E-004
-0.77000439E+000 -0.23453518E-004
 0.00000000E+000  0.00000000E+000
-0.12344633E+000  0.21068608E-004
-0.30696296E+000 -0.18116996E-004
-0.48039254E+000  0.21665252E-005
-0.61310672E+000  0.15214579E-004
-0.70019680E+000 -0.27251591E-004
-0.74835002E+000  0.32022773E-004
-0.77025115E+000 -0.30093480E-004
-0.74856233E+000  0.25027282E-004
-0.77646028E+000  0.23222430E-004
-0.70002502E+000 -0.20968114E-004
-0.77701681E+000 -0.13099072E-004
-0.61323660E+000  0.10906192E-004
-0.48030090E+000  0.33333028E-005
-0.77618134E+000  0.14161033E-005
-0.30702337E+000 -0.16144625E-004
-0.12341308E+000  0.18074992E-004
 0.00000000E+000  0.00000000E+000
-0.77701723E+000  0.10350748E-004
-0.77645951E+000 -0.20686184E-004
-0.77025222E+000  0.27905583E-004
 0.00000000E+000  0.00000000E+000
-0.12340787E+000 -0.23759608E-004
-0.30703511E+000  0.19155959E-004
-0.48028063E+000  0.23722078E-006
-0.61326569E+000 -0.20326597E-004
-0.69998860E+000  0.33592012E-004
-0.74834883E+000 -0.30279685E-004
-0.74860370E+000 -0.38065016E-004
-0.76996016E+000  0.35093773E-004
-0.77677857E+000 -0.26665862E-004
-0.70019811E+000  0.26028706E-004
-0.77668195E+000  0.14900294E-004
-0.61310553E+000 -0.14523900E-004
-0.48039358E+000 -0.23722216E-005
-0.30696225E+000  0.17990831E-004
-0.77652204E+000 -0.14975840E-005
-0.12344671E+000 -0.20870520E-004
 0.00000000E+000  0.00000000E+000
-0.77668154E+000 -0.11993516E-004
-0.77677935E+000  0.23995693E-004
-0.76995909E+000 -0.32790096E-004
-0.74860495E+000  0.36256973E-004
 0.00000000E+000  0.00000000E+000
-0.12345291E+000  0.26325593E-004
-0.30694818E+000 -0.19134724E-004
-0.48041757E+000 -0.43019745E-005
-0.61307150E+000  0.27219997E-004
-0.70023977E+000 -0.41103088E-004
-0.74830245E+000  0.44894291E-004
-0.77030086E+000 -0.40312756E-004
-0.69998723E+000 -0.32344927E-004
-0.77641004E+000  0.30247087E-004
-0.61326700E+000  0.19652294E-004
-0.77706706E+000 -0.16694062E-004
-0.48027956E+000 -0.68943656E-007
-0.30703589E+000 -0.18977076E-004
-0.12340749E+000  0.23523056E-004
 0.00000000E+000  0.00000000E+000
-0.77613121E+000  0.15751813E-005
-0.77706754E+000  0.13612213E-004
-0.77640920E+000 -0.27431149E-004
-0.77030199E+000  0.37911504E-004
-0.74830108E+000 -0.43016530E-004
 0.00000000E+000  0.00000000E+000
-0.12339983E+000 -0.28722344E-004
-0.30705296E+000  0.17907013E-004
-0.48025041E+000  0.10579394E-004
-0.61330711E+000 -0.35769135E-004
-0.69993919E+000  0.50114875E-004
-0.74865686E+000 -0.51947317E-004
-0.76990598E+000  0.45964021E-004
-0.70024120E+000  0.39829898E-004
-0.77683264E+000 -0.33560027E-004
-0.61307018E+000 -0.26562138E-004
-0.77662873E+000  0.18539292E-004
-0.48041871E+000  0.41827797E-005
-0.30694738E+000  0.18905730E-004
-0.12345329E+000 -0.26055298E-004
 0.00000000E+000  0.00000000E+000
-0.77657538E+000 -0.16738923E-005
-0.77662825E+000 -0.15307405E-004
-0.77683353E+000  0.30594372E-004
-0.76990473E+000 -0.43449486E-004
-0.74865829E+000  0.50008711E-004
 0.00000000E+000  0.00000000E+000
-0.12346264E+000  0.31012594E-004
-0.30692553E+000 -0.14671746E-004
-0.48045432E+000 -0.18765196E-004
-0.61302173E+000  0.47106354E-004
-0.70029658E+000 -0.59269044E-004
-0.69993770E+000 -0.48816611E-004
-0.74824321E+000  0.60174741E-004
-0.77035993E+000 -0.50714821E-004
-0.61330854E+000  0.35129360E-004
-0.77635294E+000  0.37233130E-004
-0.48024922E+000 -0.10517545E-004
-0.30705377E+000 -0.17607497E-004
-0.77712368E+000 -0.19966340E-004
-0.12339942E+000  0.28391899E-004
 0.00000000E+000  0.00000000E+000
-0.77607583E+000  0.17572749E-005
-0.77712416E+000  0.16538666E-004
-0.77635198E+000 -0.34128799E-004
-0.77036124E+000  0.48092206E-004
-0.74824172E+000 -0.58163917E-004
-0.70029819E+000  0.57963821E-004
 0.00000000E+000  0.00000000E+000
-0.12338672E+000 -0.32742223E-004
-0.30708110E+000  0.97274041E-005
-0.48020362E+000  0.30826420E-004
-0.61336684E+000 -0.59366757E-004
-0.69987368E+000  0.70205715E-004
-0.74872303E+000 -0.67402615E-004
-0.76984298E+000  0.55667347E-004
-0.61302024E+000 -0.46505392E-004
-0.77689343E+000 -0.40156668E-004
-0.48045554E+000  0.18759277E-004
-0.30692467E+000  0.14302481E-004
-0.12346306E+000 -0.30645031E-004
 0.00000000E+000  0.00000000E+000
-0.77657043E+000  0.21313289E-004
-0.77663332E+000 -0.18616000E-005
-0.77656990E+000 -0.17720381E-004
-0.77689445E+000  0.36892353E-004
-0.76984161E+000 -0.52925319E-004
-0.74872463E+000  0.65341562E-004
-0.69987201E+000 -0.68890534E-004
 0.00000000E+000  0.00000000E+000
-0.12347909E+000  0.34030232E-004
-0.30688762E+000 -0.11833780E-005
-0.48051369E+000 -0.45877815E-004
-0.61294955E+000  0.73734001E-004
-0.70037269E+000 -0.81281366E-004
-0.61336839E+000  0.58797610E-004
-0.74817103E+000  0.73657480E-004
-0.77042746E+000 -0.60278729E-004
-0.48020234E+000 -0.30899347E-004
-0.77628970E+000  0.42065090E-004
-0.30708199E+000 -0.92739192E-005
-0.12338630E+000  0.32311483E-004
 0.00000000E+000  0.00000000E+000
-0.77718353E+000 -0.22575590E-004
-0.77601629E+000  0.19559249E-005
-0.77718412E+000  0.18783075E-004
-0.77628862E+000 -0.38642505E-004
-0.77042895E+000  0.57434324E-004
-0.74816936E+000 -0.71529058E-004
-0.70037442E+000  0.79960373E-004
-0.61294788E+000 -0.73211478E-004
 0.00000000E+000  0.00000000E+000
-0.12336321E+000 -0.33659151E-004
-0.30713167E+000 -0.10732266E-004
-0.48012632E+000  0.66350839E-004
-0.61345511E+000 -0.87573702E-004
-0.69978713E+000  0.93326423E-004
-0.74880194E+000 -0.76834658E-004
-0.48051509E+000  0.46030196E-004
-0.76977235E+000  0.65331681E-004
-0.30688667E+000  0.64248314E-006
-0.12347953E+000 -0.33532982E-004
 0.00000000E+000  0.00000000E+000
-0.77695888E+000 -0.41902407E-004
-0.77651017E+000  0.24055456E-004
-0.77669399E+000 -0.20623781E-005
-0.77650958E+000 -0.20073448E-004
-0.77696007E+000  0.38319409E-004
-0.76977080E+000 -0.62365303E-004
-0.74880373E+000  0.74645402E-004
-0.69978529E+000 -0.92004142E-004
-0.61345690E+000  0.87111046E-004
-0.48012486E+000 -0.66602100E-004
 0.00000000E+000  0.00000000E+000
-0.12350890E+000  0.32582687E-004
-0.30681315E+000  0.32854146E-004
-0.48061311E+000 -0.84925675E-004
-0.61284184E+000  0.10807201E-003
-0.70047205E+000 -0.97026117E-004
-0.74808961E+000  0.82401355E-004
-0.30713266E+000  0.11385618E-004
-0.12336274E+000  0.33090102E-004
-0.77050375E+000 -0.66658758E-004
 0.00000000E+000  0.00000000E+000
-0.77622556E+000  0.41100691E-004
-0.77724456E+000 -0.25197301E-004
-0.77595633E+000  0.21672483E-005
-0.77724522E+000  0.21001746E-004
-0.77622431E+000 -0.37345678E-004
-0.77050542E+000  0.63573541E-004
-0.74808764E+000 -0.80168822E-004
-0.70047402E+000  0.95716408E-004
-0.61283999E+000 -0.10766339E-003
-0.48061466E+000  0.85270243E-004
-0.30681210E+000 -0.33619035E-004
 0.00000000E+000  0.00000000E+000
-0.12331610E+000 -0.27822683E-004
-0.30724045E+000 -0.67041051E-004
-0.48000371E+000  0.96400828E-004
-0.61360132E+000 -0.14767040E-003
-0.12350939E+000 -0.31925923E-004
-0.69969701E+000  0.61627994E-004
 0.00000000E+000  0.00000000E+000
-0.74890142E+000 -0.13205643E-003
-0.76969552E+000  0.15764857E-004
-0.77700740E+000 -0.81693309E-004
-0.77642184E+000  0.11380481E-005
-0.77671909E+000 -0.22923638E-005
-0.77642118E+000  0.32547429E-005
-0.77700871E+000  0.77757984E-004
-0.76969379E+000 -0.12578776E-004
-0.74890345E+000  0.12975688E-003
-0.69969493E+000 -0.60325077E-004
-0.61360323E+000  0.14733157E-003
-0.48000207E+000 -0.96869945E-004
-0.30724155E+000  0.67946013E-004
-0.12331559E+000  0.27079289E-004
 0.00000000E+000  0.00000000E+000
 0.00000000E+000  0.00000000E+000
-0.12362051E+000 -0.57981983E-005
-0.30672582E+000  0.49052385E-004
-0.48087450E+000 -0.23180189E-003
-0.61277085E+000 -0.79810051E-005
-0.70064008E+000 -0.26292412E-003
-0.74800664E+000 -0.87463406E-004
-0.77053344E+000 -0.21363684E-003
-0.77606821E+000 -0.74865129E-004
-0.77717423E+000 -0.83462567E-004
-0.77576094E+000  0.23941706E-005
-0.77717500E+000  0.78807221E-004
-0.77606683E+000  0.78941862E-004
-0.77053529E+000  0.21031151E-003
-0.74800449E+000  0.89789420E-004
-0.70064228E+000  0.26162064E-003
-0.61276876E+000  0.82422257E-005
-0.48087620E+000  0.23239376E-003
-0.30672463E+000 -0.50104594E-004
-0.12362104E+000  0.66526572E-005
 0.00000000E+000  0.00000000E+000
 0.00000000E+000  0.00000000E+000
-0.12332712E+000 -0.18570044E-004
-0.30768591E+000 -0.26467195E-003
-0.47999349E+000 -0.36452682E-004
-0.61394053E+000 -0.37999849E-003
-0.69965553E+000 -0.19619597E-003
-0.74895173E+000 -0.35894085E-003
-0.76947098E+000 -0.18401900E-003
-0.77683269E+000 -0.20514696E-003
-0.77608615E+000 -0.66398359E-004
-0.77647423E+000 -0.25595577E-005
-0.77608537E+000  0.71206821E-004
-0.77683418E+000  0.20081952E-003
-0.76946902E+000  0.18740931E-003
-0.74895393E+000  0.35653111E-003
-0.69965320E+000  0.19744376E-003
-0.61394268E+000  0.37980079E-003
-0.47999164E+000  0.35722197E-004
-0.30768716E+000  0.26587684E-003
-0.12332654E+000  0.17578855E-004
 0.00000000E+000  0.00000000E+000
 0.00000000E+000  0.00000000E+000
-0.12409089E+000 -0.12861462E-003
-0.30671358E+000  0.95421484E-004
-0.48148599E+000 -0.34267851E-003
-0.61279326E+000 -0.12646129E-003
-0.70076441E+000 -0.30193527E-003
-0.74775797E+000 -0.10144983E-003
-0.77033835E+000 -0.14916830E-003
-0.77570623E+000 -0.22576821E-004
-0.77690404E+000 -0.38997015E-004
-0.77539342E+000  0.26189188E-005
-0.77690494E+000  0.33815216E-004
-0.77570462E+000  0.26977520E-004
-0.77034038E+000  0.14557343E-003
-0.74775558E+000  0.10381982E-003
-0.70076674E+000  0.30065272E-003
-0.61279094E+000  0.12654442E-003
-0.48148787E+000  0.34352365E-003
-0.30671221E+000 -0.96833588E-004
-0.12409148E+000  0.12973356E-003
 0.00000000E+000  0.00000000E+000
 0.00000000E+000  0.00000000E+000
-0.12314231E+000  0.21699027E-003
-0.30853444E+000 -0.24694408E-003
-0.47981610E+000  0.16875362E-003
-0.61400222E+000  0.11682108E-003
-0.69930732E+000  0.39794770E-003
-0.74879729E+000  0.35654651E-003
-0.76925390E+000  0.42483623E-003
-0.77682787E+000  0.27977855E-003
-0.77607297E+000  0.18048747E-003
-0.77657616E+000 -0.28507533E-005
-0.77607202E+000 -0.17524263E-003
-0.77682948E+000 -0.28453514E-003
-0.76925164E+000 -0.42128536E-003
-0.74879962E+000 -0.35907534E-003
-0.69930475E+000 -0.39679437E-003
-0.61400449E+000 -0.11688952E-003
-0.47981402E+000 -0.16978924E-003
-0.30853584E+000  0.24852348E-003
-0.12314164E+000 -0.21828303E-003
 0.00000000E+000  0.00000000E+000
 0.00000000E+000  0.00000000E+000
-0.12481778E+000 -0.38174606E-003
-0.30538800E+000  0.56686339E-003
-0.48097521E+000  0.80471317E-003
-0.61197876E+000  0.11907651E-002
-0.70048809E+000  0.12225677E-002
-0.74766385E+000  0.12504248E-002
-0.77073496E+000  0.10409406E-002
-0.77633118E+000  0.80001889E-003
-0.77781641E+000  0.40445971E-003
-0.77630978E+000  0.28862259E-005
-0.77781730E+000 -0.41018120E-003
-0.77632933E+000 -0.79529115E-003
-0.77073717E+000 -0.10447865E-002
-0.74766117E+000 -0.12480288E-002
-0.70049047E+000 -0.12238167E-002
-0.61197620E+000 -0.11908930E-002
-0.48097720E+000 -0.80361240E-003
-0.30538633E+000 -0.56867720E-003
-0.12481844E+000  0.38322425E-003
 0.00000000E+000  0.00000000E+000
 0.00000000E+000  0.00000000E+000
-0.12012542E+000  0.13912937E-002
-0.30812418E+000  0.12904155E-002
-0.47869795E+000  0.12941813E-002
-0.61340010E+000  0.14764129E-002
-0.69890457E+000  0.16741650E-002
-0.74918556E+000  0.17371542E-002
-0.77024096E+000  0.15652575E-002
-0.77844059E+000  0.11495206E-002
-0.77796846E+000  0.61843107E-003
-0.77863705E+000 -0.31365136E-005
-0.77796733E+000 -0.61267905E-003
-0.77844238E+000 -0.11546663E-002
-0.77023839E+000 -0.15615124E-002
-0.74918800E+000 -0.17397273E-002
-0.69890183E+000 -0.16730718E-002
-0.61340236E+000 -0.14762612E-002
-0.47869563E+000 -0.12954798E-002
-0.30812582E+000 -0.12884499E-002
-0.12012454E+000 -0.13930003E-002
 0.00000000E+000  0.00000000E+000
 0.00000000E+000  0.00000000E+000
-0.12823173E+000 -0.18655103E-002
-0.30261901E+000 -0.22310151E-002
-0.47679111E+000 -0.39014357E-003
-0.60791075E+000  0.11674111E-002
-0.69834542E+000  0.23587550E-002
-0.74746060E+000  0.25465076E-002
-0.77222627E+000  0.22491542E-002
-0.77883476E+000  0.15957341E-002
-0.78091585E+000  0.81931351E-003
-0.77954506E+000  0.31739573E-005
-0.78091686E+000 -0.82555564E-003
-0.77883267E+000 -0.15906130E-002
-0.77222853E+000 -0.22531929E-002
-0.74745768E+000 -0.25440487E-002
-0.69834780E+000 -0.23599083E-002
-0.60790789E+000 -0.11676265E-002
-0.47679305E+000  0.39170568E-003
-0.30261710E+000  0.22290174E-002
-0.12823274E+000  0.18675086E-002
 0.00000000E+000  0.00000000E+000
 0.00000000E+000  0.00000000E+000
-0.10938408E+000 -0.35233641E-002
-0.30120223E+000 -0.73651457E-003
-0.47614732E+000  0.31397727E-003
-0.61520856E+000  0.14122220E-002
-0.70323705E+000  0.11777052E-002
-0.75443285E+000  0.10375290E-002
-0.77520531E+000  0.66758767E-003
-0.78275191E+000  0.45218996E-003
-0.78168511E+000  0.21287141E-003
-0.78215038E+000 -0.34587180E-005
-0.78168392E+000 -0.20654279E-003
-0.78275376E+000 -0.45771524E-003
-0.77520251E+000 -0.66366011E-003
-0.75443518E+000 -0.10401054E-002
-0.70323401E+000 -0.11766917E-002
-0.61521059E+000 -0.14118418E-002
-0.47614434E+000 -0.31555959E-003
-0.30120313E+000  0.73912774E-003
-0.10938237E+000  0.35217453E-002
 0.00000000E+000  0.00000000E+000
