 0.00000000E+000  0.00000000E+000
 0.15138819E+000  0.00000000E+000
 0.28684079E+000  0.00000000E+000
 0.40635779E+000  0.00000000E+000
 0.50993919E+000  0.00000000E+000
 0.59758496E+000  0.00000000E+000
 0.00000000E+000  0.00000000E+000
 0.22043152E+000  0.38344871E-001
 0.36032834E+000  0.97735598E-001
 0.45422497E+000  0.14695230E+000
 0.66929519E+000  0.00000000E+000
 0.52593648E+000  0.17430861E+000
 0.58461737E+000  0.17893004E+000
 0.63357949E+000  0.16421388E+000
 0.72506976E+000  0.00000000E+000
 0.67290139E+000  0.13479731E+000
 0.00000000E+000  0.00000000E+000
 0.32761362E+000  0.19749553E-001
 0.48603972E+000  0.58556899E-001
 0.55185687E+000  0.10078741E+000
 0.57430124E+000  0.13256289E+000
 0.58237928E+000  0.14645165E+000
 0.58760499E+000  0.14157776E+000
 0.76490879E+000  0.00000000E+000
 0.70195412E+000  0.95115959E-001
 0.59367603E+000  0.12040312E+000
 0.00000000E+000  0.00000000E+000
 0.37392768E+000  0.54697887E-002
 0.55955100E+000  0.16518689E-001
 0.62131756E+000  0.31870096E-001
 0.62025648E+000  0.46420522E-001
 0.59988337E+000  0.86951829E-001
 0.59480905E+000  0.55990681E-001
 0.78881216E+000  0.00000000E+000
 0.56708580E+000  0.57717282E-001
 0.71979373E+000  0.49072094E-001
 0.54533797E+000  0.51424689E-001
 0.60466045E+000  0.45442491E-001
 0.53155690E+000  0.38267288E-001
 0.00000000E+000  0.00000000E+000
 0.79677999E+000  0.00000000E+000
 0.38556003E+000  0.34316867E-003
 0.57941371E+000  0.22717430E-002
 0.64664763E+000  0.50903875E-002
 0.64146322E+000  0.90920086E-002
 0.60619074E+000  0.12505518E-001
 0.72583186E+000  0.90700496E-008
 0.56494998E+000  0.14440130E-001
 0.53043770E+000  0.13884768E-001
 0.52430516E+000  0.20354202E-001
 0.60640859E+000 -0.27679021E-007
 0.50623077E+000  0.10919594E-001
 0.78881216E+000  0.00000000E+000
 0.71979373E+000 -0.49072135E-001
 0.00000000E+000  0.00000000E+000
 0.52216267E+000  0.49829864E-007
 0.38707488E+000  0.46007108E-003
 0.58434313E+000  0.10915385E-002
 0.65257376E+000  0.25645210E-002
 0.64833915E+000  0.36801469E-002
 0.61084306E+000  0.48695788E-002
 0.49258902E+000  0.59770154E-002
 0.56628799E+000  0.53285919E-002
 0.52722251E+000  0.51330155E-002
 0.60466051E+000 -0.45442424E-001
 0.49923163E+000  0.40074097E-002
 0.48815017E+000 -0.63382124E-007
 0.76490879E+000  0.00000000E+000
 0.52430510E+000 -0.20354295E-001
 0.70195412E+000 -0.95115937E-001
 0.48276704E+000  0.22165738E-002
 0.00000000E+000  0.00000000E+000
 0.38857874E+000  0.19011665E-003
 0.58626037E+000  0.96006278E-003
 0.65553635E+000  0.14434671E-002
 0.65039986E+000  0.23181880E-002
 0.61244291E+000  0.25875796E-002
 0.59988337E+000 -0.86951889E-001
 0.56624120E+000  0.27449571E-002
 0.52590233E+000  0.23881027E-002
 0.49258905E+000 -0.59768804E-002
 0.72506976E+000  0.00000000E+000
 0.47750800E+000  0.84907313E-007
 0.49632161E+000  0.18192424E-002
 0.53155690E+000 -0.38267187E-001
 0.67290139E+000 -0.13479734E+000
 0.59367609E+000 -0.12040306E+000
 0.47905683E+000  0.95747079E-003
 0.66929519E+000  0.00000000E+000
 0.50623071E+000 -0.10919727E-001
 0.48276701E+000 -0.22167416E-002
 0.00000000E+000  0.00000000E+000
 0.38901776E+000  0.67239838E-004
 0.58753788E+000 -0.25488436E-004
 0.65647852E+000  0.37492782E-003
 0.63357949E+000 -0.16421385E+000
 0.65164357E+000  0.37675464E-003
 0.61275506E+000  0.72498072E-003
 0.54533791E+000 -0.51424778E-001
 0.56627458E+000  0.70257199E-003
 0.52506345E+000  0.73658279E-003
 0.47329071E+000 -0.10321150E-006
 0.58760493E+000 -0.14157782E+000
 0.59758496E+000  0.00000000E+000
 0.49522650E+000  0.52877078E-003
 0.58461737E+000 -0.17893005E+000
 0.53043776E+000 -0.13884636E-001
 0.56708580E+000 -0.57717192E-001
 0.49923166E+000 -0.40072361E-002
 0.58237934E+000 -0.14645159E+000
 0.50993919E+000  0.00000000E+000
 0.47743856E+000  0.30459160E-003
 0.52593648E+000 -0.17430858E+000
 0.47905686E+000 -0.95725787E-003
 0.40635779E+000  0.00000000E+000
 0.45422494E+000 -0.14695231E+000
 0.57430118E+000 -0.13256293E+000
 0.28684079E+000  0.00000000E+000
 0.59480899E+000 -0.55990759E-001
 0.36032837E+000 -0.97735576E-001
 0.15138819E+000  0.00000000E+000
 0.00000000E+000  0.00000000E+000
 0.00000000E+000  0.00000000E+000
 0.38911098E+000 -0.59142916E-004
 0.58754754E+000  0.87179498E-004
 0.65701371E+000 -0.10059487E-003
 0.56494992E+000 -0.14440246E-001
 0.65178251E+000  0.16351834E-003
 0.22043150E+000 -0.38344882E-001
 0.61321133E+000  0.53337251E-004
 0.55185693E+000 -0.10078737E+000
 0.00000000E+000  0.00000000E+000
 0.47175854E+000  0.12772366E-006
 0.56619071E+000  0.22560480E-003
 0.52722245E+000 -0.51331771E-002
 0.48603966E+000 -0.58556925E-001
 0.52505844E+000  0.15450562E-003
 0.62025654E+000 -0.46420451E-001
 0.32761365E+000 -0.19749535E-001
 0.00000000E+000  0.00000000E+000
 0.49632155E+000 -0.18194463E-002
 0.49476715E+000  0.17781354E-003
 0.62131744E+000 -0.31870134E-001
 0.60619080E+000 -0.12505407E-001
 0.55955106E+000 -0.16518650E-001
 0.37392762E+000 -0.54698069E-002
 0.47743853E+000 -0.30484091E-003
 0.00000000E+000  0.00000000E+000
 0.56628811E+000 -0.53284307E-002
 0.47709625E+000  0.80012767E-004
 0.64146310E+000 -0.90920897E-002
 0.64664775E+000 -0.50903172E-002
 0.52590245E+000 -0.23878950E-002
 0.57941365E+000 -0.22717826E-002
 0.61084300E+000 -0.48697092E-002
 0.38556006E+000 -0.34315063E-003
 0.47113955E+000 -0.15015754E-006
 0.00000000E+000  0.00000000E+000
 0.00000000E+000  0.00000000E+000
 0.38905552E+000  0.49460228E-004
 0.58770161E+000 -0.73462142E-004
 0.65691328E+000  0.13970013E-003
 0.65207481E+000 -0.49021018E-004
 0.61311233E+000  0.13878504E-003
 0.49522656E+000 -0.52852439E-003
 0.56640118E+000  0.94404576E-005
 0.64833921E+000 -0.36800366E-002
 0.52488356E+000  0.96364718E-004
 0.56624114E+000 -0.27451426E-002
 0.65257364E+000 -0.25646016E-002
 0.49482181E+000  0.23351944E-004
 0.58434325E+000 -0.10914899E-002
 0.47709631E+000 -0.79724617E-004
 0.38707485E+000 -0.46008525E-003
 0.00000000E+000  0.00000000E+000
 0.61244302E+000 -0.25874178E-002
 0.52506333E+000 -0.73682557E-003
 0.47682482E+000  0.35338631E-004
 0.65039974E+000 -0.23183203E-002
 0.49476709E+000 -0.17810754E-003
 0.65553641E+000 -0.14433717E-002
 0.47112378E+000  0.16547997E-006
 0.56627470E+000 -0.70235400E-003
 0.58626031E+000 -0.96012040E-003
 0.38857877E+000 -0.19010690E-003
 0.00000000E+000  0.00000000E+000
 0.00000000E+000  0.00000000E+000
 0.38910213E+000 -0.47598958E-004
 0.58762210E+000  0.73446644E-004
 0.65708351E+000 -0.11039831E-003
 0.65192532E+000  0.89184395E-004
 0.61330759E+000 -0.82327220E-004
 0.56623011E+000  0.58645360E-004
 0.52503854E+000 -0.36764002E-004
 0.61275494E+000 -0.72516972E-003
 0.52505850E+000 -0.15423438E-003
 0.47682479E+000 -0.35684734E-004
 0.49463871E+000  0.26622483E-004
 0.65164369E+000 -0.37660062E-003
 0.47695049E+000 -0.94630941E-005
 0.65647840E+000 -0.37503876E-003
 0.58753800E+000  0.25550813E-004
 0.56619065E+000 -0.22585972E-003
 0.38901770E+000 -0.67253109E-004
 0.00000000E+000  0.00000000E+000
 0.49482187E+000 -0.23027949E-004
 0.47093257E+000 -0.19273031E-006
 0.61321145E+000 -0.53120573E-004
 0.00000000E+000  0.00000000E+000
 0.38905388E+000  0.40446429E-004
 0.58769524E+000 -0.82538710E-004
 0.65695804E+000  0.87567343E-004
 0.65208888E+000 -0.10121348E-003
 0.61314100E+000  0.72094888E-004
 0.52488350E+000 -0.96674659E-004
 0.65178239E+000 -0.16369370E-003
 0.56641602E+000 -0.63784704E-004
 0.52486276E+000  0.38051672E-004
 0.47695052E+000  0.98443561E-005
 0.65701383E+000  0.10071977E-003
 0.49481806E+000 -0.25721699E-004
 0.58754742E+000 -0.87250075E-004
 0.38911104E+000  0.59156154E-004
 0.00000000E+000  0.00000000E+000
 0.56640130E+000 -0.91606407E-005
 0.47677037E+000  0.11229951E-004
 0.49463862E+000 -0.26993257E-004
 0.61311221E+000 -0.13903170E-003
 0.47110930E+000  0.21514733E-006
 0.65207493E+000  0.49217738E-004
 0.52503865E+000  0.37106517E-004
 0.65691316E+000 -0.13983894E-003
 0.58770173E+000  0.73536772E-004
 0.00000000E+000  0.00000000E+000
 0.38908547E+000 -0.41695348E-004
 0.58761990E+000  0.74638235E-004
 0.65706866E+000 -0.89532615E-004
 0.65194177E+000  0.90199209E-004
 0.38905546E+000 -0.49485544E-004
 0.61331450E+000 -0.76601711E-004
 0.47677031E+000 -0.11654636E-004
 0.00000000E+000  0.00000000E+000
 0.56623268E+000  0.58646361E-004
 0.52505874E+000 -0.40857226E-004
 0.56622999E+000 -0.58959620E-004
 0.49462077E+000  0.24419196E-004
 0.49481812E+000  0.26133619E-004
 0.47697287E+000 -0.11713235E-004
 0.61330771E+000  0.82599974E-004
 0.65192520E+000 -0.89402412E-004
 0.47090688E+000 -0.23885084E-006
 0.65708363E+000  0.11055017E-003
 0.52486270E+000 -0.38432815E-004
 0.58762198E+000 -0.73526702E-004
 0.38910216E+000  0.47621586E-004
 0.00000000E+000  0.00000000E+000
 0.47697290E+000  0.12178636E-004
 0.00000000E+000  0.00000000E+000
 0.38905230E+000  0.41368039E-004
 0.58768743E+000 -0.72434813E-004
 0.65696352E+000  0.85458596E-004
 0.56641614E+000  0.64129613E-004
 0.65208357E+000 -0.86152154E-004
 0.61314225E+000  0.73428280E-004
 0.56642681E+000 -0.57004745E-004
 0.52484881E+000  0.39272057E-004
 0.49484136E+000 -0.23993194E-004
 0.61314088E+000 -0.72392460E-004
 0.49462068E+000 -0.24868850E-004
 0.47674623E+000  0.11098243E-004
 0.65208899E+000  0.10145581E-003
 0.65695792E+000 -0.87731736E-004
 0.58769530E+000  0.82623897E-004
 0.38905385E+000 -0.40455553E-004
 0.52505880E+000  0.41283416E-004
 0.00000000E+000  0.00000000E+000
 0.47113624E+000  0.26024761E-006
 0.56623256E+000 -0.59022539E-004
 0.47674617E+000 -0.11610604E-004
 0.00000000E+000  0.00000000E+000
 0.38908457E+000 -0.41845276E-004
 0.58762151E+000  0.69964276E-004
 0.65706604E+000 -0.82750993E-004
 0.65194326E+000  0.81160855E-004
 0.61331880E+000 -0.69703513E-004
 0.56622153E+000  0.53766081E-004
 0.61331468E+000  0.76931777E-004
 0.52507734E+000 -0.36697096E-004
 0.49459666E+000  0.22573096E-004
 0.49484145E+000  0.24485485E-004
 0.65194165E+000 -0.90452223E-004
 0.65706878E+000  0.89711655E-004
 0.47700062E+000 -0.10133410E-004
 0.58761984E+000 -0.74723080E-004
 0.38908550E+000  0.41704595E-004
 0.00000000E+000  0.00000000E+000
 0.52484869E+000 -0.39728180E-004
 0.47087821E+000 -0.27823236E-006
 0.56642693E+000  0.57421028E-004
 0.47700065E+000  0.10693176E-004
 0.61314213E+000 -0.73778552E-004
 0.00000000E+000  0.00000000E+000
 0.38905090E+000  0.42202016E-004
 0.58768755E+000 -0.68712659E-004
 0.65696316E+000  0.79427925E-004
 0.65208703E+000 -0.76382915E-004
 0.61313498E+000  0.64983920E-004
 0.56644195E+000 -0.48951544E-004
 0.65208375E+000  0.86430030E-004
 0.52482730E+000  0.33504737E-004
 0.49459657E+000 -0.23104959E-004
 0.65696340E+000 -0.85643107E-004
 0.49486839E+000 -0.19791164E-004
 0.58768755E+000  0.72526621E-004
 0.38905224E+000 -0.41376733E-004
 0.00000000E+000  0.00000000E+000
 0.47671517E+000  0.90323728E-005
 0.52507746E+000  0.37196383E-004
 0.47116774E+000  0.30557848E-006
 0.56622141E+000 -0.54214429E-004
 0.47671514E+000 -0.96294088E-005
 0.61331897E+000  0.70082693E-004
 0.65194314E+000 -0.81460108E-004
 0.00000000E+000  0.00000000E+000
 0.38908615E+000 -0.42801795E-004
 0.58761930E+000  0.67675660E-004
 0.65706974E+000 -0.76085256E-004
 0.65193694E+000  0.71341499E-004
 0.61333090E+000 -0.58923560E-004
 0.65706622E+000  0.82940779E-004
 0.56620299E+000  0.43452313E-004
 0.49486848E+000  0.20369643E-004
 0.58762139E+000 -0.70060690E-004
 0.52510261E+000 -0.28631795E-004
 0.38908466E+000  0.41849194E-004
 0.00000000E+000  0.00000000E+000
 0.49456563E+000  0.16602083E-004
 0.47703462E+000 -0.72324205E-005
 0.52482718E+000 -0.34040112E-004
 0.47084239E+000 -0.32461966E-006
 0.56644207E+000  0.49433187E-004
 0.61313486E+000 -0.65393687E-004
 0.47703465E+000  0.78804550E-005
 0.65208721E+000  0.76689160E-004
 0.65696305E+000 -0.79635734E-004
 0.58768767E+000  0.68803718E-004
 0.38905084E+000 -0.42219286E-004
 0.49456554E+000 -0.17221027E-004
 0.00000000E+000  0.00000000E+000
 0.00000000E+000  0.00000000E+000
 0.38904854E+000  0.43519845E-004
 0.58769142E+000 -0.66853644E-004
 0.65695708E+000  0.72513175E-004
 0.65209734E+000 -0.65623658E-004
 0.61311900E+000  0.51958377E-004
 0.56646496E+000 -0.36523582E-004
 0.52479761E+000  0.22851458E-004
 0.49490332E+000 -0.12384188E-004
 0.52510273E+000  0.29206630E-004
 0.47667661E+000  0.51139872E-005
 0.56620287E+000 -0.43970452E-004
 0.47120717E+000  0.35188733E-006
 0.61333107E+000  0.59355090E-004
 0.47667658E+000 -0.57982806E-005
 0.65193676E+000 -0.71671696E-004
 0.65706992E+000  0.76300479E-004
 0.58761918E+000 -0.67779197E-004
 0.38908621E+000  0.42816820E-004
 0.00000000E+000  0.00000000E+000
 0.49490341E+000  0.13047728E-004
 0.00000000E+000  0.00000000E+000
 0.38908901E+000 -0.44388678E-004
 0.58761388E+000  0.65949840E-004
 0.65707850E+000 -0.68624729E-004
 0.65192312E+000  0.59010275E-004
 0.61335146E+000 -0.43819170E-004
 0.56617534E+000  0.28377713E-004
 0.52513712E+000 -0.15856901E-004
 0.49452587E+000  0.74194326E-005
 0.52479749E+000 -0.23471617E-004
 0.47707760E+000 -0.25099586E-005
 0.56646507E+000  0.37070425E-004
 0.47079819E+000 -0.37052697E-006
 0.61311882E+000 -0.52418949E-004
 0.65209752E+000  0.65970729E-004
 0.47707766E+000  0.32449927E-005
 0.65695697E+000 -0.72741997E-004
 0.58769154E+000  0.66954693E-004
 0.38904848E+000 -0.43518011E-004
 0.00000000E+000  0.00000000E+000
 0.49452579E+000 -0.81231582E-005
 0.00000000E+000  0.00000000E+000
 0.38904497E+000  0.45365064E-004
 0.58769828E+000 -0.64929481E-004
 0.65694576E+000  0.64114523E-004
 0.65211510E+000 -0.51318431E-004
 0.61309373E+000  0.34350592E-004
 0.56649798E+000 -0.18860142E-004
 0.52475780E+000  0.77498152E-005
 0.52513724E+000  0.16516232E-004
 0.49494829E+000 -0.16205557E-005
 0.47662848E+000 -0.48455393E-006
 0.56617516E+000 -0.28962773E-004
 0.47125634E+000  0.39501185E-006
 0.61335164E+000  0.44303837E-004
 0.65192294E+000 -0.59378620E-004
 0.65707868E+000  0.68858076E-004
 0.47662845E+000 -0.29461804E-006
 0.58761376E+000 -0.66061977E-004
 0.38908907E+000  0.44390420E-004
 0.00000000E+000  0.00000000E+000
 0.49494841E+000  0.23718494E-005
 0.00000000E+000  0.00000000E+000
 0.38909327E+000 -0.46435183E-004
 0.58760547E+000  0.63630424E-004
 0.65709269E+000 -0.58757868E-004
 0.65190124E+000  0.42272691E-004
 0.61338210E+000 -0.23337301E-004
 0.56613647E+000  0.79131195E-005
 0.52475768E+000 -0.84482835E-005
 0.52518284E+000  0.15017329E-005
 0.49447518E+000 -0.49445943E-005
 0.56649816E+000  0.19479450E-004
 0.47713124E+000  0.38713378E-005
 0.61309355E+000 -0.34854972E-004
 0.47074359E+000 -0.41786563E-006
 0.65211528E+000  0.51710165E-004
 0.65694558E+000 -0.64365063E-004
 0.58769840E+000  0.65033993E-004
 0.47713130E+000 -0.30417470E-005
 0.38904488E+000 -0.45362154E-004
 0.00000000E+000  0.00000000E+000
 0.49447509E+000  0.41537336E-005
 0.52518296E+000 -0.76387107E-006
 0.00000000E+000  0.00000000E+000
 0.38903990E+000  0.47595200E-004
 0.58770841E+000 -0.61905884E-004
 0.65692842E+000  0.52253864E-004
 0.65214169E+000 -0.31574600E-004
 0.61305725E+000  0.10583516E-004
 0.56654334E+000  0.45449669E-005
 0.52470558E+000 -0.11890031E-004
 0.49500516E+000  0.12236805E-004
 0.56613630E+000 -0.85636374E-005
 0.47656899E+000 -0.76046185E-005
 0.61338227E+000  0.23884946E-004
 0.47131669E+000  0.44487859E-006
 0.65190100E+000 -0.42672523E-004
 0.65709286E+000  0.59017958E-004
 0.58760535E+000 -0.63731356E-004
 0.38909333E+000  0.46427361E-004
 0.00000000E+000  0.00000000E+000
 0.47656893E+000  0.67352611E-005
 0.49500527E+000 -0.11391253E-004
 0.52470546E+000  0.11114129E-004
 0.00000000E+000  0.00000000E+000
 0.38909921E+000 -0.48838115E-004
 0.58759325E+000  0.59594847E-004
 0.65711373E+000 -0.44258908E-004
 0.65186911E+000  0.18876624E-004
 0.61342531E+000  0.41390026E-005
 0.56608390E+000 -0.18576760E-004
 0.52524209E+000  0.23360662E-004
 0.56654351E+000 -0.38557159E-005
 0.49441176E+000 -0.20171202E-004
 0.47719690E+000  0.11645773E-004
 0.61305701E+000 -0.11145336E-004
 0.65214192E+000  0.32001687E-004
 0.47067725E+000 -0.46626959E-006
 0.65692824E+000 -0.52517778E-004
 0.58770859E+000  0.62015598E-004
 0.38903984E+000 -0.47583092E-004
 0.00000000E+000  0.00000000E+000
 0.47719696E+000 -0.10717420E-004
 0.49441164E+000  0.19288758E-004
 0.52524226E+000 -0.22536984E-004
 0.00000000E+000  0.00000000E+000
 0.38903290E+000  0.50152353E-004
 0.58772307E+000 -0.56452765E-004
 0.65690296E+000  0.34366174E-004
 0.65218025E+000 -0.37831721E-005
 0.61300617E+000 -0.21039182E-004
 0.56660401E+000  0.34199430E-004
 0.52463877E+000 -0.35807548E-004
 0.56608366E+000  0.17857279E-004
 0.49507549E+000  0.28652617E-004
 0.61342555E+000 -0.35409011E-005
 0.47649705E+000 -0.15904055E-004
 0.65186893E+000 -0.19316859E-004
 0.65711390E+000  0.44531720E-004
 0.47138914E+000  0.49536629E-006
 0.58759313E+000 -0.59694033E-004
 0.38909929E+000  0.48813926E-004
 0.00000000E+000  0.00000000E+000
 0.47649696E+000  0.14929549E-004
 0.49507561E+000 -0.27713202E-004
 0.52463859E+000  0.34952212E-004
 0.00000000E+000  0.00000000E+000
 0.38910755E+000 -0.51527989E-004
 0.58757567E+000  0.52201809E-004
 0.65714466E+000 -0.22050762E-004
 0.65182274E+000 -0.14119553E-004
 0.61348551E+000  0.40316434E-004
 0.56660419E+000 -0.33443095E-004
 0.56601417E+000 -0.51324532E-004
 0.52531713E+000  0.49112612E-004
 0.49433431E+000 -0.37489287E-004
 0.61300599E+000  0.20416528E-004
 0.47727522E+000  0.20314577E-004
 0.65218049E+000  0.42471106E-005
 0.65690273E+000 -0.34642209E-004
 0.58772319E+000  0.56559554E-004
 0.47059869E+000 -0.51769563E-006
 0.38903281E+000 -0.50122293E-004
 0.00000000E+000  0.00000000E+000
 0.47727528E+000 -0.19286408E-004
 0.49433419E+000  0.36507142E-004
 0.52531731E+000 -0.48203302E-004
 0.56601399E+000  0.50530601E-004
 0.00000000E+000  0.00000000E+000
 0.38902288E+000  0.52953018E-004
 0.58774459E+000 -0.46388315E-004
 0.65686511E+000  0.67308678E-005
 0.65223628E+000  0.35408185E-004
 0.61293536E+000 -0.61959020E-004
 0.56668376E+000  0.69902511E-004
 0.52455502E+000 -0.62884762E-004
 0.61348575E+000 -0.39663838E-004
 0.49516013E+000  0.46561250E-004
 0.65182256E+000  0.13642994E-004
 0.47641238E+000 -0.24713246E-004
 0.65714484E+000  0.22334548E-004
 0.58757549E+000 -0.52294020E-004
 0.38910767E+000  0.51484523E-004
 0.00000000E+000  0.00000000E+000
 0.47147354E+000  0.55041709E-006
 0.47641232E+000  0.23634198E-004
 0.49516025E+000 -0.45528173E-004
 0.52455484E+000  0.61937003E-004
 0.56668400E+000 -0.69068075E-004
 0.00000000E+000  0.00000000E+000
 0.38911983E+000 -0.54373820E-004
 0.58754914E+000  0.38534904E-004
 0.65719157E+000  0.12576389E-004
 0.65175479E+000 -0.60321959E-004
 0.61356896E+000  0.86218533E-004
 0.56592327E+000 -0.89319335E-004
 0.52540975E+000  0.77059507E-004
 0.61293512E+000  0.61279693E-004
 0.49424242E+000 -0.55393491E-004
 0.65223658E+000 -0.34915152E-004
 0.47736570E+000  0.29075947E-004
 0.65686494E+000 -0.70208975E-005
 0.58774471E+000  0.46473738E-004
 0.38902276E+000 -0.52915227E-004
 0.00000000E+000  0.00000000E+000
 0.47050854E+000 -0.57318936E-006
 0.47736579E+000 -0.27940073E-004
 0.49424228E+000  0.54316438E-004
 0.52540993E+000 -0.76056770E-004
 0.56592303E+000  0.88444168E-004
 0.00000000E+000  0.00000000E+000
 0.38900780E+000  0.55773012E-004
 0.58777809E+000 -0.27641286E-004
 0.65680658E+000 -0.36549248E-004
 0.65231955E+000  0.89808738E-004
 0.61283719E+000 -0.11226287E-003
 0.61356920E+000 -0.85512408E-004
 0.56678682E+000  0.10963377E-003
 0.52445310E+000 -0.90605666E-004
 0.65175455E+000  0.59815221E-004
 0.49525868E+000  0.64077197E-004
 0.65719181E+000 -0.12288250E-004
 0.58754897E+000 -0.38611618E-004
 0.47631615E+000 -0.33019852E-004
 0.38911992E+000  0.54319076E-004
 0.00000000E+000  0.00000000E+000
 0.47156846E+000  0.60993369E-006
 0.47631606E+000  0.31836418E-004
 0.49525883E+000 -0.62938932E-004
 0.52445292E+000  0.89563036E-004
 0.56678706E+000 -0.10871901E-003
 0.61283689E+000  0.11152287E-003
 0.00000000E+000  0.00000000E+000
 0.38913926E+000 -0.56800530E-004
 0.58750671E+000  0.13103641E-004
 0.65726667E+000  0.67517757E-004
 0.65165293E+000 -0.12269656E-003
 0.61368459E+000  0.14120577E-003
 0.56580710E+000 -0.12830612E-003
 0.52552038E+000  0.10454547E-003
 0.65231984E+000 -0.89287779E-004
 0.49413692E+000 -0.71025693E-004
 0.65680634E+000  0.36267829E-004
 0.58777827E+000  0.27712700E-004
 0.38900771E+000 -0.55699532E-004
 0.00000000E+000  0.00000000E+000
 0.47746592E+000  0.37018813E-004
 0.47040852E+000 -0.62594375E-006
 0.47746601E+000 -0.35766799E-004
 0.49413678E+000  0.69835732E-004
 0.52552056E+000 -0.10344955E-003
 0.56580686E+000  0.12734872E-003
 0.61368489E+000 -0.14044181E-003
 0.00000000E+000  0.00000000E+000
 0.38898375E+000  0.57747089E-004
 0.58783572E+000  0.85632209E-005
 0.65671151E+000 -0.10387104E-003
 0.65244692E+000  0.16336425E-003
 0.61270242E+000 -0.16667191E-003
 0.65165263E+000  0.12216700E-003
 0.56691622E+000  0.14978449E-003
 0.52433288E+000 -0.11317404E-003
 0.65726691E+000 -0.67238252E-004
 0.49536773E+000  0.79643090E-004
 0.58750653E+000 -0.13154955E-004
 0.38913938E+000  0.56711323E-004
 0.00000000E+000  0.00000000E+000
 0.47620964E+000 -0.38791858E-004
 0.47166901E+000  0.66306483E-006
 0.47620955E+000  0.37485235E-004
 0.49536791E+000 -0.78400051E-004
 0.52433270E+000  0.11203070E-003
 0.56691652E+000 -0.14879256E-003
 0.61270213E+000  0.16587898E-003
 0.65244722E+000 -0.16281567E-003
 0.00000000E+000  0.00000000E+000
 0.38917392E+000 -0.56902234E-004
 0.58743280E+000 -0.36509591E-004
 0.65739494E+000  0.15341081E-003
 0.65149772E+000 -0.20267575E-003
 0.61384248E+000  0.19661670E-003
 0.56566405E+000 -0.16274552E-003
 0.65671122E+000  0.10359405E-003
 0.52564609E+000  0.12479719E-003
 0.58783590E+000 -0.85220426E-005
 0.38898366E+000 -0.57643545E-004
 0.00000000E+000  0.00000000E+000
 0.49402007E+000 -0.82670980E-004
 0.47757050E+000  0.41801686E-004
 0.47030130E+000 -0.69767986E-006
 0.47757059E+000 -0.40443082E-004
 0.49401989E+000  0.81359918E-004
 0.52564632E+000 -0.12360367E-003
 0.56566375E+000  0.16171402E-003
 0.61384278E+000 -0.19579914E-003
 0.65149736E+000  0.20212735E-003
 0.65739524E+000 -0.15313804E-003
 0.00000000E+000  0.00000000E+000
 0.38893714E+000  0.53575757E-004
 0.58793926E+000  0.75429416E-004
 0.65654098E+000 -0.21709452E-003
 0.65263855E+000  0.23862162E-003
 0.61252015E+000 -0.22919801E-003
 0.56707018E+000  0.16403918E-003
 0.58743256E+000  0.36491495E-004
 0.38917404E+000  0.56780467E-004
 0.52420061E+000 -0.14107083E-003
 0.00000000E+000  0.00000000E+000
 0.49548801E+000  0.77283926E-004
 0.47610569E+000 -0.47295605E-004
 0.47177866E+000  0.72076488E-006
 0.47610560E+000  0.45860466E-004
 0.49548816E+000 -0.75928968E-004
 0.52420037E+000  0.13981777E-003
 0.56707048E+000 -0.16297172E-003
 0.61251980E+000  0.22835232E-003
 0.65263891E+000 -0.23805876E-003
 0.65654069E+000  0.21682691E-003
 0.58793950E+000 -0.75430158E-004
 0.00000000E+000  0.00000000E+000
 0.38922944E+000 -0.51731378E-004
 0.58726459E+000 -0.14994766E-003
 0.65760201E+000  0.26037608E-003
 0.65124207E+000 -0.31872681E-003
 0.38893705E+000 -0.53428484E-004
 0.61403447E+000  0.19611786E-003
 0.00000000E+000  0.00000000E+000
 0.56549900E+000 -0.22293462E-003
 0.52579426E+000  0.94808543E-004
 0.49392348E+000 -0.11492786E-003
 0.47770747E+000  0.26568875E-004
 0.47023028E+000 -0.76280690E-006
 0.47770756E+000 -0.25087687E-004
 0.49392330E+000  0.11349216E-003
 0.52579450E+000 -0.93526614E-004
 0.56549870E+000  0.22180749E-003
 0.61403483E+000 -0.19525991E-003
 0.65124171E+000  0.31814584E-003
 0.65760236E+000 -0.26012057E-003
 0.58726435E+000  0.14997101E-003
 0.38922956E+000  0.51551349E-004
 0.00000000E+000  0.00000000E+000
 0.00000000E+000  0.00000000E+000
 0.38880464E+000  0.24770954E-004
 0.58811020E+000  0.19991007E-003
 0.65617716E+000 -0.40838995E-003
 0.65288072E+000  0.25242156E-003
 0.61227524E+000 -0.31545522E-003
 0.56724327E+000  0.10376118E-003
 0.52409350E+000 -0.20216342E-003
 0.49566426E+000  0.27914873E-004
 0.47608041E+000 -0.70660782E-004
 0.47196522E+000  0.77440358E-006
 0.47608032E+000  0.69080284E-004
 0.49566447E+000 -0.26454370E-004
 0.52409327E+000  0.20079032E-003
 0.56724357E+000 -0.10262577E-003
 0.61227488E+000  0.31454587E-003
 0.65288108E+000 -0.25184819E-003
 0.65617680E+000  0.40814036E-003
 0.58811044E+000 -0.19997087E-003
 0.38880452E+000 -0.24567189E-004
 0.00000000E+000  0.00000000E+000
 0.00000000E+000  0.00000000E+000
 0.38932874E+000 -0.12956274E-004
 0.58683234E+000 -0.38422053E-003
 0.65792769E+000  0.38797062E-003
 0.65083539E+000 -0.39753963E-003
 0.61422520E+000  0.14254405E-003
 0.56533467E+000 -0.26943674E-003
 0.52599149E+000  0.40082988E-004
 0.49391269E+000 -0.13681818E-003
 0.47793540E+000  0.64783775E-005
 0.47027313E+000 -0.84576862E-006
 0.47793549E+000 -0.48959850E-005
 0.49391248E+000  0.13524199E-003
 0.52599179E+000 -0.38714577E-004
 0.56533432E+000  0.26820978E-003
 0.61422556E+000 -0.14164086E-003
 0.65083497E+000  0.39692848E-003
 0.65792804E+000 -0.38775161E-003
 0.58683210E+000  0.38430813E-003
 0.38932886E+000  0.12717669E-004
 0.00000000E+000  0.00000000E+000
 0.00000000E+000  0.00000000E+000
 0.38845926E+000 -0.69653207E-004
 0.58854854E+000  0.51695277E-003
 0.65551561E+000 -0.53024443E-003
 0.65316176E+000  0.24155530E-003
 0.61202484E+000 -0.26337456E-003
 0.56744635E+000  0.12636327E-003
 0.52403277E+000 -0.13165944E-003
 0.49587124E+000  0.51947135E-004
 0.47611075E+000 -0.41638289E-004
 0.47218224E+000  0.82554038E-006
 0.47611066E+000  0.39888785E-004
 0.49587148E+000 -0.50398601E-004
 0.52403253E+000  0.13015256E-003
 0.56744676E+000 -0.12516943E-003
 0.61202442E+000  0.26238345E-003
 0.65316224E+000 -0.24097561E-003
 0.65551525E+000  0.53001474E-003
 0.58854883E+000 -0.51709433E-003
 0.38845914E+000  0.69943089E-004
 0.00000000E+000  0.00000000E+000
 0.00000000E+000  0.00000000E+000
 0.38979706E+000  0.19891190E-003
 0.58588933E+000 -0.78988936E-003
 0.65858894E+000  0.46434791E-003
 0.65051376E+000 -0.17004874E-003
 0.61446857E+000  0.27289931E-003
 0.56518769E+000 -0.60485665E-004
 0.52613908E+000  0.14787577E-003
 0.49384889E+000 -0.10252230E-004
 0.47804647E+000  0.52987707E-004
 0.47022205E+000 -0.93671894E-006
 0.47804659E+000 -0.51323080E-004
 0.49384874E+000  0.85042183E-005
 0.52613937E+000 -0.14644127E-003
 0.56518739E+000  0.59139325E-004
 0.61446905E+000 -0.27196051E-003
 0.65051341E+000  0.16940046E-003
 0.65858936E+000 -0.46417987E-003
 0.58588910E+000  0.79006247E-003
 0.38979718E+000 -0.19925592E-003
 0.00000000E+000  0.00000000E+000
 0.00000000E+000  0.00000000E+000
 0.38733693E+000 -0.51742064E-003
 0.59002697E+000  0.10593362E-002
 0.65487039E+000 -0.15835736E-003
 0.65342348E+000  0.17296716E-003
 0.61180752E+000 -0.20414439E-003
 0.56763792E+000  0.63886516E-004
 0.52395665E+000 -0.50302602E-004
 0.49592748E+000  0.76499032E-004
 0.47596117E+000  0.73119263E-005
 0.47214731E+000  0.87676318E-006
 0.47596111E+000 -0.92446989E-005
 0.49592775E+000 -0.74876108E-004
 0.52395647E+000  0.48650854E-004
 0.56763833E+000 -0.62643812E-004
 0.61180722E+000  0.20306478E-003
 0.65342402E+000 -0.17238290E-003
 0.65487009E+000  0.15815287E-003
 0.59002727E+000 -0.10595889E-002
 0.38733690E+000  0.51782745E-003
 0.00000000E+000  0.00000000E+000
 0.00000000E+000  0.00000000E+000
 0.39236992E+000  0.11082445E-002
 0.58340007E+000 -0.13605401E-002
 0.65844410E+000 -0.11368995E-002
 0.65018451E+000 -0.12680056E-002
 0.61497271E+000 -0.80758071E-003
 0.56545275E+000 -0.65894424E-003
 0.52652341E+000 -0.35304031E-003
 0.49394637E+000 -0.24791512E-003
 0.47815772E+000 -0.90459056E-004
 0.47018459E+000 -0.10196099E-005
 0.47815784E+000  0.92247006E-004
 0.49394622E+000  0.24602419E-003
 0.52652376E+000  0.35455048E-003
 0.56545251E+000  0.65748841E-003
 0.61497324E+000  0.80855429E-003
 0.65018421E+000  0.12672983E-002
 0.65844464E+000  0.11370158E-002
 0.58339995E+000  0.13608451E-002
 0.39237004E+000 -0.11087424E-002
 0.00000000E+000  0.00000000E+000
 0.00000000E+000  0.00000000E+000
 0.37597343E+000 -0.36550934E-002
 0.58757978E+000 -0.38611064E-002
 0.65420627E+000 -0.37540341E-002
 0.65505826E+000 -0.34676194E-002
 0.61367529E+000 -0.29190469E-002
 0.56973499E+000 -0.22573899E-002
 0.52559012E+000 -0.15826899E-002
 0.49727898E+000 -0.96480222E-003
 0.47692078E+000 -0.45435386E-003
 0.47307041E+000  0.10271004E-005
 0.47692072E+000  0.45215609E-003
 0.49727928E+000  0.96667575E-003
 0.52558994E+000  0.15808838E-002
 0.56973552E+000  0.22587280E-002
 0.61367505E+000  0.29179272E-002
 0.65505886E+000  0.34682147E-002
 0.65420597E+000  0.37538167E-002
 0.58758020E+000  0.38606340E-002
 0.37597361E+000  0.36558881E-002
 0.00000000E+000  0.00000000E+000
 0.00000000E+000  0.00000000E+000
 0.41994506E+000 -0.13287570E-001
 0.60698121E+000 -0.13857344E-001
 0.67745482E+000 -0.13145072E-001
 0.66325616E+000 -0.10080316E-001
 0.62367397E+000 -0.74479794E-002
 0.57049620E+000 -0.47873593E-002
 0.52911180E+000 -0.29167027E-002
 0.49476706E+000 -0.15027633E-002
 0.47804844E+000 -0.63756672E-003
 0.46971368E+000 -0.97747454E-006
 0.47804859E+000  0.63932081E-003
 0.49476698E+000  0.15009511E-002
 0.52911221E+000  0.29182401E-002
 0.57049602E+000  0.47859004E-002
 0.62367457E+000  0.74490513E-002
 0.66325592E+000  0.10079578E-001
 0.67745530E+000  0.13145139E-001
 0.60698097E+000  0.13857717E-001
 0.41994458E+000  0.13286866E-001
 0.00000000E+000  0.00000000E+000
