 0.00000000E+000  0.00000000E+000
-0.29766643E-001 -0.00000000E+000
-0.56399956E-001 -0.00000000E+000
-0.79899936E-001 -0.00000000E+000
-0.10026658E+000 -0.00000000E+000
-0.11749990E+000 -0.00000000E+000
 0.00000000E+000  0.00000000E+000
-0.11795984E+000 -0.41099656E-001
-0.15031233E+000 -0.10870572E+000
-0.14352492E+000 -0.16522826E+000
-0.13159988E+000 -0.00000000E+000
-0.12448836E+000 -0.19721980E+000
-0.10536514E+000 -0.20303241E+000
-0.90924873E-001 -0.18640872E+000
-0.14256654E+000 -0.00000000E+000
-0.81585325E-001 -0.15287734E+000
 0.00000000E+000  0.00000000E+000
-0.21523793E+000 -0.12507669E-001
-0.26434382E+000 -0.34900043E-001
-0.23222231E+000 -0.61903148E-001
-0.16915445E+000 -0.84087647E-001
-0.10409779E+000 -0.95622062E-001
-0.49565311E-001 -0.94704300E-001
-0.15039987E+000 -0.00000000E+000
-0.76266214E-001 -0.10774112E+000
-0.93535622E-002 -0.82041427E-001
 0.00000000E+000  0.00000000E+000
-0.24121432E+000 -0.33124680E-002
-0.30555036E+000 -0.96883801E-002
-0.27120766E+000 -0.15357092E-001
-0.19584873E+000 -0.19783897E-001
 0.17245292E-001 -0.60017373E-001
-0.11269218E+000 -0.22565163E-001
-0.15509988E+000 -0.00000000E+000
-0.39227042E-001 -0.22870590E-001
-0.73669217E-001 -0.55534645E-001
 0.17998997E-001 -0.20471381E-001
 0.32140582E-001 -0.31599946E-001
 0.57656209E-001 -0.15385804E-001
 0.00000000E+000  0.00000000E+000
-0.15666654E+000 -0.00000000E+000
-0.24679273E+000  0.31649562E-003
-0.30965673E+000  0.23292668E-002
-0.27410221E+000  0.49005178E-002
-0.19689868E+000  0.76198438E-002
-0.11260092E+000  0.99154077E-002
-0.72900086E-001 -0.33983122E-008
-0.37781964E-001  0.10756595E-001
 0.20755879E-001  0.10009661E-001
 0.80676898E-001 -0.82617299E-002
 0.36906428E-001  0.70226309E-008
 0.61718363E-001  0.76443534E-002
-0.15509988E+000 -0.00000000E+000
-0.73669217E-001  0.55534653E-001
 0.00000000E+000  0.00000000E+000
 0.88200032E-001 -0.12010682E-007
-0.24204726E+000  0.17145128E-002
-0.30217817E+000  0.46635800E-002
-0.26470598E+000  0.88245356E-002
-0.18857195E+000  0.13118305E-001
-0.10734277E+000  0.16185188E-001
 0.85674054E-001  0.41395612E-002
-0.37534501E-001  0.17485151E-001
 0.15608541E-001  0.16238691E-001
 0.32140582E-001  0.31599931E-001
 0.51752790E-001  0.12573186E-001
 0.93533851E-001  0.15600068E-007
-0.15039987E+000 -0.00000000E+000
 0.80676898E-001  0.82617523E-002
-0.76266214E-001  0.10774111E+000
 0.72487793E-001  0.68402402E-002
 0.00000000E+000  0.00000000E+000
-0.23732180E+000  0.80270908E-003
-0.29404443E+000  0.30813850E-002
-0.25555583E+000  0.58524711E-002
-0.18016621E+000  0.85796182E-002
-0.10214897E+000  0.10933050E-001
 0.17245294E-001  0.60017388E-001
-0.37012901E-001  0.11895865E-001
 0.10489950E-001  0.11304477E-001
 0.85674047E-001 -0.41395914E-002
-0.14256654E+000 -0.00000000E+000
 0.79210750E-001 -0.18674965E-007
 0.41459832E-001  0.88188257E-002
 0.57656206E-001  0.15385780E-001
-0.81585325E-001  0.15287736E+000
-0.93535687E-002  0.82041412E-001
 0.58491442E-001  0.48599196E-002
-0.13159988E+000 -0.00000000E+000
 0.61718363E-001 -0.76443217E-002
 0.72487793E-001 -0.68402010E-002
 0.00000000E+000  0.00000000E+000
-0.23486343E+000  0.41085371E-003
-0.28990581E+000  0.90243184E-003
-0.25051921E+000  0.18214391E-002
-0.90924881E-001  0.18640871E+000
-0.17550228E+000  0.29838744E-002
-0.98805874E-001  0.38375076E-002
 0.17999004E-001  0.20471403E-001
-0.36329731E-001  0.44919028E-002
 0.79820184E-002  0.43551134E-002
 0.63902832E-001  0.22823066E-007
-0.49565304E-001  0.94704315E-001
-0.11749990E+000 -0.00000000E+000
 0.35686001E-001  0.35419561E-002
-0.10536514E+000  0.20303243E+000
 0.20755875E-001 -0.10009692E-001
-0.39227049E-001  0.22870568E-001
 0.51752790E-001 -0.12573224E-001
-0.10409781E+000  0.95622047E-001
-0.10026658E+000 -0.00000000E+000
 0.50395935E-001  0.19633965E-002
-0.12448837E+000  0.19721980E+000
 0.58491442E-001 -0.48599643E-002
-0.79899936E-001 -0.00000000E+000
-0.14352492E+000  0.16522826E+000
-0.16915443E+000  0.84087662E-001
-0.56399956E-001 -0.00000000E+000
-0.11269216E+000  0.22565186E-001
-0.15031234E+000  0.10870572E+000
-0.29766643E-001 -0.00000000E+000
 0.00000000E+000  0.00000000E+000
 0.00000000E+000  0.00000000E+000
-0.23446112E+000 -0.15186902E-003
-0.28906568E+000 -0.15434509E-003
-0.24929948E+000 -0.22279804E-003
-0.37781957E-001 -0.10756565E-001
-0.17403167E+000 -0.30094603E-003
-0.11795983E+000  0.41099660E-001
-0.97616158E-001 -0.76718373E-004
-0.23222233E+000  0.61903137E-001
 0.00000000E+000  0.00000000E+000
 0.54911408E-001 -0.25442709E-007
-0.35694010E-001  0.36481196E-005
 0.15608544E-001 -0.16238650E-001
-0.26434379E+000  0.34900050E-001
 0.75118555E-002  0.21663490E-003
-0.19584874E+000  0.19783878E-001
-0.21523794E+000  0.12507664E-001
 0.00000000E+000  0.00000000E+000
 0.41459832E-001 -0.88187791E-002
 0.34124452E-001  0.21785654E-003
-0.27120766E+000  0.15357108E-001
-0.11260093E+000 -0.99154366E-002
-0.30555036E+000  0.96883689E-002
-0.24121430E+000  0.33124738E-002
 0.50395932E-001 -0.19633439E-002
 0.00000000E+000  0.00000000E+000
-0.37534505E-001 -0.17485188E-001
 0.47873809E-001  0.16830899E-003
-0.19689866E+000 -0.76198168E-002
-0.27410224E+000 -0.49005374E-002
 0.10489949E-001 -0.11304523E-001
-0.30965673E+000 -0.23292524E-002
-0.10734276E+000 -0.16185151E-001
-0.24679274E+000 -0.31650089E-003
 0.52097145E-001  0.28943773E-007
 0.00000000E+000  0.00000000E+000
 0.00000000E+000  0.00000000E+000
-0.23484367E+000 -0.72878217E-004
-0.28953328E+000 -0.39257851E-003
-0.24970521E+000 -0.68683386E-003
-0.17424498E+000 -0.84463687E-003
-0.97490705E-001 -0.11024144E-002
 0.35686001E-001 -0.35420088E-002
-0.35448208E-001 -0.10237494E-002
-0.18857197E+000 -0.13118336E-001
 0.79271262E-002 -0.97364600E-003
-0.37012893E-001 -0.11895816E-001
-0.26470595E+000 -0.88245086E-002
 0.34435678E-001 -0.68041891E-003
-0.30217820E+000 -0.46635954E-002
 0.47873809E-001 -0.16836727E-003
-0.24204726E+000 -0.17145067E-002
 0.00000000E+000  0.00000000E+000
-0.10214897E+000 -0.10933095E-001
 0.79820184E-002 -0.43550580E-002
 0.48193223E-001 -0.38080595E-003
-0.18016618E+000 -0.85795773E-002
 0.34124448E-001 -0.21779624E-003
-0.25555586E+000 -0.58525013E-002
 0.52307497E-001 -0.32163203E-007
-0.36329735E-001 -0.44919578E-002
-0.29404440E+000 -0.30813657E-002
-0.23732182E+000 -0.80271455E-003
 0.00000000E+000  0.00000000E+000
 0.00000000E+000  0.00000000E+000
-0.23520752E+000 -0.97351869E-004
-0.29010111E+000 -0.18540202E-003
-0.25025489E+000 -0.32620737E-003
-0.17466530E+000 -0.56524004E-003
-0.97746089E-001 -0.57005591E-003
-0.35334069E-001 -0.70916162E-003
 0.82372138E-002 -0.58399920E-003
-0.98805867E-001 -0.38374538E-002
 0.75118565E-002 -0.21669719E-003
 0.48193223E-001  0.38087027E-003
 0.35089146E-001 -0.49585144E-003
-0.17550230E+000 -0.29839214E-002
 0.48902858E-001 -0.24893795E-003
-0.25051918E+000 -0.18214028E-002
-0.28990581E+000 -0.90245308E-003
-0.35694010E-001 -0.35852278E-005
-0.23486343E+000 -0.41084812E-003
 0.00000000E+000  0.00000000E+000
 0.34435678E-001  0.68035180E-003
 0.53175978E-001  0.34546214E-007
-0.97616165E-001  0.76656579E-004
 0.00000000E+000  0.00000000E+000
-0.23535534E+000 -0.94299605E-006
-0.29032436E+000 -0.49807254E-004
-0.25052818E+000 -0.12511033E-003
-0.17490677E+000 -0.82749742E-004
-0.97845017E-001 -0.22252131E-003
 0.79271253E-002  0.97371486E-003
-0.17403165E+000  0.30099961E-003
-0.35389419E-001 -0.13911853E-003
 0.84469476E-002 -0.20802881E-003
 0.48902858E-001  0.24886673E-003
-0.24929949E+000  0.22275529E-003
 0.35319872E-001 -0.11650523E-003
-0.28906568E+000  0.15436811E-003
-0.23446114E+000  0.15186271E-003
 0.00000000E+000  0.00000000E+000
-0.35448208E-001  0.10236774E-002
 0.49371805E-001 -0.86292056E-004
 0.35089146E-001  0.49592420E-003
-0.97490698E-001  0.11024825E-002
 0.53544372E-001 -0.37905600E-007
-0.17424499E+000  0.84457447E-003
 0.82372156E-002  0.58392196E-003
-0.24970519E+000  0.68687932E-003
-0.28953328E+000  0.39255144E-003
 0.00000000E+000  0.00000000E+000
-0.23539501E+000 -0.44194207E-005
-0.29038470E+000 -0.14717727E-004
-0.25058227E+000  0.28423741E-004
-0.17494347E+000 -0.62377999E-004
-0.23484365E+000  0.72884002E-004
-0.97919747E-001  0.41115785E-004
 0.49371805E-001  0.86368134E-004
 0.00000000E+000  0.00000000E+000
-0.35335488E-001 -0.58221965E-004
 0.84054470E-002  0.21151321E-004
-0.35334069E-001  0.70923962E-003
 0.35470888E-001 -0.30773921E-004
 0.35319875E-001  0.11642529E-003
 0.49379937E-001  0.50191720E-005
-0.97746096E-001  0.56997867E-003
-0.17466528E+000  0.56530779E-003
 0.53741734E-001  0.39509810E-007
-0.25025492E+000  0.32615580E-003
 0.84469448E-002  0.20811225E-003
-0.29010111E+000  0.18543169E-003
-0.23520754E+000  0.97346404E-004
 0.00000000E+000  0.00000000E+000
 0.49379941E-001 -0.51014462E-005
 0.00000000E+000  0.00000000E+000
-0.23538561E+000 -0.72356824E-005
-0.29039147E+000  0.19757851E-004
-0.25058451E+000 -0.41801878E-004
-0.35389419E-001  0.13903272E-003
-0.17496919E+000  0.49820373E-004
-0.97873985E-001 -0.55628821E-004
-0.35405009E-001  0.42026411E-004
 0.84980353E-002 -0.34376655E-004
 0.35373099E-001  0.19853621E-004
-0.97845010E-001  0.22260587E-003
 0.35470884E-001  0.30859195E-004
 0.49498200E-001 -0.10342463E-004
-0.17490679E+000  0.82675076E-004
-0.25052818E+000  0.12516781E-003
-0.29032438E+000  0.49777270E-004
-0.23535533E+000  0.95040547E-006
 0.84054516E-002 -0.21241907E-004
 0.00000000E+000  0.00000000E+000
 0.53634658E-001 -0.43985892E-007
-0.35335484E-001  0.58315232E-004
 0.49498196E-001  0.10427729E-004
 0.00000000E+000  0.00000000E+000
-0.23540274E+000  0.14973215E-004
-0.29038283E+000 -0.31040159E-004
-0.25060126E+000  0.42012623E-004
-0.17494058E+000 -0.57692072E-004
-0.97933746E-001  0.45983193E-004
-0.35319060E-001 -0.49788261E-004
-0.97919747E-001 -0.41207695E-004
 0.83906603E-002  0.24737526E-004
 0.35503666E-001 -0.24887063E-004
 0.35373102E-001 -0.19945766E-004
-0.17494346E+000  0.62459788E-004
-0.25058227E+000 -0.28485857E-004
 0.49363728E-001  0.64796549E-005
-0.29038468E+000  0.14751703E-004
-0.23539502E+000  0.44132730E-005
 0.00000000E+000  0.00000000E+000
 0.84980335E-002  0.34472122E-004
 0.53781040E-001  0.43362639E-007
-0.35405006E-001 -0.42127772E-004
 0.49363732E-001 -0.65744629E-005
-0.97873978E-001  0.55725886E-004
 0.00000000E+000  0.00000000E+000
-0.23538376E+000 -0.22458261E-004
-0.29040476E+000  0.38093450E-004
-0.25057816E+000 -0.49603899E-004
-0.17498750E+000  0.54078736E-004
-0.97862794E-001 -0.51407198E-004
-0.35424977E-001  0.39640239E-004
-0.17496921E+000 -0.49910973E-004
 0.85250902E-002 -0.30608978E-004
 0.35503659E-001  0.24981409E-004
-0.25058451E+000  0.41866562E-004
 0.35350844E-001  0.16587458E-004
-0.29039147E+000 -0.19797276E-004
-0.23538559E+000  0.72411221E-005
 0.00000000E+000  0.00000000E+000
 0.49537632E-001 -0.92294994E-005
 0.83906678E-002 -0.24841991E-004
 0.53611658E-001 -0.48983260E-007
-0.35319060E-001  0.49893424E-004
 0.49537628E-001  0.93228754E-005
-0.97933746E-001 -0.46091718E-004
-0.17494057E+000  0.57783887E-004
 0.00000000E+000  0.00000000E+000
-0.23540687E+000  0.29066668E-004
-0.29037460E+000 -0.44895190E-004
-0.25061631E+000  0.55312426E-004
-0.17492780E+000 -0.53968764E-004
-0.97955472E-001  0.50472834E-004
-0.25060129E+000 -0.42089159E-004
-0.35297106E-001 -0.36368281E-004
 0.35350847E-001 -0.16691979E-004
-0.29038283E+000  0.31074989E-004
 0.83623798E-002  0.27483385E-004
-0.23540276E+000 -0.14982558E-004
 0.00000000E+000  0.00000000E+000
 0.35539407E-001 -0.14554641E-004
 0.49332581E-001  0.76660917E-005
 0.85250856E-002  0.30715320E-004
 0.53823068E-001  0.47724100E-007
-0.35424973E-001 -0.39757265E-004
-0.97862787E-001  0.51516311E-004
 0.49332585E-001 -0.77689146E-005
-0.17498750E+000 -0.54183281E-004
-0.25057816E+000  0.49676189E-004
-0.29040479E+000 -0.38138499E-004
-0.23538374E+000  0.22463245E-004
 0.35539399E-001  0.14659061E-004
 0.00000000E+000  0.00000000E+000
 0.00000000E+000  0.00000000E+000
-0.23537853E+000 -0.34554104E-004
-0.29041293E+000  0.52550829E-004
-0.25056296E+000 -0.58156281E-004
-0.17500536E+000  0.56454297E-004
-0.97840063E-001 -0.45725613E-004
-0.35453960E-001  0.34958837E-004
 0.85577499E-002 -0.21409377E-004
 0.35311881E-001  0.13164561E-004
 0.83623882E-002 -0.27599649E-004
 0.49577649E-001 -0.51434099E-005
-0.35297110E-001  0.36485831E-004
 0.53569156E-001 -0.51438814E-007
-0.97955472E-001 -0.50596881E-004
 0.49577642E-001  0.52460873E-005
-0.17492778E+000  0.54072872E-004
-0.25061634E+000 -0.55397118E-004
-0.29037457E+000  0.44936543E-004
-0.23540689E+000 -0.29075130E-004
 0.00000000E+000  0.00000000E+000
 0.35311888E-001 -0.13275946E-004
 0.00000000E+000  0.00000000E+000
-0.23541069E+000  0.40032744E-004
-0.29036363E+000 -0.58510930E-004
-0.25063076E+000  0.62341641E-004
-0.17490580E+000 -0.55476579E-004
-0.97982123E-001  0.43298943E-004
-0.35263925E-001 -0.29142782E-004
 0.83227073E-002  0.17477466E-004
 0.35581719E-001 -0.87541729E-005
 0.85577424E-002  0.21528510E-004
 0.49284782E-001  0.35283298E-005
-0.35453956E-001 -0.35087345E-004
 0.53868643E-001  0.52313250E-007
-0.97840055E-001  0.45849497E-004
-0.17500537E+000 -0.56570243E-004
 0.49284785E-001 -0.36349840E-005
-0.25056293E+000  0.58240497E-004
-0.29041293E+000 -0.52599076E-004
-0.23537851E+000  0.34558965E-004
 0.00000000E+000  0.00000000E+000
 0.35581707E-001  0.88699007E-005
 0.00000000E+000  0.00000000E+000
-0.23537331E+000 -0.45137920E-004
-0.29042318E+000  0.64325715E-004
-0.25054541E+000 -0.65006999E-004
-0.17502932E+000  0.54459287E-004
-0.97808301E-001 -0.38522652E-004
-0.35492725E-001  0.23358603E-004
 0.86023593E-002 -0.11452350E-004
 0.83227176E-002 -0.17602133E-004
 0.35262081E-001  0.44928010E-005
 0.49629215E-001 -0.11056787E-005
-0.35263933E-001  0.29275608E-004
 0.53515546E-001 -0.52778787E-007
-0.97982123E-001 -0.43432293E-004
-0.17490579E+000  0.55595686E-004
-0.25063079E+000 -0.62432969E-004
 0.49629211E-001  0.12171113E-005
-0.29036360E+000  0.58557121E-004
-0.23541070E+000 -0.40038670E-004
 0.00000000E+000  0.00000000E+000
 0.35262092E-001 -0.46097138E-005
 0.00000000E+000  0.00000000E+000
-0.23541609E+000  0.50181879E-004
-0.29035180E+000 -0.69443369E-004
-0.25064983E+000  0.66948130E-004
-0.17487788E+000 -0.51736751E-004
-0.98018765E-001  0.32714029E-004
-0.35219244E-001 -0.15822502E-004
 0.86023481E-002  0.11583554E-004
 0.82714222E-002  0.47452490E-005
 0.35637266E-001  0.72256420E-006
-0.35492718E-001 -0.23495867E-004
 0.49226328E-001 -0.15082210E-005
-0.97808301E-001  0.38664144E-004
 0.53927585E-001  0.54834881E-007
-0.17502932E+000 -0.54585136E-004
-0.25054541E+000  0.65101834E-004
-0.29042321E+000 -0.64375402E-004
 0.49226336E-001  0.13979962E-005
-0.23537330E+000  0.45143398E-004
 0.00000000E+000  0.00000000E+000
 0.35637255E-001 -0.59981903E-006
 0.82714362E-002 -0.48776028E-005
 0.00000000E+000  0.00000000E+000
-0.23536705E+000 -0.55184213E-004
-0.29043617E+000  0.74064941E-004
-0.25052350E+000 -0.67523105E-004
-0.17506136E+000  0.47537883E-004
-0.97765818E-001 -0.24937042E-004
-0.35544123E-001  0.70565351E-005
 0.86603797E-002  0.32578709E-005
 0.35199604E-001 -0.64221621E-005
-0.35219252E-001  0.15969679E-004
 0.49693830E-001  0.45263564E-005
-0.98018757E-001 -0.32858315E-004
 0.53449969E-001 -0.53640018E-007
-0.17487786E+000  0.51870261E-004
-0.25064986E+000 -0.67044631E-004
-0.29035177E+000  0.69495756E-004
-0.23541611E+000 -0.50187401E-004
 0.00000000E+000  0.00000000E+000
 0.49693822E-001 -0.44118683E-005
 0.35199616E-001  0.62984208E-005
 0.86603648E-002 -0.31180329E-005
 0.00000000E+000  0.00000000E+000
-0.23542320E+000  0.60265494E-004
-0.29033690E+000 -0.78030017E-004
-0.25067502E+000  0.66620312E-004
-0.17484055E+000 -0.41251816E-004
-0.98067939E-001  0.15212785E-004
-0.35160362E-001  0.33737840E-005
 0.82058859E-002 -0.12241257E-004
-0.35544112E-001 -0.72048701E-005
 0.35706676E-001  0.12776665E-004
 0.49154922E-001 -0.77706990E-005
-0.97765818E-001  0.25090166E-004
-0.17506136E+000 -0.47674398E-004
 0.53999476E-001  0.55308266E-007
-0.25052347E+000  0.67629422E-004
-0.29043620E+000 -0.74117160E-004
-0.23536704E+000  0.55191965E-004
 0.00000000E+000  0.00000000E+000
 0.49154933E-001  0.76570004E-005
 0.35706665E-001 -0.12650421E-004
 0.82059036E-002  0.12100080E-004
 0.00000000E+000  0.00000000E+000
-0.23535877E+000 -0.65484455E-004
-0.29045349E+000  0.81226462E-004
-0.25049403E+000 -0.63842591E-004
-0.17510508E+000  0.32512871E-004
-0.97708664E-001 -0.32134878E-005
-0.35611432E-001 -0.15452862E-004
 0.87339524E-002  0.22195179E-004
-0.35160377E-001 -0.32174059E-005
 0.35122841E-001 -0.19618251E-004
-0.98067931E-001 -0.15371360E-004
 0.49771927E-001  0.11205287E-004
-0.17484055E+000  0.41395836E-004
-0.25067502E+000 -0.66727297E-004
 0.53371526E-001 -0.54935977E-007
-0.29033687E+000  0.78086290E-004
-0.23542322E+000 -0.60269056E-004
 0.00000000E+000  0.00000000E+000
 0.49771919E-001 -0.11090927E-004
 0.35122856E-001  0.19490838E-004
 0.87339337E-002 -0.22049936E-004
 0.00000000E+000  0.00000000E+000
-0.23543298E+000  0.70910544E-004
-0.29031643E+000 -0.83443890E-004
-0.25071007E+000  0.58716872E-004
-0.17478880E+000 -0.20860266E-004
-0.98134554E-001 -0.11287622E-004
-0.35611417E-001  0.15293047E-004
-0.35083532E-001  0.29142855E-004
 0.81236921E-002 -0.32958228E-004
 0.35790950E-001  0.26784093E-004
-0.97708672E-001  0.33782955E-005
 0.49070138E-001 -0.14735499E-004
-0.17510509E+000 -0.32664709E-004
-0.25049400E+000  0.63954073E-004
-0.29045349E+000 -0.81284801E-004
 0.54084315E-001  0.55481528E-007
-0.23535875E+000  0.65488347E-004
 0.00000000E+000  0.00000000E+000
 0.49070145E-001  0.14622763E-004
 0.35790931E-001 -0.26656180E-004
 0.81237116E-002  0.32809686E-004
-0.35083550E-001 -0.28977798E-004
 0.00000000E+000  0.00000000E+000
-0.23534707E+000 -0.76586729E-004
-0.29047819E+000  0.84348983E-004
-0.25045162E+000 -0.50630533E-004
-0.17516696E+000  0.57802640E-005
-0.97630724E-001  0.28447106E-004
-0.35698972E-001 -0.44270633E-004
 0.88252834E-002  0.44265289E-004
-0.98134547E-001  0.11117112E-004
 0.35031024E-001 -0.34034852E-004
-0.17478878E+000  0.21014009E-004
 0.49863196E-001  0.18250133E-004
-0.25071009E+000 -0.58835612E-004
-0.29031640E+000  0.83501472E-004
-0.23543299E+000 -0.70914451E-004
 0.00000000E+000  0.00000000E+000
 0.53280565E-001 -0.51411991E-007
 0.49863185E-001 -0.18134292E-004
 0.35031042E-001  0.33907257E-004
 0.88252583E-002 -0.44116419E-004
-0.35698954E-001  0.44100648E-004
 0.00000000E+000  0.00000000E+000
-0.23544728E+000  0.82534388E-004
-0.29028597E+000 -0.83442049E-004
-0.25076219E+000  0.38787246E-004
-0.17471402E+000  0.13280369E-004
-0.98226033E-001 -0.48244313E-004
-0.34984026E-001  0.60516977E-004
 0.80228606E-002 -0.55681859E-004
-0.97630731E-001 -0.28271355E-004
 0.35890154E-001  0.41109960E-004
-0.17516696E+000 -0.59423800E-005
 0.48972778E-001 -0.21573214E-004
-0.25045159E+000  0.50751244E-004
-0.29047819E+000 -0.84409846E-004
-0.23534706E+000  0.76589771E-004
 0.00000000E+000  0.00000000E+000
 0.54180908E-001  0.53953396E-007
 0.48972789E-001  0.21465602E-004
 0.35890132E-001 -0.40980285E-004
 0.80228867E-002  0.55531327E-004
-0.34984044E-001 -0.60344107E-004
 0.00000000E+000  0.00000000E+000
-0.23532921E+000 -0.88708009E-004
-0.29051652E+000  0.79975230E-004
-0.25038632E+000 -0.22124069E-004
-0.17525814E+000 -0.36778332E-004
-0.97523063E-001  0.70529000E-004
-0.98226018E-001  0.48061920E-004
-0.35811610E-001 -0.77177915E-004
 0.89357383E-002  0.66772896E-004
-0.17471402E+000 -0.13110041E-004
 0.34924793E-001 -0.47563240E-004
-0.25076222E+000 -0.38911461E-004
-0.29028594E+000  0.83504521E-004
 0.49965959E-001  0.24587987E-004
-0.23544730E+000 -0.82531958E-004
 0.00000000E+000  0.00000000E+000
 0.53178969E-001 -0.49242760E-007
 0.49965944E-001 -0.24478153E-004
 0.34924820E-001  0.47438461E-004
 0.89357104E-002 -0.66619722E-004
-0.35811584E-001  0.77001488E-004
-0.97523078E-001 -0.70339425E-004
 0.00000000E+000  0.00000000E+000
-0.23547011E+000  0.94972274E-004
-0.29023641E+000 -0.72767907E-004
-0.25084522E+000 -0.56322869E-006
-0.17460164E+000  0.65305743E-004
-0.98352648E-001 -0.94363014E-004
-0.34857295E-001  0.93692848E-004
 0.79029211E-002 -0.76545380E-004
-0.17525814E+000  0.36606619E-004
 0.36002550E-001  0.53238600E-004
-0.25038632E+000  0.22254140E-004
-0.29051655E+000 -0.80035119E-004
-0.23532919E+000  0.88706146E-004
 0.00000000E+000  0.00000000E+000
 0.48865288E-001 -0.26959114E-004
 0.54286342E-001  0.48864865E-007
 0.48865303E-001  0.26857131E-004
 0.36002524E-001 -0.53113086E-004
 0.79029528E-002  0.76391712E-004
-0.34857317E-001 -0.93512615E-004
-0.98352633E-001  0.94171249E-004
 0.00000000E+000  0.00000000E+000
-0.23529911E+000 -0.10094334E-003
-0.29058188E+000  0.60271759E-004
-0.25027835E+000  0.31301427E-004
-0.17539720E+000 -0.98215641E-004
-0.97374282E-001  0.11933910E-003
-0.17460162E+000 -0.65125408E-004
-0.35952836E-001 -0.10792591E-003
 0.90642394E-002  0.85071347E-004
-0.25084525E+000  0.43088317E-006
 0.34806817E-001 -0.57042576E-004
-0.29023638E+000  0.72830014E-004
-0.23547013E+000 -0.94968461E-004
 0.00000000E+000  0.00000000E+000
 0.50076436E-001  0.28832682E-004
 0.53070254E-001 -0.45011315E-007
 0.50076417E-001 -0.28733613E-004
 0.34806847E-001  0.56921729E-004
 0.90642059E-002 -0.84919709E-004
-0.35952806E-001  0.10774208E-003
-0.97374297E-001 -0.11913877E-003
-0.17539721E+000  0.98030170E-004
 0.00000000E+000  0.00000000E+000
-0.23551064E+000  0.10598726E-003
-0.29014682E+000 -0.39457652E-004
-0.25098678E+000 -0.71045484E-004
-0.17442762E+000  0.13621831E-003
-0.98525486E-001 -0.14135881E-003
-0.34702014E-001  0.12054733E-003
-0.25027835E+000 -0.31165298E-004
 0.77665196E-002 -0.89549757E-004
-0.29058191E+000 -0.60331061E-004
-0.23529909E+000  0.10093433E-003
 0.00000000E+000  0.00000000E+000
 0.36123618E-001  0.60028000E-004
 0.48751853E-001 -0.29178972E-004
 0.54395385E-001  0.40747394E-007
 0.48751872E-001  0.29086164E-004
 0.36123588E-001 -0.59912446E-004
 0.77665578E-002  0.89395740E-004
-0.34702043E-001 -0.12035921E-003
-0.98525471E-001  0.14115362E-003
-0.17442761E+000 -0.13602839E-003
-0.25098678E+000  0.70908739E-004
 0.00000000E+000  0.00000000E+000
-0.23524157E+000 -0.10842007E-003
-0.29070588E+000  0.73095702E-005
-0.25008672E+000  0.12388742E-003
-0.17561224E+000 -0.17334356E-003
-0.97175098E-001  0.16170338E-003
-0.36120556E-001 -0.12531962E-003
-0.29014679E+000  0.39516366E-004
-0.23551067E+000 -0.10597664E-003
 0.92053534E-002  0.93429516E-004
 0.00000000E+000  0.00000000E+000
 0.34682046E-001 -0.58491092E-004
 0.50188001E-001  0.29553661E-004
 0.52959218E-001 -0.38559541E-007
 0.50187982E-001 -0.29472124E-004
 0.34682083E-001  0.58375309E-004
 0.92053143E-002 -0.93280745E-004
-0.36120519E-001  0.12512943E-003
-0.97175113E-001 -0.16149495E-003
-0.17561225E+000  0.17314530E-003
-0.25008669E+000 -0.12374497E-003
-0.29070591E+000 -0.73671526E-005
 0.00000000E+000  0.00000000E+000
-0.23559328E+000  0.10590275E-003
-0.28996431E+000  0.44521344E-004
-0.25124332E+000 -0.18605988E-003
-0.17415922E+000  0.21128858E-003
-0.23524156E+000  0.10840220E-003
-0.98746635E-001 -0.16743375E-003
 0.00000000E+000  0.00000000E+000
-0.34525040E-001  0.13067090E-003
 0.76201893E-002 -0.86961081E-004
 0.36244750E-001  0.58779060E-004
 0.48637613E-001 -0.26177713E-004
 0.54499555E-001  0.29708690E-007
 0.48637639E-001  0.26095098E-004
 0.36244716E-001 -0.58679415E-004
 0.76202377E-002  0.86808235E-004
-0.34525074E-001 -0.13048206E-003
-0.98746612E-001  0.16721461E-003
-0.17415921E+000 -0.21108808E-003
-0.25124335E+000  0.18591585E-003
-0.28996428E+000 -0.44468055E-004
-0.23559330E+000 -0.10588503E-003
 0.00000000E+000  0.00000000E+000
 0.00000000E+000  0.00000000E+000
-0.23511244E+000 -0.91957139E-004
-0.29097238E+000 -0.12178724E-003
-0.24972614E+000  0.26411560E-003
-0.17592674E+000 -0.22385947E-003
-0.96932165E-001  0.17626496E-003
-0.36302927E-001 -0.11281904E-003
 0.93476474E-002  0.90389796E-004
 0.34555759E-001 -0.44409905E-004
 0.50287775E-001  0.27737556E-004
 0.52847720E-001 -0.33095997E-007
 0.50287753E-001 -0.27683297E-004
 0.34555803E-001  0.44302745E-004
 0.93476027E-002 -0.90252840E-004
-0.36302883E-001  0.11261941E-003
-0.96932180E-001 -0.17604678E-003
-0.17592675E+000  0.22364640E-003
-0.24972610E+000 -0.26397191E-003
-0.29097241E+000  0.12173462E-003
-0.23511241E+000  0.91931768E-004
 0.00000000E+000  0.00000000E+000
 0.00000000E+000  0.00000000E+000
-0.23579420E+000  0.58417845E-004
-0.28952848E+000  0.25371409E-003
-0.25170943E+000 -0.31187053E-003
-0.17378099E+000  0.24467936E-003
-0.98985470E-001 -0.12823731E-003
-0.34341581E-001  0.13425384E-003
 0.74690147E-002 -0.44481035E-004
 0.36342542E-001  0.59753747E-004
 0.48515141E-001 -0.10326371E-004
 0.54573856E-001  0.13434672E-007
 0.48515167E-001  0.10254632E-004
 0.36342501E-001 -0.59680794E-004
 0.74690752E-002  0.44325144E-004
-0.34341614E-001 -0.13407372E-003
-0.98985441E-001  0.12800264E-003
-0.17378096E+000 -0.24446865E-003
-0.25170946E+000  0.31171547E-003
-0.28952842E+000 -0.25366534E-003
-0.23579421E+000 -0.58383058E-004
 0.00000000E+000  0.00000000E+000
 0.00000000E+000  0.00000000E+000
-0.23472765E+000  0.34017462E-004
-0.29161649E+000 -0.41385088E-003
-0.24904592E+000  0.37432840E-003
-0.17625626E+000 -0.12665867E-003
-0.96662238E-001  0.20250196E-003
-0.36486886E-001 -0.41721586E-005
 0.94514125E-002  0.12074898E-003
 0.34400664E-001  0.24771907E-004
 0.50317622E-001  0.43598982E-004
 0.52691403E-001 -0.28885571E-007
 0.50317600E-001 -0.43585288E-004
 0.34400723E-001 -0.24879649E-004
 0.94513716E-002 -0.12064107E-003
-0.36486819E-001  0.39578662E-005
-0.96662230E-001 -0.20228770E-003
-0.17625625E+000  0.12642100E-003
-0.24904583E+000 -0.37417918E-003
-0.29161652E+000  0.41380495E-003
-0.23472762E+000 -0.34058040E-004
 0.00000000E+000  0.00000000E+000
 0.00000000E+000  0.00000000E+000
-0.23646545E+000 -0.22672697E-003
-0.28828018E+000  0.71000173E-003
-0.25228893E+000 -0.90666850E-004
-0.17333504E+000  0.31286268E-003
-0.99175617E-001  0.12092498E-003
-0.34182813E-001  0.26472492E-003
 0.72719124E-002  0.17647750E-003
 0.36295443E-001  0.16922988E-003
 0.48249676E-001  0.76590600E-004
 0.54453667E-001 -0.18668071E-007
 0.48249717E-001 -0.76669573E-004
 0.36295413E-001 -0.16920879E-003
 0.72720027E-002 -0.17664510E-003
-0.34182827E-001 -0.26457133E-003
-0.99175557E-001 -0.12118856E-003
-0.17333498E+000 -0.31264979E-003
-0.25228896E+000  0.90491164E-004
-0.28828006E+000 -0.70996588E-003
-0.23646546E+000  0.22677595E-003
 0.00000000E+000  0.00000000E+000
 0.00000000E+000  0.00000000E+000
-0.23285555E+000  0.88727340E-003
-0.29306489E+000 -0.44471220E-003
-0.24815677E+000  0.24953373E-003
-0.17625284E+000  0.32194022E-003
-0.96229329E-001  0.57840370E-003
-0.36636784E-001  0.61343156E-003
 0.93273641E-002  0.55853102E-003
 0.33923704E-001  0.42432796E-003
 0.49882221E-001  0.22311316E-003
 0.52085544E-001 -0.43231622E-007
 0.49882207E-001 -0.22317944E-003
 0.33923789E-001 -0.42445719E-003
 0.93273473E-002 -0.55848329E-003
-0.36636669E-001 -0.61367469E-003
-0.96229277E-001 -0.57820801E-003
-0.17625279E+000 -0.32220414E-003
-0.24815663E+000 -0.24937139E-003
-0.29306495E+000  0.44466633E-003
-0.23285549E+000 -0.88733417E-003
 0.00000000E+000  0.00000000E+000
 0.00000000E+000  0.00000000E+000
-0.24033266E+000 -0.23399151E-002
-0.28517356E+000 -0.50203682E-003
-0.25068360E+000  0.67794061E-003
-0.17154096E+000  0.13545211E-002
-0.98715752E-001  0.17948520E-002
-0.34202087E-001  0.16719190E-002
 0.64723398E-002  0.14958727E-002
 0.35243663E-001  0.10237019E-002
 0.46860255E-001  0.55382464E-003
 0.53098633E-001 -0.67565927E-007
 0.46860311E-001 -0.55394438E-003
 0.35243649E-001 -0.10237767E-002
 0.64724776E-002 -0.14960845E-002
-0.34202050E-001 -0.16718417E-002
-0.98715618E-001 -0.17951736E-002
-0.17154081E+000 -0.13543367E-002
-0.25068357E+000 -0.67815516E-003
-0.28517338E+000  0.50207943E-003
-0.24033270E+000  0.23399859E-002
 0.00000000E+000  0.00000000E+000
 0.00000000E+000  0.00000000E+000
-0.21929387E+000  0.61091906E-002
-0.28890088E+000  0.84370793E-002
-0.24661250E+000  0.69922199E-002
-0.17746108E+000  0.58752470E-002
-0.98127923E-001  0.40495088E-002
-0.39169862E-001  0.30668429E-002
 0.68216272E-002  0.19139839E-002
 0.31373202E-001  0.12442510E-002
 0.47495715E-001  0.54059154E-003
 0.49662977E-001 -0.71045633E-007
 0.47495704E-001 -0.54075295E-003
 0.31373307E-001 -0.12444410E-002
 0.68216361E-002 -0.19140493E-002
-0.39169691E-001 -0.30671681E-002
-0.98127804E-001 -0.40494306E-002
-0.17746095E+000 -0.58756433E-002
-0.24661225E+000 -0.69921687E-002
-0.28890085E+000 -0.84372302E-002
-0.21929369E+000 -0.61092982E-002
 0.00000000E+000  0.00000000E+000
 0.00000000E+000  0.00000000E+000
-0.26440060E+000  0.10434228E-001
-0.30538448E+000  0.88769504E-002
-0.26594778E+000  0.96065793E-002
-0.18076200E+000  0.72007318E-002
-0.10365971E+000  0.56773014E-002
-0.36223977E-001  0.32693049E-002
 0.58297961E-002  0.19646664E-002
 0.35206645E-001  0.80017012E-003
 0.46917326E-001  0.35122071E-003
 0.53205713E-001 -0.11252492E-006
 0.46917378E-001 -0.35135707E-003
 0.35206627E-001 -0.80034835E-003
 0.58299382E-002 -0.19649199E-002
-0.36223936E-001 -0.32693238E-002
-0.10365954E+000 -0.56777414E-002
-0.18076181E+000 -0.72006550E-002
-0.26594769E+000 -0.96069741E-002
-0.30538418E+000 -0.88770389E-002
-0.26440060E+000 -0.10434291E-001
 0.00000000E+000  0.00000000E+000
