 0.00000000E+000  0.00000000E+000
-0.87429583E-001 -0.00000000E+000
-0.16565604E+000 -0.00000000E+000
-0.23467940E+000 -0.00000000E+000
-0.29449963E+000 -0.00000000E+000
-0.34511676E+000 -0.00000000E+000
 0.00000000E+000  0.00000000E+000
-0.23834260E-001  0.28576273E-001
-0.11366768E+000  0.69604158E-001
-0.21409499E+000  0.93495242E-001
-0.38653078E+000 -0.00000000E+000
-0.30194339E+000  0.96750579E-001
-0.36986929E+000  0.84846630E-001
-0.41750562E+000  0.65408088E-001
-0.41874167E+000 -0.00000000E+000
-0.44815304E+000  0.44816412E-001
 0.00000000E+000  0.00000000E+000
 0.25217449E-001  0.11315923E-002
-0.68747974E-001  0.23217326E-002
-0.19437393E+000  0.62938462E-002
-0.30783203E+000  0.90599432E-002
-0.39200493E+000  0.96052018E-002
-0.44588321E+000  0.84861973E-002
-0.44174945E+000 -0.00000000E+000
-0.46608129E+000  0.26768632E-001
-0.47544723E+000  0.64754574E-002
 0.00000000E+000  0.00000000E+000
 0.25949232E-001  0.91277691E-003
-0.62520183E-001  0.33426804E-002
-0.18787054E+000  0.47761532E-002
-0.30398133E+000  0.63578626E-002
-0.48897299E+000  0.42345216E-002
-0.39182561E+000  0.75523150E-002
-0.45555412E+000 -0.00000000E+000
-0.44852814E+000  0.77740573E-002
-0.47513487E+000  0.12225572E-001
-0.47996702E+000  0.69749723E-002
-0.49380341E+000  0.20576114E-002
-0.49448877E+000  0.52207433E-002
 0.00000000E+000  0.00000000E+000
-0.46015569E+000 -0.00000000E+000
 0.31301569E-001  0.16573772E-002
-0.58554172E-001  0.32304972E-002
-0.18462176E+000  0.48462189E-002
-0.30195093E+000  0.54267495E-002
-0.39122384E+000  0.53125699E-002
-0.47785893E+000  0.14062566E-007
-0.44976589E+000  0.48496513E-002
-0.48287674E+000  0.39963014E-002
-0.49978473E+000  0.27955656E-002
-0.49484676E+000 -0.28382057E-007
-0.49880412E+000  0.28698067E-002
-0.45555412E+000 -0.00000000E+000
-0.47513487E+000 -0.12225597E-001
 0.00000000E+000  0.00000000E+000
-0.50095379E+000  0.49647386E-007
 0.33686857E-001 -0.23586588E-004
-0.55270053E-001  0.81123795E-003
-0.18263299E+000  0.13548337E-002
-0.30117306E+000  0.19133382E-002
-0.39155134E+000  0.22192494E-002
-0.50499266E+000  0.14919606E-002
-0.45084023E+000  0.21276392E-002
-0.48467272E+000  0.18393091E-002
-0.49380338E+000 -0.20575511E-002
-0.50111967E+000  0.13224934E-002
-0.50648313E+000 -0.67537975E-007
-0.44174945E+000 -0.00000000E+000
-0.49978479E+000 -0.27956587E-002
-0.46608123E+000 -0.26768604E-001
-0.50768142E+000  0.70144078E-003
 0.00000000E+000  0.00000000E+000
 0.34419823E-001  0.36359508E-003
-0.54263368E-001  0.35392108E-003
-0.18148419E+000  0.70220488E-003
-0.30045360E+000  0.89850893E-003
-0.39132785E+000  0.97363238E-003
-0.48897302E+000 -0.42345775E-002
-0.45120266E+000  0.10135205E-002
-0.48541653E+000  0.85937057E-003
-0.50499260E+000 -0.14918298E-002
-0.41874167E+000 -0.00000000E+000
-0.50927990E+000  0.86997474E-007
-0.50220578E+000  0.64737704E-003
-0.49448871E+000 -0.52206590E-002
-0.44815310E+000 -0.44816438E-001
-0.47544714E+000 -0.64754048E-002
-0.50893163E+000  0.33389613E-003
-0.38653078E+000 -0.00000000E+000
-0.49880421E+000 -0.28699333E-002
-0.50768148E+000 -0.70161651E-003
 0.00000000E+000  0.00000000E+000
 0.34825645E-001 -0.78185054E-004
-0.53810723E-001  0.25128806E-003
-0.18112142E+000  0.25052964E-003
-0.41750556E+000 -0.65408065E-001
-0.30019423E+000  0.30674698E-003
-0.39127743E+000  0.35885561E-003
-0.47996714E+000 -0.69750542E-002
-0.45130220E+000  0.29821187E-003
-0.48574796E+000  0.28270154E-003
-0.51062095E+000 -0.11159581E-006
-0.44588330E+000 -0.84862420E-002
-0.34511676E+000 -0.00000000E+000
-0.50263756E+000  0.18819744E-003
-0.36986935E+000 -0.84846645E-001
-0.48287659E+000 -0.39961920E-002
-0.44852799E+000 -0.77739842E-002
-0.50111955E+000 -0.13223321E-002
-0.39200481E+000 -0.96051571E-002
-0.29449963E+000 -0.00000000E+000
-0.50948852E+000  0.10775466E-003
-0.30194333E+000 -0.96750557E-001
-0.50893157E+000 -0.33368024E-003
-0.23467940E+000 -0.00000000E+000
-0.21409504E+000 -0.93495257E-001
-0.30783212E+000 -0.90599767E-002
-0.16565604E+000 -0.00000000E+000
-0.39182576E+000 -0.75523774E-002
-0.11366765E+000 -0.69604136E-001
-0.87429583E-001 -0.00000000E+000
 0.00000000E+000  0.00000000E+000
 0.00000000E+000  0.00000000E+000
 0.34929323E-001  0.10704359E-003
-0.53610846E-001 -0.53460218E-004
-0.18100495E+000  0.61889353E-004
-0.44976606E+000 -0.48497500E-002
-0.30013489E+000  0.81449914E-004
-0.23834282E-001 -0.28576292E-001
-0.39126089E+000  0.57201243E-004
-0.19437384E+000 -0.62938132E-002
 0.00000000E+000  0.00000000E+000
-0.51116800E+000  0.13551816E-006
-0.45137959E+000  0.96278752E-004
-0.48467287E+000 -0.18394582E-002
-0.68748034E-001 -0.23217620E-002
-0.48581919E+000  0.50100483E-004
-0.30398118E+000 -0.63578127E-002
 0.25217490E-001 -0.11315622E-002
 0.00000000E+000  0.00000000E+000
-0.50220596E+000 -0.64758205E-003
-0.50279611E+000  0.54692220E-004
-0.18787066E+000 -0.47762026E-002
-0.39122363E+000 -0.53124898E-002
-0.62520086E-001 -0.33426398E-002
 0.25949185E-001 -0.91281149E-003
-0.50948858E+000 -0.10801520E-003
 0.00000000E+000  0.00000000E+000
-0.45084002E+000 -0.21275179E-002
-0.50961679E+000  0.19317623E-004
-0.30195114E+000 -0.54268217E-002
-0.18462160E+000 -0.48461686E-002
-0.48541635E+000 -0.85919309E-003
-0.58554287E-001 -0.32305470E-002
-0.39155155E+000 -0.22193517E-002
 0.31301628E-001 -0.16573392E-002
-0.51135867E+000 -0.15699620E-006
 0.00000000E+000  0.00000000E+000
 0.00000000E+000  0.00000000E+000
 0.34959726E-001 -0.63533421E-004
-0.53623568E-001  0.78067525E-004
-0.18094763E+000 -0.17750845E-005
-0.30012083E+000  0.52029071E-006
-0.39127275E+000  0.29850363E-004
-0.50263738E+000 -0.18795343E-003
-0.45136785E+000 -0.12543756E-004
-0.30117282E+000 -0.19132597E-002
-0.48587325E+000  0.19419076E-004
-0.45120289E+000 -0.10136740E-002
-0.18263319E+000 -0.13548991E-002
-0.50279009E+000 -0.63971847E-005
-0.55269923E-001 -0.81118888E-003
-0.50961673E+000 -0.19005095E-004
 0.33686790E-001  0.23545755E-004
 0.00000000E+000  0.00000000E+000
-0.39132758E+000 -0.97350851E-003
-0.48574817E+000 -0.28291909E-003
-0.50968414E+000  0.57540564E-005
-0.30045387E+000 -0.89859956E-003
-0.50279629E+000 -0.54979329E-004
-0.18148399E+000 -0.70213904E-003
-0.51135295E+000  0.18429076E-006
-0.45130193E+000 -0.29803032E-003
-0.54263520E-001 -0.35397332E-003
 0.34419894E-001 -0.36355556E-003
 0.00000000E+000  0.00000000E+000
 0.00000000E+000  0.00000000E+000
 0.34969527E-001  0.50319242E-004
-0.53582925E-001 -0.47083762E-004
-0.18098255E+000  0.19484285E-004
-0.30011910E+000  0.12821931E-004
-0.39126628E+000 -0.18500291E-004
-0.45140030E+000  0.17443409E-004
-0.48583826E+000 -0.16563284E-004
-0.39127773E+000 -0.35899618E-003
-0.48581895E+000 -0.49846908E-004
-0.50968426E+000 -0.61110827E-005
-0.50283575E+000  0.71970721E-005
-0.30019396E+000 -0.30664156E-003
-0.50963652E+000 -0.55416294E-005
-0.18112166E+000 -0.25059736E-003
-0.53810566E-001 -0.25123939E-003
-0.45137989E+000 -0.96487914E-004
 0.34825563E-001  0.78148645E-004
 0.00000000E+000  0.00000000E+000
-0.50278991E+000  0.67279315E-005
-0.51140230E+000 -0.20906603E-006
-0.39126059E+000 -0.57039702E-004
 0.00000000E+000  0.00000000E+000
 0.34970704E-001 -0.32622821E-004
-0.53603060E-001  0.38256301E-004
-0.18095470E+000 -0.99133185E-005
-0.30012938E+000 -0.58484420E-005
-0.39128494E+000  0.20235005E-004
-0.48587349E+000 -0.19712137E-004
-0.30013516E+000 -0.81560152E-004
-0.45136967E+000 -0.15475283E-004
-0.48588651E+000  0.14904944E-004
-0.50963640E+000  0.59480939E-005
-0.18100471E+000 -0.61817292E-004
-0.50277936E+000 -0.80211766E-005
-0.53611021E-001  0.53415038E-004
 0.34929409E-001 -0.10701040E-003
 0.00000000E+000  0.00000000E+000
-0.45136752E+000  0.12783050E-004
-0.50969737E+000  0.43891709E-005
-0.50283598E+000 -0.75774610E-005
-0.39127308E+000 -0.30032602E-004
-0.51133728E+000  0.23280614E-006
-0.30012053E+000 -0.40028956E-006
-0.48583796E+000  0.16888108E-004
-0.18094788E+000  0.17043869E-005
-0.53623382E-001 -0.78029872E-004
 0.00000000E+000  0.00000000E+000
 0.34979410E-001  0.22460975E-004
-0.53588490E-001 -0.21771254E-004
-0.18097171E+000  0.11149112E-004
-0.30012726E+000  0.11423186E-004
 0.34959636E-001  0.63504019E-004
-0.39126515E+000 -0.12965333E-004
-0.50969749E+000 -0.48502797E-005
 0.00000000E+000  0.00000000E+000
-0.45141312E+000  0.18431835E-004
-0.48582932E+000 -0.10217225E-004
-0.45140063E+000 -0.17717564E-004
-0.50285172E+000  0.92767577E-005
-0.50277918E+000  0.84438852E-005
-0.50962048E+000 -0.28655324E-005
-0.39126592E+000  0.18695764E-004
-0.30011940E+000 -0.12953312E-004
-0.51141941E+000 -0.26471801E-006
-0.18098227E+000 -0.19418346E-004
-0.48588678E+000 -0.15280564E-004
-0.53583111E-001  0.47047560E-004
 0.34969624E-001 -0.50297989E-004
 0.00000000E+000  0.00000000E+000
-0.50962036E+000  0.33756548E-005
 0.00000000E+000  0.00000000E+000
 0.34972101E-001 -0.11810610E-004
-0.53588230E-001  0.14024761E-004
-0.18096418E+000 -0.18437215E-005
-0.45136934E+000  0.15765501E-004
-0.30011981E+000 -0.66973643E-005
-0.39129570E+000  0.16180443E-004
-0.45136031E+000 -0.11945523E-004
-0.48590406E+000  0.12037713E-004
-0.50276476E+000 -0.53995677E-005
-0.39128533E+000 -0.20456038E-004
-0.50285196E+000 -0.97486563E-005
-0.50971972E+000  0.34795623E-005
-0.30012902E+000  0.59780327E-005
-0.18095499E+000  0.98441132E-005
-0.53602855E-001 -0.38231639E-004
 0.34970607E-001  0.32599371E-004
-0.48582902E+000  0.10621000E-004
 0.00000000E+000  0.00000000E+000
-0.51132023E+000  0.29024837E-006
-0.45141348E+000 -0.18764130E-004
-0.50971984E+000 -0.40422919E-005
 0.00000000E+000  0.00000000E+000
 0.34985430E-001  0.44312732E-005
-0.53595069E-001 -0.37462225E-005
-0.18095660E+000 -0.11867483E-005
-0.30013883E+000  0.99980516E-005
-0.39125260E+000 -0.11470063E-004
-0.45142942E+000  0.12326921E-004
-0.39126476E+000  0.13194291E-004
-0.48581314E+000 -0.73611922E-005
-0.50287497E+000  0.53794660E-005
-0.50276452E+000  0.59182902E-005
-0.30012762E+000 -0.11563412E-004
-0.18097139E+000 -0.11087893E-004
-0.50960046E+000 -0.16510780E-005
-0.53588699E-001  0.21749970E-004
 0.34979514E-001 -0.22445283E-004
 0.00000000E+000  0.00000000E+000
-0.48590439E+000 -0.12489938E-004
-0.51144558E+000 -0.31638469E-006
-0.45135992E+000  0.12298981E-004
-0.50960034E+000  0.22725007E-005
-0.39129608E+000 -0.16427140E-004
 0.00000000E+000  0.00000000E+000
 0.34969739E-001  0.23222278E-005
-0.53577303E-001 -0.34156928E-005
-0.18097622E+000  0.69216562E-005
-0.30010408E+000 -0.94155093E-005
-0.39131170E+000  0.10975330E-004
-0.45134219E+000 -0.80506097E-005
-0.30011942E+000  0.68429990E-005
-0.48592680E+000  0.57662732E-005
-0.50287520E+000 -0.59484013E-005
-0.18096449E+000  0.17922434E-005
-0.50274175E+000 -0.23390139E-005
-0.53588017E-001 -0.14008751E-004
 0.34971993E-001  0.11802950E-004
 0.00000000E+000  0.00000000E+000
-0.50974774E+000  0.95429993E-006
-0.48581281E+000  0.78481034E-005
-0.51129496E+000  0.34948999E-006
-0.45142984E+000 -0.12703227E-004
-0.50974786E+000 -0.16258277E-005
-0.39125218E+000  0.11740497E-004
-0.30013921E+000 -0.10137845E-004
 0.00000000E+000  0.00000000E+000
 0.34989573E-001 -0.77915583E-005
-0.53603574E-001  0.10341476E-004
-0.18094196E+000 -0.10654511E-004
-0.30015534E+000  0.10460338E-004
-0.39123311E+000 -0.80760728E-005
-0.18095627E+000  0.12452709E-005
-0.45145192E+000  0.53297944E-005
-0.50274145E+000  0.29575096E-005
-0.53595297E-001  0.37545919E-005
-0.48578804E+000 -0.18342290E-005
 0.34985534E-001 -0.44194534E-005
 0.00000000E+000  0.00000000E+000
-0.50290405E+000  0.17809783E-006
-0.50957107E+000  0.67463031E-006
-0.48592716E+000 -0.62872327E-005
-0.51147735E+000 -0.37332512E-006
-0.45134177E+000  0.84690118E-005
-0.39131215E+000 -0.11245096E-004
-0.50957089E+000  0.60205465E-007
-0.30010366E+000  0.95699469E-005
-0.18097656E+000 -0.69577918E-005
-0.53577069E-001  0.34151958E-005
 0.34969627E-001 -0.23155248E-005
-0.50290435E+000 -0.83982087E-006
 0.00000000E+000  0.00000000E+000
 0.00000000E+000  0.00000000E+000
 0.34966174E-001  0.12637837E-004
-0.53567670E-001 -0.15957924E-004
-0.18099056E+000  0.14266074E-004
-0.30008494E+000 -0.10148577E-004
-0.39133414E+000  0.56198005E-005
-0.45131611E+000 -0.10287933E-005
-0.48595672E+000 -0.18317261E-005
-0.50270944E+000  0.30662531E-005
-0.48578768E+000  0.24050250E-005
-0.50978267E+000 -0.22165631E-005
-0.45145237E+000 -0.57595520E-005
-0.51126021E+000  0.40780832E-006
-0.39123266E+000  0.83741488E-005
-0.50978279E+000  0.14321767E-005
-0.30015575E+000 -0.10600776E-004
-0.18094161E+000  0.10693129E-004
-0.53603813E-001 -0.10317046E-004
 0.34989688E-001  0.77846652E-005
 0.00000000E+000  0.00000000E+000
-0.50270915E+000 -0.23456343E-005
 0.00000000E+000  0.00000000E+000
 0.34993678E-001 -0.16867210E-004
-0.53613048E-001  0.20877283E-004
-0.18092629E+000 -0.16736628E-004
-0.30017617E+000  0.94391880E-005
-0.39120730E+000 -0.19833219E-005
-0.45148214E+000 -0.35560753E-005
-0.48575407E+000  0.65464128E-005
-0.50294137E+000 -0.64880423E-005
-0.48595711E+000  0.12312968E-005
-0.50953221E+000  0.41584871E-005
-0.45131567E+000  0.14967826E-005
-0.51151728E+000 -0.43796094E-006
-0.39133462E+000 -0.59141148E-005
-0.30008450E+000  0.10298689E-004
-0.50953203E+000 -0.33100754E-005
-0.18099091E+000 -0.14284902E-004
-0.53567416E-001  0.15930914E-004
 0.34966055E-001 -0.12624005E-004
 0.00000000E+000  0.00000000E+000
-0.50294166E+000  0.57216466E-005
 0.00000000E+000  0.00000000E+000
 0.34961879E-001  0.20690717E-004
-0.53557466E-001 -0.24924753E-004
-0.18100722E+000  0.18331285E-004
-0.30006164E+000 -0.75606558E-005
-0.39136338E+000 -0.24333132E-005
-0.45128163E+000  0.92041491E-005
-0.48599553E+000 -0.11790426E-004
-0.48575365E+000 -0.58973478E-005
-0.50266760E+000  0.10531296E-004
-0.50982654E+000 -0.62796034E-005
-0.45148262E+000  0.30757860E-005
-0.51121586E+000  0.46828429E-006
-0.39120680E+000  0.22976471E-005
-0.30017665E+000 -0.95766818E-005
-0.18092590E+000  0.16749247E-004
-0.50982671E+000  0.53726193E-005
-0.53613297E-001 -0.20828438E-004
 0.34993804E-001  0.16849360E-004
 0.00000000E+000  0.00000000E+000
-0.50266724E+000 -0.97089932E-005
 0.00000000E+000  0.00000000E+000
 0.34998446E-001 -0.24186689E-004
-0.53623966E-001  0.28216350E-004
-0.18090797E+000 -0.18757053E-004
-0.30020216E+000  0.44867401E-005
-0.39117413E+000  0.80992886E-005
-0.45152133E+000 -0.15781693E-004
-0.48599597E+000  0.11108973E-004
-0.48571026E+000  0.17862077E-004
-0.50298839E+000 -0.15014399E-004
-0.45128113E+000 -0.86905556E-005
-0.50948339E+000  0.86688778E-005
-0.39136391E+000  0.21136374E-005
-0.51156675E+000 -0.50022970E-006
-0.30006116E+000  0.76949763E-005
-0.18100760E+000 -0.18327064E-004
-0.53557194E-001  0.24868537E-004
-0.50948321E+000 -0.76983551E-005
 0.34961752E-001 -0.20665824E-004
 0.00000000E+000  0.00000000E+000
-0.50298869E+000  0.14140324E-004
-0.48570981E+000 -0.17135233E-004
 0.00000000E+000  0.00000000E+000
 0.34956581E-001  0.27442425E-004
-0.53545415E-001 -0.30718550E-004
-0.18102754E+000  0.17896401E-004
-0.30003234E+000  0.10556733E-006
-0.39140099E+000 -0.15155162E-004
-0.45123729E+000  0.23502168E-004
-0.48604473E+000 -0.24695904E-004
-0.50261527E+000  0.20001176E-004
-0.45152187E+000  0.15246411E-004
-0.50988060E+000 -0.11277315E-004
-0.39117360E+000 -0.77769045E-005
-0.51116132E+000  0.53486377E-006
-0.30020266E+000 -0.46150175E-005
-0.18090756E+000  0.18734133E-004
-0.53624242E-001 -0.28143729E-004
 0.34998584E-001  0.24153501E-004
 0.00000000E+000  0.00000000E+000
-0.50988078E+000  0.10244116E-004
-0.50261491E+000 -0.19070852E-004
-0.48604521E+000  0.23932085E-004
 0.00000000E+000  0.00000000E+000
 0.35004444E-001 -0.30528110E-004
-0.53637459E-001  0.32376217E-004
-0.18088500E+000 -0.15525296E-004
-0.30023545E+000 -0.64743589E-005
-0.39113140E+000  0.23818956E-004
-0.45157140E+000 -0.32421441E-004
-0.48565530E+000  0.32335276E-004
-0.45123675E+000 -0.22942636E-004
-0.50304627E+000 -0.25417191E-004
-0.50942409E+000  0.14082068E-004
-0.39140155E+000  0.14819112E-004
-0.30003181E+000  0.10158748E-007
-0.51162648E+000 -0.56913972E-006
-0.18102797E+000 -0.17859963E-004
-0.53545121E-001  0.30627285E-004
 0.34956440E-001 -0.27399537E-004
 0.00000000E+000  0.00000000E+000
-0.50942391E+000 -0.12982244E-004
-0.50304663E+000  0.24435084E-004
-0.48565480E+000 -0.31526837E-004
 0.00000000E+000  0.00000000E+000
 0.34949712E-001  0.33498290E-004
-0.53529992E-001 -0.33086835E-004
-0.18105390E+000  0.11375756E-004
-0.29999408E+000  0.14921040E-004
-0.39144980E+000 -0.34267879E-004
-0.45118081E+000  0.42609302E-004
-0.48610591E+000 -0.40688246E-004
-0.45157200E+000  0.31837109E-004
-0.50255173E+000  0.31223607E-004
-0.39113077E+000 -0.23482696E-004
-0.50994521E+000 -0.17026673E-004
-0.30023601E+000  0.63647498E-005
-0.18088455E+000  0.15467492E-004
-0.51109641E+000  0.60328432E-006
-0.53637772E-001 -0.32266656E-004
 0.35004593E-001  0.30471999E-004
 0.00000000E+000  0.00000000E+000
-0.50994539E+000  0.15861389E-004
-0.50255131E+000 -0.30179207E-004
-0.48610642E+000  0.39835969E-004
 0.00000000E+000  0.00000000E+000
 0.35012461E-001 -0.36389126E-004
-0.53655412E-001  0.32687854E-004
-0.18085420E+000 -0.50710773E-005
-0.30027994E+000 -0.25745999E-004
-0.39107540E+000  0.46682325E-004
-0.45118018E+000 -0.41999905E-004
-0.45163509E+000 -0.53996624E-004
-0.48558756E+000  0.49690544E-004
-0.50311565E+000 -0.37255173E-004
-0.39145043E+000  0.33925909E-004
-0.50935429E+000  0.20059249E-004
-0.29999345E+000 -0.14828384E-004
-0.18105439E+000 -0.11298729E-004
-0.53529664E-001  0.32951495E-004
-0.51169639E+000 -0.64241731E-006
 0.34949555E-001 -0.33422547E-004
 0.00000000E+000  0.00000000E+000
-0.50935405E+000 -0.18828113E-004
-0.50311601E+000  0.36150831E-004
-0.48558703E+000 -0.48795092E-004
-0.45163571E+000  0.53364379E-004
 0.00000000E+000  0.00000000E+000
 0.34940224E-001  0.39261150E-004
-0.53508616E-001 -0.30860381E-004
-0.18109044E+000 -0.37694301E-005
-0.29994177E+000  0.39420971E-004
-0.39151430E+000 -0.60996226E-004
-0.45110911E+000  0.66621956E-004
-0.48618057E+000 -0.58974106E-004
-0.39107471E+000 -0.46333920E-004
-0.50247663E+000  0.43479562E-004
-0.30028057E+000  0.25663193E-004
-0.51002013E+000 -0.23020318E-004
-0.18085369E+000  0.49633749E-005
-0.53655754E-001 -0.32520441E-004
 0.35012621E-001  0.36302535E-004
 0.00000000E+000  0.00000000E+000
-0.51102185E+000  0.67323401E-006
-0.51002031E+000  0.21710244E-004
-0.50247615E+000 -0.42319883E-004
-0.48618116E+000  0.58032066E-004
-0.45110842E+000 -0.65963635E-004
 0.00000000E+000  0.00000000E+000
 0.35024058E-001 -0.42037019E-004
-0.53681172E-001  0.27405501E-004
-0.18080981E+000  0.16084950E-004
-0.30034190E+000 -0.55797681E-004
-0.39100065E+000  0.77797441E-004
-0.45171570E+000 -0.79552548E-004
-0.48550587E+000  0.68854889E-004
-0.39151501E+000  0.60643222E-004
-0.50319659E+000 -0.49197209E-004
-0.29994109E+000 -0.39354625E-004
-0.50927501E+000  0.26044059E-004
-0.18109098E+000  0.39045489E-005
-0.53508248E-001  0.30659601E-004
 0.34940060E-001 -0.39147169E-004
 0.00000000E+000  0.00000000E+000
-0.51177561E+000 -0.72014194E-006
-0.50927478E+000 -0.24669481E-004
-0.50319701E+000  0.47968631E-004
-0.48550528E+000 -0.67872038E-004
-0.45171642E+000  0.78865501E-004
 0.00000000E+000  0.00000000E+000
 0.34926217E-001  0.44863809E-004
-0.53476113E-001 -0.21225800E-004
-0.18114461E+000 -0.31753912E-004
-0.29986700E+000  0.76381096E-004
-0.39160090E+000 -0.95504023E-004
-0.39099988E+000 -0.77444805E-004
-0.45101886E+000  0.93717419E-004
-0.48626980E+000 -0.77753422E-004
-0.30034261E+000  0.55751323E-004
-0.50239086E+000  0.54992669E-004
-0.18080924E+000 -0.16257006E-004
-0.53681556E-001 -0.27174592E-004
-0.51010400E+000 -0.28558941E-004
 0.35024233E-001  0.41903047E-004
 0.00000000E+000  0.00000000E+000
-0.51093947E+000  0.75072688E-006
-0.51010429E+000  0.27099429E-004
-0.50239038E+000 -0.53701787E-004
-0.48627045E+000  0.76717064E-004
-0.45101809E+000 -0.93006907E-004
-0.39160174E+000  0.95147377E-004
 0.00000000E+000  0.00000000E+000
 0.35042420E-001 -0.47348697E-004
-0.53721785E-001  0.12249569E-004
-0.18074126E+000  0.53035444E-004
-0.30043226E+000 -0.99727934E-004
-0.39090010E+000  0.11530990E-003
-0.45181664E+000 -0.10692806E-003
-0.48541015E+000  0.86326464E-004
-0.29986625E+000 -0.76357209E-004
-0.50328749E+000 -0.59743240E-004
-0.18114522E+000  0.31963776E-004
-0.53475715E-001  0.20946297E-004
 0.34926030E-001 -0.44710021E-004
 0.00000000E+000  0.00000000E+000
-0.50918829E+000  0.30800139E-004
-0.51186144E+000 -0.79973477E-006
-0.50918799E+000 -0.29268416E-004
-0.50328797E+000  0.58383109E-004
-0.48540946E+000 -0.85240135E-004
-0.45181748E+000  0.10619436E-003
-0.39089924E+000 -0.11495708E-003
 0.00000000E+000  0.00000000E+000
 0.34903291E-001  0.49832025E-004
-0.53421720E-001  0.23509830E-005
-0.18123112E+000 -0.78652592E-004
-0.29975605E+000  0.12872986E-003
-0.39171746E+000 -0.13304076E-003
-0.30043303E+000  0.99730677E-004
-0.45090755E+000  0.12143984E-003
-0.48637261E+000 -0.91228175E-004
-0.18074063E+000 -0.53287931E-004
-0.50229728E+000  0.65159700E-004
-0.53722210E-001 -0.11926540E-004
 0.35042606E-001  0.47167097E-004
 0.00000000E+000  0.00000000E+000
-0.51019448E+000 -0.31520714E-004
-0.51085311E+000  0.84109780E-006
-0.51019477E+000  0.29904282E-004
-0.50229674E+000 -0.63730738E-004
-0.48637336E+000  0.90093628E-004
-0.45090669E+000 -0.12067575E-003
-0.39171838E+000  0.13269169E-003
-0.29975521E+000 -0.12876263E-003
 0.00000000E+000  0.00000000E+000
 0.35076335E-001 -0.50193593E-004
-0.53790844E-001 -0.20052468E-004
-0.18062503E+000  0.11741313E-003
-0.30056577E+000 -0.15258514E-003
-0.39076468E+000  0.15875144E-003
-0.45193904E+000 -0.12444068E-003
-0.18123179E+000  0.78956778E-004
-0.48530456E+000  0.10213913E-003
-0.53421285E-001 -0.27214223E-005
 0.34903094E-001 -0.49613659E-004
 0.00000000E+000  0.00000000E+000
-0.50338774E+000 -0.63211853E-004
-0.50910156E+000  0.34620625E-004
-0.51195377E+000 -0.88657293E-006
-0.50910127E+000 -0.32915715E-004
-0.50338828E+000  0.61709048E-004
-0.48530378E+000 -0.10095076E-003
-0.45193997E+000  0.12365874E-003
-0.39076372E+000 -0.15841115E-003
-0.30056664E+000  0.15265286E-003
-0.18062433E+000 -0.11776947E-003
 0.00000000E+000  0.00000000E+000
 0.34861892E-001  0.50359438E-004
-0.53318727E-001  0.51514547E-004
-0.18137937E+000 -0.15836728E-003
-0.29959091E+000  0.18365896E-003
-0.39187434E+000 -0.17678685E-003
-0.45078143E+000  0.12498014E-003
-0.53791303E-001  0.20478877E-004
 0.35076536E-001  0.49948408E-004
-0.48648732E+000 -0.11224676E-003
 0.00000000E+000  0.00000000E+000
-0.50219935E+000  0.56239885E-004
-0.51028239E+000 -0.39214701E-004
-0.51076185E+000  0.93170797E-006
-0.51028269E+000  0.37413785E-004
-0.50219875E+000 -0.54663567E-004
-0.48648816E+000  0.11101220E-003
-0.45078045E+000 -0.12417520E-003
-0.39187535E+000  0.17645253E-003
-0.29959002E+000 -0.18376884E-003
-0.18138012E+000  0.15878342E-003
-0.53318247E-001 -0.52001982E-004
 0.00000000E+000  0.00000000E+000
 0.35132445E-001 -0.52000435E-004
-0.53951807E-001 -0.11368036E-003
-0.18045049E+000  0.17342505E-003
-0.30079653E+000 -0.26783588E-003
 0.34861676E-001 -0.50069247E-004
-0.39061743E+000  0.11232799E-003
 0.00000000E+000  0.00000000E+000
-0.45208582E+000 -0.21013325E-003
-0.48518070E+000  0.30157618E-004
-0.50345379E+000 -0.11926247E-003
-0.50896543E+000  0.23245800E-005
-0.51198577E+000 -0.99403439E-006
-0.50896507E+000 -0.44547400E-006
-0.50345444E+000  0.11759424E-003
-0.48517978E+000 -0.28876549E-004
-0.45208686E+000  0.20930739E-003
-0.39061635E+000 -0.11201719E-003
-0.30079749E+000  0.26798382E-003
-0.18044972E+000 -0.17390545E-003
-0.53952313E-001  0.11423492E-003
 0.35132665E-001  0.51676270E-004
 0.00000000E+000  0.00000000E+000
 0.00000000E+000  0.00000000E+000
 0.34707907E-001  0.16035022E-004
-0.53196888E-001  0.10500197E-003
-0.18175172E+000 -0.36421793E-003
-0.29944208E+000  0.94266462E-004
-0.39211407E+000 -0.34693596E-003
-0.45064246E+000 -0.41615101E-004
-0.48653978E+000 -0.25218666E-003
-0.50198805E+000 -0.57447941E-004
-0.51021271E+000 -0.93383387E-004
-0.51051193E+000  0.10266426E-005
-0.51021307E+000  0.91363493E-004
-0.50198733E+000  0.59155216E-004
-0.48654073E+000  0.25082597E-003
-0.45064136E+000  0.42436800E-004
-0.39211514E+000  0.34662729E-003
-0.29944106E+000 -0.94471601E-004
-0.18175253E+000  0.36475781E-003
-0.53196351E-001 -0.10562525E-003
 0.34707680E-001 -0.15657966E-004
 0.00000000E+000  0.00000000E+000
 0.00000000E+000  0.00000000E+000
 0.35162918E-001 -0.37228812E-004
-0.54478995E-001 -0.33982566E-003
-0.18030205E+000  0.16775001E-003
-0.30123114E+000 -0.43603553E-003
-0.39049765E+000 -0.55897024E-004
-0.45218464E+000 -0.33934522E-003
-0.48492622E+000 -0.95031486E-004
-0.50332063E+000 -0.18138960E-003
-0.50861662E+000 -0.38029760E-004
-0.51177781E+000 -0.11245729E-005
-0.50861620E+000  0.40075214E-004
-0.50332134E+000  0.17952026E-003
-0.48492518E+000  0.96372066E-004
-0.45218575E+000  0.33846800E-003
-0.39049649E+000  0.56146080E-004
-0.30123215E+000  0.43626318E-003
-0.18030118E+000 -0.16837759E-003
-0.54479539E-001  0.34051493E-003
 0.35163167E-001  0.36795874E-004
 0.00000000E+000  0.00000000E+000
 0.00000000E+000  0.00000000E+000
 0.34236643E-001 -0.74638504E-004
-0.52942592E-001  0.32309311E-003
-0.18244400E+000 -0.43002641E-003
-0.29928550E+000  0.11713853E-003
-0.39229610E+000 -0.21823389E-003
-0.45038738E+000  0.74453389E-004
-0.48645365E+000 -0.69691108E-004
-0.50168824E+000  0.63164698E-004
-0.51006174E+000 -0.80024592E-005
-0.51021975E+000  0.11146887E-005
-0.51006209E+000  0.57124370E-005
-0.50168740E+000 -0.61340491E-004
-0.48645466E+000  0.68194080E-004
-0.45038616E+000 -0.73658156E-004
-0.39229723E+000  0.21794390E-003
-0.29928436E+000 -0.11747227E-003
-0.18244484E+000  0.43069070E-003
-0.52941981E-001 -0.32388343E-003
 0.34236405E-001  0.75119765E-004
 0.00000000E+000  0.00000000E+000
 0.00000000E+000  0.00000000E+000
 0.35627719E-001  0.21245965E-003
-0.55383928E-001 -0.44755690E-003
-0.17975541E+000  0.46696438E-003
-0.30136120E+000  0.13065752E-003
-0.39013531E+000  0.51619374E-003
-0.45216941E+000  0.36007622E-003
-0.48479032E+000  0.46488732E-003
-0.50346052E+000  0.28219685E-003
-0.50870686E+000  0.18895856E-003
-0.51202368E+000 -0.12723145E-005
-0.50870639E+000 -0.18674513E-003
-0.50346130E+000 -0.28428010E-003
-0.48478913E+000 -0.46350288E-003
-0.45217055E+000 -0.36100790E-003
-0.39013400E+000 -0.51604968E-003
-0.30136218E+000 -0.13034924E-003
-0.17975443E+000 -0.46774937E-003
-0.55384486E-001  0.44840047E-003
 0.35628020E-001 -0.21301500E-003
 0.00000000E+000  0.00000000E+000
 0.00000000E+000  0.00000000E+000
 0.33273804E-001 -0.39996462E-003
-0.51164753E-001  0.90022594E-003
-0.18225437E+000  0.48467505E-003
-0.29852193E+000  0.96343690E-003
-0.39217880E+000  0.86227321E-003
-0.45029237E+000  0.96688262E-003
-0.48686483E+000  0.77494734E-003
-0.50224930E+000  0.62284572E-003
-0.51093459E+000  0.31081013E-003
-0.51106113E+000  0.12210709E-005
-0.51093506E+000 -0.31336100E-003
-0.50224834E+000 -0.62088447E-003
-0.48686587E+000 -0.77656103E-003
-0.45029097E+000 -0.96611992E-003
-0.39217993E+000 -0.86251483E-003
-0.29852068E+000 -0.96392049E-003
-0.18225517E+000 -0.48388942E-003
-0.51164001E-001 -0.90118392E-003
 0.33273585E-001  0.40057522E-003
 0.00000000E+000  0.00000000E+000
 0.00000000E+000  0.00000000E+000
 0.39274085E-001  0.13531843E-002
-0.56100085E-001  0.32754708E-003
-0.17905563E+000  0.50774932E-003
-0.30114573E+000  0.46874737E-003
-0.38968312E+000  0.70492830E-003
-0.45232936E+000  0.84955774E-003
-0.48533317E+000  0.88637007E-003
-0.50460326E+000  0.70562236E-003
-0.51009738E+000  0.39903033E-003
-0.51360899E+000 -0.14031668E-005
-0.51009684E+000 -0.39659536E-003
-0.50460410E+000 -0.70787954E-003
-0.48533183E+000 -0.88491005E-003
-0.45233049E+000 -0.85047853E-003
-0.38968166E+000 -0.70485542E-003
-0.30114668E+000 -0.46827492E-003
-0.17905455E+000 -0.50867575E-003
-0.56100651E-001 -0.32656700E-003
 0.39274465E-001 -0.13538795E-002
 0.00000000E+000  0.00000000E+000
 0.00000000E+000  0.00000000E+000
 0.24655148E-001 -0.30538029E-002
-0.51014538E-001 -0.40698321E-002
-0.17953839E+000 -0.30997255E-002
-0.29432258E+000 -0.15572865E-002
-0.38903570E+000  0.15295778E-003
-0.44862011E+000  0.10304740E-002
-0.48694479E+000  0.13650455E-002
-0.50352382E+000  0.11230447E-002
-0.51301962E+000  0.63374813E-003
-0.51334035E+000  0.13649936E-005
-0.51302009E+000 -0.63654070E-003
-0.50352275E+000 -0.11208687E-002
-0.48694586E+000 -0.13667675E-002
-0.44861853E+000 -0.10296213E-002
-0.38903671E+000 -0.15314065E-003
-0.29432111E+000  0.15568470E-002
-0.17953906E+000  0.31007900E-002
-0.51013734E-001  0.40688691E-002
 0.24654831E-001  0.30548078E-002
 0.00000000E+000  0.00000000E+000
 0.00000000E+000  0.00000000E+000
 0.59463541E-001 -0.81982109E-002
-0.40348295E-001 -0.64211105E-002
-0.16851286E+000 -0.43947850E-002
-0.29649502E+000 -0.14548847E-002
-0.38926830E+000 -0.23063049E-003
-0.45469823E+000  0.64486544E-003
-0.48891752E+000  0.67980709E-003
-0.50856018E+000  0.62489270E-003
-0.51398622E+000  0.31669976E-003
-0.51746505E+000 -0.15185113E-005
-0.51398563E+000 -0.31402683E-003
-0.50856101E+000 -0.62726350E-003
-0.48891603E+000 -0.67830557E-003
-0.45469927E+000 -0.64565113E-003
-0.38926658E+000  0.23055834E-003
-0.29649567E+000  0.14557325E-002
-0.16851139E+000  0.43937689E-002
-0.40348388E-001  0.64225140E-002
 0.59463910E-001  0.81979995E-002
 0.00000000E+000  0.00000000E+000
