 0.00000000E+000  0.00000000E+000
-0.21489642E+000 -0.00000000E+000
-0.40717217E+000 -0.00000000E+000
-0.57682722E+000 -0.00000000E+000
-0.72386163E+000 -0.00000000E+000
-0.84827536E+000 -0.00000000E+000
 0.00000000E+000  0.00000000E+000
-0.29250943E+000 -0.36295477E-001
-0.51652580E+000 -0.10622549E+000
-0.67661827E+000 -0.18161205E+000
-0.95006841E+000 -0.00000000E+000
-0.78806710E+000 -0.24081750E+000
-0.86393815E+000 -0.27122008E+000
-0.91544228E+000 -0.26800754E+000
-0.10292407E+001 -0.00000000E+000
-0.95025163E+000 -0.23263588E+000
 0.00000000E+000  0.00000000E+000
-0.38981944E+000 -0.14402174E-001
-0.64231365E+000 -0.37614248E-001
-0.78980630E+000 -0.60188326E-001
-0.86067205E+000 -0.76914064E-001
-0.88382983E+000 -0.84461838E-001
-0.88118690E+000 -0.82220003E-001
-0.10857924E+001 -0.00000000E+000
-0.97305524E+000 -0.17066666E+000
-0.86832433E+000 -0.70786885E-001
 0.00000000E+000  0.00000000E+000
-0.41777932E+000 -0.20975426E-002
-0.68454205E+000 -0.85546430E-002
-0.82688176E+000 -0.17874332E-001
-0.88420921E+000 -0.25346219E-001
-0.85458081E+000 -0.51774520E-001
-0.88963347E+000 -0.29499977E-001
-0.11197234E+001 -0.00000000E+000
-0.86966580E+000 -0.29465243E-001
-0.98616021E+000 -0.90088948E-001
-0.84168839E+000 -0.25685645E-001
-0.84492826E+000 -0.27305955E-001
-0.81641852E+000 -0.18836429E-001
 0.00000000E+000  0.00000000E+000
-0.11310337E+001 -0.00000000E+000
-0.42518189E+000 -0.16335359E-002
-0.69582587E+000 -0.30648887E-002
-0.83878064E+000 -0.32649186E-002
-0.89170879E+000 -0.36237698E-002
-0.89178353E+000 -0.33589901E-002
-0.99045467E+000  0.37494867E-007
-0.86624497E+000 -0.29031429E-002
-0.83382606E+000 -0.21730260E-002
-0.79953128E+000 -0.99444640E-002
-0.84152781E+000 -0.79784435E-007
-0.80533319E+000 -0.14420646E-002
-0.11197234E+001 -0.00000000E+000
-0.98616021E+000  0.90088874E-001
 0.00000000E+000  0.00000000E+000
-0.79365003E+000  0.12845356E-006
-0.42685762E+000  0.51857397E-003
-0.69674372E+000  0.86229067E-003
-0.83822041E+000  0.92683435E-003
-0.89088696E+000  0.18141156E-002
-0.89044064E+000  0.24014299E-002
-0.78655606E+000 -0.69658819E-003
-0.86517328E+000  0.29021652E-002
-0.83321100E+000  0.28353526E-002
-0.84492820E+000  0.27306113E-001
-0.80541419E+000  0.23135819E-002
-0.78006315E+000 -0.17936703E-006
-0.10857924E+001 -0.00000000E+000
-0.79953140E+000  0.99442107E-002
-0.97305518E+000  0.17066673E+000
-0.78718173E+000  0.12805932E-002
 0.00000000E+000  0.00000000E+000
-0.42588678E+000 -0.39555990E-004
-0.69564372E+000  0.39087398E-003
-0.83689403E+000  0.12721171E-002
-0.88909429E+000  0.16349501E-002
-0.88926619E+000  0.22306290E-002
-0.85458093E+000  0.51774367E-001
-0.86472725E+000  0.23729212E-002
-0.83396685E+000  0.23144036E-002
-0.78655594E+000  0.69694325E-003
-0.10292407E+001 -0.00000000E+000
-0.78089463E+000  0.23201258E-006
-0.80726534E+000  0.17884369E-002
-0.81641840E+000  0.18836677E-001
-0.95025169E+000  0.23263582E+000
-0.86832416E+000  0.70787034E-001
-0.78987807E+000  0.10009838E-002
-0.95006841E+000 -0.00000000E+000
-0.80533337E+000  0.14417212E-002
-0.78718185E+000 -0.12810534E-002
 0.00000000E+000  0.00000000E+000
-0.42567265E+000  0.11853333E-003
-0.69470310E+000  0.18168406E-003
-0.83576357E+000  0.12633428E-003
-0.91544216E+000  0.26800760E+000
-0.88828712E+000  0.53020857E-003
-0.88855004E+000  0.54251152E-003
-0.84168857E+000  0.25685410E-001
-0.86463171E+000  0.72553730E-003
-0.83440911E+000  0.64271473E-003
-0.78389537E+000 -0.28676541E-006
-0.88118714E+000  0.82219861E-001
-0.84827536E+000 -0.00000000E+000
-0.80836069E+000  0.55440160E-003
-0.86393827E+000  0.27122002E+000
-0.83382582E+000  0.21733541E-002
-0.86966550E+000  0.29465466E-001
-0.80541402E+000 -0.23131372E-002
-0.88382959E+000  0.84461972E-001
-0.72386163E+000 -0.00000000E+000
-0.79140353E+000  0.29132294E-003
-0.78806698E+000  0.24081756E+000
-0.78987795E+000 -0.10004175E-002
-0.57682722E+000 -0.00000000E+000
-0.67661839E+000  0.18161199E+000
-0.86067229E+000  0.76913945E-001
-0.40717217E+000 -0.00000000E+000
-0.88963377E+000  0.29499774E-001
-0.51652568E+000  0.10622555E+000
-0.21489642E+000 -0.00000000E+000
 0.00000000E+000  0.00000000E+000
 0.00000000E+000  0.00000000E+000
-0.42560899E+000 -0.86868407E-004
-0.69475835E+000 -0.16951239E-003
-0.83567905E+000 -0.99873272E-004
-0.86624526E+000  0.29028384E-002
-0.88801419E+000 -0.36006880E-003
-0.29250952E+000  0.36295421E-001
-0.88846820E+000 -0.23081937E-003
-0.78980606E+000  0.60188438E-001
 0.00000000E+000  0.00000000E+000
-0.78559887E+000  0.34279091E-006
-0.86449366E+000 -0.32729643E-003
-0.83321130E+000 -0.28357736E-002
-0.64231383E+000  0.37614151E-001
-0.83446133E+000 -0.20803547E-003
-0.88420885E+000  0.25346400E-001
-0.38981932E+000  0.14402258E-001
 0.00000000E+000  0.00000000E+000
-0.80726557E+000 -0.17889861E-002
-0.80848509E+000 -0.19180598E-003
-0.82688206E+000  0.17874173E-001
-0.89178311E+000  0.33592646E-002
-0.68454176E+000  0.85547761E-002
-0.41777950E+000  0.20974446E-002
-0.79140365E+000 -0.29199925E-003
 0.00000000E+000  0.00000000E+000
-0.86517292E+000 -0.29017764E-002
-0.79165941E+000 -0.79770317E-004
-0.89170920E+000  0.36235277E-002
-0.83878028E+000  0.32651212E-002
-0.83396655E+000 -0.23138863E-002
-0.69582623E+000  0.30647274E-002
-0.89044106E+000 -0.24017782E-002
-0.42518171E+000  0.16336366E-002
-0.78587049E+000 -0.39916682E-006
 0.00000000E+000  0.00000000E+000
 0.00000000E+000  0.00000000E+000
-0.42583942E+000 -0.39878279E-004
-0.69493728E+000 -0.11413693E-003
-0.83589857E+000 -0.35088244E-003
-0.88824534E+000 -0.27050566E-003
-0.88845860E+000 -0.48913207E-003
-0.80836045E+000 -0.55374810E-003
-0.86448854E+000 -0.38483421E-003
-0.89088654E+000 -0.18138154E-002
-0.83426511E+000 -0.42502747E-003
-0.86472761E+000 -0.23733945E-002
-0.83822089E+000 -0.92708028E-003
-0.80826431E+000 -0.27250946E-003
-0.69674336E+000 -0.86210860E-003
-0.79165929E+000  0.80559191E-004
-0.42685782E+000 -0.51867606E-003
 0.00000000E+000  0.00000000E+000
-0.88926571E+000 -0.22302074E-002
-0.83440947E+000 -0.64332829E-003
-0.79134005E+000 -0.16929513E-003
-0.88909476E+000 -0.16353073E-002
-0.80848532E+000  0.19104790E-003
-0.83689355E+000 -0.12718308E-002
-0.78556859E+000  0.45614891E-006
-0.86463123E+000 -0.72497612E-003
-0.69564414E+000 -0.39107422E-003
-0.42588657E+000  0.39654129E-004
 0.00000000E+000  0.00000000E+000
 0.00000000E+000  0.00000000E+000
-0.42596757E+000 -0.21712243E-004
-0.69519984E+000 -0.11880054E-003
-0.83612090E+000 -0.71000293E-004
-0.88836592E+000 -0.29135119E-003
-0.88859903E+000 -0.17542194E-003
-0.86441141E+000 -0.30683091E-003
-0.83416467E+000 -0.19349729E-003
-0.88855051E+000 -0.54300471E-003
-0.83446097E+000  0.20874918E-003
-0.79134017E+000  0.16839380E-003
-0.80799514E+000 -0.19957526E-003
-0.88828659E+000 -0.52979204E-003
-0.79106265E+000 -0.82854581E-004
-0.83576405E+000 -0.12665479E-003
-0.69470274E+000 -0.18146801E-003
-0.86449414E+000  0.32664884E-003
-0.42567285E+000 -0.11862706E-003
 0.00000000E+000  0.00000000E+000
-0.80826401E+000  0.27337731E-003
-0.78521531E+000 -0.51384785E-006
-0.88846766E+000  0.23138747E-003
 0.00000000E+000  0.00000000E+000
-0.42604318E+000 -0.24367189E-004
-0.69528663E+000  0.13820207E-004
-0.83623260E+000 -0.12013571E-003
-0.88848930E+000  0.97513684E-005
-0.88859021E+000 -0.15453183E-003
-0.83426547E+000  0.42421574E-003
-0.88801473E+000  0.35960116E-003
-0.86445009E+000 -0.32819996E-004
-0.83405256E+000 -0.11884223E-003
-0.79106247E+000  0.83868952E-004
-0.83567851E+000  0.10022985E-003
-0.80791628E+000 -0.34656241E-004
-0.69475871E+000  0.16928657E-003
-0.42560878E+000  0.86957064E-004
 0.00000000E+000  0.00000000E+000
-0.86448806E+000  0.38556908E-003
-0.79087370E+000 -0.45260938E-004
-0.80799537E+000  0.19859727E-003
-0.88845914E+000  0.48849312E-003
-0.78508514E+000  0.57043257E-006
-0.88824474E+000  0.27102930E-003
-0.83416426E+000  0.19440670E-003
-0.83589911E+000  0.35049521E-003
-0.69493687E+000  0.11437197E-003
 0.00000000E+000  0.00000000E+000
-0.42606380E+000  0.20918216E-004
-0.69532603E+000 -0.49760932E-004
-0.83627212E+000  0.58715679E-004
-0.88848596E+000 -0.90040593E-004
-0.42583963E+000  0.39795566E-004
-0.88865107E+000  0.54404030E-004
-0.79087382E+000  0.44127446E-004
 0.00000000E+000  0.00000000E+000
-0.86439490E+000 -0.72258051E-004
-0.83408176E+000  0.26381729E-004
-0.86441189E+000  0.30600558E-003
-0.80783200E+000 -0.37548463E-004
-0.80791598E+000  0.35739754E-004
-0.79087471E+000  0.74836825E-005
-0.88859844E+000  0.17613053E-003
-0.88836652E+000  0.29077602E-003
-0.78498882E+000 -0.63523265E-006
-0.83612030E+000  0.71415801E-004
-0.83405297E+000  0.11782836E-003
-0.69520026E+000  0.11855640E-003
-0.42596733E+000  0.21789981E-004
 0.00000000E+000  0.00000000E+000
-0.79087454E+000 -0.62397380E-005
 0.00000000E+000  0.00000000E+000
-0.42605999E+000 -0.27351779E-004
-0.69533503E+000  0.48717552E-004
-0.83626723E+000 -0.67883207E-004
-0.86444956E+000  0.33727090E-004
-0.88852071E+000  0.73859926E-004
-0.88860666E+000 -0.70473375E-004
-0.86444884E+000  0.55399836E-004
-0.83402007E+000 -0.42593386E-004
-0.80788534E+000  0.26544581E-004
-0.88859081E+000  0.15375175E-003
-0.80783236E+000  0.36351088E-004
-0.79080718E+000 -0.13970191E-004
-0.88848870E+000 -0.91296051E-005
-0.83623313E+000  0.11968786E-003
-0.69528621E+000 -0.13569464E-004
-0.42604342E+000  0.24298287E-004
-0.83408135E+000 -0.25271236E-004
 0.00000000E+000  0.00000000E+000
-0.78504109E+000  0.69000287E-006
-0.86439543E+000  0.71261842E-004
-0.79080736E+000  0.12606529E-004
 0.00000000E+000  0.00000000E+000
-0.42607104E+000  0.31053459E-004
-0.69532388E+000 -0.52763934E-004
-0.83628541E+000  0.67775778E-004
-0.88848841E+000 -0.73759467E-004
-0.88865584E+000  0.68081179E-004
-0.86438816E+000 -0.56599204E-004
-0.88865047E+000 -0.53557916E-004
-0.83408755E+000  0.41324343E-004
-0.80781221E+000 -0.27533320E-004
-0.80788499E+000 -0.25236729E-004
-0.88848662E+000  0.89372064E-004
-0.83627152E+000 -0.58245441E-004
-0.79088199E+000  0.13517930E-004
-0.69532650E+000  0.49503134E-004
-0.42606356E+000 -0.20852989E-004
 0.00000000E+000  0.00000000E+000
-0.83402055E+000  0.41378360E-004
-0.78496420E+000 -0.75095863E-006
-0.86444824E+000 -0.54320229E-004
-0.79088181E+000 -0.12035410E-004
-0.88860732E+000  0.69562171E-004
 0.00000000E+000  0.00000000E+000
-0.42605686E+000 -0.34264052E-004
-0.69534224E+000  0.56114702E-004
-0.83626091E+000 -0.69146597E-004
-0.88852655E+000  0.72866663E-004
-0.88860154E+000 -0.67222295E-004
-0.86445730E+000  0.55277221E-004
-0.88852006E+000 -0.73138413E-004
-0.83400726E+000 -0.41051032E-004
-0.80781257E+000  0.26117288E-004
-0.83626782E+000  0.67392873E-004
-0.80790054E+000  0.26681935E-004
-0.69533455E+000 -0.48456709E-004
-0.42606025E+000  0.27295216E-004
 0.00000000E+000  0.00000000E+000
-0.79078829E+000 -0.13475199E-004
-0.83408707E+000 -0.40011367E-004
-0.78505897E+000  0.81237772E-006
-0.86438876E+000  0.55436790E-004
-0.79078847E+000  0.11878144E-004
-0.88865518E+000 -0.67096785E-004
-0.88848906E+000  0.73002927E-004
 0.00000000E+000  0.00000000E+000
-0.42607411E+000  0.37145306E-004
-0.69531774E+000 -0.59204969E-004
-0.83629262E+000  0.70875394E-004
-0.88848119E+000 -0.72110713E-004
-0.88866436E+000  0.66157117E-004
-0.83628481E+000 -0.67256085E-004
-0.86437684E+000 -0.53358009E-004
-0.80790019E+000 -0.25151563E-004
-0.69532436E+000  0.52502833E-004
-0.83410304E+000  0.39900663E-004
-0.42607077E+000 -0.31001571E-004
 0.00000000E+000  0.00000000E+000
-0.80779331E+000 -0.25443090E-004
-0.79090303E+000  0.13014923E-004
-0.83400774E+000  0.39645703E-004
-0.78494203E+000 -0.87033384E-006
-0.86445671E+000 -0.54025356E-004
-0.88860219E+000  0.66179309E-004
-0.79090285E+000 -0.11292654E-004
-0.88852584E+000 -0.72058741E-004
-0.83626157E+000  0.68610024E-004
-0.69534176E+000 -0.55846736E-004
-0.42605713E+000  0.34228658E-004
-0.80779367E+000  0.23807797E-004
 0.00000000E+000  0.00000000E+000
 0.00000000E+000  0.00000000E+000
-0.42605361E+000 -0.39749491E-004
-0.69534772E+000  0.62481522E-004
-0.83625286E+000 -0.72020906E-004
-0.88853532E+000  0.72179267E-004
-0.88859027E+000 -0.63715822E-004
-0.86447203E+000  0.51734368E-004
-0.83398872E+000 -0.37132114E-004
-0.80792325E+000  0.24244369E-004
-0.83410257E+000 -0.38387715E-004
-0.79076391E+000 -0.11897941E-004
-0.86437749E+000  0.52029405E-004
-0.78508496E+000  0.93515058E-006
-0.88866364E+000 -0.65051324E-004
-0.79076409E+000  0.10063696E-004
-0.88848191E+000  0.71266673E-004
-0.83629196E+000 -0.70314614E-004
-0.69531828E+000  0.58941241E-004
-0.42607381E+000 -0.37120407E-004
 0.00000000E+000  0.00000000E+000
-0.80792289E+000 -0.22489712E-004
 0.00000000E+000  0.00000000E+000
-0.42607703E+000  0.42405805E-004
-0.69531148E+000 -0.65296437E-004
-0.83630067E+000  0.73638591E-004
-0.88847005E+000 -0.71110589E-004
-0.88867825E+000  0.61742590E-004
-0.86435878E+000 -0.48245452E-004
-0.83412575E+000  0.34537682E-004
-0.80776739E+000 -0.21679255E-004
-0.83398926E+000  0.35527198E-004
-0.79093223E+000  0.10859340E-004
-0.86447137E+000 -0.50319893E-004
-0.78491300E+000 -0.99469548E-006
-0.88859099E+000  0.62547878E-004
-0.88853460E+000 -0.71293703E-004
-0.79093199E+000 -0.88998276E-005
-0.83625352E+000  0.71448332E-004
-0.69534718E+000 -0.62216000E-004
-0.42605388E+000  0.39733738E-004
 0.00000000E+000  0.00000000E+000
-0.80776780E+000  0.19820672E-004
 0.00000000E+000  0.00000000E+000
-0.42605015E+000 -0.45043489E-004
-0.69535380E+000  0.68163943E-004
-0.83624333E+000 -0.74672345E-004
-0.88854807E+000  0.69972971E-004
-0.88857311E+000 -0.58479690E-004
-0.86449390E+000  0.44402324E-004
-0.83396220E+000 -0.30573904E-004
-0.83412522E+000 -0.32829964E-004
-0.80795401E+000  0.18855997E-004
-0.79073107E+000 -0.92596856E-005
-0.86435943E+000  0.46754423E-004
-0.78511917E+000  0.10579950E-005
-0.88867747E+000 -0.60512837E-004
-0.88847076E+000  0.70189438E-004
-0.83630001E+000 -0.73049806E-004
-0.79073131E+000  0.71836416E-005
-0.69531202E+000  0.65038431E-004
-0.42607674E+000 -0.42403389E-004
 0.00000000E+000  0.00000000E+000
-0.80795359E+000 -0.16879701E-004
 0.00000000E+000  0.00000000E+000
-0.42608070E+000  0.47790894E-004
-0.69530457E+000 -0.70863206E-004
-0.83631122E+000  0.75373711E-004
-0.88845485E+000 -0.67949535E-004
-0.88869863E+000  0.54417214E-004
-0.86433273E+000 -0.39327784E-004
-0.83396279E+000  0.28768901E-004
-0.83415704E+000  0.25846182E-004
-0.80773216E+000 -0.15236919E-004
-0.86449325E+000 -0.42830670E-004
-0.79097014E+000  0.73992105E-005
-0.88857388E+000  0.57195189E-004
-0.78487437E+000 -0.11171996E-005
-0.88854730E+000 -0.69017136E-004
-0.83624398E+000  0.74073199E-004
-0.69535326E+000 -0.67912253E-004
-0.79096990E+000 -0.51958895E-005
-0.42605045E+000  0.45052562E-004
 0.00000000E+000  0.00000000E+000
-0.80773258E+000  0.13149139E-004
-0.83415645E+000 -0.23946065E-004
 0.00000000E+000  0.00000000E+000
-0.42604598E+000 -0.50694739E-004
-0.69536149E+000  0.73445618E-004
-0.83623117E+000 -0.75456046E-004
-0.88856583E+000  0.64969557E-004
-0.88854885E+000 -0.49090005E-004
-0.86452466E+000  0.33112417E-004
-0.83392584E+000 -0.20081992E-004
-0.80799454E+000  0.10980578E-004
-0.86433345E+000  0.37677469E-004
-0.79068815E+000 -0.51724159E-005
-0.88869786E+000 -0.53074334E-004
-0.78516298E+000  0.11842199E-005
-0.88845568E+000  0.66960463E-004
-0.83631050E+000 -0.74762749E-004
-0.69530510E+000  0.70620262E-004
-0.42608037E+000 -0.47823272E-004
 0.00000000E+000  0.00000000E+000
-0.79068839E+000  0.28502568E-005
-0.80799406E+000 -0.87811513E-005
-0.83392649E+000  0.18083062E-004
 0.00000000E+000  0.00000000E+000
-0.42608541E+000  0.53822095E-004
-0.69529581E+000 -0.75842981E-004
-0.83632528E+000  0.74752155E-004
-0.88843387E+000 -0.60703569E-004
-0.88872742E+000  0.42314222E-004
-0.86429667E+000 -0.25541734E-004
-0.83419901E+000  0.13306304E-004
-0.86452388E+000 -0.31382995E-004
-0.80768609E+000 -0.60515485E-005
-0.79101854E+000  0.26457587E-005
-0.88854968E+000  0.47692439E-004
-0.88856500E+000 -0.63953324E-004
-0.78482532E+000 -0.12458984E-005
-0.83623188E+000  0.74843570E-004
-0.69536095E+000 -0.73217706E-004
-0.42604631E+000  0.50745205E-004
 0.00000000E+000  0.00000000E+000
-0.79101830E+000 -0.19480297E-006
-0.80768656E+000  0.37393083E-005
-0.83419835E+000 -0.11208107E-004
 0.00000000E+000  0.00000000E+000
-0.42604056E+000 -0.57220371E-004
-0.69537162E+000  0.78000462E-004
-0.83621460E+000 -0.73018789E-004
-0.88859081E+000  0.54823507E-004
-0.88851475E+000 -0.33816580E-004
-0.86456686E+000  0.16498048E-004
-0.83387762E+000 -0.55043274E-005
-0.86429744E+000  0.23735674E-004
-0.80804657E+000  0.52595532E-006
-0.88872653E+000 -0.40870640E-004
-0.79063409E+000  0.15123558E-006
-0.88843470E+000  0.59660047E-004
-0.83632451E+000 -0.74138501E-004
-0.78521758E+000  0.13125580E-005
-0.69529640E+000  0.75632291E-004
-0.42608508E+000 -0.53891184E-004
 0.00000000E+000  0.00000000E+000
-0.79063439E+000 -0.27213582E-005
-0.80804610E+000  0.19060314E-005
-0.83387833E+000  0.33066603E-005
 0.00000000E+000  0.00000000E+000
-0.42609176E+000  0.60967446E-004
-0.69528394E+000 -0.79805387E-004
-0.83634501E+000  0.69918831E-004
-0.88840395E+000 -0.46971308E-004
-0.88876783E+000  0.23309956E-004
-0.86456602E+000 -0.14618678E-004
-0.86424744E+000 -0.59189351E-005
-0.83425414E+000 -0.32799757E-005
-0.80762773E+000  0.54959486E-005
-0.88851571E+000  0.32318414E-004
-0.79107832E+000 -0.31394815E-005
-0.88858991E+000 -0.53764790E-004
-0.83621543E+000  0.72405884E-004
-0.69537103E+000 -0.77809520E-004
-0.78476512E+000 -0.13733745E-005
-0.42604088E+000  0.57321234E-004
 0.00000000E+000  0.00000000E+000
-0.79107809E+000  0.58441783E-005
-0.80762827E+000 -0.80463369E-005
-0.83425343E+000  0.55697023E-005
-0.86424833E+000  0.39655260E-005
 0.00000000E+000  0.00000000E+000
-0.42603304E+000 -0.65132117E-004
-0.69538581E+000  0.81094891E-004
-0.83619076E+000 -0.65041152E-004
-0.88862693E+000  0.36665052E-004
-0.88846659E+000 -0.10550724E-004
-0.86462414E+000 -0.62264521E-005
-0.83381503E+000  0.12859113E-004
-0.88876688E+000 -0.21766076E-004
-0.80811148E+000 -0.11862720E-004
-0.88840490E+000  0.45887671E-004
-0.79056853E+000  0.62257486E-005
-0.83634418E+000 -0.69317204E-004
-0.69528454E+000  0.79641147E-004
-0.42609140E+000 -0.61098304E-004
 0.00000000E+000  0.00000000E+000
-0.78528320E+000  0.14482071E-005
-0.79056882E+000 -0.90547910E-005
-0.80811089E+000  0.14521630E-004
-0.83381581E+000 -0.15257222E-004
-0.86462324E+000  0.82496708E-005
 0.00000000E+000  0.00000000E+000
-0.42610079E+000  0.69813271E-004
-0.69526666E+000 -0.81613849E-004
-0.83637434E+000  0.57800196E-004
-0.88835984E+000 -0.23401998E-004
-0.88882553E+000 -0.47060007E-005
-0.86418080E+000  0.19770743E-004
-0.83432483E+000 -0.23018768E-004
-0.88846760E+000  0.89671402E-005
-0.80755621E+000  0.18286740E-004
-0.88862597E+000 -0.35567401E-004
-0.79114943E+000 -0.92731306E-005
-0.83619165E+000  0.64452025E-004
-0.69538515E+000 -0.80967452E-004
-0.42603340E+000  0.65297135E-004
 0.00000000E+000  0.00000000E+000
-0.78469425E+000 -0.15111870E-005
-0.79114913E+000  0.12237911E-004
-0.80755680E+000 -0.21071909E-004
-0.83432400E+000  0.25502633E-004
-0.86418175E+000 -0.21874819E-004
 0.00000000E+000  0.00000000E+000
-0.42602199E+000 -0.75112628E-004
-0.69540727E+000  0.80939586E-004
-0.83615410E+000 -0.47467379E-004
-0.88868153E+000  0.65203089E-005
-0.88839715E+000  0.22504502E-004
-0.88882446E+000  0.63339070E-005
-0.86470150E+000 -0.34464479E-004
-0.83373576E+000  0.33275737E-004
-0.88836085E+000  0.22303858E-004
-0.80818939E+000 -0.24489085E-004
-0.83637338E+000 -0.57230055E-004
-0.69526737E+000  0.81523736E-004
-0.79049229E+000  0.12119860E-004
-0.42610043E+000 -0.70009009E-004
 0.00000000E+000  0.00000000E+000
-0.78535872E+000  0.15817915E-005
-0.79049265E+000 -0.15216891E-004
-0.80818879E+000  0.27390778E-004
-0.83373665E+000 -0.35868950E-004
-0.86470049E+000  0.36625227E-004
-0.88839828E+000 -0.24166824E-004
 0.00000000E+000  0.00000000E+000
-0.42611461E+000  0.81147001E-004
-0.69523954E+000 -0.78439596E-004
-0.83642113E+000  0.32974225E-004
-0.88829147E+000  0.14596007E-004
-0.88890939E+000 -0.42806692E-004
-0.86409133E+000  0.49575610E-004
-0.83441275E+000 -0.43162057E-004
-0.88868045E+000 -0.54124693E-005
-0.80747228E+000  0.29951181E-004
-0.83615505E+000  0.46927019E-004
-0.69540655E+000 -0.80891382E-004
-0.42602238E+000  0.75356751E-004
 0.00000000E+000  0.00000000E+000
-0.79123002E+000 -0.14645288E-004
-0.78461474E+000 -0.16513117E-005
-0.79122966E+000  0.17884263E-004
-0.80747294E+000 -0.32974821E-004
-0.83441185E+000  0.45840577E-004
-0.86409246E+000 -0.51818402E-004
-0.88890820E+000  0.44506541E-004
 0.00000000E+000  0.00000000E+000
-0.42600435E+000 -0.88069224E-004
-0.69544285E+000  0.72946575E-004
-0.83609342E+000 -0.13290022E-004
-0.88876855E+000 -0.41185350E-004
-0.88829576E+000  0.64308500E-004
-0.88829261E+000 -0.15701572E-004
-0.86480408E+000 -0.64963416E-004
-0.83363920E+000  0.51161685E-004
-0.83642011E+000 -0.32462514E-004
-0.80827820E+000 -0.34765416E-004
-0.69524025E+000  0.78446872E-004
-0.42611423E+000 -0.81441285E-004
 0.00000000E+000  0.00000000E+000
-0.79040789E+000  0.16406453E-004
-0.78544092E+000  0.17291396E-005
-0.79040825E+000 -0.19776856E-004
-0.80827754E+000  0.37918085E-004
-0.83364015E+000 -0.53953961E-004
-0.86480295E+000  0.67260800E-004
-0.88829702E+000 -0.66031592E-004
-0.88876730E+000  0.42281793E-004
 0.00000000E+000  0.00000000E+000
-0.42613869E+000  0.95575516E-004
-0.69519293E+000 -0.63934756E-004
-0.83650314E+000 -0.15405326E-004
-0.88818061E+000  0.71039925E-004
-0.88903206E+000 -0.88624910E-004
-0.86397475E+000  0.76363656E-004
-0.83609449E+000  0.12824452E-004
-0.83451610E+000 -0.58809386E-004
-0.69544208E+000 -0.73016220E-004
-0.42600473E+000  0.88418448E-004
 0.00000000E+000  0.00000000E+000
-0.80737859E+000  0.36763511E-004
-0.79131561E+000 -0.18100174E-004
-0.78452962E+000 -0.17988164E-005
-0.79131519E+000  0.21622272E-004
-0.80737930E+000 -0.40036698E-004
-0.83451509E+000  0.61687933E-004
-0.86397594E+000 -0.78728502E-004
-0.88903075E+000  0.90380504E-004
-0.88818192E+000 -0.72129907E-004
-0.83650201E+000  0.15830617E-004
 0.00000000E+000  0.00000000E+000
-0.42597311E+000 -0.10433224E-003
-0.69551008E+000  0.46476703E-004
-0.83598440E+000  0.51303341E-004
-0.88891422E+000 -0.10997598E-003
-0.88815015E+000  0.10576674E-003
-0.86493372E+000 -0.90121677E-004
-0.69519376E+000  0.64073108E-004
-0.42613825E+000 -0.95988769E-004
-0.83352887E+000  0.57494715E-004
 0.00000000E+000  0.00000000E+000
-0.80837142E+000 -0.41610132E-004
-0.79031759E+000  0.16216397E-004
-0.78552192E+000  0.18805676E-005
-0.79031801E+000 -0.19884546E-004
-0.80837064E+000  0.45007764E-004
-0.83352994E+000 -0.60473030E-004
-0.86493247E+000  0.92550966E-004
-0.88815152E+000 -0.10755011E-003
-0.88891285E+000  0.11104658E-003
-0.83598560E+000 -0.51663490E-004
-0.69550925E+000 -0.46707991E-004
 0.00000000E+000  0.00000000E+000
-0.42618876E+000  0.11108073E-003
-0.69510537E+000 -0.24675209E-004
-0.83666539E+000 -0.11291349E-003
-0.88799929E+000  0.13361673E-003
-0.42597353E+000  0.10481335E-003
-0.88920670E+000 -0.13809245E-003
 0.00000000E+000  0.00000000E+000
-0.86383324E+000  0.77294826E-004
-0.83462297E+000 -0.70213631E-004
-0.80727523E+000  0.31830215E-004
-0.79139399E+000 -0.19420154E-004
-0.78443890E+000 -0.19606054E-005
-0.79139357E+000  0.23230533E-004
-0.80727607E+000 -0.35359484E-004
-0.83462184E+000  0.73286471E-004
-0.86383461E+000 -0.79792327E-004
-0.88920527E+000  0.13989393E-003
-0.88800072E+000 -0.13466396E-003
-0.83666414E+000  0.11321183E-003
-0.69510626E+000  0.24992879E-004
-0.42618831E+000 -0.11165114E-003
 0.00000000E+000  0.00000000E+000
 0.00000000E+000  0.00000000E+000
-0.42591929E+000 -0.12483772E-003
-0.69567191E+000 -0.38484791E-004
-0.83577907E+000  0.15291791E-003
-0.88916176E+000 -0.20009683E-003
-0.88795155E+000  0.11122324E-003
-0.86506772E+000 -0.99975455E-004
-0.83340370E+000  0.45341854E-004
-0.80845248E+000 -0.42824449E-004
-0.79021954E+000  0.91385818E-005
-0.78558593E+000  0.20348804E-005
-0.79022002E+000 -0.13120211E-004
-0.80845159E+000  0.46475764E-004
-0.83340489E+000 -0.48520272E-004
-0.86506628E+000  0.10251208E-003
-0.88795304E+000 -0.11305199E-003
-0.88916021E+000  0.20112935E-003
-0.83578044E+000 -0.15314514E-003
-0.69567090E+000  0.38046746E-004
-0.42591977E+000  0.12550700E-003
 0.00000000E+000  0.00000000E+000
 0.00000000E+000  0.00000000E+000
-0.42632019E+000  0.12237860E-003
-0.69490665E+000  0.10256631E-003
-0.83700519E+000 -0.25536501E-003
-0.88770806E+000  0.19057348E-003
-0.88941907E+000 -0.13272596E-003
-0.86369401E+000  0.47422337E-004
-0.83472520E+000 -0.82327715E-004
-0.80716103E+000 -0.23081943E-005
-0.79143720E+000 -0.27041911E-004
-0.78432577E+000 -0.21286859E-005
-0.79143667E+000  0.31153285E-004
-0.80716198E+000 -0.14911538E-005
-0.83472388E+000  0.85574421E-004
-0.86369550E+000 -0.50042821E-004
-0.88941746E+000  0.13456736E-003
-0.88770967E+000 -0.19158533E-003
-0.83700370E+000  0.25550991E-003
-0.69490772E+000 -0.10200543E-003
-0.42631968E+000 -0.12316467E-003
 0.00000000E+000  0.00000000E+000
 0.00000000E+000  0.00000000E+000
-0.42576444E+000 -0.12682363E-003
-0.69609862E+000 -0.28114271E-003
-0.83537524E+000  0.24696585E-003
-0.88957619E+000 -0.30295443E-003
-0.88779789E+000 -0.66987966E-004
-0.86519151E+000 -0.20635106E-003
-0.83323854E+000 -0.73927054E-004
-0.80845540E+000 -0.81720725E-004
-0.79006499E+000 -0.23101212E-004
-0.78556996E+000  0.22003271E-005
-0.79006552E+000  0.18786591E-004
-0.80845433E+000  0.85603831E-004
-0.83323985E+000  0.70555353E-004
-0.86518996E+000  0.20898916E-003
-0.88779956E+000  0.65106331E-004
-0.88957446E+000  0.30394253E-003
-0.83537679E+000 -0.24703310E-003
-0.69609749E+000  0.28043382E-003
-0.42576497E+000  0.12774781E-003
 0.00000000E+000  0.00000000E+000
 0.00000000E+000  0.00000000E+000
-0.42693260E+000 -0.47372355E-004
-0.69458138E+000  0.17201951E-003
-0.83792823E+000 -0.78919145E-003
-0.88744205E+000 -0.39304886E-003
-0.88941550E+000 -0.44175653E-003
-0.86328572E+000 -0.17819718E-003
-0.83457326E+000 -0.92141119E-004
-0.80692505E+000 -0.11891795E-005
-0.79140752E+000  0.11993533E-004
-0.78420317E+000 -0.23233319E-005
-0.79140692E+000 -0.75910770E-005
-0.80692613E+000 -0.28932565E-005
-0.83457183E+000  0.95532101E-004
-0.86328732E+000  0.17546158E-003
-0.88941371E+000  0.44361906E-003
-0.88744378E+000  0.39205930E-003
-0.83792650E+000  0.78918389E-003
-0.69458264E+000 -0.17114952E-003
-0.42693200E+000  0.46281493E-004
 0.00000000E+000  0.00000000E+000
 0.00000000E+000  0.00000000E+000
-0.42559179E+000 -0.34799326E-004
-0.69793373E+000 -0.11270388E-002
-0.83467364E+000 -0.19979405E-003
-0.88920456E+000 -0.32602805E-004
-0.88690090E+000  0.34434217E-003
-0.86476874E+000  0.48994104E-003
-0.83292454E+000  0.48923952E-003
-0.80855900E+000  0.40400362E-003
-0.79024654E+000  0.20855574E-003
-0.78591662E+000  0.23455979E-005
-0.79024714E+000 -0.21324618E-003
-0.80855780E+000 -0.39991436E-003
-0.83292597E+000 -0.49281428E-003
-0.86476701E+000 -0.48725210E-003
-0.88690263E+000 -0.34628913E-003
-0.88920265E+000  0.33544463E-004
-0.83467537E+000  0.19984612E-003
-0.69793224E+000  0.11259834E-002
-0.42559245E+000  0.36090463E-004
 0.00000000E+000  0.00000000E+000
 0.00000000E+000  0.00000000E+000
-0.42979609E+000 -0.62707596E-003
-0.69194489E+000  0.16486936E-002
-0.83657801E+000  0.25037664E-002
-0.88594746E+000  0.29954758E-002
-0.88907420E+000  0.30269483E-002
-0.86344558E+000  0.25186585E-002
-0.83540880E+000  0.19945565E-002
-0.80799275E+000  0.12749166E-002
-0.79274141E+000  0.65900303E-003
-0.78551965E+000 -0.25337951E-005
-0.79274070E+000 -0.65434409E-003
-0.80799388E+000 -0.12793045E-002
-0.83540719E+000 -0.19910782E-002
-0.86344712E+000 -0.25215193E-002
-0.88907229E+000 -0.30250796E-002
-0.88594925E+000 -0.29964603E-002
-0.83657604E+000 -0.25039084E-002
-0.69194644E+000 -0.16475112E-002
-0.42979526E+000  0.62553462E-003
 0.00000000E+000  0.00000000E+000
 0.00000000E+000  0.00000000E+000
-0.41128221E+000  0.54224305E-002
-0.69045644E+000  0.85530504E-002
-0.83053690E+000  0.90707540E-002
-0.88926124E+000  0.86267804E-002
-0.88910889E+000  0.68630278E-002
-0.86827850E+000  0.53603961E-002
-0.83667194E+000  0.36145499E-002
-0.81230700E+000  0.23340755E-002
-0.79378372E+000  0.10686686E-002
-0.78943067E+000  0.24976930E-005
-0.79378432E+000 -0.10737451E-002
-0.81230568E+000 -0.23298128E-002
-0.83667337E+000 -0.36183190E-002
-0.86827659E+000 -0.53576920E-002
-0.88911050E+000 -0.68650539E-002
-0.88925909E+000 -0.86258314E-002
-0.83053863E+000 -0.90704830E-002
-0.69045460E+000 -0.85542770E-002
-0.41128322E+000 -0.54205916E-002
 0.00000000E+000  0.00000000E+000
 0.00000000E+000  0.00000000E+000
-0.44714838E+000  0.79698450E-002
-0.70870572E+000  0.59797004E-002
-0.85259139E+000  0.56414883E-002
-0.89916974E+000  0.41576391E-002
-0.89941555E+000  0.40533575E-002
-0.87105911E+000  0.32422451E-002
-0.84098207E+000  0.28277011E-002
-0.81208640E+000  0.18565997E-002
-0.79600018E+000  0.10150896E-002
-0.78847527E+000 -0.27396529E-005
-0.79599940E+000 -0.10101160E-002
-0.81208759E+000 -0.18612677E-002
-0.84098035E+000 -0.28241262E-002
-0.87106060E+000 -0.32451872E-002
-0.89941346E+000 -0.40514850E-002
-0.89917123E+000 -0.41586942E-002
-0.85258883E+000 -0.56417258E-002
-0.70870685E+000 -0.59780511E-002
-0.44714674E+000 -0.79715810E-002
 0.00000000E+000  0.00000000E+000
