 0.00000000E+000  0.00000000E+000
 0.23703134E+000  0.00000000E+000
 0.44911202E+000  0.00000000E+000
 0.63624203E+000  0.00000000E+000
 0.79842138E+000  0.00000000E+000
 0.93565005E+000  0.00000000E+000
 0.00000000E+000  0.00000000E+000
 0.25249591E+000  0.12657107E-001
 0.47219648E+000  0.32697398E-001
 0.65359783E+000  0.52549965E-001
 0.10479280E+001  0.00000000E+000
 0.80456960E+000  0.65461955E-001
 0.93015158E+000  0.69380708E-001
 0.10328404E+001  0.64983747E-001
 0.11352554E+001  0.00000000E+000
 0.11130472E+001  0.54050944E-001
 0.00000000E+000  0.00000000E+000
 0.30556148E+000  0.15195098E-001
 0.54100286E+000  0.45643955E-001
 0.71286010E+000  0.77567368E-001
 0.83843076E+000  0.10199216E+000
 0.93471550E+000  0.11329299E+000
 0.10104335E+001  0.11026844E+000
 0.11976320E+001  0.00000000E+000
 0.11706746E+001  0.38461055E-001
 0.10692908E+001  0.94366975E-001
 0.00000000E+000  0.00000000E+000
 0.35533300E+000  0.11095094E-001
 0.61587309E+000  0.32449685E-001
 0.78383100E+000  0.59469364E-001
 0.88681381E+000  0.83114475E-001
 0.11117727E+001  0.68481259E-001
 0.94986373E+000  0.97483411E-001
 0.12350580E+001  0.00000000E+000
 0.99120885E+000  0.99093265E-001
 0.12053760E+001  0.19938031E-001
 0.10198320E+001  0.87705843E-001
 0.11376141E+001  0.35900477E-001
 0.10396986E+001  0.65135091E-001
 0.00000000E+000  0.00000000E+000
 0.12475334E+001  0.00000000E+000
 0.38476377E+000  0.41296845E-002
 0.66285532E+000  0.14219099E-001
 0.83594268E+000  0.27051467E-001
 0.92793047E+000  0.40727596E-001
 0.96967971E+000  0.50749175E-001
 0.12169796E+001  0.16843930E-007
 0.98429113E+000  0.54322104E-001
 0.98725700E+000  0.49931436E-001
 0.10515974E+001  0.34622218E-001
 0.11462643E+001 -0.41195541E-007
 0.98623579E+000  0.38099557E-001
 0.12350580E+001  0.00000000E+000
 0.12053760E+001 -0.19938068E-001
 0.00000000E+000  0.00000000E+000
 0.10556372E+001  0.63934400E-007
 0.39409652E+000  0.61683211E-003
 0.68126249E+000  0.18655309E-002
 0.85862004E+000  0.54254522E-002
 0.94989824E+000  0.95471348E-002
 0.98339718E+000  0.13752258E-001
 0.98492681E+000  0.20562211E-001
 0.98563712E+000  0.16178829E-001
 0.97448229E+000  0.15985211E-001
 0.11376141E+001 -0.35900399E-001
 0.96137368E+000  0.12751555E-001
 0.98434817E+000 -0.91437392E-007
 0.11976320E+001  0.00000000E+000
 0.10515973E+001 -0.34622345E-001
 0.11706746E+001 -0.38461018E-001
 0.95177990E+000  0.70750690E-002
 0.00000000E+000  0.00000000E+000
 0.39446476E+000 -0.53168926E-003
 0.68352311E+000 -0.79040677E-003
 0.86407834E+000 -0.13114754E-002
 0.95631611E+000 -0.74097997E-003
 0.98937386E+000 -0.23167078E-004
 0.11117726E+001 -0.68481341E-001
 0.98825806E+000  0.96947915E-003
 0.97280949E+000  0.15314276E-002
 0.98492687E+000 -0.20562032E-001
 0.11352554E+001  0.00000000E+000
 0.94843190E+000  0.12087303E-006
 0.95507538E+000  0.15708814E-002
 0.10396987E+001 -0.65134964E-001
 0.11130472E+001 -0.54050978E-001
 0.10692909E+001 -0.94366900E-001
 0.94238203E+000  0.96288946E-003
 0.10479280E+001  0.00000000E+000
 0.98623567E+000 -0.38099732E-001
 0.95177984E+000 -0.70753050E-002
 0.00000000E+000  0.00000000E+000
 0.39341405E+000 -0.66138236E-004
 0.68279105E+000 -0.57703378E-003
 0.86369788E+000 -0.54045981E-003
 0.10328404E+001 -0.64983710E-001
 0.95732659E+000 -0.87343057E-003
 0.99061632E+000 -0.70276489E-003
 0.10198318E+001 -0.87705962E-001
 0.98973029E+000 -0.61543867E-003
 0.97342890E+000 -0.34276029E-003
 0.93774902E+000 -0.15032696E-006
 0.10104335E+001 -0.11026851E+000
 0.93565005E+000  0.00000000E+000
 0.95494681E+000 -0.18737536E-003
 0.93015152E+000 -0.69380745E-001
 0.98725718E+000 -0.49931265E-001
 0.99120903E+000 -0.99093154E-001
 0.96137380E+000 -0.12751323E-001
 0.93471562E+000 -0.11329293E+000
 0.79842138E+000  0.00000000E+000
 0.94132590E+000 -0.53597126E-004
 0.80456966E+000 -0.65461918E-001
 0.94238209E+000 -0.96259149E-003
 0.63624203E+000  0.00000000E+000
 0.65359771E+000 -0.52549995E-001
 0.83843064E+000 -0.10199223E+000
 0.44911202E+000  0.00000000E+000
 0.94986355E+000 -0.97483515E-001
 0.47219654E+000 -0.32697368E-001
 0.23703134E+000  0.00000000E+000
 0.00000000E+000  0.00000000E+000
 0.00000000E+000  0.00000000E+000
 0.39316281E+000 -0.10203542E-003
 0.68233519E+000  0.97989272E-004
 0.86369222E+000 -0.12510153E-003
 0.98429089E+000 -0.54322261E-001
 0.95713710E+000  0.12371587E-003
 0.25249585E+000 -0.12657137E-001
 0.99097168E+000  0.19535971E-004
 0.71286022E+000 -0.77567316E-001
 0.00000000E+000  0.00000000E+000
 0.93653428E+000  0.18093584E-006
 0.98989814E+000  0.14075427E-003
 0.97448211E+000 -0.15985425E-001
 0.54100275E+000 -0.45644003E-001
 0.97380077E+000  0.83167869E-004
 0.88681399E+000 -0.83114378E-001
 0.30556154E+000 -0.15195053E-001
 0.00000000E+000  0.00000000E+000
 0.95507520E+000 -0.15711670E-002
 0.95501208E+000  0.10286040E-003
 0.78383082E+000 -0.59469446E-001
 0.96967995E+000 -0.50749033E-001
 0.61587321E+000 -0.32449610E-001
 0.35533291E+000 -0.11095147E-001
 0.94132578E+000  0.53236402E-004
 0.00000000E+000  0.00000000E+000
 0.98563736E+000 -0.16178626E-001
 0.94144618E+000  0.42872881E-004
 0.92793023E+000 -0.40727719E-001
 0.83594292E+000 -0.27051361E-001
 0.97280973E+000 -0.15311554E-002
 0.66285514E+000 -0.14219183E-001
 0.98339694E+000 -0.13752437E-001
 0.38476386E+000 -0.41296300E-002
 0.93644058E+000 -0.21611984E-006
 0.00000000E+000  0.00000000E+000
 0.00000000E+000  0.00000000E+000
 0.39306026E+000  0.45704524E-004
 0.68240994E+000 -0.16988799E-003
 0.86357474E+000  0.30018916E-004
 0.95739454E+000 -0.16085746E-003
 0.99089998E+000  0.16484771E-004
 0.95494693E+000  0.18772140E-003
 0.99008315E+000 -0.59445606E-004
 0.94989848E+000 -0.95469802E-002
 0.97369533E+000  0.30184852E-004
 0.98825782E+000 -0.96972490E-003
 0.85861980E+000 -0.54255737E-002
 0.95507699E+000 -0.62864405E-005
 0.68126267E+000 -0.18654356E-002
 0.94144630E+000 -0.42453229E-004
 0.39409640E+000 -0.61688362E-003
 0.00000000E+000  0.00000000E+000
 0.98937416E+000  0.23382679E-004
 0.97342866E+000  0.34243584E-003
 0.94128543E+000  0.15582892E-004
 0.95631587E+000  0.74079731E-003
 0.95501190E+000 -0.10326816E-003
 0.86407858E+000  0.13116197E-002
 0.93645560E+000  0.24557664E-006
 0.98973053E+000  0.61573128E-003
 0.68352288E+000  0.79030852E-003
 0.39446488E+000  0.53173967E-003
 0.00000000E+000  0.00000000E+000
 0.00000000E+000  0.00000000E+000
 0.39300498E+000 -0.83741135E-004
 0.68223023E+000  0.32949861E-004
 0.86365264E+000 -0.20735889E-003
 0.95724219E+000 -0.48860954E-004
 0.99109292E+000 -0.20974678E-003
 0.99000793E+000 -0.86826992E-004
 0.97387301E+000 -0.13589915E-003
 0.99061602E+000  0.70250954E-003
 0.97380101E+000 -0.82789949E-004
 0.94128537E+000 -0.16072875E-004
 0.95501303E+000 -0.53514602E-004
 0.95732688E+000  0.87363872E-003
 0.94142746E+000 -0.44464588E-004
 0.86369758E+000  0.54029922E-003
 0.68279123E+000  0.57713879E-003
 0.98989784E+000 -0.14109675E-003
 0.39341393E+000  0.66091779E-004
 0.00000000E+000  0.00000000E+000
 0.95507717E+000  0.67530663E-005
 0.93638551E+000 -0.28148696E-006
 0.99097198E+000 -0.19244083E-004
 0.00000000E+000  0.00000000E+000
 0.39292687E+000  0.48585039E-004
 0.68222856E+000 -0.10276740E-003
 0.86347299E+000  0.63471146E-004
 0.95734000E+000 -0.12717784E-003
 0.99094748E+000  0.14282349E-004
 0.97369509E+000 -0.30620554E-004
 0.95713680E+000 -0.12395512E-003
 0.99017375E+000 -0.10080008E-003
 0.97379851E+000 -0.14744370E-004
 0.94142758E+000  0.45016986E-004
 0.86369252E+000  0.12527666E-003
 0.95519596E+000 -0.54191750E-004
 0.68233495E+000 -0.98096235E-004
 0.39316293E+000  0.10207892E-003
 0.00000000E+000  0.00000000E+000
 0.99008345E+000  0.59832807E-004
 0.94137918E+000 -0.90415369E-005
 0.95501285E+000  0.52983919E-004
 0.99089968E+000 -0.16817079E-004
 0.93656778E+000  0.31456337E-006
 0.95739483E+000  0.16112111E-003
 0.97387325E+000  0.13639013E-003
 0.86357444E+000 -0.30209535E-004
 0.68241018E+000  0.17000145E-003
 0.00000000E+000  0.00000000E+000
 0.39293855E+000 -0.49899485E-004
 0.68214833E+000  0.74896423E-004
 0.86355054E+000 -0.92685542E-004
 0.95719844E+000  0.72371636E-004
 0.39306014E+000 -0.45742010E-004
 0.99107378E+000 -0.75324089E-004
 0.94137907E+000  0.84199900E-005
 0.00000000E+000  0.00000000E+000
 0.99004018E+000  0.37361576E-004
 0.97394418E+000 -0.44425411E-004
 0.99000763E+000  0.86390777E-004
 0.95509028E+000  0.11515930E-004
 0.95519614E+000  0.54783489E-004
 0.94153320E+000 -0.14628270E-004
 0.99109327E+000  0.21011567E-003
 0.95724183E+000  0.48569097E-004
 0.93647259E+000 -0.34921578E-006
 0.86365294E+000  0.20756221E-003
 0.97379827E+000  0.14198041E-004
 0.68222999E+000 -0.33065483E-004
 0.39300510E+000  0.83777078E-004
 0.00000000E+000  0.00000000E+000
 0.94153332E+000  0.15314270E-004
 0.00000000E+000  0.00000000E+000
 0.39291232E+000  0.43300653E-004
 0.68219608E+000 -0.75326890E-004
 0.86345672E+000  0.74881194E-004
 0.99017405E+000  0.10128775E-003
 0.95730751E+000 -0.84738589E-004
 0.99094146E+000  0.54332187E-004
 0.99017602E+000 -0.57664055E-004
 0.97381049E+000  0.25698323E-004
 0.95523416E+000 -0.26738847E-004
 0.99094712E+000 -0.14688384E-004
 0.95509010E+000 -0.12175137E-004
 0.94140654E+000  0.66640077E-005
 0.95734035E+000  0.12749573E-003
 0.86347270E+000 -0.63688181E-004
 0.68222880E+000  0.10288284E-003
 0.39292672E+000 -0.48616064E-004
 0.97394442E+000  0.45031018E-004
 0.00000000E+000  0.00000000E+000
 0.93661952E+000  0.38353203E-006
 0.99003988E+000 -0.37892968E-004
 0.94140642E+000 -0.74230497E-005
 0.00000000E+000  0.00000000E+000
 0.39293015E+000 -0.41442821E-004
 0.68214273E+000  0.65913460E-004
 0.86353224E+000 -0.77326250E-004
 0.95719796E+000  0.69973750E-004
 0.99106556E+000 -0.64391322E-004
 0.99004054E+000  0.44062184E-004
 0.99107414E+000  0.75771145E-004
 0.97395592E+000 -0.36160974E-004
 0.95509278E+000  0.18597207E-004
 0.95523434E+000  0.27458820E-004
 0.95719808E+000 -0.72713279E-004
 0.86355090E+000  0.92916990E-004
 0.94155883E+000 -0.10825713E-004
 0.68214809E+000 -0.75012845E-004
 0.39293870E+000  0.49928137E-004
 0.00000000E+000  0.00000000E+000
 0.97381025E+000 -0.26359690E-004
 0.93647718E+000 -0.42121496E-006
 0.99017632E+000  0.58246230E-004
 0.94155895E+000  0.11649387E-004
 0.99094110E+000 -0.54816602E-004
 0.00000000E+000  0.00000000E+000
 0.39291012E+000  0.38859714E-004
 0.68218797E+000 -0.62163388E-004
 0.86345666E+000  0.71533511E-004
 0.95729821E+000 -0.67789005E-004
 0.99094200E+000  0.58787980E-004
 0.99017876E+000 -0.45080323E-004
 0.95730787E+000  0.85104780E-004
 0.97380787E+000  0.32230916E-004
 0.95509260E+000 -0.19382854E-004
 0.86345636E+000 -0.75125084E-004
 0.95524895E+000 -0.20085779E-004
 0.68219637E+000  0.75443538E-004
 0.39291220E+000 -0.43325973E-004
 0.00000000E+000  0.00000000E+000
 0.94140160E+000  0.93492826E-005
 0.97395622E+000  0.36882651E-004
 0.93663853E+000  0.45334329E-006
 0.99004018E+000 -0.44696542E-004
 0.94140154E+000 -0.10246283E-004
 0.99106591E+000  0.64908497E-004
 0.95719760E+000 -0.70368150E-004
 0.00000000E+000  0.00000000E+000
 0.39292988E+000 -0.36959489E-004
 0.68214416E+000  0.58878049E-004
 0.86352807E+000 -0.67020366E-004
 0.95719975E+000  0.63955689E-004
 0.99106436E+000 -0.55010761E-004
 0.86353260E+000  0.77575641E-004
 0.99003684E+000  0.42590501E-004
 0.95524913E+000  0.20938718E-004
 0.68214249E+000 -0.66039421E-004
 0.97396361E+000 -0.30402999E-004
 0.39293029E+000  0.41456700E-004
 0.00000000E+000  0.00000000E+000
 0.95508337E+000  0.18870210E-004
 0.94157272E+000 -0.88464194E-005
 0.97380757E+000 -0.33012049E-004
 0.93646574E+000 -0.49185013E-006
 0.99017912E+000  0.45758180E-004
 0.99094158E+000 -0.59349076E-004
 0.94157284E+000  0.98133787E-005
 0.95729857E+000  0.68202090E-004
 0.86345636E+000 -0.71799404E-004
 0.68218821E+000  0.62280938E-004
 0.39290997E+000 -0.38875994E-004
 0.95508319E+000 -0.19788625E-004
 0.00000000E+000  0.00000000E+000
 0.00000000E+000  0.00000000E+000
 0.39290988E+000  0.35590837E-004
 0.68218713E+000 -0.56131448E-004
 0.86345821E+000  0.62917060E-004
 0.95729750E+000 -0.59941812E-004
 0.99094015E+000  0.50789523E-004
 0.99018388E+000 -0.39521517E-004
 0.97379893E+000  0.27797374E-004
 0.95526075E+000 -0.17355960E-004
 0.97396391E+000  0.31241717E-004
 0.94138801E+000  0.79939873E-005
 0.99003648E+000 -0.43321779E-004
 0.93665307E+000  0.52944147E-006
 0.99106472E+000  0.55602904E-004
 0.94138795E+000 -0.90316416E-005
 0.95719939E+000 -0.64397034E-004
 0.86352843E+000  0.67293978E-004
 0.68214392E+000 -0.58997673E-004
 0.39293003E+000  0.36968485E-004
 0.00000000E+000  0.00000000E+000
 0.95526099E+000  0.18342798E-004
 0.00000000E+000  0.00000000E+000
 0.39293047E+000 -0.34664335E-004
 0.68214386E+000  0.53753312E-004
 0.86352807E+000 -0.59197249E-004
 0.95719832E+000  0.55509455E-004
 0.99106830E+000 -0.46370994E-004
 0.99002957E+000  0.35600172E-004
 0.97397440E+000 -0.24784243E-004
 0.95506995E+000  0.15297777E-004
 0.97379863E+000 -0.28695401E-004
 0.94158810E+000 -0.69551992E-005
 0.99018424E+000  0.40300423E-004
 0.93644988E+000 -0.56312376E-006
 0.99093973E+000 -0.51422201E-004
 0.95729786E+000  0.60401525E-004
 0.94158822E+000  0.80684785E-005
 0.86345785E+000 -0.63204075E-004
 0.68218743E+000  0.56248605E-004
 0.39290973E+000 -0.35592602E-004
 0.00000000E+000  0.00000000E+000
 0.95506972E+000 -0.16349978E-004
 0.00000000E+000  0.00000000E+000
 0.39290890E+000  0.34103479E-004
 0.68218827E+000 -0.51680792E-004
 0.86345654E+000  0.55598684E-004
 0.95730090E+000 -0.50770035E-004
 0.99093383E+000  0.41491064E-004
 0.99019354E+000 -0.31055496E-004
 0.97378599E+000  0.21234594E-004
 0.97397476E+000  0.25743056E-004
 0.95527631E+000 -0.12817494E-004
 0.94137084E+000  0.57130573E-005
 0.99002921E+000 -0.36430501E-004
 0.93667078E+000  0.60468687E-006
 0.99106872E+000  0.47037105E-004
 0.95719790E+000 -0.55993205E-004
 0.86352843E+000  0.59489531E-004
 0.94137072E+000 -0.68973790E-005
 0.68214362E+000 -0.53875453E-004
 0.39293062E+000  0.34654734E-004
 0.00000000E+000  0.00000000E+000
 0.95527654E+000  0.13941255E-004
 0.00000000E+000  0.00000000E+000
 0.39293184E+000 -0.33837863E-004
 0.68214190E+000  0.49861060E-004
 0.86353129E+000 -0.51917577E-004
 0.95719277E+000  0.45700366E-004
 0.99107712E+000 -0.36009558E-004
 0.99001729E+000  0.25953026E-004
 0.97378569E+000 -0.22254556E-004
 0.97398984E+000 -0.17134541E-004
 0.95505207E+000  0.99798890E-005
 0.99019390E+000  0.31932104E-004
 0.94160741E+000 -0.42635474E-005
 0.99093341E+000 -0.42191208E-004
 0.93642997E+000 -0.64214805E-006
 0.95730131E+000  0.51276623E-004
 0.86345618E+000 -0.55900600E-004
 0.68218857E+000  0.51798830E-004
 0.94160753E+000  0.55246387E-005
 0.39290875E+000 -0.34085405E-004
 0.00000000E+000  0.00000000E+000
 0.95505183E+000 -0.11172133E-004
 0.97399020E+000  0.18215432E-004
 0.00000000E+000  0.00000000E+000
 0.39290714E+000  0.33833726E-004
 0.68219119E+000 -0.48174697E-004
 0.86345171E+000  0.48021658E-004
 0.95730882E+000 -0.40141934E-004
 0.99092227E+000  0.29892366E-004
 0.99020874E+000 -0.20257959E-004
 0.97376775E+000  0.12531535E-004
 0.95529675E+000 -0.68066710E-005
 0.99001687E+000 -0.26875755E-004
 0.94134902E+000  0.26448849E-005
 0.99107760E+000  0.36748831E-004
 0.93669301E+000  0.68208703E-006
 0.95719230E+000 -0.46224449E-004
 0.86353170E+000  0.52229519E-004
 0.68214160E+000 -0.49972251E-004
 0.39293202E+000  0.33809672E-004
 0.00000000E+000  0.00000000E+000
 0.94134891E+000 -0.39820697E-005
 0.95529699E+000  0.80710960E-005
 0.97376739E+000 -0.13671137E-004
 0.00000000E+000  0.00000000E+000
 0.39293405E+000 -0.34063279E-004
 0.68213796E+000  0.46518478E-004
 0.86353796E+000 -0.43743846E-004
 0.95718222E+000  0.33950036E-004
 0.99109184E+000 -0.23059257E-004
 0.98999881E+000  0.13960584E-004
 0.97401118E+000 -0.74738231E-005
 0.99020916E+000  0.21234120E-004
 0.95502883E+000  0.33371229E-005
 0.94163179E+000 -0.87572806E-006
 0.99092179E+000 -0.30660285E-004
 0.95730924E+000  0.40690512E-004
 0.93640524E+000 -0.71922289E-006
 0.86345130E+000 -0.48335790E-004
 0.68219149E+000  0.48278063E-004
 0.39290696E+000 -0.33799453E-004
 0.00000000E+000  0.00000000E+000
 0.94163197E+000  0.22931392E-005
 0.95502853E+000 -0.46738191E-005
 0.97401154E+000  0.86782811E-005
 0.00000000E+000  0.00000000E+000
 0.39290446E+000  0.34506447E-004
 0.68219625E+000 -0.44750926E-004
 0.86344295E+000  0.38898786E-004
 0.95732229E+000 -0.26941810E-004
 0.99090403E+000  0.15454112E-004
 0.99023079E+000 -0.70542841E-005
 0.97374308E+000  0.20192894E-005
 0.98999840E+000 -0.14981031E-004
 0.95532304E+000  0.37075162E-006
 0.99109232E+000  0.23866465E-004
 0.94132190E+000 -0.10026188E-005
 0.95718175E+000 -0.34512806E-004
 0.86353838E+000  0.44061220E-004
 0.93672043E+000  0.76439300E-006
 0.68213766E+000 -0.46611970E-004
 0.39293423E+000  0.34017892E-004
 0.00000000E+000  0.00000000E+000
 0.94132179E+000 -0.49128669E-006
 0.95532327E+000  0.10381882E-005
 0.97374272E+000 -0.32836330E-005
 0.00000000E+000  0.00000000E+000
 0.39293733E+000 -0.35152814E-004
 0.68213152E+000  0.42716634E-004
 0.86354923E+000 -0.33247499E-004
 0.95716518E+000  0.18943046E-004
 0.99111413E+000 -0.69892844E-005
 0.99023127E+000  0.81272228E-005
 0.98997277E+000 -0.40187433E-006
 0.97403943E+000  0.37655690E-005
 0.95499938E+000 -0.42474298E-005
 0.99090349E+000 -0.16291905E-004
 0.94166183E+000  0.29590526E-005
 0.95732277E+000  0.27525378E-004
 0.86344254E+000 -0.39213999E-004
 0.68219661E+000  0.44834396E-004
 0.93637508E+000 -0.80198509E-006
 0.39290428E+000 -0.34453296E-004
 0.00000000E+000  0.00000000E+000
 0.94166195E+000 -0.13785079E-005
 0.95499908E+000  0.27664852E-005
 0.97403985E+000 -0.24357866E-005
 0.98997229E+000 -0.71968241E-006
 0.00000000E+000  0.00000000E+000
 0.39290043E+000  0.35981709E-004
 0.68220448E+000 -0.40203220E-004
 0.86342859E+000  0.26523783E-004
 0.95734369E+000 -0.97276397E-005
 0.99087697E+000 -0.23243933E-005
 0.99026131E+000  0.83604109E-005
 0.97371095E+000 -0.97522433E-005
 0.99111467E+000  0.78621351E-005
 0.95535576E+000  0.82215137E-005
 0.95716470E+000 -0.19536699E-004
 0.94128906E+000 -0.49278351E-005
 0.86354964E+000  0.33566757E-004
 0.68213117E+000 -0.42786025E-004
 0.39293751E+000  0.35085195E-004
 0.00000000E+000  0.00000000E+000
 0.93675333E+000  0.84983793E-006
 0.94128888E+000  0.32704510E-005
 0.95535600E+000 -0.66597672E-005
 0.97371053E+000  0.83584573E-005
 0.99026179E+000 -0.71872054E-005
 0.00000000E+000  0.00000000E+000
 0.39294230E+000 -0.36958736E-004
 0.68212109E+000  0.36971370E-004
 0.86356759E+000 -0.18304888E-004
 0.95713853E+000 -0.83384520E-006
 0.99114668E+000  0.12527554E-004
 0.98993742E+000 -0.16609366E-004
 0.97407555E+000  0.15864976E-004
 0.99087643E+000  0.14218336E-005
 0.95496332E+000 -0.12129027E-004
 0.95734417E+000  0.10336342E-004
 0.94169747E+000  0.68957083E-005
 0.86342811E+000 -0.26833515E-004
 0.68220484E+000  0.40262588E-004
 0.39290025E+000 -0.35894157E-004
 0.00000000E+000  0.00000000E+000
 0.93633949E+000 -0.88761134E-006
 0.94169759E+000 -0.51480342E-005
 0.95496302E+000  0.10493129E-004
 0.97407603E+000 -0.14401505E-004
 0.98993688E+000  0.15386693E-004
 0.00000000E+000  0.00000000E+000
 0.39289423E+000  0.38043301E-004
 0.68221795E+000 -0.32584292E-004
 0.86340504E+000  0.82542073E-005
 0.95737701E+000  0.13073370E-004
 0.99083799E+000 -0.23280681E-004
 0.99114727E+000 -0.11589716E-004
 0.99030196E+000  0.25142831E-004
 0.97367066E+000 -0.21704647E-004
 0.95713800E+000  0.21624443E-006
 0.95539486E+000  0.16000001E-004
 0.86356812E+000  0.18609811E-004
 0.68212080E+000 -0.37012316E-004
 0.94125062E+000 -0.87040680E-005
 0.39294248E+000  0.36849000E-004
 0.00000000E+000  0.00000000E+000
 0.93679124E+000  0.93988916E-006
 0.94125044E+000  0.68751310E-005
 0.95539522E+000 -0.14282913E-004
 0.97367024E+000  0.20174898E-004
 0.99030256E+000 -0.23867421E-004
 0.99083739E+000  0.22316367E-004
 0.00000000E+000  0.00000000E+000
 0.39295038E+000 -0.39080314E-004
 0.68210369E+000  0.26680650E-004
 0.86359840E+000  0.45406040E-005
 0.95709711E+000 -0.26523757E-004
 0.99119323E+000  0.34962817E-004
 0.98989099E+000 -0.32967454E-004
 0.97411978E+000  0.27652511E-004
 0.95737755E+000 -0.12446445E-004
 0.95492094E+000 -0.19241597E-004
 0.86340451E+000 -0.85489436E-005
 0.68221831E+000  0.32602605E-004
 0.39289405E+000 -0.37916255E-004
 0.00000000E+000  0.00000000E+000
 0.94173800E+000  0.10532350E-004
 0.93629902E+000 -0.97816268E-006
 0.94173818E+000 -0.86090321E-005
 0.95492064E+000  0.17443340E-004
 0.97412025E+000 -0.26055626E-004
 0.98989045E+000  0.31637024E-004
 0.99119383E+000 -0.33964461E-004
 0.00000000E+000  0.00000000E+000
 0.39288398E+000  0.40069029E-004
 0.68224191E+000 -0.17877267E-004
 0.86336529E+000 -0.19663595E-004
 0.95742928E+000  0.42560666E-004
 0.99078327E+000 -0.45324104E-004
 0.95709651E+000  0.25891344E-004
 0.99035412E+000  0.41462750E-004
 0.97362220E+000 -0.31824492E-004
 0.86359894E+000 -0.42635456E-005
 0.95543932E+000  0.22904810E-004
 0.68210333E+000 -0.26674693E-004
 0.39295059E+000  0.38931724E-004
 0.00000000E+000  0.00000000E+000
 0.94120728E+000 -0.11634804E-004
 0.93683272E+000  0.10286272E-005
 0.94120711E+000  0.96230724E-005
 0.95543968E+000 -0.21021020E-004
 0.97362166E+000  0.30153925E-004
 0.99035471E+000 -0.40083712E-004
 0.99078261E+000  0.44297856E-004
 0.95742994E+000 -0.41924846E-004
 0.00000000E+000  0.00000000E+000
 0.39296504E+000 -0.40259244E-004
 0.68207204E+000  0.60839288E-005
 0.86365234E+000  0.39721686E-004
 0.95703256E+000 -0.58054716E-004
 0.99125760E+000  0.56702763E-004
 0.98983299E+000 -0.46926252E-004
 0.86336475E+000  0.19400815E-004
 0.97417116E+000  0.36817182E-004
 0.68224227E+000  0.17837124E-004
 0.39288380E+000 -0.39899419E-004
 0.00000000E+000  0.00000000E+000
 0.95487314E+000 -0.24633627E-004
 0.94178146E+000  0.13114813E-004
 0.93625479E+000 -0.10748181E-005
 0.94178164E+000 -0.11011611E-004
 0.95487278E+000  0.22664611E-004
 0.97417169E+000 -0.35072112E-004
 0.98983240E+000  0.45489585E-004
 0.99125832E+000 -0.55644344E-004
 0.95703184E+000  0.57417768E-004
 0.86365288E+000 -0.39483613E-004
 0.00000000E+000  0.00000000E+000
 0.39286404E+000  0.39170477E-004
 0.68228685E+000  0.11002260E-004
 0.86329299E+000 -0.64679836E-004
 0.95750975E+000  0.72405084E-004
 0.99070900E+000 -0.67547858E-004
 0.99041730E+000  0.49225378E-004
 0.68207162E+000 -0.60105080E-005
 0.39296525E+000  0.40054754E-004
 0.97356778E+000 -0.42031548E-004
 0.00000000E+000  0.00000000E+000
 0.95548868E+000  0.24469491E-004
 0.94116276E+000 -0.14757480E-004
 0.93687748E+000  0.11235957E-005
 0.94116252E+000  0.12556131E-004
 0.95548909E+000 -0.22415893E-004
 0.97356724E+000  0.40207371E-004
 0.99041795E+000 -0.47736008E-004
 0.99070829E+000  0.66460306E-004
 0.95751047E+000 -0.71766262E-004
 0.86329233E+000  0.64471023E-004
 0.68228733E+000 -0.11120011E-004
 0.00000000E+000  0.00000000E+000
 0.39299097E+000 -0.36996072E-004
 0.68200069E+000 -0.41398307E-004
 0.86374360E+000  0.84061706E-004
 0.95692789E+000 -0.98728822E-004
 0.39286383E+000 -0.38936668E-004
 0.99133825E+000  0.57953373E-004
 0.00000000E+000  0.00000000E+000
 0.98976624E+000 -0.67336586E-004
 0.97423177E+000  0.29589848E-004
 0.95482969E+000 -0.35504228E-004
 0.94183474E+000  0.93584139E-005
 0.93621927E+000 -0.11751050E-005
 0.94183492E+000 -0.70689288E-005
 0.95482927E+000  0.33351381E-004
 0.97423237E+000 -0.27699199E-004
 0.98976552E+000  0.65779211E-004
 0.99133902E+000 -0.56839555E-004
 0.95692712E+000  0.98090284E-004
 0.86374425E+000 -0.83884944E-004
 0.68200027E+000  0.41563063E-004
 0.39299118E+000  0.36719724E-004
 0.00000000E+000  0.00000000E+000
 0.00000000E+000  0.00000000E+000
 0.39280867E+000  0.23670232E-004
 0.68236714E+000  0.66226675E-004
 0.86314064E+000 -0.13866362E-003
 0.95761483E+000  0.72673945E-004
 0.99061173E+000 -0.99107550E-004
 0.99048984E+000  0.25920335E-004
 0.97352111E+000 -0.67045242E-004
 0.95555794E+000  0.61026348E-005
 0.94114351E+000 -0.24616578E-004
 0.93694812E+000  0.12151921E-005
 0.94114333E+000  0.22205524E-004
 0.95555835E+000 -0.38784442E-005
 0.97352051E+000  0.65058149E-004
 0.99049055E+000 -0.24319260E-004
 0.99061095E+000  0.97948061E-004
 0.95761561E+000 -0.72045608E-004
 0.86313998E+000  0.13852765E-003
 0.68236762E+000 -0.66448868E-004
 0.39280843E+000 -0.23345919E-004
 0.00000000E+000  0.00000000E+000
 0.00000000E+000  0.00000000E+000
 0.39303886E+000 -0.11269894E-004
 0.68181031E+000 -0.14637765E-003
 0.86388474E+000  0.12063178E-003
 0.95675897E+000 -0.13281351E-003
 0.99141621E+000  0.19556295E-004
 0.98969829E+000 -0.10253832E-003
 0.97431468E+000 -0.67743844E-005
 0.95482355E+000 -0.57717086E-004
 0.94193094E+000 -0.48657975E-005
 0.93623495E+000 -0.12896023E-005
 0.94193112E+000  0.73277092E-005
 0.95482313E+000  0.55361262E-004
 0.97431528E+000  0.88090400E-005
 0.98969757E+000  0.10083823E-003
 0.99141705E+000 -0.18386812E-004
 0.95675814E+000  0.13217297E-003
 0.86388552E+000 -0.12055260E-003
 0.68180984E+000  0.14666549E-003
 0.39303907E+000  0.10897480E-004
 0.00000000E+000  0.00000000E+000
 0.00000000E+000  0.00000000E+000
 0.39264521E+000 -0.45844990E-004
 0.68254965E+000  0.18801154E-003
 0.86283779E+000 -0.19481414E-003
 0.95771092E+000  0.20726725E-004
 0.99049806E+000 -0.12172720E-003
 0.99057382E+000 -0.12909536E-004
 0.97350519E+000 -0.84911007E-004
 0.95566803E+000 -0.17958309E-004
 0.94118458E+000 -0.32676653E-004
 0.93707418E+000  0.12996412E-005
 0.94118434E+000  0.30033821E-004
 0.95566844E+000  0.20331564E-004
 0.97350460E+000  0.82724611E-004
 0.99057465E+000  0.14616658E-004
 0.99049723E+000  0.12046771E-003
 0.95771181E+000 -0.20129593E-004
 0.86283707E+000  0.19476510E-003
 0.68255019E+000 -0.18839629E-003
 0.39264497E+000  0.46269844E-004
 0.00000000E+000  0.00000000E+000
 0.00000000E+000  0.00000000E+000
 0.39322152E+000  0.13140639E-003
 0.68132811E+000 -0.33263448E-003
 0.86409717E+000  0.65971289E-004
 0.95657652E+000 -0.10150070E-003
 0.99148523E+000 -0.10201743E-004
 0.98963576E+000 -0.10429648E-003
 0.97441363E+000 -0.40836999E-004
 0.95486444E+000 -0.68486901E-004
 0.94207352E+000 -0.18417515E-004
 0.93631422E+000 -0.14198374E-005
 0.94207376E+000  0.21030849E-004
 0.95486402E+000  0.65900312E-004
 0.97441428E+000  0.42991141E-004
 0.98963499E+000  0.10241580E-003
 0.99148619E+000  0.11426563E-004
 0.95657563E+000  0.10084376E-003
 0.86409807E+000 -0.66031025E-004
 0.68132758E+000  0.33309534E-003
 0.39322179E+000 -0.13190122E-003
 0.00000000E+000  0.00000000E+000
 0.00000000E+000  0.00000000E+000
 0.39206781E+000 -0.39291559E-003
 0.68309181E+000  0.32778573E-003
 0.86243778E+000 -0.34454271E-004
 0.95768463E+000 -0.86760410E-004
 0.99033153E+000 -0.21445640E-003
 0.99065792E+000 -0.17137330E-003
 0.97355419E+000 -0.17585388E-003
 0.95584332E+000 -0.97681964E-004
 0.94131273E+000 -0.61307924E-004
 0.93726998E+000  0.13744786E-005
 0.94131249E+000  0.58400921E-004
 0.95584380E+000  0.10016745E-003
 0.97355359E+000  0.17344056E-003
 0.99065881E+000  0.17317957E-003
 0.99033063E+000  0.21305536E-003
 0.95768570E+000  0.87320360E-004
 0.86243700E+000  0.34511704E-004
 0.68309247E+000 -0.32840066E-003
 0.39206764E+000  0.39348023E-003
 0.00000000E+000  0.00000000E+000
 0.00000000E+000  0.00000000E+000
 0.39425256E+000  0.88014104E-003
 0.67994159E+000 -0.43161123E-003
 0.86367237E+000 -0.89895736E-003
 0.95622849E+000 -0.95288123E-003
 0.99165236E+000 -0.83635194E-003
 0.98984491E+000 -0.65095303E-003
 0.97478419E+000 -0.45010127E-003
 0.95518028E+000 -0.29003186E-003
 0.94243806E+000 -0.13280147E-003
 0.93662393E+000 -0.15611078E-005
 0.94243830E+000  0.13554649E-003
 0.95517987E+000  0.28720803E-003
 0.97478491E+000  0.45235428E-003
 0.98984420E+000  0.64883660E-003
 0.99165350E+000  0.83761505E-003
 0.95622766E+000  0.95216784E-003
 0.86367344E+000  0.89874118E-003
 0.67994111E+000  0.43231243E-003
 0.39425292E+000 -0.88083476E-003
 0.00000000E+000  0.00000000E+000
 0.00000000E+000  0.00000000E+000
 0.38653028E+000 -0.27800167E-002
 0.68111157E+000 -0.27864791E-002
 0.86137908E+000 -0.19120811E-002
 0.95783632E+000 -0.16720991E-002
 0.99087238E+000 -0.13677370E-002
 0.99159282E+000 -0.12397761E-002
 0.97455251E+000 -0.10006700E-002
 0.95693379E+000 -0.72485936E-003
 0.94236594E+000 -0.37769271E-003
 0.93835729E+000  0.14608150E-005
 0.94236576E+000  0.37457165E-003
 0.95693433E+000  0.72744552E-003
 0.97455191E+000  0.99805509E-003
 0.99159371E+000  0.12416541E-002
 0.99087154E+000  0.13661353E-002
 0.95783758E+000  0.16724799E-002
 0.86137843E+000  0.19121405E-002
 0.68111252E+000  0.27854910E-002
 0.38653013E+000  0.27807364E-002
 0.00000000E+000  0.00000000E+000
 0.00000000E+000  0.00000000E+000
 0.40959393E+000 -0.57300189E-002
 0.69647008E+000 -0.66957436E-002
 0.87873172E+000 -0.78071383E-002
 0.96780067E+000 -0.69614271E-002
 0.99996662E+000 -0.60158884E-002
 0.99531453E+000 -0.45880055E-002
 0.97825372E+000 -0.33335953E-002
 0.95727932E+000 -0.20965291E-002
 0.94381737E+000 -0.10214541E-002
 0.93774539E+000 -0.16661763E-005
 0.94381755E+000  0.10244095E-002
 0.95727890E+000  0.20935209E-002
 0.97825443E+000  0.33360093E-002
 0.99531376E+000  0.45856512E-002
 0.99996763E+000  0.60171927E-002
 0.96779972E+000  0.69604679E-002
 0.87873274E+000  0.78065143E-002
 0.69646966E+000  0.66962298E-002
 0.40959480E+000  0.57285684E-002
 0.00000000E+000  0.00000000E+000
