1 0.000000e+00 0.000000e+00 0.000000e+00 0.000000e+00 0.000000e+00 0.000000e+00
2 0.000000e+00 0.000000e+00 8.000000e-04 0.000000e+00 0.000000e+00 8.000000e+01
3 0.000000e+00 0.000000e+00 1.251250e-02 0.000000e+00 0.000000e+00 4.000000e+01
4 0.000000e+00 0.000000e+00 0.000000e+00 0.000000e+00 0.000000e+00 0.000000e+00
5 0.000000e+00 0.000000e+00 -1.000000e-03 0.000000e+00 0.000000e+00 -1.000000e+02
6 0.000000e+00 0.000000e+00 0.000000e+00 0.000000e+00 0.000000e+00 0.000000e+00
7 0.000000e+00 0.000000e+00 1.251250e-02 0.000000e+00 0.000000e+00 4.000000e+01
8 0.000000e+00 0.000000e+00 2.422500e-02 0.000000e+00 0.000000e+00 0.000000e+00
9 0.000000e+00 0.000000e+00 3.000000e-02 0.000000e+00 0.000000e+00 0.000000e+00
