 0.68144435E+001
 0.69500552E+001
 0.18273061E+002
 0.12830834E+002
 0.91131435E+001
 0.22415250E+002
 0.15481900E+002
 0.15976095E+002
 0.61787760E+001
 0.65329160E+001
 0.12974382E+002
 0.13147125E+002
 0.13130435E+002
 0.13055069E+002
 0.12930982E+002
 0.12757884E+002
 0.12551084E+002
 0.12297853E+002
 0.11996481E+002
 0.11640087E+002
 0.11196739E+002
 0.10661742E+002
 0.97996207E+001
 0.21993353E+002
 0.21520223E+002
 0.21104004E+002
 0.20708421E+002
 0.20362162E+002
 0.20050616E+002
 0.19772197E+002
 0.19525835E+002
 0.19298657E+002
 0.19106423E+002
 0.18930628E+002
 0.18748754E+002
 0.18453326E+002
 0.18709029E+002
 0.18731411E+002
 0.18363161E+002
 0.18367591E+002
 0.18415810E+002
 0.18109083E+002
 0.18022778E+002
 0.17413520E+002
 0.17027033E+002
 0.16625963E+002
 0.16420007E+002
 0.16094923E+002
 0.15110257E+002
 0.13601951E+002
 0.11546463E+002
 0.15724620E+000
-0.38774867E+000
 0.66454402E+000
 0.12915497E+002
 0.18257612E+002
 0.22236475E+002
 0.24977428E+002
 0.26927426E+002
 0.28444872E+002
 0.29197564E+002
 0.29809449E+002
 0.29605044E+002
 0.30004254E+002
 0.29906664E+002
 0.29764369E+002
 0.29108182E+002
 0.28395385E+002
 0.26863234E+002
 0.24978201E+002
 0.22040275E+002
 0.17901610E+002
 0.12673515E+002
 0.46446056E+000
-0.28346717E+000
 0.16708236E+000
 0.10808459E+002
 0.12628497E+002
 0.13795679E+002
 0.14467967E+002
 0.14456144E+002
 0.14292326E+002
 0.14295750E+002
 0.14276086E+002
 0.14461656E+002
 0.14123900E+002
 0.14034030E+002
 0.13618074E+002
 0.13316255E+002
 0.13465443E+002
 0.13301696E+002
 0.22388218E+002
 0.22367279E+002
 0.22066787E+002
 0.21842058E+002
 0.21496477E+002
 0.21022172E+002
 0.20726755E+002
 0.20219319E+002
 0.19927464E+002
 0.19417434E+002
 0.18912717E+002
 0.18416254E+002
 0.18165419E+002
 0.17689085E+002
 0.17228348E+002
 0.17013467E+002
 0.16564402E+002
 0.16344032E+002
 0.16308411E+002
 0.16046052E+002
 0.16096437E+002
 0.15997052E+002
 0.15708485E+002
 0.15128555E+002
 0.17162119E+002
 0.17505433E+002
 0.17503279E+002
 0.17269459E+002
 0.17111986E+002
 0.16612580E+002
 0.16209637E+002
 0.15961061E+002
 0.15411476E+002
 0.15079058E+002
 0.14713354E+002
 0.14086104E+002
 0.13712233E+002
 0.13329771E+002
 0.12935159E+002
 0.12332818E+002
 0.11989812E+002
 0.11447703E+002
 0.11163523E+002
 0.10774514E+002
 0.10351615E+002
 0.10076137E+002
 0.95326039E+001
 0.13719215E+002
 0.18715464E+002
 0.17566551E+002
 0.15315700E+002
 0.17832785E+002
 0.18435879E+002
 0.22776113E+002
 0.12642689E+002
 0.19824456E+002
 0.16879326E+002
 0.17648100E+002
 0.18170927E+002
 0.14568982E+002
 0.19787359E+002
 0.19216329E+002
 0.15913984E+002
 0.17344714E+002
 0.15605526E+002
 0.17102537E+002
 0.19131118E+002
 0.13487597E+002
 0.23288601E+002
 0.23098374E+002
 0.17884543E+002
 0.14445383E+002
 0.17380792E+002
 0.18843702E+002
 0.13358298E+002
 0.17802344E+002
 0.19245121E+002
 0.14779437E+002
 0.17215956E+002
 0.16771061E+002
 0.17048058E+002
 0.14801912E+002
 0.15840377E+002
 0.20852026E+002
 0.11573330E+002
 0.17600096E+002
 0.15298631E+002
 0.18407420E+002
 0.13878557E+002
 0.19345877E+002
 0.12969840E+002
 0.25968695E+002
 0.17803476E+002
 0.18367349E+002
 0.14365622E+002
 0.20182339E+002
 0.12383102E+002
 0.17366724E+002
 0.17924662E+002
 0.14717768E+002
 0.26215217E+002
 0.18604847E+002
 0.20071682E+002
 0.12308994E+002
 0.22540933E+002
 0.17731239E+002
 0.15177421E+002
 0.18186428E+002
 0.18008115E+002
 0.16059090E+002
 0.17464267E+002
 0.22250201E+002
 0.19132855E+002
 0.13368746E+002
 0.20540158E+002
 0.19920941E+002
 0.17652366E+002
 0.18663877E+002
 0.13932129E+002
 0.19634802E+002
 0.19560663E+002
 0.14756766E+002
 0.16533805E+002
 0.16572978E+002
 0.16828627E+002
 0.16686870E+002
 0.23402299E+002
 0.12487557E+002
 0.23918083E+002
 0.19967294E+002
 0.19011601E+002
 0.13669687E+002
 0.13184219E+002
 0.13677791E+002
 0.17517008E+002
 0.15717756E+002
 0.17398647E+002
 0.14144053E+002
 0.16071106E+002
 0.16969514E+002
 0.16604224E+002
 0.17652494E+002
 0.14811958E+002
 0.19066200E+002
 0.13322827E+002
 0.19761077E+002
 0.12912442E+002
 0.18252626E+002
 0.14197540E+002
 0.16144695E+002
 0.18767195E+002
 0.13308455E+002
 0.16884023E+002
 0.17261419E+002
 0.17232028E+002
 0.19077744E+002
 0.13117814E+002
 0.18566255E+002
 0.13516851E+002
 0.17512452E+002
 0.14463861E+002
 0.18714363E+002
 0.13588672E+002
 0.20957274E+002
 0.11576420E+002
 0.10855115E+002
 0.21478184E+002
 0.18096652E+002
 0.14207005E+002
 0.27291731E+002
 0.19600352E+002
 0.12943230E+002
 0.20616531E+002
 0.26902899E+002
 0.25813074E+002
 0.17340143E+002
 0.17041036E+002
 0.17839393E+002
 0.14943254E+002
 0.18255583E+002
 0.14368614E+002
 0.15173193E+002
 0.17364427E+002
 0.18615239E+002
 0.14056520E+002
 0.20981748E+002
 0.19705170E+002
 0.12629000E+002
 0.20318682E+002
 0.14229280E+002
 0.15593857E+002
 0.17443719E+002
 0.15638713E+002
 0.17522560E+002
 0.19690070E+002
 0.12698348E+002
 0.20642054E+002
 0.11727044E+002
 0.17583864E+002
 0.15414983E+002
 0.16596132E+002
 0.20389724E+002
 0.12101384E+002
 0.18160613E+002
 0.16318615E+002
 0.17283358E+002
 0.15111607E+002
 0.17019342E+002
 0.15120679E+002
 0.20905655E+002
 0.17565900E+002
 0.16463053E+002
 0.16348221E+002
 0.28646830E+002
 0.24073869E+002
 0.17010345E+002
 0.21199229E+002
 0.13021797E+002
 0.19409029E+002
 0.16994705E+002
 0.15526091E+002
 0.17328367E+002
 0.12710059E+002
 0.18025831E+002
 0.14769845E+002
 0.23955740E+002
 0.13658078E+002
 0.17089858E+002
 0.14522072E+002
 0.16733645E+002
 0.19031607E+002
 0.13253853E+002
 0.18496317E+002
 0.13872996E+002
 0.19245913E+002
 0.20257280E+002
 0.12172842E+002
 0.19379098E+002
 0.12887525E+002
 0.18946865E+002
 0.18352048E+002
 0.14352978E+002
 0.17973447E+002
 0.18208457E+002
 0.14135044E+002
 0.20436299E+002
 0.12140452E+002
 0.23978469E+002
 0.15030720E+002
 0.17738108E+002
 0.18358594E+002
 0.13836643E+002
 0.24131586E+002
 0.94841032E+001
 0.18037451E+002
 0.14691198E+002
 0.26874015E+002
 0.18905964E+002
 0.13189084E+002
 0.89001042E+001
 0.18506360E+002
 0.14019044E+002
 0.21459499E+002
 0.11009042E+002
 0.17411426E+002
 0.18318784E+002
 0.19023362E+002
 0.17460716E+002
 0.17221376E+002
 0.16652377E+002
 0.16507373E+002
 0.18046688E+002
 0.20425201E+002
 0.22199259E+002
 0.28894118E+002
 0.19157962E+002
 0.19713232E+002
 0.12887599E+002
 0.21795952E+002
 0.16673637E+002
 0.21832909E+002
 0.18612702E+002
 0.17173080E+002
 0.15036198E+002
 0.17830168E+002
 0.16922741E+002
 0.17504818E+002
 0.14660181E+002
 0.19067163E+002
 0.13500094E+002
 0.19534136E+002
 0.21391843E+002
 0.28483295E+002
 0.17992432E+002
 0.20934931E+002
 0.18824125E+002
 0.18377756E+002
 0.22290616E+002
 0.26850825E+002
 0.18642636E+002
 0.13575296E+002
 0.18029208E+002
 0.14428297E+002
 0.19452385E+002
 0.22071470E+002
 0.21030960E+002
 0.11296764E+002
 0.19088721E+002
 0.21311347E+002
 0.19586646E+002
 0.13206782E+002
 0.16131554E+002
 0.17158533E+002
 0.15974704E+002
 0.18862188E+002
 0.13645558E+002
 0.16158421E+002
 0.28730254E+002
 0.15159182E+002
 0.14838427E+002
 0.16597295E+002
 0.20007712E+002
 0.12507292E+002
 0.16375488E+002
 0.17123512E+002
 0.17461729E+002
 0.15541452E+002
 0.18776844E+002
 0.13899923E+002
 0.15716870E+002
 0.17479789E+002
 0.18582580E+002
 0.13394171E+002
 0.16540996E+002
 0.17538022E+002
 0.20174865E+002
 0.12181972E+002
 0.18927222E+002
 0.13522562E+002
 0.14489092E+002
 0.17460336E+002
 0.17815188E+002
 0.14385090E+002
 0.14384075E+002
 0.17072859E+002
 0.16815113E+002
 0.19296312E+002
 0.13361227E+002
 0.19351269E+002
 0.20137233E+002
 0.20041099E+002
 0.10611998E+002
 0.18706491E+002
 0.13403089E+002
 0.18646643E+002
 0.13936355E+002
 0.17441045E+002
 0.18854583E+002
 0.16600658E+002
 0.17641394E+002
 0.17506393E+002
 0.25008528E+002
 0.15128924E+002
 0.20650426E+002
 0.18158488E+002
 0.14391366E+002
 0.16360121E+002
 0.10730131E+002
 0.14491602E+002
 0.19228537E+002
 0.16740646E+002
 0.20239158E+002
 0.12385177E+002
 0.24244208E+002
 0.19405723E+002
 0.12970721E+002
 0.17874077E+002
 0.24537906E+002
 0.15467904E+002
 0.18138235E+002
 0.18482643E+002
 0.12976825E+002
 0.19507693E+002
 0.20908692E+002
 0.11638090E+002
 0.16094488E+002
 0.10396832E+002
 0.21788060E+002
 0.15486903E+002
 0.17216905E+002
 0.15896238E+002
 0.16990589E+002
 0.18450189E+002
 0.14214709E+002
 0.14506306E+002
 0.16134277E+002
 0.16923617E+002
 0.17151099E+002
 0.10268410E+002
 0.17366530E+002
 0.18311884E+002
 0.14420365E+002
 0.18704434E+002
 0.13199478E+002
 0.16818611E+002
 0.18838372E+002
 0.13537215E+002
 0.24186046E+002
 0.16993003E+002
 0.16908777E+002
 0.18020385E+002
 0.14801526E+002
 0.17837944E+002
 0.14383031E+002
 0.17486896E+002
 0.17508195E+002
 0.15605533E+002
 0.16814467E+002
 0.15104117E+002
 0.17520693E+002
 0.18928174E+002
 0.13238260E+002
 0.20733415E+002
 0.13298354E+002
 0.11529885E+002
 0.15974138E+002
 0.17396050E+002
 0.24094671E+002
 0.20569307E+002
 0.11980185E+002
 0.16516140E+002
 0.19223811E+002
 0.12991649E+002
 0.18146709E+002
 0.17411455E+002
 0.14928483E+002
 0.19878623E+002
 0.12459377E+002
 0.17788183E+002
 0.14808307E+002
 0.17639167E+002
 0.15305746E+002
 0.15428747E+002
 0.17440533E+002
 0.18484291E+002
 0.13965852E+002
 0.14465475E+002
 0.19166454E+002
 0.13100321E+002
 0.17037329E+002
 0.18266092E+002
 0.14062860E+002
 0.19975534E+002
 0.12634384E+002
 0.79459638E+001
 0.19959300E+002
 0.12465951E+002
 0.16910074E+002
 0.14804577E+002
 0.17511291E+002
 0.15207686E+002
 0.16709142E+002
 0.21180846E+002
 0.80163019E+001
 0.25013123E+002
 0.18623756E+002
 0.14060350E+002
 0.22559021E+002
 0.18764869E+002
 0.13382964E+002
 0.19796090E+002
 0.12568520E+002
 0.16758171E+002
 0.17414999E+002
 0.16959355E+002
 0.15642910E+002
 0.17313698E+002
 0.15743334E+002
 0.14567635E+002
 0.16496289E+002
 0.26234594E+002
 0.18849472E+002
 0.13766818E+002
 0.16737337E+002
 0.21883599E+002
 0.10536451E+002
 0.17899815E+002
 0.18289722E+002
 0.13995594E+002
 0.19730392E+002
 0.16160403E+002
 0.19301971E+002
 0.13267803E+002
 0.17280542E+002
 0.14577403E+002
 0.17726255E+002
 0.20447860E+002
 0.18489295E+002
 0.13712207E+002
 0.24226586E+002
 0.16337386E+002
 0.16934220E+002
 0.18095868E+002
 0.14685902E+002
 0.16974624E+002
 0.17717120E+002
 0.14604676E+002
 0.29363648E+002
 0.18843119E+002
 0.13409653E+002
 0.20249862E+002
 0.14735150E+002
 0.21406178E+002
 0.10841570E+002
 0.26381993E+002
 0.21185112E+002
 0.11231073E+002
 0.18109613E+002
 0.14280877E+002
 0.19935008E+002
 0.12756745E+002
 0.16221823E+002
 0.18043665E+002
 0.14258104E+002
 0.20522057E+002
 0.11881146E+002
 0.21408809E+002
 0.11149100E+002
 0.26934766E+002
 0.19589818E+002
 0.12711349E+002
 0.16435890E+002
 0.26582113E+002
 0.20749451E+002
 0.11734848E+002
 0.15862611E+002
 0.19917386E+002
 0.21262948E+002
 0.15577583E+002
 0.17854873E+002
 0.14925775E+002
 0.17718476E+002
 0.19156767E+002
 0.13544805E+002
 0.18532900E+002
 0.13781247E+002
 0.15098826E+002
 0.18540492E+002
 0.19052170E+002
 0.13096232E+002
 0.26847779E+002
 0.15577744E+002
 0.17527846E+002
 0.17163626E+002
 0.16290697E+002
 0.16597225E+002
 0.18390037E+002
 0.13616988E+002
 0.18941780E+002
 0.13382682E+002
 0.14680784E+002
 0.17387534E+002
 0.14378217E+002
 0.20134626E+002
 0.12330156E+002
 0.17996361E+002
 0.19772353E+002
 0.20502628E+002
 0.11856131E+002
 0.16573074E+002
 0.19472883E+002
 0.12830428E+002
 0.17413789E+002
 0.22277393E+002
 0.24969290E+002
 0.29187935E+002
 0.18092923E+002
 0.14279394E+002
 0.28638759E+002
 0.16033986E+002
 0.17863158E+002
 0.14979470E+002
 0.15220799E+002
 0.17615399E+002
 0.18392151E+002
 0.18986530E+002
 0.13241289E+002
 0.13894354E+002
 0.15015270E+002
 0.17194544E+002
 0.15260966E+002
 0.17663558E+002
 0.18236917E+002
 0.14448366E+002
 0.11552800E+002
 0.20828012E+002
 0.17738215E+002
 0.17253194E+002
 0.19649378E+002
 0.12778276E+002
 0.18064490E+002
 0.14593132E+002
 0.25387155E+002
 0.84568967E+001
 0.19175035E+002
 0.13163259E+002
 0.18474124E+002
 0.14117800E+002
 0.15732283E+002
 0.17392140E+002
 0.19190327E+002
 0.13256838E+002
 0.19027054E+002
 0.13629874E+002
 0.15620185E+002
 0.16543278E+002
 0.17244037E+002
 0.16641683E+002
 0.17045584E+002
 0.19883323E+002
 0.12676526E+002
 0.14055301E+002
 0.15936958E+002
 0.17827742E+002
 0.14623787E+002
 0.22996783E+002
 0.16338246E+002
 0.19327297E+002
 0.13203191E+002
 0.18143542E+002
 0.14627464E+002
 0.26854898E+002
 0.17675688E+002
 0.17216152E+002
 0.20486701E+002
 0.11965257E+002
 0.19571373E+002
 0.12776277E+002
 0.17831148E+002
 0.14990611E+002
 0.19983644E+002
 0.12375975E+002
 0.78944783E+001
 0.16257132E+002
 0.18647174E+002
 0.19123807E+002
 0.15011783E+002
 0.17654507E+002
 0.21666371E+002
 0.18814170E+002
 0.13184779E+002
 0.17365369E+002
 0.18358955E+002
 0.13975487E+002
 0.17209139E+002
 0.15612529E+002
 0.16244768E+002
 0.16952161E+002
 0.14038396E+002
 0.15438115E+002
 0.23073693E+002
 0.18658993E+002
 0.13724202E+002
 0.17684901E+002
 0.14511019E+002
 0.17288950E+002
 0.29891809E+002
 0.17689263E+002
 0.19504856E+002
 0.22057997E+002
 0.15368397E+002
 0.16922636E+002
 0.13752565E+002
 0.27836293E+002
 0.17146696E+002
 0.17446280E+002
 0.28648895E+002
 0.12942551E+002
 0.23375186E+002
 0.19434898E+002
 0.13163324E+002
 0.18393630E+002
 0.24830462E+002
 0.25283569E+002
 0.16547263E+002
 0.19136022E+002
 0.14605378E+002
 0.17038662E+002
 0.22513791E+002
 0.29871243E+002
 0.21097206E+002
 0.11384612E+002
 0.17189036E+002
 0.20793183E+002
 0.11549401E+002
 0.20308170E+002
 0.12067549E+002
 0.15840555E+002
 0.25792747E+002
 0.21873007E+002
 0.15408615E+002
 0.17329586E+002
 0.17462194E+002
 0.16152659E+002
 0.17268681E+002
 0.23023937E+002
 0.14063775E+002
 0.18324082E+002
 0.18580261E+002
 0.13135179E+002
 0.15869087E+002
 0.17466356E+002
 0.18819618E+002
 0.13302586E+002
 0.17987188E+002
 0.18779956E+002
 0.17040959E+002
 0.19414821E+002
 0.13287087E+002
 0.14260226E+002
 0.16679963E+002
 0.23398180E+002
 0.21125401E+002
 0.18645797E+002
 0.13992287E+002
 0.17615031E+002
 0.15402142E+002
 0.14096887E+002
 0.18214547E+002
 0.18519698E+002
 0.17318793E+002
 0.18347287E+002
 0.14206905E+002
 0.18998930E+002
 0.16394788E+002
 0.15594129E+002
 0.12768139E+002
 0.19734142E+002
 0.16579787E+002
 0.15272035E+002
 0.17683045E+002
 0.20337754E+002
 0.12188755E+002
 0.19255865E+002
 0.12998011E+002
 0.15925002E+002
 0.15333389E+002
 0.17021912E+002
 0.17075809E+002
 0.20316829E+002
 0.12072261E+002
 0.15781095E+002
 0.18538627E+002
 0.21356040E+002
 0.18423625E+002
 0.13439464E+002
 0.29695873E+002
 0.18160317E+002
 0.17715819E+002
 0.18302969E+002
 0.14374491E+002
 0.16794274E+002
 0.17904100E+002
 0.21352836E+002
 0.14395892E+002
 0.16513095E+002
 0.18047779E+002
 0.14739332E+002
 0.21693467E+002
 0.18419409E+002
 0.17449924E+002
 0.19562608E+002
 0.20656179E+002
 0.11924674E+002
 0.19600773E+002
 0.13041476E+002
 0.19900171E+002
 0.18342463E+002
 0.14367217E+002
 0.21737366E+002
 0.22589081E+002
 0.17865741E+002
 0.17887624E+002
 0.17487835E+002
 0.21124371E+002
 0.11238809E+002
 0.20724781E+002
 0.16060217E+002
 0.12825693E+002
 0.18304901E+002
 0.17150784E+002
 0.19772665E+002
 0.22937507E+002
 0.21415828E+002
 0.12918871E+002
 0.14956003E+002
 0.16795165E+002
 0.16515406E+002
 0.19261008E+002
 0.13139788E+002
 0.18028211E+002
 0.14745493E+002
 0.12021755E+002
 0.18717699E+002
 0.13456375E+002
 0.16602724E+002
 0.20197215E+002
 0.12204716E+002
 0.25119065E+002
 0.19962940E+002
 0.18859370E+002
 0.13696743E+002
 0.12500826E+002
 0.17837310E+002
 0.15013659E+002
 0.19403364E+002
 0.12856696E+002
 0.16231876E+002
 0.18786090E+002
 0.18489266E+002
 0.21052876E+002
 0.22326593E+002
 0.21382784E+002
 0.20489187E+002
 0.18806061E+002
 0.18522736E+002
 0.14180342E+002
 0.15897166E+002
 0.17206322E+002
 0.18670953E+002
 0.13875088E+002
 0.20915196E+002
 0.21731577E+002
 0.10814946E+002
 0.78268777E+001
 0.16845019E+002
 0.18687240E+002
 0.13802823E+002
 0.17797823E+002
 0.17275820E+002
 0.18347325E+002
 0.13815429E+002
 0.83926722E+001
 0.18499430E+002
 0.50303747E+001
 0.14794030E+002
 0.17944779E+002
 0.14596957E+002
 0.21288962E+002
 0.11271492E+002
 0.20162711E+002
 0.19833723E+002
 0.14591998E+002
 0.16386220E+002
 0.15239868E+002
 0.17204581E+002
 0.51217262E+001
 0.16813228E+002
 0.18870724E+002
 0.13776808E+002
 0.18862576E+002
 0.19844362E+002
 0.17671112E+002
 0.12476138E+002
 0.19914162E+002
 0.17408243E+002
 0.21920204E+002
 0.21884242E+002
 0.18807489E+002
 0.11741957E+002
 0.24942908E+002
 0.18341515E+002
 0.16469762E+002
 0.16700057E+002
 0.98002003E+001
 0.22066921E+002
 0.14680443E+002
 0.16674253E+002
 0.49933540E+001
 0.27750957E+002
 0.24271560E+002
 0.27944689E+002
 0.52866938E+001
 0.10084746E+002
 0.22136556E+002
 0.19768116E+002
 0.20567028E+002
 0.21753379E+002
 0.10318661E+002
 0.16259596E+002
 0.18554367E+002
 0.13709938E+002
 0.20599346E+002
 0.11916877E+002
 0.19099760E+002
 0.14159738E+002
 0.18340351E+002
 0.18898632E+002
