 0.40249820E+003
 0.40249820E+003
 0.40249820E+003
 0.40249820E+003
 0.40249820E+003
 0.40249820E+003
 0.40249820E+003
 0.40249820E+003
 0.40249820E+003
 0.40249820E+003
 0.40249820E+003
 0.40249820E+003
 0.40249820E+003
 0.40249820E+003
 0.40249820E+003
 0.40249820E+003
