 0.20003025E+004
 0.20003025E+004
 0.20003025E+004
 0.20003025E+004
 0.20003025E+004
 0.20003025E+004
 0.20003025E+004
 0.20003025E+004
 0.20003025E+004
 0.20003025E+004
 0.20003025E+004
 0.20003025E+004
 0.20003025E+004
 0.20003025E+004
 0.20003025E+004
 0.20003025E+004
