NODES_PER_ELEMENT
1 4
2 4
3 4
4 4
5 4
6 4
7 4
8 4
9 4
10 4
11 4
12 4
13 4
14 4
15 4
16 4
17 4
18 4
19 4
20 4
21 4
22 4
23 4
24 4
25 4
26 4
27 4
28 4
29 4
30 4
31 4
32 4
33 4
34 4
35 4
36 4
37 4
38 4
39 4
40 4
41 4
42 4
43 4
44 4
45 4
46 4
47 4
48 4
49 4
50 4
51 4
52 4
53 4
54 4
55 4
56 4
57 4
58 4
59 4
60 4
61 4
62 4
63 4
64 4
65 4
66 4
67 4
68 4
69 4
70 4
71 4
72 4
73 4
74 4
75 4
76 4
77 4
78 4
79 4
80 4
81 4
82 4
83 4
84 4
85 4
86 4
87 4
88 4
89 4
90 4
91 4
92 4
93 4
94 4
95 4
96 4
97 4
98 4
99 4
100 4
101 4
102 4
103 4
104 4
105 4
106 4
107 4
108 4
109 4
110 4
111 4
112 4
113 4
114 4
115 4
116 4
117 4
118 4
119 4
120 4
121 4
122 4
123 4
124 4
125 4
126 4
127 4
128 4
129 4
130 4
131 4
132 4
133 4
134 4
135 4
136 4
137 4
138 4
139 4
140 4
141 4
142 4
143 4
144 4
145 4
146 4
147 4
148 4
149 4
150 4
151 4
152 4
153 4
154 4
155 4
156 4
157 4
158 4
159 4
160 4
161 4
162 4
163 4
164 4
165 4
166 4
167 4
168 4
169 4
170 4
171 4
172 4
173 4
174 4
175 4
176 4
177 4
178 4
179 4
180 4
181 4
182 4
183 4
184 4
185 4
186 4
187 4
188 4
189 4
190 4
191 4
192 4
193 4
194 4
195 4
196 4
197 4
198 4
199 4
200 4
201 4
202 4
203 4
204 4
205 4
206 4
207 4
208 4
209 4
210 4
211 4
212 4
213 4
214 4
215 4
216 4
217 4
218 4
219 4
220 4
221 4
222 4
223 4
224 4
225 4
226 4
227 4
228 4
229 4
230 4
231 4
232 4
233 4
234 4
235 4
236 4
237 4
238 4
239 4
240 4
241 4
242 4
243 4
244 4
245 4
246 4
247 4
248 4
249 4
250 4
251 4
252 4
253 4
254 4
255 4
256 4
257 4
258 4
259 4
260 4
261 4
262 4
263 4
264 4
265 4
266 4
267 4
268 4
269 4
270 4
271 4
272 4
273 4
274 4
275 4
276 4
277 4
278 4
279 4
280 4
281 4
282 4
283 4
284 4
285 4
286 4
287 4
288 4
289 4
290 4
291 4
292 4
293 4
294 4
295 4
296 4
297 4
298 4
299 4
300 4
301 4
302 4
303 4
304 4
305 4
306 4
307 4
308 4
309 4
310 4
311 4
312 4
313 4
314 4
315 4
316 4
317 4
318 4
319 4
320 4
321 4
322 4
323 4
324 4
325 4
326 4
327 4
328 4
329 4
330 4
331 4
332 4
333 4
334 4
335 4
336 4
337 4
338 4
339 4
340 4
341 4
342 4
343 4
344 4
345 4
346 4
347 4
348 4
349 4
350 4
351 4
352 4
353 4
354 4
355 4
356 4
357 4
358 4
359 4
360 4
361 4
362 4
363 4
364 4
365 4
366 4
367 4
368 4
369 4
370 4
371 4
372 4
373 4
374 4
375 4
376 4
377 4
378 4
379 4
380 4
381 4
382 4
383 4
384 4
385 4
386 4
387 4
388 4
389 4
390 4
391 4
392 4
393 4
394 4
395 4
396 4
397 4
398 4
399 4
400 4
401 4
402 4
403 4
404 4
405 4
406 4
407 4
408 4
409 4
410 4
411 4
412 4
413 4
414 4
415 4
416 4
417 4
418 4
419 4
420 4
421 4
422 4
423 4
424 4
425 4
426 4
427 4
428 4
429 4
430 4
431 4
432 4
433 4
434 4
435 4
436 4
437 4
438 4
439 4
440 4
441 4
442 4
443 4
444 4
445 4
446 4
447 4
448 4
449 4
450 4
451 4
452 4
453 4
454 4
455 4
456 4
457 4
458 4
459 4
460 4
461 4
462 4
463 4
464 4
465 4
466 4
467 4
468 4
469 4
470 4
471 4
472 4
473 4
474 4
475 4
476 4
477 4
478 4
479 4
480 4
481 4
482 4
483 4
484 4
485 4
486 4
487 4
488 4
489 4
490 4
491 4
492 4
493 4
494 4
495 4
496 4
497 4
498 4
499 4
END_NODES_PER_ELEMENT
ELEMENTS
1 1 5 1000 4
2 5 6 999 1000
3 6 7 998 999
4 7 8 997 998
5 8 9 996 997
6 9 10 995 996
7 10 11 994 995
8 11 12 993 994
9 12 13 992 993
10 13 14 991 992
11 14 15 990 991
12 15 16 989 990
13 16 17 988 989
14 17 18 987 988
15 18 19 986 987
16 19 20 985 986
17 20 21 984 985
18 21 22 983 984
19 22 23 982 983
20 23 24 981 982
21 24 25 980 981
22 25 26 979 980
23 26 27 978 979
24 27 28 977 978
25 28 29 976 977
26 29 30 975 976
27 30 31 974 975
28 31 32 973 974
29 32 33 972 973
30 33 34 971 972
31 34 35 970 971
32 35 36 969 970
33 36 37 968 969
34 37 38 967 968
35 38 39 966 967
36 39 40 965 966
37 40 41 964 965
38 41 42 963 964
39 42 43 962 963
40 43 44 961 962
41 44 45 960 961
42 45 46 959 960
43 46 47 958 959
44 47 48 957 958
45 48 49 956 957
46 49 50 955 956
47 50 51 954 955
48 51 52 953 954
49 52 53 952 953
50 53 54 951 952
51 54 55 950 951
52 55 56 949 950
53 56 57 948 949
54 57 58 947 948
55 58 59 946 947
56 59 60 945 946
57 60 61 944 945
58 61 62 943 944
59 62 63 942 943
60 63 64 941 942
61 64 65 940 941
62 65 66 939 940
63 66 67 938 939
64 67 68 937 938
65 68 69 936 937
66 69 70 935 936
67 70 71 934 935
68 71 72 933 934
69 72 73 932 933
70 73 74 931 932
71 74 75 930 931
72 75 76 929 930
73 76 77 928 929
74 77 78 927 928
75 78 79 926 927
76 79 80 925 926
77 80 81 924 925
78 81 82 923 924
79 82 83 922 923
80 83 84 921 922
81 84 85 920 921
82 85 86 919 920
83 86 87 918 919
84 87 88 917 918
85 88 89 916 917
86 89 90 915 916
87 90 91 914 915
88 91 92 913 914
89 92 93 912 913
90 93 94 911 912
91 94 95 910 911
92 95 96 909 910
93 96 97 908 909
94 97 98 907 908
95 98 99 906 907
96 99 100 905 906
97 100 101 904 905
98 101 102 903 904
99 102 103 902 903
100 103 104 901 902
101 104 105 900 901
102 105 106 899 900
103 106 107 898 899
104 107 108 897 898
105 108 109 896 897
106 109 110 895 896
107 110 111 894 895
108 111 112 893 894
109 112 113 892 893
110 113 114 891 892
111 114 115 890 891
112 115 116 889 890
113 116 117 888 889
114 117 118 887 888
115 118 119 886 887
116 119 120 885 886
117 120 121 884 885
118 121 122 883 884
119 122 123 882 883
120 123 124 881 882
121 124 125 880 881
122 125 126 879 880
123 126 127 878 879
124 127 128 877 878
125 128 129 876 877
126 129 130 875 876
127 130 131 874 875
128 131 132 873 874
129 132 133 872 873
130 133 134 871 872
131 134 135 870 871
132 135 136 869 870
133 136 137 868 869
134 137 138 867 868
135 138 139 866 867
136 139 140 865 866
137 140 141 864 865
138 141 142 863 864
139 142 143 862 863
140 143 144 861 862
141 144 145 860 861
142 145 146 859 860
143 146 147 858 859
144 147 148 857 858
145 148 149 856 857
146 149 150 855 856
147 150 151 854 855
148 151 152 853 854
149 152 153 852 853
150 153 154 851 852
151 154 155 850 851
152 155 156 849 850
153 156 157 848 849
154 157 158 847 848
155 158 159 846 847
156 159 160 845 846
157 160 161 844 845
158 161 162 843 844
159 162 163 842 843
160 163 164 841 842
161 164 165 840 841
162 165 166 839 840
163 166 167 838 839
164 167 168 837 838
165 168 169 836 837
166 169 170 835 836
167 170 171 834 835
168 171 172 833 834
169 172 173 832 833
170 173 174 831 832
171 174 175 830 831
172 175 176 829 830
173 176 177 828 829
174 177 178 827 828
175 178 179 826 827
176 179 180 825 826
177 180 181 824 825
178 181 182 823 824
179 182 183 822 823
180 183 184 821 822
181 184 185 820 821
182 185 186 819 820
183 186 187 818 819
184 187 188 817 818
185 188 189 816 817
186 189 190 815 816
187 190 191 814 815
188 191 192 813 814
189 192 193 812 813
190 193 194 811 812
191 194 195 810 811
192 195 196 809 810
193 196 197 808 809
194 197 198 807 808
195 198 199 806 807
196 199 200 805 806
197 200 201 804 805
198 201 202 803 804
199 202 203 802 803
200 203 204 801 802
201 204 205 800 801
202 205 206 799 800
203 206 207 798 799
204 207 208 797 798
205 208 209 796 797
206 209 210 795 796
207 210 211 794 795
208 211 212 793 794
209 212 213 792 793
210 213 214 791 792
211 214 215 790 791
212 215 216 789 790
213 216 217 788 789
214 217 218 787 788
215 218 219 786 787
216 219 220 785 786
217 220 221 784 785
218 221 222 783 784
219 222 223 782 783
220 223 224 781 782
221 224 225 780 781
222 225 226 779 780
223 226 227 778 779
224 227 228 777 778
225 228 229 776 777
226 229 230 775 776
227 230 231 774 775
228 231 232 773 774
229 232 233 772 773
230 233 234 771 772
231 234 235 770 771
232 235 236 769 770
233 236 237 768 769
234 237 238 767 768
235 238 239 766 767
236 239 240 765 766
237 240 241 764 765
238 241 242 763 764
239 242 243 762 763
240 243 244 761 762
241 244 245 760 761
242 245 246 759 760
243 246 247 758 759
244 247 248 757 758
245 248 249 756 757
246 249 250 755 756
247 250 251 754 755
248 251 252 753 754
249 252 253 752 753
250 253 254 751 752
251 254 255 750 751
252 255 256 749 750
253 256 257 748 749
254 257 258 747 748
255 258 259 746 747
256 259 260 745 746
257 260 261 744 745
258 261 262 743 744
259 262 263 742 743
260 263 264 741 742
261 264 265 740 741
262 265 266 739 740
263 266 267 738 739
264 267 268 737 738
265 268 269 736 737
266 269 270 735 736
267 270 271 734 735
268 271 272 733 734
269 272 273 732 733
270 273 274 731 732
271 274 275 730 731
272 275 276 729 730
273 276 277 728 729
274 277 278 727 728
275 278 279 726 727
276 279 280 725 726
277 280 281 724 725
278 281 282 723 724
279 282 283 722 723
280 283 284 721 722
281 284 285 720 721
282 285 286 719 720
283 286 287 718 719
284 287 288 717 718
285 288 289 716 717
286 289 290 715 716
287 290 291 714 715
288 291 292 713 714
289 292 293 712 713
290 293 294 711 712
291 294 295 710 711
292 295 296 709 710
293 296 297 708 709
294 297 298 707 708
295 298 299 706 707
296 299 300 705 706
297 300 301 704 705
298 301 302 703 704
299 302 303 702 703
300 303 304 701 702
301 304 305 700 701
302 305 306 699 700
303 306 307 698 699
304 307 308 697 698
305 308 309 696 697
306 309 310 695 696
307 310 311 694 695
308 311 312 693 694
309 312 313 692 693
310 313 314 691 692
311 314 315 690 691
312 315 316 689 690
313 316 317 688 689
314 317 318 687 688
315 318 319 686 687
316 319 320 685 686
317 320 321 684 685
318 321 322 683 684
319 322 323 682 683
320 323 324 681 682
321 324 325 680 681
322 325 326 679 680
323 326 327 678 679
324 327 328 677 678
325 328 329 676 677
326 329 330 675 676
327 330 331 674 675
328 331 332 673 674
329 332 333 672 673
330 333 334 671 672
331 334 335 670 671
332 335 336 669 670
333 336 337 668 669
334 337 338 667 668
335 338 339 666 667
336 339 340 665 666
337 340 341 664 665
338 341 342 663 664
339 342 343 662 663
340 343 344 661 662
341 344 345 660 661
342 345 346 659 660
343 346 347 658 659
344 347 348 657 658
345 348 349 656 657
346 349 350 655 656
347 350 351 654 655
348 351 352 653 654
349 352 353 652 653
350 353 354 651 652
351 354 355 650 651
352 355 356 649 650
353 356 357 648 649
354 357 358 647 648
355 358 359 646 647
356 359 360 645 646
357 360 361 644 645
358 361 362 643 644
359 362 363 642 643
360 363 364 641 642
361 364 365 640 641
362 365 366 639 640
363 366 367 638 639
364 367 368 637 638
365 368 369 636 637
366 369 370 635 636
367 370 371 634 635
368 371 372 633 634
369 372 373 632 633
370 373 374 631 632
371 374 375 630 631
372 375 376 629 630
373 376 377 628 629
374 377 378 627 628
375 378 379 626 627
376 379 380 625 626
377 380 381 624 625
378 381 382 623 624
379 382 383 622 623
380 383 384 621 622
381 384 385 620 621
382 385 386 619 620
383 386 387 618 619
384 387 388 617 618
385 388 389 616 617
386 389 390 615 616
387 390 391 614 615
388 391 392 613 614
389 392 393 612 613
390 393 394 611 612
391 394 395 610 611
392 395 396 609 610
393 396 397 608 609
394 397 398 607 608
395 398 399 606 607
396 399 400 605 606
397 400 401 604 605
398 401 402 603 604
399 402 403 602 603
400 403 404 601 602
401 404 405 600 601
402 405 406 599 600
403 406 407 598 599
404 407 408 597 598
405 408 409 596 597
406 409 410 595 596
407 410 411 594 595
408 411 412 593 594
409 412 413 592 593
410 413 414 591 592
411 414 415 590 591
412 415 416 589 590
413 416 417 588 589
414 417 418 587 588
415 418 419 586 587
416 419 420 585 586
417 420 421 584 585
418 421 422 583 584
419 422 423 582 583
420 423 424 581 582
421 424 425 580 581
422 425 426 579 580
423 426 427 578 579
424 427 428 577 578
425 428 429 576 577
426 429 430 575 576
427 430 431 574 575
428 431 432 573 574
429 432 433 572 573
430 433 434 571 572
431 434 435 570 571
432 435 436 569 570
433 436 437 568 569
434 437 438 567 568
435 438 439 566 567
436 439 440 565 566
437 440 441 564 565
438 441 442 563 564
439 442 443 562 563
440 443 444 561 562
441 444 445 560 561
442 445 446 559 560
443 446 447 558 559
444 447 448 557 558
445 448 449 556 557
446 449 450 555 556
447 450 451 554 555
448 451 452 553 554
449 452 453 552 553
450 453 454 551 552
451 454 455 550 551
452 455 456 549 550
453 456 457 548 549
454 457 458 547 548
455 458 459 546 547
456 459 460 545 546
457 460 461 544 545
458 461 462 543 544
459 462 463 542 543
460 463 464 541 542
461 464 465 540 541
462 465 466 539 540
463 466 467 538 539
464 467 468 537 538
465 468 469 536 537
466 469 470 535 536
467 470 471 534 535
468 471 472 533 534
469 472 473 532 533
470 473 474 531 532
471 474 475 530 531
472 475 476 529 530
473 476 477 528 529
474 477 478 527 528
475 478 479 526 527
476 479 480 525 526
477 480 481 524 525
478 481 482 523 524
479 482 483 522 523
480 483 484 521 522
481 484 485 520 521
482 485 486 519 520
483 486 487 518 519
484 487 488 517 518
485 488 489 516 517
486 489 490 515 516
487 490 491 514 515
488 491 492 513 514
489 492 493 512 513
490 493 494 511 512
491 494 495 510 511
492 495 496 509 510
493 496 497 508 509
494 497 498 507 508
495 498 499 506 507
496 499 500 505 506
497 500 501 504 505
498 501 502 503 504
499 502 2 3 503
END_ELEMENTS
COORDINATES
1 0 0
2 0.02 0
3 0.02 0.002
4 0 0.002
5 4.008016032056569e-05 0
6 8.016032064113138e-05 0
7 0.0001202404809616971 0
8 0.0001603206412822627 0
9 0.0002004008016028279 0
10 0.0002404809619233931 0
11 0.0002805611222439583 0
12 0.000320641282564524 0
13 0.0003607214428850919 0
14 0.0004008016032056599 0
15 0.0004408817635262277 0
16 0.000480961923846794 0
17 0.0005210420841673565 0
18 0.000561122244487919 0
19 0.0006012024048084814 0
20 0.0006412825651290406 0
21 0.000681362725449595 0
22 0.0007214428857701493 0
23 0.0007615230460907037 0
24 0.000801603206411258 0
25 0.0008416833667318123 0
26 0.0008817635270523666 0
27 0.0009218436873729211 0
28 0.0009619238476934786 0
29 0.001002004008014038 0
30 0.001042084168334598 0
31 0.001082164328655158 0
32 0.001122244488975722 0
33 0.001162324649296287 0
34 0.001202404809616852 0
35 0.001242484969937417 0
36 0.001282565130257991 0
37 0.001322645290578567 0
38 0.001362725450899143 0
39 0.001402805611219719 0
40 0.001442885771540305 0
41 0.001482965931860892 0
42 0.001523046092181479 0
43 0.001563126252502066 0
44 0.001603206412822653 0
45 0.00164328657314324 0
46 0.001683366733463827 0
47 0.001723446893784413 0
48 0.001763527054104989 0
49 0.001803607214425565 0
50 0.00184368737474614 0
51 0.001883767535066717 0
52 0.001923847695387293 0
53 0.001963927855707869 0
54 0.002004008016028445 0
55 0.002044088176349024 0
56 0.002084168336669611 0
57 0.002124248496990198 0
58 0.002164328657310785 0
59 0.002204408817631372 0
60 0.002244488977951959 0
61 0.002284569138272546 0
62 0.002324649298593133 0
63 0.002364729458913709 0
64 0.002404809619234274 0
65 0.002444889779554839 0
66 0.002484969939875405 0
67 0.002525050100195942 0
68 0.002565130260516464 0
69 0.002605210420836986 0
70 0.002645290581157508 0
71 0.002685370741478013 0
72 0.002725450901798513 0
73 0.002765531062119013 0
74 0.002805611222439514 0
75 0.002845691382760032 0
76 0.002885771543080553 0
77 0.002925851703401075 0
78 0.002965931863721597 0
79 0.003006012024042139 0
80 0.003046092184362682 0
81 0.003086172344683225 0
82 0.003126252505003768 0
83 0.00316633266532429 0
84 0.003206412825644812 0
85 0.003246492985965334 0
86 0.003286573146285855 0
87 0.003326653306606377 0
88 0.003366733466926899 0
89 0.003406813627247421 0
90 0.003446893787567948 0
91 0.003486973947888491 0
92 0.003527054108209035 0
93 0.003567134268529578 0
94 0.003607214428850115 0
95 0.003647294589170636 0
96 0.003687374749491157 0
97 0.003727454909811679 0
98 0.003767535070132192 0
99 0.003807615230452692 0
100 0.003847695390773192 0
101 0.003887775551093692 0
102 0.00392785571141418 0
103 0.003967935871734658 0
104 0.004008016032055137 0
105 0.004048096192375615 0
106 0.004088176352696106 0
107 0.004128256513016607 0
108 0.004168336673337107 0
109 0.004208416833657607 0
110 0.004248496993978139 0
111 0.004288577154298682 0
112 0.004328657314619226 0
113 0.00436873747493977 0
114 0.004408817635260314 0
115 0.004448897795580857 0
116 0.0044889779559014 0
117 0.004529058116221944 0
118 0.004569138276542488 0
119 0.004609218436863031 0
120 0.004649298597183575 0
121 0.004689378757504118 0
122 0.004729458917824662 0
123 0.004769539078145205 0
124 0.004809619238465749 0
125 0.004849699398786285 0
126 0.004889779559106786 0
127 0.004929859719427285 0
128 0.004969939879747786 0
129 0.005010020040068285 0
130 0.005050100200388786 0
131 0.005090180360709286 0
132 0.005130260521029785 0
133 0.005170340681350301 0
134 0.005210420841670844 0
135 0.005250501001991388 0
136 0.005290581162311931 0
137 0.005330661322632474 0
138 0.005370741482953018 0
139 0.005410821643273562 0
140 0.005450901803594105 0
141 0.005490981963914648 0
142 0.005531062124235192 0
143 0.005571142284555736 0
144 0.00561122244487628 0
145 0.005651302605196823 0
146 0.005691382765517367 0
147 0.005731462925837909 0
148 0.005771543086158452 0
149 0.005811623246478964 0
150 0.005851703406799464 0
151 0.005891783567119964 0
152 0.005931863727440465 0
153 0.005971943887760927 0
154 0.006012024048081384 0
155 0.006052104208401841 0
156 0.006092184368722298 0
157 0.006132264529042795 0
158 0.006172344689363295 0
159 0.006212424849683794 0
160 0.006252505010004298 0
161 0.006292585170324842 0
162 0.006332665330645386 0
163 0.006372745490965928 0
164 0.006412825651286472 0
165 0.006452905811607016 0
166 0.00649298597192756 0
167 0.006533066132248102 0
168 0.006573146292568646 0
169 0.00661322645288919 0
170 0.006653306613209733 0
171 0.006693386773530277 0
172 0.00673346693385082 0
173 0.006773547094171364 0
174 0.006813627254491908 0
175 0.006853707414812451 0
176 0.006893787575132974 0
177 0.006933867735453473 0
178 0.006973947895773974 0
179 0.007014028056094474 0
180 0.007054108216414973 0
181 0.007094188376735473 0
182 0.007134268537055974 0
183 0.007174348697376474 0
184 0.007214428857697003 0
185 0.007254509018017547 0
186 0.007294589178338091 0
187 0.007334669338658633 0
188 0.007374749498979176 0
189 0.00741482965929972 0
190 0.007454909819620263 0
191 0.007494989979940807 0
192 0.007535070140261351 0
193 0.007575150300581895 0
194 0.007615230460902438 0
195 0.007655310621222982 0
196 0.007695390781543524 0
197 0.007735470941864068 0
198 0.007775551102184612 0
199 0.007815631262505151 0
200 0.007855711422825653 0
201 0.007895791583146152 0
202 0.007935871743466652 0
203 0.007975951903787144 0
204 0.0080160320641076 0
205 0.008056112224428058 0
206 0.008096192384748513 0
207 0.008136272545068971 0
208 0.008176352705389427 0
209 0.008216432865709885 0
210 0.008256513026030341 0
211 0.008296593186350797 0
212 0.008336673346671254 0
213 0.008376753506991711 0
214 0.008416833667312168 0
215 0.008456913827632624 0
216 0.00849699398795308 0
217 0.008537074148273536 0
218 0.008577154308593994 0
219 0.008617234468914501 0
220 0.008657314629235045 0
221 0.008697394789555588 0
222 0.008737474949876131 0
223 0.008777555110196735 0
224 0.008817635270517366 0
225 0.008857715430837998 0
226 0.008897795591158626 0
227 0.008937875751479257 0
228 0.008977955911799888 0
229 0.009018036072120518 0
230 0.009058116232441148 0
231 0.009098196392761779 0
232 0.00913827655308241 0
233 0.00917835671340304 0
234 0.00921843687372367 0
235 0.009258517034044301 0
236 0.009298597194364931 0
237 0.009338677354685561 0
238 0.009378757515006183 0
239 0.009418837675326726 0
240 0.009458917835647271 0
241 0.009498997995967814 0
242 0.009539078156288341 0
243 0.009579158316608797 0
244 0.009619238476929253 0
245 0.009659318637249711 0
246 0.009699398797570168 0
247 0.009739478957890622 0
248 0.00977955911821108 0
249 0.009819639278531536 0
250 0.009859719438852029 0
251 0.009899799599172572 0
252 0.009939879759493115 0
253 0.009979959919813658 0
254 0.01002004008013429 0
255 0.01006012024045501 0
256 0.01010020040077572 0
257 0.01014028056109644 0
258 0.01018036072141721 0
259 0.01022044088173801 0
260 0.01026052104205882 0
261 0.01030060120237962 0
262 0.01034068136270043 0
263 0.01038076152302123 0
264 0.01042084168334203 0
265 0.01046092184366284 0
266 0.01050100200398364 0
267 0.01054108216430445 0
268 0.01058116232462525 0
269 0.01062124248494606 0
270 0.01066132264526678 0
271 0.0107014028055875 0
272 0.01074148296590822 0
273 0.01078156312622893 0
274 0.01082164328654956 0
275 0.01086172344687019 0
276 0.01090180360719082 0
277 0.01094188376751145 0
278 0.01098196392783209 0
279 0.01102204408815272 0
280 0.01106212424847335 0
281 0.01110220440879398 0
282 0.01114228456911461 0
283 0.01118236472943524 0
284 0.01122244488975587 0
285 0.01126252505007653 0
286 0.01130260521039724 0
287 0.01134268537071796 0
288 0.01138276553103868 0
289 0.01142284569135943 0
290 0.01146292585168024 0
291 0.01150300601200104 0
292 0.01154308617232184 0
293 0.01158316633264265 0
294 0.01162324649296345 0
295 0.01166332665328426 0
296 0.01170340681360506 0
297 0.01174348697392586 0
298 0.01178356713424667 0
299 0.01182364729456747 0
300 0.01186372745488828 0
301 0.01190380761520908 0
302 0.01194388777552989 0
303 0.01198396793585069 0
304 0.01202404809617149 0
305 0.0120641282564923 0
306 0.0121042084168131 0
307 0.01214428857713391 0
308 0.01218436873745471 0
309 0.01222444889777552 0
310 0.01226452905809632 0
311 0.01230460921841712 0
312 0.01234468937873793 0
313 0.01238476953905873 0
314 0.01242484969937953 0
315 0.01246492985970034 0
316 0.01250501002002114 0
317 0.01254509018034195 0
318 0.01258517034066275 0
319 0.01262525050098355 0
320 0.01266533066130434 0
321 0.01270541082162506 0
322 0.01274549098194577 0
323 0.01278557114226649 0
324 0.01282565130258718 0
325 0.01286573146290781 0
326 0.01290581162322844 0
327 0.01294589178354907 0
328 0.0129859719438697 0
329 0.01302605210419033 0
330 0.01306613226451096 0
331 0.01310621242483159 0
332 0.01314629258515222 0
333 0.01318637274547285 0
334 0.01322645290579349 0
335 0.01326653306611411 0
336 0.0133066132264348 0
337 0.01334669338675552 0
338 0.01338677354707623 0
339 0.01342685370739695 0
340 0.01346693386771773 0
341 0.01350701402803854 0
342 0.01354709418835934 0
343 0.01358717434868015 0
344 0.01362725450900095 0
345 0.01366733466932176 0
346 0.01370741482964256 0
347 0.01374749498996336 0
348 0.01378757515028417 0
349 0.01382765531060497 0
350 0.01386773547092577 0
351 0.01390781563124658 0
352 0.01394789579156738 0
353 0.01398797595188819 0
354 0.01402805611220899 0
355 0.01406813627252979 0
356 0.0141082164328506 0
357 0.0141482965931714 0
358 0.01418837675349221 0
359 0.01422845691381301 0
360 0.01426853707413382 0
361 0.01430861723445462 0
362 0.01434869739477542 0
363 0.01438877755509623 0
364 0.01442885771541703 0
365 0.01446893787573784 0
366 0.01450901803605864 0
367 0.01454909819637941 0
368 0.01458917835670013 0
369 0.01462925851702084 0
370 0.01466933867734156 0
371 0.01470941883766223 0
372 0.01474949899798286 0
373 0.01478957915830349 0
374 0.01482965931862412 0
375 0.01486973947894475 0
376 0.01490981963926538 0
377 0.01494989979958601 0
378 0.01498997995990664 0
379 0.01503006012022727 0
380 0.0150701402805479 0
381 0.01511022044086853 0
382 0.01515030060118916 0
383 0.01519038076150979 0
384 0.01523046092183042 0
385 0.01527054108215106 0
386 0.01531062124247169 0
387 0.0153507014027924 0
388 0.01539078156311311 0
389 0.01543086172343383 0
390 0.01547094188375455 0
391 0.01551102204407536 0
392 0.01555110220439616 0
393 0.01559118236471697 0
394 0.01563126252503777 0
395 0.01567134268535858 0
396 0.01571142284567938 0
397 0.01575150300600019 0
398 0.01579158316632099 0
399 0.01583166332664179 0
400 0.0158717434869626 0
401 0.0159118236472834 0
402 0.01595190380760421 0
403 0.01599198396792501 0
404 0.01603206412824581 0
405 0.01607214428856662 0
406 0.01611222444888742 0
407 0.01615230460920822 0
408 0.01619238476952903 0
409 0.01623246492984983 0
410 0.01627254509017064 0
411 0.01631262525049144 0
412 0.01635270541081224 0
413 0.01639278557113305 0
414 0.01643286573145385 0
415 0.01647294589177466 0
416 0.01651302605209546 0
417 0.01655310621241627 0
418 0.01659318637273707 0
419 0.01663326653305788 0
420 0.01667334669337868 0
421 0.01671342685369948 0
422 0.01675350701402029 0
423 0.01679358717434109 0
424 0.0168336673346619 0
425 0.0168737474949827 0
426 0.01691382765530351 0
427 0.01695390781562431 0
428 0.01699398797594511 0
429 0.01703406813626591 0
430 0.01707414829658672 0
431 0.01711422845690752 0
432 0.01715430861722833 0
433 0.01719438877754913 0
434 0.01723446893786994 0
435 0.01727454909819074 0
436 0.01731462925851154 0
437 0.01735470941883235 0
438 0.01739478957915315 0
439 0.01743486973947396 0
440 0.01747494989979476 0
441 0.01751503006011557 0
442 0.01755511022043637 0
443 0.01759519038075717 0
444 0.01763527054107798 0
445 0.0176753507013987 0
446 0.01771543086171933 0
447 0.01775551102203996 0
448 0.01779559118236059 0
449 0.01783567134268112 0
450 0.01787575150300158 0
451 0.01791583166332203 0
452 0.01795591182364249 0
453 0.01799599198396295 0
454 0.0180360721442834 0
455 0.01807615230460386 0
456 0.01811623246492432 0
457 0.01815631262524477 0
458 0.01819639278556523 0
459 0.01823647294588569 0
460 0.01827655310620615 0
461 0.01831663326652675 0
462 0.01835671342684738 0
463 0.01839679358716801 0
464 0.01843687374748864 0
465 0.01847695390780945 0
466 0.01851703406813025 0
467 0.01855711422845105 0
468 0.01859719438877186 0
469 0.01863727454909266 0
470 0.01867735470941347 0
471 0.01871743486973427 0
472 0.01875751503005508 0
473 0.01879759519037588 0
474 0.01883767535069668 0
475 0.01887775551101749 0
476 0.01891783567133829 0
477 0.01895791583165909 0
478 0.0189979959919799 0
479 0.0190380761523007 0
480 0.01907815631262151 0
481 0.01911823647294231 0
482 0.01915831663326311 0
483 0.01919839679358392 0
484 0.01923847695390472 0
485 0.01927855711422553 0
486 0.01931863727454633 0
487 0.01935871743486714 0
488 0.01939879759518794 0
489 0.01943887775550874 0
490 0.01947895791582955 0
491 0.01951903807615035 0
492 0.01955911823647116 0
493 0.01959919839679196 0
494 0.01963927855711277 0
495 0.01967935871743357 0
496 0.01971943887775437 0
497 0.01975951903807518 0
498 0.01979959919839598 0
499 0.01983967935871679 0
500 0.01987975951903759 0
501 0.01991983967935839 0
502 0.0199599198396792 0
503 0.01995991983967919 0.002
504 0.01991983967935839 0.002
505 0.01987975951903758 0.002
506 0.01983967935871678 0.002
507 0.01979959919839597 0.002
508 0.01975951903807517 0.002
509 0.01971943887775436 0.002
510 0.01967935871743355 0.002
511 0.01963927855711275 0.002
512 0.01959919839679194 0.002
513 0.01955911823647114 0.002
514 0.01951903807615039 0.002
515 0.01947895791582975 0.002
516 0.01943887775550912 0.002
517 0.01939879759518849 0.002
518 0.01935871743486793 0.002
519 0.01931863727454747 0.002
520 0.01927855711422701 0.002
521 0.01923847695390656 0.002
522 0.0191983967935861 0.002
523 0.01915831663326564 0.002
524 0.01911823647294518 0.002
525 0.01907815631262472 0.002
526 0.01903807615230427 0.002
527 0.01899799599198381 0.002
528 0.01895791583166335 0.002
529 0.01891783567134289 0.002
530 0.01887775551102244 0.002
531 0.01883767535070198 0.002
532 0.01879759519038152 0.002
533 0.01875751503006106 0.002
534 0.0187174348697406 0.002
535 0.01867735470942014 0.002
536 0.01863727454909969 0.002
537 0.01859719438877923 0.002
538 0.01855711422845877 0.002
539 0.01851703406813831 0.002
540 0.01847695390781786 0.002
541 0.0184368737474974 0.002
542 0.01839679358717694 0.002
543 0.01835671342685648 0.002
544 0.01831663326653602 0.002
545 0.01827655310621557 0.002
546 0.01823647294589511 0.002
547 0.01819639278557465 0.002
548 0.01815631262525419 0.002
549 0.01811623246493373 0.002
550 0.01807615230461328 0.002
551 0.01803607214429282 0.002
552 0.01799599198397236 0.002
553 0.0179559118236519 0.002
554 0.01791583166333145 0.002
555 0.01787575150301099 0.002
556 0.01783567134269053 0.002
557 0.01779559118237007 0.002
558 0.01775551102204961 0.002
559 0.01771543086172915 0.002
560 0.0176753507014087 0.002
561 0.01763527054108824 0.002
562 0.01759519038076778 0.002
563 0.01755511022044732 0.002
564 0.01751503006012687 0.002
565 0.01747494989980641 0.002
566 0.01743486973948595 0.002
567 0.01739478957916549 0.002
568 0.01735470941884503 0.002
569 0.01731462925852457 0.002
570 0.01727454909820412 0.002
571 0.01723446893788366 0.002
572 0.0171943887775632 0.002
573 0.01715430861724274 0.002
574 0.01711422845692229 0.002
575 0.01707414829660183 0.002
576 0.01703406813628137 0.002
577 0.01699398797596091 0.002
578 0.01695390781564046 0.002
579 0.01691382765532 0.002
580 0.01687374749499954 0.002
581 0.01683366733467908 0.002
582 0.01679358717435862 0.002
583 0.01675350701403816 0.002
584 0.01671342685371768 0.002
585 0.01667334669339705 0.002
586 0.01663326653307642 0.002
587 0.01659318637275579 0.002
588 0.01655310621243516 0.002
589 0.01651302605211452 0.002
590 0.01647294589179389 0.002
591 0.01643286573147326 0.002
592 0.01639278557115263 0.002
593 0.016352705410832 0.002
594 0.01631262525051137 0.002
595 0.01627254509019073 0.002
596 0.0162324649298701 0.002
597 0.01619238476954947 0.002
598 0.01615230460922884 0.002
599 0.01611222444890821 0.002
600 0.01607214428858757 0.002
601 0.01603206412826694 0.002
602 0.01599198396794631 0.002
603 0.01595190380762568 0.002
604 0.01591182364730505 0.002
605 0.01587174348698442 0.002
606 0.01583166332666379 0.002
607 0.01579158316634315 0.002
608 0.01575150300602252 0.002
609 0.01571142284570189 0.002
610 0.01567134268538126 0.002
611 0.01563126252506063 0.002
612 0.01559118236473992 0.002
613 0.0155511022044192 0.002
614 0.01551102204409848 0.002
615 0.01547094188377776 0.002
616 0.01543086172345713 0.002
617 0.0153907815631365 0.002
618 0.01535070140281587 0.002
619 0.01531062124249523 0.002
620 0.0152705410821746 0.002
621 0.01523046092185397 0.002
622 0.01519038076153334 0.002
623 0.01515030060121272 0.002
624 0.01511022044089217 0.002
625 0.01507014028057163 0.002
626 0.01503006012025108 0.002
627 0.01498997995993056 0.002
628 0.0149498997996101 0.002
629 0.01490981963928965 0.002
630 0.01486973947896919 0.002
631 0.01482965931864873 0.002
632 0.01478957915832827 0.002
633 0.01474949899800781 0.002
634 0.01470941883768736 0.002
635 0.0146693386773669 0.002
636 0.01462925851704644 0.002
637 0.01458917835672598 0.002
638 0.01454909819640552 0.002
639 0.01450901803608507 0.002
640 0.01446893787576461 0.002
641 0.01442885771544415 0.002
642 0.0143887775551237 0.002
643 0.01434869739480324 0.002
644 0.01430861723448278 0.002
645 0.01426853707416232 0.002
646 0.01422845691384186 0.002
647 0.0141883767535214 0.002
648 0.01414829659320095 0.002
649 0.01410821643288049 0.002
650 0.01406813627256003 0.002
651 0.01402805611223957 0.002
652 0.01398797595191912 0.002
653 0.01394789579159866 0.002
654 0.0139078156312782 0.002
655 0.01386773547095774 0.002
656 0.01382765531063728 0.002
657 0.01378757515031683 0.002
658 0.01374749498999637 0.002
659 0.01370741482967591 0.002
660 0.01366733466935545 0.002
661 0.013627254509035 0.002
662 0.01358717434871454 0.002
663 0.01354709418839408 0.002
664 0.01350701402807362 0.002
665 0.01346693386775316 0.002
666 0.01342685370743271 0.002
667 0.01338677354711225 0.002
668 0.01334669338679179 0.002
669 0.01330661322647133 0.002
670 0.01326653306615088 0.002
671 0.01322645290583042 0.002
672 0.01318637274550996 0.002
673 0.0131462925851895 0.002
674 0.01310621242486905 0.002
675 0.01306613226454859 0.002
676 0.01302605210422813 0.002
677 0.01298597194390767 0.002
678 0.01294589178358716 0.002
679 0.01290581162326662 0.002
680 0.01286573146294607 0.002
681 0.01282565130262553 0.002
682 0.01278557114230493 0.002
683 0.01274549098198429 0.002
684 0.01270541082166366 0.002
685 0.01266533066134303 0.002
686 0.0126252505010224 0.002
687 0.01258517034070177 0.002
688 0.01254509018038114 0.002
689 0.0125050100200605 0.002
690 0.01246492985973987 0.002
691 0.01242484969941924 0.002
692 0.01238476953909861 0.002
693 0.01234468937877798 0.002
694 0.01230460921845734 0.002
695 0.01226452905813671 0.002
696 0.01222444889781608 0.002
697 0.01218436873749546 0.002
698 0.01214428857717491 0.002
699 0.01210420841685437 0.002
700 0.01206412825653382 0.002
701 0.01202404809621329 0.002
702 0.01198396793589283 0.002
703 0.01194388777557238 0.002
704 0.01190380761525192 0.002
705 0.01186372745493146 0.002
706 0.011823647294611 0.002
707 0.01178356713429055 0.002
708 0.01174348697397009 0.002
709 0.01170340681364963 0.002
710 0.01166332665332917 0.002
711 0.01162324649300871 0.002
712 0.01158316633268826 0.002
713 0.0115430861723678 0.002
714 0.01150300601204734 0.002
715 0.01146292585172688 0.002
716 0.01142284569140643 0.002
717 0.01138276553108592 0.002
718 0.01134268537076537 0.002
719 0.01130260521044483 0.002
720 0.01126252505012428 0.002
721 0.01122244488980368 0.002
722 0.01118236472948305 0.002
723 0.01114228456916241 0.002
724 0.01110220440884178 0.002
725 0.01106212424852115 0.002
726 0.01102204408820052 0.002
727 0.01098196392787989 0.002
728 0.01094188376755925 0.002
729 0.01090180360723862 0.002
730 0.01086172344691799 0.002
731 0.01082164328659736 0.002
732 0.01078156312627673 0.002
733 0.01074148296595609 0.002
734 0.01070140280563546 0.002
735 0.01066132264531483 0.002
736 0.01062124248499421 0.002
737 0.01058116232467366 0.002
738 0.01054108216435312 0.002
739 0.01050100200403257 0.002
740 0.01046092184371205 0.002
741 0.01042084168339159 0.002
742 0.01038076152307113 0.002
743 0.01034068136275067 0.002
744 0.01030060120243021 0.002
745 0.01026052104210976 0.002
746 0.0102204408817893 0.002
747 0.01018036072146884 0.002
748 0.01014028056114835 0.002
749 0.0101002004008278 0.002
750 0.01006012024050726 0.002
751 0.01002004008018671 0.002
752 0.009979959919866084 0.002
753 0.009939879759545365 0.002
754 0.009899799599224646 0.002
755 0.009859719438903927 0.002
756 0.009819639278583155 0.002
757 0.00977955911826235 0.002
758 0.009739478957941543 0.002
759 0.009699398797620738 0.002
760 0.009659318637299932 0.002
761 0.009619238476979127 0.002
762 0.00957915831665832 0.002
763 0.009539078156337514 0.002
764 0.009498997996016707 0.002
765 0.009458917835695902 0.002
766 0.009418837675375095 0.002
767 0.009378757515054292 0.002
768 0.009338677354733564 0.002
769 0.009298597194412847 0.002
770 0.009258517034092129 0.002
771 0.009218436873771409 0.002
772 0.009178356713450778 0.002
773 0.009138276553130147 0.002
774 0.009098196392809515 0.002
775 0.009058116232488882 0.002
776 0.009018036072168252 0.002
777 0.008977955911847619 0.002
778 0.00893787575152699 0.002
779 0.008897795591206356 0.002
780 0.008857715430885725 0.002
781 0.008817635270565094 0.002
782 0.008777555110244464 0.002
783 0.008737474949923805 0.002
784 0.008697394789603087 0.002
785 0.008657314629282367 0.002
786 0.008617234468961647 0.002
787 0.008577154308640892 0.002
788 0.008537074148320088 0.002
789 0.008496993987999283 0.002
790 0.008456913827678476 0.002
791 0.008416833667357671 0.002
792 0.008376753507036865 0.002
793 0.00833667334671606 0.002
794 0.008296593186395251 0.002
795 0.008256513026074446 0.002
796 0.00821643286575364 0.002
797 0.008176352705432835 0.002
798 0.008136272545112028 0.002
799 0.008096192384791225 0.002
800 0.00805611222447042 0.002
801 0.008016032064149612 0.002
802 0.007975951903828807 0.002
803 0.007935871743508001 0.002
804 0.007895791583187196 0.002
805 0.007855711422866389 0.002
806 0.007815631262545584 0.002
807 0.007775551102224778 0.002
808 0.007735470941903973 0.002
809 0.007695390781583164 0.002
810 0.00765531062126236 0.002
811 0.007615230460941553 0.002
812 0.007575150300620748 0.002
813 0.007535070140299941 0.002
814 0.007494989979979138 0.002
815 0.007454909819658333 0.002
816 0.007414829659337525 0.002
817 0.00737474949901672 0.002
818 0.007334669338695934 0.002
819 0.007294589178375215 0.002
820 0.007254509018054496 0.002
821 0.007214428857733777 0.002
822 0.007174348697413086 0.002
823 0.007134268537092456 0.002
824 0.007094188376771823 0.002
825 0.007054108216451194 0.002
826 0.007014028056130561 0.002
827 0.006973947895809929 0.002
828 0.006933867735489299 0.002
829 0.006893787575168666 0.002
830 0.006853707414848033 0.002
831 0.006813627254527405 0.002
832 0.006773547094206774 0.002
833 0.006733466933886141 0.002
834 0.006693386773565456 0.002
835 0.006653306613244736 0.002
836 0.006613226452924018 0.002
837 0.006573146292603298 0.002
838 0.006533066132282517 0.002
839 0.006492985971961709 0.002
840 0.006452905811640904 0.002
841 0.006412825651320097 0.002
842 0.006372745490999292 0.002
843 0.006332665330678486 0.002
844 0.006292585170357681 0.002
845 0.006252505010036876 0.002
846 0.006212424849716071 0.002
847 0.006172344689395265 0.002
848 0.006132264529074458 0.002
849 0.006092184368753653 0.002
850 0.006052104208432846 0.002
851 0.006012024048112042 0.002
852 0.005971943887791235 0.002
853 0.00593186372747043 0.002
854 0.005891783567149622 0.002
855 0.005851703406828817 0.002
856 0.00581162324650801 0.002
857 0.005771543086187205 0.002
858 0.005731462925866401 0.002
859 0.005691382765545594 0.002
860 0.005651302605224789 0.002
861 0.005611222444903982 0.002
862 0.005571142284583174 0.002
863 0.005531062124262371 0.002
864 0.005490981963941566 0.002
865 0.005450901803620798 0.002
866 0.005410821643300081 0.002
867 0.005370741482979361 0.002
868 0.005330661322658643 0.002
869 0.00529058116233797 0.002
870 0.005250501002017341 0.002
871 0.005210420841696707 0.002
872 0.005170340681376076 0.002
873 0.005130260521055445 0.002
874 0.005090180360734813 0.002
875 0.005050100200414184 0.002
876 0.00501002004009355 0.002
877 0.004969939879772917 0.002
878 0.004929859719452289 0.002
879 0.004889779559131658 0.002
880 0.004849699398811025 0.002
881 0.004809619238490395 0.002
882 0.004769539078169762 0.002
883 0.004729458917849131 0.002
884 0.004689378757528499 0.002
885 0.004649298597207785 0.002
886 0.004609218436887066 0.002
887 0.004569138276566347 0.002
888 0.004529058116245623 0.002
889 0.004488977955924818 0.002
890 0.004448897795604012 0.002
891 0.004408817635283207 0.002
892 0.0043687374749624 0.002
893 0.004328657314641594 0.002
894 0.004288577154320787 0.002
895 0.004248496993999984 0.002
896 0.004208416833679177 0.002
897 0.004168336673358374 0.002
898 0.004128256513037568 0.002
899 0.004088176352716761 0.002
900 0.004048096192395954 0.002
901 0.004008016032075148 0.002
902 0.003967935871754341 0.002
903 0.003927855711433538 0.002
904 0.003887775551112731 0.002
905 0.003847695390791925 0.002
906 0.003807615230471118 0.002
907 0.003767535070150312 0.002
908 0.003727454909829505 0.002
909 0.003687374749508702 0.002
910 0.003647294589187899 0.002
911 0.003607214428867092 0.002
912 0.003567134268546285 0.002
913 0.003527054108225479 0.002
914 0.003486973947904676 0.002
915 0.003446893787583866 0.002
916 0.003406813627263063 0.002
917 0.003366733466942256 0.002
918 0.003326653306621449 0.002
919 0.003286573146300643 0.002
920 0.00324649298597984 0.002
921 0.003206412825659033 0.002
922 0.003166332665338226 0.002
923 0.00312625250501742 0.002
924 0.003086172344696613 0.002
925 0.003046092184375807 0.002
926 0.003006012024055003 0.002
927 0.0029659318637342 0.002
928 0.002925851703413394 0.002
929 0.002885771543092587 0.002
930 0.00284569138277178 0.002
931 0.002805611222450974 0.002
932 0.002765531062130167 0.002
933 0.002725450901809364 0.002
934 0.002685370741488557 0.002
935 0.002645290581167751 0.002
936 0.002605210420846948 0.002
937 0.002565130260526138 0.002
938 0.002525050100205331 0.002
939 0.002484969939884528 0.002
940 0.002444889779563721 0.002
941 0.002404809619242915 0.002
942 0.002364729458922112 0.002
943 0.002324649298601388 0.002
944 0.002284569138280755 0.002
945 0.002244488977960125 0.002
946 0.002204408817639492 0.002
947 0.002164328657318963 0.002
948 0.002124248496998504 0.002
949 0.002084168336678047 0.002
950 0.002044088176357591 0.002
951 0.002004008016037132 0.002
952 0.001963927855716675 0.002
953 0.001923847695396216 0.002
954 0.001883767535075756 0.002
955 0.0018436873747553 0.002
956 0.00180360721443484 0.002
957 0.001763527054114384 0.002
958 0.001723446893793924 0.002
959 0.001683366733473315 0.002
960 0.001643286573152686 0.002
961 0.001603206412832056 0.002
962 0.001563126252511423 0.002
963 0.00152304609219062 0.002
964 0.001482965931869813 0.002
965 0.001442885771549007 0.002
966 0.0014028056112282 0.002
967 0.001362725450907393 0.002
968 0.001322645290586587 0.002
969 0.001282565130265784 0.002
970 0.001242484969944977 0.002
971 0.00120240480962417 0.002
972 0.001162324649303367 0.002
973 0.001122244488982561 0.002
974 0.001082164328661758 0.002
975 0.001042084168340947 0.002
976 0.001002004008020144 0.002
977 0.0009619238476993378 0.002
978 0.0009218436873785311 0.002
979 0.0008817635270577245 0.002
980 0.0008416833667369214 0.002
981 0.0008016032064161148 0.002
982 0.0007615230460953082 0.002
983 0.0007214428857745016 0.002
984 0.000681362725453695 0.002
985 0.0006412825651328918 0.002
986 0.0006012024048120852 0.002
987 0.0005611222444912786 0.002
988 0.000521042084170472 0.002
989 0.0004809619238496689 0.002
990 0.0004408817635288588 0.002
991 0.0004008016032080557 0.002
992 0.0003607214428872491 0.002
993 0.0003206412825664459 0.002
994 0.0002805611222456393 0.002
995 0.0002404809619248327 0.002
996 0.0002004008016040296 0.002
997 0.000160320641283223 0.002
998 0.0001202404809624164 0.002
999 8.016032064160974e-05 0.002
1000 4.008016032080314e-05 0.002
END_COORDINATES
BOUNDARIES
1 1 5
2 5 6
3 6 7
4 7 8
5 8 9
6 9 10
7 10 11
8 11 12
9 12 13
10 13 14
11 14 15
12 15 16
13 16 17
14 17 18
15 18 19
16 19 20
17 20 21
18 21 22
19 22 23
20 23 24
21 24 25
22 25 26
23 26 27
24 27 28
25 28 29
26 29 30
27 30 31
28 31 32
29 32 33
30 33 34
31 34 35
32 35 36
33 36 37
34 37 38
35 38 39
36 39 40
37 40 41
38 41 42
39 42 43
40 43 44
41 44 45
42 45 46
43 46 47
44 47 48
45 48 49
46 49 50
47 50 51
48 51 52
49 52 53
50 53 54
51 54 55
52 55 56
53 56 57
54 57 58
55 58 59
56 59 60
57 60 61
58 61 62
59 62 63
60 63 64
61 64 65
62 65 66
63 66 67
64 67 68
65 68 69
66 69 70
67 70 71
68 71 72
69 72 73
70 73 74
71 74 75
72 75 76
73 76 77
74 77 78
75 78 79
76 79 80
77 80 81
78 81 82
79 82 83
80 83 84
81 84 85
82 85 86
83 86 87
84 87 88
85 88 89
86 89 90
87 90 91
88 91 92
89 92 93
90 93 94
91 94 95
92 95 96
93 96 97
94 97 98
95 98 99
96 99 100
97 100 101
98 101 102
99 102 103
100 103 104
101 104 105
102 105 106
103 106 107
104 107 108
105 108 109
106 109 110
107 110 111
108 111 112
109 112 113
110 113 114
111 114 115
112 115 116
113 116 117
114 117 118
115 118 119
116 119 120
117 120 121
118 121 122
119 122 123
120 123 124
121 124 125
122 125 126
123 126 127
124 127 128
125 128 129
126 129 130
127 130 131
128 131 132
129 132 133
130 133 134
131 134 135
132 135 136
133 136 137
134 137 138
135 138 139
136 139 140
137 140 141
138 141 142
139 142 143
140 143 144
141 144 145
142 145 146
143 146 147
144 147 148
145 148 149
146 149 150
147 150 151
148 151 152
149 152 153
150 153 154
151 154 155
152 155 156
153 156 157
154 157 158
155 158 159
156 159 160
157 160 161
158 161 162
159 162 163
160 163 164
161 164 165
162 165 166
163 166 167
164 167 168
165 168 169
166 169 170
167 170 171
168 171 172
169 172 173
170 173 174
171 174 175
172 175 176
173 176 177
174 177 178
175 178 179
176 179 180
177 180 181
178 181 182
179 182 183
180 183 184
181 184 185
182 185 186
183 186 187
184 187 188
185 188 189
186 189 190
187 190 191
188 191 192
189 192 193
190 193 194
191 194 195
192 195 196
193 196 197
194 197 198
195 198 199
196 199 200
197 200 201
198 201 202
199 202 203
200 203 204
201 204 205
202 205 206
203 206 207
204 207 208
205 208 209
206 209 210
207 210 211
208 211 212
209 212 213
210 213 214
211 214 215
212 215 216
213 216 217
214 217 218
215 218 219
216 219 220
217 220 221
218 221 222
219 222 223
220 223 224
221 224 225
222 225 226
223 226 227
224 227 228
225 228 229
226 229 230
227 230 231
228 231 232
229 232 233
230 233 234
231 234 235
232 235 236
233 236 237
234 237 238
235 238 239
236 239 240
237 240 241
238 241 242
239 242 243
240 243 244
241 244 245
242 245 246
243 246 247
244 247 248
245 248 249
246 249 250
247 250 251
248 251 252
249 252 253
250 253 254
251 254 255
252 255 256
253 256 257
254 257 258
255 258 259
256 259 260
257 260 261
258 261 262
259 262 263
260 263 264
261 264 265
262 265 266
263 266 267
264 267 268
265 268 269
266 269 270
267 270 271
268 271 272
269 272 273
270 273 274
271 274 275
272 275 276
273 276 277
274 277 278
275 278 279
276 279 280
277 280 281
278 281 282
279 282 283
280 283 284
281 284 285
282 285 286
283 286 287
284 287 288
285 288 289
286 289 290
287 290 291
288 291 292
289 292 293
290 293 294
291 294 295
292 295 296
293 296 297
294 297 298
295 298 299
296 299 300
297 300 301
298 301 302
299 302 303
300 303 304
301 304 305
302 305 306
303 306 307
304 307 308
305 308 309
306 309 310
307 310 311
308 311 312
309 312 313
310 313 314
311 314 315
312 315 316
313 316 317
314 317 318
315 318 319
316 319 320
317 320 321
318 321 322
319 322 323
320 323 324
321 324 325
322 325 326
323 326 327
324 327 328
325 328 329
326 329 330
327 330 331
328 331 332
329 332 333
330 333 334
331 334 335
332 335 336
333 336 337
334 337 338
335 338 339
336 339 340
337 340 341
338 341 342
339 342 343
340 343 344
341 344 345
342 345 346
343 346 347
344 347 348
345 348 349
346 349 350
347 350 351
348 351 352
349 352 353
350 353 354
351 354 355
352 355 356
353 356 357
354 357 358
355 358 359
356 359 360
357 360 361
358 361 362
359 362 363
360 363 364
361 364 365
362 365 366
363 366 367
364 367 368
365 368 369
366 369 370
367 370 371
368 371 372
369 372 373
370 373 374
371 374 375
372 375 376
373 376 377
374 377 378
375 378 379
376 379 380
377 380 381
378 381 382
379 382 383
380 383 384
381 384 385
382 385 386
383 386 387
384 387 388
385 388 389
386 389 390
387 390 391
388 391 392
389 392 393
390 393 394
391 394 395
392 395 396
393 396 397
394 397 398
395 398 399
396 399 400
397 400 401
398 401 402
399 402 403
400 403 404
401 404 405
402 405 406
403 406 407
404 407 408
405 408 409
406 409 410
407 410 411
408 411 412
409 412 413
410 413 414
411 414 415
412 415 416
413 416 417
414 417 418
415 418 419
416 419 420
417 420 421
418 421 422
419 422 423
420 423 424
421 424 425
422 425 426
423 426 427
424 427 428
425 428 429
426 429 430
427 430 431
428 431 432
429 432 433
430 433 434
431 434 435
432 435 436
433 436 437
434 437 438
435 438 439
436 439 440
437 440 441
438 441 442
439 442 443
440 443 444
441 444 445
442 445 446
443 446 447
444 447 448
445 448 449
446 449 450
447 450 451
448 451 452
449 452 453
450 453 454
451 454 455
452 455 456
453 456 457
454 457 458
455 458 459
456 459 460
457 460 461
458 461 462
459 462 463
460 463 464
461 464 465
462 465 466
463 466 467
464 467 468
465 468 469
466 469 470
467 470 471
468 471 472
469 472 473
470 473 474
471 474 475
472 475 476
473 476 477
474 477 478
475 478 479
476 479 480
477 480 481
478 481 482
479 482 483
480 483 484
481 484 485
482 485 486
483 486 487
484 487 488
485 488 489
486 489 490
487 490 491
488 491 492
489 492 493
490 493 494
491 494 495
492 495 496
493 496 497
494 497 498
495 498 499
496 499 500
497 500 501
498 501 502
499 502 2
500 2 3
501 3 503
502 503 504
503 504 505
504 505 506
505 506 507
506 507 508
507 508 509
508 509 510
509 510 511
510 511 512
511 512 513
512 513 514
513 514 515
514 515 516
515 516 517
516 517 518
517 518 519
518 519 520
519 520 521
520 521 522
521 522 523
522 523 524
523 524 525
524 525 526
525 526 527
526 527 528
527 528 529
528 529 530
529 530 531
530 531 532
531 532 533
532 533 534
533 534 535
534 535 536
535 536 537
536 537 538
537 538 539
538 539 540
539 540 541
540 541 542
541 542 543
542 543 544
543 544 545
544 545 546
545 546 547
546 547 548
547 548 549
548 549 550
549 550 551
550 551 552
551 552 553
552 553 554
553 554 555
554 555 556
555 556 557
556 557 558
557 558 559
558 559 560
559 560 561
560 561 562
561 562 563
562 563 564
563 564 565
564 565 566
565 566 567
566 567 568
567 568 569
568 569 570
569 570 571
570 571 572
571 572 573
572 573 574
573 574 575
574 575 576
575 576 577
576 577 578
577 578 579
578 579 580
579 580 581
580 581 582
581 582 583
582 583 584
583 584 585
584 585 586
585 586 587
586 587 588
587 588 589
588 589 590
589 590 591
590 591 592
591 592 593
592 593 594
593 594 595
594 595 596
595 596 597
596 597 598
597 598 599
598 599 600
599 600 601
600 601 602
601 602 603
602 603 604
603 604 605
604 605 606
605 606 607
606 607 608
607 608 609
608 609 610
609 610 611
610 611 612
611 612 613
612 613 614
613 614 615
614 615 616
615 616 617
616 617 618
617 618 619
618 619 620
619 620 621
620 621 622
621 622 623
622 623 624
623 624 625
624 625 626
625 626 627
626 627 628
627 628 629
628 629 630
629 630 631
630 631 632
631 632 633
632 633 634
633 634 635
634 635 636
635 636 637
636 637 638
637 638 639
638 639 640
639 640 641
640 641 642
641 642 643
642 643 644
643 644 645
644 645 646
645 646 647
646 647 648
647 648 649
648 649 650
649 650 651
650 651 652
651 652 653
652 653 654
653 654 655
654 655 656
655 656 657
656 657 658
657 658 659
658 659 660
659 660 661
660 661 662
661 662 663
662 663 664
663 664 665
664 665 666
665 666 667
666 667 668
667 668 669
668 669 670
669 670 671
670 671 672
671 672 673
672 673 674
673 674 675
674 675 676
675 676 677
676 677 678
677 678 679
678 679 680
679 680 681
680 681 682
681 682 683
682 683 684
683 684 685
684 685 686
685 686 687
686 687 688
687 688 689
688 689 690
689 690 691
690 691 692
691 692 693
692 693 694
693 694 695
694 695 696
695 696 697
696 697 698
697 698 699
698 699 700
699 700 701
700 701 702
701 702 703
702 703 704
703 704 705
704 705 706
705 706 707
706 707 708
707 708 709
708 709 710
709 710 711
710 711 712
711 712 713
712 713 714
713 714 715
714 715 716
715 716 717
716 717 718
717 718 719
718 719 720
719 720 721
720 721 722
721 722 723
722 723 724
723 724 725
724 725 726
725 726 727
726 727 728
727 728 729
728 729 730
729 730 731
730 731 732
731 732 733
732 733 734
733 734 735
734 735 736
735 736 737
736 737 738
737 738 739
738 739 740
739 740 741
740 741 742
741 742 743
742 743 744
743 744 745
744 745 746
745 746 747
746 747 748
747 748 749
748 749 750
749 750 751
750 751 752
751 752 753
752 753 754
753 754 755
754 755 756
755 756 757
756 757 758
757 758 759
758 759 760
759 760 761
760 761 762
761 762 763
762 763 764
763 764 765
764 765 766
765 766 767
766 767 768
767 768 769
768 769 770
769 770 771
770 771 772
771 772 773
772 773 774
773 774 775
774 775 776
775 776 777
776 777 778
777 778 779
778 779 780
779 780 781
780 781 782
781 782 783
782 783 784
783 784 785
784 785 786
785 786 787
786 787 788
787 788 789
788 789 790
789 790 791
790 791 792
791 792 793
792 793 794
793 794 795
794 795 796
795 796 797
796 797 798
797 798 799
798 799 800
799 800 801
800 801 802
801 802 803
802 803 804
803 804 805
804 805 806
805 806 807
806 807 808
807 808 809
808 809 810
809 810 811
810 811 812
811 812 813
812 813 814
813 814 815
814 815 816
815 816 817
816 817 818
817 818 819
818 819 820
819 820 821
820 821 822
821 822 823
822 823 824
823 824 825
824 825 826
825 826 827
826 827 828
827 828 829
828 829 830
829 830 831
830 831 832
831 832 833
832 833 834
833 834 835
834 835 836
835 836 837
836 837 838
837 838 839
838 839 840
839 840 841
840 841 842
841 842 843
842 843 844
843 844 845
844 845 846
845 846 847
846 847 848
847 848 849
848 849 850
849 850 851
850 851 852
851 852 853
852 853 854
853 854 855
854 855 856
855 856 857
856 857 858
857 858 859
858 859 860
859 860 861
860 861 862
861 862 863
862 863 864
863 864 865
864 865 866
865 866 867
866 867 868
867 868 869
868 869 870
869 870 871
870 871 872
871 872 873
872 873 874
873 874 875
874 875 876
875 876 877
876 877 878
877 878 879
878 879 880
879 880 881
880 881 882
881 882 883
882 883 884
883 884 885
884 885 886
885 886 887
886 887 888
887 888 889
888 889 890
889 890 891
890 891 892
891 892 893
892 893 894
893 894 895
894 895 896
895 896 897
896 897 898
897 898 899
898 899 900
899 900 901
900 901 902
901 902 903
902 903 904
903 904 905
904 905 906
905 906 907
906 907 908
907 908 909
908 909 910
909 910 911
910 911 912
911 912 913
912 913 914
913 914 915
914 915 916
915 916 917
916 917 918
917 918 919
918 919 920
919 920 921
920 921 922
921 922 923
922 923 924
923 924 925
924 925 926
925 926 927
926 927 928
927 928 929
928 929 930
929 930 931
930 931 932
931 932 933
932 933 934
933 934 935
934 935 936
935 936 937
936 937 938
937 938 939
938 939 940
939 940 941
940 941 942
941 942 943
942 943 944
943 944 945
944 945 946
945 946 947
946 947 948
947 948 949
948 949 950
949 950 951
950 951 952
951 952 953
952 953 954
953 954 955
954 955 956
955 956 957
956 957 958
957 958 959
958 959 960
959 960 961
960 961 962
961 962 963
962 963 964
963 964 965
964 965 966
965 966 967
966 967 968
967 968 969
968 969 970
969 970 971
970 971 972
971 972 973
972 973 974
973 974 975
974 975 976
975 976 977
976 977 978
977 978 979
978 979 980
979 980 981
980 981 982
981 982 983
982 983 984
983 984 985
984 985 986
985 986 987
986 987 988
987 988 989
988 989 990
989 990 991
990 991 992
991 992 993
992 993 994
993 994 995
994 995 996
995 996 997
996 997 998
997 998 999
998 999 1000
999 1000 4
1000 4 1
END_BOUNDARIES
SKEW_SYSTEMS
END_SKEW_SYSTEMS
