# --| ALYA reactions and displacement on user-sets
# --| Columns displayed:
# --|
# --|  1. Current time                        
# --| Set # 1
# --|  2. DISPX   3. DISPY   4. REACX   5. REACY
# --| Set # 2
# --|  6. DISPX   7. DISPY   8. REACX   9. REACY
# --| Set # 3
# --| 10. DISPX  11. DISPY  12. REACX  13. REACY
# --|
    0.25000000E+00     0.00000000E+00    0.80000000E-03    0.57163163E-11    0.79988228E+02       0.00000000E+00    0.00000000E+00    0.14210855E-13   -0.79988227E+02       0.00000000E+00    0.80000000E-03    0.57163163E-11    0.79988228E+02
    0.50000000E+00     0.00000000E+00    0.12510000E-01   -0.23076829E-09    0.40008748E+02       0.00000000E+00    0.00000000E+00    0.17132962E-11   -0.40008738E+02       0.00000000E+00    0.12510000E-01   -0.23076829E-09    0.40008748E+02
    0.75000000E+00     0.00000000E+00    0.00000000E+00   -0.11367447E-11    0.21904878E-04       0.00000000E+00    0.00000000E+00   -0.42489658E-14   -0.41359031E-24       0.00000000E+00    0.00000000E+00   -0.11367447E-11    0.21904878E-04
    0.10000000E+01     0.00000000E+00   -0.10000000E-02    0.47101878E-10   -0.99985290E+02       0.00000000E+00    0.00000000E+00    0.19539925E-13    0.99985290E+02       0.00000000E+00   -0.10000000E-02    0.47101878E-10   -0.99985290E+02
    0.12500000E+01     0.00000000E+00    0.24230000E-01    0.78031338E-09    0.00000000E+00       0.00000000E+00    0.00000000E+00   -0.81497970E-20    0.00000000E+00       0.00000000E+00    0.24230000E-01    0.78031338E-09    0.00000000E+00
    0.15000000E+01     0.00000000E+00    0.30000000E-01   -0.16167550E-10    0.00000000E+00       0.00000000E+00    0.00000000E+00   -0.66040901E-17    0.00000000E+00       0.00000000E+00    0.30000000E-01   -0.16167550E-10    0.00000000E+00
