{
    "authors": [
        "guillaume.houzeaux@bsc.es"
    ],
    "comparisons": [
        {
            "file": "alefor-cartesian.post.res",
            "method": "absolute",
            "tolerance": "1.0e-12"
        }
    ],
    "description": "Check that the fraction step method captures a uniform flow including local axes as a boundary condition",
    "exclude": [
        "special"
    ],
    "executions": [
        {
            "mpi": 5,
            "openmp": 0
        }
    ],
    "modules": [
        "alefor"
    ],
    "name": "alefor-cartesian",
    "postprocess": "alya2pos"
}