0.00000000E+000
0.00000000E+000
0.00000000E+000
0.00000000E+000
0.00000000E+000
0.00000000E+000
0.00000000E+000
0.00000000E+000
0.12846921E+000
0.00000000E+000
0.00000000E+000
0.00000000E+000
0.00000000E+000
0.00000000E+000
0.94211156E-001
0.00000000E+000
0.00000000E+000
0.00000000E+000
0.36079614E-001
0.00000000E+000
0.78492233E-001
0.36079614E-001
0.36079614E-001
0.62394317E-002
0.30049230E-001
0.00000000E+000
0.64700903E-001
0.30049230E-001
0.30049230E-001
0.52820470E-002
0.30075620E-001
0.00000000E+000
0.54863104E-001
0.30075620E-001
0.30075620E-001
0.47926910E-002
0.14163566E-001
0.00000000E+000
0.32972736E-001
0.14163566E-001
0.14163566E-001
0.32779107E-002
0.14270260E-001
0.00000000E+000
0.28698877E-001
0.14270260E-001
0.14270260E-001
0.32463032E-002
0.15939878E-001
0.00000000E+000
0.25534955E-001
0.15939878E-001
0.15939878E-001
0.32971355E-002
0.14258415E-001
0.00000000E+000
0.22365719E-001
0.14258415E-001
0.14258415E-001
0.29640350E-002
0.13867371E-001
0.00000000E+000
0.19675949E-001
0.13867371E-001
0.13867371E-001
0.33475806E-002
