0.00000000E+000
0.00000000E+000
0.00000000E+000
0.00000000E+000
0.00000000E+000
0.00000000E+000
0.00000000E+000
0.00000000E+000
0.35802854E+000
0.00000000E+000
0.00000000E+000
0.00000000E+000
0.00000000E+000
0.00000000E+000
0.30272070E+000
0.00000000E+000
0.00000000E+000
0.00000000E+000
0.18936060E+000
0.00000000E+000
0.26955198E+000
0.18936060E+000
0.18936060E+000
0.78858752E-001
0.17116284E+000
0.00000000E+000
0.23868866E+000
0.17116284E+000
0.17116284E+000
0.71890328E-001
0.17107169E+000
0.00000000E+000
0.21133445E+000
0.17107169E+000
0.17107169E+000
0.68332060E-001
0.10672213E+000
0.00000000E+000
0.14888992E+000
0.10672213E+000
0.10672213E+000
0.49555509E-001
0.10483841E+000
0.00000000E+000
0.13676375E+000
0.10483841E+000
0.10483841E+000
0.51843294E-001
0.11129123E+000
0.00000000E+000
0.12512980E+000
0.11129123E+000
0.11129123E+000
0.50825100E-001
0.10254246E+000
0.00000000E+000
0.11380175E+000
0.10254246E+000
0.10254246E+000
0.47865128E-001
0.98706698E-001
0.00000000E+000
0.10300857E+000
0.98706698E-001
0.98706698E-001
0.51324518E-001
