{
    "authors": [
        "guillaume.houzeaux@bsc.es"
    ],
    "comparisons": [
        {
            "file": "square_spare.post.res",
            "method": "absolute",
            "tolerance": "1e-08"
        }
    ],
    "description": "Test the source term on spare mesh for temper in 2d.",
    "exclude": [
        "special"
    ],
    "executions": [
        {
            "mpi": 4
        }
    ],
    "modules": [
        "temper"
    ],
    "name": "square_spare",
    "postprocess": "alya2pos",
    "timeout": "00:02:00"
}
