$MeshFormat
2.2 0 8
$EndMeshFormat
$PhysicalNames
5
1 1 "Bottom"
1 2 "Right"
1 3 "Top"
1 4 "Left"
2 5 "Surf"
$EndPhysicalNames
$Nodes
121
1 -0.5 -0.5 0
2 0.5 -0.5 0
3 0.5 0.5 0
4 -0.5 0.5 0
5 -0.4000000000002772 -0.5 0
6 -0.3000000000005547 -0.5 0
7 -0.2000000000008318 -0.5 0
8 -0.1000000000011089 -0.5 0
9 -1.375122238300719e-12 -0.5 0
10 0.09999999999889131 -0.5 0
11 0.1999999999991684 -0.5 0
12 0.2999999999994456 -0.5 0
13 0.3999999999997228 -0.5 0
14 0.5 -0.4000000000002772 0
15 0.5 -0.3000000000005547 0
16 0.5 -0.2000000000008318 0
17 0.5 -0.1000000000011089 0
18 0.5 -1.375122238300719e-12 0
19 0.5 0.09999999999889131 0
20 0.5 0.1999999999991684 0
21 0.5 0.2999999999994456 0
22 0.5 0.3999999999997228 0
23 0.4000000000002772 0.5 0
24 0.3000000000005547 0.5 0
25 0.2000000000008318 0.5 0
26 0.1000000000011089 0.5 0
27 1.375122238300719e-12 0.5 0
28 -0.09999999999889131 0.5 0
29 -0.1999999999991684 0.5 0
30 -0.2999999999994456 0.5 0
31 -0.3999999999997228 0.5 0
32 -0.5 0.4000000000002772 0
33 -0.5 0.3000000000005547 0
34 -0.5 0.2000000000008318 0
35 -0.5 0.1000000000011089 0
36 -0.5 1.375122238300719e-12 0
37 -0.5 -0.09999999999889131 0
38 -0.5 -0.1999999999991684 0
39 -0.5 -0.2999999999994456 0
40 -0.5 -0.3999999999997228 0
41 -0.4000000000002218 -0.3999999999997783 0
42 -0.4000000000001664 -0.2999999999995565 0
43 -0.4000000000001109 -0.1999999999993347 0
44 -0.4000000000000555 -0.09999999999911308 0
45 -0.4 1.100097790641338e-12 0
46 -0.3999999999999446 0.1000000000008872 0
47 -0.3999999999998891 0.2000000000006655 0
48 -0.3999999999998337 0.3000000000004437 0
49 -0.3999999999997783 0.4000000000002218 0
50 -0.3000000000004437 -0.3999999999998337 0
51 -0.3000000000003329 -0.2999999999996674 0
52 -0.3000000000002219 -0.1999999999995011 0
53 -0.3000000000001111 -0.09999999999933484 0
54 -0.3000000000000001 8.250733429819569e-13 0
55 -0.2999999999998892 0.1000000000006654 0
56 -0.2999999999997783 0.2000000000004992 0
57 -0.2999999999996674 0.3000000000003328 0
58 -0.2999999999995565 0.4000000000001663 0
59 -0.2000000000006655 -0.3999999999998891 0
60 -0.2000000000004991 -0.2999999999997783 0
61 -0.2000000000003328 -0.1999999999996674 0
62 -0.2000000000001665 -0.09999999999955658 0
63 -0.2000000000000001 5.500488953225753e-13 0
64 -0.1999999999998338 0.1000000000004436 0
65 -0.1999999999996674 0.2000000000003328 0
66 -0.1999999999995011 0.3000000000002219 0
67 -0.1999999999993347 0.4000000000001109 0
68 -0.1000000000008872 -0.3999999999999446 0
69 -0.1000000000006654 -0.2999999999998892 0
70 -0.1000000000004436 -0.1999999999998338 0
71 -0.1000000000002219 -0.09999999999977835 0
72 -0.1000000000000001 2.750244476631937e-13 0
73 -0.09999999999977835 0.1000000000002219 0
74 -0.0999999999995566 0.2000000000001665 0
75 -0.09999999999933483 0.300000000000111 0
76 -0.09999999999911308 0.4000000000000555 0
77 -1.100097790641338e-12 -0.4 0
78 -8.250733429819569e-13 -0.3000000000000002 0
79 -5.500488953225754e-13 -0.2000000000000001 0
80 -2.750244476631935e-13 -0.1000000000000001 0
81 -3.781904936294637e-24 3.781922340538358e-24 0
82 2.750244476570946e-13 0.1000000000000001 0
83 5.500488953180005e-13 0.2000000000000001 0
84 8.250733429789066e-13 0.3000000000000002 0
85 1.100097790639813e-12 0.4 0
86 0.09999999999911306 -0.4000000000000555 0
87 0.09999999999933483 -0.3000000000001111 0
88 0.0999999999995566 -0.2000000000001665 0
89 0.09999999999977836 -0.1000000000002219 0
90 0.1000000000000001 -2.750244476570946e-13 0
91 0.1000000000002219 0.09999999999977835 0
92 0.1000000000004436 0.1999999999998338 0
93 0.1000000000006654 0.2999999999998892 0
94 0.1000000000008872 0.3999999999999446 0
95 0.1999999999993348 -0.4000000000001109 0
96 0.1999999999995011 -0.300000000000222 0
97 0.1999999999996674 -0.2000000000003328 0
98 0.1999999999998338 -0.1000000000004437 0
99 0.2000000000000001 -5.500488953180005e-13 0
100 0.2000000000001665 0.0999999999995566 0
101 0.2000000000003328 0.1999999999996674 0
102 0.2000000000004992 0.2999999999997783 0
103 0.2000000000006655 0.3999999999998891 0
104 0.2999999999995565 -0.4000000000001663 0
105 0.2999999999996674 -0.3000000000003329 0
106 0.2999999999997783 -0.2000000000004992 0
107 0.2999999999998892 -0.1000000000006654 0
108 0.3000000000000001 -8.250733429789066e-13 0
109 0.300000000000111 0.09999999999933483 0
110 0.3000000000002219 0.1999999999995011 0
111 0.3000000000003328 0.2999999999996674 0
112 0.3000000000004437 0.3999999999998337 0
113 0.3999999999997783 -0.4000000000002218 0
114 0.3999999999998337 -0.3000000000004438 0
115 0.3999999999998891 -0.2000000000006655 0
116 0.3999999999999446 -0.1000000000008872 0
117 0.4 -1.100097790639813e-12 0
118 0.4000000000000555 0.09999999999911308 0
119 0.4000000000001109 0.1999999999993347 0
120 0.4000000000001664 0.2999999999995565 0
121 0.4000000000002218 0.3999999999997783 0
$EndNodes
$Elements
140
1 1 2 1 1 1 5
2 1 2 1 1 5 6
3 1 2 1 1 6 7
4 1 2 1 1 7 8
5 1 2 1 1 8 9
6 1 2 1 1 9 10
7 1 2 1 1 10 11
8 1 2 1 1 11 12
9 1 2 1 1 12 13
10 1 2 1 1 13 2
11 1 2 2 2 2 14
12 1 2 2 2 14 15
13 1 2 2 2 15 16
14 1 2 2 2 16 17
15 1 2 2 2 17 18
16 1 2 2 2 18 19
17 1 2 2 2 19 20
18 1 2 2 2 20 21
19 1 2 2 2 21 22
20 1 2 2 2 22 3
21 1 2 3 3 3 23
22 1 2 3 3 23 24
23 1 2 3 3 24 25
24 1 2 3 3 25 26
25 1 2 3 3 26 27
26 1 2 3 3 27 28
27 1 2 3 3 28 29
28 1 2 3 3 29 30
29 1 2 3 3 30 31
30 1 2 3 3 31 4
31 1 2 4 4 4 32
32 1 2 4 4 32 33
33 1 2 4 4 33 34
34 1 2 4 4 34 35
35 1 2 4 4 35 36
36 1 2 4 4 36 37
37 1 2 4 4 37 38
38 1 2 4 4 38 39
39 1 2 4 4 39 40
40 1 2 4 4 40 1
41 3 2 5 51 1 5 41 40
42 3 2 5 51 40 41 42 39
43 3 2 5 51 39 42 43 38
44 3 2 5 51 38 43 44 37
45 3 2 5 51 37 44 45 36
46 3 2 5 51 36 45 46 35
47 3 2 5 51 35 46 47 34
48 3 2 5 51 34 47 48 33
49 3 2 5 51 33 48 49 32
50 3 2 5 51 32 49 31 4
51 3 2 5 51 5 6 50 41
52 3 2 5 51 41 50 51 42
53 3 2 5 51 42 51 52 43
54 3 2 5 51 43 52 53 44
55 3 2 5 51 44 53 54 45
56 3 2 5 51 45 54 55 46
57 3 2 5 51 46 55 56 47
58 3 2 5 51 47 56 57 48
59 3 2 5 51 48 57 58 49
60 3 2 5 51 49 58 30 31
61 3 2 5 51 6 7 59 50
62 3 2 5 51 50 59 60 51
63 3 2 5 51 51 60 61 52
64 3 2 5 51 52 61 62 53
65 3 2 5 51 53 62 63 54
66 3 2 5 51 54 63 64 55
67 3 2 5 51 55 64 65 56
68 3 2 5 51 56 65 66 57
69 3 2 5 51 57 66 67 58
70 3 2 5 51 58 67 29 30
71 3 2 5 51 7 8 68 59
72 3 2 5 51 59 68 69 60
73 3 2 5 51 60 69 70 61
74 3 2 5 51 61 70 71 62
75 3 2 5 51 62 71 72 63
76 3 2 5 51 63 72 73 64
77 3 2 5 51 64 73 74 65
78 3 2 5 51 65 74 75 66
79 3 2 5 51 66 75 76 67
80 3 2 5 51 67 76 28 29
81 3 2 5 51 8 9 77 68
82 3 2 5 51 68 77 78 69
83 3 2 5 51 69 78 79 70
84 3 2 5 51 70 79 80 71
85 3 2 5 51 71 80 81 72
86 3 2 5 51 72 81 82 73
87 3 2 5 51 73 82 83 74
88 3 2 5 51 74 83 84 75
89 3 2 5 51 75 84 85 76
90 3 2 5 51 76 85 27 28
91 3 2 5 51 9 10 86 77
92 3 2 5 51 77 86 87 78
93 3 2 5 51 78 87 88 79
94 3 2 5 51 79 88 89 80
95 3 2 5 51 80 89 90 81
96 3 2 5 51 81 90 91 82
97 3 2 5 51 82 91 92 83
98 3 2 5 51 83 92 93 84
99 3 2 5 51 84 93 94 85
100 3 2 5 51 85 94 26 27
101 3 2 5 51 10 11 95 86
102 3 2 5 51 86 95 96 87
103 3 2 5 51 87 96 97 88
104 3 2 5 51 88 97 98 89
105 3 2 5 51 89 98 99 90
106 3 2 5 51 90 99 100 91
107 3 2 5 51 91 100 101 92
108 3 2 5 51 92 101 102 93
109 3 2 5 51 93 102 103 94
110 3 2 5 51 94 103 25 26
111 3 2 5 51 11 12 104 95
112 3 2 5 51 95 104 105 96
113 3 2 5 51 96 105 106 97
114 3 2 5 51 97 106 107 98
115 3 2 5 51 98 107 108 99
116 3 2 5 51 99 108 109 100
117 3 2 5 51 100 109 110 101
118 3 2 5 51 101 110 111 102
119 3 2 5 51 102 111 112 103
120 3 2 5 51 103 112 24 25
121 3 2 5 51 12 13 113 104
122 3 2 5 51 104 113 114 105
123 3 2 5 51 105 114 115 106
124 3 2 5 51 106 115 116 107
125 3 2 5 51 107 116 117 108
126 3 2 5 51 108 117 118 109
127 3 2 5 51 109 118 119 110
128 3 2 5 51 110 119 120 111
129 3 2 5 51 111 120 121 112
130 3 2 5 51 112 121 23 24
131 3 2 5 51 13 2 14 113
132 3 2 5 51 113 14 15 114
133 3 2 5 51 114 15 16 115
134 3 2 5 51 115 16 17 116
135 3 2 5 51 116 17 18 117
136 3 2 5 51 117 18 19 118
137 3 2 5 51 118 19 20 119
138 3 2 5 51 119 20 21 120
139 3 2 5 51 120 21 22 121
140 3 2 5 51 121 22 3 23
$EndElements
