GiD Post Results File 1.0
 
Result EXNOR ALYA  0.00000000E+00 Vector OnNodes
ComponentNames EXNOR_X,EXNOR_Y,EXNOR_Z
Values
        1  0.34395880E-002 -0.85270127E+000 -0.52238751E+000
        2 -0.13252743E-001 -0.84698830E+000 -0.53144631E+000
        3 -0.88681538E-001 -0.61500725E+000 -0.78351877E+000
        4  0.18635667E+000  0.39633220E+000  0.89899498E+000
        5  0.17881004E-001  0.60648811E+000  0.79489147E+000
        6 -0.58236940E+000 -0.54411678E+000  0.60397253E+000
        7  0.35164470E+000 -0.86274192E+000  0.36334884E+000
        8  0.83906546E+000  0.10722786E+000  0.53335855E+000
        9 -0.36799771E-001 -0.99773887E+000  0.56239960E-001
       10  0.78523716E+000 -0.53305414E+000 -0.31504901E+000
       11  0.19378687E-001 -0.37472656E+000  0.92693283E+000
       12 -0.84613983E+000 -0.50322174E+000 -0.17554281E+000
       13 -0.74913233E+000  0.15334006E+000  0.64442810E+000
       14 -0.28999310E+000  0.28812209E-001 -0.95659493E+000
       15 -0.97880298E+000 -0.18534167E+000 -0.87138860E-001
       16 -0.65074922E+000  0.75484233E+000  0.82088418E-001
       17  0.49794078E+000  0.86717399E+000 -0.80159117E-002
       18  0.45849431E+000  0.23659029E+000 -0.85662594E+000
       19 -0.22723499E+000 -0.97317752E+000  0.35913332E-001
       20 -0.57696707E+000  0.22972068E+000 -0.78379679E+000
       21 -0.22607000E+000  0.78730612E-001  0.97092422E+000
       22 -0.48559074E+000  0.87106260E+000  0.73834820E-001
       23  0.63480550E-001 -0.45633033E+000 -0.88754316E+000
       24  0.40224649E-001 -0.99918746E+000 -0.25289996E-002
       25  0.90609414E+000 -0.21711636E+000 -0.36311692E+000
       26  0.32726078E+000 -0.19362664E-001  0.94473566E+000
       27  0.24431256E+000  0.96386979E+000  0.10614326E+000
       28  0.34766879E+000  0.43927177E+000 -0.82835181E+000
       29 -0.66365971E+000  0.14458276E+000 -0.73392889E+000
       30 -0.76314266E+000  0.61598690E+000  0.19538021E+000
       31 -0.14861075E+000  0.42141318E+000  0.89460929E+000
       32  0.79411255E+000  0.24075784E+000  0.55805101E+000
       33  0.35358739E-001 -0.76994239E+000 -0.63713302E+000
       34  0.30465948E-001 -0.80083043E+000 -0.59811575E+000
       35 -0.21369649E-001  0.59997710E+000  0.79973172E+000
       36  0.66233538E+000  0.31064933E+000 -0.68176890E+000
       37  0.35697016E+000  0.91325878E+000 -0.19629239E+000
       38  0.85461406E-002  0.82872048E+000 -0.55959747E+000
       39  0.65694669E-001 -0.75205540E+000 -0.65581772E+000
       40 -0.71189212E-001 -0.98749871E+000 -0.14063570E+000
       41 -0.49104900E-002  0.55145354E-001  0.99846626E+000
       42  0.99782854E+000  0.40240130E-001  0.52143513E-001
       43  0.49829099E+000  0.64793549E+000  0.57609521E+000
       44  0.14896092E-001 -0.76712174E+000 -0.64132858E+000
       45  0.16703208E+000  0.80600736E+000  0.56784894E+000
       46 -0.10368889E+000 -0.99459134E+000  0.60572531E-002
       47 -0.28661167E+000  0.16716548E+000 -0.94335012E+000
       48  0.32331446E-001  0.82318099E+000 -0.56685778E+000
       49  0.10127654E-001 -0.80403186E+000 -0.59449995E+000
       50 -0.50111146E+000 -0.12928131E+000  0.85567146E+000
       51 -0.42818758E+000  0.39746102E+000  0.81159111E+000
       52 -0.90078828E+000 -0.35317977E-001 -0.43281996E+000
       53  0.66226908E+000 -0.33592564E+000 -0.66974146E+000
       54  0.17260814E+000  0.94641789E+000 -0.27294617E+000
       55 -0.71987080E-001  0.17334175E+000 -0.98222731E+000
       56 -0.25189033E+000 -0.71199997E+000 -0.65544435E+000
       57  0.21867857E+000  0.76221370E+000  0.60927003E+000
       58 -0.67668144E+000 -0.69331660E+000  0.24781914E+000
       59  0.25376128E+000 -0.96703322E+000  0.21259510E-001
       60  0.57120486E+000 -0.15133233E+000  0.80673634E+000
       61  0.90347921E+000  0.42862647E+000 -0.21592707E-002
       62 -0.59850145E+000  0.75940156E+000  0.25515736E+000
       63 -0.43001168E+000  0.76585588E-001  0.89956912E+000
       64 -0.21646836E+000 -0.44934686E+000 -0.86673459E+000
       65  0.62222658E-001 -0.99644366E+000 -0.56818715E-001
       66  0.23668728E+000 -0.46712801E+000  0.85192168E+000
       67  0.13801838E+000  0.48275827E+000  0.86480945E+000
       68 -0.83709449E+000 -0.53408352E+000 -0.11843819E+000
       69 -0.61252698E+000 -0.37053076E-001  0.78958075E+000
       70 -0.56540254E+000  0.77462494E+000  0.28333051E+000
       71 -0.73356046E+000  0.21804179E+000 -0.64369777E+000
       72  0.88651057E+000  0.17244961E+000  0.42937179E+000
       73  0.73612769E+000 -0.36424170E+000 -0.57047701E+000
       74  0.39187099E+000  0.91997452E+000 -0.91657986E-002
       75  0.19581832E+000  0.38822125E+000 -0.90052176E+000
       76 -0.32120160E+000 -0.77827967E+000 -0.53954638E+000
       77  0.26707684E+000  0.82294649E+000  0.50142700E+000
       78 -0.41598247E+000 -0.73560613E+000  0.53464213E+000
       79 -0.55398211E+000 -0.72054953E+000  0.41702782E+000
       80 -0.24169505E+000  0.11454580E+000  0.96356773E+000
       81 -0.30772235E+000 -0.83460645E+000 -0.45687966E+000
       82 -0.58770682E+000  0.73648103E+000  0.33495731E+000
       83 -0.96797420E+000 -0.11950507E+000 -0.22078156E+000
       84  0.24750050E+000  0.87298653E+000  0.42028326E+000
       85 -0.11672260E+000  0.16664561E+000  0.97908379E+000
       86 -0.97786063E+000 -0.19482114E+000 -0.76376073E-001
       87 -0.58530033E+000  0.71619620E+000  0.38011383E+000
       88 -0.41671347E+000  0.40986290E-001 -0.90811343E+000
       89 -0.10032684E+000  0.92368463E+000 -0.36978537E+000
       90  0.11531739E+000 -0.46173095E+000 -0.87949214E+000
       91 -0.74204437E+000 -0.20184450E+000 -0.63924092E+000
       92 -0.63908392E-001 -0.96496858E+000 -0.25446287E+000
       93 -0.52039306E+000  0.79873145E+000 -0.30202507E+000
       94  0.23577525E+000  0.60049172E+000 -0.76408097E+000
       95  0.10901987E+000  0.97807921E+000  0.17741402E+000
       96  0.97222584E+000  0.23391238E+000 -0.78687107E-002
       97 -0.74575026E+000 -0.35815524E+000  0.56176629E+000
       98  0.60192947E+000 -0.76898007E+000 -0.21529181E+000
       99  0.23792127E+000 -0.73316725E+000  0.63707083E+000
      100 -0.46088270E+000  0.65116036E+000  0.60297373E+000
      101  0.34066368E+000  0.33064975E+000  0.88012442E+000
      102  0.68810485E+000 -0.57321147E+000  0.44490485E+000
      103  0.25321118E-001 -0.95914842E+000 -0.28176791E+000
      104  0.10451349E-001 -0.95802231E+000 -0.28650310E+000
      105  0.53561538E+000 -0.72564703E+000 -0.43191730E+000
      106  0.16664534E-001 -0.95931860E+000 -0.28183350E+000
      107  0.91675692E+000  0.34676124E+000 -0.19827606E+000
      108  0.76463068E+000 -0.56258391E+000  0.31438713E+000
      109  0.22975455E-001 -0.96062079E+000 -0.27691122E+000
      110  0.57127040E+000 -0.33794207E+000 -0.74796075E+000
      111  0.72139819E+000 -0.26977327E+000 -0.63781426E+000
      112 -0.72448305E+000 -0.68259229E+000  0.95875333E-001
      113 -0.97114073E+000  0.10633661E+000  0.21349056E+000
      114  0.37920361E+000  0.92348372E+000  0.58158723E-001
      115  0.28777437E+000  0.39806312E+000  0.87105204E+000
      116  0.14892319E+000  0.92031527E+000 -0.36172045E+000
      117  0.14342160E+000  0.44041065E+000 -0.88626672E+000
      118 -0.71897910E-001  0.56596092E+000  0.82129101E+000
      119  0.51266921E+000 -0.69635259E+000 -0.50225826E+000
      120 -0.53089056E+000  0.83957329E+000 -0.11520371E+000
      121  0.81341848E+000  0.53252409E+000 -0.23402666E+000
      122 -0.16812747E+000 -0.63374494E-001 -0.98372599E+000
      123  0.39159565E+000 -0.92013506E+000 -0.20768505E-002
      124  0.43295069E+000 -0.37463686E+000 -0.81987860E+000
      125  0.75550707E+000  0.53093379E+000 -0.38382077E+000
      126  0.82361479E+000  0.20443211E-001  0.56678104E+000
      127 -0.99562047E+000  0.61582372E-001 -0.70338367E-001
      128 -0.90962670E+000  0.21331321E+000  0.35647826E+000
      129 -0.14671260E+000 -0.47042343E+000  0.87015930E+000
      130  0.52456059E+000 -0.35918360E+000 -0.77189593E+000
      131  0.29446730E-001  0.94424682E+000 -0.32791895E+000
      132  0.84491792E+000  0.48233885E+000 -0.23122055E+000
      133  0.31590162E+000 -0.94877066E+000  0.63565257E-002
      134  0.73945304E+000 -0.68370567E-001  0.66972731E+000
      135 -0.28663592E+000  0.11750321E+000 -0.95080642E+000
      136 -0.22551689E-001 -0.91270084E+000 -0.40800562E+000
      137 -0.49228126E-001  0.94733462E+000  0.31643910E+000
      138  0.72736206E+000  0.65562865E+000 -0.20272026E+000
      139  0.80947191E+000 -0.24534642E+000 -0.53344200E+000
      140 -0.24677757E-001  0.90368823E+000 -0.42747934E+000
      141 -0.83050284E-001  0.26961398E-001 -0.99618057E+000
      142  0.45014235E+000 -0.87112445E+000  0.19625000E+000
      143  0.60417740E+000 -0.58469372E-001  0.79470183E+000
      144 -0.16635613E+000 -0.76125287E+000 -0.62675331E+000
      145  0.19716449E+000  0.78639743E+000  0.58541032E+000
      146  0.88130334E+000  0.47065862E+000  0.42247902E-001
      147  0.70965825E+000 -0.35388253E+000 -0.60922272E+000
      148 -0.80740708E-001  0.15699109E+000 -0.98429403E+000
      149  0.11140949E+000  0.94277687E+000 -0.31426055E+000
      150 -0.88984062E+000 -0.53523468E-001 -0.45312130E+000
      151 -0.58781226E+000 -0.76850847E+000  0.25272805E+000
      152 -0.66470366E+000  0.72706249E+000  0.17189873E+000
      153 -0.35769804E+000  0.12810762E+000  0.92500841E+000
      154 -0.76125580E+000  0.63361907E+000  0.13790028E+000
      155  0.61931848E+000  0.25188630E+000  0.74363829E+000
      156 -0.48162064E+000  0.61437997E-001  0.87422362E+000
      157  0.54983229E+000 -0.78154275E+000  0.29474630E+000
      158 -0.83778867E+000 -0.40798369E+000 -0.36284908E+000
      159 -0.38143899E+000 -0.81650127E+000  0.43339356E+000
      160 -0.14848335E+000 -0.55638248E-003 -0.98891475E+000
      161 -0.89821856E+000 -0.20832993E+000 -0.38704272E+000
      162  0.91554373E+000  0.20079246E+000  0.34851408E+000
      163 -0.39263140E-001 -0.87824478E+000 -0.47659680E+000
      164  0.86284173E+000 -0.50536247E+000 -0.10626959E-001
      165  0.80153752E+000  0.22146248E+000 -0.55542055E+000
      166 -0.49407109E+000 -0.71229796E+000  0.49852318E+000
      167  0.46262426E+000 -0.40682098E+000  0.78770266E+000
      168  0.26940077E+000  0.95262134E+000 -0.14119424E+000
      169 -0.90350324E+000  0.21203055E+000  0.37245798E+000
      170  0.12504115E+000  0.48099959E+000  0.86775809E+000
      171 -0.67424060E+000  0.57525875E+000 -0.46311660E+000
      172  0.80758934E+000  0.30544723E+000 -0.50448136E+000
      173 -0.12237383E+000  0.14405902E+000 -0.98197334E+000
      174 -0.87057790E+000 -0.18839171E+000 -0.45453568E+000
      175  0.88204963E+000  0.12044356E+000  0.45550170E+000
      176 -0.47731416E+000 -0.81239401E+000  0.33494353E+000
      177  0.46853620E+000 -0.50980782E+000  0.72150524E+000
      178  0.87047757E+000 -0.48990339E+000 -0.47575885E-001
      179  0.34603625E-001 -0.79565752E+000 -0.60475756E+000
      180  0.54631593E+000 -0.25366311E+000 -0.79824428E+000
      181  0.76514228E+000 -0.56257139E+000 -0.31316245E+000
      182 -0.86533947E+000 -0.13781335E+000 -0.48186626E+000
      183  0.90449175E+000  0.42340939E+000 -0.51177817E-001
      184 -0.62586984E+000  0.77590871E+000 -0.79073484E-001
      185 -0.95219774E+000  0.35067261E-001 -0.30346293E+000
      186 -0.79168556E-001  0.96862615E+000  0.23557529E+000
      187  0.13508921E+000 -0.80611247E-001 -0.98754885E+000
      188  0.36539789E-001 -0.95895884E+000 -0.28118107E+000
      189 -0.27709144E+000  0.26920782E+000 -0.92235973E+000
      190 -0.33904509E+000 -0.61481107E+000 -0.71207849E+000
      191  0.42245716E-001  0.86846203E+000 -0.49395243E+000
      192  0.97671232E-001  0.96651188E+000 -0.23730805E+000
      193  0.38127664E+000  0.64697438E+000  0.66034254E+000
      194 -0.58267343E+000 -0.76644083E+000  0.27029638E+000
      195 -0.59827507E+000  0.69421147E+000  0.40017168E+000
      196 -0.12909738E+000 -0.72039175E-002  0.99160575E+000
      197  0.73433468E+000 -0.15590486E+000  0.66064079E+000
      198  0.46930684E+000 -0.88299181E+000  0.87495691E-002
      199  0.86039334E+000  0.50431860E+000 -0.73389751E-001
      200 -0.59331738E+000  0.37934186E+000  0.70998186E+000
      201  0.43615602E+000  0.86435706E-001  0.89571022E+000
      202  0.36137708E+000 -0.84185061E+000  0.40086675E+000
      203 -0.55967587E+000 -0.70064267E+000  0.44256386E+000
      204 -0.87585961E+000  0.11944961E+000  0.46754865E+000
      205  0.26968276E+000  0.94944380E+000  0.16070993E+000
      206  0.40616558E-001  0.28394531E+000  0.95797983E+000
      207 -0.70807869E+000  0.61393945E+000 -0.34885945E+000
      208 -0.90765984E+000 -0.37505805E+000  0.18837484E+000
      209 -0.80855681E+000  0.17085477E+000  0.56306708E+000
      210 -0.24658139E+000 -0.46626134E+000  0.84958695E+000
      211  0.78757056E+000 -0.34879809E-001  0.61523655E+000
      212  0.37407592E-001  0.82823605E+000  0.55912942E+000
      213  0.89174310E+000  0.38529836E+000 -0.23735926E+000
      214 -0.92146758E+000  0.28037081E+000 -0.26886747E+000
      215  0.14056555E-001  0.81307282E+000 -0.58199227E+000
      216  0.92364168E+000 -0.32112326E+000 -0.20920302E+000
      217 -0.42004578E+000 -0.36178256E+000 -0.83227094E+000
      218  0.14431830E+000 -0.98924970E+000 -0.23606205E-001
      219  0.57047361E+000  0.95910382E-001 -0.81569667E+000
      220 -0.97447316E+000 -0.16599561E+000  0.15115395E+000
      221  0.90248480E+000  0.38005772E+000 -0.20267541E+000
      222  0.26870523E+000  0.33025843E+000  0.90483527E+000
      223 -0.58188189E+000 -0.17670115E-001  0.81308132E+000
      224 -0.89033234E+000  0.39084320E+000  0.23355924E+000
      225 -0.11622126E+000  0.97303743E+000  0.19922546E+000
      226  0.16617710E+000 -0.88636604E+000  0.43213471E+000
      227  0.13785347E+000 -0.68648839E+000 -0.71395386E+000
      228 -0.75740860E+000  0.25253541E+000 -0.60212796E+000
      229  0.93739925E+000 -0.33094756E+000  0.10842673E+000
      230  0.78991725E+000 -0.21148896E+000 -0.57558940E+000
      231  0.41566817E+000  0.50575000E+000 -0.75593446E+000
      232  0.15545151E+000 -0.43937325E+000  0.88475193E+000
      233  0.29734926E+000 -0.95327702E+000 -0.53351152E-001
      234 -0.75410667E+000 -0.16259236E+000  0.63630720E+000
      235 -0.71791817E+000 -0.63665456E+000 -0.28153947E+000
End values

