GiD Post Results File 1.0
 
Result TEMPE ALYA  0.00000000E+00 Scalar OnNodes
ComponentNames TEMPE
Values
        1  0.00000000E+000
        2  0.00000000E+000
        3  0.00000000E+000
        4  0.00000000E+000
        5  0.00000000E+000
        6  0.00000000E+000
        7  0.00000000E+000
        8  0.00000000E+000
        9  0.00000000E+000
       10  0.00000000E+000
       11  0.00000000E+000
       12  0.00000000E+000
       13  0.00000000E+000
       14  0.00000000E+000
       15  0.00000000E+000
       16  0.00000000E+000
       17  0.00000000E+000
       18  0.00000000E+000
       19  0.00000000E+000
       20  0.00000000E+000
       21  0.00000000E+000
       22  0.00000000E+000
       23  0.00000000E+000
       24  0.00000000E+000
       25  0.00000000E+000
       26  0.00000000E+000
       27  0.00000000E+000
       28  0.00000000E+000
       29  0.00000000E+000
       30  0.00000000E+000
       31  0.00000000E+000
       32  0.00000000E+000
       33  0.00000000E+000
       34  0.00000000E+000
       35  0.00000000E+000
       36  0.00000000E+000
       37  0.00000000E+000
       38  0.00000000E+000
       39  0.00000000E+000
       40  0.00000000E+000
       41  0.00000000E+000
       42  0.00000000E+000
       43  0.00000000E+000
       44  0.00000000E+000
       45  0.00000000E+000
       46  0.00000000E+000
       47  0.00000000E+000
       48  0.00000000E+000
       49  0.00000000E+000
       50  0.00000000E+000
       51  0.00000000E+000
       52  0.00000000E+000
       53  0.00000000E+000
       54  0.00000000E+000
       55  0.00000000E+000
       56  0.00000000E+000
       57  0.00000000E+000
       58  0.00000000E+000
       59  0.00000000E+000
       60  0.00000000E+000
       61  0.00000000E+000
       62  0.00000000E+000
       63  0.00000000E+000
       64  0.00000000E+000
       65  0.00000000E+000
       66  0.00000000E+000
       67  0.00000000E+000
       68  0.00000000E+000
       69  0.00000000E+000
       70  0.00000000E+000
       71  0.00000000E+000
       72  0.00000000E+000
       73  0.00000000E+000
       74  0.00000000E+000
       75  0.00000000E+000
       76  0.00000000E+000
       77  0.00000000E+000
       78  0.00000000E+000
       79  0.00000000E+000
       80  0.00000000E+000
       81  0.00000000E+000
       82  0.00000000E+000
       83  0.00000000E+000
       84  0.00000000E+000
       85  0.00000000E+000
       86  0.00000000E+000
       87  0.00000000E+000
       88  0.00000000E+000
       89  0.00000000E+000
       90  0.00000000E+000
       91  0.00000000E+000
       92  0.00000000E+000
       93  0.00000000E+000
       94  0.00000000E+000
       95  0.00000000E+000
       96  0.00000000E+000
       97  0.00000000E+000
       98  0.00000000E+000
       99  0.00000000E+000
      100  0.00000000E+000
      101  0.00000000E+000
      102  0.00000000E+000
      103  0.00000000E+000
      104  0.00000000E+000
      105  0.00000000E+000
      106  0.00000000E+000
      107  0.00000000E+000
      108  0.00000000E+000
      109  0.00000000E+000
      110  0.00000000E+000
      111  0.00000000E+000
      112  0.00000000E+000
      113  0.00000000E+000
      114  0.00000000E+000
      115  0.00000000E+000
      116  0.00000000E+000
      117  0.00000000E+000
      118  0.00000000E+000
      119  0.00000000E+000
      120  0.00000000E+000
      121  0.00000000E+000
End values

Result TEMPE ALYA  0.10000000E+01 Scalar OnNodes
ComponentNames TEMPE
Values
        1  0.00000000E+000
        2  0.00000000E+000
        3  0.00000000E+000
        4  0.00000000E+000
        5  0.00000000E+000
        6  0.00000000E+000
        7  0.00000000E+000
        8  0.00000000E+000
        9  0.00000000E+000
       10  0.45000000E+001
       11  0.80000000E+001
       12  0.10500000E+002
       13  0.12000000E+002
       14  0.12500000E+002
       15  0.12000000E+002
       16  0.10500000E+002
       17  0.80000000E+001
       18  0.45000000E+001
       19  0.00000000E+000
       20  0.00000000E+000
       21  0.00000000E+000
       22  0.45000000E+001
       23  0.45000000E+001
       24  0.45000000E+001
       25  0.45000000E+001
       26  0.45000000E+001
       27  0.45000000E+001
       28  0.45000000E+001
       29  0.45000000E+001
       30  0.45000000E+001
       31  0.80000000E+001
       32  0.10500000E+002
       33  0.12000000E+002
       34  0.12500000E+002
       35  0.12000000E+002
       36  0.10500000E+002
       37  0.80000000E+001
       38  0.45000000E+001
       39  0.45000000E+001
       40  0.00000000E+000
       41  0.80000000E+001
       42  0.80000000E+001
       43  0.80000000E+001
       44  0.80000000E+001
       45  0.80000000E+001
       46  0.80000000E+001
       47  0.80000000E+001
       48  0.80000000E+001
       49  0.10500000E+002
       50  0.12000000E+002
       51  0.12500000E+002
       52  0.12000000E+002
       53  0.10500000E+002
       54  0.80000000E+001
       55  0.45000000E+001
       56  0.80000000E+001
       57  0.00000000E+000
       58  0.10500000E+002
       59  0.10500000E+002
       60  0.10500000E+002
       61  0.10500000E+002
       62  0.10500000E+002
       63  0.10500000E+002
       64  0.10500000E+002
       65  0.12000000E+002
       66  0.12500000E+002
       67  0.12000000E+002
       68  0.10500000E+002
       69  0.80000000E+001
       70  0.45000000E+001
       71  0.10500000E+002
       72  0.00000000E+000
       73  0.12000000E+002
       74  0.12000000E+002
       75  0.12000000E+002
       76  0.12000000E+002
       77  0.12000000E+002
       78  0.12000000E+002
       79  0.12500000E+002
       80  0.12000000E+002
       81  0.10500000E+002
       82  0.80000000E+001
       83  0.45000000E+001
       84  0.12000000E+002
       85  0.00000000E+000
       86  0.12500000E+002
       87  0.12500000E+002
       88  0.12500000E+002
       89  0.12500000E+002
       90  0.12500000E+002
       91  0.12000000E+002
       92  0.10500000E+002
       93  0.80000000E+001
       94  0.45000000E+001
       95  0.12500000E+002
       96  0.00000000E+000
       97  0.12000000E+002
       98  0.12000000E+002
       99  0.12000000E+002
      100  0.12000000E+002
      101  0.10500000E+002
      102  0.80000000E+001
      103  0.45000000E+001
      104  0.12000000E+002
      105  0.00000000E+000
      106  0.10500000E+002
      107  0.10500000E+002
      108  0.10500000E+002
      109  0.80000000E+001
      110  0.45000000E+001
      111  0.10500000E+002
      112  0.00000000E+000
      113  0.80000000E+001
      114  0.80000000E+001
      115  0.45000000E+001
      116  0.80000000E+001
      117  0.00000000E+000
      118  0.45000000E+001
      119  0.45000000E+001
      120  0.00000000E+000
      121  0.00000000E+000
End values

