-------------------
GENERAL
-------------------
file    = c
NFILES  = 1  ! number of files to be time meaned 
problem = channel ! channel or abl 
--------------------
MESH
--------------------
 nx    =  16     ! # num of streamwise elements
 ny    =  16    ! # num of vertical elememts 
 nz    =  16      ! # num of spanwise elements
 hele1 =  0.1    !  first element length (in y direction)
 LX    =  18.849 ! Domain lengths
 LY    =  2.0
 LZ    =  6.283
 distribution = uniform   ! geometrical, hyperbolic
 ratio =  1.03               ! expan ratio for geometrical
 maxle =  30.0                !  maxim element length fo
 gamma =  2.1  ! only for hyperbolic
 alpha =  0.9  ! only for hyperbolic (assymetric)
--------------------
PHYSICAL
--------------------
fcori =     0.0  ! 2*Omega*sin(latitud)
vegeo =     0.0     ! velocity on the top
ustar =     1.0     ! friction velocity (only for initial condition)
rough =     0.0
reynolds =  2000.0
LES_model = VRMAN ! NO, WALE, SMAGO,SIGMA, VRMAN  
--------------------
NUMERICAL
--------------------
dwall    = 0.0 ! wall distance (if zero will be equal to hele1)
multi    = yes
random   = 0.0  ! random fluctuation amplitude for initial velocity
exchange = yes   ! yes or not exchange locati
noslip   = yes
period   = 1.0
--------------------
THERMAL
--------------------
thermal = no     ! yes or no
trati   = 1.0333333333333334      ! ratio between top on bottom temperature 
teref   = 310.0
tewall  = 300.0    ! tem over wall
gradbot = 0.000    ! temp gradient bottom
gradtop = 0.01     ! temp gradient top (temp lapse)
zinfle  = 1000.0    ! inflexion height coordinate (if 0, infle = ztop) 
height  = -1.0     ! if <0.0 ni inv_profile
inv_length =10
inv_temp =2
