 0.30002294E+003
 0.30000000E+003
 0.30000000E+003
 0.30002294E+003
 0.30001160E+003
 0.30000000E+003
 0.30000000E+003
 0.30001160E+003
 0.30002294E+003
 0.30002294E+003
 0.30002294E+003
 0.30002294E+003
 0.30002293E+003
 0.30002293E+003
 0.30002342E+003
 0.30010016E+003
 0.30642228E+003
 0.32334242E+003
 0.30000000E+003
 0.30000000E+003
 0.30000000E+003
 0.30000000E+003
 0.30000000E+003
 0.30000000E+003
 0.30000000E+003
 0.30000000E+003
 0.32333807E+003
 0.30642171E+003
 0.30010031E+003
 0.30002342E+003
 0.30002293E+003
 0.30002293E+003
 0.30002294E+003
 0.30002294E+003
 0.30002294E+003
 0.30002294E+003
 0.30002447E+003
 0.30002805E+003
 0.30003310E+003
 0.30003827E+003
 0.30004113E+003
 0.30003944E+003
 0.30003319E+003
 0.30002511E+003
 0.30001838E+003
 0.30001429E+003
 0.30001239E+003
 0.30001178E+003
 0.30001163E+003
 0.30001160E+003
 0.30001160E+003
 0.30001160E+003
 0.30001160E+003
 0.30001160E+003
 0.30001160E+003
 0.30001160E+003
 0.30001183E+003
 0.30003426E+003
 0.30015494E+003
 0.30020275E+003
 0.30000000E+003
 0.30000000E+003
 0.30000000E+003
 0.30000000E+003
 0.30000000E+003
 0.30000000E+003
 0.30000000E+003
 0.30000000E+003
 0.30020272E+003
 0.30015473E+003
 0.30003427E+003
 0.30001184E+003
 0.30001160E+003
 0.30001160E+003
 0.30001160E+003
 0.30001160E+003
 0.30001160E+003
 0.30001160E+003
 0.30001160E+003
 0.30001163E+003
 0.30001178E+003
 0.30001239E+003
 0.30001429E+003
 0.30001838E+003
 0.30002511E+003
 0.30003319E+003
 0.30003944E+003
 0.30004113E+003
 0.30003827E+003
 0.30003310E+003
 0.30002805E+003
 0.30002447E+003
 0.35223315E+003
 0.42872224E+003
 0.55505281E+003
 0.74242758E+003
 0.10016638E+004
 0.13406538E+004
 0.18362906E+004
 0.21658755E+004
 0.15714191E+004
 0.79556902E+003
 0.44412998E+003
 0.33317807E+003
 0.30621197E+003
 0.30094686E+003
 0.35222461E+003
 0.42869521E+003
 0.55498623E+003
 0.74229258E+003
 0.10014549E+004
 0.13404705E+004
 0.18363250E+004
 0.21652587E+004
 0.15707348E+004
 0.79549406E+003
 0.44416169E+003
 0.33317664E+003
 0.30620987E+003
 0.30094640E+003
 0.30077393E+003
 0.30459027E+003
 0.32421971E+003
 0.40490226E+003
 0.66240374E+003
 0.12408269E+004
 0.17814920E+004
 0.16776086E+004
 0.13006983E+004
 0.97980210E+003
 0.72890484E+003
 0.54687359E+003
 0.42437095E+003
 0.35189602E+003
 0.30034018E+003
 0.30100269E+003
 0.30425606E+003
 0.31752845E+003
 0.36063241E+003
 0.46514846E+003
 0.60957987E+003
 0.65088056E+003
 0.57776425E+003
 0.49063160E+003
 0.42005029E+003
 0.36791481E+003
 0.33326578E+003
 0.31362364E+003
 0.30006161E+003
 0.30009113E+003
 0.30016378E+003
 0.30040869E+003
 0.30110274E+003
 0.30296812E+003
 0.30572938E+003
 0.30488915E+003
 0.30273712E+003
 0.30175321E+003
 0.30122845E+003
 0.30077019E+003
 0.30041171E+003
 0.30018407E+003
 0.30001206E+003
 0.30001250E+003
 0.30001372E+003
 0.30001810E+003
 0.30003099E+003
 0.30005431E+003
 0.30007227E+003
 0.30007491E+003
 0.30006737E+003
 0.30005712E+003
 0.30004798E+003
 0.30003891E+003
 0.30003106E+003
 0.30002567E+003
 0.30001160E+003
 0.30001164E+003
 0.30001179E+003
 0.30001244E+003
 0.30001440E+003
 0.30001854E+003
 0.30002527E+003
 0.30003329E+003
 0.30003948E+003
 0.30004114E+003
 0.30003828E+003
 0.30003310E+003
 0.30002805E+003
 0.30002446E+003
 0.30001160E+003
 0.30001163E+003
 0.30001178E+003
 0.30001239E+003
 0.30001429E+003
 0.30001837E+003
 0.30002510E+003
 0.30003319E+003
 0.30003943E+003
 0.30004113E+003
 0.30003827E+003
 0.30003309E+003
 0.30002805E+003
 0.30002446E+003
 0.30001160E+003
 0.30001163E+003
 0.30001178E+003
 0.30001239E+003
 0.30001429E+003
 0.30001838E+003
 0.30002511E+003
 0.30003319E+003
 0.30003944E+003
 0.30004113E+003
 0.30003827E+003
 0.30003310E+003
 0.30002805E+003
 0.30002447E+003
 0.30001160E+003
 0.30001163E+003
 0.30001178E+003
 0.30001239E+003
 0.30001429E+003
 0.30001838E+003
 0.30002511E+003
 0.30003319E+003
 0.30003944E+003
 0.30004113E+003
 0.30003827E+003
 0.30003310E+003
 0.30002805E+003
 0.30002447E+003
 0.30001160E+003
 0.30001163E+003
 0.30001178E+003
 0.30001239E+003
 0.30001429E+003
 0.30001838E+003
 0.30002511E+003
 0.30003319E+003
 0.30003944E+003
 0.30004113E+003
 0.30003827E+003
 0.30003310E+003
 0.30002805E+003
 0.30002447E+003
 0.30001160E+003
 0.30001163E+003
 0.30001178E+003
 0.30001239E+003
 0.30001429E+003
 0.30001838E+003
 0.30002511E+003
 0.30003319E+003
 0.30003944E+003
 0.30004113E+003
 0.30003827E+003
 0.30003310E+003
 0.30002805E+003
 0.30002447E+003
 0.30093927E+003
 0.30616773E+003
 0.33295439E+003
 0.44336795E+003
 0.79346145E+003
 0.15677324E+004
 0.21637220E+004
 0.18354802E+004
 0.13395412E+004
 0.10005312E+004
 0.74161756E+003
 0.55457836E+003
 0.42847847E+003
 0.35168794E+003
 0.30093655E+003
 0.30614648E+003
 0.33285376E+003
 0.44304664E+003
 0.79274348E+003
 0.15666608E+004
 0.21630037E+004
 0.18352010E+004
 0.13391729E+004
 0.10001586E+004
 0.74133003E+003
 0.55439557E+003
 0.42838080E+003
 0.35164902E+003
 0.30093535E+003
 0.30613675E+003
 0.33280871E+003
 0.44291259E+003
 0.79244257E+003
 0.15662204E+004
 0.21627950E+004
 0.18349740E+004
 0.13389518E+004
 0.99996570E+003
 0.74119022E+003
 0.55431037E+003
 0.42833980E+003
 0.35163773E+003
 0.30093491E+003
 0.30613299E+003
 0.33279129E+003
 0.44286329E+003
 0.79233551E+003
 0.15660469E+004
 0.21627028E+004
 0.18348924E+004
 0.13388676E+004
 0.99989031E+003
 0.74113555E+003
 0.55427770E+003
 0.42832547E+003
 0.35163564E+003
 0.30093491E+003
 0.30613301E+003
 0.33279156E+003
 0.44286609E+003
 0.79234936E+003
 0.15660831E+004
 0.21627358E+004
 0.18348723E+004
 0.13388598E+004
 0.99988960E+003
 0.74113657E+003
 0.55427857E+003
 0.42832579E+003
 0.35163569E+003
 0.30093536E+003
 0.30613688E+003
 0.33280985E+003
 0.44292231E+003
 0.79248992E+003
 0.15663434E+004
 0.21629040E+004
 0.18349181E+004
 0.13389342E+004
 0.99996879E+003
 0.74119661E+003
 0.55431465E+003
 0.42834160E+003
 0.35163813E+003
 0.30093661E+003
 0.30614692E+003
 0.33285659E+003
 0.44306544E+003
 0.79283036E+003
 0.15668834E+004
 0.21632010E+004
 0.18351262E+004
 0.13391630E+004
 0.10001799E+004
 0.74135044E+003
 0.55440740E+003
 0.42838585E+003
 0.35165042E+003
 0.30093946E+003
 0.30616916E+003
 0.33296253E+003
 0.44341044E+003
 0.79363497E+003
 0.15681530E+004
 0.21640861E+004
 0.18354008E+004
 0.13395699E+004
 0.10006008E+004
 0.74167105E+003
 0.55460739E+003
 0.42849101E+003
 0.35169202E+003
 0.30001160E+003
 0.30001163E+003
 0.30001178E+003
 0.30001239E+003
 0.30001429E+003
 0.30001838E+003
 0.30002511E+003
 0.30003319E+003
 0.30003944E+003
 0.30004113E+003
 0.30003827E+003
 0.30003310E+003
 0.30002805E+003
 0.30002447E+003
 0.30001160E+003
 0.30001163E+003
 0.30001178E+003
 0.30001239E+003
 0.30001429E+003
 0.30001838E+003
 0.30002511E+003
 0.30003319E+003
 0.30003944E+003
 0.30004113E+003
 0.30003827E+003
 0.30003310E+003
 0.30002805E+003
 0.30002447E+003
 0.30001160E+003
 0.30001163E+003
 0.30001178E+003
 0.30001239E+003
 0.30001429E+003
 0.30001838E+003
 0.30002511E+003
 0.30003319E+003
 0.30003944E+003
 0.30004113E+003
 0.30003827E+003
 0.30003310E+003
 0.30002805E+003
 0.30002447E+003
 0.30001160E+003
 0.30001163E+003
 0.30001178E+003
 0.30001239E+003
 0.30001429E+003
 0.30001838E+003
 0.30002511E+003
 0.30003319E+003
 0.30003944E+003
 0.30004113E+003
 0.30003827E+003
 0.30003310E+003
 0.30002805E+003
 0.30002447E+003
 0.30001160E+003
 0.30001163E+003
 0.30001178E+003
 0.30001239E+003
 0.30001429E+003
 0.30001837E+003
 0.30002510E+003
 0.30003319E+003
 0.30003943E+003
 0.30004113E+003
 0.30003827E+003
 0.30003309E+003
 0.30002805E+003
 0.30002446E+003
 0.30001160E+003
 0.30001164E+003
 0.30001179E+003
 0.30001243E+003
 0.30001439E+003
 0.30001853E+003
 0.30002526E+003
 0.30003328E+003
 0.30003947E+003
 0.30004114E+003
 0.30003828E+003
 0.30003310E+003
 0.30002805E+003
 0.30002446E+003
 0.30001206E+003
 0.30001249E+003
 0.30001369E+003
 0.30001796E+003
 0.30003062E+003
 0.30005389E+003
 0.30007247E+003
 0.30007532E+003
 0.30006745E+003
 0.30005706E+003
 0.30004789E+003
 0.30003884E+003
 0.30003102E+003
 0.30002565E+003
 0.30006159E+003
 0.30009101E+003
 0.30016320E+003
 0.30040709E+003
 0.30110700E+003
 0.30308085E+003
 0.30616303E+003
 0.30532119E+003
 0.30294193E+003
 0.30183330E+003
 0.30125780E+003
 0.30077914E+003
 0.30041404E+003
 0.30018462E+003
 0.30034027E+003
 0.30100166E+003
 0.30425135E+003
 0.31751489E+003
 0.36061536E+003
 0.46545179E+003
 0.61102427E+003
 0.65238424E+003
 0.57850351E+003
 0.49090364E+003
 0.42013842E+003
 0.36793395E+003
 0.33326633E+003
 0.31362270E+003
 0.30077354E+003
 0.30458908E+003
 0.32423293E+003
 0.40504025E+003
 0.66255860E+003
 0.12402811E+004
 0.17812028E+004
 0.16778644E+004
 0.13006695E+004
 0.97963987E+003
 0.72877677E+003
 0.54680111E+003
 0.42433684E+003
 0.35188424E+003
