 0.21614048E-007
 0.84670848E-003
 0.84658301E-003
 0.21615389E-007
 0.78688407E-011
 0.12228961E-019
 0.12233812E-019
 0.78670014E-011
 0.21625572E-007
 0.21629463E-007
 0.21629286E-007
 0.21614973E-007
 0.21545910E-007
 0.21482645E-007
 0.28299607E-007
 0.10834814E-005
 0.11772552E-003
 0.79311946E-003
 0.75902132E-003
 0.75840576E-003
 0.75827706E-003
 0.75827996E-003
 0.75827968E-003
 0.75827357E-003
 0.75839003E-003
 0.75896646E-003
 0.79298110E-003
 0.11771673E-003
 0.10855882E-005
 0.28222390E-007
 0.21481196E-007
 0.21545195E-007
 0.21614685E-007
 0.21629210E-007
 0.21629586E-007
 0.21626213E-007
 0.40293692E-007
 0.83318127E-007
 0.14182962E-006
 0.19810038E-006
 0.22607924E-006
 0.21008475E-006
 0.15845233E-006
 0.96913566E-007
 0.48054251E-007
 0.19059351E-007
 0.56073309E-008
 0.12763053E-008
 0.23912157E-009
 0.36778744E-010
 0.78833265E-011
 0.78882340E-011
 0.78881536E-011
 0.78599006E-011
 0.77515386E-011
 0.14456066E-010
 0.13011029E-008
 0.66878910E-007
 0.84419469E-007
 0.16288511E-015
 0.11710576E-019
 0.11686702E-019
 0.11677532E-019
 0.11674817E-019
 0.11674788E-019
 0.11677653E-019
 0.11687282E-019
 0.11712611E-019
 0.26061270E-015
 0.84544317E-007
 0.66937492E-007
 0.13058465E-008
 0.14565129E-010
 0.77536752E-011
 0.78605308E-011
 0.78884045E-011
 0.78881298E-011
 0.78824474E-011
 0.36774297E-010
 0.23911442E-009
 0.12762984E-008
 0.56073288E-008
 0.19059375E-007
 0.48054329E-007
 0.96913693E-007
 0.15845247E-006
 0.21008484E-006
 0.22607921E-006
 0.19810016E-006
 0.14182904E-006
 0.83316642E-007
 0.40291656E-007
 0.25585531E-002
 0.66896117E-002
 0.14150148E-001
 0.25376245E-001
 0.39091955E-001
 0.51847938E-001
 0.39016808E-001
 0.52189913E-002
 0.45287184E-010
 0.13266769E-011
 0.13428306E-012
 0.17720771E-013
 0.11247126E-014
 0.12132631E-016
 0.25581135E-002
 0.66881120E-002
 0.14146346E-001
 0.25369121E-001
 0.39082836E-001
 0.51841949E-001
 0.39010241E-001
 0.52157036E-002
 0.44974724E-010
 0.11503744E-011
 0.44450856E-013
 0.39924995E-014
 0.44875665E-018
 0.67752965E-019
 0.28467074E-006
 0.26446848E-005
 0.14359017E-004
 0.63391971E-004
 0.23576145E-003
 0.73156023E-003
 0.57400525E-002
 0.28729821E-001
 0.36399261E-001
 0.27529217E-001
 0.17904207E-001
 0.99980129E-002
 0.47319380E-002
 0.18598689E-002
 0.67792402E-006
 0.31149527E-005
 0.12973048E-004
 0.53127143E-004
 0.19786735E-003
 0.65050009E-003
 0.19248716E-002
 0.40451380E-002
 0.43239949E-002
 0.33423091E-002
 0.22181362E-002
 0.12567932E-002
 0.60773074E-003
 0.24791978E-003
 0.18994913E-006
 0.37676195E-006
 0.78198397E-006
 0.20946813E-005
 0.60853750E-005
 0.18328639E-004
 0.38940459E-004
 0.36845436E-004
 0.22986419E-004
 0.16383876E-004
 0.12572180E-004
 0.84671611E-005
 0.47377724E-005
 0.21141818E-005
 0.25283024E-008
 0.49643321E-008
 0.11841506E-007
 0.36737493E-007
 0.11370649E-006
 0.27041741E-006
 0.41728546E-006
 0.47339456E-006
 0.44559239E-006
 0.37605840E-006
 0.29863584E-006
 0.20738158E-006
 0.11981629E-006
 0.55829585E-007
 0.50647907E-010
 0.26917237E-009
 0.13533639E-008
 0.58493674E-008
 0.19633302E-007
 0.49040218E-007
 0.97973424E-007
 0.15915024E-006
 0.21040610E-006
 0.22618041E-006
 0.19814246E-006
 0.14183640E-006
 0.83269351E-007
 0.40211181E-007
 0.36434534E-010
 0.23749668E-009
 0.12705315E-008
 0.55904128E-008
 0.19024463E-007
 0.47999053E-007
 0.96849005E-007
 0.15839887E-006
 0.21006013E-006
 0.22607929E-006
 0.19810135E-006
 0.14181251E-006
 0.83277919E-007
 0.40248935E-007
 0.36748654E-010
 0.23899721E-009
 0.12761141E-008
 0.56072363E-008
 0.19060556E-007
 0.48055671E-007
 0.96914467E-007
 0.15845017E-006
 0.21008251E-006
 0.22607984E-006
 0.19810400E-006
 0.14183587E-006
 0.83320341E-007
 0.40301413E-007
 0.36822694E-010
 0.23928712E-009
 0.12770152E-008
 0.56095232E-008
 0.19064830E-007
 0.48062182E-007
 0.96922705E-007
 0.15845783E-006
 0.21008666E-006
 0.22607963E-006
 0.19810275E-006
 0.14183887E-006
 0.83328611E-007
 0.40312515E-007
 0.36816906E-010
 0.23922843E-009
 0.12766888E-008
 0.56082490E-008
 0.19061824E-007
 0.48057539E-007
 0.96917831E-007
 0.15845503E-006
 0.21008603E-006
 0.22607938E-006
 0.19810137E-006
 0.14183691E-006
 0.83327463E-007
 0.40312479E-007
 0.36803695E-010
 0.23917538E-009
 0.12764763E-008
 0.56076020E-008
 0.19060129E-007
 0.48055081E-007
 0.96914780E-007
 0.15845300E-006
 0.21008514E-006
 0.22607932E-006
 0.19810116E-006
 0.14183436E-006
 0.83324445E-007
 0.40307258E-007
 0.67262699E-019
 0.44570313E-018
 0.23924259E-017
 0.10560679E-016
 0.10927426E-011
 0.44753644E-010
 0.52288486E-002
 0.39058696E-001
 0.51817522E-001
 0.39038664E-001
 0.25330253E-001
 0.14121616E-001
 0.66758205E-002
 0.25318326E-002
 0.67065817E-019
 0.44416347E-018
 0.23850917E-017
 0.10536579E-016
 0.10687565E-011
 0.44458455E-010
 0.52323151E-002
 0.39073157E-001
 0.51807542E-001
 0.39020802E-001
 0.25313618E-001
 0.14110534E-001
 0.66702797E-002
 0.25298235E-002
 0.66978830E-019
 0.44345827E-018
 0.23818077E-017
 0.10526536E-016
 0.10741830E-011
 0.44462559E-010
 0.52363624E-002
 0.39086624E-001
 0.51802211E-001
 0.39011572E-001
 0.25305535E-001
 0.14105367E-001
 0.66679471E-002
 0.25292350E-002
 0.66946970E-019
 0.44318607E-018
 0.23805383E-017
 0.10522846E-016
 0.10752678E-011
 0.44455499E-010
 0.52377495E-002
 0.39091368E-001
 0.51800127E-001
 0.39007964E-001
 0.25302375E-001
 0.14103385E-001
 0.66671288E-002
 0.25291236E-002
 0.66947130E-019
 0.44318773E-018
 0.23805585E-017
 0.10523058E-016
 0.10759582E-011
 0.44474293E-010
 0.52382787E-002
 0.39092797E-001
 0.51800077E-001
 0.39007937E-001
 0.25302435E-001
 0.14103437E-001
 0.66671472E-002
 0.25291264E-002
 0.66979944E-019
 0.44346781E-018
 0.23818911E-017
 0.10527271E-016
 0.10764859E-011
 0.44522487E-010
 0.52378859E-002
 0.39090660E-001
 0.51802212E-001
 0.39011740E-001
 0.25305908E-001
 0.14105627E-001
 0.66680494E-002
 0.25292562E-002
 0.67070062E-019
 0.44419531E-018
 0.23852982E-017
 0.10538000E-016
 0.10734297E-011
 0.44568797E-010
 0.52345459E-002
 0.39078825E-001
 0.51808023E-001
 0.39021849E-001
 0.25314800E-001
 0.14111252E-001
 0.66705678E-002
 0.25298962E-002
 0.79162653E-019
 0.11358112E-017
 0.11750961E-016
 0.38311192E-016
 0.11003884E-011
 0.44944449E-010
 0.52317821E-002
 0.39065500E-001
 0.51819408E-001
 0.39042029E-001
 0.25333341E-001
 0.14123377E-001
 0.66765345E-002
 0.25320442E-002
 0.36806045E-010
 0.23917998E-009
 0.12764795E-008
 0.56075903E-008
 0.19060071E-007
 0.48054947E-007
 0.96914587E-007
 0.15845281E-006
 0.21008502E-006
 0.22607935E-006
 0.19810139E-006
 0.14183486E-006
 0.83325386E-007
 0.40308284E-007
 0.36817042E-010
 0.23922683E-009
 0.12766739E-008
 0.56081808E-008
 0.19061646E-007
 0.48057224E-007
 0.96917450E-007
 0.15845472E-006
 0.21008590E-006
 0.22607939E-006
 0.19810149E-006
 0.14183712E-006
 0.83327750E-007
 0.40312700E-007
 0.36821179E-010
 0.23927651E-009
 0.12769630E-008
 0.56093334E-008
 0.19064400E-007
 0.48061517E-007
 0.96922014E-007
 0.15845741E-006
 0.21008657E-006
 0.22607959E-006
 0.19810251E-006
 0.14183849E-006
 0.83328288E-007
 0.40312346E-007
 0.36744941E-010
 0.23897170E-009
 0.12759906E-008
 0.56067983E-008
 0.19059600E-007
 0.48054295E-007
 0.96913226E-007
 0.15844970E-006
 0.21008266E-006
 0.22607967E-006
 0.19810287E-006
 0.14183425E-006
 0.83319012E-007
 0.40300748E-007
 0.36424750E-010
 0.23743525E-009
 0.12702350E-008
 0.55893709E-008
 0.19022267E-007
 0.47996020E-007
 0.96846611E-007
 0.15839859E-006
 0.21006109E-006
 0.22607881E-006
 0.19809800E-006
 0.14180805E-006
 0.83274424E-007
 0.40247253E-007
 0.50402735E-010
 0.26830409E-009
 0.13496403E-008
 0.58355325E-008
 0.19598388E-007
 0.48983890E-007
 0.97910433E-007
 0.15910801E-006
 0.21038517E-006
 0.22616329E-006
 0.19813273E-006
 0.14182623E-006
 0.83261777E-007
 0.40207682E-007
 0.25222969E-008
 0.49353691E-008
 0.11670171E-007
 0.36005013E-007
 0.11160640E-006
 0.26784583E-006
 0.41866611E-006
 0.47646874E-006
 0.44623439E-006
 0.37543556E-006
 0.29776947E-006
 0.20662302E-006
 0.11936561E-006
 0.55648283E-007
 0.18982418E-006
 0.37616166E-006
 0.77904158E-006
 0.20862769E-005
 0.61084066E-005
 0.19028224E-004
 0.41881736E-004
 0.40123172E-004
 0.24712377E-004
 0.17136128E-004
 0.12875874E-004
 0.85679576E-005
 0.47660551E-005
 0.21214400E-005
 0.67725859E-006
 0.31109534E-005
 0.12951699E-004
 0.53046577E-004
 0.19771710E-003
 0.65218324E-003
 0.19338191E-002
 0.40589814E-002
 0.43364757E-002
 0.33490761E-002
 0.22210536E-002
 0.12576505E-002
 0.60783370E-003
 0.24791289E-003
 0.28426418E-006
 0.26406387E-005
 0.14329818E-004
 0.63242418E-004
 0.23526332E-003
 0.73074694E-003
 0.57370008E-002
 0.28734732E-001
 0.36414544E-001
 0.27535038E-001
 0.17904937E-001
 0.99970943E-002
 0.47310184E-002
 0.18594970E-002
