 0.93220360E-033
 0.15818547E-021
 0.14024300E-021
 0.93342164E-033
 0.90246332E-033
-0.11280439E-026
-0.13131287E-026
 0.90129065E-033
 0.78663402E-033
 0.40391736E-031
 0.73197921E-029
 0.56243994E-027
 0.84306995E-026
 0.71945253E-025
 0.55159617E-024
 0.26056235E-022
 0.26661979E-020
 0.41892726E-020
 0.28617101E-022
 0.44247378E-023
-0.13422663E-023
 0.78140375E-024
 0.51283828E-024
-0.21199990E-023
 0.16085707E-023
 0.28518783E-022
 0.39026068E-020
 0.26169519E-020
 0.24946582E-022
 0.49858544E-024
 0.64319551E-025
 0.76262274E-026
 0.52302679E-027
 0.68570785E-029
 0.37471160E-031
 0.77674202E-033
 0.96239729E-033
 0.98181391E-033
 0.10406945E-032
 0.11707010E-032
 0.13456930E-032
 0.14816434E-032
 0.14779393E-032
 0.13343475E-032
 0.11496634E-032
 0.10142898E-032
 0.94990166E-033
 0.92675237E-033
 0.92523901E-033
 0.92650806E-033
 0.62796774E-033
 0.49740887E-033
-0.12414532E-031
-0.93655914E-030
-0.10758666E-028
-0.60599404E-028
-0.19662149E-027
-0.42991573E-027
-0.70930785E-027
-0.11999421E-026
 0.00000000E+000
 0.00000000E+000
 0.00000000E+000
 0.00000000E+000
 0.00000000E+000
 0.00000000E+000
 0.00000000E+000
 0.00000000E+000
-0.13505214E-026
-0.80697700E-027
-0.48802420E-027
-0.22026316E-027
-0.66860769E-028
-0.11752656E-028
-0.10142048E-029
-0.12694864E-031
 0.48476228E-033
 0.62735636E-033
 0.92665208E-033
 0.92549344E-033
 0.92721921E-033
 0.95223659E-033
 0.10225459E-032
 0.11704827E-032
 0.13729310E-032
 0.15308076E-032
 0.15353846E-032
 0.13863820E-032
 0.11936324E-032
 0.10503557E-032
 0.98496197E-033
 0.96305174E-033
 0.82376056E-020
 0.13749888E-017
 0.52561979E-015
 0.12358519E-012
 0.16704689E-010
 0.12856092E-008
 0.17116466E-007
-0.21870033E-008
-0.47854276E-011
-0.15946312E-013
-0.20408285E-015
-0.43924462E-018
-0.20593289E-020
-0.10404103E-023
 0.74935815E-020
 0.11362359E-017
 0.42691256E-015
 0.10005978E-012
 0.14845039E-010
 0.11858983E-008
 0.15972198E-007
-0.17311827E-008
-0.41040364E-011
-0.13803179E-013
-0.18941377E-015
-0.39685822E-018
-0.18707271E-020
-0.82813902E-024
-0.18677994E-023
-0.22571870E-020
-0.70482305E-018
-0.20596403E-015
-0.16947694E-013
-0.32531529E-011
-0.77317698E-009
 0.12854311E-007
 0.26562319E-008
 0.69609499E-010
 0.31231007E-012
 0.14123899E-014
 0.44689187E-017
 0.88010004E-019
-0.15897667E-023
-0.13486007E-020
-0.51005858E-018
-0.83600966E-016
-0.90378404E-014
-0.40254229E-012
-0.31534821E-010
 0.15112630E-009
 0.13902184E-009
 0.90358308E-011
 0.11279131E-012
 0.61423027E-015
 0.24659160E-017
 0.45092737E-019
-0.70834146E-024
-0.48177294E-021
-0.13172852E-018
-0.18133564E-016
-0.59379642E-015
-0.77691826E-013
-0.76091620E-013
 0.13748506E-012
 0.40563466E-012
 0.24064693E-012
 0.14466639E-013
 0.13082465E-015
 0.53521537E-018
 0.14829613E-020
-0.21158116E-024
-0.89546663E-022
-0.16216633E-019
-0.42283262E-018
-0.78573839E-016
-0.33017144E-015
-0.40356309E-015
 0.42075336E-015
 0.13269524E-014
 0.90714598E-015
 0.22340567E-015
 0.10846089E-016
 0.73937592E-019
 0.22426817E-021
-0.36792253E-025
-0.85923642E-023
-0.22175012E-021
-0.40544432E-019
-0.30564239E-018
-0.82135259E-018
-0.54035212E-018
 0.17939957E-017
 0.39330290E-017
 0.28777557E-017
 0.95819552E-018
 0.13514990E-018
 0.50688635E-020
 0.27480356E-022
-0.32511518E-026
-0.10299145E-024
-0.13835381E-022
-0.14961614E-021
-0.59475191E-021
-0.73759246E-021
 0.17817615E-020
 0.76633268E-020
 0.11095272E-019
 0.79687409E-020
 0.31069967E-020
 0.64328850E-021
 0.61803106E-022
 0.18112314E-023
-0.41002463E-028
-0.37259913E-026
-0.49574562E-025
-0.24210393E-024
-0.25371452E-024
 0.22675094E-023
 0.11128384E-022
 0.23800527E-022
 0.28196641E-022
 0.19860276E-022
 0.85547194E-023
 0.22249355E-023
 0.32884286E-024
 0.23329251E-025
-0.83308245E-030
-0.11934390E-028
-0.54614451E-028
 0.12224604E-027
 0.24580216E-026
 0.12332886E-025
 0.33994473E-025
 0.57702204E-025
 0.62320949E-025
 0.43911315E-025
 0.20442932E-025
 0.62442517E-026
 0.12101072E-026
 0.13242648E-027
-0.11641258E-032
 0.13387805E-032
 0.19298860E-030
 0.19400710E-029
 0.10285436E-028
 0.34364703E-028
 0.76518373E-028
 0.11561298E-027
 0.11943293E-027
 0.85369734E-028
 0.42506669E-028
 0.14696838E-028
 0.34545502E-029
 0.49516534E-030
 0.63861604E-033
 0.75658272E-033
 0.17839205E-032
 0.72723093E-032
 0.26709085E-031
 0.72572706E-031
 0.14219947E-030
 0.20002536E-030
 0.20209032E-030
 0.14762895E-030
 0.78287209E-031
 0.30362291E-031
 0.87121326E-032
 0.20406029E-032
-0.14258242E-024
-0.63783792E-021
-0.12893697E-018
-0.43330936E-016
-0.73447925E-014
 0.19841637E-012
-0.16826661E-008
 0.13778093E-007
 0.10879447E-008
 0.10601895E-010
 0.60482354E-013
 0.19927379E-015
 0.61038422E-018
 0.40958053E-020
 0.10014790E-025
-0.18846105E-021
-0.63903097E-019
-0.13755598E-016
-0.70564649E-014
 0.18052969E-012
-0.15973718E-008
 0.14716886E-007
 0.10986612E-008
 0.10264875E-010
 0.55749841E-013
 0.16711260E-015
 0.48212878E-018
 0.24178888E-020
 0.20655822E-024
-0.51814247E-023
 0.27653510E-019
 0.23399268E-017
-0.74248842E-014
 0.67943233E-012
-0.15054398E-008
 0.11154990E-007
 0.93863755E-009
 0.95596867E-011
 0.51702067E-013
 0.14606849E-015
 0.36479171E-018
 0.13670702E-020
 0.38257873E-024
 0.29491971E-022
 0.16595676E-018
 0.42417249E-017
-0.29730157E-014
 0.64572030E-012
-0.14139862E-008
 0.90977630E-008
 0.81505466E-009
 0.95721896E-011
 0.53523143E-013
 0.14737501E-015
 0.32479624E-018
 0.70491558E-021
 0.36576988E-024
 0.26829366E-022
 0.15598642E-018
 0.39713128E-017
-0.28494097E-014
 0.54681926E-012
-0.13841724E-008
 0.92896324E-008
 0.82391935E-009
 0.97075373E-011
 0.54207206E-013
 0.15353210E-015
 0.35322272E-018
 0.75330214E-021
 0.18511589E-024
-0.13198008E-022
 0.21977187E-019
 0.12313149E-017
-0.63201225E-014
 0.46983151E-012
-0.15017386E-008
 0.11551619E-007
 0.95797117E-009
 0.98059002E-011
 0.53001538E-013
 0.15435558E-015
 0.40156719E-018
 0.14729272E-020
-0.13406055E-025
-0.19460186E-021
-0.59020918E-019
-0.13521187E-016
-0.60522907E-014
 0.18187148E-014
-0.16471546E-008
 0.14548885E-007
 0.11087137E-008
 0.10516121E-010
 0.56598818E-013
 0.16953684E-015
 0.48466903E-018
 0.28036260E-020
-0.21473176E-024
-0.68368366E-021
-0.13180730E-018
-0.44986149E-016
-0.75181811E-014
-0.16802885E-012
-0.18152599E-008
 0.14397781E-007
 0.11558702E-008
 0.11252542E-010
 0.64573107E-013
 0.21489436E-015
 0.64378652E-018
 0.42837362E-020
 0.63858413E-033
 0.75197100E-033
 0.17223014E-032
 0.68576499E-032
 0.24947607E-031
 0.67477620E-031
 0.13185086E-030
 0.18508326E-030
 0.18665891E-030
 0.13616253E-030
 0.72137948E-031
 0.27996430E-031
 0.80760301E-032
 0.19326613E-032
-0.94343060E-033
 0.26865579E-032
 0.19084643E-030
 0.18622694E-029
 0.97722390E-029
 0.32489751E-028
 0.72132395E-028
 0.10873943E-027
 0.11208771E-027
 0.79957111E-028
 0.39743314E-028
 0.13725385E-028
 0.32234039E-029
 0.46044194E-030
-0.78390104E-030
-0.11058205E-028
-0.48738849E-028
 0.13557974E-027
 0.24178748E-026
 0.11972043E-025
 0.32839918E-025
 0.55553607E-025
 0.59783298E-025
 0.41966608E-025
 0.19468538E-025
 0.59273215E-026
 0.11451128E-026
 0.12472001E-027
-0.40964002E-028
-0.35529121E-026
-0.46840107E-025
-0.22537638E-024
-0.19788022E-024
 0.23860937E-023
 0.11285792E-022
 0.23851035E-022
 0.27977859E-022
 0.19529644E-022
 0.83419054E-023
 0.21522471E-023
 0.31567612E-024
 0.22189239E-025
-0.29874005E-026
-0.10520226E-024
-0.13184025E-022
-0.14255674E-021
-0.55830206E-021
-0.59311027E-021
 0.22061649E-020
 0.83874684E-020
 0.11671154E-019
 0.81747261E-020
 0.31208089E-020
 0.63304449E-021
 0.59474646E-022
 0.16713281E-023
-0.33215141E-025
-0.77598077E-023
-0.23006989E-021
-0.38486560E-019
-0.29413848E-018
-0.76432590E-018
-0.26998728E-018
 0.24434218E-017
 0.45341070E-017
 0.31151346E-017
 0.98678645E-018
 0.13185307E-018
 0.45268819E-020
 0.24163073E-022
-0.18758358E-024
-0.79371068E-022
-0.14543503E-019
-0.43556625E-018
-0.75699591E-016
-0.32921120E-015
-0.31937940E-015
 0.78290347E-015
 0.16824639E-014
 0.10256772E-014
 0.22636185E-015
 0.93855281E-017
 0.61868342E-019
 0.19222985E-021
-0.62171911E-024
-0.42691021E-021
-0.11891982E-018
-0.16852842E-016
-0.62967804E-015
-0.80307427E-013
-0.68750736E-013
 0.25600037E-012
 0.53204175E-012
 0.26663888E-012
 0.12743313E-013
 0.10799976E-015
 0.44604510E-018
 0.13078280E-020
-0.13914291E-023
-0.12024805E-020
-0.46496651E-018
-0.78359591E-016
-0.88449715E-014
-0.44527058E-012
-0.28691940E-010
 0.28575286E-009
 0.18889176E-009
 0.88813491E-011
 0.95571578E-013
 0.51138211E-015
 0.21508982E-017
 0.43935657E-019
-0.15999600E-023
-0.20326832E-020
-0.63792081E-018
-0.19338594E-015
-0.16187952E-013
-0.32387342E-011
-0.92242570E-009
 0.13343180E-007
 0.27331103E-008
 0.59115182E-010
 0.24696096E-012
 0.11452227E-014
 0.37572865E-017
 0.81450800E-019
