 0.89673711E-008
 0.00000000E+000
 0.00000000E+000
 0.89681471E-008
 0.14883212E-011
 0.00000000E+000
 0.00000000E+000
 0.14879105E-011
 0.89779456E-008
 0.89781521E-008
 0.89779781E-008
 0.89777535E-008
 0.88966781E-008
 0.88182671E-008
 0.88722651E-008
 0.20041986E-007
 0.21810601E-005
 0.17056450E-003
 0.00000000E+000
 0.00000000E+000
 0.00000000E+000
 0.00000000E+000
 0.00000000E+000
 0.00000000E+000
 0.00000000E+000
 0.00000000E+000
 0.17053712E-003
 0.21826686E-005
 0.19919273E-007
 0.88700313E-008
 0.88177802E-008
 0.88964411E-008
 0.89776655E-008
 0.89779520E-008
 0.89781836E-008
 0.89781687E-008
 0.23809754E-007
 0.52087093E-007
 0.92316126E-007
 0.13232936E-006
 0.15275675E-006
 0.14138572E-006
 0.10448485E-006
 0.61646527E-007
 0.29072342E-007
 0.10926330E-007
 0.27628473E-008
 0.56841059E-009
 0.95027793E-010
 0.12823958E-010
 0.14937044E-011
 0.14938909E-011
 0.14938089E-011
 0.14933231E-011
 0.14275449E-011
 0.14341511E-011
 0.19986185E-010
 0.36871352E-008
 0.16426176E-006
 0.16383633E-006
 0.00000000E+000
 0.00000000E+000
 0.00000000E+000
 0.00000000E+000
 0.00000000E+000
 0.00000000E+000
 0.00000000E+000
 0.00000000E+000
 0.16389628E-006
 0.16433094E-006
 0.37123071E-008
 0.20313995E-010
 0.14365800E-011
 0.14277032E-011
 0.14933871E-011
 0.14938372E-011
 0.14938808E-011
 0.14935803E-011
 0.12819944E-010
 0.95021691E-010
 0.56840627E-009
 0.27628413E-008
 0.10926337E-007
 0.29072382E-007
 0.61646596E-007
 0.10448494E-006
 0.14138578E-006
 0.15275674E-006
 0.13232923E-006
 0.92315824E-007
 0.52085862E-007
 0.23807566E-007
 0.55277636E-003
 0.14767748E-002
 0.32636909E-002
 0.60362095E-002
 0.94657534E-002
 0.12888413E-001
 0.15094359E-001
 0.10830260E-001
 0.42912061E-002
 0.13200307E-002
 0.33214170E-003
 0.68104805E-004
 0.11281712E-004
 0.15035447E-005
 0.55269884E-003
 0.14764824E-002
 0.32628849E-002
 0.60346107E-002
 0.94636683E-002
 0.12887277E-001
 0.15094504E-001
 0.10822763E-001
 0.42876178E-002
 0.13192094E-002
 0.33194772E-003
 0.68065019E-004
 0.11275685E-004
 0.15029576E-005
 0.15094921E-005
 0.11365243E-004
 0.68751811E-004
 0.33518404E-003
 0.13272088E-002
 0.42923844E-002
 0.10817476E-001
 0.15093533E-001
 0.12889736E-001
 0.94643154E-002
 0.60424777E-002
 0.32693568E-002
 0.14797318E-002
 0.55356311E-003
 0.15136069E-005
 0.20505902E-005
 0.34907252E-005
 0.91854426E-005
 0.25254437E-004
 0.70691481E-004
 0.20029892E-003
 0.15989981E-003
 0.80240194E-004
 0.61971190E-004
 0.47480670E-004
 0.30485948E-004
 0.15903562E-004
 0.61793626E-005
 0.13010068E-007
 0.22636266E-007
 0.45150617E-007
 0.13061113E-006
 0.42150294E-006
 0.11265200E-005
 0.15915857E-005
 0.14878437E-005
 0.10974281E-005
 0.71709058E-006
 0.52271138E-006
 0.33993475E-006
 0.18213976E-006
 0.72403493E-007
 0.84737673E-010
 0.24672828E-009
 0.92144641E-009
 0.39106461E-008
 0.14442608E-007
 0.36386196E-007
 0.71278728E-007
 0.11337773E-006
 0.14777091E-006
 0.15666946E-006
 0.13477612E-006
 0.93811551E-007
 0.52825930E-007
 0.24049108E-007
 0.12801117E-010
 0.94009177E-010
 0.56398503E-009
 0.27490879E-008
 0.10885855E-007
 0.29018267E-007
 0.61581767E-007
 0.10442601E-006
 0.14135881E-006
 0.15276990E-006
 0.13234724E-006
 0.92307944E-007
 0.52033626E-007
 0.23764710E-007
 0.12672780E-010
 0.94079452E-010
 0.56496353E-009
 0.27511366E-008
 0.10898147E-007
 0.29030239E-007
 0.61600272E-007
 0.10444808E-006
 0.14137076E-006
 0.15275794E-006
 0.13232601E-006
 0.92302956E-007
 0.52052786E-007
 0.23794977E-007
 0.12871255E-010
 0.95101811E-010
 0.56918113E-009
 0.27649761E-008
 0.10934635E-007
 0.29082963E-007
 0.61658876E-007
 0.10449038E-006
 0.14138673E-006
 0.15275725E-006
 0.13233289E-006
 0.92330317E-007
 0.52094502E-007
 0.23835023E-007
 0.12872077E-010
 0.95080347E-010
 0.56894595E-009
 0.27637508E-008
 0.10930755E-007
 0.29077257E-007
 0.61653596E-007
 0.10448842E-006
 0.14138756E-006
 0.15275692E-006
 0.13232953E-006
 0.92327033E-007
 0.52093591E-007
 0.23835362E-007
 0.12871109E-010
 0.95057481E-010
 0.56880218E-009
 0.27630933E-008
 0.10928682E-007
 0.29074101E-007
 0.61650083E-007
 0.10448633E-006
 0.14138703E-006
 0.15275689E-006
 0.13232874E-006
 0.92325891E-007
 0.52092717E-007
 0.23835508E-007
 0.12870194E-010
 0.95046275E-010
 0.56869699E-009
 0.27628591E-008
 0.10927387E-007
 0.29072565E-007
 0.61647731E-007
 0.10448490E-006
 0.14138616E-006
 0.15275689E-006
 0.13232944E-006
 0.92324795E-007
 0.52092677E-007
 0.23835546E-007
 0.14962100E-005
 0.11201505E-004
 0.67566170E-004
 0.32969256E-003
 0.13113076E-002
 0.42669341E-002
 0.10805099E-001
 0.15093338E-001
 0.12875737E-001
 0.94487783E-002
 0.60230827E-002
 0.32563684E-002
 0.14734600E-002
 0.55145937E-003
 0.14935662E-005
 0.11166945E-004
 0.67359179E-004
 0.32902512E-003
 0.13099475E-002
 0.42639180E-002
 0.10799981E-001
 0.15093449E-001
 0.12874950E-001
 0.94462819E-002
 0.60201829E-002
 0.32543239E-002
 0.14724716E-002
 0.55115482E-003
 0.14925548E-005
 0.11150756E-004
 0.67257110E-004
 0.32864430E-003
 0.13089749E-002
 0.42615553E-002
 0.10800280E-001
 0.15093146E-001
 0.12872667E-001
 0.94435397E-002
 0.60180255E-002
 0.32530783E-002
 0.14719801E-002
 0.55109881E-003
 0.14922800E-005
 0.11144692E-004
 0.67219176E-004
 0.32851580E-003
 0.13087502E-002
 0.42607838E-002
 0.10799356E-001
 0.15093132E-001
 0.12872261E-001
 0.94428408E-002
 0.60173684E-002
 0.32526746E-002
 0.14718334E-002
 0.55111955E-003
 0.14922801E-005
 0.11144706E-004
 0.67219286E-004
 0.32851878E-003
 0.13087824E-002
 0.42609259E-002
 0.10799791E-001
 0.15093109E-001
 0.12872206E-001
 0.94428271E-002
 0.60173768E-002
 0.32526828E-002
 0.14718338E-002
 0.55111924E-003
 0.14925671E-005
 0.11150928E-004
 0.67258473E-004
 0.32865927E-003
 0.13091070E-002
 0.42621593E-002
 0.10801804E-001
 0.15093077E-001
 0.12872553E-001
 0.94435761E-002
 0.60181121E-002
 0.32531349E-002
 0.14719983E-002
 0.55110095E-003
 0.14936293E-005
 0.11167544E-004
 0.67362952E-004
 0.32905147E-003
 0.13101492E-002
 0.42649384E-002
 0.10802423E-001
 0.15093354E-001
 0.12874912E-001
 0.94465296E-002
 0.60204480E-002
 0.32544690E-002
 0.14725228E-002
 0.55116177E-003
 0.14964482E-005
 0.11203654E-004
 0.67579287E-004
 0.32976582E-003
 0.13117447E-002
 0.42689880E-002
 0.10809358E-001
 0.15093213E-001
 0.12875995E-001
 0.94495855E-002
 0.60237957E-002
 0.32567390E-002
 0.14735962E-002
 0.55149807E-003
 0.12871368E-010
 0.95049952E-010
 0.56870188E-009
 0.27628604E-008
 0.10927360E-007
 0.29072487E-007
 0.61647612E-007
 0.10448477E-006
 0.14138607E-006
 0.15275691E-006
 0.13232960E-006
 0.92325151E-007
 0.52093343E-007
 0.23836169E-007
 0.12871171E-010
 0.95057377E-010
 0.56879761E-009
 0.27630638E-008
 0.10928571E-007
 0.29073899E-007
 0.61649831E-007
 0.10448610E-006
 0.14138692E-006
 0.15275690E-006
 0.13232885E-006
 0.92326071E-007
 0.52092917E-007
 0.23835606E-007
 0.12871641E-010
 0.95076315E-010
 0.56892284E-009
 0.27636550E-008
 0.10930465E-007
 0.29076813E-007
 0.61653121E-007
 0.10448811E-006
 0.14138749E-006
 0.15275692E-006
 0.13232941E-006
 0.92326807E-007
 0.52093407E-007
 0.23835267E-007
 0.12870244E-010
 0.95092435E-010
 0.56912750E-009
 0.27647569E-008
 0.10934000E-007
 0.29082059E-007
 0.61658023E-007
 0.10449001E-006
 0.14138684E-006
 0.15275720E-006
 0.13233223E-006
 0.92329336E-007
 0.52093732E-007
 0.23834681E-007
 0.12670525E-010
 0.94058696E-010
 0.56484132E-009
 0.27506307E-008
 0.10896680E-007
 0.29028214E-007
 0.61598566E-007
 0.10444774E-006
 0.14137144E-006
 0.15275775E-006
 0.13232393E-006
 0.92300103E-007
 0.52050637E-007
 0.23794071E-007
 0.12788285E-010
 0.93943926E-010
 0.56364631E-009
 0.27476716E-008
 0.10882317E-007
 0.29012589E-007
 0.61576443E-007
 0.10442412E-006
 0.14135926E-006
 0.15276827E-006
 0.13234189E-006
 0.92301443E-007
 0.52029243E-007
 0.23762950E-007
 0.83723514E-010
 0.24385437E-009
 0.90956127E-009
 0.38582438E-008
 0.14278458E-007
 0.36124259E-007
 0.71002291E-007
 0.11313646E-006
 0.14757524E-006
 0.15653184E-006
 0.13468821E-006
 0.93754864E-007
 0.52796315E-007
 0.24038810E-007
 0.12990903E-007
 0.22574440E-007
 0.44586001E-007
 0.12784788E-006
 0.41116799E-006
 0.11089810E-005
 0.16022043E-005
 0.15062213E-005
 0.10986004E-005
 0.71469357E-006
 0.51928787E-006
 0.33704182E-006
 0.18060896E-006
 0.71901359E-007
 0.15133321E-005
 0.20487549E-005
 0.34801195E-005
 0.91492437E-005
 0.25217777E-004
 0.71876674E-004
 0.21641528E-003
 0.17553856E-003
 0.86345723E-004
 0.64734429E-004
 0.48519794E-004
 0.30800741E-004
 0.15986075E-004
 0.62004828E-005
 0.15085391E-005
 0.11354561E-004
 0.68691945E-004
 0.33494007E-003
 0.13265929E-002
 0.42874646E-002
 0.10808824E-001
 0.15093633E-001
 0.12894732E-001
 0.94650628E-002
 0.60421461E-002
 0.32686270E-002
 0.14792844E-002
 0.55343430E-003
