# ALYA Lagrangian postprocess  
#
# HEADER
# T , Column :   1
# ILAGR , Column :   2
# ITYPE , Column :   3
# EXIST , Column :   4
# COORX , Column :   5
# COORY , Column :   6
# COORZ , Column :   7
# VELOX , Column :   8
# VELOY , Column :   9
# VELOZ , Column :  10
# DTK , Column :  11
# CD , Column :  12
# MASSK , Column :  13
# DIAMK , Column :  14
# DIAM0 , Column :  15
# MASS0 , Column :  16
#               T            ILAGR            ITYPE            EXIST            COORX            COORY            COORZ            VELOX            VELOY            VELOZ              DTK               CD            MASSK            DIAMK            DIAM0            MASS0            
  0.00000000E+000                1                1               -5  2.00000000E-001  1.30000000E+000  0.00000000E+000  1.00000000E+000  0.00000000E+000  0.00000000E+000  5.00000000E-002  0.00000000E+000  5.23598776E-016  1.00000000E-005  1.00000000E-005  5.23598776E-016
  5.00000000E-002                1                1               -1  2.50000000E-001  1.28773750E+000  0.00000000E+000  1.00000000E+000 -4.90500000E-001  0.00000000E+000  5.00000000E-002  0.00000000E+000  5.23598776E-016  1.00000000E-005  1.00000000E-005  5.23598776E-016
  1.00000000E-001                1                1               -1  3.00000000E-001  1.25095000E+000  0.00000000E+000  1.00000000E+000 -9.81000000E-001  0.00000000E+000  5.00000000E-002  0.00000000E+000  5.23598776E-016  1.00000000E-005  1.00000000E-005  5.23598776E-016
  1.50000000E-001                1                1               -1  3.50000000E-001  1.18963750E+000  0.00000000E+000  1.00000000E+000 -1.47150000E+000  0.00000000E+000  5.00000000E-002  0.00000000E+000  5.23598776E-016  1.00000000E-005  1.00000000E-005  5.23598776E-016
  2.00000000E-001                1                1               -1  4.00000000E-001  1.10380000E+000  0.00000000E+000  1.00000000E+000 -1.96200000E+000  0.00000000E+000  5.00000000E-002  0.00000000E+000  5.23598776E-016  1.00000000E-005  1.00000000E-005  5.23598776E-016
  2.50000000E-001                1                1               -1  4.50000000E-001  9.93437500E-001  0.00000000E+000  1.00000000E+000 -2.45250000E+000  0.00000000E+000  5.00000000E-002  0.00000000E+000  5.23598776E-016  1.00000000E-005  1.00000000E-005  5.23598776E-016
  3.00000000E-001                1                1               -1  5.00000000E-001  8.58550000E-001  0.00000000E+000  1.00000000E+000 -2.94300000E+000  0.00000000E+000  5.00000000E-002  0.00000000E+000  5.23598776E-016  1.00000000E-005  1.00000000E-005  5.23598776E-016
  3.50000000E-001                1                1               -1  5.50000000E-001  6.99137500E-001  0.00000000E+000  1.00000000E+000 -3.43350000E+000  0.00000000E+000  5.00000000E-002  0.00000000E+000  5.23598776E-016  1.00000000E-005  1.00000000E-005  5.23598776E-016
  4.00000000E-001                1                1               -1  6.00000000E-001  5.15200000E-001  0.00000000E+000  1.00000000E+000 -3.92400000E+000  0.00000000E+000  5.00000000E-002  0.00000000E+000  5.23598776E-016  1.00000000E-005  1.00000000E-005  5.23598776E-016
  4.50000000E-001                1                1               -1  6.50000000E-001  3.06737500E-001  0.00000000E+000  1.00000000E+000 -4.41450000E+000  0.00000000E+000  2.89351852E-002  0.00000000E+000  5.23598776E-016  1.00000000E-005  1.00000000E-005  5.23598776E-016
  5.00000000E-001                1                1               -1  7.00000000E-001  7.37500000E-002  0.00000000E+000  1.00000000E+000 -4.90500000E+000  0.00000000E+000  2.89351852E-002  0.00000000E+000  5.23598776E-016  1.00000000E-005  1.00000000E-005  5.23598776E-016
  5.34722222E-001                1                1               -2  7.14531125E-001  0.00000000E+000  0.00000000E+000  1.00000000E+000 -4.90500000E+000  0.00000000E+000  2.89351852E-002  0.00000000E+000  5.23598776E-016  1.00000000E-005  1.00000000E-005  5.23598776E-016
