 0.10000000E+002
 0.10000000E+002
 0.10000000E+002
 0.10000000E+002
 0.10000000E+002
 0.10000000E+002
 0.10000000E+002
 0.10000000E+002
 0.10000000E+002
 0.10000000E+002
 0.10000000E+002
 0.10000000E+002
 0.10000000E+002
 0.10000000E+002
 0.10000000E+002
 0.10000000E+002
 0.10000000E+002
 0.10000000E+002
 0.10000000E+002
 0.10000000E+002
 0.10000000E+002
 0.10000000E+002
 0.10000000E+002
 0.10000000E+002
 0.10000000E+002
 0.10000000E+002
 0.10000000E+002
 0.10000000E+002
 0.10000000E+002
 0.10000000E+002
 0.10000000E+002
 0.10000000E+002
 0.10000000E+002
 0.10000000E+002
 0.10000000E+002
 0.10000000E+002
 0.10000000E+002
 0.10000000E+002
 0.10000000E+002
 0.10000000E+002
 0.10000000E+002
 0.10000000E+002
 0.10000000E+002
 0.10000000E+002
 0.10000000E+002
 0.10000000E+002
 0.10000000E+002
 0.10000000E+002
 0.10000000E+002
 0.10000000E+002
 0.10000000E+002
 0.10000000E+002
 0.10000000E+002
 0.10000000E+002
 0.10000000E+002
 0.10000000E+002
 0.10000000E+002
 0.10000000E+002
 0.10000000E+002
 0.10000000E+002
 0.10000000E+002
 0.10000000E+002
 0.10000000E+002
 0.10000000E+002
 0.10000000E+002
 0.10000000E+002
 0.10000000E+002
 0.10000000E+002
 0.10000000E+002
 0.10000000E+002
 0.10000000E+002
 0.10000000E+002
 0.10000000E+002
 0.10000000E+002
 0.10000000E+002
 0.10000000E+002
 0.10000000E+002
 0.10000000E+002
 0.10000000E+002
 0.10000000E+002
 0.10000000E+002
 0.10000000E+002
 0.10000000E+002
 0.10000000E+002
 0.10000000E+002
 0.10000000E+002
 0.10000000E+002
 0.10000000E+002
 0.10000000E+002
 0.10000000E+002
 0.10000000E+002
 0.10000000E+002
 0.10000000E+002
 0.10000000E+002
 0.10000000E+002
 0.10000000E+002
 0.10000000E+002
 0.10000000E+002
 0.10000000E+002
 0.10000000E+002
 0.10000000E+002
 0.10000000E+002
 0.10000000E+002
 0.10000000E+002
 0.10000000E+002
 0.10000000E+002
 0.10000000E+002
 0.10000000E+002
 0.10000000E+002
 0.10000000E+002
 0.10000000E+002
 0.10000000E+002
 0.10000000E+002
 0.10000000E+002
 0.10000000E+002
 0.10000000E+002
 0.10000000E+002
 0.10000000E+002
 0.10000000E+002
 0.10000000E+002
 0.10000000E+002
 0.10000000E+002
 0.10000000E+002
 0.10000000E+002
 0.10000000E+002
 0.10000000E+002
 0.10000000E+002
 0.10000000E+002
 0.10000000E+002
 0.10000000E+002
 0.10000000E+002
 0.10000000E+002
 0.10000000E+002
 0.10000000E+002
 0.10000000E+002
 0.10000000E+002
 0.10000000E+002
 0.10000000E+002
 0.10000000E+002
 0.10000000E+002
 0.10000000E+002
 0.10000000E+002
 0.10000000E+002
 0.10000000E+002
 0.10000000E+002
 0.10000000E+002
 0.10000000E+002
 0.10000000E+002
 0.10000000E+002
 0.10000000E+002
 0.10000000E+002
 0.10000000E+002
 0.10000000E+002
 0.10000000E+002
 0.10000000E+002
 0.10000000E+002
 0.10000000E+002
 0.10000000E+002
 0.10000000E+002
 0.10000000E+002
 0.10000000E+002
 0.10000000E+002
 0.10000000E+002
 0.10000000E+002
 0.10000000E+002
 0.10000000E+002
 0.10000000E+002
 0.10000000E+002
 0.10000000E+002
 0.10000000E+002
 0.10000000E+002
 0.10000000E+002
 0.10000000E+002
 0.10000000E+002
 0.10000000E+002
 0.10000000E+002
 0.10000000E+002
 0.10000000E+002
 0.10000000E+002
 0.10000000E+002
 0.10000000E+002
 0.10000000E+002
 0.10000000E+002
 0.10000000E+002
 0.10000000E+002
 0.10000000E+002
 0.10000000E+002
 0.10000000E+002
 0.10000000E+002
 0.10000000E+002
 0.10000000E+002
 0.10000000E+002
 0.10000000E+002
 0.10000000E+002
 0.10000000E+002
 0.10000000E+002
 0.10000000E+002
 0.10000000E+002
 0.10000000E+002
 0.10000000E+002
