-0.66598899E+000
-0.66442655E+000
-0.66686032E+000
-0.66573826E+000
-0.66346205E+000
-0.66755324E+000
-0.66658182E+000
-0.66537708E+000
-0.66659246E+000
-0.66716015E+000
-0.66526914E+000
-0.66655422E+000
-0.66780392E+000
-0.66718362E+000
-0.66973441E+000
-0.67163879E+000
-0.66550232E+000
-0.66549624E+000
-0.67480245E+000
-0.67142324E+000
-0.66693320E+000
-0.67782135E+000
-0.66277525E+000
-0.68398313E+000
-0.67235152E+000
-0.68133147E+000
-0.66337716E+000
-0.68762568E+000
-0.66542813E+000
-0.69161930E+000
-0.68454584E+000
-0.67146531E+000
-0.69722558E+000
-0.65962822E+000
-0.70358188E+000
-0.66058371E+000
-0.70699180E+000
-0.66272671E+000
-0.71002193E+000
-0.68526933E+000
-0.70401370E+000
-0.66831555E+000
-0.71595507E+000
-0.65703180E+000
-0.73425462E+000
-0.65799904E+000
-0.73481607E+000
-0.70889720E+000
-0.68155726E+000
-0.72569759E+000
-0.65973649E+000
-0.73088545E+000
-0.66390738E+000
-0.73183266E+000
-0.70653915E+000
-0.73629190E+000
-0.65578009E+000
-0.79361091E+000
-0.65657174E+000
-0.67406597E+000
-0.78012325E+000
-0.74078456E+000
-0.65783044E+000
-0.75471446E+000
-0.73974701E+000
-0.66042841E+000
-0.74138569E+000
-0.69476125E+000
-0.75429296E+000
-0.66651503E+000
-0.74432508E+000
-0.95538120E+000
-0.65597124E+000
-0.65664321E+000
-0.86729999E+000
-0.65789729E+000
-0.72618614E+000
-0.76393632E+000
-0.78673989E+000
-0.67910632E+000
-0.75640036E+000
-0.65982264E+000
-0.74560902E+000
-0.66293871E+000
-0.73822153E+000
-0.75527589E+000
-0.65686846E+000
-0.11781746E+001
-0.69885687E+000
-0.76608278E+000
-0.65776568E+000
-0.10363342E+001
-0.80005206E+000
-0.65983246E+000
-0.66719480E+000
-0.74669366E+000
-0.66300926E+000
-0.72441471E+000
-0.71624492E+000
-0.75958555E+000
-0.66742191E+000
-0.71312348E+000
-0.66919893E+000
-0.75192569E+000
-0.67196564E+000
-0.72244544E+000
-0.70856816E+000
-0.65555662E+000
-0.73449409E+000
-0.72788583E+000
-0.67078813E+000
-0.59320147E+000
-0.66399562E+000
-0.64635496E+000
-0.70583902E+000
-0.44411864E+000
-0.61067564E+000
-0.55976492E+000
-0.32473043E+000
-0.35139140E+000
 0.00000000E+000
