{
    "authors": [
        "alfonso.santiago@bsc.es",
        "adria.quintanas@bsc.es"
    ],
    "comparisons": [
        {
            "file": "exm_sld_land_unidir-node.exm.set",
            "method": "absolute",
            "tolerance": "1.0e-4"
        },
        {
            "file": "exm_sld_land_unidir-node.sld.set",
            "method": "absolute",
            "tolerance": "1.0e-4"
        }
    ],
    "description": "Tests the three-coupled model Ohara-Rudy-Land(unidir)-OH",
    "exclude": [
        "special"
    ],
    "executions": [
        {
            "mpi": 1,
            "openmp": 0
        },
        {
            "mpi": 3,
            "openmp": 0
        }
    ],
    "modules": [
        "exmedi",
        "solidz"
    ],
    "name": "exm_sld_land_unidir",
    "postprocess": "alya2pos",
	"timeout": "00:04:00"
}
