 0.89506345E-011
 0.23190599E-001
 0.23258618E-001
 0.89666452E-011
 0.28385396E-007
 0.44034235E-006
 0.43981171E-006
 0.28247971E-007
 0.12682171E-010
 0.52469649E-010
 0.38143989E-009
 0.23800951E-007
 0.50693114E-004
 0.22907743E+000
 0.99946021E+001
 0.31202336E+003
 0.23186250E+003
 0.23708720E+000
 0.20733114E-001
 0.15758241E-015
 0.59988088E-015
 0.39619776E-015
 0.26418688E-015
 0.46388530E-015
 0.24180693E-015
 0.20738441E-001
 0.23676660E+000
 0.23230965E+003
 0.31314715E+003
 0.10022608E+002
 0.22906345E+000
 0.50468969E-004
 0.23839081E-007
 0.38240860E-009
 0.52580439E-010
 0.12712266E-010
 0.19464727E-009
 0.60407537E-008
 0.21975067E-006
 0.40854071E-005
 0.67410446E-004
 0.46505030E-003
 0.64432799E-003
 0.24286379E-003
 0.62807972E-004
 0.19661755E-004
 0.72575027E-005
 0.24067851E-005
 0.61089341E-006
 0.11350202E-006
 0.47184775E-007
 0.14532495E-006
 0.42961913E-006
 0.12300895E-005
 0.35206199E-005
 0.76684099E-005
 0.90470363E-005
 0.72502945E-005
 0.45289052E-005
 0.97566032E-006
 0.24647205E-006
 0.42524263E-007
 0.14769202E-008
 0.23569849E-016
 0.74879730E-017
 0.14945992E-008
 0.42654602E-007
 0.24658468E-006
 0.97585418E-006
 0.45287514E-005
 0.72396235E-005
 0.90223146E-005
 0.76413665E-005
 0.35067974E-005
 0.12251481E-005
 0.42793366E-006
 0.14473705E-006
 0.46974774E-007
 0.11292370E-006
 0.60778066E-006
 0.23958018E-005
 0.72344813E-005
 0.19646319E-004
 0.62889816E-004
 0.24328596E-003
 0.64487948E-003
 0.46488199E-003
 0.67353753E-004
 0.40812296E-005
 0.21963861E-006
 0.60336470E-008
 0.19435895E-009
 0.77795501E-001
 0.26282283E+000
 0.40721175E+000
 0.16826016E+000
 0.34532291E-001
 0.53892617E-002
 0.71483733E-003
 0.16069813E-002
 0.10772817E+000
 0.24153679E+001
 0.10819780E+002
 0.14089381E+002
 0.16026555E+001
 0.34601356E-003
 0.78077891E-001
 0.26361344E+000
 0.40667997E+000
 0.16757531E+000
 0.34380404E-001
 0.53672442E-002
 0.71206360E-003
 0.16162223E-002
 0.10812709E+000
 0.24237922E+001
 0.10822265E+002
 0.14082616E+002
 0.15995546E+001
 0.34525444E-003
 0.12558510E-002
 0.28082078E+001
 0.13051757E+002
 0.89616608E+001
 0.23433465E+001
 0.16569571E+000
 0.10281895E-001
 0.20843049E-002
 0.40566571E-002
 0.34965931E-001
 0.29816056E+000
 0.10375506E+001
 0.10706799E+001
 0.51089056E+000
 0.21984955E-003
 0.10246681E+001
 0.13020474E+002
 0.29954169E+002
 0.86686356E+002
 0.32400700E+002
 0.52994472E+001
 0.34715199E+001
 0.68615276E+001
 0.15608400E+002
 0.17033529E+002
 0.11008482E+002
 0.11637062E+002
 0.64191774E+002
 0.16999966E-004
 0.39282945E-001
 0.55109483E+001
 0.22806009E+002
 0.44130362E+002
 0.26072186E+002
 0.29237212E+002
 0.30760784E+002
 0.20019080E+002
 0.13557885E+002
 0.11936564E+002
 0.12317793E+002
 0.14827940E+002
 0.69368840E+002
 0.25500779E-004
 0.69989247E-004
 0.10219376E-001
 0.38254776E+000
 0.45495442E+001
 0.21671370E+002
 0.51084618E+002
 0.52804683E+002
 0.28248872E+002
 0.10709116E+002
 0.79982175E+001
 0.12188464E+002
 0.17498397E+002
 0.17257298E+002
 0.20948139E-004
 0.60424611E-004
 0.14751360E-003
 0.40995928E-003
 0.25094234E-002
 0.12567284E-001
 0.34186715E-001
 0.41079856E-001
 0.53636355E-001
 0.15693063E+000
 0.33166837E+000
 0.60686830E+000
 0.24269886E+001
 0.32883454E+001
 0.94645164E-005
 0.32332332E-004
 0.10660804E-003
 0.31688151E-003
 0.71454926E-003
 0.11406450E-002
 0.14644975E-002
 0.34313597E-002
 0.15781796E-001
 0.49771132E-001
 0.68640545E-001
 0.12570822E+000
 0.10519658E+000
 0.38277767E-002
 0.34601316E-005
 0.14639699E-004
 0.56658855E-004
 0.18009461E-003
 0.42190208E-003
 0.73644923E-003
 0.13236414E-002
 0.45886206E-002
 0.18262141E-001
 0.28886517E-001
 0.10651977E-001
 0.11181092E-002
 0.51302670E-004
 0.13215906E-005
 0.13751419E-005
 0.67680427E-005
 0.27467089E-004
 0.86311716E-004
 0.20235897E-003
 0.39176332E-003
 0.98306616E-003
 0.39868742E-002
 0.11080573E-001
 0.74931398E-002
 0.92095112E-003
 0.40324538E-004
 0.11890689E-005
 0.15645320E-007
 0.53517228E-006
 0.28711534E-005
 0.11745239E-004
 0.36046959E-004
 0.85808683E-004
 0.19600634E-003
 0.64053917E-003
 0.24743912E-002
 0.42683892E-002
 0.13702555E-002
 0.95562313E-004
 0.37830467E-005
 0.10291919E-006
 0.17871126E-008
 0.18937784E-006
 0.10711864E-005
 0.44039218E-005
 0.13449092E-004
 0.34135519E-004
 0.95796253E-004
 0.35954742E-003
 0.11452648E-002
 0.11988356E-002
 0.22683817E-003
 0.13301516E-004
 0.57938958E-006
 0.13523986E-007
 0.35200828E-009
 0.95407303E-005
 0.38054323E+000
 0.13043575E+002
 0.11521329E+002
 0.39274704E+001
 0.27348504E+000
 0.65260354E-002
 0.38795203E-003
 0.20279852E-002
 0.88043445E-002
 0.30217379E-001
 0.75325327E-001
 0.99208889E-001
 0.59955514E-001
 0.63798000E-006
 0.14469198E+000
 0.11078393E+002
 0.12145830E+002
 0.35910863E+001
 0.46928151E+000
 0.14759490E-001
 0.13032753E-003
 0.20015743E-003
 0.36589507E-003
 0.87794975E-004
 0.86933441E-006
 0.89458971E-008
 0.21751731E-009
 0.28338356E-008
 0.94950262E-001
 0.95524998E+001
 0.12295758E+002
 0.28636022E+001
 0.60605159E+000
 0.22298355E-001
 0.16576970E-003
 0.89076069E-006
 0.78865888E-006
 0.96198980E-006
 0.22508161E-006
 0.60935626E-008
 0.46505850E-009
 0.16127092E-016
 0.79123049E-001
 0.88617760E+001
 0.12241168E+002
 0.27755867E+001
 0.71136736E+000
 0.27866878E-001
 0.24119144E-003
 0.29662510E-007
 0.11674296E-006
 0.40125868E-007
 0.32335177E-008
 0.31395980E-008
 0.67804952E-009
 0.13972747E-016
 0.79171334E-001
 0.88629655E+001
 0.12241672E+002
 0.27758901E+001
 0.71119629E+000
 0.27850068E-001
 0.24086760E-003
 0.29281960E-007
 0.11504913E-006
 0.39649922E-007
 0.32472845E-008
 0.31672081E-008
 0.68483839E-009
 0.28691517E-008
 0.95081418E-001
 0.95570983E+001
 0.12297531E+002
 0.28696634E+001
 0.60545963E+000
 0.22254993E-001
 0.16502168E-003
 0.84592280E-006
 0.77807745E-006
 0.98950125E-006
 0.23238063E-006
 0.60871890E-008
 0.46416157E-009
 0.64172533E-006
 0.14493952E+000
 0.11090707E+002
 0.12147656E+002
 0.35946945E+001
 0.46803585E+000
 0.14697696E-001
 0.12986770E-003
 0.19991333E-003
 0.36514434E-003
 0.87721348E-004
 0.89805551E-006
 0.88124865E-008
 0.21399596E-009
 0.95766019E-005
 0.38131296E+000
 0.13056840E+002
 0.11519814E+002
 0.39188889E+001
 0.27241448E+000
 0.64837259E-002
 0.38870241E-003
 0.20314428E-002
 0.88210208E-002
 0.30309338E-001
 0.75545133E-001
 0.99324693E-001
 0.59969765E-001
 0.19030490E-006
 0.10767430E-005
 0.44258713E-005
 0.13501568E-004
 0.34189709E-004
 0.95690753E-004
 0.35885034E-003
 0.11438695E-002
 0.11987386E-002
 0.22697133E-003
 0.13311376E-004
 0.57954488E-006
 0.13542219E-007
 0.35268533E-009
 0.53756053E-006
 0.28855397E-005
 0.11807011E-004
 0.36215562E-004
 0.86042404E-004
 0.19589962E-003
 0.63907649E-003
 0.24700420E-002
 0.42656739E-002
 0.13704653E-002
 0.95611175E-004
 0.37852476E-005
 0.10307352E-006
 0.17899395E-008
 0.13807121E-005
 0.67990111E-005
 0.27610746E-004
 0.86762501E-004
 0.20312310E-003
 0.39191321E-003
 0.98042873E-003
 0.39778466E-002
 0.11067139E-001
 0.74896638E-002
 0.92078552E-003
 0.40317089E-004
 0.11892579E-005
 0.15661593E-007
 0.34735565E-005
 0.14699076E-004
 0.56938299E-004
 0.18109515E-003
 0.42387912E-003
 0.73752799E-003
 0.13195798E-002
 0.45744362E-002
 0.18232047E-001
 0.28856887E-001
 0.10641112E-001
 0.11162085E-002
 0.51211461E-004
 0.13201045E-005
 0.95009270E-005
 0.32452918E-004
 0.10708860E-003
 0.31869377E-003
 0.71843923E-003
 0.11431454E-002
 0.14584993E-002
 0.34148253E-002
 0.15753896E-001
 0.49727246E-001
 0.68448999E-001
 0.12455089E+000
 0.10293620E+000
 0.33605696E-002
 0.21024839E-004
 0.60643691E-004
 0.14812830E-003
 0.41288590E-003
 0.25587468E-002
 0.12863074E-001
 0.34673019E-001
 0.41158355E-001
 0.53404847E-001
 0.15702228E+000
 0.33173684E+000
 0.60518269E+000
 0.24273354E+001
 0.32797770E+001
 0.25582350E-004
 0.70219155E-004
 0.10324760E-001
 0.38618221E+000
 0.46481011E+001
 0.22236671E+002
 0.51977436E+002
 0.53242397E+002
 0.28101744E+002
 0.10602414E+002
 0.79234558E+001
 0.12130816E+002
 0.17454613E+002
 0.17230926E+002
 0.17024464E-004
 0.39218015E-001
 0.55227542E+001
 0.22764665E+002
 0.43887622E+002
 0.26189273E+002
 0.29640520E+002
 0.30959607E+002
 0.20026550E+002
 0.13824981E+002
 0.12062147E+002
 0.12309469E+002
 0.14812499E+002
 0.69664395E+002
 0.21917869E-003
 0.10219599E+001
 0.13044729E+002
 0.29905084E+002
 0.86005393E+002
 0.32065827E+002
 0.52018497E+001
 0.34547179E+001
 0.69724010E+001
 0.16070377E+002
 0.17440759E+002
 0.11126443E+002
 0.11687002E+002
 0.64378267E+002
 0.12531333E-002
 0.28017717E+001
 0.13053309E+002
 0.89689124E+001
 0.23434933E+001
 0.16456098E+000
 0.10085149E-001
 0.20524195E-002
 0.40257515E-002
 0.34632692E-001
 0.29659424E+000
 0.10366437E+001
 0.10721659E+001
 0.51031162E+000
