{
    "authors": [
        "ambrus.both@bsc.es"
    ],
    "comparisons": [
        {
            "file": "single_drop_pts_hltabprop_hybridMesh.pts.res-col5.out",
            "method": "absolute",
            "tolerance": "1.0e-9"
        },
        {
            "file": "single_drop_pts_hltabprop_hybridMesh.pts.res-col8.out",
            "method": "absolute",
            "tolerance": "1.0e-8"
        },
        {
            "file": "single_drop_pts_hltabprop_hybridMesh.pts.res-col13.out",
            "method": "absolute",
            "tolerance": "1.0e-5"
        },
        {
            "file": "single_drop_pts_hltabprop_hybridMesh.pts.res-col14.out",
            "method": "absolute",
            "tolerance": "1.0e-16"
        }
	],
    "description": "Heat and mass transfer of a single droplet on a hybrid mesh.",
    "include": [
		"normal"
	],
    "executions": [
        {
            "commands": {
                "postprocess": "[ALYA-PATH]/Utils/user/extractColumnFromFile.sh [NAME].pts.res 5 8 13 14; echo | [POST] [NAME]"
            },
            "mpi": 1,
            "openmp": 0
        },
        {
            "commands": {
                "postprocess": "[ALYA-PATH]/Utils/user/extractColumnFromFile.sh [NAME].pts.res 5 8 13 14; echo | [POST] [NAME]"
            },
            "mpi": 3,
            "openmp": 0
        },
        {
            "commands": {
                "postprocess": "[ALYA-PATH]/Utils/user/extractColumnFromFile.sh [NAME].pts.res 5 8 13 14; echo | [POST] [NAME]"
            },
            "mpi": 3,
            "openmp": 3
        }
    ],
    "modules": [
        "partis"
    ],
    "name": "single_drop_pts_hltabprop_hybridMesh",
    "postprocess": "mpio2txt"
}
