{
    "authors": [
        "cbutakoff@elem.bio"
    ],
    "comparisons": [
        {
            "file": "VT_4mat_inactive.exm.wit",
            "method": "power",
            "tolerance": 5
        },
        {
            "file": "VT_4mat_inactive.exm.vin",
            "method": "power",
            "tolerance": 5
        }

    ],
    "description": "Testcase inactive materials.",
    "exclude": [
        "special"
    ],
    "executions": [
        {
            "mpi": 4,
            "openmp": 0
        }
    ],
    "modules": [
        "exmedi"
    ],
    "name": "VT_4mat_inactive",
    "postprocess": "alya2pos",
    "timeout": "00:05:00"
}
