 0.00000000E+000
 0.99998604E+000
 0.99998604E+000
 0.00000000E+000
 0.13117014E-008
 0.19224805E-008
 0.21387626E-008
 0.21996041E-008
 0.22136827E-008
 0.22164352E-008
 0.22168995E-008
 0.22169681E-008
 0.22169773E-008
 0.22169782E-008
 0.22169784E-008
 0.22169788E-008
 0.22169775E-008
 0.22169932E-008
 0.22171469E-008
 0.22318335E-008
 0.24817166E-008
 0.14272404E-007
 0.21757278E-006
 0.57508743E-005
 0.85802059E-004
 0.13007720E-002
 0.12255321E-001
 0.65251274E-001
 0.16437144E+000
 0.28703416E+000
 0.41558604E+000
 0.53949071E+000
 0.65114090E+000
 0.74100944E+000
 0.80647568E+000
 0.85599563E+000
 0.89474796E+000
 0.92468475E+000
 0.94732859E+000
 0.96406466E+000
 0.97612471E+000
 0.98457784E+000
 0.99032777E+000
 0.99411853E+000
 0.99653320E+000
 0.99801903E+000
 0.99890259E+000
 0.99941053E+000
 0.99969291E+000
 0.99984476E+000
 0.99992365E+000
 0.99996295E+000
 0.99998087E+000
 0.99998087E+000
 0.99996295E+000
 0.99992365E+000
 0.99984476E+000
 0.99969291E+000
 0.99941053E+000
 0.99890259E+000
 0.99801903E+000
 0.99653320E+000
 0.99411853E+000
 0.99032777E+000
 0.98457784E+000
 0.97612471E+000
 0.96406466E+000
 0.94732859E+000
 0.92468475E+000
 0.89474796E+000
 0.85599563E+000
 0.80647568E+000
 0.74100944E+000
 0.65114092E+000
 0.53949060E+000
 0.41558626E+000
 0.28702654E+000
 0.16438443E+000
 0.64728157E-001
 0.12620401E-001
 0.12131244E-002
 0.96986969E-004
 0.47469867E-005
 0.28672233E-006
 0.10391759E-007
 0.26652500E-008
 0.22243298E-008
 0.22174171E-008
 0.22169845E-008
 0.22169778E-008
 0.22169786E-008
 0.22169784E-008
 0.22169782E-008
 0.22169773E-008
 0.22169681E-008
 0.22168995E-008
 0.22164352E-008
 0.22136827E-008
 0.21996041E-008
 0.21387626E-008
 0.19224805E-008
 0.13117014E-008
