 0.33822337E-004
 0.24766719E-001
 0.24766719E-001
 0.33822337E-004
 0.33822449E-004
 0.33822552E-004
 0.33822597E-004
 0.33822613E-004
 0.33822618E-004
 0.33822619E-004
 0.33822620E-004
 0.33822620E-004
 0.33822620E-004
 0.33822620E-004
 0.33822620E-004
 0.33822620E-004
 0.33822620E-004
 0.33822620E-004
 0.33822620E-004
 0.33822636E-004
 0.33823095E-004
 0.33832389E-004
 0.34018718E-004
 0.36889510E-004
 0.74101314E-004
 0.43326289E-003
 0.52602522E-002
 0.35040538E-001
 0.15017686E+000
 0.11525451E+001
 0.83273508E+001
 0.54516361E+002
 0.24799562E+003
 0.52964221E+003
 0.48303952E+003
 0.24786484E+003
 0.13946068E+003
 0.92202280E+002
 0.59910212E+002
 0.37094333E+002
 0.22007591E+002
 0.12585609E+002
 0.69752155E+001
 0.38006588E+001
 0.21345327E+001
 0.13331564E+001
 0.81995027E+000
 0.49144845E+000
 0.28714399E+000
 0.16373988E+000
 0.91554631E-001
 0.51201953E-001
 0.30937507E-001
 0.30937507E-001
 0.51201953E-001
 0.91554631E-001
 0.16373988E+000
 0.28714399E+000
 0.49144845E+000
 0.81995027E+000
 0.13331564E+001
 0.21345327E+001
 0.38006588E+001
 0.69752155E+001
 0.12585609E+002
 0.22007591E+002
 0.37094333E+002
 0.59910212E+002
 0.92202280E+002
 0.13946068E+003
 0.24786484E+003
 0.48303952E+003
 0.52964220E+003
 0.24799558E+003
 0.54516321E+002
 0.83273137E+001
 0.11525276E+001
 0.15016624E+000
 0.35010135E-001
 0.52729903E-002
 0.43417871E-003
 0.73905620E-004
 0.36938070E-004
 0.34012162E-004
 0.33833013E-004
 0.33823048E-004
 0.33822639E-004
 0.33822620E-004
 0.33822620E-004
 0.33822620E-004
 0.33822620E-004
 0.33822620E-004
 0.33822620E-004
 0.33822620E-004
 0.33822620E-004
 0.33822620E-004
 0.33822619E-004
 0.33822618E-004
 0.33822613E-004
 0.33822597E-004
 0.33822552E-004
 0.33822449E-004
