 0.33822331E-004
 0.42750363E-002
 0.42750363E-002
 0.33822331E-004
 0.33822429E-004
 0.33822515E-004
 0.33822549E-004
 0.33822559E-004
 0.33822561E-004
 0.33822562E-004
 0.33822562E-004
 0.33822562E-004
 0.33822562E-004
 0.33822562E-004
 0.33822562E-004
 0.33822562E-004
 0.33822562E-004
 0.33822562E-004
 0.33822562E-004
 0.33822570E-004
 0.33822823E-004
 0.33828658E-004
 0.33960558E-004
 0.36233174E-004
 0.69197276E-004
 0.41430231E-003
 0.56562354E-002
 0.39826538E-001
 0.20951233E+000
 0.19722899E+001
 0.15873038E+002
 0.10773060E+003
 0.38728505E+003
 0.55264080E+003
 0.33187698E+003
 0.16204981E+003
 0.99844517E+002
 0.62385438E+002
 0.36812830E+002
 0.20595102E+002
 0.11053515E+002
 0.57554519E+001
 0.28952328E+001
 0.16516498E+001
 0.97887206E+000
 0.56257543E+000
 0.31356117E+000
 0.16951725E+000
 0.88915570E-001
 0.45280629E-001
 0.22455248E-001
 0.11013053E-001
 0.57809322E-002
 0.57809322E-002
 0.11013053E-001
 0.22455248E-001
 0.45280629E-001
 0.88915570E-001
 0.16951725E+000
 0.31356117E+000
 0.56257543E+000
 0.97887206E+000
 0.16516498E+001
 0.28952328E+001
 0.57554519E+001
 0.11053515E+002
 0.20595102E+002
 0.36812830E+002
 0.62385438E+002
 0.99844517E+002
 0.16204981E+003
 0.33187698E+003
 0.55264080E+003
 0.38728505E+003
 0.10773058E+003
 0.15873012E+002
 0.19722425E+001
 0.20948575E+000
 0.39752294E-001
 0.56714385E-002
 0.41647800E-003
 0.68880601E-004
 0.36285376E-004
 0.33955285E-004
 0.33829046E-004
 0.33822801E-004
 0.33822571E-004
 0.33822562E-004
 0.33822562E-004
 0.33822562E-004
 0.33822562E-004
 0.33822562E-004
 0.33822562E-004
 0.33822562E-004
 0.33822562E-004
 0.33822562E-004
 0.33822562E-004
 0.33822561E-004
 0.33822559E-004
 0.33822549E-004
 0.33822515E-004
 0.33822429E-004
