 0.59667294E-006
 0.79385044E+000
 0.79385044E+000
 0.59722440E-006
-0.19969794E-004
-0.11613064E-003
-0.18412378E-003
-0.21263670E-003
-0.22275091E-003
-0.22583188E-003
-0.22663039E-003
-0.22680851E-003
-0.22684270E-003
-0.22684711E-003
-0.22684876E-003
-0.22684821E-003
-0.22685262E-003
-0.22689950E-003
-0.22902039E-003
-0.26806828E-003
-0.12464255E-002
-0.16870142E-001
-0.24580095E+000
-0.26203266E+001
-0.18149792E+002
-0.43951944E+002
 0.24068359E+003
 0.11724260E+004
 0.16747047E+004
 0.15741276E+004
 0.13052495E+004
 0.10431857E+004
 0.79980923E+003
 0.55912922E+003
 0.34706711E+003
 0.21981007E+003
 0.17163876E+003
 0.14507862E+003
 0.12278198E+003
 0.10243304E+003
 0.83752974E+002
 0.67207975E+002
 0.52621147E+002
 0.39711947E+002
 0.29753469E+002
 0.21115604E+002
 0.14444906E+002
 0.95756578E+001
 0.61574839E+001
 0.38488855E+001
 0.23538614E+001
 0.14405480E+001
 0.94927637E+000
 0.94927637E+000
 0.14405480E+001
 0.23538614E+001
 0.38488855E+001
 0.61574839E+001
 0.95756578E+001
 0.14444906E+002
 0.21115604E+002
 0.29753469E+002
 0.39711947E+002
 0.52621147E+002
 0.67207975E+002
 0.83752974E+002
 0.10243304E+003
 0.12278198E+003
 0.14507862E+003
 0.17163876E+003
 0.21981008E+003
 0.34706711E+003
 0.55912925E+003
 0.79980928E+003
 0.10431859E+004
 0.13052462E+004
 0.15741181E+004
 0.16731692E+004
 0.11646568E+004
 0.24651590E+003
-0.42873270E+002
-0.18595197E+002
-0.25927363E+001
-0.24244663E+000
-0.17766758E-001
-0.11389604E-002
-0.27712590E-003
-0.22841599E-003
-0.22693314E-003
-0.22685042E-003
-0.22684876E-003
-0.22684876E-003
-0.22684711E-003
-0.22684215E-003
-0.22680796E-003
-0.22663039E-003
-0.22583188E-003
-0.22275036E-003
-0.21263670E-003
-0.18412433E-003
-0.11613064E-003
-0.19970345E-004
