 0.28008600E-001
 0.28003325E-001
 0.28003325E-001
 0.28008600E-001
 0.28008600E-001
 0.28008600E-001
 0.28008600E-001
 0.28008600E-001
 0.28008600E-001
 0.28008600E-001
 0.28008600E-001
 0.28008600E-001
 0.28008600E-001
 0.28008600E-001
 0.28008600E-001
 0.28008600E-001
 0.28008600E-001
 0.28008600E-001
 0.28008600E-001
 0.28008600E-001
 0.28008600E-001
 0.28008600E-001
 0.28008599E-001
 0.28008590E-001
 0.28008452E-001
 0.28007014E-001
 0.27998138E-001
 0.27969164E-001
 0.27917591E-001
 0.27852794E-001
 0.27783501E-001
 0.27715217E-001
 0.27656748E-001
 0.27632847E-001
 0.27668358E-001
 0.27740631E-001
 0.27809349E-001
 0.27863905E-001
 0.27905445E-001
 0.27936288E-001
 0.27958609E-001
 0.27974321E-001
 0.27985057E-001
 0.27992171E-001
 0.27996726E-001
 0.27999545E-001
 0.28001231E-001
 0.28002207E-001
 0.28002752E-001
 0.28003048E-001
 0.28003202E-001
 0.28003280E-001
 0.28003315E-001
 0.28003315E-001
 0.28003280E-001
 0.28003202E-001
 0.28003048E-001
 0.28002752E-001
 0.28002207E-001
 0.28001231E-001
 0.27999545E-001
 0.27996726E-001
 0.27992171E-001
 0.27985057E-001
 0.27974321E-001
 0.27958609E-001
 0.27936288E-001
 0.27905445E-001
 0.27863905E-001
 0.27809349E-001
 0.27740631E-001
 0.27668358E-001
 0.27632847E-001
 0.27656748E-001
 0.27715217E-001
 0.27783501E-001
 0.27852794E-001
 0.27917605E-001
 0.27969216E-001
 0.27998113E-001
 0.28007014E-001
 0.28008453E-001
 0.28008590E-001
 0.28008599E-001
 0.28008600E-001
 0.28008600E-001
 0.28008600E-001
 0.28008600E-001
 0.28008600E-001
 0.28008600E-001
 0.28008600E-001
 0.28008600E-001
 0.28008600E-001
 0.28008600E-001
 0.28008600E-001
 0.28008600E-001
 0.28008600E-001
 0.28008600E-001
 0.28008600E-001
 0.28008600E-001
 0.28008600E-001
 0.28008600E-001
