 0.00000000E+000
 0.99991578E+000
 0.99991578E+000
 0.00000000E+000
 0.14587809E-008
 0.22167128E-008
 0.25242889E-008
 0.26248406E-008
 0.26521110E-008
 0.26583971E-008
 0.26596530E-008
 0.26598737E-008
 0.26599085E-008
 0.26599132E-008
 0.26599139E-008
 0.26599142E-008
 0.26599130E-008
 0.26599620E-008
 0.26601279E-008
 0.26980736E-008
 0.31265701E-008
 0.24872110E-007
 0.33611828E-006
 0.80136594E-005
 0.10713770E-003
 0.14342477E-002
 0.12449484E-001
 0.60559452E-001
 0.14912564E+000
 0.25978261E+000
 0.37827665E+000
 0.49566451E+000
 0.60572146E+000
 0.70046742E+000
 0.77242410E+000
 0.82544654E+000
 0.86708891E+000
 0.90032469E+000
 0.92651801E+000
 0.94682265E+000
 0.96228140E+000
 0.97381827E+000
 0.98223989E+000
 0.98824135E+000
 0.99241110E+000
 0.99522905E+000
 0.99707817E+000
 0.99825663E+000
 0.99898622E+000
 0.99942485E+000
 0.99968025E+000
 0.99982249E+000
 0.99989393E+000
 0.99989393E+000
 0.99982249E+000
 0.99968025E+000
 0.99942485E+000
 0.99898622E+000
 0.99825663E+000
 0.99707817E+000
 0.99522905E+000
 0.99241110E+000
 0.98824135E+000
 0.98223989E+000
 0.97381827E+000
 0.96228140E+000
 0.94682265E+000
 0.92651801E+000
 0.90032469E+000
 0.86708891E+000
 0.82544654E+000
 0.77242410E+000
 0.70046742E+000
 0.60572142E+000
 0.49566439E+000
 0.37827577E+000
 0.25977857E+000
 0.14913364E+000
 0.60319255E-001
 0.12684538E-001
 0.13599652E-002
 0.11926919E-003
 0.66342419E-005
 0.45580437E-006
 0.16430033E-007
 0.36279644E-008
 0.26723356E-008
 0.26612911E-008
 0.26599150E-008
 0.26599148E-008
 0.26599141E-008
 0.26599139E-008
 0.26599132E-008
 0.26599085E-008
 0.26598737E-008
 0.26596530E-008
 0.26583971E-008
 0.26521110E-008
 0.26248406E-008
 0.25242889E-008
 0.22167128E-008
 0.14587809E-008
