 0.74451071E+000  0.00000000E+000
 0.26308253E+000 -0.15928901E-002
 0.26308253E+000  0.15928901E-002
 0.74451071E+000  0.00000000E+000
 0.74451047E+000  0.00000000E+000
 0.74451132E+000  0.00000000E+000
 0.74450940E+000  0.00000000E+000
 0.74451336E+000  0.00000000E+000
 0.74450576E+000  0.00000000E+000
 0.74451977E+000  0.00000000E+000
 0.74449504E+000  0.00000000E+000
 0.74453726E+000  0.00000000E+000
 0.74446763E+000  0.00000000E+000
 0.74457887E+000  0.00000000E+000
 0.74440680E+000  0.00000000E+000
 0.74466456E+000  0.00000000E+000
 0.74429087E+000  0.00000000E+000
 0.74481448E+000  0.00000000E+000
 0.74410344E+000  0.00000000E+000
 0.74503270E+000  0.00000000E+000
 0.74383766E+000  0.00000000E+000
 0.74528670E+000  0.00000000E+000
 0.74345240E+000  0.00000000E+000
 0.74541973E+000  0.00000000E+000
 0.74319228E+000  0.00000000E+000
 0.74652589E+000  0.00000000E+000
 0.74969656E+000  0.00000000E+000
 0.72559436E+000  0.00000000E+000
 0.63893962E+000  0.00000000E+000
 0.55625907E+000  0.00000000E+000
 0.48148410E+000  0.00000000E+000
 0.42305386E+000  0.00000000E+000
 0.37635852E+000  0.00000000E+000
 0.34302069E+000  0.00000000E+000
 0.32225240E+000  0.00000000E+000
 0.30979163E+000  0.00000000E+000
 0.30027501E+000  0.00000000E+000
 0.29223376E+000  0.00000000E+000
 0.28551698E+000  0.00000000E+000
 0.27997810E+000  0.00000000E+000
 0.27550576E+000  0.00000000E+000
 0.27197667E+000  0.00000000E+000
 0.26927193E+000  0.00000000E+000
 0.26724951E+000  0.00000000E+000
 0.26577910E+000  0.00000000E+000
 0.26476574E+000  0.00000000E+000
 0.26408779E+000  0.00000000E+000
 0.26366457E+000  0.00000000E+000
 0.26335845E+000  0.00000000E+000
 0.26330596E+000  0.00000000E+000
 0.26286513E+000  0.00000000E+000
 0.26374172E+000  0.00000000E+000
 0.26260004E+000  0.00000000E+000
 0.26260004E+000  0.00000000E+000
 0.26374172E+000  0.00000000E+000
 0.26286513E+000  0.00000000E+000
 0.26330596E+000  0.00000000E+000
 0.26335845E+000  0.00000000E+000
 0.26366457E+000  0.00000000E+000
 0.26408779E+000  0.00000000E+000
 0.26476574E+000  0.00000000E+000
 0.26577910E+000  0.00000000E+000
 0.26724951E+000  0.00000000E+000
 0.26927193E+000  0.00000000E+000
 0.27197667E+000  0.00000000E+000
 0.27550576E+000  0.00000000E+000
 0.27997810E+000  0.00000000E+000
 0.28551698E+000  0.00000000E+000
 0.29223375E+000  0.00000000E+000
 0.30027507E+000  0.00000000E+000
 0.30979143E+000  0.00000000E+000
 0.32225319E+000  0.00000000E+000
 0.34301845E+000  0.00000000E+000
 0.37637057E+000  0.00000000E+000
 0.42303749E+000  0.00000000E+000
 0.48165859E+000  0.00000000E+000
 0.55626807E+000  0.00000000E+000
 0.64070953E+000  0.00000000E+000
 0.72550031E+000  0.00000000E+000
 0.75292111E+000  0.00000000E+000
 0.74552054E+000  0.00000000E+000
 0.74625119E+000  0.00000000E+000
 0.74429253E+000  0.00000000E+000
 0.74460870E+000  0.00000000E+000
 0.74480802E+000  0.00000000E+000
 0.74414875E+000  0.00000000E+000
 0.74489929E+000  0.00000000E+000
 0.74417193E+000  0.00000000E+000
 0.74478548E+000  0.00000000E+000
 0.74430379E+000  0.00000000E+000
 0.74465929E+000  0.00000000E+000
 0.74440896E+000  0.00000000E+000
 0.74457803E+000  0.00000000E+000
 0.74446795E+000  0.00000000E+000
 0.74453714E+000  0.00000000E+000
 0.74449508E+000  0.00000000E+000
 0.74451975E+000  0.00000000E+000
 0.74450577E+000  0.00000000E+000
 0.74451336E+000  0.00000000E+000
 0.74450940E+000  0.00000000E+000
 0.74451132E+000  0.00000000E+000
 0.74451047E+000  0.00000000E+000
