 0.29800000E+003
 0.17911192E+004
 0.17911192E+004
 0.29800000E+003
 0.29800000E+003
 0.29800000E+003
 0.29800000E+003
 0.29800000E+003
 0.29800000E+003
 0.29800000E+003
 0.29800000E+003
 0.29800000E+003
 0.29800000E+003
 0.29800000E+003
 0.29800000E+003
 0.29800000E+003
 0.29800000E+003
 0.29800000E+003
 0.29800000E+003
 0.29800000E+003
 0.29800001E+003
 0.29800015E+003
 0.29800301E+003
 0.29804709E+003
 0.29861830E+003
 0.30406330E+003
 0.33496984E+003
 0.42951364E+003
 0.59010174E+003
 0.78315160E+003
 0.98060144E+003
 0.11681042E+004
 0.13361007E+004
 0.14727812E+004
 0.15680783E+004
 0.16276702E+004
 0.16680270E+004
 0.16987492E+004
 0.17227258E+004
 0.17412929E+004
 0.17554849E+004
 0.17661559E+004
 0.17740252E+004
 0.17797019E+004
 0.17837172E+004
 0.17864782E+004
 0.17882988E+004
 0.17894640E+004
 0.17901886E+004
 0.17906263E+004
 0.17908823E+004
 0.17910254E+004
 0.17910973E+004
 0.17910973E+004
 0.17910254E+004
 0.17908823E+004
 0.17906263E+004
 0.17901886E+004
 0.17894640E+004
 0.17882988E+004
 0.17864782E+004
 0.17837172E+004
 0.17797019E+004
 0.17740252E+004
 0.17661559E+004
 0.17554849E+004
 0.17412929E+004
 0.17227258E+004
 0.16987492E+004
 0.16680270E+004
 0.16276702E+004
 0.15680783E+004
 0.14727812E+004
 0.13361007E+004
 0.11681041E+004
 0.98060073E+003
 0.78315076E+003
 0.59007941E+003
 0.42943708E+003
 0.33503880E+003
 0.30405773E+003
 0.29861530E+003
 0.29804783E+003
 0.29800291E+003
 0.29800016E+003
 0.29800001E+003
 0.29800000E+003
 0.29800000E+003
 0.29800000E+003
 0.29800000E+003
 0.29800000E+003
 0.29800000E+003
 0.29800000E+003
 0.29800000E+003
 0.29800000E+003
 0.29800000E+003
 0.29800000E+003
 0.29800000E+003
 0.29800000E+003
 0.29800000E+003
 0.29800000E+003
 0.29800000E+003
