0.16437794E+000
0.16402838E+000
0.16357148E+000
0.16331475E+000
0.16295690E+000
0.16265774E+000
0.16232765E+000
0.16201614E+000
0.16169573E+000
0.16138157E+000
0.16106529E+000
0.16075149E+000
0.16043764E+000
0.16012513E+000
0.15981319E+000
0.15950225E+000
0.15919207E+000
0.15888277E+000
0.15857429E+000
0.15826665E+000
0.15795985E+000
0.15765388E+000
0.15734874E+000
0.15704442E+000
0.15674093E+000
0.15643826E+000
0.15613640E+000
0.15583536E+000
0.15553513E+000
0.15523572E+000
0.15493710E+000
0.15463929E+000
0.15434228E+000
0.15404607E+000
0.15375065E+000
0.15345602E+000
0.15316218E+000
0.15286913E+000
0.15257686E+000
0.15228537E+000
0.15199466E+000
0.15170472E+000
0.15141556E+000
0.15112716E+000
0.15083954E+000
0.15055267E+000
0.15026656E+000
0.14998120E+000
0.14969660E+000
0.14941275E+000
0.14912965E+000
