GiD Post Results File 1.0
 
Result VELOC ALYA  0.00000000E+00 Vector OnNodes
ComponentNames VELOC_X,VELOC_Y,VELOC_Z
Values
        1  0.10000000E+001  0.00000000E+000
        2  0.00000000E+000  0.00000000E+000
        3  0.10000000E+001  0.00000000E+000
        4  0.00000000E+000  0.00000000E+000
        5  0.10000000E+001  0.00000000E+000
        6  0.00000000E+000  0.00000000E+000
        7  0.00000000E+000  0.00000000E+000
        8  0.00000000E+000  0.00000000E+000
        9  0.00000000E+000  0.00000000E+000
       10  0.10000000E+001  0.00000000E+000
       11  0.00000000E+000  0.00000000E+000
       12  0.00000000E+000  0.00000000E+000
       13  0.00000000E+000  0.00000000E+000
       14  0.00000000E+000  0.00000000E+000
       15  0.00000000E+000  0.00000000E+000
       16  0.10000000E+001  0.00000000E+000
       17  0.00000000E+000  0.00000000E+000
       18  0.00000000E+000  0.00000000E+000
       19  0.00000000E+000  0.00000000E+000
       20  0.00000000E+000  0.00000000E+000
       21  0.00000000E+000  0.00000000E+000
       22  0.00000000E+000  0.00000000E+000
       23  0.00000000E+000  0.00000000E+000
       24  0.00000000E+000  0.00000000E+000
       25  0.00000000E+000  0.00000000E+000
End values
Result PRESS ALYA  0.00000000E+00 Scalar OnNodes
ComponentNames PRESS
Values
        1  0.20010580E+001
        2  0.19994426E+001
        3  0.20000370E+001
        4  0.20000598E+001
        5  0.19992490E+001
        6  0.19995242E+001
        7  0.20000673E+001
        8  0.19999903E+001
        9  0.20005035E+001
       10  0.20000370E+001
       11  0.20000015E+001
       12  0.20003388E+001
       13  0.20000598E+001
       14  0.19998740E+001
       15  0.20000673E+001
       16  0.20010580E+001
       17  0.19990090E+001
       18  0.20000000E+001
       19  0.19994426E+001
       20  0.20003388E+001
       21  0.19995242E+001
       22  0.20000000E+001
       23  0.20000015E+001
       24  0.20000000E+001
       25  0.19990090E+001
End values
Result VELOC ALYA  0.23246616E+03 Vector OnNodes
ComponentNames VELOC_X,VELOC_Y,VELOC_Z
Values
        1  0.10000000E+001  0.00000000E+000
        2  0.10000000E+001  0.00000000E+000
        3  0.10000000E+001  0.00000000E+000
        4  0.10000000E+001  0.14918204E-015
        5  0.10000000E+001  0.00000000E+000
        6  0.10000000E+001  0.00000000E+000
        7  0.10000000E+001  0.15230371E-013
        8  0.10000000E+001 -0.78457889E-016
        9  0.10000000E+001  0.17852297E-015
       10  0.10000000E+001  0.00000000E+000
       11  0.10000000E+001  0.00000000E+000
       12  0.10000000E+001  0.46496879E-013
       13  0.10000000E+001 -0.47850141E-015
       14  0.10000000E+001 -0.79056382E-016
       15  0.10000000E+001 -0.15266951E-013
       16  0.10000000E+001  0.00000000E+000
       17  0.10000000E+001  0.00000000E+000
       18  0.10000000E+001 -0.46363248E-012
       19  0.10000000E+001  0.00000000E+000
       20  0.10000000E+001 -0.46702489E-013
       21  0.10000000E+001  0.00000000E+000
       22  0.10000000E+001 -0.26971630E-015
       23  0.10000000E+001  0.00000000E+000
       24  0.10000000E+001  0.46366652E-012
       25  0.10000000E+001  0.00000000E+000
End values
Result PRESS ALYA  0.23246616E+03 Scalar OnNodes
ComponentNames PRESS
Values
        1  0.20000000E+001
        2  0.20000000E+001
        3  0.20000000E+001
        4  0.20000000E+001
        5  0.20000000E+001
        6  0.20000000E+001
        7  0.20000000E+001
        8  0.20000000E+001
        9  0.20000000E+001
       10  0.20000000E+001
       11  0.20000000E+001
       12  0.20000000E+001
       13  0.20000000E+001
       14  0.20000000E+001
       15  0.20000000E+001
       16  0.20000000E+001
       17  0.20000000E+001
       18  0.20000000E+001
       19  0.20000000E+001
       20  0.20000000E+001
       21  0.20000000E+001
       22  0.20000000E+001
       23  0.20000000E+001
       24  0.20000000E+001
       25  0.20000000E+001
End values
