{
    "authors": [
        "ambrus.both@bsc.es",
        "guillermo.oyarzun@bsc.es"
    ],
    "comparisons": [
        {
            "file": "mixedEq_opp_diff_vec_no_temper-NO-00000040.post.mpio.txt",
            "method": "absolute",
            "tolerance": "1.0e-8"
        },
        {
            "file": "mixedEq_opp_diff_vec_no_temper-Z-00000040.post.mpio.txt",
            "method": "absolute",
            "tolerance": "1.0e-7"
        },
        {
            "file": "mixedEq_opp_diff_vec_no_temper-YC-00000040.post.mpio.txt",
            "method": "absolute",
            "tolerance": "1.0e-7"
        },
        {
            "file": "mixedEq_opp_diff_vec_no_temper-SCO02-00000040.post.mpio.txt",
            "method": "absolute",
            "tolerance": "1.0e-4"
        },
        {
            "file": "mixedEq_opp_diff_vec_no_temper-SRC02-00000040.post.mpio.txt",
            "method": "absolute",
            "tolerance": "1.0e-6"
        },
        {
            "file": "mixedEq_opp_diff_vec_no_temper-SRC04-00000040.post.mpio.txt",
            "method": "absolute",
            "tolerance": "1.0e-6"
        },
        {
            "file": "mixedEq_opp_diff_vec_no_temper-TEMPE-00000040.post.mpio.txt",
            "method": "absolute",
            "tolerance": "1.0e-2"
        },
        {
            "file": "mixedEq_opp_diff_vec_no_temper-VELOC-00000040.post.mpio.txt",
            "method": "absolute",
            "tolerance": "1.0e-8"
        },
        {
            "file": "mixedEq_opp_diff_vec_no_temper-VISCO-00000040.post.mpio.txt",
            "method": "absolute",
            "tolerance": "1.0e-16"
        },
        {
            "file": "mixedEq_opp_diff_vec_no_temper-DTRHO-00000040.post.mpio.txt",
            "method": "absolute",
            "tolerance": "1.0e-16"
        },
        {
            "file": "mixedEq_opp_diff_vec_no_temper-XZR-00000040.post.mpio.txt",
            "method": "absolute",
            "tolerance": "1.0e-6"
        },
        {
            "file": "mixedEq_opp_diff_vec_no_temper-VTHER-00000040.post.mpio.txt",
            "method": "absolute",
            "tolerance": "1.0e-7"
        },
        {
            "file": "mixedEq_opp_diff_vec_no_temper-ABC66-00000040.post.mpio.txt",
            "method": "absolute",
            "tolerance": "1.0e-6"
        },
        {
            "file": "mixedEq_opp_diff_vec_no_temper.chm.cvg-col9.out",
            "method": "absolute",
            "tolerance": "1.0e-3"
        },
        {
            "file": "mixedEq_opp_diff_vec_no_temper.chm.cvg-col10.out",
            "method": "absolute",
            "tolerance": "1.0e-1"
        },
        {
            "file": "mixedEq_opp_diff_vec_no_temper.chm.cvg-col11.out",
            "method": "absolute",
            "tolerance": "1.0e-1"
        }
    ],
    "description": "Laminar opposing diffusion flame in 2D domain with mixed equations framework with temperaure lookup and Skew-symmetric convective term.",
    "include": [
		"normal"
	],
	"exclude": [
		"novector"
	],
    "executions": [
        {
            "commands": {
                "postprocess": "[ALYA-PATH]/Utils/user/extractColumnFromFile.sh [NAME].chm.cvg 9 10 11; echo | [POST] [NAME]"
            },
            "mpi": 1,
            "openmp": 0
        },
        {
            "commands": {
                "postprocess": "[ALYA-PATH]/Utils/user/extractColumnFromFile.sh [NAME].chm.cvg 9 10 11; echo | [POST] [NAME]"
            },
            "mpi": 3,
            "openmp": 0
        },
        {
            "commands": {
                "postprocess": "[ALYA-PATH]/Utils/user/extractColumnFromFile.sh [NAME].chm.cvg 9 10 11; echo | [POST] [NAME]"
            },
            "mpi": 3,
            "openmp": 3
        }
    ],
    "modules": [
        "nastin",
        "chemic"
    ],
    "name": "mixedEq_opp_diff_vec_no_temper",
    "postprocess": "mpio2txt",
    "timeout": "00:02:00"
}
