7.30309021E-003
7.84286731E-003
5.04540238E-003
7.32157897E-003
6.13613639E-003
7.65951786E-003
7.57269847E-003
7.30298547E-003
7.84279326E-003
5.04528630E-003
7.32147238E-003
6.13602517E-003
7.65946895E-003
7.57259945E-003
4.92585247E-003
6.67919846E-003
7.26270942E-003
5.40093097E-003
5.99359525E-003
6.94061908E-003
7.56810990E-003
6.74056644E-003
2.68569198E-003
7.30288098E-003
7.84271930E-003
5.04517058E-003
7.32136605E-003
6.13591426E-003
7.65942007E-003
7.57250065E-003
4.92572154E-003
6.67908674E-003
7.26255827E-003
5.40083795E-003
5.99350924E-003
6.94055099E-003
7.56801209E-003
6.74045431E-003
2.68550940E-003
7.34331061E-003
5.26921588E-003
3.68612290E-003
7.58999403E-003
5.68420735E-003
7.13850514E-003
5.68973604E-003
4.79337417E-003
5.54053029E-003
6.64948951E-003
4.65594657E-003
2.45740017E-003
7.45630711E-003
7.30277673E-003
7.84264545E-003
5.04505523E-003
7.32125997E-003
6.13580364E-003
7.65937122E-003
7.57240204E-003
4.92559113E-003
6.67897531E-003
7.26240773E-003
5.40074513E-003
5.99342338E-003
6.94048298E-003
7.56791448E-003
6.74034249E-003
2.68532833E-003
7.34311106E-003
5.26904944E-003
3.68597624E-003
7.58989791E-003
5.68398207E-003
7.13836508E-003
5.68963049E-003
4.79321923E-003
5.54042538E-003
6.64937594E-003
4.65579554E-003
2.45722873E-003
7.45623047E-003
5.30808916E-003
5.99769366E-003
3.42158213E-003
2.85152963E-003
3.99282982E-003
3.98382351E-003
6.52619399E-003
6.12916771E-003
5.71940960E-003
6.71740541E-003
7.91791876E-003
2.95073494E-003
4.30960022E-003
3.92330656E-003
2.44677742E-003
4.88377292E-003
2.72761932E-003
4.34501916E-003
