# ALYA Lagrangian postprocess  
#
# HEADER
# T , Column :   1
# ILAGR , Column :   2
# ITYPE , Column :   3
# EXIST , Column :   4
# COORX , Column :   5
# COORY , Column :   6
# COORZ , Column :   7
# VELOX , Column :   8
# VELOY , Column :   9
# VELOZ , Column :  10
# DTK , Column :  11
# CD , Column :  12
# TINJE , Column :  13
# TEMPK , Column :  14
# MASSK , Column :  15
# DIAMK , Column :  16
#               T            ILAGR            ITYPE            EXIST            COORX            COORY            COORZ            VELOX            VELOY            VELOZ              DTK               CD            TINJE            TEMPK            MASSK            DIAMK            
  2.50000000E-001                1                1               -1 -3.27317900E-003 -1.54226765E-001  9.29152211E-001  2.70604100E-002  8.11991175E-037  3.29390364E-019  1.00000000E-002  1.85891537E+000  0.00000000E+000  2.87985908E+002  2.03460468E-004  7.30309021E-003
  2.50000000E-001                2                1               -1  1.49970727E-002 -4.65451542E-001  5.41110264E-001  1.24960524E-001  3.80148788E-036  1.54210232E-018  1.00000000E-002  3.46218292E+000  5.00000000E-002  2.87992583E+002  2.51990348E-004  7.84286731E-003
  2.50000000E-001                3                1               -1  1.89178070E-003 -2.90328310E-001  7.79488927E-001  5.95575884E-002  1.80018758E-036  7.30259712E-019  1.00000000E-002  3.36621560E+000  5.00000000E-002  2.87981905E+002  6.70884736E-005  5.04540238E-003
  2.50000000E-001                4                1               -1 -6.64667087E-003  7.47606821E-002 -9.62603733E-001  2.24552532E-002  6.76607122E-037  2.74470799E-019  1.00000000E-002  1.79367618E+000  1.00000000E-001  2.87991419E+002  2.05009358E-004  7.32157897E-003
  2.50000000E-001                5                1               -1 -5.89748022E-003 -6.17136641E-001  6.33947703E-001  4.10845672E-002  1.24594395E-036  5.05426591E-019  1.00000000E-002  2.33276367E+000  1.50000000E-001  2.87992876E+002  1.20682496E-004  6.13613639E-003
  2.50000000E-001                6                1               -1 -5.09661761E-003 -6.50688550E-001 -3.81469519E-001  9.80679506E-002  2.98713696E-036  1.21175471E-018  1.00000000E-002  2.80748337E+001  2.00000000E-001  2.87998746E+002  2.34726932E-004  7.65951786E-003
  2.50000000E-001                7                1               -1 -8.28521128E-003 -3.97254923E-001  8.17712639E-001  3.43201549E-002  1.04361818E-036  4.23351612E-019  1.00000000E-002  1.93279084E+000  2.00000000E-001  2.87997432E+002  2.26835363E-004  7.57269847E-003
  5.00000000E-001                1                1               -1  3.53008278E-003 -1.54226765E-001  9.29152211E-001  2.73653801E-002  8.08596133E-037  3.28013140E-019  1.00000000E-002  1.86327210E+000  0.00000000E+000  2.87971868E+002  2.03452443E-004  7.30298547E-003
  5.00000000E-001                2                1               -1  4.62294467E-002 -4.65451542E-001  5.41110264E-001  1.24898502E-001  3.79204196E-036  1.53827051E-018  1.00000000E-002  3.46798032E+000  5.00000000E-002  2.87983330E+002  2.51983805E-004  7.84279326E-003
  5.00000000E-001                3                1               -1  1.68119068E-002 -2.90328310E-001  7.79488927E-001  5.98030920E-002  1.78925963E-036  7.25826709E-019  1.00000000E-002  3.37993375E+000  5.00000000E-002  2.87959394E+002  6.70842281E-005  5.04528630E-003
  5.00000000E-001                4                1               -1 -9.91349317E-004  7.47606821E-002 -9.62603733E-001  2.27869792E-002  6.73712688E-037  2.73296649E-019  1.00000000E-002  1.79792500E+000  1.00000000E-001  2.87977159E+002  2.05001150E-004  7.32147238E-003
  5.00000000E-001                5                1               -1  4.41083222E-003 -6.17136641E-001  6.33947703E-001  4.13815860E-002  1.23966260E-036  5.02878512E-019  1.00000000E-002  2.33986970E+000  1.50000000E-001  2.87975122E+002  1.20676480E-004  6.13602517E-003
  5.00000000E-001                6                1               -1  1.94207561E-002 -6.50688550E-001 -3.81469519E-001  9.80710384E-002  2.98236301E-036  1.20981812E-018  1.00000000E-002  2.81153174E+001  2.00000000E-001  2.87992480E+002  2.34722810E-004  7.65946895E-003
  5.00000000E-001                7                1               -1  3.25858446E-004 -3.97254923E-001  8.17712639E-001  3.45681808E-002  1.03967718E-036  4.21752915E-019  1.00000000E-002  1.93693503E+000  2.00000000E-001  2.87984616E+002  2.26827206E-004  7.57259945E-003
  5.00000000E-001                8                1               -1 -1.23848344E-004  5.85907364E-001  6.70604531E-001  3.97246692E-002  1.18866454E-036  4.82190764E-019  1.00000000E-002  2.63509756E+000  2.50000000E-001  2.87973855E+002  6.24317601E-005  4.92585247E-003
  5.00000000E-001                9                1               -1 -3.44868496E-003 -2.63182472E-001 -9.08068690E-001  2.63838047E-002  7.89440859E-037  3.20242658E-019  1.00000000E-002  1.94546682E+000  2.50000000E-001  2.87983560E+002  1.55644346E-004  6.67919846E-003
  5.00000000E-001               10                1               -1  5.31248107E-002 -2.21054435E-001  4.82919714E-001  3.15005259E-001  9.58078803E-036  3.88651916E-018  1.00000000E-002  1.07417230E+000  3.00000000E-001  2.87983622E+002  2.00104246E-004  7.26270942E-003
  5.00000000E-001               11                1               -1  6.16950133E-003 -6.15965672E-001  4.86728659E-001  8.08809974E-002  2.45395598E-036  9.95465810E-019  1.00000000E-002  5.47568594E+000  3.00000000E-001  2.87986462E+002  8.22935621E-005  5.40093097E-003
  5.00000000E-001               12                1               -1  2.08064163E-003  1.68620954E-001 -7.67326876E-001  8.05589647E-002  2.44806253E-036  9.93075090E-019  1.00000000E-002  5.00377242E+000  3.50000000E-001  2.87991542E+002  1.12466105E-004  5.99359525E-003
  5.00000000E-001               13                1               -1  3.37419647E-003 -7.60168671E-001  1.20019497E-001  8.91693036E-002  2.71253056E-036  1.10035855E-018  1.00000000E-002  6.99125158E+000  3.50000000E-001  2.87994220E+002  1.74644033E-004  6.94061908E-003
  5.00000000E-001               14                1               -1  6.30531939E-003  3.07221455E-001  5.91525484E-001  1.63006474E-001  4.96230446E-036  2.01299635E-018  1.00000000E-002  1.98012027E+000  4.00000000E-001  2.87994923E+002  2.26423414E-004  7.56810990E-003
  5.00000000E-001               15                1               -1 -8.79333043E-003 -3.03058884E-001 -9.06024235E-001  2.41693420E-002  7.33759894E-037  2.97655253E-019  1.00000000E-002  1.90293348E+000  4.50000000E-001  2.87996732E+002  1.59973492E-004  6.74056644E-003
  5.00000000E-001               16                1               -1 -6.73529991E-003  8.15046492E-001  6.67331638E-002  6.53527108E-002  1.98176140E-036  8.03916505E-019  1.00000000E-002  5.92541918E+000  4.50000000E-001  2.87986600E+002  1.01187898E-005  2.68569198E-003
  7.50000000E-001                1                1               -1  1.04093593E-002 -1.54226765E-001  9.29152211E-001  2.76685301E-002  8.05221353E-037  3.26644134E-019  1.00000000E-002  1.86763478E+000  0.00000000E+000  2.87957880E+002  2.03444435E-004  7.30288098E-003
  7.50000000E-001                2                1               -1  7.74463406E-002 -4.65451542E-001  5.41110264E-001  1.24836683E-001  3.78262688E-036  1.53445122E-018  1.00000000E-002  3.47378545E+000  5.00000000E-002  2.87974097E+002  2.51977270E-004  7.84271930E-003
  7.50000000E-001                3                1               -1  3.17931630E-002 -2.90328310E-001  7.79488927E-001  6.00466330E-002  1.77841905E-036  7.21429143E-019  1.00000000E-002  3.39369607E+000  5.00000000E-002  2.87937003E+002  6.70799954E-005  5.04517058E-003
  7.50000000E-001                4                1               -1  4.74664899E-003  7.47606821E-002 -9.62603733E-001  2.31166700E-002  6.70836011E-037  2.72129704E-019  1.00000000E-002  1.80217952E+000  1.00000000E-001  2.87962953E+002  2.04992961E-004  7.32136605E-003
  7.50000000E-001                5                1               -1  1.47931400E-002 -6.17136641E-001  6.33947703E-001  4.16765330E-002  1.23342506E-036  5.00348207E-019  1.00000000E-002  2.34699046E+000  1.50000000E-001  2.87957446E+002  1.20670481E-004  6.13591426E-003
  7.50000000E-001                6                1               -1  4.39389011E-002 -6.50688550E-001 -3.81469519E-001  9.80741207E-002  2.97759734E-036  1.20788489E-018  1.00000000E-002  2.81558582E+001  2.00000000E-001  2.87986222E+002  2.34718691E-004  7.65942007E-003
  7.50000000E-001                7                1               -1  8.99876817E-003 -3.97254923E-001  8.17712639E-001  3.48148765E-002  1.03575732E-036  4.20162792E-019  1.00000000E-002  1.94108457E+000  2.00000000E-001  2.87971843E+002  2.26819066E-004  7.57250065E-003
  7.50000000E-001                8                1               -1  9.86201520E-003  5.85907364E-001  6.70604531E-001  4.01615181E-002  1.18004963E-036  4.78696059E-019  1.00000000E-002  2.64709526E+000  2.50000000E-001  2.87947878E+002  6.24271957E-005  4.92572154E-003
  7.50000000E-001                9                1               -1  3.19173350E-003 -2.63182472E-001 -9.08068690E-001  2.67391364E-002  7.85630375E-037  3.18696906E-019  1.00000000E-002  1.95081551E+000  2.50000000E-001  2.87967190E+002  1.55637185E-004  6.67908674E-003
  7.50000000E-001               10                1               -1  1.31683785E-001 -2.21054435E-001  4.82919714E-001  3.13469341E-001  9.51234645E-036  3.85875531E-018  1.00000000E-002  1.07770233E+000  3.00000000E-001  2.87963261E+002  2.00092791E-004  7.26255827E-003
  7.50000000E-001               11                1               -1  2.64001955E-002 -6.15965672E-001  4.86728659E-001  8.09644803E-002  2.44324081E-036  9.91119120E-019  1.00000000E-002  5.49355123E+000  3.00000000E-001  2.87969598E+002  8.22896641E-005  5.40083795E-003
  7.50000000E-001               12                1               -1  2.22292782E-002  1.68620954E-001 -7.67326876E-001  8.06300734E-002  2.43910836E-036  9.89442760E-019  1.00000000E-002  5.01719791E+000  3.50000000E-001  2.87977481E+002  1.12461666E-004  5.99350924E-003
  7.50000000E-001               13                1               -1  2.56698552E-002 -7.60168671E-001  1.20019497E-001  8.91959534E-002  2.70585618E-036  1.09765103E-018  1.00000000E-002  7.00464938E+000  3.50000000E-001  2.87984602E+002  1.74639322E-004  6.94055099E-003
  7.50000000E-001               14                1               -1  4.70276634E-002  3.07221455E-001  5.91525484E-001  1.62772483E-001  4.94387566E-036  2.00552057E-018  1.00000000E-002  1.98432947E+000  4.00000000E-001  2.87982258E+002  2.26415367E-004  7.56801209E-003
  7.50000000E-001               15                1               -1 -2.70526539E-003 -3.03058884E-001 -9.06024235E-001  2.45347596E-002  7.30224006E-037  2.96220893E-019  1.00000000E-002  1.90811757E+000  4.50000000E-001  2.87980431E+002  1.59966174E-004  6.74045431E-003
  7.50000000E-001               16                1               -1  9.67713085E-003  8.15046492E-001  6.67331638E-002  6.59446455E-002  1.94790382E-036  7.90181922E-019  1.00000000E-002  6.00312843E+000  4.50000000E-001  2.87920190E+002  1.01168975E-005  2.68550940E-003
  7.50000000E-001               17                1               -1  1.29165178E-001  3.28265494E-001 -1.86323030E-001  5.54196606E-001  1.68535442E-035  6.83676775E-018  1.00000000E-002  7.72799444E-001  5.00000000E-001  2.87973217E+002  2.06841246E-004  7.34331061E-003
  7.50000000E-001               18                1               -1  5.43269583E-002 -5.75865172E-001  1.58635029E-002  2.56534007E-001  7.78695859E-036  3.15883867E-018  1.00000000E-002  1.46739602E+000  5.00000000E-001  2.87968892E+002  7.64187455E-005  5.26921588E-003
  7.50000000E-001               19                1               -1  4.96145769E-003 -5.68602669E-001 -6.06157782E-001  6.00529808E-002  1.79899909E-036  7.29777593E-019  1.00000000E-002  4.22124419E+000  5.00000000E-001  2.87960831E+002  2.61620791E-005  3.68612290E-003
  7.50000000E-001               20                1               -1 -1.99983158E-003 -7.62069909E-002  8.85053940E-001  4.00878174E-002  1.21281117E-036  4.91986028E-019  1.00000000E-002  2.03527180E+000  5.50000000E-001  2.87990048E+002  2.28393578E-004  7.58999403E-003
  7.50000000E-001               21                1               -1  9.40212148E-002  2.63848991E-001 -2.99044395E-001  5.17622730E-001  1.57362830E-035  6.38354225E-018  1.00000000E-002  8.91338390E-001  5.50000000E-001  2.87968714E+002  9.59338079E-005  5.68420735E-003
  7.50000000E-001               22                1               -1  3.02978234E-002  2.55828353E-001  5.06245769E-001  2.68325297E-001  8.16412225E-036  3.31183797E-018  1.00000000E-002  1.21559875E+000  6.00000000E-001  2.87988425E+002  1.90012248E-004  7.13850514E-003
  7.50000000E-001               23                1               -1  1.09318676E-002  4.79504918E-001  5.02466273E-001  1.39487226E-001  4.24127514E-036  1.72050535E-018  1.00000000E-002  3.15620164E+000  6.00000000E-001  2.87989063E+002  9.62135081E-005  5.68973604E-003
  7.50000000E-001               24                1               -1  1.01496783E-002 -5.95721623E-001 -1.93370458E-001  2.01307865E-001  6.12279253E-036  2.48375712E-018  1.00000000E-002  1.95944106E+000  6.50000000E-001  2.87987278E+002  5.75286108E-005  4.79337417E-003
  7.50000000E-001               25                1               -1 -3.55912494E-003  8.36754790E-002 -8.15496716E-001  6.44441395E-002  1.95775445E-036  7.94177907E-019  1.00000000E-002  3.44740503E+000  6.50000000E-001  2.87992558E+002  8.88409732E-005  5.54053029E-003
  7.50000000E-001               26                1               -1 -7.68293474E-003  3.13799818E-001  9.08104806E-001  2.32465684E-002  7.02549227E-037  2.84994410E-019  1.00000000E-002  1.90455173E+000  6.50000000E-001  2.87993287E+002  1.53576280E-004  6.64948951E-003
  7.50000000E-001               27                1               -1 -6.70520365E-004  4.72302253E-001  4.33776138E-001  1.86511749E-001  5.67776289E-036  2.30322748E-018  1.00000000E-002  2.18586071E+000  7.00000000E-001  2.87993619E+002  5.27209411E-005  4.65594657E-003
  7.50000000E-001               28                1               -1 -4.20857734E-003 -2.52513957E-001 -6.81411677E-001  1.15801436E-001  3.51878936E-036  1.42742353E-018  1.00000000E-002  1.19963550E+001  7.00000000E-001  2.87986253E+002  7.75153399E-006  2.45740017E-003
  7.50000000E-001               29                1               -1 -6.22710263E-003 -7.68360024E-001 -2.06795867E-001  7.54644297E-002  2.29783370E-036  9.32133625E-019  1.00000000E-002  3.62631253E+000  7.00000000E-001  2.87997981E+002  2.16535979E-004  7.45630711E-003
  1.00000000E+000                1                1               -1  1.73641973E-002 -1.54226765E-001  9.29152211E-001  2.79698747E-002  8.01866670E-037  3.25283282E-019  1.00000000E-002  1.87200343E+000  0.00000000E+000  2.87943942E+002  2.03436446E-004  7.30277673E-003
  1.00000000E+000                2                1               -1  1.08647805E-001 -4.65451542E-001  5.41110264E-001  1.24775065E-001  3.77324251E-036  1.53064438E-018  1.00000000E-002  3.47959833E+000  5.00000000E-002  2.87964884E+002  2.51970743E-004  7.84264545E-003
  1.00000000E+000                3                1               -1  4.68350613E-002 -2.90328310E-001  7.79488927E-001  6.02882319E-002  1.76766491E-036  7.17066644E-019  1.00000000E-002  3.40750270E+000  5.00000000E-002  2.87914731E+002  6.70757754E-005  5.04505523E-003
  1.00000000E+000                4                1               -1  1.05668174E-002  7.47606821E-002 -9.62603733E-001  2.34443426E-002  6.67976944E-037  2.70969902E-019  1.00000000E-002  1.80643974E+000  1.00000000E-001  2.87948800E+002  2.04984790E-004  7.32125997E-003
  1.00000000E+000                5                1               -1  2.52489275E-002 -6.17136641E-001  6.33947703E-001  4.19694275E-002  1.22723092E-036  4.97835509E-019  1.00000000E-002  2.35412600E+000  1.50000000E-001  2.87939849E+002  1.20664496E-004  6.13580364E-003
  1.00000000E+000                6                1               -1  6.84578160E-002 -6.50688550E-001 -3.81469519E-001  9.80771978E-002  2.97283994E-036  1.20595501E-018  1.00000000E-002  2.81964563E+001  2.00000000E-001  2.87979971E+002  2.34714574E-004  7.65937122E-003
  1.00000000E+000                7                1               -1  1.77331866E-002 -3.97254923E-001  8.17712639E-001  3.50602517E-002  1.03185843E-036  4.18581181E-019  1.00000000E-002  1.94523948E+000  2.00000000E-001  2.87959111E+002  2.26810943E-004  7.57240204E-003
  1.00000000E+000                8                1               -1  1.99565517E-002  5.85907364E-001  6.70604531E-001  4.05940624E-002  1.17151960E-036  4.75235790E-019  1.00000000E-002  2.65913245E+000  2.50000000E-001  2.87922065E+002  6.24226481E-005  4.92559113E-003
  1.00000000E+000                9                1               -1  9.92068037E-003 -2.63182472E-001 -9.08068690E-001  2.70920357E-002  7.81845974E-037  3.17161735E-019  1.00000000E-002  1.95617309E+000  2.50000000E-001  2.87950889E+002  1.55630043E-004  6.67897531E-003
  1.00000000E+000               10                1               -1  2.09860878E-001 -2.21054435E-001  4.82919714E-001  3.11950176E-001  9.44465136E-036  3.83129429E-018  1.00000000E-002  1.08123490E+000  3.00000000E-001  2.87943024E+002  2.00081381E-004  7.26240773E-003
  1.00000000E+000               11                1               -1  4.66517037E-002 -6.15965672E-001  4.86728659E-001  8.10475107E-002  2.43258371E-036  9.86795989E-019  1.00000000E-002  5.51146762E+000  3.00000000E-001  2.87952796E+002  8.22857741E-005  5.40074513E-003
  1.00000000E+000               12                1               -1  4.23956511E-002  1.68620954E-001 -7.67326876E-001  8.07008558E-002  2.43019527E-036  9.85827098E-019  1.00000000E-002  5.03065453E+000  3.50000000E-001  2.87963464E+002  1.12457235E-004  5.99342338E-003
  1.00000000E+000               13                1               -1  4.79721665E-002 -7.60168671E-001  1.20019497E-001  8.92225238E-002  2.69920165E-036  1.09495157E-018  1.00000000E-002  7.01807040E+000  3.50000000E-001  2.87975005E+002  1.74634615E-004  6.94048298E-003
  1.00000000E+000               14                1               -1  8.76916636E-002  3.07221455E-001  5.91525484E-001  1.62539723E-001  4.92554375E-036  1.99808409E-018  1.00000000E-002  1.98854415E+000  4.00000000E-001  2.87969635E+002  2.26407335E-004  7.56791448E-003
  1.00000000E+000               15                1               -1  3.47384047E-003 -3.03058884E-001 -9.06024235E-001  2.48976724E-002  7.26712354E-037  2.94796365E-019  1.00000000E-002  1.91331006E+000  4.50000000E-001  2.87964200E+002  1.59958875E-004  6.74034249E-003
  1.00000000E+000               16                1               -1  2.62359894E-002  8.15046492E-001  6.67331638E-002  6.65241883E-002  1.91475503E-036  7.76734867E-019  1.00000000E-002  6.08174136E+000  4.50000000E-001  2.87854751E+002  1.01150201E-005  2.68532833E-003
  1.00000000E+000               17                1               -1  2.67104805E-001  3.28265494E-001 -1.86323030E-001  5.49334218E-001  1.66731191E-035  6.76357693E-018  1.00000000E-002  7.76190318E-001  5.00000000E-001  2.87946670E+002  2.06825784E-004  7.34311106E-003
  1.00000000E+000               18                1               -1  1.18268716E-001 -5.75865172E-001  1.58635029E-002  2.55003742E-001  7.71083385E-036  3.12795810E-018  1.00000000E-002  1.47482548E+000  5.00000000E-001  2.87938048E+002  7.64121053E-005  5.26904944E-003
  1.00000000E+000               19                1               -1  2.00260760E-002 -5.68602669E-001 -6.06157782E-001  6.04630628E-002  1.78053120E-036  7.22285953E-019  1.00000000E-002  4.25209050E+000  5.00000000E-001  2.87922013E+002  2.61592154E-005  3.68597624E-003
  1.00000000E+000               20                1               -1  8.04925302E-003 -7.62069909E-002  8.85053940E-001  4.03046745E-002  1.20842130E-036  4.90205244E-019  1.00000000E-002  2.03952688E+000  5.50000000E-001  2.87977644E+002  2.28385623E-004  7.58989791E-003
  1.00000000E+000               21                1               -1  2.22660583E-001  2.63848991E-001 -2.99044395E-001  5.11515626E-001  1.55061635E-035  6.29019255E-018  1.00000000E-002  8.96971372E-001  5.50000000E-001  2.87930037E+002  9.59233483E-005  5.68398207E-003
  1.00000000E+000               22                1               -1  9.72433624E-002  2.55828353E-001  5.06245769E-001  2.67240778E-001  8.11152086E-036  3.29049981E-018  1.00000000E-002  1.21937026E+000  6.00000000E-001  2.87969220E+002  1.90001994E-004  7.13836508E-003
  1.00000000E+000               23                1               -1  4.57793063E-002  4.79504918E-001  5.02466273E-001  1.39292496E-001  4.22035945E-036  1.71202074E-018  1.00000000E-002  3.16646469E+000  6.00000000E-001  2.87970899E+002  9.62085998E-005  5.68963049E-003
  1.00000000E+000               24                1               -1  6.03587095E-002 -5.95721623E-001 -1.93370458E-001  2.00366461E-001  6.06589643E-036  2.46067678E-018  1.00000000E-002  1.96987849E+000  6.50000000E-001  2.87955655E+002  5.75234960E-005  4.79321923E-003
  1.00000000E+000               25                1               -1  1.25740711E-002  8.36754790E-002 -8.15496716E-001  6.46212355E-002  1.94800330E-036  7.90222280E-019  1.00000000E-002  3.45899063E+000  6.50000000E-001  2.87974009E+002  8.88363468E-005  5.54042538E-003
  1.00000000E+000               26                1               -1 -1.82376386E-003  3.13799818E-001  9.08104806E-001  2.36263518E-002  6.99072946E-037  2.83584230E-019  1.00000000E-002  1.90988156E+000  6.50000000E-001  2.87976556E+002  1.53569065E-004  6.64937594E-003
  1.00000000E+000               27                1               -1  4.58586323E-002  4.72302253E-001  4.33776138E-001  1.85723154E-001  5.62600741E-036  2.28223247E-018  1.00000000E-002  2.19769826E+000  7.00000000E-001  2.87961865E+002  5.27162377E-005  4.65579554E-003
  1.00000000E+000               28                1               -1  2.47075951E-002 -2.52513957E-001 -6.81411677E-001  1.15528850E-001  3.45808775E-036  1.40279946E-018  1.00000000E-002  1.21724869E+001  7.00000000E-001  2.87918102E+002  7.75004646E-006  2.45722873E-003
  1.00000000E+000               29                1               -1  1.26472614E-002 -7.68360024E-001 -2.06795867E-001  7.55304437E-002  2.29165128E-036  9.29625681E-019  1.00000000E-002  3.63296524E+000  7.00000000E-001  2.87987902E+002  2.16529859E-004  7.45623047E-003
  1.00000000E+000               30                1               -1  4.74512066E-002  5.72793851E-001 -1.77743757E-001  2.29228109E-001  6.95781395E-036  2.82248987E-018  1.00000000E-002  1.61730916E+000  7.50000000E-001  2.87971137E+002  7.81225314E-005  5.30808916E-003
  1.00000000E+000               31                1               -1  5.80999384E-002  3.85592164E-001 -4.11465909E-001  2.71669609E-001  8.25219112E-036  3.34756377E-018  1.00000000E-002  1.31115520E+000  7.50000000E-001  2.87974114E+002  1.12697476E-004  5.99769366E-003
  1.00000000E+000               32                1               -1  2.26940593E-001 -7.39876292E-002 -5.32999877E-002  9.28588102E-001  2.81592293E-035  1.14230044E-017  1.00000000E-002  8.26478960E-001  7.50000000E-001  2.87884433E+002  2.09243603E-005  3.42158213E-003
  1.00000000E+000               33                1               -1  1.68274135E-003  1.34782046E-001  8.57152829E-001  4.71929116E-002  1.38633321E-036  5.62376557E-019  1.00000000E-002  4.15425905E+000  7.50000000E-001  2.87934315E+002  1.21115415E-005  2.85152963E-003
  1.00000000E+000               34                1               -1 -1.38983511E-003  5.17664204E-001 -7.48131139E-001  3.47867257E-002  1.02845098E-036  4.17198923E-019  1.00000000E-002  2.86534547E+000  7.50000000E-001  2.87961605E+002  3.32510326E-005  3.99282982E-003
  1.00000000E+000               35                1               -1  2.46708465E-002 -9.44971908E-002 -6.48055286E-001  1.73030471E-001  5.24583841E-036  2.12801405E-018  1.00000000E-002  2.66908195E+000  8.00000000E-001  2.87968208E+002  3.30264788E-005  3.98382351E-003
  1.00000000E+000               36                1               -1  3.32428745E-002  5.52548419E-001  2.63808444E-001  2.15928398E-001  6.56446141E-036  2.66292344E-018  1.00000000E-002  1.53519927E+000  8.00000000E-001  2.87984224E+002  1.45191157E-004  6.52619399E-003
  1.00000000E+000               37                1               -1  3.18858300E-002  2.72562188E-001 -4.87732503E-001  2.78789404E-001  8.47959599E-036  3.43981227E-018  1.00000000E-002  1.27140927E+000  8.50000000E-001  2.87984799E+002  1.20272041E-004  6.12916771E-003
  1.00000000E+000               38                1               -1 -5.24497191E-003  8.49500299E-001 -3.53330114E-001  3.18228513E-002  9.59011438E-037  3.89030246E-019  1.00000000E-002  2.22860371E+000  8.50000000E-001  2.87987435E+002  9.77267541E-005  5.71940960E-003
  1.00000000E+000               39                1               -1  9.97407191E-003  4.28676739E-002 -6.26634508E-001  1.99631738E-001  6.07618848E-036  2.46485183E-018  1.00000000E-002  1.63897186E+000  9.00000000E-001  2.87992842E+002  1.58330271E-004  6.71740541E-003
  1.00000000E+000               40                1               -1  2.41320070E-002 -3.50796568E-001  3.74284847E-001  3.40996226E-001  1.03819475E-035  4.21151556E-018  1.00000000E-002  9.80845596E-001  9.00000000E-001  2.87992578E+002  2.59293978E-004  7.91791876E-003
  1.00000000E+000               41                1               -1 -1.91989974E-003 -7.93502768E-003  6.68092110E-001  1.61498393E-001  4.91125986E-036  1.99228972E-018  1.00000000E-002  3.64651732E+000  9.50000000E-001  2.87987145E+002  1.34199378E-005  2.95073494E-003
  1.00000000E+000               42                1               -1 -8.41366411E-003 -9.14914438E-001  9.34776472E-002  3.17901450E-002  9.63411371E-037  3.90815112E-019  1.00000000E-002  2.65189052E+000  9.50000000E-001  2.87993181E+002  4.18090398E-005  4.30960022E-003
  1.00000000E+000               43                1               -1 -1.55476873E-003 -3.00736390E-001 -5.87520069E-001  1.68829731E-001  5.13796217E-036  2.08425323E-018  1.00000000E-002  2.79915908E+000  9.50000000E-001  2.87991957E+002  3.15439523E-005  3.92330656E-003
  1.00000000E+000               44                1               -1 -8.95025400E-003  6.98490833E-001 -6.78672322E-001  2.11918913E-002  6.31757406E-037  2.56277172E-019  1.00000000E-002  3.49786290E+000  9.50000000E-001  2.87981034E+002  7.65145411E-006  2.44677742E-003
  1.00000000E+000               45                1               -1 -8.34632944E-003 -8.47949251E-002 -9.10128362E-001  3.31237748E-002  1.00503238E-036  4.07698991E-019  1.00000000E-002  2.48275434E+000  9.50000000E-001  2.87994534E+002  6.08450814E-005  4.88377292E-003
  1.00000000E+000               46                1               -1  4.50423329E-003  3.30636168E-001 -4.39882122E-001  2.89531956E-001  8.80544605E-036  3.57199582E-018  1.00000000E-002  1.89064092E+000  9.50000000E-001  2.87979989E+002  1.06001490E-005  2.72761932E-003
  1.00000000E+000               47                1               -1 -2.81357090E-004 -4.91482454E-001  3.99557082E-001  1.94274774E-001  5.91350853E-036  2.39885948E-018  1.00000000E-002  2.16411256E+000  9.50000000E-001  2.87992637E+002  4.28483779E-005  4.34501916E-003
