$MeshFormat
2.2 0 8
$EndMeshFormat
$PhysicalNames
5
1 1 "Fuel"
1 2 "Oxidizer"
1 3 "Wall"
1 4 "Outlet"
2 5 "Surf"
$EndPhysicalNames
$Nodes
640
1 -0.075 -0.01 0
2 -0.015 -0.01 0
3 0.015 -0.01 0
4 0.075 -0.01 0
5 0.075 0.02 0
6 0.015 0.02 0
7 -0.015 0.02 0
8 -0.075 0.02 0
9 -0.07100000000000832 -0.01 0
10 -0.0670000000000141 -0.01 0
11 -0.06300000000002766 -0.01 0
12 -0.05900000000003598 -0.01 0
13 -0.05500000000004927 -0.01 0
14 -0.05100000000006209 -0.01 0
15 -0.04700000000007411 -0.01 0
16 -0.04300000000007392 -0.01 0
17 -0.03900000000006181 -0.01 0
18 -0.03500000000005242 -0.01 0
19 -0.03100000000004031 -0.01 0
20 -0.02700000000003091 -0.01 0
21 -0.02300000000002006 -0.01 0
22 -0.01900000000001003 -0.01 0
23 -0.01166666666667382 -0.01 0
24 -0.008333333333350353 -0.01 0
25 -0.005000000000027106 -0.01 0
26 -0.001666666666704082 -0.01 0
27 0.001666666666630304 -0.01 0
28 0.004999999999972443 -0.01 0
29 0.008333333333314513 -0.01 0
30 0.01166666666665673 -0.01 0
31 0.01899999999998952 -0.01 0
32 0.02299999999998306 -0.01 0
33 0.02699999999997019 -0.01 0
34 0.03099999999995925 -0.01 0
35 0.03499999999994535 -0.01 0
36 0.03899999999993307 -0.01 0
37 0.0429999999999216 -0.01 0
38 0.04699999999992232 -0.01 0
39 0.05099999999993497 -0.01 0
40 0.05499999999994491 -0.01 0
41 0.05899999999995756 -0.01 0
42 0.06299999999996642 -0.01 0
43 0.06699999999998013 -0.01 0
44 0.07099999999998609 -0.01 0
45 0.075 -0.008000000000004273 0
46 0.075 -0.00600000000000806 0
47 0.075 -0.004000000000014546 0
48 0.075 -0.002000000000020862 0
49 0.075 -2.734618087529839e-14 0
50 0.075 0.001999999999966105 0
51 0.075 0.003999999999959444 0
52 0.075 0.005999999999959761 0
53 0.075 0.007999999999965703 0
54 0.075 0.009999999999970284 0
55 0.075 0.01199999999997623 0
56 0.075 0.01399999999998081 0
57 0.075 0.01599999999998549 0
58 0.075 0.01799999999999135 0
59 0.07100000000000832 0.02 0
60 0.0670000000000141 0.02 0
61 0.06300000000002766 0.02 0
62 0.05900000000003598 0.02 0
63 0.05500000000004927 0.02 0
64 0.05100000000006209 0.02 0
65 0.04700000000007411 0.02 0
66 0.04300000000007392 0.02 0
67 0.03900000000006181 0.02 0
68 0.03500000000005242 0.02 0
69 0.03100000000004031 0.02 0
70 0.02700000000003091 0.02 0
71 0.02300000000002006 0.02 0
72 0.01900000000001003 0.02 0
73 0.01166666666667382 0.02 0
74 0.008333333333350353 0.02 0
75 0.005000000000027106 0.02 0
76 0.001666666666704082 0.02 0
77 -0.001666666666630304 0.02 0
78 -0.004999999999972443 0.02 0
79 -0.008333333333314513 0.02 0
80 -0.01166666666665673 0.02 0
81 -0.01899999999998952 0.02 0
82 -0.02299999999998306 0.02 0
83 -0.02699999999997019 0.02 0
84 -0.03099999999995925 0.02 0
85 -0.03499999999994535 0.02 0
86 -0.03899999999993307 0.02 0
87 -0.0429999999999216 0.02 0
88 -0.04699999999992232 0.02 0
89 -0.05099999999993497 0.02 0
90 -0.05499999999994491 0.02 0
91 -0.05899999999995756 0.02 0
92 -0.06299999999996642 0.02 0
93 -0.06699999999998013 0.02 0
94 -0.07099999999998609 0.02 0
95 -0.075 0.01800000000000456 0
96 -0.075 0.0160000000000098 0
97 -0.075 0.01400000000001559 0
98 -0.075 0.01200000000002101 0
99 -0.075 0.01000000000002711 0
100 -0.075 0.008000000000033269 0
101 -0.075 0.006000000000039545 0
102 -0.075 0.004000000000038847 0
103 -0.075 0.002000000000032524 0
104 -0.075 2.755781713936756e-14 0
105 -0.075 -0.001999999999978769 0
106 -0.075 -0.003999999999983735 0
107 -0.075 -0.005999999999989427 0
108 -0.075 -0.007999999999994713 0
109 -0.015 -0.008000000000004273 0
110 -0.015 -0.00600000000000806 0
111 -0.015 -0.004000000000014546 0
112 -0.015 -0.002000000000020862 0
113 -0.015 -2.734618087529839e-14 0
114 -0.015 0.001999999999966105 0
115 -0.015 0.003999999999959444 0
116 -0.015 0.005999999999959761 0
117 -0.015 0.007999999999965703 0
118 -0.015 0.009999999999970284 0
119 -0.015 0.01199999999997623 0
120 -0.015 0.01399999999998081 0
121 -0.015 0.01599999999998549 0
122 -0.015 0.01799999999999135 0
123 0.015 -0.008000000000004273 0
124 0.015 -0.00600000000000806 0
125 0.015 -0.004000000000014546 0
126 0.015 -0.002000000000020862 0
127 0.015 -2.734618087529839e-14 0
128 0.015 0.001999999999966105 0
129 0.015 0.003999999999959444 0
130 0.015 0.005999999999959761 0
131 0.015 0.007999999999965703 0
132 0.015 0.009999999999970284 0
133 0.015 0.01199999999997623 0
134 0.015 0.01399999999998081 0
135 0.015 0.01599999999998549 0
136 0.015 0.01799999999999135 0
137 -0.01899999999999088 0.01799999999999222 0
138 -0.01899999999999225 0.01599999999998711 0
139 -0.01899999999999363 0.01399999999998313 0
140 -0.01899999999999499 0.01199999999997921 0
141 -0.01899999999999635 0.00999999999997407 0
142 -0.01899999999999772 0.007999999999970205 0
143 -0.01899999999999909 0.005999999999965083 0
144 -0.01900000000000045 0.003999999999964737 0
145 -0.01900000000000183 0.001999999999970531 0
146 -0.01900000000000319 -2.368678170272531e-14 0
147 -0.01900000000000456 -0.002000000000018054 0
148 -0.01900000000000593 -0.004000000000012492 0
149 -0.0190000000000073 -0.006000000000006818 0
150 -0.01900000000000866 -0.008000000000003633 0
151 -0.02299999999998553 0.01799999999999311 0
152 -0.022999999999988 0.01599999999998874 0
153 -0.02299999999999046 0.01399999999998545 0
154 -0.02299999999999293 0.0119999999999822 0
155 -0.0229999999999954 0.009999999999977856 0
156 -0.02299999999999786 0.007999999999974711 0
157 -0.02300000000000033 0.005999999999970401 0
158 -0.0230000000000028 0.003999999999970029 0
159 -0.02300000000000526 0.001999999999974958 0
160 -0.02300000000000772 -2.002564780667626e-14 0
161 -0.02300000000001019 -0.002000000000015249 0
162 -0.02300000000001266 -0.004000000000010438 0
163 -0.02300000000001513 -0.006000000000005576 0
164 -0.02300000000001759 -0.008000000000002996 0
165 -0.02699999999997424 0.01799999999999399 0
166 -0.02699999999997828 0.01599999999999036 0
167 -0.02699999999998233 0.01399999999998777 0
168 -0.02699999999998638 0.01199999999998519 0
169 -0.02699999999999042 0.009999999999981645 0
170 -0.02699999999999447 0.00799999999997922 0
171 -0.02699999999999852 0.005999999999975717 0
172 -0.02700000000000258 0.003999999999975324 0
173 -0.02700000000000662 0.001999999999979386 0
174 -0.02700000000001067 -1.636624863410319e-14 0
175 -0.02700000000001471 -0.002000000000012443 0
176 -0.02700000000001877 -0.004000000000008384 0
177 -0.02700000000002281 -0.006000000000004333 0
178 -0.02700000000002686 -0.008000000000002361 0
179 -0.03099999999996466 0.01799999999999487 0
180 -0.03099999999997006 0.01599999999999198 0
181 -0.03099999999997547 0.01399999999999009 0
182 -0.03099999999998087 0.01199999999998817 0
183 -0.03099999999998627 0.009999999999985435 0
184 -0.03099999999999167 0.007999999999983722 0
185 -0.03099999999999708 0.005999999999981035 0
186 -0.03100000000000248 0.003999999999980617 0
187 -0.03100000000000789 0.001999999999983816 0
188 -0.03100000000001329 -1.270598209979212e-14 0
189 -0.03100000000001869 -0.002000000000009636 0
190 -0.0310000000000241 -0.004000000000006328 0
191 -0.0310000000000295 -0.006000000000003091 0
192 -0.0310000000000349 -0.008000000000001726 0
193 -0.03499999999995251 0.01799999999999575 0
194 -0.03499999999995961 0.0159999999999936 0
195 -0.03499999999996677 0.0139999999999924 0
196 -0.03499999999997391 0.01199999999999116 0
197 -0.03499999999998105 0.009999999999989226 0
198 -0.03499999999998818 0.007999999999988225 0
199 -0.03499999999999531 0.005999999999986354 0
200 -0.03500000000000246 0.003999999999985913 0
201 -0.03500000000000959 0.001999999999988246 0
202 -0.03500000000001673 -9.044848203743072e-15 0
203 -0.03500000000002387 -0.002000000000006831 0
204 -0.03500000000003101 -0.004000000000004275 0
205 -0.03500000000003814 -0.006000000000001848 0
206 -0.03500000000004529 -0.008000000000001088 0
207 -0.03899999999994164 0.01799999999999664 0
208 -0.03899999999995024 0.01599999999999522 0
209 -0.03899999999995881 0.01399999999999472 0
210 -0.0389999999999674 0.01199999999999414 0
211 -0.038999999999976 0.009999999999993014 0
212 -0.03899999999998457 0.007999999999992726 0
213 -0.03899999999999316 0.005999999999991675 0
214 -0.03900000000000173 0.003999999999991203 0
215 -0.03900000000001032 0.00199999999999267 0
216 -0.03900000000001891 -5.385449031169998e-15 0
217 -0.03900000000002748 -0.002000000000004024 0
218 -0.03900000000003606 -0.004000000000002222 0
219 -0.03900000000004464 -0.006000000000000606 0
220 -0.03900000000005324 -0.008000000000000449 0
221 -0.04299999999993176 0.01799999999999751 0
222 -0.0429999999999419 0.01599999999999684 0
223 -0.04299999999995207 0.01399999999999704 0
224 -0.04299999999996224 0.01199999999999713 0
225 -0.04299999999997238 0.009999999999996801 0
226 -0.04299999999998252 0.007999999999997232 0
227 -0.04299999999999268 0.005999999999996996 0
228 -0.04300000000000285 0.003999999999996496 0
229 -0.04300000000001299 0.001999999999997099 0
230 -0.04300000000002315 -1.724315135120946e-15 0
231 -0.0430000000000333 -0.002000000000001217 0
232 -0.04300000000004346 -0.004000000000000168 0
233 -0.04300000000005361 -0.005999999999999363 0
234 -0.04300000000006376 -0.007999999999999811 0
235 -0.04699999999993244 0.0179999999999984 0
236 -0.04699999999994255 0.01599999999999847 0
237 -0.04699999999995268 0.01399999999999936 0
238 -0.0469999999999628 0.01200000000000011 0
239 -0.0469999999999729 0.01000000000000059 0
240 -0.04699999999998303 0.008000000000001738 0
241 -0.04699999999999315 0.006000000000002313 0
242 -0.04700000000000326 0.004000000000001792 0
243 -0.04700000000001341 0.002000000000001526 0
244 -0.04700000000002352 1.935951399190117e-15 0
245 -0.04700000000003363 -0.001999999999998411 0
246 -0.04700000000004375 -0.003999999999998114 0
247 -0.04700000000005386 -0.005999999999998123 0
248 -0.047000000000064 -0.007999999999999173 0
249 -0.05099999999994343 0.01799999999999927 0
250 -0.0509999999999519 0.01600000000000008 0
251 -0.05099999999996038 0.01400000000000167 0
252 -0.05099999999996885 0.0120000000000031 0
253 -0.05099999999997733 0.01000000000000438 0
254 -0.05099999999998581 0.008000000000006242 0
255 -0.0509999999999943 0.006000000000007635 0
256 -0.05100000000000276 0.004000000000007086 0
257 -0.05100000000001123 0.002000000000005956 0
258 -0.05100000000001971 5.595350571763191e-15 0
259 -0.05100000000002819 -0.001999999999995606 0
260 -0.05100000000003666 -0.003999999999996061 0
261 -0.05100000000004514 -0.005999999999996879 0
262 -0.05100000000005361 -0.007999999999998534 0
263 -0.05499999999995186 0.01800000000000015 0
264 -0.05499999999995882 0.0160000000000017 0
265 -0.05499999999996578 0.014000000000004 0
266 -0.05499999999997272 0.01200000000000609 0
267 -0.05499999999997969 0.01000000000000816 0
268 -0.05499999999998666 0.008000000000010747 0
269 -0.0549999999999936 0.006000000000012948 0
270 -0.05500000000000056 0.004000000000012379 0
271 -0.05500000000000752 0.002000000000010383 0
272 -0.05500000000001447 9.255617106074254e-15 0
273 -0.05500000000002144 -0.001999999999992801 0
274 -0.05500000000002839 -0.003999999999994005 0
275 -0.05500000000003535 -0.005999999999995638 0
276 -0.05500000000004231 -0.007999999999997899 0
277 -0.05899999999996278 0.01800000000000104 0
278 -0.05899999999996802 0.01600000000000332 0
279 -0.05899999999997324 0.01400000000000631 0
280 -0.05899999999997847 0.01200000000000907 0
281 -0.0589999999999837 0.01000000000001195 0
282 -0.05899999999998892 0.008000000000015252 0
283 -0.05899999999999416 0.006000000000018272 0
284 -0.05899999999999939 0.004000000000017672 0
285 -0.0590000000000046 0.00200000000001481 0
286 -0.05900000000000986 1.291610048081981e-14 0
287 -0.05900000000001507 -0.001999999999989994 0
288 -0.0590000000000203 -0.003999999999991953 0
289 -0.05900000000002554 -0.005999999999994393 0
290 -0.05900000000003075 -0.007999999999997265 0
291 -0.0629999999999705 0.01800000000000191 0
292 -0.06299999999997458 0.01600000000000494 0
293 -0.06299999999997866 0.01400000000000863 0
294 -0.06299999999998276 0.01200000000001205 0
295 -0.06299999999998684 0.01000000000001574 0
296 -0.0629999999999909 0.008000000000019753 0
297 -0.062999999999995 0.006000000000023589 0
298 -0.06299999999999908 0.004000000000022966 0
299 -0.06300000000000316 0.002000000000019241 0
300 -0.06300000000000724 1.657680069599987e-14 0
301 -0.06300000000001132 -0.001999999999987187 0
302 -0.0630000000000154 -0.003999999999989897 0
303 -0.06300000000001948 -0.005999999999993155 0
304 -0.06300000000002359 -0.007999999999996626 0
305 -0.06699999999998241 0.0180000000000028 0
306 -0.06699999999998466 0.01600000000000657 0
307 -0.0669999999999869 0.01400000000001095 0
308 -0.06699999999998921 0.01200000000001504 0
309 -0.06699999999999146 0.01000000000001953 0
310 -0.06699999999999373 0.00800000000002426 0
311 -0.06699999999999601 0.006000000000028909 0
312 -0.06699999999999824 0.00400000000002826 0
313 -0.0670000000000005 0.002000000000023667 0
314 -0.06700000000000278 2.023858511335241e-14 0
315 -0.06700000000000506 -0.001999999999984381 0
316 -0.0670000000000073 -0.003999999999987845 0
317 -0.06700000000000958 -0.00599999999999191 0
318 -0.06700000000001183 -0.007999999999995988 0
319 -0.07099999999998756 0.01800000000000367 0
320 -0.07099999999998906 0.01600000000000818 0
321 -0.07099999999999053 0.01400000000001327 0
322 -0.07099999999999203 0.01200000000001803 0
323 -0.0709999999999935 0.01000000000002332 0
324 -0.07099999999999497 0.00800000000002876 0
325 -0.07099999999999643 0.006000000000034226 0
326 -0.07099999999999794 0.004000000000033554 0
327 -0.07099999999999942 0.002000000000028094 0
328 -0.07100000000000091 2.389646640288401e-14 0
329 -0.07100000000000237 -0.001999999999981576 0
330 -0.07100000000000388 -0.003999999999985791 0
331 -0.07100000000000535 -0.005999999999990669 0
332 -0.07100000000000681 -0.007999999999995348 0
333 0.01166666666667268 0.01799999999999135 0
334 0.01166666666667154 0.01599999999998549 0
335 0.0116666666666704 0.01399999999998081 0
336 0.01166666666666926 0.01199999999997623 0
337 0.01166666666666812 0.009999999999970283 0
338 0.01166666666666698 0.007999999999965705 0
339 0.01166666666666584 0.005999999999959764 0
340 0.01166666666666471 0.003999999999959444 0
341 0.01166666666666357 0.001999999999966106 0
342 0.01166666666666243 -2.734618087529839e-14 0
343 0.01166666666666129 -0.002000000000020862 0
344 0.01166666666666015 -0.004000000000014545 0
345 0.01166666666665901 -0.006000000000008058 0
346 0.01166666666665787 -0.008000000000004275 0
347 0.008333333333347964 0.01799999999999135 0
348 0.008333333333345575 0.01599999999998549 0
349 0.008333333333343185 0.01399999999998081 0
350 0.008333333333340798 0.01199999999997623 0
351 0.008333333333338407 0.009999999999970283 0
352 0.008333333333336017 0.007999999999965705 0
353 0.00833333333333363 0.005999999999959765 0
354 0.008333333333331239 0.003999999999959444 0
355 0.008333333333328849 0.001999999999966106 0
356 0.008333333333326459 -2.734704823703638e-14 0
357 0.008333333333324072 -0.002000000000020861 0
358 0.008333333333321681 -0.004000000000014546 0
359 0.008333333333319292 -0.006000000000008059 0
360 0.008333333333316904 -0.008000000000004275 0
361 0.005000000000023461 0.01799999999999135 0
362 0.005000000000019818 0.01599999999998549 0
363 0.005000000000016173 0.01399999999998081 0
364 0.005000000000012529 0.01199999999997623 0
365 0.005000000000008885 0.009999999999970283 0
366 0.005000000000005241 0.007999999999965705 0
367 0.005000000000001597 0.005999999999959763 0
368 0.004999999999997954 0.003999999999959444 0
369 0.004999999999994309 0.001999999999966106 0
370 0.004999999999990664 -2.734618087529839e-14 0
371 0.00499999999998702 -0.002000000000020862 0
372 0.004999999999983376 -0.004000000000014544 0
373 0.004999999999979731 -0.006000000000008057 0
374 0.00499999999997609 -0.008000000000004275 0
375 0.001666666666699164 0.01799999999999135 0
376 0.001666666666694245 0.01599999999998549 0
377 0.001666666666689326 0.01399999999998081 0
378 0.001666666666684408 0.01199999999997623 0
379 0.00166666666667949 0.009999999999970283 0
380 0.001666666666674571 0.007999999999965706 0
381 0.001666666666669653 0.005999999999959764 0
382 0.001666666666664734 0.003999999999959444 0
383 0.001666666666659816 0.001999999999966106 0
384 0.001666666666654897 -2.734574719442939e-14 0
385 0.00166666666664998 -0.002000000000020861 0
386 0.00166666666664506 -0.004000000000014546 0
387 0.00166666666664014 -0.006000000000008059 0
388 0.001666666666635223 -0.008000000000004276 0
389 -0.001666666666635223 0.01799999999999135 0
390 -0.001666666666640141 0.01599999999998549 0
391 -0.001666666666645059 0.01399999999998081 0
392 -0.001666666666649979 0.01199999999997623 0
393 -0.001666666666654896 0.009999999999970283 0
394 -0.001666666666659815 0.007999999999965705 0
395 -0.001666666666664735 0.005999999999959764 0
396 -0.001666666666669653 0.003999999999959444 0
397 -0.00166666666667457 0.001999999999966106 0
398 -0.00166666666667949 -2.734661455616738e-14 0
399 -0.001666666666684408 -0.002000000000020862 0
400 -0.001666666666689327 -0.004000000000014545 0
401 -0.001666666666694245 -0.006000000000008058 0
402 -0.001666666666699164 -0.008000000000004276 0
403 -0.004999999999976088 0.01799999999999135 0
404 -0.004999999999979732 0.01599999999998549 0
405 -0.004999999999983375 0.01399999999998081 0
406 -0.004999999999987019 0.01199999999997624 0
407 -0.004999999999990663 0.009999999999970283 0
408 -0.004999999999994308 0.007999999999965705 0
409 -0.004999999999997953 0.005999999999959763 0
410 -0.005000000000001595 0.003999999999959444 0
411 -0.005000000000005242 0.001999999999966105 0
412 -0.005000000000008886 -2.734574719442939e-14 0
413 -0.00500000000001253 -0.002000000000020861 0
414 -0.005000000000016175 -0.004000000000014546 0
415 -0.005000000000019816 -0.006000000000008058 0
416 -0.005000000000023459 -0.008000000000004275 0
417 -0.008333333333316907 0.01799999999999135 0
418 -0.008333333333319294 0.01599999999998549 0
419 -0.008333333333321681 0.01399999999998081 0
420 -0.00833333333332407 0.01199999999997623 0
421 -0.008333333333326459 0.009999999999970284 0
422 -0.008333333333328849 0.007999999999965706 0
423 -0.008333333333331239 0.005999999999959763 0
424 -0.008333333333333628 0.003999999999959444 0
425 -0.008333333333336019 0.001999999999966105 0
426 -0.008333333333338406 -2.734704823703638e-14 0
427 -0.008333333333340796 -0.002000000000020863 0
428 -0.008333333333343186 -0.004000000000014545 0
429 -0.008333333333345575 -0.006000000000008058 0
430 -0.008333333333347966 -0.008000000000004276 0
431 -0.01166666666665787 0.01799999999999135 0
432 -0.01166666666665901 0.01599999999998549 0
433 -0.01166666666666014 0.01399999999998081 0
434 -0.01166666666666129 0.01199999999997623 0
435 -0.01166666666666243 0.009999999999970283 0
436 -0.01166666666666356 0.007999999999965705 0
437 -0.01166666666666471 0.005999999999959763 0
438 -0.01166666666666584 0.003999999999959444 0
439 -0.01166666666666698 0.001999999999966106 0
440 -0.01166666666666812 -2.734639771573288e-14 0
441 -0.01166666666666926 -0.002000000000020862 0
442 -0.0116666666666704 -0.004000000000014545 0
443 -0.01166666666667154 -0.006000000000008058 0
444 -0.01166666666667268 -0.008000000000004275 0
445 0.07100000000000684 0.01799999999999135 0
446 0.07100000000000535 0.01599999999998549 0
447 0.07100000000000385 0.01399999999998081 0
448 0.07100000000000239 0.01199999999997623 0
449 0.07100000000000091 0.009999999999970284 0
450 0.07099999999999944 0.007999999999965705 0
451 0.07099999999999794 0.005999999999959763 0
452 0.07099999999999647 0.003999999999959443 0
453 0.07099999999999498 0.001999999999966107 0
454 0.0709999999999935 -2.73453135135604e-14 0
455 0.07099999999999203 -0.002000000000020863 0
456 0.07099999999999053 -0.004000000000014545 0
457 0.07099999999998903 -0.006000000000008058 0
458 0.0709999999999876 -0.008000000000004276 0
459 0.06700000000001183 0.01799999999999135 0
460 0.06700000000000961 0.01599999999998549 0
461 0.06700000000000732 0.01399999999998081 0
462 0.06700000000000506 0.01199999999997623 0
463 0.06700000000000278 0.009999999999970283 0
464 0.06700000000000053 0.007999999999965708 0
465 0.06699999999999826 0.005999999999959764 0
466 0.06699999999999601 0.003999999999959444 0
467 0.06699999999999373 0.001999999999966105 0
468 0.06699999999999146 -2.73453135135604e-14 0
469 0.06699999999998921 -0.002000000000020862 0
470 0.06699999999998693 -0.004000000000014544 0
471 0.06699999999998466 -0.006000000000008058 0
472 0.06699999999998241 -0.008000000000004275 0
473 0.06300000000002358 0.01799999999999135 0
474 0.0630000000000195 0.01599999999998549 0
475 0.06300000000001542 0.01399999999998081 0
476 0.06300000000001131 0.01199999999997623 0
477 0.06300000000000723 0.009999999999970284 0
478 0.06300000000000315 0.007999999999965705 0
479 0.06299999999999907 0.005999999999959763 0
480 0.06299999999999499 0.003999999999959444 0
481 0.06299999999999091 0.001999999999966106 0
482 0.06299999999998683 -2.73453135135604e-14 0
483 0.06299999999998275 -0.002000000000020862 0
484 0.06299999999997867 -0.004000000000014546 0
485 0.06299999999997459 -0.006000000000008058 0
486 0.06299999999997048 -0.008000000000004275 0
487 0.05900000000003074 0.01799999999999135 0
488 0.05900000000002553 0.01599999999998549 0
489 0.05900000000002029 0.01399999999998081 0
490 0.05900000000001508 0.01199999999997623 0
491 0.05900000000000986 0.009999999999970281 0
492 0.05900000000000461 0.007999999999965705 0
493 0.05899999999999939 0.005999999999959765 0
494 0.05899999999999415 0.003999999999959444 0
495 0.05899999999998894 0.001999999999966106 0
496 0.0589999999999837 -2.734704823703638e-14 0
497 0.05899999999997849 -0.002000000000020862 0
498 0.05899999999997325 -0.004000000000014545 0
499 0.058999999999968 -0.006000000000008058 0
500 0.05899999999996278 -0.008000000000004275 0
501 0.05500000000004229 0.01799999999999135 0
502 0.05500000000003536 0.01599999999998549 0
503 0.05500000000002838 0.01399999999998081 0
504 0.05500000000002144 0.01199999999997623 0
505 0.05500000000001448 0.009999999999970281 0
506 0.05500000000000752 0.007999999999965705 0
507 0.05500000000000056 0.005999999999959765 0
508 0.0549999999999936 0.003999999999959442 0
509 0.05499999999998664 0.001999999999966106 0
510 0.05499999999997969 -2.734618087529839e-14 0
511 0.05499999999997272 -0.002000000000020862 0
512 0.05499999999996577 -0.004000000000014546 0
513 0.05499999999995882 -0.006000000000008058 0
514 0.05499999999995186 -0.008000000000004275 0
515 0.05100000000005362 0.01799999999999135 0
516 0.05100000000004513 0.01599999999998549 0
517 0.05100000000003667 0.01399999999998082 0
518 0.05100000000002819 0.01199999999997623 0
519 0.05100000000001972 0.009999999999970283 0
520 0.05100000000001124 0.007999999999965705 0
521 0.05100000000000277 0.005999999999959763 0
522 0.0509999999999943 0.003999999999959444 0
523 0.05099999999998581 0.001999999999966106 0
524 0.05099999999997736 -2.734704823703638e-14 0
525 0.05099999999996886 -0.002000000000020862 0
526 0.0509999999999604 -0.004000000000014546 0
527 0.05099999999995192 -0.006000000000008058 0
528 0.05099999999994344 -0.008000000000004275 0
529 0.04700000000006398 0.01799999999999135 0
530 0.04700000000005386 0.01599999999998549 0
531 0.04700000000004375 0.01399999999998081 0
532 0.04700000000003363 0.01199999999997623 0
533 0.04700000000002351 0.009999999999970284 0
534 0.04700000000001339 0.007999999999965708 0
535 0.04700000000000328 0.005999999999959765 0
536 0.04699999999999314 0.003999999999959443 0
537 0.04699999999998304 0.001999999999966107 0
538 0.04699999999997291 -2.734618087529839e-14 0
539 0.04699999999996281 -0.002000000000020861 0
540 0.04699999999995268 -0.004000000000014546 0
541 0.04699999999994255 -0.006000000000008058 0
542 0.04699999999993245 -0.008000000000004276 0
543 0.04300000000006377 0.01799999999999135 0
544 0.04300000000005362 0.01599999999998549 0
545 0.04300000000004345 0.01399999999998081 0
546 0.0430000000000333 0.01199999999997623 0
547 0.04300000000002316 0.009999999999970283 0
548 0.04300000000001299 0.007999999999965705 0
549 0.04300000000000284 0.005999999999959764 0
550 0.04299999999999268 0.003999999999959444 0
551 0.04299999999998252 0.001999999999966105 0
552 0.04299999999997237 -2.734661455616738e-14 0
553 0.04299999999996222 -0.002000000000020862 0
554 0.04299999999995206 -0.004000000000014544 0
555 0.04299999999994191 -0.006000000000008058 0
556 0.04299999999993176 -0.008000000000004275 0
557 0.03900000000005322 0.01799999999999135 0
558 0.03900000000004465 0.01599999999998549 0
559 0.03900000000003607 0.01399999999998081 0
560 0.03900000000002748 0.01199999999997623 0
561 0.0390000000000189 0.009999999999970283 0
562 0.03900000000001031 0.007999999999965705 0
563 0.03900000000000174 0.005999999999959765 0
564 0.03899999999999314 0.003999999999959444 0
565 0.03899999999998457 0.001999999999966105 0
566 0.03899999999997598 -2.734618087529839e-14 0
567 0.03899999999996741 -0.002000000000020862 0
568 0.03899999999995881 -0.004000000000014546 0
569 0.03899999999995023 -0.006000000000008059 0
570 0.03899999999994165 -0.008000000000004276 0
571 0.03500000000004528 0.01799999999999135 0
572 0.03500000000003815 0.01599999999998549 0
573 0.035000000000031 0.01399999999998081 0
574 0.03500000000002386 0.01199999999997623 0
575 0.03500000000001672 0.009999999999970284 0
576 0.03500000000000959 0.007999999999965705 0
577 0.03500000000000246 0.005999999999959763 0
578 0.03499999999999533 0.003999999999959444 0
579 0.03499999999998818 0.001999999999966105 0
580 0.03499999999998103 -2.73453135135604e-14 0
581 0.0349999999999739 -0.002000000000020863 0
582 0.03499999999996677 -0.004000000000014544 0
583 0.03499999999995963 -0.006000000000008058 0
584 0.0349999999999525 -0.008000000000004275 0
585 0.03100000000003491 0.01799999999999135 0
586 0.0310000000000295 0.01599999999998549 0
587 0.0310000000000241 0.01399999999998081 0
588 0.03100000000001869 0.01199999999997623 0
589 0.03100000000001328 0.009999999999970284 0
590 0.03100000000000789 0.007999999999965705 0
591 0.03100000000000249 0.005999999999959765 0
592 0.03099999999999708 0.003999999999959444 0
593 0.03099999999999168 0.001999999999966106 0
594 0.03099999999998627 -2.734618087529839e-14 0
595 0.03099999999998087 -0.002000000000020863 0
596 0.03099999999997546 -0.004000000000014546 0
597 0.03099999999997007 -0.006000000000008058 0
598 0.03099999999996466 -0.008000000000004275 0
599 0.02700000000002686 0.01799999999999135 0
600 0.02700000000002281 0.01599999999998549 0
601 0.02700000000001876 0.01399999999998081 0
602 0.02700000000001472 0.01199999999997623 0
603 0.02700000000001067 0.009999999999970281 0
604 0.02700000000000662 0.007999999999965706 0
605 0.02700000000000258 0.005999999999959763 0
606 0.02699999999999853 0.003999999999959444 0
607 0.02699999999999448 0.001999999999966105 0
608 0.02699999999999042 -2.734661455616738e-14 0
609 0.02699999999998639 -0.002000000000020861 0
610 0.02699999999998233 -0.004000000000014546 0
611 0.02699999999997828 -0.006000000000008058 0
612 0.02699999999997423 -0.008000000000004275 0
613 0.02300000000001759 0.01799999999999135 0
614 0.02300000000001513 0.01599999999998549 0
615 0.02300000000001266 0.01399999999998081 0
616 0.02300000000001019 0.01199999999997623 0
617 0.02300000000000773 0.009999999999970281 0
618 0.02300000000000526 0.007999999999965706 0
619 0.02300000000000279 0.005999999999959765 0
620 0.02300000000000032 0.003999999999959444 0
621 0.02299999999999785 0.001999999999966106 0
622 0.0229999999999954 -2.734661455616738e-14 0
623 0.02299999999999293 -0.002000000000020861 0
624 0.02299999999999046 -0.004000000000014546 0
625 0.022999999999988 -0.006000000000008058 0
626 0.02299999999998553 -0.008000000000004275 0
627 0.01900000000000866 0.01799999999999135 0
628 0.0190000000000073 0.01599999999998549 0
629 0.01900000000000593 0.01399999999998081 0
630 0.01900000000000455 0.01199999999997623 0
631 0.01900000000000319 0.009999999999970284 0
632 0.01900000000000183 0.007999999999965705 0
633 0.01900000000000045 0.005999999999959764 0
634 0.01899999999999909 0.003999999999959442 0
635 0.01899999999999772 0.001999999999966107 0
636 0.01899999999999635 -2.734639771573288e-14 0
637 0.01899999999999499 -0.002000000000020861 0
638 0.01899999999999362 -0.004000000000014546 0
639 0.01899999999999225 -0.006000000000008057 0
640 0.01899999999999089 -0.008000000000004275 0
$EndNodes
$Elements
693
1 1 2 3 1 1 9
2 1 2 3 1 9 10
3 1 2 3 1 10 11
4 1 2 3 1 11 12
5 1 2 3 1 12 13
6 1 2 3 1 13 14
7 1 2 3 1 14 15
8 1 2 3 1 15 16
9 1 2 3 1 16 17
10 1 2 3 1 17 18
11 1 2 3 1 18 19
12 1 2 3 1 19 20
13 1 2 3 1 20 21
14 1 2 3 1 21 22
15 1 2 3 1 22 2
16 1 2 1 2 2 23
17 1 2 1 2 23 24
18 1 2 1 2 24 25
19 1 2 1 2 25 26
20 1 2 1 2 26 27
21 1 2 1 2 27 28
22 1 2 1 2 28 29
23 1 2 1 2 29 30
24 1 2 1 2 30 3
25 1 2 3 3 3 31
26 1 2 3 3 31 32
27 1 2 3 3 32 33
28 1 2 3 3 33 34
29 1 2 3 3 34 35
30 1 2 3 3 35 36
31 1 2 3 3 36 37
32 1 2 3 3 37 38
33 1 2 3 3 38 39
34 1 2 3 3 39 40
35 1 2 3 3 40 41
36 1 2 3 3 41 42
37 1 2 3 3 42 43
38 1 2 3 3 43 44
39 1 2 3 3 44 4
40 1 2 4 4 4 45
41 1 2 4 4 45 46
42 1 2 4 4 46 47
43 1 2 4 4 47 48
44 1 2 4 4 48 49
45 1 2 4 4 49 50
46 1 2 4 4 50 51
47 1 2 4 4 51 52
48 1 2 4 4 52 53
49 1 2 4 4 53 54
50 1 2 4 4 54 55
51 1 2 4 4 55 56
52 1 2 4 4 56 57
53 1 2 4 4 57 58
54 1 2 4 4 58 5
55 1 2 3 5 5 59
56 1 2 3 5 59 60
57 1 2 3 5 60 61
58 1 2 3 5 61 62
59 1 2 3 5 62 63
60 1 2 3 5 63 64
61 1 2 3 5 64 65
62 1 2 3 5 65 66
63 1 2 3 5 66 67
64 1 2 3 5 67 68
65 1 2 3 5 68 69
66 1 2 3 5 69 70
67 1 2 3 5 70 71
68 1 2 3 5 71 72
69 1 2 3 5 72 6
70 1 2 2 6 6 73
71 1 2 2 6 73 74
72 1 2 2 6 74 75
73 1 2 2 6 75 76
74 1 2 2 6 76 77
75 1 2 2 6 77 78
76 1 2 2 6 78 79
77 1 2 2 6 79 80
78 1 2 2 6 80 7
79 1 2 3 7 7 81
80 1 2 3 7 81 82
81 1 2 3 7 82 83
82 1 2 3 7 83 84
83 1 2 3 7 84 85
84 1 2 3 7 85 86
85 1 2 3 7 86 87
86 1 2 3 7 87 88
87 1 2 3 7 88 89
88 1 2 3 7 89 90
89 1 2 3 7 90 91
90 1 2 3 7 91 92
91 1 2 3 7 92 93
92 1 2 3 7 93 94
93 1 2 3 7 94 8
94 1 2 4 8 8 95
95 1 2 4 8 95 96
96 1 2 4 8 96 97
97 1 2 4 8 97 98
98 1 2 4 8 98 99
99 1 2 4 8 99 100
100 1 2 4 8 100 101
101 1 2 4 8 101 102
102 1 2 4 8 102 103
103 1 2 4 8 103 104
104 1 2 4 8 104 105
105 1 2 4 8 105 106
106 1 2 4 8 106 107
107 1 2 4 8 107 108
108 1 2 4 8 108 1
109 3 2 5 51 7 81 137 122
110 3 2 5 51 122 137 138 121
111 3 2 5 51 121 138 139 120
112 3 2 5 51 120 139 140 119
113 3 2 5 51 119 140 141 118
114 3 2 5 51 118 141 142 117
115 3 2 5 51 117 142 143 116
116 3 2 5 51 116 143 144 115
117 3 2 5 51 115 144 145 114
118 3 2 5 51 114 145 146 113
119 3 2 5 51 113 146 147 112
120 3 2 5 51 112 147 148 111
121 3 2 5 51 111 148 149 110
122 3 2 5 51 110 149 150 109
123 3 2 5 51 109 150 22 2
124 3 2 5 51 81 82 151 137
125 3 2 5 51 137 151 152 138
126 3 2 5 51 138 152 153 139
127 3 2 5 51 139 153 154 140
128 3 2 5 51 140 154 155 141
129 3 2 5 51 141 155 156 142
130 3 2 5 51 142 156 157 143
131 3 2 5 51 143 157 158 144
132 3 2 5 51 144 158 159 145
133 3 2 5 51 145 159 160 146
134 3 2 5 51 146 160 161 147
135 3 2 5 51 147 161 162 148
136 3 2 5 51 148 162 163 149
137 3 2 5 51 149 163 164 150
138 3 2 5 51 150 164 21 22
139 3 2 5 51 82 83 165 151
140 3 2 5 51 151 165 166 152
141 3 2 5 51 152 166 167 153
142 3 2 5 51 153 167 168 154
143 3 2 5 51 154 168 169 155
144 3 2 5 51 155 169 170 156
145 3 2 5 51 156 170 171 157
146 3 2 5 51 157 171 172 158
147 3 2 5 51 158 172 173 159
148 3 2 5 51 159 173 174 160
149 3 2 5 51 160 174 175 161
150 3 2 5 51 161 175 176 162
151 3 2 5 51 162 176 177 163
152 3 2 5 51 163 177 178 164
153 3 2 5 51 164 178 20 21
154 3 2 5 51 83 84 179 165
155 3 2 5 51 165 179 180 166
156 3 2 5 51 166 180 181 167
157 3 2 5 51 167 181 182 168
158 3 2 5 51 168 182 183 169
159 3 2 5 51 169 183 184 170
160 3 2 5 51 170 184 185 171
161 3 2 5 51 171 185 186 172
162 3 2 5 51 172 186 187 173
163 3 2 5 51 173 187 188 174
164 3 2 5 51 174 188 189 175
165 3 2 5 51 175 189 190 176
166 3 2 5 51 176 190 191 177
167 3 2 5 51 177 191 192 178
168 3 2 5 51 178 192 19 20
169 3 2 5 51 84 85 193 179
170 3 2 5 51 179 193 194 180
171 3 2 5 51 180 194 195 181
172 3 2 5 51 181 195 196 182
173 3 2 5 51 182 196 197 183
174 3 2 5 51 183 197 198 184
175 3 2 5 51 184 198 199 185
176 3 2 5 51 185 199 200 186
177 3 2 5 51 186 200 201 187
178 3 2 5 51 187 201 202 188
179 3 2 5 51 188 202 203 189
180 3 2 5 51 189 203 204 190
181 3 2 5 51 190 204 205 191
182 3 2 5 51 191 205 206 192
183 3 2 5 51 192 206 18 19
184 3 2 5 51 85 86 207 193
185 3 2 5 51 193 207 208 194
186 3 2 5 51 194 208 209 195
187 3 2 5 51 195 209 210 196
188 3 2 5 51 196 210 211 197
189 3 2 5 51 197 211 212 198
190 3 2 5 51 198 212 213 199
191 3 2 5 51 199 213 214 200
192 3 2 5 51 200 214 215 201
193 3 2 5 51 201 215 216 202
194 3 2 5 51 202 216 217 203
195 3 2 5 51 203 217 218 204
196 3 2 5 51 204 218 219 205
197 3 2 5 51 205 219 220 206
198 3 2 5 51 206 220 17 18
199 3 2 5 51 86 87 221 207
200 3 2 5 51 207 221 222 208
201 3 2 5 51 208 222 223 209
202 3 2 5 51 209 223 224 210
203 3 2 5 51 210 224 225 211
204 3 2 5 51 211 225 226 212
205 3 2 5 51 212 226 227 213
206 3 2 5 51 213 227 228 214
207 3 2 5 51 214 228 229 215
208 3 2 5 51 215 229 230 216
209 3 2 5 51 216 230 231 217
210 3 2 5 51 217 231 232 218
211 3 2 5 51 218 232 233 219
212 3 2 5 51 219 233 234 220
213 3 2 5 51 220 234 16 17
214 3 2 5 51 87 88 235 221
215 3 2 5 51 221 235 236 222
216 3 2 5 51 222 236 237 223
217 3 2 5 51 223 237 238 224
218 3 2 5 51 224 238 239 225
219 3 2 5 51 225 239 240 226
220 3 2 5 51 226 240 241 227
221 3 2 5 51 227 241 242 228
222 3 2 5 51 228 242 243 229
223 3 2 5 51 229 243 244 230
224 3 2 5 51 230 244 245 231
225 3 2 5 51 231 245 246 232
226 3 2 5 51 232 246 247 233
227 3 2 5 51 233 247 248 234
228 3 2 5 51 234 248 15 16
229 3 2 5 51 88 89 249 235
230 3 2 5 51 235 249 250 236
231 3 2 5 51 236 250 251 237
232 3 2 5 51 237 251 252 238
233 3 2 5 51 238 252 253 239
234 3 2 5 51 239 253 254 240
235 3 2 5 51 240 254 255 241
236 3 2 5 51 241 255 256 242
237 3 2 5 51 242 256 257 243
238 3 2 5 51 243 257 258 244
239 3 2 5 51 244 258 259 245
240 3 2 5 51 245 259 260 246
241 3 2 5 51 246 260 261 247
242 3 2 5 51 247 261 262 248
243 3 2 5 51 248 262 14 15
244 3 2 5 51 89 90 263 249
245 3 2 5 51 249 263 264 250
246 3 2 5 51 250 264 265 251
247 3 2 5 51 251 265 266 252
248 3 2 5 51 252 266 267 253
249 3 2 5 51 253 267 268 254
250 3 2 5 51 254 268 269 255
251 3 2 5 51 255 269 270 256
252 3 2 5 51 256 270 271 257
253 3 2 5 51 257 271 272 258
254 3 2 5 51 258 272 273 259
255 3 2 5 51 259 273 274 260
256 3 2 5 51 260 274 275 261
257 3 2 5 51 261 275 276 262
258 3 2 5 51 262 276 13 14
259 3 2 5 51 90 91 277 263
260 3 2 5 51 263 277 278 264
261 3 2 5 51 264 278 279 265
262 3 2 5 51 265 279 280 266
263 3 2 5 51 266 280 281 267
264 3 2 5 51 267 281 282 268
265 3 2 5 51 268 282 283 269
266 3 2 5 51 269 283 284 270
267 3 2 5 51 270 284 285 271
268 3 2 5 51 271 285 286 272
269 3 2 5 51 272 286 287 273
270 3 2 5 51 273 287 288 274
271 3 2 5 51 274 288 289 275
272 3 2 5 51 275 289 290 276
273 3 2 5 51 276 290 12 13
274 3 2 5 51 91 92 291 277
275 3 2 5 51 277 291 292 278
276 3 2 5 51 278 292 293 279
277 3 2 5 51 279 293 294 280
278 3 2 5 51 280 294 295 281
279 3 2 5 51 281 295 296 282
280 3 2 5 51 282 296 297 283
281 3 2 5 51 283 297 298 284
282 3 2 5 51 284 298 299 285
283 3 2 5 51 285 299 300 286
284 3 2 5 51 286 300 301 287
285 3 2 5 51 287 301 302 288
286 3 2 5 51 288 302 303 289
287 3 2 5 51 289 303 304 290
288 3 2 5 51 290 304 11 12
289 3 2 5 51 92 93 305 291
290 3 2 5 51 291 305 306 292
291 3 2 5 51 292 306 307 293
292 3 2 5 51 293 307 308 294
293 3 2 5 51 294 308 309 295
294 3 2 5 51 295 309 310 296
295 3 2 5 51 296 310 311 297
296 3 2 5 51 297 311 312 298
297 3 2 5 51 298 312 313 299
298 3 2 5 51 299 313 314 300
299 3 2 5 51 300 314 315 301
300 3 2 5 51 301 315 316 302
301 3 2 5 51 302 316 317 303
302 3 2 5 51 303 317 318 304
303 3 2 5 51 304 318 10 11
304 3 2 5 51 93 94 319 305
305 3 2 5 51 305 319 320 306
306 3 2 5 51 306 320 321 307
307 3 2 5 51 307 321 322 308
308 3 2 5 51 308 322 323 309
309 3 2 5 51 309 323 324 310
310 3 2 5 51 310 324 325 311
311 3 2 5 51 311 325 326 312
312 3 2 5 51 312 326 327 313
313 3 2 5 51 313 327 328 314
314 3 2 5 51 314 328 329 315
315 3 2 5 51 315 329 330 316
316 3 2 5 51 316 330 331 317
317 3 2 5 51 317 331 332 318
318 3 2 5 51 318 332 9 10
319 3 2 5 51 94 8 95 319
320 3 2 5 51 319 95 96 320
321 3 2 5 51 320 96 97 321
322 3 2 5 51 321 97 98 322
323 3 2 5 51 322 98 99 323
324 3 2 5 51 323 99 100 324
325 3 2 5 51 324 100 101 325
326 3 2 5 51 325 101 102 326
327 3 2 5 51 326 102 103 327
328 3 2 5 51 327 103 104 328
329 3 2 5 51 328 104 105 329
330 3 2 5 51 329 105 106 330
331 3 2 5 51 330 106 107 331
332 3 2 5 51 331 107 108 332
333 3 2 5 51 332 108 1 9
334 3 2 5 52 6 73 333 136
335 3 2 5 52 136 333 334 135
336 3 2 5 52 135 334 335 134
337 3 2 5 52 134 335 336 133
338 3 2 5 52 133 336 337 132
339 3 2 5 52 132 337 338 131
340 3 2 5 52 131 338 339 130
341 3 2 5 52 130 339 340 129
342 3 2 5 52 129 340 341 128
343 3 2 5 52 128 341 342 127
344 3 2 5 52 127 342 343 126
345 3 2 5 52 126 343 344 125
346 3 2 5 52 125 344 345 124
347 3 2 5 52 124 345 346 123
348 3 2 5 52 123 346 30 3
349 3 2 5 52 73 74 347 333
350 3 2 5 52 333 347 348 334
351 3 2 5 52 334 348 349 335
352 3 2 5 52 335 349 350 336
353 3 2 5 52 336 350 351 337
354 3 2 5 52 337 351 352 338
355 3 2 5 52 338 352 353 339
356 3 2 5 52 339 353 354 340
357 3 2 5 52 340 354 355 341
358 3 2 5 52 341 355 356 342
359 3 2 5 52 342 356 357 343
360 3 2 5 52 343 357 358 344
361 3 2 5 52 344 358 359 345
362 3 2 5 52 345 359 360 346
363 3 2 5 52 346 360 29 30
364 3 2 5 52 74 75 361 347
365 3 2 5 52 347 361 362 348
366 3 2 5 52 348 362 363 349
367 3 2 5 52 349 363 364 350
368 3 2 5 52 350 364 365 351
369 3 2 5 52 351 365 366 352
370 3 2 5 52 352 366 367 353
371 3 2 5 52 353 367 368 354
372 3 2 5 52 354 368 369 355
373 3 2 5 52 355 369 370 356
374 3 2 5 52 356 370 371 357
375 3 2 5 52 357 371 372 358
376 3 2 5 52 358 372 373 359
377 3 2 5 52 359 373 374 360
378 3 2 5 52 360 374 28 29
379 3 2 5 52 75 76 375 361
380 3 2 5 52 361 375 376 362
381 3 2 5 52 362 376 377 363
382 3 2 5 52 363 377 378 364
383 3 2 5 52 364 378 379 365
384 3 2 5 52 365 379 380 366
385 3 2 5 52 366 380 381 367
386 3 2 5 52 367 381 382 368
387 3 2 5 52 368 382 383 369
388 3 2 5 52 369 383 384 370
389 3 2 5 52 370 384 385 371
390 3 2 5 52 371 385 386 372
391 3 2 5 52 372 386 387 373
392 3 2 5 52 373 387 388 374
393 3 2 5 52 374 388 27 28
394 3 2 5 52 76 77 389 375
395 3 2 5 52 375 389 390 376
396 3 2 5 52 376 390 391 377
397 3 2 5 52 377 391 392 378
398 3 2 5 52 378 392 393 379
399 3 2 5 52 379 393 394 380
400 3 2 5 52 380 394 395 381
401 3 2 5 52 381 395 396 382
402 3 2 5 52 382 396 397 383
403 3 2 5 52 383 397 398 384
404 3 2 5 52 384 398 399 385
405 3 2 5 52 385 399 400 386
406 3 2 5 52 386 400 401 387
407 3 2 5 52 387 401 402 388
408 3 2 5 52 388 402 26 27
409 3 2 5 52 77 78 403 389
410 3 2 5 52 389 403 404 390
411 3 2 5 52 390 404 405 391
412 3 2 5 52 391 405 406 392
413 3 2 5 52 392 406 407 393
414 3 2 5 52 393 407 408 394
415 3 2 5 52 394 408 409 395
416 3 2 5 52 395 409 410 396
417 3 2 5 52 396 410 411 397
418 3 2 5 52 397 411 412 398
419 3 2 5 52 398 412 413 399
420 3 2 5 52 399 413 414 400
421 3 2 5 52 400 414 415 401
422 3 2 5 52 401 415 416 402
423 3 2 5 52 402 416 25 26
424 3 2 5 52 78 79 417 403
425 3 2 5 52 403 417 418 404
426 3 2 5 52 404 418 419 405
427 3 2 5 52 405 419 420 406
428 3 2 5 52 406 420 421 407
429 3 2 5 52 407 421 422 408
430 3 2 5 52 408 422 423 409
431 3 2 5 52 409 423 424 410
432 3 2 5 52 410 424 425 411
433 3 2 5 52 411 425 426 412
434 3 2 5 52 412 426 427 413
435 3 2 5 52 413 427 428 414
436 3 2 5 52 414 428 429 415
437 3 2 5 52 415 429 430 416
438 3 2 5 52 416 430 24 25
439 3 2 5 52 79 80 431 417
440 3 2 5 52 417 431 432 418
441 3 2 5 52 418 432 433 419
442 3 2 5 52 419 433 434 420
443 3 2 5 52 420 434 435 421
444 3 2 5 52 421 435 436 422
445 3 2 5 52 422 436 437 423
446 3 2 5 52 423 437 438 424
447 3 2 5 52 424 438 439 425
448 3 2 5 52 425 439 440 426
449 3 2 5 52 426 440 441 427
450 3 2 5 52 427 441 442 428
451 3 2 5 52 428 442 443 429
452 3 2 5 52 429 443 444 430
453 3 2 5 52 430 444 23 24
454 3 2 5 52 80 7 122 431
455 3 2 5 52 431 122 121 432
456 3 2 5 52 432 121 120 433
457 3 2 5 52 433 120 119 434
458 3 2 5 52 434 119 118 435
459 3 2 5 52 435 118 117 436
460 3 2 5 52 436 117 116 437
461 3 2 5 52 437 116 115 438
462 3 2 5 52 438 115 114 439
463 3 2 5 52 439 114 113 440
464 3 2 5 52 440 113 112 441
465 3 2 5 52 441 112 111 442
466 3 2 5 52 442 111 110 443
467 3 2 5 52 443 110 109 444
468 3 2 5 52 444 109 2 23
469 3 2 5 53 5 59 445 58
470 3 2 5 53 58 445 446 57
471 3 2 5 53 57 446 447 56
472 3 2 5 53 56 447 448 55
473 3 2 5 53 55 448 449 54
474 3 2 5 53 54 449 450 53
475 3 2 5 53 53 450 451 52
476 3 2 5 53 52 451 452 51
477 3 2 5 53 51 452 453 50
478 3 2 5 53 50 453 454 49
479 3 2 5 53 49 454 455 48
480 3 2 5 53 48 455 456 47
481 3 2 5 53 47 456 457 46
482 3 2 5 53 46 457 458 45
483 3 2 5 53 45 458 44 4
484 3 2 5 53 59 60 459 445
485 3 2 5 53 445 459 460 446
486 3 2 5 53 446 460 461 447
487 3 2 5 53 447 461 462 448
488 3 2 5 53 448 462 463 449
489 3 2 5 53 449 463 464 450
490 3 2 5 53 450 464 465 451
491 3 2 5 53 451 465 466 452
492 3 2 5 53 452 466 467 453
493 3 2 5 53 453 467 468 454
494 3 2 5 53 454 468 469 455
495 3 2 5 53 455 469 470 456
496 3 2 5 53 456 470 471 457
497 3 2 5 53 457 471 472 458
498 3 2 5 53 458 472 43 44
499 3 2 5 53 60 61 473 459
500 3 2 5 53 459 473 474 460
501 3 2 5 53 460 474 475 461
502 3 2 5 53 461 475 476 462
503 3 2 5 53 462 476 477 463
504 3 2 5 53 463 477 478 464
505 3 2 5 53 464 478 479 465
506 3 2 5 53 465 479 480 466
507 3 2 5 53 466 480 481 467
508 3 2 5 53 467 481 482 468
509 3 2 5 53 468 482 483 469
510 3 2 5 53 469 483 484 470
511 3 2 5 53 470 484 485 471
512 3 2 5 53 471 485 486 472
513 3 2 5 53 472 486 42 43
514 3 2 5 53 61 62 487 473
515 3 2 5 53 473 487 488 474
516 3 2 5 53 474 488 489 475
517 3 2 5 53 475 489 490 476
518 3 2 5 53 476 490 491 477
519 3 2 5 53 477 491 492 478
520 3 2 5 53 478 492 493 479
521 3 2 5 53 479 493 494 480
522 3 2 5 53 480 494 495 481
523 3 2 5 53 481 495 496 482
524 3 2 5 53 482 496 497 483
525 3 2 5 53 483 497 498 484
526 3 2 5 53 484 498 499 485
527 3 2 5 53 485 499 500 486
528 3 2 5 53 486 500 41 42
529 3 2 5 53 62 63 501 487
530 3 2 5 53 487 501 502 488
531 3 2 5 53 488 502 503 489
532 3 2 5 53 489 503 504 490
533 3 2 5 53 490 504 505 491
534 3 2 5 53 491 505 506 492
535 3 2 5 53 492 506 507 493
536 3 2 5 53 493 507 508 494
537 3 2 5 53 494 508 509 495
538 3 2 5 53 495 509 510 496
539 3 2 5 53 496 510 511 497
540 3 2 5 53 497 511 512 498
541 3 2 5 53 498 512 513 499
542 3 2 5 53 499 513 514 500
543 3 2 5 53 500 514 40 41
544 3 2 5 53 63 64 515 501
545 3 2 5 53 501 515 516 502
546 3 2 5 53 502 516 517 503
547 3 2 5 53 503 517 518 504
548 3 2 5 53 504 518 519 505
549 3 2 5 53 505 519 520 506
550 3 2 5 53 506 520 521 507
551 3 2 5 53 507 521 522 508
552 3 2 5 53 508 522 523 509
553 3 2 5 53 509 523 524 510
554 3 2 5 53 510 524 525 511
555 3 2 5 53 511 525 526 512
556 3 2 5 53 512 526 527 513
557 3 2 5 53 513 527 528 514
558 3 2 5 53 514 528 39 40
559 3 2 5 53 64 65 529 515
560 3 2 5 53 515 529 530 516
561 3 2 5 53 516 530 531 517
562 3 2 5 53 517 531 532 518
563 3 2 5 53 518 532 533 519
564 3 2 5 53 519 533 534 520
565 3 2 5 53 520 534 535 521
566 3 2 5 53 521 535 536 522
567 3 2 5 53 522 536 537 523
568 3 2 5 53 523 537 538 524
569 3 2 5 53 524 538 539 525
570 3 2 5 53 525 539 540 526
571 3 2 5 53 526 540 541 527
572 3 2 5 53 527 541 542 528
573 3 2 5 53 528 542 38 39
574 3 2 5 53 65 66 543 529
575 3 2 5 53 529 543 544 530
576 3 2 5 53 530 544 545 531
577 3 2 5 53 531 545 546 532
578 3 2 5 53 532 546 547 533
579 3 2 5 53 533 547 548 534
580 3 2 5 53 534 548 549 535
581 3 2 5 53 535 549 550 536
582 3 2 5 53 536 550 551 537
583 3 2 5 53 537 551 552 538
584 3 2 5 53 538 552 553 539
585 3 2 5 53 539 553 554 540
586 3 2 5 53 540 554 555 541
587 3 2 5 53 541 555 556 542
588 3 2 5 53 542 556 37 38
589 3 2 5 53 66 67 557 543
590 3 2 5 53 543 557 558 544
591 3 2 5 53 544 558 559 545
592 3 2 5 53 545 559 560 546
593 3 2 5 53 546 560 561 547
594 3 2 5 53 547 561 562 548
595 3 2 5 53 548 562 563 549
596 3 2 5 53 549 563 564 550
597 3 2 5 53 550 564 565 551
598 3 2 5 53 551 565 566 552
599 3 2 5 53 552 566 567 553
600 3 2 5 53 553 567 568 554
601 3 2 5 53 554 568 569 555
602 3 2 5 53 555 569 570 556
603 3 2 5 53 556 570 36 37
604 3 2 5 53 67 68 571 557
605 3 2 5 53 557 571 572 558
606 3 2 5 53 558 572 573 559
607 3 2 5 53 559 573 574 560
608 3 2 5 53 560 574 575 561
609 3 2 5 53 561 575 576 562
610 3 2 5 53 562 576 577 563
611 3 2 5 53 563 577 578 564
612 3 2 5 53 564 578 579 565
613 3 2 5 53 565 579 580 566
614 3 2 5 53 566 580 581 567
615 3 2 5 53 567 581 582 568
616 3 2 5 53 568 582 583 569
617 3 2 5 53 569 583 584 570
618 3 2 5 53 570 584 35 36
619 3 2 5 53 68 69 585 571
620 3 2 5 53 571 585 586 572
621 3 2 5 53 572 586 587 573
622 3 2 5 53 573 587 588 574
623 3 2 5 53 574 588 589 575
624 3 2 5 53 575 589 590 576
625 3 2 5 53 576 590 591 577
626 3 2 5 53 577 591 592 578
627 3 2 5 53 578 592 593 579
628 3 2 5 53 579 593 594 580
629 3 2 5 53 580 594 595 581
630 3 2 5 53 581 595 596 582
631 3 2 5 53 582 596 597 583
632 3 2 5 53 583 597 598 584
633 3 2 5 53 584 598 34 35
634 3 2 5 53 69 70 599 585
635 3 2 5 53 585 599 600 586
636 3 2 5 53 586 600 601 587
637 3 2 5 53 587 601 602 588
638 3 2 5 53 588 602 603 589
639 3 2 5 53 589 603 604 590
640 3 2 5 53 590 604 605 591
641 3 2 5 53 591 605 606 592
642 3 2 5 53 592 606 607 593
643 3 2 5 53 593 607 608 594
644 3 2 5 53 594 608 609 595
645 3 2 5 53 595 609 610 596
646 3 2 5 53 596 610 611 597
647 3 2 5 53 597 611 612 598
648 3 2 5 53 598 612 33 34
649 3 2 5 53 70 71 613 599
650 3 2 5 53 599 613 614 600
651 3 2 5 53 600 614 615 601
652 3 2 5 53 601 615 616 602
653 3 2 5 53 602 616 617 603
654 3 2 5 53 603 617 618 604
655 3 2 5 53 604 618 619 605
656 3 2 5 53 605 619 620 606
657 3 2 5 53 606 620 621 607
658 3 2 5 53 607 621 622 608
659 3 2 5 53 608 622 623 609
660 3 2 5 53 609 623 624 610
661 3 2 5 53 610 624 625 611
662 3 2 5 53 611 625 626 612
663 3 2 5 53 612 626 32 33
664 3 2 5 53 71 72 627 613
665 3 2 5 53 613 627 628 614
666 3 2 5 53 614 628 629 615
667 3 2 5 53 615 629 630 616
668 3 2 5 53 616 630 631 617
669 3 2 5 53 617 631 632 618
670 3 2 5 53 618 632 633 619
671 3 2 5 53 619 633 634 620
672 3 2 5 53 620 634 635 621
673 3 2 5 53 621 635 636 622
674 3 2 5 53 622 636 637 623
675 3 2 5 53 623 637 638 624
676 3 2 5 53 624 638 639 625
677 3 2 5 53 625 639 640 626
678 3 2 5 53 626 640 31 32
679 3 2 5 53 72 6 136 627
680 3 2 5 53 627 136 135 628
681 3 2 5 53 628 135 134 629
682 3 2 5 53 629 134 133 630
683 3 2 5 53 630 133 132 631
684 3 2 5 53 631 132 131 632
685 3 2 5 53 632 131 130 633
686 3 2 5 53 633 130 129 634
687 3 2 5 53 634 129 128 635
688 3 2 5 53 635 128 127 636
689 3 2 5 53 636 127 126 637
690 3 2 5 53 637 126 125 638
691 3 2 5 53 638 125 124 639
692 3 2 5 53 639 124 123 640
693 3 2 5 53 640 123 3 31
$EndElements
