2.98150000E+002
2.98150000E+002
2.98150000E+002
2.98150000E+002
2.98150000E+002
2.98150000E+002
2.98150000E+002
2.98150000E+002
2.98150000E+002
2.98150000E+002
2.98150000E+002
2.98150000E+002
2.98150000E+002
2.98150000E+002
2.98150000E+002
2.98150000E+002
2.98150000E+002
2.98150000E+002
2.98150000E+002
2.98150000E+002
2.98150000E+002
2.98150000E+002
2.98150000E+002
2.98150000E+002
2.98150000E+002
2.98150000E+002
2.98150000E+002
2.98150000E+002
2.98150000E+002
2.98150000E+002
2.98150000E+002
2.98150000E+002
2.98150000E+002
2.98150000E+002
2.98150000E+002
2.98150000E+002
2.98150000E+002
2.98150000E+002
2.98150000E+002
2.98150000E+002
2.98150000E+002
2.98150000E+002
2.98150000E+002
2.98150000E+002
2.98150000E+002
2.98150000E+002
2.98150000E+002
2.98150000E+002
2.98150000E+002
2.98150000E+002
