0.00000000E+000
0.00000000E+000
6.38871190E-012
-6.26526750E-008
1.26562730E-011
2.43049990E-007
1.89217640E-011
5.50507000E-007
2.50863660E-011
8.55468570E-007
3.11502420E-011
1.16677510E-006
3.71065530E-011
1.47239070E-006
4.29495480E-011
1.78105860E-006
4.86743270E-011
2.08727240E-006
5.42767990E-011
2.39421150E-006
5.97535850E-011
2.70036010E-006
6.51019590E-011
3.00735160E-006
7.03197920E-011
3.31414590E-006
7.54055050E-011
3.62097830E-006
8.03580270E-011
3.92758070E-006
8.51767590E-011
4.23405570E-006
8.98615320E-011
4.54030890E-006
9.44125680E-011
4.84636280E-006
9.88304570E-011
5.15221100E-006
1.03116110E-010
5.45787630E-006
1.07270750E-010
5.76336440E-006
1.11295840E-010
6.06868340E-006
1.15193110E-010
6.37385160E-006
1.18964480E-010
6.67887550E-006
1.22612070E-010
6.98376190E-006
1.26138160E-010
7.28852670E-006
1.29545160E-010
7.59317900E-006
1.32835600E-010
7.89771780E-006
1.36012110E-010
8.20215780E-006
1.39077400E-010
8.50650710E-006
1.42034250E-010
8.81076170E-006
1.44885470E-010
9.11493320E-006
1.47633910E-010
9.41903080E-006
1.50282460E-010
9.72305300E-006
1.52833980E-010
1.00270020E-005
1.55291350E-010
1.03308830E-005
1.57657450E-010
1.06346980E-005
1.59935120E-010
1.09384520E-005
1.62127180E-010
1.12421460E-005
1.64236400E-010
1.15457840E-005
1.66265540E-010
1.18493670E-005
1.68217290E-010
1.21528960E-005
1.70094290E-010
1.24563710E-005
1.71899150E-010
1.27597980E-005
1.73634400E-010
1.30631750E-005
1.75302530E-010
1.33665040E-005
1.76905940E-010
1.36697870E-005
1.78447000E-010
1.39730230E-005
1.79927990E-010
1.42762130E-005
1.81351150E-010
1.45793600E-005
1.82718640E-010
1.48824620E-005
