 0.00000000E+000
 0.15185349E-004
 0.15185349E-004
 0.00000000E+000
 0.10799912E-009
 0.19766254E-009
 0.26068332E-009
 0.29678579E-009
 0.31338325E-009
 0.31969987E-009
 0.32171461E-009
 0.32228613E-009
 0.32242111E-009
 0.32245423E-009
 0.32245899E-009
 0.32246080E-009
 0.32246064E-009
 0.32246083E-009
 0.32246076E-009
 0.32246079E-009
 0.32246078E-009
 0.32246078E-009
 0.32246078E-009
 0.32246078E-009
 0.32246078E-009
 0.32246078E-009
 0.32246078E-009
 0.32246078E-009
 0.32246078E-009
 0.32246078E-009
 0.32246078E-009
 0.32246079E-009
 0.32246077E-009
 0.32246081E-009
 0.32246073E-009
 0.32246089E-009
 0.32246058E-009
 0.32246113E-009
 0.32246021E-009
 0.32246169E-009
 0.32245944E-009
 0.32246268E-009
 0.32245831E-009
 0.32246376E-009
 0.32245770E-009
 0.32246316E-009
 0.32246105E-009
 0.32245712E-009
 0.32252278E-009
 0.32386018E-009
 0.34964369E-009
 0.92113997E-009
 0.81302477E-008
 0.58480649E-007
 0.27259868E-006
 0.75822008E-006
 0.14702408E-005
 0.23884859E-005
 0.35279280E-005
 0.48901783E-005
 0.64503028E-005
 0.81399733E-005
 0.98427599E-005
 0.11412667E-004
 0.12715618E-004
 0.13675280E-004
 0.14294897E-004
 0.14641217E-004
 0.14805006E-004
 0.14866157E-004
 0.14878929E-004
 0.14873555E-004
 0.14864159E-004
 0.14856076E-004
 0.14850571E-004
 0.14847340E-004
 0.14845643E-004
 0.14844811E-004
 0.14844419E-004
 0.14844242E-004
 0.14844165E-004
 0.14844132E-004
 0.14844119E-004
 0.14844114E-004
 0.14844112E-004
 0.14844111E-004
 0.14844111E-004
 0.14844111E-004
 0.14844111E-004
 0.14844111E-004
 0.14844111E-004
 0.14844111E-004
 0.14844111E-004
 0.14844111E-004
 0.14844113E-004
 0.14844120E-004
 0.14844150E-004
 0.14844263E-004
 0.14844682E-004
 0.14846205E-004
 0.14851649E-004
 0.14870998E-004
 0.14939779E-004
 0.14939779E-004
 0.14870998E-004
 0.14851649E-004
 0.14846205E-004
 0.14844682E-004
 0.14844263E-004
 0.14844150E-004
 0.14844120E-004
 0.14844113E-004
 0.14844111E-004
 0.14844111E-004
 0.14844111E-004
 0.14844111E-004
 0.14844111E-004
 0.14844111E-004
 0.14844111E-004
 0.14844111E-004
 0.14844111E-004
 0.14844112E-004
 0.14844114E-004
 0.14844119E-004
 0.14844132E-004
 0.14844165E-004
 0.14844242E-004
 0.14844419E-004
 0.14844811E-004
 0.14845643E-004
 0.14847340E-004
 0.14850571E-004
 0.14856076E-004
 0.14864159E-004
 0.14873555E-004
 0.14878929E-004
 0.14866157E-004
 0.14805006E-004
 0.14641217E-004
 0.14294897E-004
 0.13675280E-004
 0.12715618E-004
 0.11412667E-004
 0.98427599E-005
 0.81399733E-005
 0.64503027E-005
 0.48901781E-005
 0.35279252E-005
 0.23884809E-005
 0.14702197E-005
 0.75814063E-006
 0.27234315E-006
 0.58303563E-007
 0.82374372E-008
 0.88591030E-009
 0.35370807E-009
 0.32361172E-009
 0.32250525E-009
 0.32247051E-009
 0.32245443E-009
 0.32246570E-009
 0.32245672E-009
 0.32246411E-009
 0.32245819E-009
 0.32246272E-009
 0.32245942E-009
 0.32246169E-009
 0.32246021E-009
 0.32246113E-009
 0.32246058E-009
 0.32246089E-009
 0.32246073E-009
 0.32246081E-009
 0.32246077E-009
 0.32246079E-009
 0.32246078E-009
 0.32246078E-009
 0.32246078E-009
 0.32246078E-009
 0.32246078E-009
 0.32246078E-009
 0.32246078E-009
 0.32246078E-009
 0.32246078E-009
 0.32246078E-009
 0.32246078E-009
 0.32246079E-009
 0.32246076E-009
 0.32246083E-009
 0.32246064E-009
 0.32246080E-009
 0.32245899E-009
 0.32245423E-009
 0.32242111E-009
 0.32228613E-009
 0.32171461E-009
 0.31969987E-009
 0.31338325E-009
 0.29678579E-009
 0.26068332E-009
 0.19766254E-009
 0.10799912E-009
