{
    "authors": [
        "guillaume.houzeaux@bsc.es"
    ],
    "comparisons": [
        {
            "file": "nastin-dispm-null-flowrate.post.res",
            "method": "absolute",
            "tolerance": "1.0e-13"
        }
    ],
    "description": "Kernel displacement combined with flowrate condition test",
    "exclude": [
        "special"
    ],
    "executions": [
        {
            "mpi": 1,
            "openmp": 0
        },
        {
            "mpi": 3,
            "openmp": 0
        }
    ],
    "modules": [
        "nastin"
    ],
    "name": "nastin-dispm-null-flowrate",
    "postprocess": "alya2pos"
}
