 0.00000000E+000  0.00000000E+000  0.00000000E+000
 0.26914756E+000  0.27770808E+000  0.28195065E+000
 0.38287070E+000 -0.24066566E+000  0.25154252E+000
 0.00000000E+000  0.00000000E+000  0.00000000E+000
 0.00000000E+000  0.00000000E+000  0.00000000E+000
 0.39713815E+000  0.25387003E+000 -0.24425290E+000
 0.43192809E+000 -0.23437132E+000 -0.23475505E+000
 0.00000000E+000  0.00000000E+000  0.00000000E+000
 0.16921077E-001 -0.19713794E-002  0.19713794E-002
 0.15000753E-001  0.24757348E-002 -0.24757348E-002
 0.65571801E-001  0.10067913E-001 -0.10067913E-001
 0.14473785E+000  0.32301353E-002 -0.32301353E-002
-0.23546402E-001  0.40139125E-003 -0.40139125E-003
 0.33389181E+000 -0.49824677E-003  0.49824677E-003
-0.66653478E-001 -0.25903872E-002  0.25903872E-002
 0.42800961E+000 -0.37421508E-002  0.37421508E-002
 0.28205299E+000 -0.55277095E-002  0.55277095E-002
 0.38382614E+000  0.27685153E+000  0.12140549E+000
 0.43724275E+000 -0.21077292E+000  0.10784267E+000
 0.38592552E+000  0.69745642E-002  0.69745642E-002
 0.46245543E+000  0.70990930E-002  0.70990930E-002
-0.67607713E-001  0.25337626E-002  0.25337626E-002
 0.34115480E+000 -0.11701158E-002 -0.11701158E-002
-0.27961039E-001  0.42196423E-002  0.42196423E-002
 0.12166879E+000  0.57062525E-002  0.57062525E-002
 0.40531160E-001  0.77814971E-002  0.77814971E-002
-0.21235377E-001  0.21180344E-002  0.21180344E-002
 0.28611050E-002 -0.36688020E-002 -0.36688020E-002
 0.00000000E+000  0.00000000E+000  0.00000000E+000
 0.00000000E+000  0.00000000E+000  0.00000000E+000
 0.87954159E-002 -0.52681679E-002 -0.52681679E-002
 0.15544655E-001  0.24307548E-002  0.24307548E-002
 0.65560141E-001  0.87593660E-002  0.87593660E-002
 0.14239220E+000  0.61231291E-002  0.61231291E-002
-0.20743054E-001  0.28672329E-002  0.28672329E-002
 0.35202630E+000  0.13197518E-002  0.13197518E-002
-0.65231473E-001  0.89809647E-002  0.89809647E-002
 0.47374917E+000  0.62684653E-002  0.62684653E-002
 0.40969383E+000  0.52405731E-002  0.52405731E-002
 0.47562018E+000  0.22884071E+000 -0.10351238E+000
 0.48986206E+000 -0.20532310E+000 -0.10115192E+000
 0.42343157E+000  0.65168841E-003 -0.65168841E-003
 0.50686107E+000  0.62719833E-003 -0.62719833E-003
-0.58232913E-001  0.92704571E-003 -0.92704571E-003
 0.35251686E+000  0.16471854E-002 -0.16471854E-002
-0.28059864E-001  0.35969521E-002 -0.35969521E-002
 0.12722510E+000  0.15123378E-002 -0.15123378E-002
 0.48011493E-001  0.63967073E-002 -0.63967073E-002
 0.75034315E-002 -0.60150081E-004  0.60150081E-004
 0.65474323E-002 -0.42895000E-002  0.42895000E-002
 0.00000000E+000  0.00000000E+000  0.00000000E+000
 0.00000000E+000  0.00000000E+000  0.00000000E+000
 0.00000000E+000  0.00000000E+000  0.00000000E+000
 0.00000000E+000  0.00000000E+000  0.00000000E+000
 0.42443867E+000  0.10647902E+000  0.28267173E+000
 0.46969910E+000  0.10254010E+000 -0.19630403E+000
 0.48439244E+000 -0.92974286E-001  0.24475289E+000
 0.50419294E+000 -0.93665419E-001 -0.20067236E+000
 0.00000000E+000  0.00000000E+000  0.00000000E+000
 0.00000000E+000  0.00000000E+000  0.00000000E+000
 0.15436281E-001 -0.28810646E-001  0.10617512E-018
 0.12368683E-001 -0.20992460E-001 -0.17178797E-017
 0.20423561E-001 -0.56442115E-002 -0.58396757E-017
-0.15561535E-002  0.15349335E-002  0.79038990E-019
 0.55000468E-001  0.15168342E-001  0.36132326E-017
 0.43991512E-001  0.10803363E-001  0.00000000E+000
 0.12862972E+000  0.44472746E-002  0.26494342E-016
 0.12288897E+000  0.10795947E-001  0.12100029E-016
-0.18933115E-001  0.29202958E-002  0.40501000E-017
-0.32939095E-001  0.51402685E-002  0.23335337E-017
 0.32723819E+000 -0.10610992E-002  0.16850616E-016
 0.33462556E+000  0.11128023E-002  0.34232827E-016
-0.72296670E-001  0.18045662E-001 -0.93510427E-018
-0.61794284E-001  0.10997533E-001  0.11326013E-017
 0.40020865E+000 -0.45976837E-001  0.00000000E+000
 0.41769534E+000  0.63839357E-001  0.18221257E-016
 0.18272963E+000  0.51516101E-001 -0.67566346E-017
 0.23382808E+000  0.52541896E-002  0.24622332E-016
 0.91082395E-002 -0.16424941E-001 -0.17838055E-017
 0.85049266E-002 -0.10081423E-001 -0.43794783E-018
 0.17654558E-001 -0.59384532E-002  0.42479576E-017
 0.68666189E-002 -0.23759729E-002 -0.35358575E-018
 0.55964863E-001  0.92976983E-002  0.00000000E+000
 0.52731569E-001  0.13872054E-001  0.41439686E-017
 0.13694924E+000  0.21611899E-002  0.73858475E-017
 0.13304220E+000  0.88699540E-003  0.69878223E-017
-0.28957747E-001  0.49366090E-002 -0.25420292E-018
-0.34331030E-001  0.46333950E-002 -0.95435759E-018
 0.34593479E+000 -0.57521159E-002 -0.17517172E-016
 0.34992068E+000 -0.26529766E-002 -0.17608783E-016
-0.67999709E-001  0.81301310E-002 -0.64320763E-017
-0.67358781E-001  0.26034829E-002 -0.14276325E-016
 0.45848638E+000 -0.58748088E-001  0.85360722E-016
 0.47212701E+000  0.56515434E-001 -0.10888644E-015
 0.28903546E+000  0.31944410E-001 -0.16528354E-016
 0.29765423E+000 -0.35637294E-002  0.45614693E-016
 0.21896942E-001 -0.39083690E-017 -0.10209518E-001
 0.22263033E-001 -0.46321916E-017 -0.30160498E-003
 0.17898928E-001 -0.26836574E-017  0.52675999E-003
 0.16070843E-001 -0.24826284E-017  0.55780883E-002
 0.63077922E-001  0.64961970E-017 -0.30699886E-002
 0.60197841E-001  0.88235340E-017  0.46204504E-002
 0.14554797E+000 -0.22391545E-016  0.18011545E-002
 0.14020009E+000  0.16329731E-016  0.73444856E-002
-0.22603764E-001 -0.25068550E-017 -0.34754798E-002
-0.29395120E-001  0.34268025E-019 -0.66548347E-003
 0.33352051E+000  0.17174114E-016  0.11526063E-002
 0.33703956E+000 -0.17683874E-016  0.63804516E-002
-0.73892824E-001  0.10240370E-016  0.12770470E-001
-0.59333225E-001 -0.19303428E-017  0.10923028E-001
 0.42236812E+000  0.12349389E-016 -0.36508709E-001
 0.44344948E+000 -0.26398169E-016  0.69201741E-001
 0.21235712E+000 -0.15236495E-017  0.60486581E-001
 0.26825256E+000 -0.14894485E-016  0.69992157E-002
 0.59162820E+000  0.24947651E+000  0.26472623E+000
 0.62614696E+000  0.22895969E+000 -0.19104713E+000
 0.62218287E+000 -0.19976697E+000  0.24559967E+000
 0.64043425E+000 -0.19685797E+000 -0.19299654E+000
 0.28260472E+000  0.12294702E-016  0.43842177E-001
 0.30148009E+000  0.31297695E-016  0.53773295E-003
 0.45317706E+000  0.74870376E-016 -0.47224022E-001
 0.46974659E+000  0.21056150E-016  0.60837125E-001
-0.64131897E-001 -0.96269139E-017  0.97817382E-002
-0.63058271E-001  0.32558521E-017  0.17022641E-003
 0.33626790E+000 -0.34214939E-016 -0.13472098E-002
 0.34693778E+000  0.17380621E-016  0.13438459E-002
-0.33069538E-001 -0.63207851E-017  0.31762666E-002
-0.28241699E-001 -0.59946014E-018 -0.29103720E-002
 0.12035979E+000  0.00000000E+000 -0.21081019E-002
 0.12375859E+000  0.00000000E+000  0.12214358E-002
 0.37535661E-001 -0.39315460E-017 -0.63955972E-003
 0.39813138E-001 -0.10173379E-018 -0.98783281E-003
-0.97249061E-002  0.00000000E+000 -0.41919135E-002
 0.40171663E-002 -0.62057300E-018  0.59269487E-002
 0.52679474E-002  0.70126372E-018  0.10926666E-002
 0.65786880E-002 -0.84051571E-018  0.11450732E-001
 0.79012271E-001  0.00000000E+000  0.00000000E+000
 0.79012271E-001  0.00000000E+000  0.00000000E+000
 0.79012271E-001  0.00000000E+000  0.00000000E+000
 0.79012271E-001  0.00000000E+000  0.00000000E+000
 0.95890214E-001 -0.33179545E-001 -0.14318463E-001
 0.93015303E-001 -0.30560259E-001  0.96481746E-002
 0.92310489E-001 -0.11210968E-001 -0.10929628E-001
 0.91612653E-001 -0.65734406E-002  0.17269615E-001
 0.93703152E-001 -0.91633503E-002 -0.13701081E-002
 0.93076443E-001 -0.12236802E-001  0.91552654E-002
 0.75139147E-001  0.20705392E-002 -0.61498559E-002
 0.82558699E-001 -0.15258729E-002  0.83859541E-002
 0.11796043E+000  0.14862866E-001 -0.33378153E-002
 0.11494594E+000  0.97894414E-002  0.87012826E-003
 0.10863655E+000  0.13679611E-001 -0.48948831E-002
 0.10734674E+000  0.12523520E-001 -0.17053677E-002
 0.19801653E+000  0.47742601E-002  0.24518611E-002
 0.19457311E+000 -0.95206981E-004  0.74824537E-002
 0.18976834E+000  0.78601327E-002 -0.15413284E-002
 0.19710463E+000  0.39574446E-002  0.38103197E-002
 0.40674647E-001  0.40290749E-002 -0.33505987E-002
 0.31117276E-001  0.73000683E-002 -0.64109430E-003
 0.24990762E-001  0.55635347E-002  0.22608879E-002
 0.31439254E-001  0.83804812E-002 -0.17442320E-002
 0.39362608E+000 -0.63464039E-002 -0.23364178E-002
 0.40132222E+000 -0.14564328E-002  0.35750701E-002
 0.39017904E+000 -0.21165628E-002  0.90769737E-003
 0.40308248E+000  0.19941920E-002  0.55383538E-002
-0.16190322E-001  0.73527533E-002  0.11537293E-001
-0.40697593E-002  0.12213496E-001  0.78463735E-002
-0.46631807E-002  0.89364508E-002  0.68862190E-002
-0.58177910E-002  0.10399147E-001  0.94899261E-002
 0.46406192E+000 -0.54779661E-001 -0.42337692E-001
 0.48733348E+000 -0.58986975E-001  0.67540345E-001
 0.48320846E+000  0.62665164E-001 -0.50150808E-001
 0.50025434E+000  0.60291964E-001  0.65150046E-001
 0.15600553E+000  0.45181253E-001  0.60989072E-001
 0.20327236E+000  0.38123613E-001  0.35699101E-002
 0.19118772E+000 -0.12278898E-002  0.50064326E-001
 0.21905214E+000 -0.18823886E-002  0.15249489E-002
