 0.30249999E-002
 0.17016956E-001
 0.18182514E-001
 0.30249999E-002
 0.30249999E-002
 0.18432405E-001
 0.19219075E-001
 0.30249999E-002
 0.78787931E-002
 0.14777814E-001
 0.23519456E-001
 0.32418239E-001
 0.39844463E-001
 0.41715144E-001
 0.39307621E-001
 0.34085066E-001
 0.24936030E-001
 0.17085300E-001
 0.17736142E-001
 0.25578153E-001
 0.33793557E-001
 0.39261535E-001
 0.41787346E-001
 0.40425103E-001
 0.32929403E-001
 0.23505679E-001
 0.14800878E-001
 0.79534700E-002
 0.30249999E-002
 0.30249999E-002
 0.80184548E-002
 0.14871229E-001
 0.23528992E-001
 0.32956962E-001
 0.40458907E-001
 0.42093825E-001
 0.39254253E-001
 0.33584780E-001
 0.25659587E-001
 0.18437569E-001
 0.18803290E-001
 0.26478322E-001
 0.33875321E-001
 0.38852204E-001
 0.41708774E-001
 0.40516921E-001
 0.33251742E-001
 0.23463015E-001
 0.14887413E-001
 0.80853612E-002
 0.30249999E-002
 0.30249999E-002
 0.30249999E-002
 0.30249999E-002
 0.17345066E-001
 0.18084505E-001
 0.18307447E-001
 0.18813189E-001
 0.30249999E-002
 0.30249999E-002
 0.76985674E-002
 0.77268064E-002
 0.14667603E-001
 0.14695080E-001
 0.23335196E-001
 0.23315262E-001
 0.32349889E-001
 0.32588814E-001
 0.39899867E-001
 0.40174139E-001
 0.41774920E-001
 0.41787059E-001
 0.39382304E-001
 0.39374818E-001
 0.33774461E-001
 0.33688254E-001
 0.24364782E-001
 0.24709385E-001
 0.78374525E-002
 0.78710088E-002
 0.14739775E-001
 0.14765930E-001
 0.23318150E-001
 0.23282135E-001
 0.32796771E-001
 0.32873048E-001
 0.40457081E-001
 0.40439972E-001
 0.42122893E-001
 0.41890664E-001
 0.39337999E-001
 0.39098500E-001
 0.33509606E-001
 0.33641163E-001
 0.25222759E-001
 0.25585390E-001
 0.76675384E-002
 0.77312934E-002
 0.14584730E-001
 0.14625644E-001
 0.23313671E-001
 0.23327287E-001
 0.32372964E-001
 0.32666427E-001
 0.39870315E-001
 0.40160362E-001
 0.41752440E-001
 0.41937280E-001
 0.39404898E-001
 0.39404885E-001
 0.33878105E-001
 0.33695997E-001
 0.24626765E-001
 0.24931361E-001
 0.17329308E-001
 0.17974670E-001
 0.17817304E-001
 0.18322385E-001
 0.25207094E-001
 0.25605946E-001
 0.33739630E-001
 0.33724532E-001
 0.39368643E-001
 0.39080387E-001
 0.41881652E-001
 0.41774826E-001
 0.40333877E-001
 0.40295467E-001
 0.32642503E-001
 0.32772003E-001
 0.23205804E-001
 0.23195539E-001
 0.14608306E-001
 0.14644843E-001
 0.77509630E-002
 0.78173287E-002
 0.30249999E-002
 0.30249999E-002
 0.30249999E-002
 0.30249999E-002
 0.71575907E-002
 0.72174413E-002
 0.71934009E-002
 0.72556345E-002
 0.14275897E-001
 0.14299711E-001
 0.14304367E-001
 0.14325509E-001
 0.22865700E-001
 0.22861688E-001
 0.22804127E-001
 0.22795732E-001
 0.31910697E-001
 0.32165288E-001
 0.32022860E-001
 0.32173602E-001
 0.39539652E-001
 0.39830575E-001
 0.39777865E-001
 0.39901692E-001
 0.41603932E-001
 0.41788346E-001
 0.41662523E-001
 0.41708954E-001
 0.39489878E-001
 0.39514152E-001
 0.39489224E-001
 0.39328832E-001
 0.33849701E-001
 0.33777507E-001
 0.33800051E-001
 0.33765972E-001
 0.24205806E-001
 0.24598237E-001
 0.24508682E-001
 0.24919894E-001
