 0.00000000E+000
 0.61297912E-001
 0.65668731E-001
 0.00000000E+000
 0.00000000E+000
 0.66257655E-001
 0.71196547E-001
 0.00000000E+000
 0.56113827E-001
 0.81400204E-001
 0.89344018E-001
 0.88851421E-001
 0.85992358E-001
 0.78932869E-001
 0.79088240E-001
 0.70493154E-001
 0.75374589E-001
 0.55254674E-001
 0.58015309E-001
 0.76465890E-001
 0.67857380E-001
 0.78006457E-001
 0.78083734E-001
 0.87102926E-001
 0.91054664E-001
 0.88772927E-001
 0.80765458E-001
 0.57465869E-001
 0.00000000E+000
 0.00000000E+000
 0.58452030E-001
 0.83445323E-001
 0.91013376E-001
 0.92486374E-001
 0.88224699E-001
 0.80827827E-001
 0.78464531E-001
 0.66478511E-001
 0.76107614E-001
 0.60835572E-001
 0.63001837E-001
 0.80761640E-001
 0.67699312E-001
 0.75271424E-001
 0.77772671E-001
 0.87688744E-001
 0.93439323E-001
 0.89711335E-001
 0.82953762E-001
 0.59299569E-001
 0.00000000E+000
 0.00000000E+000
 0.00000000E+000
 0.00000000E+000
 0.56127200E-001
 0.58940938E-001
 0.60148310E-001
 0.62814377E-001
 0.00000000E+000
 0.00000000E+000
 0.54439597E-001
 0.54978825E-001
 0.81659012E-001
 0.81426988E-001
 0.89044658E-001
 0.88591205E-001
 0.89234221E-001
 0.90270924E-001
 0.86822968E-001
 0.87161682E-001
 0.79561738E-001
 0.78910569E-001
 0.79207989E-001
 0.78687666E-001
 0.67958516E-001
 0.67016120E-001
 0.72186281E-001
 0.72868363E-001
 0.56646101E-001
 0.57073287E-001
 0.83333737E-001
 0.83069467E-001
 0.90548474E-001
 0.89736816E-001
 0.92578207E-001
 0.92572796E-001
 0.89086304E-001
 0.88522452E-001
 0.81376122E-001
 0.79560807E-001
 0.78600402E-001
 0.76742253E-001
 0.65293165E-001
 0.65897643E-001
 0.74102187E-001
 0.76127943E-001
 0.53929889E-001
 0.55027487E-001
 0.80831446E-001
 0.81738631E-001
 0.89118377E-001
 0.89973068E-001
 0.89905074E-001
 0.91743581E-001
 0.86844433E-001
 0.87686445E-001
 0.79542648E-001
 0.80360375E-001
 0.79422813E-001
 0.79188354E-001
 0.68089194E-001
 0.66671545E-001
 0.72826466E-001
 0.72962990E-001
 0.48988638E-001
 0.51524196E-001
 0.50993898E-001
 0.53246307E-001
 0.74237210E-001
 0.76174872E-001
 0.66502364E-001
 0.66243820E-001
 0.78318725E-001
 0.76460747E-001
 0.79211887E-001
 0.78674257E-001
 0.87661446E-001
 0.87496355E-001
 0.90616635E-001
 0.91612094E-001
 0.88106706E-001
 0.88678433E-001
 0.80470726E-001
 0.81465705E-001
 0.55222183E-001
 0.56129759E-001
 0.00000000E+000
 0.00000000E+000
 0.00000000E+000
 0.00000000E+000
 0.48342842E-001
 0.49312236E-001
 0.48890100E-001
 0.49802743E-001
 0.81120191E-001
 0.81818266E-001
 0.80991286E-001
 0.81670493E-001
 0.89180081E-001
 0.89962149E-001
 0.88621684E-001
 0.89262991E-001
 0.89903170E-001
 0.91691548E-001
 0.90237256E-001
 0.91466403E-001
 0.86611443E-001
 0.87722179E-001
 0.87001918E-001
 0.87703383E-001
 0.78874954E-001
 0.79783902E-001
 0.78605387E-001
 0.78945332E-001
 0.78047040E-001
 0.77992784E-001
 0.77596534E-001
 0.76487301E-001
 0.65157798E-001
 0.64383353E-001
 0.64470461E-001
 0.64018230E-001
 0.68358504E-001
 0.69283780E-001
 0.69133518E-001
 0.70791030E-001
