 0.00000000E+000
 0.91888846E+000
 0.90573370E+000
 0.00000000E+000
 0.00000000E+000
 0.90500296E+000
 0.89299335E+000
 0.00000000E+000
 0.75641558E+000
 0.87726425E+000
 0.80827658E+000
 0.75992328E+000
 0.72574479E+000
 0.72439900E+000
 0.73390602E+000
 0.76746327E+000
 0.81290341E+000
 0.90658005E+000
 0.90149797E+000
 0.81140704E+000
 0.77185243E+000
 0.73415591E+000
 0.72316245E+000
 0.72034510E+000
 0.75830940E+000
 0.81023002E+000
 0.87836330E+000
 0.76648548E+000
 0.00000000E+000
 0.00000000E+000
 0.75979259E+000
 0.87768319E+000
 0.80920100E+000
 0.75677089E+000
 0.71982685E+000
 0.72192251E+000
 0.73394721E+000
 0.77500757E+000
 0.81454102E+000
 0.89417605E+000
 0.88312843E+000
 0.80136170E+000
 0.77079153E+000
 0.73820132E+000
 0.72444193E+000
 0.71922933E+000
 0.75563973E+000
 0.81005151E+000
 0.87878935E+000
 0.76903284E+000
 0.00000000E+000
 0.00000000E+000
 0.00000000E+000
 0.00000000E+000
 0.90297900E+000
 0.89884838E+000
 0.89243544E+000
 0.88148948E+000
 0.00000000E+000
 0.00000000E+000
 0.73970980E+000
 0.74482221E+000
 0.87643660E+000
 0.87816141E+000
 0.80967289E+000
 0.81010493E+000
 0.75974470E+000
 0.75881144E+000
 0.72513662E+000
 0.72221169E+000
 0.72430493E+000
 0.72354520E+000
 0.73374463E+000
 0.73382695E+000
 0.76901509E+000
 0.77095163E+000
 0.81523981E+000
 0.81334124E+000
 0.74530341E+000
 0.75078896E+000
 0.87650748E+000
 0.87738707E+000
 0.80978486E+000
 0.80978861E+000
 0.75727689E+000
 0.75629464E+000
 0.72057801E+000
 0.72006619E+000
 0.72222311E+000
 0.72333617E+000
 0.73436844E+000
 0.73639066E+000
 0.77351222E+000
 0.77165001E+000
 0.81285256E+000
 0.80654699E+000
 0.74066978E+000
 0.74247651E+000
 0.87656375E+000
 0.87702049E+000
 0.80892709E+000
 0.80943446E+000
 0.75971360E+000
 0.75794627E+000
 0.72511890E+000
 0.72177334E+000
 0.72393567E+000
 0.72225895E+000
 0.73325933E+000
 0.73263592E+000
 0.76800769E+000
 0.77141974E+000
 0.81244167E+000
 0.81298181E+000
 0.88333288E+000
 0.87681899E+000
 0.87808937E+000
 0.86866950E+000
 0.80968235E+000
 0.80480324E+000
 0.77093470E+000
 0.77060741E+000
 0.73455491E+000
 0.73657380E+000
 0.72347873E+000
 0.72410446E+000
 0.72096328E+000
 0.72042846E+000
 0.75825338E+000
 0.75676116E+000
 0.81114919E+000
 0.81117861E+000
 0.87764292E+000
 0.87758620E+000
 0.75002897E+000
 0.75119514E+000
 0.00000000E+000
 0.00000000E+000
 0.00000000E+000
 0.00000000E+000
 0.69141839E+000
 0.69426699E+000
 0.69679225E+000
 0.69924091E+000
 0.87719012E+000
 0.87748767E+000
 0.87944760E+000
 0.87884266E+000
 0.81327836E+000
 0.81349729E+000
 0.81411242E+000
 0.81417887E+000
 0.76199105E+000
 0.76066030E+000
 0.76119465E+000
 0.75998852E+000
 0.72612350E+000
 0.72363052E+000
 0.72396688E+000
 0.72297853E+000
 0.72362171E+000
 0.72239657E+000
 0.72327056E+000
 0.72325214E+000
 0.73217556E+000
 0.73230371E+000
 0.73286849E+000
 0.73421350E+000
 0.76817354E+000
 0.77032354E+000
 0.76947370E+000
 0.77001220E+000
 0.81752702E+000
 0.81612759E+000
 0.81559734E+000
 0.81237076E+000
