GiD Post Results File 1.0
 
Result VELOC ALYA  0.15971132E+02 Vector OnNodes
ComponentNames VELOC_X,VELOC_Y,VELOC_Z
Values
        1  0.00000000E+000  0.00000000E+000
        2  0.00000000E+000  0.00000000E+000
        3  0.00000000E+000  0.00000000E+000
        4  0.00000000E+000  0.00000000E+000
        5  0.00000000E+000  0.00000000E+000
        6  0.00000000E+000  0.00000000E+000
        7  0.00000000E+000  0.00000000E+000
        8  0.00000000E+000  0.00000000E+000
        9  0.00000000E+000  0.00000000E+000
       10  0.44999984E+000 -0.29053300E-011
       11  0.79999970E+000  0.91445832E-011
       12  0.10499996E+001  0.22015543E-011
       13  0.11999995E+001  0.11535376E-010
       14  0.12499995E+001  0.15852803E-011
       15  0.11999995E+001  0.60214329E-011
       16  0.10499996E+001  0.75379135E-011
       17  0.79999970E+000 -0.24200010E-011
       18  0.44999984E+000  0.89467128E-011
       19  0.00000000E+000  0.00000000E+000
       20  0.00000000E+000  0.00000000E+000
       21  0.00000000E+000  0.00000000E+000
       22  0.44999984E+000  0.41415776E-012
       23  0.44999984E+000  0.11927521E-011
       24  0.44999984E+000  0.39244562E-011
       25  0.44999984E+000  0.34941633E-011
       26  0.44999984E+000 -0.15311676E-011
       27  0.44999984E+000 -0.42119832E-011
       28  0.44999984E+000  0.29082627E-011
       29  0.44999984E+000  0.67487801E-011
       30  0.44999984E+000  0.10141506E-011
       31  0.79999970E+000  0.74617986E-011
       32  0.10499996E+001  0.20944063E-011
       33  0.11999995E+001  0.32410581E-011
       34  0.12499995E+001  0.59669526E-011
       35  0.11999995E+001  0.38398148E-011
       36  0.10499996E+001 -0.14665199E-011
       37  0.79999970E+000 -0.10767717E-011
       38  0.44999984E+000  0.61908725E-011
       39  0.44999984E+000 -0.29053300E-011
       40  0.00000000E+000  0.00000000E+000
       41  0.79999970E+000  0.31247800E-012
       42  0.79999970E+000 -0.88730609E-011
       43  0.79999970E+000  0.10237485E-011
       44  0.79999970E+000  0.12136868E-010
       45  0.79999970E+000  0.14558066E-011
       46  0.79999970E+000  0.10441954E-011
       47  0.79999970E+000 -0.37685525E-011
       48  0.79999970E+000 -0.14041253E-011
       49  0.10499996E+001 -0.28632546E-012
       50  0.11999995E+001  0.42065948E-011
       51  0.12499995E+001  0.61035387E-011
       52  0.11999995E+001 -0.80499526E-012
       53  0.10499996E+001  0.84966929E-011
       54  0.79999970E+000  0.32677055E-011
       55  0.44999984E+000 -0.78097234E-011
       56  0.79999970E+000  0.91445832E-011
       57  0.00000000E+000  0.00000000E+000
       58  0.10499996E+001  0.10321743E-010
       59  0.10499996E+001  0.24024869E-011
       60  0.10499996E+001 -0.39633714E-011
       61  0.10499996E+001  0.83421600E-011
       62  0.10499996E+001  0.14684055E-012
       63  0.10499996E+001  0.35964502E-011
       64  0.10499996E+001  0.68065788E-011
       65  0.11999995E+001 -0.38027247E-011
       66  0.12499995E+001  0.25726725E-011
       67  0.11999995E+001  0.55860828E-011
       68  0.10499996E+001  0.15132708E-011
       69  0.79999970E+000  0.10566136E-010
       70  0.44999984E+000 -0.79998524E-011
       71  0.10499996E+001  0.22015543E-011
       72  0.00000000E+000  0.00000000E+000
       73  0.11999995E+001  0.23885115E-011
       74  0.11999995E+001  0.10864272E-010
       75  0.11999995E+001  0.31210368E-011
       76  0.11999995E+001  0.25115317E-011
       77  0.11999995E+001 -0.14200716E-011
       78  0.11999995E+001  0.26668199E-011
       79  0.12499995E+001  0.59828202E-011
       80  0.11999995E+001  0.37418531E-011
       81  0.10499996E+001 -0.17214230E-012
       82  0.79999970E+000  0.10186903E-011
       83  0.44999984E+000  0.67805381E-011
       84  0.11999995E+001  0.11535376E-010
       85  0.00000000E+000  0.00000000E+000
       86  0.12499995E+001  0.20745693E-011
       87  0.12499995E+001  0.66684875E-012
       88  0.12499995E+001  0.54802256E-011
       89  0.12499995E+001  0.97279143E-011
       90  0.12499995E+001  0.19369929E-011
       91  0.11999995E+001  0.41010644E-012
       92  0.10499996E+001  0.56169315E-011
       93  0.79999970E+000 -0.68742284E-011
       94  0.44999984E+000  0.11665983E-010
       95  0.12499995E+001  0.15852839E-011
       96  0.00000000E+000  0.00000000E+000
       97  0.11999995E+001  0.10150659E-010
       98  0.11999995E+001 -0.23681591E-011
       99  0.11999995E+001  0.13215207E-011
      100  0.11999995E+001  0.79320651E-011
      101  0.10499996E+001 -0.11165239E-012
      102  0.79999970E+000  0.10429776E-011
      103  0.44999984E+000 -0.33515196E-013
      104  0.11999995E+001  0.60214329E-011
      105  0.00000000E+000  0.00000000E+000
      106  0.10499996E+001  0.74881339E-011
      107  0.10499996E+001  0.15808120E-011
      108  0.10499996E+001  0.14561739E-011
      109  0.79999970E+000  0.42502310E-011
      110  0.44999984E+000 -0.71094272E-011
      111  0.10499996E+001  0.75379135E-011
      112  0.00000000E+000  0.00000000E+000
      113  0.79999970E+000  0.75161064E-011
      114  0.79999970E+000  0.27339882E-011
      115  0.44999984E+000 -0.21720858E-011
      116  0.79999970E+000 -0.24200010E-011
      117  0.00000000E+000  0.00000000E+000
      118  0.44999984E+000  0.31102805E-011
      119  0.44999984E+000  0.89467128E-011
      120  0.00000000E+000  0.00000000E+000
      121  0.00000000E+000  0.00000000E+000
End values
Result PRESS ALYA  0.15971132E+02 Scalar OnNodes
ComponentNames PRESS
Values
        1  0.10000000E+001
        2  0.10000000E+001
        3  0.10000000E+001
        4  0.10000000E+001
        5  0.10000000E+001
        6  0.10000000E+001
        7  0.10000000E+001
        8  0.10000000E+001
        9  0.10000000E+001
       10  0.10000000E+001
       11  0.10000000E+001
       12  0.10000000E+001
       13  0.10000000E+001
       14  0.10000000E+001
       15  0.10000000E+001
       16  0.10000000E+001
       17  0.10000000E+001
       18  0.10000000E+001
       19  0.10000000E+001
       20  0.10000000E+001
       21  0.10000000E+001
       22  0.10000000E+001
       23  0.10000000E+001
       24  0.10000000E+001
       25  0.10000000E+001
       26  0.10000000E+001
       27  0.10000000E+001
       28  0.10000000E+001
       29  0.10000000E+001
       30  0.10000000E+001
       31  0.10000000E+001
       32  0.10000000E+001
       33  0.10000000E+001
       34  0.10000000E+001
       35  0.10000000E+001
       36  0.10000000E+001
       37  0.10000000E+001
       38  0.10000000E+001
       39  0.10000000E+001
       40  0.10000000E+001
       41  0.10000000E+001
       42  0.10000000E+001
       43  0.10000000E+001
       44  0.10000000E+001
       45  0.10000000E+001
       46  0.10000000E+001
       47  0.10000000E+001
       48  0.10000000E+001
       49  0.10000000E+001
       50  0.10000000E+001
       51  0.10000000E+001
       52  0.10000000E+001
       53  0.10000000E+001
       54  0.10000000E+001
       55  0.10000000E+001
       56  0.10000000E+001
       57  0.10000000E+001
       58  0.10000000E+001
       59  0.10000000E+001
       60  0.10000000E+001
       61  0.10000000E+001
       62  0.10000000E+001
       63  0.10000000E+001
       64  0.10000000E+001
       65  0.10000000E+001
       66  0.10000000E+001
       67  0.10000000E+001
       68  0.10000000E+001
       69  0.10000000E+001
       70  0.10000000E+001
       71  0.10000000E+001
       72  0.10000000E+001
       73  0.10000000E+001
       74  0.10000000E+001
       75  0.10000000E+001
       76  0.10000000E+001
       77  0.10000000E+001
       78  0.10000000E+001
       79  0.10000000E+001
       80  0.10000000E+001
       81  0.10000000E+001
       82  0.10000000E+001
       83  0.10000000E+001
       84  0.10000000E+001
       85  0.10000000E+001
       86  0.10000000E+001
       87  0.10000000E+001
       88  0.10000000E+001
       89  0.10000000E+001
       90  0.10000000E+001
       91  0.10000000E+001
       92  0.10000000E+001
       93  0.10000000E+001
       94  0.10000000E+001
       95  0.10000000E+001
       96  0.10000000E+001
       97  0.10000000E+001
       98  0.10000000E+001
       99  0.10000000E+001
      100  0.10000000E+001
      101  0.10000000E+001
      102  0.10000000E+001
      103  0.10000000E+001
      104  0.10000000E+001
      105  0.10000000E+001
      106  0.10000000E+001
      107  0.10000000E+001
      108  0.10000000E+001
      109  0.10000000E+001
      110  0.10000000E+001
      111  0.10000000E+001
      112  0.10000000E+001
      113  0.10000000E+001
      114  0.10000000E+001
      115  0.10000000E+001
      116  0.10000000E+001
      117  0.10000000E+001
      118  0.10000000E+001
      119  0.10000000E+001
      120  0.10000000E+001
      121  0.10000000E+001
End values
