 0.28800000E+003
 0.14126731E+004
 0.14157276E+004
 0.28800000E+003
 0.28800000E+003
 0.14194672E+004
 0.14095501E+004
 0.28800000E+003
 0.14377494E+004
 0.15706265E+004
 0.14464294E+004
 0.13365180E+004
 0.12605454E+004
 0.12326544E+004
 0.12284110E+004
 0.12622500E+004
 0.13325447E+004
 0.14144733E+004
 0.14160976E+004
 0.13355324E+004
 0.12633681E+004
 0.12251341E+004
 0.12281436E+004
 0.12564957E+004
 0.13369943E+004
 0.14524488E+004
 0.15774429E+004
 0.14425018E+004
 0.28800000E+003
 0.28800000E+003
 0.14352350E+004
 0.15679268E+004
 0.14440660E+004
 0.13308197E+004
 0.12513856E+004
 0.12229147E+004
 0.12221262E+004
 0.12636885E+004
 0.13379788E+004
 0.14187624E+004
 0.14139066E+004
 0.13288818E+004
 0.12590756E+004
 0.12247642E+004
 0.12290029E+004
 0.12552011E+004
 0.13331819E+004
 0.14481314E+004
 0.15711974E+004
 0.14374618E+004
 0.28800000E+003
 0.28800000E+003
 0.28800000E+003
 0.28800000E+003
 0.14147268E+004
 0.14184191E+004
 0.14158976E+004
 0.14129392E+004
 0.28800000E+003
 0.28800000E+003
 0.14417836E+004
 0.14442507E+004
 0.15726409E+004
 0.15760589E+004
 0.14482241E+004
 0.14512383E+004
 0.13377267E+004
 0.13379374E+004
 0.12604796E+004
 0.12584698E+004
 0.12321533E+004
 0.12299773E+004
 0.12283900E+004
 0.12268022E+004
 0.12645072E+004
 0.12650382E+004
 0.13369740E+004
 0.13384743E+004
 0.14390358E+004
 0.14400052E+004
 0.15698337E+004
 0.15714751E+004
 0.14459539E+004
 0.14480684E+004
 0.13325143E+004
 0.13338422E+004
 0.12529150E+004
 0.12550486E+004
 0.12240692E+004
 0.12272902E+004
 0.12221278E+004
 0.12234760E+004
 0.12637090E+004
 0.12615020E+004
 0.13395700E+004
 0.13351598E+004
 0.14416140E+004
 0.14403875E+004
 0.15726003E+004
 0.15713047E+004
 0.14480257E+004
 0.14468701E+004
 0.13371426E+004
 0.13342788E+004
 0.12599801E+004
 0.12553794E+004
 0.12314048E+004
 0.12265142E+004
 0.12274579E+004
 0.12241843E+004
 0.12639208E+004
 0.12644656E+004
 0.13368388E+004
 0.13396923E+004
 0.14164549E+004
 0.14187479E+004
 0.14170688E+004
 0.14160459E+004
 0.13376983E+004
 0.13344830E+004
 0.12637096E+004
 0.12617530E+004
 0.12251888E+004
 0.12251330E+004
 0.12289257E+004
 0.12294930E+004
 0.12576185E+004
 0.12570448E+004
 0.13379675E+004
 0.13360575E+004
 0.14534326E+004
 0.14512275E+004
 0.15785266E+004
 0.15753922E+004
 0.14456860E+004
 0.14431430E+004
 0.28800000E+003
 0.28800000E+003
 0.28800000E+003
 0.28800000E+003
 0.14479613E+004
 0.14466846E+004
 0.14499495E+004
 0.14478931E+004
 0.15756181E+004
 0.15743074E+004
 0.15785946E+004
 0.15763617E+004
 0.14505339E+004
 0.14494371E+004
 0.14532730E+004
 0.14516862E+004
 0.13392721E+004
 0.13366559E+004
 0.13396860E+004
 0.13376281E+004
 0.12611022E+004
 0.12572819E+004
 0.12599295E+004
 0.12582166E+004
 0.12319255E+004
 0.12278417E+004
 0.12307225E+004
 0.12293924E+004
 0.12277688E+004
 0.12245376E+004
 0.12266530E+004
 0.12250061E+004
 0.12656950E+004
 0.12651670E+004
 0.12655663E+004
 0.12638572E+004
 0.13408807E+004
 0.13422386E+004
 0.13413066E+004
 0.13397089E+004
