 0.30249999E-002
 0.15267418E-001
 0.15237915E-001
 0.30249999E-002
 0.30249999E-002
 0.15165021E-001
 0.15332971E-001
 0.30249999E-002
 0.40161270E-002
 0.65320788E-002
 0.11215696E-001
 0.17590376E-001
 0.24447154E-001
 0.28246068E-001
 0.28751219E-001
 0.26698842E-001
 0.20051534E-001
 0.15476847E-001
 0.15462914E-001
 0.20037383E-001
 0.26751361E-001
 0.28782501E-001
 0.28295100E-001
 0.24430885E-001
 0.17397903E-001
 0.11024176E-001
 0.64924509E-002
 0.40183308E-002
 0.30249999E-002
 0.30249999E-002
 0.40106595E-002
 0.65214416E-002
 0.11117010E-001
 0.17477063E-001
 0.24426401E-001
 0.28242762E-001
 0.28754223E-001
 0.26751721E-001
 0.19977089E-001
 0.15433081E-001
 0.15533815E-001
 0.20181412E-001
 0.26790251E-001
 0.28773559E-001
 0.28301829E-001
 0.24570202E-001
 0.17541712E-001
 0.11042113E-001
 0.64969020E-002
 0.40103216E-002
 0.30249999E-002
 0.30249999E-002
 0.30249999E-002
 0.30249999E-002
 0.15465284E-001
 0.15423303E-001
 0.15483147E-001
 0.15537272E-001
 0.30249999E-002
 0.30249999E-002
 0.39838514E-002
 0.39846297E-002
 0.64558459E-002
 0.64369024E-002
 0.11051546E-001
 0.10957111E-001
 0.17394084E-001
 0.17297939E-001
 0.24310560E-001
 0.24305275E-001
 0.28163584E-001
 0.28191657E-001
 0.28749752E-001
 0.28767618E-001
 0.26736619E-001
 0.26762061E-001
 0.19880595E-001
 0.19877684E-001
 0.39808809E-002
 0.39804842E-002
 0.64472467E-002
 0.64326682E-002
 0.10984421E-001
 0.10948559E-001
 0.17350563E-001
 0.17386146E-001
 0.24328640E-001
 0.24402967E-001
 0.28174879E-001
 0.28207787E-001
 0.28767174E-001
 0.28778392E-001
 0.26810200E-001
 0.26828408E-001
 0.19891191E-001
 0.19993591E-001
 0.39862592E-002
 0.39838810E-002
 0.64591150E-002
 0.64539619E-002
 0.11067177E-001
 0.11017620E-001
 0.17412392E-001
 0.17358760E-001
 0.24297601E-001
 0.24297311E-001
 0.28151980E-001
 0.28164529E-001
 0.28753856E-001
 0.28764870E-001
 0.26777161E-001
 0.26800507E-001
 0.19920203E-001
 0.19869217E-001
 0.15755125E-001
 0.15742255E-001
 0.15769052E-001
 0.15813244E-001
 0.19950289E-001
 0.20013062E-001
 0.26835773E-001
 0.26839780E-001
 0.28804200E-001
 0.28784765E-001
 0.28219019E-001
 0.28212447E-001
 0.24328368E-001
 0.24391137E-001
 0.17292543E-001
 0.17365944E-001
 0.10930276E-001
 0.10943863E-001
 0.64359496E-002
 0.64385475E-002
 0.39888870E-002
 0.39840910E-002
 0.30249999E-002
 0.30249999E-002
 0.30249999E-002
 0.30249999E-002
 0.39111798E-002
 0.39099308E-002
 0.39126283E-002
 0.39101427E-002
 0.62834639E-002
 0.62788924E-002
 0.62732871E-002
 0.62707553E-002
 0.10742509E-001
 0.10708172E-001
 0.10676867E-001
 0.10674870E-001
 0.17021362E-001
 0.17001910E-001
 0.16963666E-001
 0.17010538E-001
 0.24003504E-001
 0.24022399E-001
 0.24021762E-001
 0.24071391E-001
 0.28046987E-001
 0.28063295E-001
 0.28083681E-001
 0.28086893E-001
 0.28907529E-001
 0.28920131E-001
 0.28932936E-001
 0.28931327E-001
 0.27070841E-001
 0.27102919E-001
 0.27098822E-001
 0.27123025E-001
 0.19994365E-001
 0.19987496E-001
 0.20011480E-001
 0.20061926E-001
