 0.11766972E-001
 0.48673348E+000
 0.48182921E+000
 0.16183486E-001
 0.14070160E-001
 0.49411116E+000
 0.52727168E+000
 0.14416140E-001
 0.41611482E-001
 0.55734712E-001
 0.10430146E+000
 0.26118352E+000
 0.49204088E+000
 0.53557681E+000
 0.66784009E+000
 0.78094362E+000
 0.43717739E+000
 0.60484875E+000
 0.60044346E+000
 0.42506550E+000
 0.74876466E+000
 0.68083704E+000
 0.44665040E+000
 0.32097123E+000
 0.21652119E+000
 0.12738363E+000
 0.79846242E-001
 0.57976014E-001
 0.20441387E-001
 0.16641163E-001
 0.46143537E-001
 0.71076999E-001
 0.11623456E+000
 0.17611316E+000
 0.27950175E+000
 0.47312898E+000
 0.70477878E+000
 0.74132654E+000
 0.42198379E+000
 0.61862537E+000
 0.63926948E+000
 0.44836458E+000
 0.79136111E+000
 0.69718403E+000
 0.52474184E+000
 0.34123116E+000
 0.19666271E+000
 0.11611400E+000
 0.74234540E-001
 0.48467043E-001
 0.18573591E-001
 0.16681841E-001
 0.16273286E-001
 0.18059458E-001
 0.61116743E+000
 0.60986884E+000
 0.61360296E+000
 0.63872427E+000
 0.18722276E-001
 0.17015189E-001
 0.54905506E-001
 0.64292892E-001
 0.72356812E-001
 0.86707484E-001
 0.12071005E+000
 0.13533736E+000
 0.25209144E+000
 0.23316056E+000
 0.47357735E+000
 0.38733240E+000
 0.54076655E+000
 0.49573895E+000
 0.72228716E+000
 0.72493699E+000
 0.85915219E+000
 0.84181477E+000
 0.49434696E+000
 0.48694014E+000
 0.54099549E-001
 0.57258610E-001
 0.78871098E-001
 0.84009470E-001
 0.12266810E+000
 0.12601776E+000
 0.19561801E+000
 0.21057480E+000
 0.31295664E+000
 0.36133832E+000
 0.49449827E+000
 0.52162246E+000
 0.75119874E+000
 0.74883659E+000
 0.84930202E+000
 0.87255569E+000
 0.48745749E+000
 0.50371952E+000
 0.51969015E-001
 0.53820226E-001
 0.70374584E-001
 0.77012647E-001
 0.11804618E+000
 0.12578618E+000
 0.25706838E+000
 0.21382594E+000
 0.47503375E+000
 0.35767206E+000
 0.54897579E+000
 0.51247805E+000
 0.73465846E+000
 0.75106602E+000
 0.86182824E+000
 0.84215970E+000
 0.49390116E+000
 0.48692917E+000
 0.75493423E+000
 0.75983289E+000
 0.75564387E+000
 0.77585508E+000
 0.49007085E+000
 0.50575953E+000
 0.84882432E+000
 0.87128204E+000
 0.73254486E+000
 0.74771918E+000
 0.48296577E+000
 0.53793796E+000
 0.34705567E+000
 0.37654184E+000
 0.22801941E+000
 0.21451809E+000
 0.13373669E+000
 0.12553241E+000
 0.85320247E-001
 0.82660470E-001
 0.62329983E-001
 0.56882757E-001
 0.20974711E-001
 0.20137921E-001
 0.19167484E-001
 0.19747731E-001
 0.59784493E-001
 0.59326025E-001
 0.65787701E-001
 0.62116284E-001
 0.76261895E-001
 0.79552453E-001
 0.86099997E-001
 0.84652169E-001
 0.12303786E+000
 0.12654503E+000
 0.13418576E+000
 0.12919870E+000
 0.24794898E+000
 0.21946842E+000
 0.23622632E+000
 0.22462883E+000
 0.46873046E+000
 0.37982207E+000
 0.40344452E+000
 0.39892898E+000
 0.57320190E+000
 0.54923891E+000
 0.54199366E+000
 0.55745227E+000
 0.77703073E+000
 0.79591734E+000
 0.77423933E+000
 0.78989077E+000
 0.93128607E+000
 0.92656949E+000
 0.92365722E+000
 0.93898009E+000
 0.56694301E+000
 0.56200882E+000
 0.56411396E+000
 0.57256555E+000
