 0.00000000E+000  0.00000000E+000  0.00000000E+000
 0.19004895E+000  0.66955557E-001  0.68484153E-001
 0.19390061E+000 -0.60729112E-001  0.61340120E-001
 0.00000000E+000  0.00000000E+000  0.00000000E+000
 0.00000000E+000  0.00000000E+000  0.00000000E+000
 0.19248478E+000  0.60921695E-001 -0.60249324E-001
 0.19525161E+000 -0.59878389E-001 -0.60654252E-001
 0.00000000E+000  0.00000000E+000  0.00000000E+000
 0.41907148E-001  0.39612011E-003 -0.39612011E-003
 0.59186420E-001  0.23143392E-003 -0.23143392E-003
 0.75858410E-001  0.26823496E-003 -0.26823496E-003
 0.11920787E+000  0.90347461E-004 -0.90347461E-004
 0.75691844E-001 -0.43712901E-003  0.43712901E-003
 0.24031945E+000 -0.51190923E-003  0.51190923E-003
 0.55649719E-001  0.32058795E-003 -0.32058795E-003
 0.34329116E+000  0.42128924E-003 -0.42128924E-003
 0.21540446E+000 -0.79176388E-003  0.79176388E-003
 0.22552591E+000  0.75381253E-001  0.25173908E-001
 0.22825773E+000 -0.76240355E-001  0.21392022E-001
 0.21326370E+000  0.44005103E-003  0.44005103E-003
 0.34572020E+000 -0.17717892E-003 -0.17717892E-003
 0.53905322E-001 -0.86483821E-003 -0.86483821E-003
 0.23974901E+000  0.39539587E-003  0.39539587E-003
 0.79915585E-001  0.21189945E-003  0.21189945E-003
 0.11689925E+000 -0.22528302E-003 -0.22528302E-003
 0.79512361E-001 -0.79838152E-003 -0.79838152E-003
 0.60845623E-001 -0.10428549E-002 -0.10428549E-002
 0.46592564E-001 -0.21793830E-003 -0.21793830E-003
 0.00000000E+000  0.00000000E+000  0.00000000E+000
 0.00000000E+000  0.00000000E+000  0.00000000E+000
 0.46128727E-001 -0.98394845E-005 -0.98394845E-005
 0.58162898E-001 -0.65113913E-003 -0.65113913E-003
 0.80231942E-001 -0.70137808E-003 -0.70137808E-003
 0.11783039E+000 -0.39722799E-003 -0.39722799E-003
 0.78209034E-001 -0.22273138E-003 -0.22273138E-003
 0.23936665E+000  0.72891780E-003  0.72891780E-003
 0.50972352E-001  0.94368872E-003  0.94368872E-003
 0.34603699E+000  0.30343803E-003  0.30343803E-003
 0.21129924E+000  0.51064510E-003  0.51064510E-003
 0.22989394E+000  0.77414669E-001 -0.18428634E-001
 0.23299525E+000 -0.79274283E-001 -0.17747802E-001
 0.20990341E+000  0.32086899E-003 -0.32086899E-003
 0.35176628E+000  0.32962220E-003 -0.32962220E-003
 0.44442105E-001  0.60263220E-003 -0.60263220E-003
 0.24345433E+000  0.16021298E-003 -0.16021298E-003
 0.79666277E-001 -0.28242068E-003  0.28242068E-003
 0.11510409E+000 -0.11565831E-002  0.11565831E-002
 0.85621752E-001 -0.11247510E-002  0.11247510E-002
 0.58944784E-001 -0.36086435E-003  0.36086435E-003
 0.44651424E-001  0.41006618E-003 -0.41006618E-003
 0.00000000E+000  0.00000000E+000  0.00000000E+000
 0.00000000E+000  0.00000000E+000  0.00000000E+000
 0.00000000E+000  0.00000000E+000  0.00000000E+000
 0.00000000E+000  0.00000000E+000  0.00000000E+000
 0.22769812E+000  0.23288154E-001  0.74914917E-001
 0.23103335E+000  0.19011428E-001 -0.78131935E-001
 0.23182376E+000 -0.18074280E-001  0.75712480E-001
 0.23316982E+000 -0.17246093E-001 -0.79995915E-001
 0.00000000E+000  0.00000000E+000  0.00000000E+000
 0.00000000E+000  0.00000000E+000  0.00000000E+000
 0.46480471E-001 -0.27353913E-002  0.46460229E-017
 0.48414942E-001  0.40389324E-002 -0.22850729E-017
 0.61930422E-001 -0.18799151E-002 -0.16138655E-016
 0.62781600E-001 -0.83567001E-003 -0.43031514E-019
 0.77385213E-001 -0.27256736E-003  0.39707945E-017
 0.79534965E-001 -0.89198163E-003  0.00000000E+000
 0.11714019E+000  0.40716401E-003  0.24127800E-016
 0.11555930E+000 -0.12703805E-002  0.11966505E-016
 0.75545546E-001 -0.15670684E-002 -0.15641090E-016
 0.76192033E-001 -0.44269054E-003 -0.77555954E-017
 0.24004749E+000 -0.70768029E-003  0.12360868E-016
 0.24025390E+000  0.17150255E-003  0.24707669E-016
 0.52755483E-001  0.27908953E-002  0.31476990E-017
 0.52436308E-001 -0.41740277E-002 -0.42987000E-018
 0.33364541E+000 -0.19793807E-001  0.00000000E+000
 0.33549115E+000  0.21317335E-001  0.16177887E-016
 0.17526647E+000  0.10336071E-001 -0.84928317E-017
 0.17610627E+000 -0.98389592E-002  0.17123347E-016
 0.48159682E-001 -0.32437381E-002 -0.51268455E-017
 0.47922607E-001  0.45366929E-002 -0.24676993E-017
 0.61007728E-001 -0.25007887E-002  0.12823536E-016
 0.61890926E-001  0.81957543E-003 -0.31869760E-017
 0.80514623E-001 -0.31339812E-003  0.00000000E+000
 0.84002940E-001  0.66682551E-003  0.43942736E-017
 0.11658958E+000  0.38826005E-003  0.60635762E-017
 0.11510795E+000  0.17650216E-002  0.61999643E-017
 0.78010257E-001 -0.28332123E-003  0.14589182E-019
 0.77299668E-001  0.22296576E-003 -0.45925087E-019
 0.23955099E+000  0.55326084E-003 -0.12363791E-016
 0.24117994E+000  0.30105608E-002 -0.12884254E-016
 0.47919295E-001  0.42372847E-002  0.94018258E-018
 0.45636017E-001 -0.75654053E-003  0.95166906E-017
 0.34022821E+000 -0.21853355E-001  0.66702156E-016
 0.34266758E+000  0.19270074E-001 -0.74549643E-016
 0.17311857E+000  0.11982300E-001 -0.95314786E-017
 0.17197877E+000 -0.10379419E-001  0.25498385E-016
 0.46018297E-001 -0.72875710E-017 -0.34694012E-002
 0.48779450E-001 -0.93244754E-017  0.46789738E-002
 0.61359314E-001 -0.95705492E-017 -0.59389280E-003
 0.61719983E-001 -0.95345206E-017  0.25998686E-002
 0.77735714E-001  0.80057569E-017  0.86693581E-003
 0.79301733E-001  0.12153597E-016  0.94145394E-003
 0.11878048E+000 -0.18269723E-016  0.15442604E-002
 0.11650304E+000  0.12354981E-016  0.13854132E-002
 0.76763560E-001  0.78907218E-017 -0.28966760E-003
 0.76071614E-001  0.20882397E-019 -0.40553518E-003
 0.23916955E+000  0.12315660E-016  0.25795516E-003
 0.23752217E+000 -0.12257039E-016  0.50896364E-003
 0.50480451E-001 -0.49437468E-017  0.12383919E-002
 0.50123780E-001  0.21184830E-017 -0.44914690E-002
 0.33785154E+000  0.12283313E-016 -0.19862032E-001
 0.33872818E+000 -0.18553587E-016  0.21581627E-001
 0.17641221E+000  0.69841771E-017  0.10194953E-001
 0.17522561E+000 -0.70845649E-017 -0.12547895E-001
 0.27649728E+000  0.76463718E-001  0.75640832E-001
 0.28100755E+000  0.77380590E-001 -0.79010642E-001
 0.28003810E+000 -0.77794035E-001  0.75696444E-001
 0.28362076E+000 -0.78801501E-001 -0.79800131E-001
 0.17442805E+000  0.83891193E-017  0.11511746E-001
 0.17180378E+000  0.12439188E-016 -0.11337676E-001
 0.34245008E+000  0.55103665E-016 -0.21380188E-001
 0.34340250E+000  0.16702727E-016  0.19036308E-001
 0.50398908E-001  0.40786010E-017  0.35985954E-002
 0.46547204E-001 -0.24479281E-017 -0.99144693E-003
 0.23937309E+000 -0.25181584E-016  0.17131675E-002
 0.24220490E+000  0.11115522E-016  0.37631391E-002
 0.78188522E-001  0.16133536E-016  0.18615046E-003
 0.79242901E-001  0.22681043E-018  0.11011620E-002
 0.11585676E+000  0.00000000E+000  0.12760453E-002
 0.11519056E+000  0.00000000E+000  0.36184640E-002
 0.81113138E-001 -0.84150661E-017 -0.59695939E-003
 0.81250483E-001  0.29826324E-018  0.28961292E-002
 0.61947969E-001  0.00000000E+000 -0.49907865E-003
 0.59796388E-001 -0.92373631E-017  0.34192666E-002
 0.47714649E-001  0.76628593E-017 -0.28342130E-002
 0.47950923E-001  0.19799478E-017  0.47502137E-002
 0.36401950E-001  0.00000000E+000  0.00000000E+000
 0.36444870E-001  0.00000000E+000  0.00000000E+000
 0.36440776E-001  0.00000000E+000  0.00000000E+000
 0.36474623E-001  0.00000000E+000  0.00000000E+000
 0.68641608E-001 -0.49497513E-002 -0.58383304E-002
 0.69756612E-001 -0.50950122E-002  0.67154601E-002
 0.69740761E-001  0.64946292E-002 -0.56142550E-002
 0.69849037E-001  0.70318883E-002  0.66362387E-002
 0.79809688E-001 -0.28334436E-002 -0.19628487E-002
 0.78930491E-001 -0.30852402E-002  0.28263854E-002
 0.79415389E-001  0.55599369E-004 -0.15478910E-002
 0.78784420E-001  0.12113018E-002  0.34755079E-002
 0.93797291E-001 -0.66517524E-003  0.79701688E-004
 0.95791082E-001 -0.13222829E-002  0.55143727E-003
 0.95519440E-001 -0.12433120E-002 -0.38771438E-003
 0.95496892E-001 -0.71236325E-003  0.21791751E-002
 0.13241310E+000  0.17410934E-003  0.15438890E-002
 0.13187668E+000 -0.57483565E-003  0.65301285E-003
 0.13138338E+000 -0.90003296E-003  0.52300035E-003
 0.12949109E+000 -0.60890753E-003  0.26596638E-002
 0.91951555E-001 -0.12361037E-002  0.65291375E-004
 0.90830963E-001 -0.11506226E-002 -0.38162819E-003
 0.91560843E-001 -0.93628457E-003 -0.47765073E-004
 0.92714057E-001 -0.33348104E-003  0.83444540E-003
 0.25514286E+000 -0.12376330E-002 -0.31282254E-004
 0.25450456E+000  0.15139917E-003  0.74268291E-003
 0.25525360E+000 -0.79979096E-004  0.10205834E-002
 0.25762770E+000  0.23646483E-002  0.26415979E-002
 0.63531963E-001  0.19031175E-002  0.13308611E-002
 0.63311691E-001  0.41416836E-002 -0.39388296E-002
 0.64454952E-001 -0.40039904E-002  0.26986730E-002
 0.61767983E-001 -0.10016753E-002 -0.20403117E-002
 0.34705994E+000 -0.21035560E-001 -0.20654421E-001
 0.34845002E+000 -0.21331524E-001  0.21194504E-001
 0.34858942E+000  0.21204193E-001 -0.21091327E-001
 0.35074972E+000  0.20954418E-001  0.20587594E-001
 0.14963575E+000  0.11844200E-001  0.12312255E-001
 0.14845308E+000  0.13222582E-001 -0.13610441E-001
 0.14952834E+000 -0.12159177E-001  0.12477890E-001
 0.14773589E+000 -0.11214203E-001 -0.12745969E-001
