 0.00000000E+000
 0.52943931E-002
 0.52038771E-002
 0.00000000E+000
 0.00000000E+000
 0.51044198E-002
 0.54584531E-002
 0.00000000E+000
 0.34967444E-002
 0.56119687E-002
 0.80063621E-002
 0.96740130E-002
 0.11006229E-001
 0.10858319E-001
 0.10652204E-001
 0.91557166E-002
 0.75414267E-002
 0.48367022E-002
 0.47958806E-002
 0.74046732E-002
 0.88335582E-002
 0.10936027E-001
 0.11094131E-001
 0.11278482E-001
 0.98208732E-002
 0.77766241E-002
 0.54414068E-002
 0.34344421E-002
 0.00000000E+000
 0.00000000E+000
 0.35544914E-002
 0.57377369E-002
 0.80465950E-002
 0.10017522E-001
 0.11527058E-001
 0.11482535E-001
 0.11112024E-001
 0.87655012E-002
 0.73438538E-002
 0.47536219E-002
 0.49300674E-002
 0.78666019E-002
 0.93657537E-002
 0.10877977E-001
 0.11070501E-001
 0.11320859E-001
 0.10016764E-001
 0.78628281E-002
 0.56295147E-002
 0.35095875E-002
 0.00000000E+000
 0.00000000E+000
 0.00000000E+000
 0.00000000E+000
 0.48682503E-002
 0.47468321E-002
 0.48228209E-002
 0.49521652E-002
 0.00000000E+000
 0.00000000E+000
 0.34377899E-002
 0.33963301E-002
 0.56262991E-002
 0.55496086E-002
 0.78628480E-002
 0.77623142E-002
 0.96176399E-002
 0.96882040E-002
 0.11092352E-001
 0.11216479E-001
 0.11002035E-001
 0.11092182E-001
 0.10719725E-001
 0.10851022E-001
 0.89270293E-002
 0.87708639E-002
 0.71745418E-002
 0.71067740E-002
 0.34960866E-002
 0.34701886E-002
 0.57127985E-002
 0.56486933E-002
 0.79198189E-002
 0.78380021E-002
 0.99856636E-002
 0.98897812E-002
 0.11541698E-001
 0.11358838E-001
 0.11581328E-001
 0.11308991E-001
 0.11258774E-001
 0.11160366E-001
 0.88352141E-002
 0.91064303E-002
 0.71246275E-002
 0.73685576E-002
 0.34079320E-002
 0.34341225E-002
 0.55286532E-002
 0.55818117E-002
 0.78381715E-002
 0.78646755E-002
 0.96567233E-002
 0.98282367E-002
 0.11080571E-001
 0.11321157E-001
 0.11006521E-001
 0.11289253E-001
 0.10792872E-001
 0.11049972E-001
 0.89702890E-002
 0.88228697E-002
 0.72266896E-002
 0.71000322E-002
 0.44679023E-002
 0.44129841E-002
 0.44483755E-002
 0.45141626E-002
 0.71664841E-002
 0.73957004E-002
 0.88706829E-002
 0.90823777E-002
 0.11032676E-001
 0.10985670E-001
 0.11178647E-001
 0.11109809E-001
 0.11232856E-001
 0.11223713E-001
 0.96833929E-002
 0.97738732E-002
 0.76127814E-002
 0.76752998E-002
 0.53936126E-002
 0.54986931E-002
 0.33539111E-002
 0.33956750E-002
 0.00000000E+000
 0.00000000E+000
 0.00000000E+000
 0.00000000E+000
 0.31863569E-002
 0.32074615E-002
 0.31511178E-002
 0.31821667E-002
 0.54596954E-002
 0.54796854E-002
 0.53863688E-002
 0.54241098E-002
 0.77352388E-002
 0.77529365E-002
 0.76292635E-002
 0.76631627E-002
 0.95650951E-002
 0.97364379E-002
 0.95838273E-002
 0.96841167E-002
 0.11002530E-001
 0.11224623E-001
 0.11084260E-001
 0.11161826E-001
 0.10938808E-001
 0.11233107E-001
 0.11024486E-001
 0.11150757E-001
 0.10724433E-001
 0.11029160E-001
 0.10847472E-001
 0.11016073E-001
 0.87403265E-002
 0.87438678E-002
 0.87040384E-002
 0.88622223E-002
 0.68545596E-002
 0.68259122E-002
 0.68301629E-002
 0.69616273E-002
