GiD Post Results File 1.0
 
Result EBFIL ALYA  0.70000000E+00 Scalar OnNodes
ComponentNames EBFIL
Values
          1 -0.15272083E-006
          2 -0.15272083E-006
          3 -0.11004203E-006
          4 -0.11004203E-006
          5  0.30057919E-005
          6  0.21963366E-006
          7  0.21963366E-006
          8  0.30057919E-005
          9 -0.14877670E-006
         10 -0.14877670E-006
         11  0.60793614E-005
         12  0.60793614E-005
         13 -0.12599121E-006
         14 -0.10636108E-006
         15 -0.10486767E-006
         16 -0.10486767E-006
         17 -0.10636108E-006
         18 -0.12599121E-006
         19  0.50365084E-006
         20  0.11821298E-005
         21  0.20422327E-005
         22  0.20422327E-005
         23  0.11821298E-005
         24  0.50365084E-006
         25 -0.23184964E-007
         26 -0.60549727E-007
         27 -0.47234357E-007
         28 -0.44278892E-007
         29 -0.39349058E-007
         30 -0.34837915E-007
         31 -0.30494707E-007
         32 -0.26426410E-007
         33 -0.22704013E-007
         34 -0.19374327E-007
         35 -0.16478184E-007
         36 -0.14042647E-007
         37 -0.12084848E-007
         38 -0.10611385E-007
         39 -0.96227688E-008
         40 -0.90990004E-008
         41 -0.90517606E-008
         42 -0.94125865E-008
         43 -0.99956870E-008
         44 -0.12499546E-007
         45 -0.77793430E-008
         46 -0.29130395E-007
         47  0.18526886E-008
         48  0.48481284E-007
         49 -0.17698330E-006
         50 -0.49063135E-007
         51 -0.88102043E-007
         52 -0.80681003E-007
         53 -0.82510395E-007
         54 -0.83537753E-007
         55 -0.84556413E-007
         56 -0.85846299E-007
         57 -0.87241424E-007
         58 -0.88794844E-007
         59 -0.90494060E-007
         60 -0.92341171E-007
         61 -0.94335971E-007
         62 -0.96478440E-007
         63 -0.98768359E-007
         64 -0.10120643E-006
         65 -0.10379135E-006
         66 -0.10651970E-006
         67 -0.10943837E-006
         68 -0.11227372E-006
         69 -0.11614639E-006
         70 -0.11792556E-006
         71  0.18526887E-008
         72 -0.29130395E-007
         73 -0.77793430E-008
         74 -0.12499546E-007
         75 -0.99956869E-008
         76 -0.94125865E-008
         77 -0.90517607E-008
         78 -0.90990003E-008
         79 -0.96227688E-008
         80 -0.10611385E-007
         81 -0.12084848E-007
         82 -0.14042647E-007
         83 -0.16478183E-007
         84 -0.19374327E-007
         85 -0.22704013E-007
         86 -0.26426410E-007
         87 -0.30494707E-007
         88 -0.34837915E-007
         89 -0.39349059E-007
         90 -0.44278892E-007
         91 -0.47234357E-007
         92 -0.60549727E-007
         93 -0.23184964E-007
         94 -0.11792556E-006
         95 -0.11614639E-006
         96 -0.11227372E-006
         97 -0.10943837E-006
         98 -0.10651970E-006
         99 -0.10379135E-006
        100 -0.10120643E-006
        101 -0.98768359E-007
        102 -0.96478440E-007
        103 -0.94335971E-007
        104 -0.92341171E-007
        105 -0.90494060E-007
        106 -0.88794844E-007
        107 -0.87241424E-007
        108 -0.85846299E-007
        109 -0.84556413E-007
        110 -0.83537753E-007
        111 -0.82510395E-007
        112 -0.80681003E-007
        113 -0.88102043E-007
        114 -0.49063135E-007
        115 -0.17698330E-006
        116  0.48481284E-007
        117 -0.17559693E-006
        118 -0.18362845E-006
        119 -0.16566429E-006
        120 -0.16566429E-006
        121 -0.18362845E-006
        122 -0.17559693E-006
        123  0.57270437E-005
        124  0.49284059E-005
        125  0.39943162E-005
        126  0.39943162E-005
        127  0.49284059E-005
        128  0.57270437E-005
        129 -0.91959743E-007
        130 -0.48477196E-007
        131 -0.55244910E-007
        132 -0.52193962E-007
        133 -0.51355205E-007
        134 -0.50401248E-007
        135 -0.49575154E-007
        136 -0.48768663E-007
        137 -0.47911984E-007
        138 -0.46957853E-007
        139 -0.45865583E-007
        140 -0.44608158E-007
        141 -0.43168331E-007
        142 -0.41539726E-007
        143 -0.39721914E-007
        144 -0.37735697E-007
        145 -0.35544230E-007
        146 -0.33454080E-007
        147 -0.30121742E-007
        148 -0.31595895E-007
        149 -0.14866229E-007
        150 -0.53596603E-007
        151  0.21046596E-007
        152  0.21046596E-007
        153 -0.53596603E-007
        154 -0.14866229E-007
        155 -0.31595895E-007
        156 -0.30121742E-007
        157 -0.33454080E-007
        158 -0.35544230E-007
        159 -0.37735696E-007
        160 -0.39721914E-007
        161 -0.41539726E-007
        162 -0.43168331E-007
        163 -0.44608158E-007
        164 -0.45865583E-007
        165 -0.46957853E-007
        166 -0.47911984E-007
        167 -0.48768663E-007
        168 -0.49575154E-007
        169 -0.50401248E-007
        170 -0.51355205E-007
        171 -0.52193962E-007
        172 -0.55244910E-007
        173 -0.48477196E-007
        174 -0.91959743E-007
        175 -0.68949342E-007
        176 -0.29512761E-007
        177 -0.18906419E-007
        178 -0.11915289E-006
        179 -0.10857477E-006
        180 -0.80028210E-007
        181 -0.10511483E-006
        182 -0.88154585E-007
        183 -0.62320523E-007
        184 -0.10334738E-006
        185 -0.87079308E-007
        186 -0.60435539E-007
        187 -0.99816957E-007
        188 -0.82882536E-007
        189 -0.55739163E-007
        190 -0.96566311E-007
        191 -0.79158766E-007
        192 -0.51552675E-007
        193 -0.93522653E-007
        194 -0.75636320E-007
        195 -0.47536686E-007
        196 -0.90632172E-007
        197 -0.72300083E-007
        198 -0.43761147E-007
        199 -0.87953714E-007
        200 -0.69231351E-007
        201 -0.40300266E-007
        202 -0.85486500E-007
        203 -0.66440082E-007
        204 -0.37185855E-007
        205 -0.83245663E-007
        206 -0.63953332E-007
        207 -0.34453410E-007
        208 -0.81237599E-007
        209 -0.61784604E-007
        210 -0.32124503E-007
        211 -0.79467382E-007
        212 -0.59943680E-007
        213 -0.30213351E-007
        214 -0.77934944E-007
        215 -0.58432824E-007
        216 -0.28724845E-007
        217 -0.76651736E-007
        218 -0.57260149E-007
        219 -0.27662258E-007
        220 -0.75562767E-007
        221 -0.56380634E-007
        222 -0.26997070E-007
        223 -0.74834696E-007
        224 -0.55913334E-007
        225 -0.26778105E-007
        226 -0.74113220E-007
        227 -0.55584733E-007
        228 -0.26871053E-007
        229 -0.73059249E-007
        230 -0.55149826E-007
        231 -0.27048308E-007
        232 -0.79278965E-007
        233 -0.60068465E-007
        234 -0.30383644E-007
        235 -0.47588943E-007
        236 -0.37996280E-007
        237 -0.19562579E-007
        238 -0.15478285E-006
        239 -0.11434176E-006
        240 -0.59716588E-007
        241  0.32490148E-007
        242  0.15865281E-007
        243  0.49733426E-008
        244 -0.68949342E-007
        245 -0.29512761E-007
        246 -0.18906419E-007
        247 -0.11915289E-006
        248 -0.10857477E-006
        249 -0.80028210E-007
        250 -0.10511483E-006
        251 -0.88154585E-007
        252 -0.62320523E-007
        253 -0.10334738E-006
        254 -0.87079308E-007
        255 -0.60435539E-007
        256 -0.99816957E-007
        257 -0.82882536E-007
        258 -0.55739163E-007
        259 -0.96566311E-007
        260 -0.79158766E-007
        261 -0.51552675E-007
        262 -0.93522653E-007
        263 -0.75636320E-007
        264 -0.47536686E-007
        265 -0.90632172E-007
        266 -0.72300083E-007
        267 -0.43761147E-007
        268 -0.87953714E-007
        269 -0.69231351E-007
        270 -0.40300266E-007
        271 -0.85486500E-007
        272 -0.66440082E-007
        273 -0.37185855E-007
        274 -0.83245663E-007
        275 -0.63953332E-007
        276 -0.34453410E-007
        277 -0.81237599E-007
        278 -0.61784604E-007
        279 -0.32124503E-007
        280 -0.79467382E-007
        281 -0.59943680E-007
        282 -0.30213351E-007
        283 -0.77934944E-007
        284 -0.58432824E-007
        285 -0.28724845E-007
        286 -0.76651736E-007
        287 -0.57260149E-007
        288 -0.27662258E-007
        289 -0.75562767E-007
        290 -0.56380634E-007
        291 -0.26997070E-007
        292 -0.74834696E-007
        293 -0.55913334E-007
        294 -0.26778105E-007
        295 -0.74113220E-007
        296 -0.55584733E-007
        297 -0.26871053E-007
        298 -0.73059249E-007
        299 -0.55149826E-007
        300 -0.27048308E-007
        301 -0.79278965E-007
        302 -0.60068465E-007
        303 -0.30383644E-007
        304 -0.47588943E-007
        305 -0.37996280E-007
        306 -0.19562579E-007
        307 -0.15478285E-006
        308 -0.11434176E-006
        309 -0.59716588E-007
        310  0.32490148E-007
        311  0.15865281E-007
        312  0.49733426E-008
        313 -0.15692546E-006
        314 -0.16633491E-006
        315 -0.12656649E-006
        316 -0.10283489E-006
        317 -0.82536764E-007
        318 -0.59757558E-007
        319 -0.10927489E-006
        320 -0.95745724E-007
        321 -0.70705592E-007
        322 -0.10533098E-006
        323 -0.91001605E-007
        324 -0.66643994E-007
        325 -0.10303244E-006
        326 -0.89391970E-007
        327 -0.65559991E-007
        328 -0.10082525E-006
        329 -0.87654792E-007
        330 -0.64282483E-007
        331 -0.98699187E-007
        332 -0.86007836E-007
        333 -0.63129248E-007
        334 -0.96713626E-007
        335 -0.84468343E-007
        336 -0.62029640E-007
        337 -0.94812312E-007
        338 -0.82957507E-007
        339 -0.60911276E-007
        340 -0.92994681E-007
        341 -0.81464208E-007
        342 -0.59741591E-007
        343 -0.91246019E-007
        344 -0.79961756E-007
        345 -0.58485324E-007
        346 -0.89559961E-007
        347 -0.78436680E-007
        348 -0.57120952E-007
        349 -0.87931806E-007
        350 -0.76879372E-007
        351 -0.55634204E-007
        352 -0.86357915E-007
        353 -0.75285443E-007
        354 -0.54019790E-007
        355 -0.84848720E-007
        356 -0.73659781E-007
        357 -0.52278075E-007
        358 -0.83367843E-007
        359 -0.71995527E-007
        360 -0.50424501E-007
        361 -0.82024191E-007
        362 -0.70305832E-007
        363 -0.48419954E-007
        364 -0.80782716E-007
        365 -0.68876529E-007
        366 -0.46640823E-007
        367 -0.78052777E-007
        368 -0.65379195E-007
        369 -0.43108133E-007
        370 -0.86272540E-007
        371 -0.73109138E-007
        372 -0.47403688E-007
        373 -0.43730588E-007
        374 -0.33518167E-007
        375 -0.20984742E-007
        376 -0.17655849E-006
        377 -0.14915269E-006
        378 -0.90922061E-007
        379  0.57668032E-007
        380  0.54710829E-007
        381  0.35895742E-007
        382 -0.15692546E-006
        383 -0.16633491E-006
        384 -0.12656649E-006
        385 -0.10283489E-006
        386 -0.82536764E-007
        387 -0.59757558E-007
        388 -0.10927489E-006
        389 -0.95745724E-007
        390 -0.70705592E-007
        391 -0.10533098E-006
        392 -0.91001605E-007
        393 -0.66643994E-007
        394 -0.10303244E-006
        395 -0.89391970E-007
        396 -0.65559991E-007
        397 -0.10082525E-006
        398 -0.87654792E-007
        399 -0.64282483E-007
        400 -0.98699187E-007
        401 -0.86007836E-007
        402 -0.63129248E-007
        403 -0.96713626E-007
        404 -0.84468343E-007
        405 -0.62029640E-007
        406 -0.94812312E-007
        407 -0.82957507E-007
        408 -0.60911276E-007
        409 -0.92994681E-007
        410 -0.81464208E-007
        411 -0.59741591E-007
        412 -0.91246019E-007
        413 -0.79961756E-007
        414 -0.58485324E-007
        415 -0.89559961E-007
        416 -0.78436680E-007
        417 -0.57120952E-007
        418 -0.87931806E-007
        419 -0.76879372E-007
        420 -0.55634205E-007
        421 -0.86357915E-007
        422 -0.75285443E-007
        423 -0.54019790E-007
        424 -0.84848720E-007
        425 -0.73659781E-007
        426 -0.52278075E-007
        427 -0.83367843E-007
        428 -0.71995527E-007
        429 -0.50424501E-007
        430 -0.82024191E-007
        431 -0.70305832E-007
        432 -0.48419955E-007
        433 -0.80782716E-007
        434 -0.68876529E-007
        435 -0.46640823E-007
        436 -0.78052777E-007
        437 -0.65379195E-007
        438 -0.43108133E-007
        439 -0.86272540E-007
        440 -0.73109138E-007
        441 -0.47403688E-007
        442 -0.43730588E-007
        443 -0.33518167E-007
        444 -0.20984742E-007
        445 -0.17655849E-006
        446 -0.14915269E-006
        447 -0.90922061E-007
        448  0.57668032E-007
        449  0.54710829E-007
        450  0.35895742E-007
End values

Result SBFIL ALYA  0.70000000E+00 Scalar OnNodes
ComponentNames SBFIL
Values
          1 -0.45709899E-002
          2 -0.45709899E-002
          3 -0.16555675E-002
          4 -0.16555675E-002
          5  0.21599533E+000
          6  0.16561880E-001
          7  0.16561880E-001
          8  0.21599533E+000
          9 -0.43713520E-002
         10 -0.43713520E-002
         11  0.42735500E+000
         12  0.42735500E+000
         13 -0.27052496E-002
         14 -0.13489814E-002
         15 -0.12749535E-002
         16 -0.12749535E-002
         17 -0.13489814E-002
         18 -0.27052496E-002
         19  0.37505330E-001
         20  0.86784612E-001
         21  0.14810874E+000
         22  0.14810874E+000
         23  0.86784612E-001
         24  0.37505330E-001
         25  0.39241326E-002
         26  0.89490698E-003
         27  0.13827682E-002
         28  0.11452963E-002
         29  0.10512819E-002
         30  0.94131391E-003
         31  0.83941193E-003
         32  0.74358368E-003
         33  0.65337290E-003
         34  0.56909786E-003
         35  0.49063291E-003
         36  0.41801216E-003
         37  0.35121839E-003
         38  0.29028145E-003
         39  0.23502985E-003
         40  0.18613584E-003
         41  0.14159106E-003
         42  0.10445538E-003
         43  0.85282762E-004
         44 -0.34137163E-004
         45  0.36856295E-003
         46 -0.99095293E-003
         47  0.12936580E-002
         48  0.89891915E-002
         49 -0.67764576E-002
         50  0.21583378E-002
         51 -0.56021883E-003
         52 -0.38359270E-004
         53 -0.15858670E-003
         54 -0.22261500E-003
         55 -0.28447645E-003
         56 -0.36415156E-003
         57 -0.44993274E-003
         58 -0.54555547E-003
         59 -0.65014294E-003
         60 -0.76384474E-003
         61 -0.88664861E-003
         62 -0.10185538E-002
         63 -0.11595502E-002
         64 -0.13096799E-002
         65 -0.14688636E-002
         66 -0.16368891E-002
         67 -0.18167448E-002
         68 -0.19906942E-002
         69 -0.22328611E-002
         70 -0.23269941E-002
         71  0.12936580E-002
         72 -0.99095293E-003
         73  0.36856295E-003
         74 -0.34137158E-004
         75  0.85282764E-004
         76  0.10445538E-003
         77  0.14159106E-003
         78  0.18613584E-003
         79  0.23502985E-003
         80  0.29028145E-003
         81  0.35121839E-003
         82  0.41801216E-003
         83  0.49063291E-003
         84  0.56909786E-003
         85  0.65337289E-003
         86  0.74358368E-003
         87  0.83941193E-003
         88  0.94131391E-003
         89  0.10512819E-002
         90  0.11452963E-002
         91  0.13827682E-002
         92  0.89490698E-003
         93  0.39241326E-002
         94 -0.23269941E-002
         95 -0.22328611E-002
         96 -0.19906942E-002
         97 -0.18167448E-002
         98 -0.16368891E-002
         99 -0.14688636E-002
        100 -0.13096799E-002
        101 -0.11595502E-002
        102 -0.10185538E-002
        103 -0.88664861E-003
        104 -0.76384474E-003
        105 -0.65014294E-003
        106 -0.54555547E-003
        107 -0.44993274E-003
        108 -0.36415155E-003
        109 -0.28447645E-003
        110 -0.22261500E-003
        111 -0.15858670E-003
        112 -0.38359271E-004
        113 -0.56021883E-003
        114  0.21583378E-002
        115 -0.67764576E-002
        116  0.89891915E-002
        117 -0.61793532E-002
        118 -0.67608301E-002
        119 -0.55347315E-002
        120 -0.55347315E-002
        121 -0.67608301E-002
        122 -0.61793532E-002
        123  0.40353851E+000
        124  0.34934976E+000
        125  0.28493527E+000
        126  0.28493527E+000
        127  0.34934976E+000
        128  0.40353851E+000
        129 -0.86007137E-003
        130  0.19010977E-002
        131  0.11729777E-002
        132  0.11703849E-002
        133  0.10390701E-002
        134  0.93483281E-003
        135  0.83406822E-003
        136  0.73887217E-003
        137  0.64961600E-003
        138  0.56601487E-003
        139  0.48818532E-003
        140  0.41609119E-003
        141  0.34975956E-003
        142  0.28914590E-003
        143  0.23442031E-003
        144  0.18484330E-003
        145  0.14423954E-003
        146  0.92666856E-004
        147  0.12746892E-003
        148 -0.17865491E-003
        149  0.81469507E-003
        150 -0.21383795E-002
        151  0.30149555E-002
        152  0.30149555E-002
        153 -0.21383795E-002
        154  0.81469508E-003
        155 -0.17865491E-003
        156  0.12746891E-003
        157  0.92666847E-004
        158  0.14423954E-003
        159  0.18484331E-003
        160  0.23442031E-003
        161  0.28914590E-003
        162  0.34975956E-003
        163  0.41609119E-003
        164  0.48818532E-003
        165  0.56601487E-003
        166  0.64961600E-003
        167  0.73887217E-003
        168  0.83406823E-003
        169  0.93483281E-003
        170  0.10390701E-002
        171  0.11703849E-002
        172  0.11729777E-002
        173  0.19010977E-002
        174 -0.86007137E-003
        175  0.10676395E-002
        176  0.37337555E-002
        177  0.43189806E-002
        178 -0.25221370E-002
        179 -0.19749477E-002
        180 -0.28337723E-003
        181 -0.16204835E-002
        182 -0.73164149E-003
        183  0.61020452E-003
        184 -0.15780110E-002
        185 -0.84543751E-003
        186  0.39471546E-003
        187 -0.14134282E-002
        188 -0.74063069E-003
        189  0.37961415E-003
        190 -0.12665280E-002
        191 -0.66421122E-003
        192  0.33893095E-003
        193 -0.11306668E-002
        194 -0.59368474E-003
        195  0.30173908E-003
        196 -0.10005599E-002
        197 -0.52499559E-003
        198  0.26763082E-003
        199 -0.87908474E-003
        200 -0.46136545E-003
        201  0.23510774E-003
        202 -0.76521185E-003
        203 -0.40153293E-003
        204  0.20488371E-003
        205 -0.65925078E-003
        206 -0.34589852E-003
        207  0.17671077E-003
        208 -0.56112234E-003
        209 -0.29435447E-003
        210  0.15065745E-003
        211 -0.47085720E-003
        212 -0.24693912E-003
        213  0.12669638E-003
        214 -0.38831463E-003
        215 -0.20354148E-003
        216  0.10488803E-003
        217 -0.31433077E-003
        218 -0.16479916E-003
        219  0.84894677E-004
        220 -0.24525188E-003
        221 -0.12796644E-003
        222  0.68111253E-004
        223 -0.19309079E-003
        224 -0.10200354E-003
        225  0.50164649E-004
        226 -0.13331009E-003
        227 -0.68654383E-004
        228  0.39036928E-004
        229 -0.44113051E-004
        230 -0.12949675E-004
        231  0.48344011E-004
        232 -0.45148473E-003
        233 -0.31135260E-003
        234 -0.13423316E-003
        235  0.17775366E-002
        236  0.12666392E-002
        237  0.67808366E-003
        238 -0.56435387E-002
        239 -0.39553773E-002
        240 -0.20009646E-002
        241  0.74762321E-002
        242  0.52027251E-002
        243  0.26126055E-002
        244  0.10676395E-002
        245  0.37337555E-002
        246  0.43189806E-002
        247 -0.25221370E-002
        248 -0.19749477E-002
        249 -0.28337723E-003
        250 -0.16204835E-002
        251 -0.73164149E-003
        252  0.61020452E-003
        253 -0.15780110E-002
        254 -0.84543751E-003
        255  0.39471546E-003
        256 -0.14134282E-002
        257 -0.74063069E-003
        258  0.37961414E-003
        259 -0.12665280E-002
        260 -0.66421122E-003
        261  0.33893095E-003
        262 -0.11306668E-002
        263 -0.59368474E-003
        264  0.30173908E-003
        265 -0.10005599E-002
        266 -0.52499559E-003
        267  0.26763082E-003
        268 -0.87908474E-003
        269 -0.46136545E-003
        270  0.23510774E-003
        271 -0.76521185E-003
        272 -0.40153293E-003
        273  0.20488371E-003
        274 -0.65925078E-003
        275 -0.34589852E-003
        276  0.17671077E-003
        277 -0.56112234E-003
        278 -0.29435447E-003
        279  0.15065745E-003
        280 -0.47085720E-003
        281 -0.24693912E-003
        282  0.12669638E-003
        283 -0.38831463E-003
        284 -0.20354148E-003
        285  0.10488803E-003
        286 -0.31433077E-003
        287 -0.16479916E-003
        288  0.84894679E-004
        289 -0.24525188E-003
        290 -0.12796644E-003
        291  0.68111256E-004
        292 -0.19309079E-003
        293 -0.10200354E-003
        294  0.50164647E-004
        295 -0.13331008E-003
        296 -0.68654385E-004
        297  0.39036929E-004
        298 -0.44113054E-004
        299 -0.12949677E-004
        300  0.48344009E-004
        301 -0.45148472E-003
        302 -0.31135260E-003
        303 -0.13423317E-003
        304  0.17775366E-002
        305  0.12666392E-002
        306  0.67808365E-003
        307 -0.56435387E-002
        308 -0.39553773E-002
        309 -0.20009646E-002
        310  0.74762321E-002
        311  0.52027251E-002
        312  0.26126055E-002
        313 -0.50832359E-002
        314 -0.58284796E-002
        315 -0.31932199E-002
        316 -0.13368382E-002
        317 -0.65709120E-004
        318  0.12666872E-002
        319 -0.18169438E-002
        320 -0.10730012E-002
        321  0.30960972E-003
        322 -0.15599018E-002
        323 -0.80553460E-003
        324  0.43317187E-003
        325 -0.14136522E-002
        326 -0.74601647E-003
        327  0.36895688E-003
        328 -0.12703332E-002
        329 -0.66973139E-003
        330  0.33304836E-003
        331 -0.11312509E-002
        332 -0.59558404E-003
        333  0.29782109E-003
        334 -0.10020374E-002
        335 -0.52777028E-003
        336  0.26372940E-003
        337 -0.87997536E-003
        338 -0.46322932E-003
        339  0.23214925E-003
        340 -0.76601149E-003
        341 -0.40314625E-003
        342  0.20241925E-003
        343 -0.65985687E-003
        344 -0.34714066E-003
        345  0.17477313E-003
        346 -0.56159127E-003
        347 -0.29532067E-003
        348  0.14914082E-003
        349 -0.47120611E-003
        350 -0.24765693E-003
        351  0.12555546E-003
        352 -0.38857767E-003
        353 -0.20410731E-003
        354  0.10398751E-003
        355 -0.31440489E-003
        356 -0.16494658E-003
        357  0.84519824E-004
        358 -0.24590627E-003
        359 -0.12926145E-003
        360  0.66683327E-004
        361 -0.19051521E-003
        362 -0.97443007E-004
        363  0.54145849E-004
        364 -0.14484437E-003
        365 -0.88215256E-004
        366  0.22074582E-004
        367  0.18209810E-005
        368  0.62152142E-004
        369  0.11101456E-003
        370 -0.61851175E-003
        371 -0.57779125E-003
        372 -0.35166706E-003
        373  0.23148690E-002
        374  0.21086077E-002
        375  0.13545449E-002
        376 -0.70399801E-002
        377 -0.61191069E-002
        378 -0.37311986E-002
        379  0.93116524E-002
        380  0.80729543E-002
        381  0.50183780E-002
        382 -0.50832359E-002
        383 -0.58284796E-002
        384 -0.31932199E-002
        385 -0.13368382E-002
        386 -0.65709119E-004
        387  0.12666872E-002
        388 -0.18169438E-002
        389 -0.10730012E-002
        390  0.30960972E-003
        391 -0.15599018E-002
        392 -0.80553460E-003
        393  0.43317187E-003
        394 -0.14136522E-002
        395 -0.74601647E-003
        396  0.36895689E-003
        397 -0.12703332E-002
        398 -0.66973138E-003
        399  0.33304836E-003
        400 -0.11312509E-002
        401 -0.59558404E-003
        402  0.29782110E-003
        403 -0.10020374E-002
        404 -0.52777028E-003
        405  0.26372940E-003
        406 -0.87997536E-003
        407 -0.46322932E-003
        408  0.23214925E-003
        409 -0.76601148E-003
        410 -0.40314625E-003
        411  0.20241925E-003
        412 -0.65985687E-003
        413 -0.34714066E-003
        414  0.17477313E-003
        415 -0.56159127E-003
        416 -0.29532067E-003
        417  0.14914082E-003
        418 -0.47120611E-003
        419 -0.24765693E-003
        420  0.12555546E-003
        421 -0.38857767E-003
        422 -0.20410731E-003
        423  0.10398751E-003
        424 -0.31440489E-003
        425 -0.16494658E-003
        426  0.84519823E-004
        427 -0.24590627E-003
        428 -0.12926145E-003
        429  0.66683333E-004
        430 -0.19051521E-003
        431 -0.97443008E-004
        432  0.54145844E-004
        433 -0.14484438E-003
        434 -0.88215256E-004
        435  0.22074575E-004
        436  0.18209820E-005
        437  0.62152143E-004
        438  0.11101455E-003
        439 -0.61851174E-003
        440 -0.57779125E-003
        441 -0.35166705E-003
        442  0.23148690E-002
        443  0.21086077E-002
        444  0.13545449E-002
        445 -0.70399801E-002
        446 -0.61191069E-002
        447 -0.37311986E-002
        448  0.93116524E-002
        449  0.80729543E-002
        450  0.50183780E-002
End values

