$------------------------------------------------------------
DIMENSIONS
  NODAL_POINTS=          416
  ELEMENTS=              375
  SPACE_DIMENSIONS=        2
  TYPES_OF_ELEMENTS=       0,      0,     12,      0,      0,      0,      0,      0,      0,      0,      0
  BOUNDARIES=             80
  SKEW_SYSTEMS=            0
  SLAVES=                  0
  PERIODIC_NODES=          0
  ZONES=                   1
  SUBDOMAINS=              1
END_DIMENSIONS
$------------------------------------------------------------
STRATEGY
  INTEGRATION_RULE:          Open  
  DOMAIN_INTEGRATION_POINTS: 0  
  $BOUNDARY_ELEMENT:                 ON
  $EXTRAPOLATE_BOUNDARY_CONDITIONS:  ON
  GROUPS =    100
END_STRATEGY
$-------------------------------------------------------------
GEOMETRY
  INCLUDE  proyectil.geo.dat
END_GEOMETRY  
$-------------------------------------------------------------
SETS
  $INCLUDE  proyectil.set.dat  
END_SETS
$-------------------------------------------------------------
BOUNDARY_CONDITIONS
  INCLUDE  proyectil.fix.dat  
END_BOUNDARY_CONDITIONS
$-------------------------------------------------------------
