 0.11730505E+001
 0.41288761E+000
 0.39263610E+000
 0.10742342E+001
 0.85567410E+000
 0.69250960E+000
 0.63748234E+000
 0.60947509E+000
 0.59684476E+000
 0.59269827E+000
 0.59091486E+000
 0.57663222E+000
 0.50246502E+000
 0.41604810E+000
 0.41668368E+000
 0.41394324E+000
 0.41071393E+000
 0.40769633E+000
 0.40486149E+000
 0.40170562E+000
 0.39794565E+000
 0.39297678E+000
 0.43837045E+000
 0.49492892E+000
 0.53910705E+000
 0.56904421E+000
 0.58452392E+000
 0.58996565E+000
 0.59150408E+000
 0.60095220E+000
 0.72724846E+000
 0.10519714E+001
 0.10358528E+001
 0.10379239E+001
 0.10459222E+001
 0.10544600E+001
 0.10643048E+001
 0.10770498E+001
 0.10989214E+001
 0.11462135E+001
 0.82309207E+000
 0.76097851E+000
 0.73223810E+000
 0.71739127E+000
 0.70671560E+000
 0.69783693E+000
 0.68973759E+000
 0.68770177E+000
 0.70404283E+000
 0.68393619E+000
 0.63847436E+000
 0.61138755E+000
 0.60163598E+000
 0.59726932E+000
 0.59486639E+000
 0.59325153E+000
 0.59300328E+000
 0.59588229E+000
 0.64244207E+000
 0.62291422E+000
 0.60342545E+000
 0.59499612E+000
 0.59232174E+000
 0.59158340E+000
 0.59124498E+000
 0.59102806E+000
 0.59110507E+000
 0.61410692E+000
 0.60873616E+000
 0.59902043E+000
 0.59363142E+000
 0.59182340E+000
 0.59095433E+000
 0.58969292E+000
 0.58853960E+000
 0.58890783E+000
 0.59859198E+000
 0.59758242E+000
 0.59441804E+000
 0.59229978E+000
 0.59116455E+000
 0.58926856E+000
 0.58519620E+000
 0.58074249E+000
 0.58096848E+000
 0.59315680E+000
 0.59300841E+000
 0.59218015E+000
 0.59130880E+000
 0.58983378E+000
 0.58571791E+000
 0.57619841E+000
 0.56370243E+000
 0.56065181E+000
 0.59119105E+000
 0.59124603E+000
 0.59058349E+000
 0.58912259E+000
 0.58589019E+000
 0.57874483E+000
 0.56355288E+000
 0.54025223E+000
 0.52754418E+000
 0.57976168E+000
 0.58068812E+000
 0.57730452E+000
 0.57206719E+000
 0.56446924E+000
 0.55344100E+000
 0.53601773E+000
 0.50922341E+000
 0.48714064E+000
 0.51106611E+000
 0.51287244E+000
 0.50525490E+000
 0.49611763E+000
 0.48714863E+000
 0.47812174E+000
 0.46734615E+000
 0.45353203E+000
 0.43782194E+000
