$------------------------------------------------------------
PHYSICAL_PROBLEM
  PROPERTIES
    MATERIAL: 1
      DENSITY:      CONSTANT, PARAMETERS=1.0
      VISCOSITY:    CONSTANT: PARAMETERS=0.01
      ANI_POROSITY: FIELD:    PARAMETERS=1   
$      ANI_POROSITY: CONSTANT: PARAMETERS=2.0,0.0,0.0,0.0,2.0,0.0,0.0,0.0,2.0
    END_MATERIAL
  END_PROPERTIES
END_PHYSICAL_PROBLEM  
$------------------------------------------------------------
NUMERICAL_TREATMENT 
  MESH
    DIVISION=0
  END_MESH
  ELSEST 
    STRATEGY: BIN
    NUMBER:   10,10
    DATAF:    TYPE 
  END_ELSEST
END_NUMERICAL_TREATMENT  
$------------------------------------------------------------
OUTPUT_&_POST_PROCESS  
  ON_ORIGINAL_MESH
  POSTPROCESS ANIPO
END_OUTPUT_&_POST_PROCESS  
$------------------------------------------------------------
