{
    "authors": [
        "guillaume.houzeaux@bsc.es"
    ],
    "comparisons": [
        {
            "file": "uniform_fs.post.res",
            "method": "absolute",
            "tolerance": "1.0e-15"
        }
    ],
    "description": "Check that the fraction step method captures a uniform flow including local axes as a boundary condition",
    "exclude": [
        "special"
    ],
    "executions": [
        {
            "mpi": 3,
            "openmp": 0
        }
    ],
    "modules": [
        "nastin"
    ],
    "name": "uniform_fs",
    "postprocess": "alya2pos"
}