$-------------------------------------------------------------------
DIMENSIONS
  SPACE_DIMENSIONS  = 2
  TYPES_OF_ELEMENTS = QUA04
  NODAL_POINTS      = 93
  ELEMENTS          = 60
  BOUNDARIES        = 34
END_DIMENSIONS
$-------------------------------------------------------------------
STRATEGY
  INTEGRATION_RULE:                OPEN
  DOMAIN_INTEGRATION_POINTS:       0
  SCALE:                           XSCAL=1.0 YSCAL=1.0
  TRANSLATION:                     XTRAN=0.0 YTRAN=0.0
  EXTRAPOLATE_BOUNDARY_CONDITIONS: ON
  BOUNDARY_ELEMENT:                OFF
  GROUPS=                          50, SEQUENTIAL_FRONT
END_STRATEGY
$-------------------------------------------------------------------
GEOMETRY
  INCLUDE ./follower_hydro_pressure.geo.dat
END_GEOMETRY
$-------------------------------------------------------------------
SETS
  INCLUDE ./follower_hydro_pressure.set.dat
END_SETS
$-------------------------------------------------------------------
BOUNDARY_CONDITIONS
  INCLUDE ./follower_hydro_pressure.fix.dat
END_BOUNDARY_CONDITIONS
$-------------------------------------------------------------------
