{
    "authors": [
	"oriol.fernandez@bsc.es"
    ],
    "comparisons": [
        {
            "file": "TS-TAPE-MIXED-ANG.ensi.MAGNE-000002",
            "method": "absolute",
            "tolerance": 1e-7
        },
        {
            "file": "TS-TAPE-MIXED-ANG.ensi.CURNZ-000002",
            "method": "absolute",
            "tolerance": 1e-7
        },
        {
            "file": "TS-TAPE-MIXED-ANG.ensi.JOULN-000002",
            "method": "absolute",
            "tolerance": 1e-7
        },
        {
            "file": "TS-TAPE-MIXED-ANG.ensi.FORCN-000002",
            "method": "absolute",
            "tolerance": 1e-7
        }
    ],
    "description": "Basic test of magnet",
    "enabled": false,
    "exclude": [
        "special"
    ],
    "executions": [
        {
            "mpi": 16,
            "openmp": 0
        }
    ],
    "modules": [
        "magnet"
    ],
    "name": "TS-TAPE-MIXED-ANG",
    "postprocess": "alya2pos"
}  
