{
    "authors": [
        "anurag.surapaneni@bsc.es"
    ],
    "comparisons": [
        {
            "file": "fin_rate_premix_1d_flame_no_nsi_const_lewis.tem.wit-col2.out",
            "method": "absolute",
            "tolerance": "1.0e-1"
        },
        {
            "file": "fin_rate_premix_1d_flame_no_nsi_const_lewis-CON05-00000010.post.mpio.txt",
            "method": "absolute",
            "tolerance": "1.0e-7"
        },
        {
            "file": "fin_rate_premix_1d_flame_no_nsi_const_lewis-ELEMO-00000010.post.mpio.txt",
            "method": "absolute",
            "tolerance": "1.0e-4"
        },
        {
            "file": "fin_rate_premix_1d_flame_no_nsi_const_lewis-ELEMH-00000010.post.mpio.txt",
            "method": "absolute",
            "tolerance": "1.0e-4"
        },
        {
            "file": "fin_rate_premix_1d_flame_no_nsi_const_lewis-ELEMC-00000010.post.mpio.txt",
            "method": "absolute",
            "tolerance": "1.0e-4"
        },
        {
            "file": "fin_rate_premix_1d_flame_no_nsi_const_lewis-CONDU-00000010.post.mpio.txt",
            "method": "absolute",
            "tolerance": "1.0e-5"
        },
        {
            "file": "fin_rate_premix_1d_flame_no_nsi_const_lewis-NREAC-00000010.post.mpio.txt",
            "method": "absolute",
            "tolerance": "1.0e-1"
        },
        {
            "file": "fin_rate_premix_1d_flame_no_nsi_const_lewis-ENTHA-00000010.post.mpio.txt",
            "method": "absolute",
            "tolerance": "1.0e1"
        },
        {
            "file": "fin_rate_premix_1d_flame_no_nsi_const_lewis-MOLEC-00000010.post.mpio.txt",
            "method": "absolute",
            "tolerance": "1.0e-6"
        },
        {
            "file": "fin_rate_premix_1d_flame_no_nsi_const_lewis-SPHEA-00000010.post.mpio.txt",
            "method": "absolute",
            "tolerance": "1.0e-1"
        },
        {
            "file": "fin_rate_premix_1d_flame_no_nsi_const_lewis-VISCO-00000010.post.mpio.txt",
            "method": "absolute",
            "tolerance": "1.0e-8"
        },
        {
            "file": "fin_rate_premix_1d_flame_no_nsi_const_lewis-TEMPE-00000010.post.mpio.txt",
            "method": "absolute",
            "tolerance": "1.0e-1"
        }
    ],
    "description": "Laminar premixed flame in 1D domain with finite rate chemistry with constant Lewis numbers.",
    "enabled": false,
    "executions": [
        {
            "commands": {
                "postprocess": "[ALYA-PATH]/Utils/user/extractColumnFromFile.sh [NAME].tem.wit 2; echo | [POST] [NAME]"
            },
            "mpi": 1,
            "openmp": 0
        },
        {
            "commands": {
                "postprocess": "[ALYA-PATH]/Utils/user/extractColumnFromFile.sh [NAME].tem.wit 2; echo | [POST] [NAME]"
            },
            "mpi": 3,
            "openmp": 0
        },
        {
            "commands": {
                "postprocess": "[ALYA-PATH]/Utils/user/extractColumnFromFile.sh [NAME].tem.wit 2; echo | [POST] [NAME]"
            },
            "mpi": 3,
            "openmp": 3
        }
    ],
    "include": [
        "cantera"
    ],
    "modules": [
        "temper",
        "chemic"
    ],
    "name": "fin_rate_premix_1d_flame_no_nsi_const_lewis",
    "postprocess": "mpio2txt"
}
