0.00000000E+000
0.00000000E+000
0.00000000E+000
4.59242550E-020
4.59242550E-020
4.59242550E-020
-1.06066017E-003
-1.06066017E-003
-1.06066017E-003
-2.38629429E-019
-2.38629429E-019
-2.38629429E-019
1.50000000E-003
1.50000000E-003
1.50000000E-003
1.02689756E-019
1.02689756E-019
1.02689756E-019
-1.83711731E-003
-1.83711731E-003
-1.83711731E-003
-3.64512473E-019
-3.64512473E-019
-3.64512473E-019
2.12132034E-003
2.12132034E-003
2.12132034E-003
1.37772765E-019
1.37772765E-019
1.37772765E-019
-2.37170825E-003
-2.37170825E-003
-2.37170825E-003
-4.56940568E-019
-4.56940568E-019
-4.56940568E-019
2.59807621E-003
2.59807621E-003
2.59807621E-003
1.65582256E-019
1.65582256E-019
1.65582256E-019
-2.80624304E-003
-2.80624304E-003
-2.80624304E-003
-5.33591624E-019
-5.33591624E-019
-5.33591624E-019
0.00000000E+000
0.00000000E+000
0.00000000E+000
4.59242550E-020
4.59242550E-020
4.59242550E-020
-1.06066017E-003
-1.06066017E-003
-1.06066017E-003
-2.38629429E-019
-2.38629429E-019
-2.38629429E-019
1.50000000E-003
1.50000000E-003
1.50000000E-003
1.02689756E-019
1.02689756E-019
1.02689756E-019
-1.83711731E-003
-1.83711731E-003
-1.83711731E-003
-3.64512473E-019
-3.64512473E-019
-3.64512473E-019
2.12132034E-003
2.12132034E-003
2.12132034E-003
1.37772765E-019
1.37772765E-019
1.37772765E-019
-2.37170825E-003
-2.37170825E-003
-2.37170825E-003
-4.56940568E-019
-4.56940568E-019
-4.56940568E-019
2.59807621E-003
2.59807621E-003
2.59807621E-003
1.65582256E-019
1.65582256E-019
1.65582256E-019
-2.80624304E-003
-2.80624304E-003
-2.80624304E-003
-5.33591624E-019
-5.33591624E-019
-5.33591624E-019
-4.33024798E-025
-3.48145316E-025
-2.85246905E-025
4.59243055E-020
4.59242934E-020
4.59242851E-020
-1.06066017E-003
-1.06066017E-003
-1.06066017E-003
-2.38630699E-019
-2.38630446E-019
-2.38630260E-019
1.50000000E-003
1.50000000E-003
1.50000000E-003
1.02690404E-019
1.02690272E-019
1.02690176E-019
-1.83711731E-003
-1.83711731E-003
-1.83711731E-003
-3.64513487E-019
-3.64513281E-019
-3.64513130E-019
2.12132034E-003
2.12132034E-003
2.12132034E-003
1.37772887E-019
1.37772867E-019
1.37772850E-019
-2.37170825E-003
-2.37170825E-003
-2.37170825E-003
-4.56941071E-019
-4.56940967E-019
-4.56940892E-019
2.59807621E-003
2.59807621E-003
2.59807621E-003
1.65581824E-019
1.65581914E-019
1.65581980E-019
-2.80624304E-003
-2.80624304E-003
-2.80624304E-003
-5.33591705E-019
-5.33591686E-019
-5.33591672E-019
1.40326238E-010
1.19545585E-010
1.02099943E-010
-1.78264668E-010
-1.35748663E-010
-1.06678721E-010
-1.06066050E-003
-1.06066045E-003
-1.06066041E-003
6.89308330E-010
5.56183185E-010
4.57180517E-010
1.50000080E-003
1.50000068E-003
1.50000058E-003
-5.72066272E-010
-4.51311135E-010
-3.64744626E-010
-1.83711787E-003
-1.83711778E-003
-1.83711771E-003
8.46143582E-010
6.81860392E-010
5.59959980E-010
2.12132109E-003
2.12132098E-003
2.12132089E-003
-7.69220338E-010
-6.13134433E-010
-4.99428104E-010
-2.37170871E-003
-2.37170864E-003
-2.37170858E-003
9.61301315E-010
7.74140371E-010
6.35427266E-010
2.59807684E-003
2.59807674E-003
2.59807667E-003
-8.57822687E-010
-6.84134395E-010
-5.57492242E-010
-2.80624343E-003
-2.80624337E-003
-2.80624332E-003
1.05680432E-009
8.50670534E-010
6.98014388E-010
0.00000000E+000
0.00000000E+000
0.00000000E+000
4.59242550E-020
4.59242550E-020
4.59242550E-020
-1.06066017E-003
-1.06066017E-003
-1.06066017E-003
-2.38629429E-019
-2.38629429E-019
-2.38629429E-019
1.50000000E-003
1.50000000E-003
1.50000000E-003
1.02689756E-019
1.02689756E-019
1.02689756E-019
-1.83711731E-003
-1.83711731E-003
-1.83711731E-003
-3.64512473E-019
-3.64512473E-019
-3.64512473E-019
2.12132034E-003
2.12132034E-003
2.12132034E-003
1.37772765E-019
1.37772765E-019
1.37772765E-019
-2.37170825E-003
-2.37170825E-003
-2.37170825E-003
-4.56940568E-019
-4.56940568E-019
-4.56940568E-019
2.59807621E-003
2.59807621E-003
2.59807621E-003
1.65582256E-019
1.65582256E-019
1.65582256E-019
-2.80624304E-003
-2.80624304E-003
-2.80624304E-003
-5.33591624E-019
-5.33591624E-019
-5.33591624E-019
1.39980684E-009
1.21937148E-009
1.05866148E-009
-7.72634990E-010
-5.38889617E-010
-3.90062223E-010
-1.06066379E-003
-1.06066331E-003
-1.06066289E-003
4.93417008E-009
4.04412739E-009
3.36379012E-009
1.50000850E-003
1.50000739E-003
1.50000640E-003
-3.45795072E-009
-2.71224809E-009
-2.18080939E-009
-1.83712346E-003
-1.83712265E-003
-1.83712194E-003
6.06266674E-009
4.95711901E-009
4.11585521E-009
2.12132837E-003
2.12132731E-003
2.12132639E-003
-4.94725512E-009
-3.93106362E-009
-3.19347470E-009
-2.37171336E-003
-2.37171269E-003
-2.37171209E-003
6.89128983E-009
5.62750722E-009
4.66808214E-009
2.59808291E-003
2.59808203E-003
2.59808125E-003
-5.67194398E-009
-4.55465481E-009
-3.73040183E-009
-2.80624731E-003
-2.80624675E-003
-2.80624625E-003
7.57849538E-009
6.18348596E-009
5.12606729E-009
-1.97569677E-009
-1.97569677E-009
-1.97569677E-009
-1.47230791E-008
-1.47230791E-008
-1.47230791E-008
-1.06065700E-003
-1.06065700E-003
-1.06065700E-003
2.01034171E-008
2.01034171E-008
2.01034171E-008
1.49999075E-003
1.49999075E-003
1.49999075E-003
-3.03733770E-008
-3.03733770E-008
-3.03733770E-008
-1.83711151E-003
-1.83711151E-003
-1.83711151E-003
2.96033428E-008
2.96033428E-008
2.96033428E-008
2.12131166E-003
2.12131166E-003
2.12131166E-003
-3.42446361E-008
-3.42446361E-008
-3.42446361E-008
-2.37170343E-003
-2.37170343E-003
-2.37170343E-003
3.47537819E-008
3.47537819E-008
3.47537819E-008
2.59806896E-003
2.59806896E-003
2.59806896E-003
-3.73132938E-008
-3.73132938E-008
-3.73132938E-008
-2.80623902E-003
-2.80623902E-003
-2.80623902E-003
3.90250654E-008
3.90250654E-008
3.90250654E-008
6.95648116E-009
6.20298902E-009
5.47933612E-009
-8.13660334E-010
-1.54771548E-010
1.97187296E-010
-1.06067993E-003
-1.06067768E-003
-1.06067557E-003
1.88681444E-008
1.57677014E-008
1.33099960E-008
1.50004474E-003
1.50003973E-003
1.50003501E-003
-1.04182822E-008
-8.01359638E-009
-6.33210171E-009
-1.83715054E-003
-1.83714677E-003
-1.83714324E-003
2.32029414E-008
1.93102846E-008
1.62507890E-008
2.12136260E-003
2.12135787E-003
2.12135341E-003
-1.60529618E-008
-1.26450761E-008
-1.01937751E-008
-2.37173586E-003
-2.37173273E-003
-2.37172979E-003
2.63859258E-008
2.19115834E-008
1.84102166E-008
2.59811147E-003
2.59810753E-003
2.59810380E-003
-1.93175842E-008
-1.54479197E-008
-1.26063185E-008
-2.80626609E-003
-2.80626348E-003
-2.80626103E-003
2.90257264E-008
2.40689812E-008
1.87701840E-008
-4.09678572E-009
-4.05944596E-009
-4.03467613E-009
-3.05994196E-008
-3.03599096E-008
-3.01868359E-008
-1.06065399E-003
-1.06065398E-003
-1.06065397E-003
4.18073625E-008
4.14944704E-008
4.12623268E-008
1.49998136E-003
1.49998144E-003
1.49998148E-003
-6.31539818E-008
-6.26629451E-008
-6.23053601E-008
-1.83710587E-003
-1.83710588E-003
-1.83710587E-003
6.15491134E-008
6.10849143E-008
6.07425762E-008
2.12130284E-003
2.12130292E-003
2.12130296E-003
-7.12435884E-008
-7.06885916E-008
-7.02822734E-008
-2.37169873E-003
-2.37169874E-003
-2.37169874E-003
7.23810425E-008
7.18103275E-008
7.13898523E-008
2.59806160E-003
2.59806167E-003
2.59806170E-003
-7.75150521E-008
-7.69331515E-008
-7.65070967E-008
-2.80623509E-003
-2.80623510E-003
-2.80623510E-003
8.13640625E-008
8.07050064E-008
8.02197261E-008
2.41747184E-008
2.19173950E-008
1.96148403E-008
4.05475276E-009
5.43639412E-009
5.91101560E-009
-1.06073309E-003
-1.06072546E-003
-1.06071813E-003
5.38402973E-008
4.60012259E-008
3.94964578E-008
1.50016148E-003
1.50014525E-003
1.50012932E-003
-2.09760505E-008
-1.52647201E-008
-1.14306641E-008
-1.83723932E-003
-1.83722694E-003
-1.83721485E-003
6.61157651E-008
5.61298716E-008
4.79676064E-008
2.12147347E-003
2.12145867E-003
2.12144384E-003
-3.60556211E-008
-2.77582214E-008
-2.19122222E-008
-2.37181029E-003
-2.37180069E-003
-2.37179095E-003
7.51297640E-008
5.36438361E-008
3.48978826E-008
2.59820459E-003
2.59819290E-003
2.59818082E-003
-4.60914052E-008
-3.62737078E-008
-2.91887605E-008
-2.80632884E-003
-2.80632152E-003
-2.80631368E-003
5.70442531E-008
3.06640699E-008
-6.00788542E-009
-5.88688352E-009
-5.82979583E-009
-5.05889800E-008
-4.92516275E-008
-4.82856155E-008
-1.06065433E-003
-1.06065393E-003
-1.06065354E-003
7.11876305E-008
6.91890967E-008
6.76676884E-008
1.49997721E-003
1.49997694E-003
1.49997652E-003
-1.05413386E-007
-1.02565415E-007
-1.00470535E-007
-1.83710533E-003
-1.83710480E-003
-1.83710424E-003
1.04293181E-007
1.01402079E-007
9.92164786E-008
2.12129898E-003
2.12129872E-003
2.12129833E-003
-1.20031321E-007
-1.16685905E-007
-1.14194410E-007
-2.37169824E-003
-2.37169781E-003
-2.37169735E-003
1.23216131E-007
1.19658131E-007
1.16974480E-007
2.59805833E-003
2.59805812E-003
2.59805780E-003
-1.29962080E-007
-1.26478450E-007
-1.23883372E-007
-2.80623465E-003
-2.80623430E-003
-2.80623393E-003
1.38909457E-007
1.34798344E-007
1.31701614E-007
0.00000000E+000
0.00000000E+000
0.00000000E+000
4.59242550E-020
4.59242550E-020
4.59242550E-020
-1.06066017E-003
-1.06066017E-003
-1.06066017E-003
-2.38629429E-019
-2.38629429E-019
-2.38629429E-019
1.50000000E-003
1.50000000E-003
1.50000000E-003
1.02689756E-019
1.02689756E-019
1.02689756E-019
-1.83711731E-003
-1.83711731E-003
-1.83711731E-003
-3.64512473E-019
-3.64512473E-019
-3.64512473E-019
2.12132034E-003
2.12132034E-003
2.12132034E-003
1.37772765E-019
1.37772765E-019
1.37772765E-019
-2.37170825E-003
-2.37170825E-003
-2.37170825E-003
-4.56940568E-019
-4.56940568E-019
-4.56940568E-019
2.59807621E-003
2.59807621E-003
2.59807621E-003
1.65582256E-019
1.65582256E-019
1.65582256E-019
-2.80624304E-003
-2.80624304E-003
-2.80624304E-003
-5.33591624E-019
-5.33591624E-019
-5.33591624E-019
6.67575098E-008
6.15915543E-008
5.58878979E-008
2.41235116E-008
2.65893277E-008
2.67153259E-008
-1.06086806E-003
-1.06084861E-003
-1.06082915E-003
1.29997192E-007
1.13685878E-007
9.57846042E-008
1.50045515E-003
1.50041517E-003
1.50037389E-003
-2.99471747E-008
-1.83885863E-008
-1.11157083E-008
-1.83746579E-003
-1.83743502E-003
-1.83740334E-003
1.58830584E-007
9.49111108E-008
5.58663589E-008
2.12175680E-003
2.12172170E-003
2.12168374E-003
-6.29147876E-008
-4.59466804E-008
-3.43983188E-008
-2.37200551E-003
-2.37198342E-003
-2.37195848E-003
1.00220032E-007
2.59844784E-003
2.59842189E-003
2.59839155E-003
-8.66437252E-008
-6.60184093E-008
-5.15202543E-008
-2.80649867E-003
-2.80648362E-003
-2.80646416E-003
-4.09982117E-008
-4.23198321E-009
-4.25017195E-009
-4.46726312E-009
-7.61797195E-008
-7.23812530E-008
-6.96856438E-008
-1.06067267E-003
-1.06066999E-003
-1.06066736E-003
1.19911668E-007
1.13268222E-007
1.08026767E-007
1.50000733E-003
1.50000353E-003
1.49999929E-003
-1.64776954E-007
-1.56245601E-007
-1.49937737E-007
-1.83713359E-003
-1.83712960E-003
-1.83712556E-003
1.73474686E-007
1.63976840E-007
1.56563637E-007
2.12132749E-003
2.12132390E-003
2.12131990E-003
-1.92951878E-007
-1.82339634E-007
-1.74372808E-007
-2.37172155E-003
-2.37171828E-003
-2.37171495E-003
2.06067742E-007
1.94379032E-007
1.85296552E-007
2.59808193E-003
2.59807898E-003
2.59807568E-003
-2.08525168E-007
-1.97609960E-007
-1.89318291E-007
-2.80625399E-003
-2.80625129E-003
-2.80624854E-003
2.33099266E-007
2.19593463E-007
2.09126467E-007
-4.09982117E-008
-4.09982117E-008
-1.14000141E-007
-1.14000141E-007
-1.14000141E-007
-1.06058584E-003
-1.06058584E-003
-1.06058584E-003
8.54448388E-008
8.54448388E-008
8.54448388E-008
1.49979590E-003
1.49979590E-003
1.49979590E-003
-2.03362753E-007
-2.03362753E-007
-2.03362753E-007
-1.83698425E-003
-1.83698425E-003
-1.83698425E-003
1.48229659E-007
1.48229659E-007
1.48229659E-007
2.12112843E-003
2.12112843E-003
2.12112843E-003
-2.10978601E-007
-2.10978601E-007
-2.10978601E-007
-2.37159768E-003
-2.37159768E-003
-2.37159768E-003
1.91000032E-007
1.91000032E-007
1.91000032E-007
2.59791608E-003
2.59791608E-003
2.59791608E-003
-2.17015507E-007
-2.17015507E-007
-2.17015507E-007
-2.80615075E-003
-2.80615075E-003
-2.80615075E-003
2.26469706E-007
2.26469706E-007
2.26469706E-007
1.56581763E-007
1.47478807E-007
1.35973526E-007
7.72570537E-008
8.17343511E-008
8.07382814E-008
-1.06115706E-003
-1.06111847E-003
-1.06107687E-003
2.78413582E-007
1.68967738E-007
1.50108060E-003
1.50100409E-003
1.50091753E-003
-2.48663844E-008
-3.56696948E-009
8.71281463E-009
-1.83795362E-003
-1.83789391E-003
-1.83782665E-003
1.72062195E-007
2.12237113E-003
2.12230597E-003
2.12222663E-003
-8.76298310E-008
-5.64896127E-008
-3.62280582E-008
-2.37243829E-003
-2.37239777E-003
-2.37234516E-003
2.59898822E-003
2.59894278E-003
2.59887975E-003
-1.34650086E-007
-9.63975108E-008
-7.03673354E-008
-2.80688666E-003
-2.80686177E-003
-2.80682107E-003
-8.29626584E-008
1.09949270E-008
1.00415627E-008
8.48239921E-009
-1.02768474E-007
-9.51155276E-008
-8.99609552E-008
-1.06074643E-003
-1.06073688E-003
-1.06072696E-003
2.06033657E-007
1.90224260E-007
1.77168190E-007
1.50014814E-003
1.50013241E-003
1.50011467E-003
-2.43009961E-007
-2.24696723E-007
-2.11224996E-007
-1.83725171E-003
-1.83723698E-003
-1.83722137E-003
2.92354576E-007
2.69808936E-007
2.51517999E-007
2.12146056E-003
2.12144573E-003
2.12142899E-003
-2.97382324E-007
-2.73380163E-007
-2.55373164E-007
-2.37181923E-003
-2.37180713E-003
-2.37179426E-003
3.48042597E-007
3.20316093E-007
2.97995063E-007
2.59819245E-003
2.59818023E-003
2.59816638E-003
-3.25790937E-007
-3.00570208E-007
-2.81292820E-007
-2.80633520E-003
-2.80632520E-003
-2.80631453E-003
3.94231100E-007
3.62207485E-007
3.21589311E-007
-8.27362950E-008
-8.25806763E-008
-2.31264876E-007
-2.30577466E-007
-2.30083644E-007
-1.06051057E-003
-1.06051086E-003
-1.06051104E-003
1.73912782E-007
1.73338786E-007
1.72907313E-007
1.49958805E-003
1.49958903E-003
1.49958968E-003
-4.12894084E-007
-4.11624203E-007
-4.10703095E-007
-1.83684923E-003
-1.83684980E-003
-1.83685016E-003
3.01636330E-007
3.00628707E-007
2.99879648E-007
2.12093283E-003
2.12093378E-003
2.12093442E-003
-4.28947404E-007
-4.27543080E-007
-4.26513618E-007
-2.37148533E-003
-2.37148583E-003
-2.37148615E-003
3.88899984E-007
3.87546781E-007
3.86544215E-007
2.59775272E-003
2.59775355E-003
2.59775410E-003
-4.40873258E-007
-4.39498623E-007
-4.38490938E-007
-2.80605688E-003
-2.80605732E-003
-2.80605760E-003
4.61269434E-007
4.59629402E-007
4.58416423E-007
3.26299643E-007
3.13928662E-007
2.00629467E-007
1.90573493E-007
2.00054680E-007
1.97611018E-007
-1.06171168E-003
-1.06164943E-003
-1.06127950E-003
3.24016857E-007
1.50227432E-003
1.50215660E-003
1.50136180E-003
1.57592305E-008
5.30172518E-008
7.26107618E-008
-1.83889131E-003
-1.83879730E-003
-1.83817355E-003
2.12355614E-003
2.12345951E-003
2.12267734E-003
-9.21214677E-008
-3.88449214E-008
-5.75979295E-009
-2.37328019E-003
-2.37322022E-003
-2.37266694E-003
2.60004541E-003
2.59998304E-003
2.59929236E-003
-1.74594003E-007
-1.09363915E-007
-6.64528877E-008
-2.80765071E-003
-2.80761841E-003
-2.80712204E-003
-1.25828629E-007
5.79518453E-008
5.48352034E-008
4.98460788E-008
-1.16905621E-007
-1.04124282E-007
-9.64232267E-008
-1.06094567E-003
-1.06092084E-003
-1.06089358E-003
3.56926587E-007
3.26212435E-007
2.99410364E-007
1.50054266E-003
1.50050024E-003
1.50044979E-003
-3.32542758E-007
-3.00022738E-007
-2.76585288E-007
-1.83757436E-003
-1.83753609E-003
-1.83749295E-003
4.94123232E-007
4.50247330E-007
4.13008250E-007
2.12183457E-003
2.12179581E-003
2.12174873E-003
-4.29650844E-007
-3.85510360E-007
-3.52712868E-007
-2.37208757E-003
-2.37205729E-003
-2.37202221E-003
5.86453746E-007
4.74204579E-007
3.79823542E-007
2.59850489E-003
2.59847439E-003
2.59843602E-003
-4.84860878E-007
-4.36395306E-007
-3.99664374E-007
-2.80655964E-003
-2.80653577E-003
-2.80650717E-003
5.25433811E-007
3.90608074E-007
-1.24949395E-007
-1.24398159E-007
-3.58270214E-007
-3.54819506E-007
-3.52344265E-007
-1.06044139E-003
-1.06044170E-003
-1.06044158E-003
2.76843534E-007
2.73259110E-007
2.70469247E-007
1.49938628E-003
1.49938895E-003
1.49939019E-003
-6.43252365E-007
-6.36569423E-007
-6.31675468E-007
-1.83672264E-003
-1.83672364E-003
-1.83672379E-003
4.78114752E-007
4.72051053E-007
4.67408663E-007
2.12074231E-003
2.12074502E-003
2.12074633E-003
-6.74059819E-007
-6.66178217E-007
-6.60284839E-007
-2.37137932E-003
-2.37138034E-003
-2.37138060E-003
6.16618114E-007
6.08603688E-007
6.02501874E-007
2.59759289E-003
2.59759535E-003
2.59759659E-003
-6.91215158E-007
-6.83517117E-007
-6.77760835E-007
-2.80596784E-003
-2.80596882E-003
-2.80596913E-003
7.31488306E-007
7.21854622E-007
7.14541349E-007
0.00000000E+000
0.00000000E+000
0.00000000E+000
4.59242550E-020
4.59242550E-020
4.59242550E-020
-1.06066017E-003
-1.06066017E-003
-1.06066017E-003
-2.38629429E-019
-2.38629429E-019
-2.38629429E-019
1.50000000E-003
1.50000000E-003
1.50000000E-003
1.02689756E-019
1.02689756E-019
1.02689756E-019
-1.83711731E-003
-1.83711731E-003
-1.83711731E-003
-3.64512473E-019
-3.64512473E-019
-3.64512473E-019
2.12132034E-003
2.12132034E-003
2.12132034E-003
1.37772765E-019
1.37772765E-019
1.37772765E-019
-2.37170825E-003
-2.37170825E-003
-2.37170825E-003
-4.56940568E-019
-4.56940568E-019
-4.56940568E-019
2.59807621E-003
2.59807621E-003
2.59807621E-003
1.65582256E-019
1.65582256E-019
1.65582256E-019
-2.80624304E-003
-2.80624304E-003
-2.80624304E-003
-5.33591624E-019
-5.33591624E-019
-5.33591624E-019
6.21382116E-007
3.39853321E-007
4.03115320E-007
4.29186616E-007
2.46883200E-007
-1.06269605E-003
-1.06173256E-003
-1.48855084E-007
-1.48855084E-007
1.50437780E-003
1.50234266E-003
1.23885103E-007
1.87544885E-007
2.18766446E-007
-1.84054767E-003
-1.83894029E-003
-1.48855084E-007
-3.19314425E-007
-3.19314425E-007
2.12564591E-003
2.12365801E-003
-4.85258393E-008
3.92796657E-008
9.15177842E-008
-2.37475508E-003
-2.37335928E-003
-3.19314425E-007
-1.06031689E-003
-1.06031689E-003
2.60191253E-003
2.60017327E-003
-1.81508502E-007
-7.56073553E-008
-8.06194168E-009
-2.80897826E-003
-2.80775262E-003
-1.06031689E-003
1.46389155E-007
-1.61453853E-007
1.65283752E-007
1.59219027E-007
1.47875398E-007
-9.54689596E-008
-7.54909450E-008
-6.55861743E-008
-1.06137905E-003
-1.06132810E-003
-1.06126800E-003
6.12023473E-007
5.60284339E-007
4.87719715E-007
1.50141333E-003
1.50132717E-003
1.50121517E-003
-4.15458362E-007
-3.63710145E-007
-3.27837926E-007
-1.83828038E-003
-1.83820285E-003
-1.83810788E-003
8.24910947E-007
5.77579901E-007
4.32477606E-007
2.12266643E-003
2.12259079E-003
2.12248740E-003
-5.74484773E-007
-5.02950498E-007
-4.50879545E-007
-2.37267949E-003
-2.37262090E-003
-2.37254470E-003
6.59468612E-007
2.59920798E-003
2.59915239E-003
2.59906951E-003
-6.73934945E-007
-5.92358057E-007
-5.31604053E-007
-2.80705925E-003
-2.80701587E-003
-2.80695480E-003
1.46389155E-007
-1.60180919E-007
-1.59750617E-007
-4.94477412E-007
-4.85790211E-007
-4.79682032E-007
-1.06041713E-003
-1.06041330E-003
-1.06040849E-003
4.16359490E-007
4.04686232E-007
3.95178710E-007
1.49926462E-003
1.49926263E-003
1.49925714E-003
-9.03276375E-007
-8.85313908E-007
-8.72100699E-007
-1.83666658E-003
-1.83666172E-003
-1.83665490E-003
7.08183529E-007
6.89133444E-007
6.73985422E-007
2.12062604E-003
2.12062480E-003
2.12062007E-003
-9.66916170E-007
-9.43876160E-007
-9.26488221E-007
-2.37133031E-003
-2.37132691E-003
-2.37132172E-003
9.10869295E-007
8.86104412E-007
8.66581415E-007
2.59749336E-003
2.59749299E-003
2.59748954E-003
-9.91830016E-007
-9.69458609E-007
-9.52327645E-007
-2.80592529E-003
-2.80592288E-003
-2.80591888E-003
1.07898893E-006
1.04947958E-006
1.02632440E-006
1.46389155E-007
1.49915517E-003
1.49915517E-003
1.49915517E-003
-5.27572717E-007
-5.27572717E-007
-5.27572717E-007
-1.83652478E-003
-1.83652478E-003
-1.83652478E-003
3.07962954E-007
3.07962954E-007
3.07962954E-007
2.12052396E-003
2.12052396E-003
2.12052396E-003
-5.23108963E-007
-5.23108963E-007
-5.23108963E-007
-2.37121587E-003
-2.37121587E-003
-2.37121587E-003
4.31546475E-007
4.31546475E-007
4.31546475E-007
2.59741172E-003
2.59741172E-003
2.59741172E-003
-5.19570648E-007
-5.19570648E-007
-5.19570648E-007
-2.80583207E-003
-2.80583207E-003
-2.80583207E-003
5.34034875E-007
5.34034875E-007
5.34034875E-007
7.07329202E-007
7.65869261E-007
-1.06298556E-003
-2.98461348E-007
-2.98246249E-007
1.50501631E-003
3.43008445E-007
4.49988005E-007
2.73118765E-007
-1.84103927E-003
-2.98109114E-007
-6.41995148E-007
-6.41255470E-007
2.12632178E-003
8.18336855E-008
2.23596443E-007
2.58440493E-007
-2.37522122E-003
-6.40733521E-007
-1.05997348E-003
-1.05997375E-003
2.60255335E-003
-1.20516237E-007
4.70911017E-008
1.51167279E-007
-2.80941619E-003
-1.05997388E-003
2.96607124E-007
-1.69819133E-007
3.73299448E-007
3.65496907E-007
3.44760565E-007
-4.69183868E-009
2.71375213E-008
3.93280651E-008
-1.06219982E-003
-1.06211551E-003
-1.06200407E-003
1.02232942E-006
6.89989800E-007
1.50307340E-003
1.50293654E-003
1.50272974E-003
-4.64048746E-007
-3.86333658E-007
-3.34792075E-007
-1.83962097E-003
-1.83949483E-003
-1.83931921E-003
2.12426446E-003
2.12414905E-003
2.12395928E-003
-7.06246316E-007
-5.98764965E-007
-5.22957470E-007
-2.37380767E-003
-2.37371561E-003
-2.37357557E-003
2.60057419E-003
2.60049553E-003
2.60034468E-003
-8.68293802E-007
-7.42937649E-007
-6.51807785E-007
-2.80801577E-003
-2.80795100E-003
-2.80783958E-003
2.95903373E-007
-1.69713745E-007
-1.71531963E-007
-6.25492369E-007
-6.09998954E-007
-5.99740055E-007
-1.06052578E-003
-1.06050737E-003
-1.06048608E-003
6.25941780E-007
5.98781033E-007
5.75415263E-007
1.49939508E-003
1.49937020E-003
1.49933639E-003
-1.18541344E-006
-1.15074458E-006
-1.12542957E-006
-1.83682280E-003
-1.83679580E-003
-1.83676338E-003
1.03278390E-006
9.89797990E-007
9.54035451E-007
2.12074563E-003
2.12072370E-003
2.12069292E-003
-1.30976079E-006
-1.26185670E-006
-1.22573247E-006
-2.37145472E-003
-2.37143390E-003
-2.37140819E-003
1.31776422E-006
1.26269857E-006
1.21746121E-006
2.59758759E-003
2.59757095E-003
2.59754654E-003
-1.35716560E-006
-1.30913201E-006
-1.27202665E-006
-2.80602547E-003
-2.80600918E-003
-2.80598855E-003
1.55418280E-006
1.50714190E-006
1.35674090E-006
2.95366488E-007
1.49830794E-003
1.49830892E-003
1.49830948E-003
-1.06190427E-006
-1.06048414E-006
-1.05946302E-006
-1.83593143E-003
-1.83593200E-003
-1.83593229E-003
6.22992367E-007
6.21648619E-007
6.20639247E-007
2.11972444E-003
2.11972555E-003
2.11972621E-003
-1.05478627E-006
-1.05307262E-006
-1.05181393E-006
-2.37072208E-003
-2.37072270E-003
-2.37072305E-003
8.72503333E-007
8.70689492E-007
8.69335260E-007
2.59674388E-003
2.59674496E-003
2.59674561E-003
-1.04723246E-006
-1.04561454E-006
-1.04442607E-006
-2.80541943E-003
-2.80542005E-003
-2.80542041E-003
1.07943278E-006
1.07722734E-006
1.07558583E-006
9.41468782E-007
-4.45849245E-007
-4.45373485E-007
7.28634338E-007
5.17141669E-007
-4.45211492E-007
-9.72267939E-007
-9.68915514E-007
3.50218730E-007
5.16778301E-007
-9.66600417E-007
-1.05964994E-003
-1.05964863E-003
5.57262101E-008
3.15576662E-007
2.29974790E-007
-1.05964688E-003
4.66744565E-007
-1.18908017E-007
7.34727152E-007
7.25570776E-007
4.64143428E-007
2.02324144E-007
2.54893935E-007
2.70867724E-007
-1.06361382E-003
-1.06347548E-003
-1.06244434E-003
1.06456116E-006
1.50593990E-003
1.50575516E-003
1.50365833E-003
-4.40562233E-007
-3.25117099E-007
-2.52173694E-007
-1.84192958E-003
-1.84173653E-003
-1.84005068E-003
2.12703512E-003
2.12694911E-003
2.12490327E-003
-7.90214516E-007
-6.34524873E-007
-5.28307108E-007
-2.37574676E-003
-2.37565925E-003
-2.37422727E-003
2.60295931E-003
2.60297717E-003
2.60120088E-003
-1.03381706E-006
-8.51910556E-007
-7.22526815E-007
-2.80965679E-003
-2.80964057E-003
-2.80841851E-003
4.62160382E-007
-1.21663395E-007
-1.29309044E-007
-7.24299885E-007
-7.01225226E-007
-6.87856861E-007
-1.06090715E-003
-1.06085891E-003
-1.06080090E-003
9.52103159E-007
9.00857099E-007
8.53891411E-007
1.50005153E-003
1.49997861E-003
1.49987959E-003
-1.46728965E-006
-1.41137789E-006
-1.37159400E-006
-1.83741693E-003
-1.83734447E-003
-1.83725450E-003
1.50439432E-006
1.42514593E-006
1.33766613E-006
2.12136047E-003
2.12129617E-003
2.12120558E-003
-1.68213318E-006
-1.60105309E-006
-1.54053592E-006
-2.37193861E-003
-2.37188226E-003
-2.37181032E-003
1.89382323E-006
1.59005994E-006
1.38437798E-006
2.59809197E-003
2.59804345E-003
2.59797126E-003
-1.77929576E-006
-1.69301827E-006
-1.62696162E-006
-2.80642279E-003
-2.80637851E-003
-2.80632044E-003
1.81027034E-006
4.58510507E-007
1.49749261E-003
1.49749236E-003
1.49749061E-003
-1.61633994E-006
-1.60929904E-006
-1.60422252E-006
-1.83536808E-003
-1.83536664E-003
-1.83536430E-003
9.71015309E-007
9.62724309E-007
9.56290498E-007
2.11895165E-003
2.11895242E-003
2.11895152E-003
-1.61924002E-006
-1.60975652E-006
-1.60263885E-006
-2.37025024E-003
-2.37024989E-003
-2.37024859E-003
1.35526672E-006
1.34439519E-006
1.33602960E-006
2.59609532E-003
2.59609683E-003
2.59609672E-003
-1.60585470E-006
-1.59690126E-006
-1.59018026E-006
-2.80502307E-003
-2.80502336E-003
-2.80502271E-003
1.67398322E-006
1.66096127E-006
1.65098587E-006
0.00000000E+000
0.00000000E+000
0.00000000E+000
4.59242550E-020
4.59242550E-020
4.59242550E-020
-1.06066017E-003
-1.06066017E-003
-1.06066017E-003
-2.38629429E-019
-2.38629429E-019
-2.38629429E-019
1.50000000E-003
1.50000000E-003
1.50000000E-003
1.02689756E-019
1.02689756E-019
1.02689756E-019
-1.83711731E-003
-1.83711731E-003
-1.83711731E-003
-3.64512473E-019
-3.64512473E-019
-3.64512473E-019
2.12132034E-003
2.12132034E-003
2.12132034E-003
1.37772765E-019
1.37772765E-019
1.37772765E-019
-2.37170825E-003
-2.37170825E-003
-2.37170825E-003
-4.56940568E-019
-4.56940568E-019
-4.56940568E-019
2.59807621E-003
2.59807621E-003
2.59807621E-003
1.65582256E-019
1.65582256E-019
1.65582256E-019
-2.80624304E-003
-2.80624304E-003
-2.80624304E-003
-5.33591624E-019
-5.33591624E-019
-5.33591624E-019
-2.92736748E-007
-2.92736748E-007
-2.92736748E-007
-5.61953912E-007
-5.61953912E-007
-5.61953912E-007
-1.05982500E-003
-1.05982500E-003
-1.05982500E-003
-5.74403275E-007
-5.75267147E-007
1.73561058E-007
1.73561058E-007
1.73561058E-007
1.14700088E-006
1.49811215E-003
1.49811215E-003
1.49811215E-003
-8.90469259E-007
-5.76851505E-007
-1.30139484E-006
-1.29411180E-006
-8.90469259E-007
-8.90469259E-007
-1.83571336E-003
8.20472351E-007
-1.83571336E-003
-1.83571336E-003
4.47367998E-007
4.47367998E-007
-1.28945157E-006
-1.05942602E-003
-1.05941300E-003
4.47367998E-007
2.11953693E-003
2.11953693E-003
4.08118250E-007
4.99356306E-007
2.11953693E-003
-8.61345231E-007
-8.61345231E-007
-1.05939922E-003
6.91518545E-007
3.79449924E-008
1.32660455E-006
5.86048809E-007
6.35215023E-007
3.31733076E-007
-1.06591113E-003
-8.61345231E-007
-2.37054159E-003
1.51069115E-003
-2.93913842E-007
-1.20443019E-007
-1.69865723E-008
-1.84570564E-003
-2.37054159E-003
-2.37054159E-003
6.72050638E-007
2.13148252E-003
-7.81946827E-007
-5.57025826E-007
-4.08586305E-007
-2.37883338E-003
6.72050638E-007
6.72050638E-007
2.59658816E-003
2.60679800E-003
-1.12939419E-006
-8.70621249E-007
-6.90099861E-007
-2.81225301E-003
2.59658816E-003
2.59658816E-003
6.75892961E-007
3.24817106E-008
1.47304799E-008
-7.53529964E-007
-7.19914229E-007
-7.04688633E-007
-1.06175283E-003
-1.06166069E-003
-1.06153936E-003
1.45484812E-006
1.37164463E-006
1.17928566E-006
1.50161571E-003
1.50147606E-003
1.50126457E-003
-1.71531591E-006
-1.63345205E-006
-1.57795690E-006
-1.83875938E-003
-1.83862118E-003
-1.83843212E-003
2.06902549E-006
1.60831371E-006
2.12283798E-003
2.12271836E-003
2.12252554E-003
-2.04917436E-006
-1.92766013E-006
-1.83893423E-006
-2.37303795E-003
-2.37293147E-003
-2.37278024E-003
1.94132488E-006
2.59932073E-003
2.59923509E-003
2.59908239E-003
-2.22552882E-006
-2.08929552E-006
-1.98696783E-006
-2.80732983E-003
-2.80724715E-003
-2.80712515E-003
-8.38259287E-007
-8.38259287E-007
6.62817500E-007
1.49686031E-003
1.49684121E-003
1.49681897E-003
-2.19176484E-006
-2.17415133E-006
-2.16156819E-006
-1.83496192E-003
-1.83494278E-003
-1.83492193E-003
1.39841723E-006
1.37191649E-006
1.35049073E-006
2.11834523E-003
2.11833025E-003
2.11831153E-003
-2.23771296E-006
-2.21048496E-006
-2.18993873E-006
-2.36990262E-003
-2.36988939E-003
-2.36987411E-003
1.93337548E-006
1.89955634E-006
1.87251866E-006
2.59557920E-003
2.59556939E-003
2.59555582E-003
-2.22250561E-006
-2.19685001E-006
-2.17707191E-006
-2.80472607E-003
-2.80471685E-003
-2.80470547E-003
2.37720108E-006
2.33728008E-006
2.30556342E-006
-8.38259287E-007
-2.80526927E-003
-2.80526927E-003
-2.80526927E-003
8.58381017E-007
8.58381017E-007
8.58381017E-007
-5.84663641E-007
-5.84731222E-007
-5.84811224E-007
-1.12564210E-006
-1.12519939E-006
-1.12490504E-006
-1.05899378E-003
-1.05899341E-003
-1.05899300E-003
-6.51709678E-007
-6.57693402E-007
3.52476269E-007
3.51497089E-007
3.50748353E-007
1.49623097E-003
1.49623046E-003
1.49622982E-003
-1.78606726E-006
-6.65433268E-007
-1.60237879E-006
-1.59172264E-006
-1.78494375E-006
-1.78414995E-006
-1.83431513E-003
1.20376648E-006
-1.83431466E-003
-1.83431411E-003
9.04475806E-007
9.02645442E-007
-1.58638266E-006
-1.05945446E-003
-1.05940910E-003
9.01263218E-007
2.11775750E-003
2.11775749E-003
1.00818248E-006
2.11775723E-003
-1.73108401E-006
-1.72941656E-006
-1.05936058E-003
1.02508465E-006
3.63286634E-007
1.21754384E-006
-1.72818818E-006
-2.36937788E-003
4.15351749E-008
3.14199768E-007
3.52193111E-008
-2.36937785E-003
-2.36937766E-003
1.35622776E-006
2.13196580E-003
-6.22926315E-007
-2.95895802E-007
-1.83399138E-007
-2.37914636E-003
1.35391884E-006
1.35218553E-006
2.59510164E-003
2.60744717E-003
-1.10348435E-006
-7.33462402E-007
-4.81952760E-007
-2.81266175E-003
2.59510199E-003
2.59510203E-003
9.87424593E-007
3.58564976E-007
3.26592122E-007
-6.62271135E-007
-6.09486724E-007
-5.91966825E-007
-1.06330863E-003
-1.06316963E-003
-1.06295751E-003
2.09459519E-006
1.49603890E-006
1.50458340E-003
1.50438258E-003
1.50401088E-003
-1.88792876E-006
-1.77232543E-006
-1.69783498E-006
-1.84124940E-003
-1.84104387E-003
-1.84071325E-003
2.12566217E-003
2.12549887E-003
2.12516161E-003
-2.36840315E-006
-2.19805485E-006
-2.07791767E-006
-2.37508367E-003
-2.37492873E-003
-2.37466487E-003
2.60169805E-003
2.60159207E-003
2.60132667E-003
-2.65037875E-006
-2.45307219E-006
-2.30874312E-006
-2.80902340E-003
-2.80890597E-003
-2.80869363E-003
-1.68430425E-006
-1.68275874E-006
9.54095137E-007
1.49670322E-003
1.49662787E-003
1.49654306E-003
-2.76753042E-006
-2.73597064E-006
-2.71418409E-006
-1.83495773E-003
-1.83488849E-003
-1.83481317E-003
1.96720995E-006
1.90698995E-006
1.85589208E-006
2.11817857E-003
2.11811425E-003
2.11803929E-003
-2.90262598E-006
-2.84745407E-006
-2.80618968E-006
-2.36987860E-003
-2.36982729E-003
-2.36976950E-003
2.67391713E-006
2.59872420E-006
2.53584661E-006
2.59541970E-003
2.59537224E-003
2.59531449E-003
-2.91017817E-006
-2.85553351E-006
-2.81316773E-006
-2.80469209E-003
-2.80465348E-003
-2.80460850E-003
3.26043613E-006
3.11127313E-006
2.86663633E-006
-1.68161981E-006
-2.80429672E-003
-2.80429695E-003
-2.80429696E-003
1.73089664E-006
1.72818510E-006
1.72615638E-006
-8.66809719E-007
-8.68115802E-007
-8.69370533E-007
-1.68909023E-006
-1.68759918E-006
-1.68676003E-006
-1.05820948E-003
-1.05820296E-003
-1.05819682E-003
-6.30656487E-007
-6.45121391E-007
5.59901927E-007
5.53457582E-007
5.48299304E-007
1.49443618E-003
1.49442483E-003
1.49441389E-003
-2.69378113E-006
-6.65239775E-007
-1.83536679E-006
-1.82283280E-006
-2.68863284E-006
-2.68505484E-006
-1.83298985E-003
-1.83298011E-003
-1.83297080E-003
1.40763441E-006
1.39626530E-006
-1.82063231E-006
-1.05995198E-003
-1.05985002E-003
1.38738802E-006
2.11605106E-003
2.11604294E-003
1.17064125E-006
2.11603453E-003
-2.63352921E-006
-2.62422772E-006
-1.05973292E-003
1.53777548E-006
9.32079204E-007
1.33664336E-006
-2.61721394E-006
-2.36826754E-003
6.42417477E-007
-2.36826154E-003
-2.36825536E-003
2.09530674E-006
-2.39603478E-007
8.43200588E-008
2.08133598E-006
2.07051033E-006
2.59366889E-003
-8.87441522E-007
-3.58316769E-007
-4.02033471E-007
2.59366417E-003
2.59365869E-003
1.46542662E-006
8.34795510E-007
4.45358916E-007
-3.81383493E-007
-2.94696498E-007
-2.62719587E-007
-1.06587543E-003
-1.06523337E-003
-1.06345184E-003
1.50955736E-003
1.50854474E-003
1.50507169E-003
-1.93349081E-006
-1.76698434E-006
-1.66477947E-006
-1.84537244E-003
-1.84442093E-003
-1.84154772E-003
2.13041961E-003
2.12974105E-003
2.12635360E-003
-2.59204023E-006
-2.35782739E-006
-2.19873398E-006
-2.37847903E-003
-2.37792233E-003
-2.37549762E-003
2.60573981E-003
2.60543205E-003
2.60249880E-003
-3.00392133E-006
-2.73210741E-006
-2.53707137E-006
-2.81184175E-003
-2.81153901E-003
-2.80948595E-003
-2.56079721E-006
-2.55216004E-006
1.39720892E-006
1.49743845E-003
1.49726580E-003
1.49705668E-003
-3.30795518E-006
-3.26023885E-006
-3.22965578E-006
-1.83570399E-003
-1.83554738E-003
-1.83536427E-003
2.75237271E-006
2.64169482E-006
2.40529034E-006
2.11884569E-003
2.11869761E-003
2.11851068E-003
-3.57628057E-006
-3.48583572E-006
-3.41964526E-006
-2.37046299E-003
-2.37034567E-003
-2.37020333E-003
3.55088215E-006
3.04028882E-006
2.72783656E-006
2.59594346E-003
2.59583445E-003
2.59568900E-003
-3.64924354E-006
-3.55169007E-006
-3.47739138E-006
-2.80515574E-003
-2.80506667E-003
-2.80495460E-003
3.55613890E-006
-2.54564354E-006
-2.80336381E-003
-2.80336022E-003
-2.80335612E-003
2.66577001E-006
2.64960859E-006
2.63714239E-006
0.00000000E+000
0.00000000E+000
0.00000000E+000
4.59242550E-020
4.59242550E-020
4.59242550E-020
-1.06066017E-003
-1.06066017E-003
-1.06066017E-003
-2.38629429E-019
-2.38629429E-019
-2.38629429E-019
1.50000000E-003
1.50000000E-003
1.50000000E-003
1.02689756E-019
1.02689756E-019
1.02689756E-019
-1.83711731E-003
-1.83711731E-003
-1.83711731E-003
-3.64512473E-019
-3.64512473E-019
-3.64512473E-019
2.12132034E-003
2.12132034E-003
2.12132034E-003
1.37772765E-019
1.37772765E-019
1.37772765E-019
-2.37170825E-003
-2.37170825E-003
-2.37170825E-003
-4.56940568E-019
-4.56940568E-019
-4.56940568E-019
2.59807621E-003
2.59807621E-003
2.59807621E-003
1.65582256E-019
1.65582256E-019
1.65582256E-019
-2.80624304E-003
-2.80624304E-003
-2.80624304E-003
-5.33591624E-019
-5.33591624E-019
-5.33591624E-019
-1.11216466E-006
-1.11870946E-006
-1.12500608E-006
-4.40022396E-007
-2.23294260E-006
-2.23157086E-006
-2.23179738E-006
-1.05760416E-003
-1.05757158E-003
-1.05754069E-003
-4.44635921E-007
-4.67335955E-007
8.46492052E-007
8.24317718E-007
8.05655698E-007
-4.40022396E-007
-4.40022396E-007
1.49297624E-003
1.49291746E-003
1.49286094E-003
-3.60343228E-006
-5.06494169E-007
-1.95075710E-006
-1.93337964E-006
-3.59190946E-006
-3.58434497E-006
-1.83194759E-003
-7.99162097E-007
-7.99162097E-007
-1.83189744E-003
-1.83184944E-003
2.02179972E-006
1.98541950E-006
-1.93754180E-006
-1.06119985E-003
-1.06102474E-003
1.95579859E-006
2.11464563E-003
2.11459762E-003
-7.99162097E-007
-1.05916348E-003
2.11454986E-003
-3.58773151E-006
-3.56094625E-006
-1.06079959E-003
2.31203773E-006
1.64565923E-006
-1.05916348E-003
-1.05916348E-003
1.82025813E-007
1.82025813E-007
1.82025813E-007
1.49682105E-003
1.49682105E-003
1.49682105E-003
-1.23705268E-006
-3.54076582E-006
-2.36737790E-003
-1.23705268E-006
-1.23705268E-006
-1.83464719E-003
1.10236238E-006
-1.83464719E-003
-1.83464719E-003
5.66676976E-007
5.66676976E-007
5.66676976E-007
-2.36734253E-003
-2.36730745E-003
2.96115482E-006
2.11831217E-003
2.11831217E-003
2.11831217E-003
4.51740396E-007
-1.17868123E-006
-1.17868123E-006
-1.17868123E-006
-2.36965563E-003
2.91747288E-006
2.88224747E-006
2.59247308E-003
-2.36965563E-003
-2.36965563E-003
8.97118710E-007
-3.98542659E-007
-1.71759747E-007
8.97118710E-007
8.97118710E-007
2.59556624E-003
2.59243922E-003
2.59240409E-003
2.18135644E-006
1.71650779E-007
1.65516091E-007
-1.06894254E-003
2.59556624E-003
2.59556624E-003
-1.13241153E-006
1.51584529E-003
-1.78283294E-006
-1.53481304E-006
-1.38580018E-006
-1.85041967E-003
-1.13241153E-006
-1.13241153E-006
-2.80452978E-003
2.13700501E-003
-2.66279867E-006
-2.33447550E-006
-2.11948032E-006
-2.38310257E-003
-2.80452978E-003
-2.80452978E-003
1.17115561E-006
2.61186394E-003
-3.23406422E-006
-2.86135585E-006
-2.59766842E-006
-2.81600326E-003
1.17115561E-006
-3.49597499E-006
-3.47101671E-006
1.78981593E-006
1.49961993E-003
1.49932930E-003
1.49892563E-003
-3.76839941E-006
-3.70142049E-006
-3.66350409E-006
-1.83765553E-003
-1.83738835E-003
-1.83703586E-003
3.42454289E-006
2.76310430E-006
2.12087879E-003
2.12063610E-003
2.12027548E-003
-4.20772744E-006
-4.07633401E-006
-3.98372281E-006
-2.37202762E-003
-2.37182987E-003
-2.37155527E-003
2.59760339E-003
2.59743357E-003
2.59715412E-003
-4.38846935E-006
-4.23599434E-006
-4.12329314E-006
-2.80642361E-003
-2.80627572E-003
-2.80605928E-003
1.17115561E-006
-3.45162586E-006
-2.80260527E-003
-2.80258003E-003
-2.80255401E-003
3.74071669E-006
3.69087972E-006
3.65093033E-006
-1.27660167E-006
-1.29516495E-006
-1.31386659E-006
-8.77335644E-007
-2.71839464E-006
-2.72079258E-006
-2.72677896E-006
-1.05740145E-003
-1.05730803E-003
-1.05721521E-003
-8.09935560E-009
-3.39776482E-008
1.28942072E-006
1.23578311E-006
1.18809795E-006
-8.77756892E-007
-8.78105099E-007
1.49227024E-003
1.49210018E-003
1.49192910E-003
-4.48213640E-006
-9.82497196E-008
-1.88170824E-006
-1.84693509E-006
-4.46414390E-006
-4.45406688E-006
-1.83154550E-003
-1.59802021E-006
-1.59795912E-006
-1.83140019E-003
-1.83125469E-003
2.83150867E-006
2.74920196E-006
-1.85717770E-006
-1.06354347E-003
-1.06329814E-003
2.67880827E-006
2.11393295E-003
2.11378828E-003
-1.59795345E-006
-1.05767892E-003
2.11363876E-003
-4.57618857E-006
-4.52243662E-006
-1.06292742E-003
3.00245049E-006
-1.05767709E-003
-1.05767555E-003
3.71189762E-007
3.69880189E-007
3.68880267E-007
1.49366424E-003
1.49366094E-003
1.49365815E-003
-2.47708889E-006
-4.48278334E-006
-2.36699813E-003
-2.47636855E-006
-2.47587920E-006
-1.83219531E-003
-1.83219261E-003
-1.83219033E-003
1.14634104E-006
1.14391023E-006
1.14207124E-006
-2.36689139E-003
-2.36678136E-003
4.04305865E-006
2.11532060E-003
2.11531835E-003
2.11531636E-003
8.04575374E-007
-2.36528629E-006
-2.36372534E-006
-2.36257115E-006
-2.36761487E-003
3.94595129E-006
3.86389353E-006
2.59183385E-003
-2.36761329E-003
-2.36761187E-003
1.80943635E-006
4.42363531E-007
1.80656222E-006
1.80439794E-006
2.59306690E-003
2.59172683E-003
2.59161271E-003
1.00254318E-006
2.59306568E-003
2.59306449E-003
-2.27212140E-006
-1.34963130E-006
-1.03405722E-006
-2.27068593E-006
-2.26962379E-006
-2.80282418E-003
-2.50426597E-006
-2.03466112E-006
-1.88452543E-006
-2.80282331E-003
-2.80282246E-003
2.35940807E-006
-3.27664704E-006
-2.75355166E-006
-2.39320149E-006
2.35615355E-006
-4.50134532E-006
-4.44745627E-006
1.50393694E-003
1.50354767E-003
1.50288414E-003
-4.09920048E-006
-4.00384216E-006
-3.95575185E-006
-1.84137141E-003
-1.84100285E-003
-1.84042336E-003
2.12494895E-003
2.12464147E-003
2.12405146E-003
-4.74297759E-006
-4.56304783E-006
-4.44295599E-006
-2.37503208E-003
-2.37476780E-003
-2.37431760E-003
2.60098538E-003
2.60079162E-003
2.60033760E-003
-5.06624747E-006
-4.84804223E-006
-4.69276412E-006
-2.80887751E-003
-2.80868697E-003
-2.80833315E-003
2.35371014E-006
-4.40556903E-006
-2.80225735E-003
-2.80217774E-003
-2.80209327E-003
5.04908218E-006
4.72660073E-006
4.39384651E-006
-1.29850107E-006
-1.33458927E-006
-1.37504946E-006
-1.29628996E-006
-3.09510457E-006
-3.10552575E-006
-3.12435298E-006
-1.05789868E-003
-1.05770814E-003
-1.05750291E-003
7.75185645E-007
4.84032803E-007
1.98361641E-006
1.88087715E-006
1.78372913E-006
-1.29972924E-006
-1.30265494E-006
1.49288166E-003
1.49253830E-003
1.49216077E-003
-5.28364020E-006
-4.11672295E-008
-1.53772198E-006
-1.46474890E-006
-5.25991383E-006
-5.25114035E-006
-1.83226147E-003
-2.38757700E-006
-2.38836565E-006
-1.83196529E-003
-1.83164278E-003
3.93473572E-006
3.75883838E-006
-1.51017002E-006
-1.06737959E-003
-1.06572245E-003
3.32893716E-006
2.11444558E-003
2.11415315E-003
-2.38930679E-006
-1.05628188E-003
2.11381972E-003
-5.54595688E-006
-5.45964433E-006
-1.06315405E-003
-1.05626599E-003
-1.05625235E-003
5.98887964E-007
5.90199667E-007
5.83249333E-007
1.49066943E-003
1.49064042E-003
1.49061540E-003
-3.71967225E-006
-5.39845727E-006
-2.36751647E-003
-3.71694387E-006
-3.71525030E-006
-1.82987924E-003
-1.82985511E-003
-1.82983425E-003
1.78738212E-006
1.77229160E-006
1.76048634E-006
-2.36729792E-003
-2.36705128E-003
5.09842581E-006
2.11246635E-003
2.11244372E-003
2.11242361E-003
-3.58350176E-006
-3.57469787E-006
-3.56802213E-006
-2.36567410E-003
4.42697806E-006
4.01542069E-006
2.59219035E-003
-2.36565778E-003
-2.36564324E-003
2.79135173E-006
2.77384903E-006
2.76023659E-006
2.59066965E-003
2.59197569E-003
2.59171934E-003
2.59065439E-003
2.59064033E-003
-3.44114196E-006
-5.38729717E-007
-3.43301690E-006
-3.42684934E-006
-2.80119331E-003
-2.02242417E-006
-1.62428937E-006
-2.80118223E-003
-2.80117199E-003
3.62432343E-006
-3.04305809E-006
-2.30313057E-006
-2.33948249E-006
3.60474858E-006
-5.54659118E-006
-5.44930153E-006
1.51117654E-003
1.50843688E-003
1.50352268E-003
-4.23909052E-006
-4.09123043E-006
-4.02092428E-006
-1.84748877E-003
-1.84500557E-003
-1.84087903E-003
2.13182090E-003
2.12987096E-003
2.12507402E-003
-5.12665611E-006
-4.87962059E-006
-4.72370167E-006
-2.38000710E-003
-2.37851759E-003
-2.37504134E-003
2.60676338E-003
2.60571716E-003
2.60157013E-003
-5.62199382E-006
-5.32414792E-006
-5.11653823E-006
-2.81296454E-003
-2.81211120E-003
-2.80917236E-003
3.58958378E-006
-5.37588999E-006
-2.80263818E-003
-2.80247479E-003
-2.80228355E-003
5.29607661E-006
0.00000000E+000
0.00000000E+000
0.00000000E+000
4.59242550E-020
4.59242550E-020
4.59242550E-020
-1.06066017E-003
-1.06066017E-003
-1.06066017E-003
-2.38629429E-019
-2.38629429E-019
-2.38629429E-019
1.50000000E-003
1.50000000E-003
1.50000000E-003
1.02689756E-019
1.02689756E-019
1.02689756E-019
-1.83711731E-003
-1.83711731E-003
-1.83711731E-003
-3.64512473E-019
-3.64512473E-019
-3.64512473E-019
2.12132034E-003
2.12132034E-003
2.12132034E-003
1.37772765E-019
1.37772765E-019
1.37772765E-019
-2.37170825E-003
-2.37170825E-003
-2.37170825E-003
-4.56940568E-019
-4.56940568E-019
-4.56940568E-019
2.59807621E-003
2.59807621E-003
2.59807621E-003
1.65582256E-019
1.65582256E-019
1.65582256E-019
-2.80624304E-003
-2.80624304E-003
-2.80624304E-003
-5.33591624E-019
-5.33591624E-019
-5.33591624E-019
-1.09022065E-006
-1.14390109E-006
-1.21565115E-006
-1.65937491E-006
-3.30271633E-006
-3.31834470E-006
-3.35544218E-006
-1.05947184E-003
-1.05916360E-003
-1.05879105E-003
1.48272757E-006
3.03371096E-006
2.68718570E-006
2.18509101E-006
-1.67247499E-006
-1.68411581E-006
1.49554512E-003
1.49500304E-003
1.49432156E-003
-5.95530810E-006
-8.15710920E-007
-9.82562921E-007
-5.92455983E-006
-5.92152799E-006
-1.83470525E-003
-3.13768008E-006
-3.14325960E-006
-1.83422994E-003
-1.83364491E-003
4.60416580E-006
-1.07056060E-003
2.11689060E-003
2.11644058E-003
-5.80431098E-007
-3.14913185E-006
-1.05516304E-003
2.11583896E-003
-6.43286055E-006
-6.31024186E-006
-5.80431098E-007
-5.80431098E-007
-1.05510013E-003
-1.05504389E-003
9.33612636E-007
-1.01953306E-006
9.03607444E-007
8.78384488E-007
1.48819122E-003
1.48807584E-003
1.48797219E-003
-4.94323127E-006
-6.22869752E-006
-2.36942952E-003
-4.93911508E-006
-4.93753999E-006
-1.82800124E-003
-1.01953306E-006
-1.82790423E-003
-1.82781698E-003
2.57514655E-006
2.52706032E-006
2.48783237E-006
-2.36908495E-003
-2.36863725E-003
2.11007343E-003
2.10997792E-003
2.10989013E-003
-1.01953306E-006
-1.05841604E-003
-4.84941946E-006
-4.82399920E-006
-4.80486960E-006
-2.36407246E-003
2.59414246E-003
-2.36400291E-003
-2.36393884E-003
3.93461721E-006
-1.05841604E-003
-1.05841604E-003
1.80115810E-007
3.87976943E-006
3.83534689E-006
2.58863319E-003
2.59382754E-003
2.59336739E-003
1.80115810E-007
1.80115810E-007
1.49542503E-003
1.49542503E-003
1.49542503E-003
-1.55461773E-006
-1.55461773E-006
-1.55461773E-006
-1.83345664E-003
2.58856422E-003
2.58849916E-003
-4.66846586E-006
-1.83345664E-003
-1.83345664E-003
6.70752713E-007
-1.60762488E-007
6.70752713E-007
6.70752713E-007
2.11698608E-003
2.11698608E-003
2.11698608E-003
-4.64473193E-006
-4.62612737E-006
-2.79982862E-003
-1.46658637E-006
-1.46658637E-006
-1.46658637E-006
-1.11624785E-006
-2.36866630E-003
-2.36866630E-003
-2.36866630E-003
1.10699118E-006
-2.79977806E-003
-2.79973030E-003
5.06319492E-006
1.10699118E-006
1.10699118E-006
2.59445977E-003
-2.43016201E-006
-2.16408864E-006
2.59445977E-003
2.59445977E-003
-1.39680595E-006
5.00252930E-006
-6.56413997E-006
-6.41165769E-006
-1.39680595E-006
1.51786465E-003
-4.10237732E-006
-3.85996413E-006
-3.76512350E-006
-1.85283471E-003
-1.39680595E-006
-2.80370402E-003
-2.80370402E-003
2.13939238E-003
-5.29197118E-006
-4.93649172E-006
-4.72210687E-006
-2.38539200E-003
-2.80370402E-003
1.46876580E-006
1.46876580E-006
2.61425463E-003
-5.99696203E-006
-5.58607356E-006
-5.30193729E-006
-2.81811254E-003
1.46876580E-006
4.95363791E-006
-6.30154733E-006
-2.80415652E-003
-2.80390453E-003
-2.80355759E-003
-5.42748155E-007
-6.07768184E-007
-7.41848341E-007
-1.91151666E-006
-3.25814329E-006
-3.26256885E-006
-3.31800399E-006
-1.06256746E-003
-1.06214939E-003
-1.06138877E-003
3.66091293E-006
-1.94421975E-006
-1.97437098E-006
1.50114624E-003
1.50043675E-003
1.49925411E-003
-6.44211190E-006
4.10607145E-008
-6.39326928E-006
-6.39360747E-006
-1.83960106E-003
-3.79852964E-006
-3.81583354E-006
-1.83896572E-003
-1.83786933E-003
2.12213281E-003
2.12157315E-003
-1.15609525E-006
-3.83448551E-006
-1.05461534E-003
2.12063175E-003
-7.17406362E-006
-7.00853742E-006
-1.15690512E-006
-1.15754616E-006
-1.05445385E-003
-1.05430261E-003
1.47688086E-006
-2.03656186E-006
1.40439761E-006
1.34012085E-006
1.48677143E-003
1.48647543E-003
1.48619622E-003
-6.10348173E-006
-6.90786255E-006
-2.37333274E-003
-6.10140938E-006
-6.10477587E-006
-1.82702897E-003
-2.03691807E-006
-1.82677812E-003
-1.82654146E-003
3.61747378E-006
3.50944578E-006
3.41686709E-006
-2.37288918E-003
-2.37218566E-003
2.10864877E-003
2.10839702E-003
2.10815233E-003
-2.03722625E-006
-1.05619431E-003
-6.13555843E-006
-6.08518467E-006
-6.04858054E-006
-2.36318705E-003
2.59844528E-003
-2.36300258E-003
-2.36282298E-003
5.35149520E-006
-1.05619058E-003
-1.05618760E-003
3.69332244E-007
5.22979033E-006
5.18374677E-006
2.58736955E-003
2.59808847E-003
2.59737455E-003
3.67653337E-007
3.66374663E-007
1.49089094E-003
1.49088417E-003
1.49087875E-003
-3.10988264E-006
-3.10960701E-006
-3.10945157E-006
-1.82982966E-003
2.58718269E-003
2.58699660E-003
-5.96372108E-006
-1.82982412E-003
-1.82981967E-003
1.35823365E-006
1.35510294E-006
1.35273439E-006
2.11268364E-003
2.11267862E-003
2.11267451E-003
-5.91175471E-006
-5.87122097E-006
-2.79903705E-003
-2.94051230E-006
-2.93908060E-006
-2.93801736E-006
-9.08110278E-007
-2.36564733E-003
-2.36564374E-003
-2.36564078E-003
2.23263516E-006
-2.79889934E-003
-2.79876208E-003
6.79216091E-006
2.22911898E-006
2.22646748E-006
2.59086502E-003
-1.53278359E-006
2.59086181E-003
2.59085909E-003
-2.80037075E-006
6.24825973E-006
-7.47889629E-006
-7.26102424E-006
-2.79905556E-006
-3.58344309E-006
-3.33118605E-006
-2.79807778E-006
-2.80118076E-003
-2.80117845E-003
-5.14543995E-006
-4.61907722E-006
-4.49929261E-006
-2.80117648E-003
2.95789353E-006
2.95403500E-006
-6.11645979E-006
-5.52613185E-006
-5.12402723E-006
2.95113223E-006
5.83352630E-006
-7.11182326E-006
-2.80730791E-003
-2.80699823E-003
-2.80645565E-003
