 0.00000000E+000
 0.00000000E+000
 0.00000000E+000
 0.00000000E+000
 0.00000000E+000
 0.00000000E+000
 0.00000000E+000
 0.00000000E+000
 0.92499999E+001
 0.92499999E+001
 0.00000000E+000
 0.00000000E+000
 0.00000000E+000
 0.00000000E+000
 0.00000000E+000
 0.00000000E+000
 0.60000000E+001
 0.60000000E+001
 0.00000000E+000
 0.00000000E+000
 0.00000000E+000
 0.00000000E+000
 0.00000000E+000
 0.00000000E+000
 0.00000000E+000
 0.00000000E+000
 0.00000000E+000
 0.00000000E+000
 0.00000000E+000
 0.00000000E+000
 0.00000000E+000
 0.00000000E+000
 0.00000000E+000
 0.00000000E+000
 0.00000000E+000
 0.00000000E+000
 0.00000000E+000
 0.00000000E+000
 0.00000000E+000
 0.00000000E+000
 0.45500000E+002
 0.42250000E+002
 0.45499999E+002
 0.42249999E+002
 0.00000000E+000
 0.00000000E+000
 0.00000000E+000
 0.00000000E+000
 0.00000000E+000
 0.00000000E+000
 0.00000000E+000
 0.00000000E+000
 0.00000000E+000
 0.00000000E+000
 0.00000000E+000
 0.00000000E+000
 0.00000000E+000
 0.00000000E+000
 0.00000000E+000
 0.00000000E+000
 0.00000000E+000
 0.00000000E+000
 0.00000000E+000
 0.00000000E+000
