 0.00000000E+000
 0.00000000E+000
 0.00000000E+000
 0.00000000E+000
 0.74751876E+000
 0.74735283E+000
 0.74698471E+000
 0.74797673E+000
 0.10000000E+001
 0.10000000E+001
 0.10000000E+001
 0.10000000E+001
 0.99999999E+000
 0.99999999E+000
 0.99999999E+000
 0.99999999E+000
 0.00000000E+000
 0.00000000E+000
 0.00000000E+000
 0.00000000E+000
 0.00000000E+000
 0.00000000E+000
 0.00000000E+000
 0.00000000E+000
 0.11665821E+000
 0.41505429E+000
 0.11664540E+000
 0.41501917E+000
 0.11651386E+000
 0.41469414E+000
 0.11652492E+000
 0.41480232E+000
 0.76173445E+000
 0.75667565E+000
 0.75847557E+000
 0.76001632E+000
 0.76276638E+000
 0.76209529E+000
 0.75866206E+000
 0.76130752E+000
 0.96861411E+000
 0.10000000E+001
 0.97084633E+000
 0.10000000E+001
 0.97077045E+000
 0.10000000E+001
 0.96785408E+000
 0.10000000E+001
 0.99999983E+000
 0.99999979E+000
 0.99999656E+000
 0.99999815E+000
 0.99999684E+000
 0.99999905E+000
 0.99999706E+000
 0.99999991E+000
 0.10000000E+001
 0.10000000E+001
 0.10000000E+001
 0.10000000E+001
 0.10000000E+001
 0.10000000E+001
 0.10000000E+001
 0.10000000E+001
 0.99999999E+000
 0.99999999E+000
 0.99999999E+000
 0.99999999E+000
 0.99999999E+000
 0.99999999E+000
 0.99999999E+000
 0.99999999E+000
 0.00000000E+000
 0.00000000E+000
 0.00000000E+000
 0.00000000E+000
 0.11621741E+000
 0.41958834E+000
 0.11619268E+000
 0.41952737E+000
 0.11615696E+000
 0.41960822E+000
 0.11602790E+000
 0.41926070E+000
 0.11596043E+000
 0.41907985E+000
 0.11597179E+000
 0.41923978E+000
 0.11600134E+000
 0.41940559E+000
 0.11614679E+000
 0.41966290E+000
 0.10000000E+001
 0.10000000E+001
 0.10000000E+001
 0.10000000E+001
 0.99990778E+000
 0.99982539E+000
 0.99999789E+000
 0.10000000E+001
 0.99986516E+000
 0.95063594E+000
 0.93104219E+000
 0.92576342E+000
 0.99890013E+000
 0.99930663E+000
 0.10000000E+001
 0.99999472E+000
 0.99892230E+000
 0.95095551E+000
 0.92761419E+000
 0.93281189E+000
 0.99906333E+000
 0.99981644E+000
 0.99999650E+000
 0.99998588E+000
 0.99878310E+000
 0.94881979E+000
 0.92312268E+000
 0.93086900E+000
 0.99869160E+000
 0.99947971E+000
 0.99999302E+000
 0.99999220E+000
 0.99903118E+000
 0.95164660E+000
 0.92858502E+000
 0.93054915E+000
 0.10000000E+001
 0.10000000E+001
 0.10000000E+001
 0.10000000E+001
 0.10000000E+001
 0.10000000E+001
 0.99999999E+000
 0.10000000E+001
 0.10000000E+001
 0.10000000E+001
 0.10000000E+001
 0.10000000E+001
 0.10000000E+001
 0.10000000E+001
 0.10000000E+001
 0.10000000E+001
 0.10000000E+001
 0.10000000E+001
 0.10000000E+001
 0.10000000E+001
 0.99999999E+000
 0.99999999E+000
 0.99999999E+000
 0.99999999E+000
 0.11598475E+000
 0.48353845E+000
 0.11575871E+000
 0.48454852E+000
 0.11599024E+000
 0.48326464E+000
 0.11581567E+000
 0.48431289E+000
 0.10000000E+001
 0.10000000E+001
 0.10000000E+001
 0.10000000E+001
 0.10000000E+001
 0.10000000E+001
 0.10000000E+001
 0.10000000E+001
 0.94923217E+000
 0.10000000E+001
 0.96065549E+000
 0.99613514E+000
 0.99999971E+000
 0.10000000E+001
 0.97307794E+000
 0.10000000E+001
 0.93912463E+000
 0.99999292E+000
 0.10000000E+001
 0.99997677E+000
 0.99999682E+000
 0.10000000E+001
 0.99996732E+000
 0.99997413E+000
 0.10000000E+001
 0.99997145E+000
 0.10000000E+001
 0.10000000E+001
 0.10000000E+001
 0.10000000E+001
 0.10000000E+001
 0.10000000E+001
 0.10000000E+001
 0.10000000E+001
