 0.29800000E+003
 0.29800000E+003
 0.29800000E+003
 0.29800000E+003
 0.29800000E+003
 0.29800000E+003
 0.29800000E+003
 0.29800000E+003
 0.29800000E+003
 0.29800000E+003
 0.29800000E+003
 0.29800000E+003
 0.29800000E+003
 0.29800000E+003
 0.29800000E+003
 0.29800000E+003
 0.29800000E+003
 0.29800000E+003
 0.29800000E+003
 0.29800000E+003
 0.29800000E+003
 0.29800000E+003
 0.29800000E+003
 0.29800000E+003
 0.29800000E+003
 0.29800000E+003
 0.29800000E+003
 0.29800000E+003
 0.29800000E+003
 0.29800000E+003
 0.29800000E+003
 0.29800000E+003
 0.29800000E+003
 0.29800000E+003
 0.29800000E+003
 0.29800000E+003
 0.29800000E+003
 0.29800000E+003
 0.29800000E+003
 0.29800000E+003
 0.29800000E+003
 0.29800000E+003
 0.29800000E+003
 0.29800000E+003
 0.29800000E+003
 0.29800000E+003
 0.29800000E+003
 0.29800000E+003
 0.29800000E+003
 0.29800000E+003
 0.29800000E+003
 0.29800000E+003
 0.29800000E+003
 0.29800000E+003
 0.29800000E+003
 0.29800000E+003
 0.29800000E+003
 0.29800000E+003
 0.29800000E+003
 0.29800000E+003
 0.29800000E+003
 0.29800000E+003
 0.29800000E+003
 0.29800000E+003
 0.29800000E+003
 0.29800000E+003
 0.29800000E+003
 0.29800000E+003
 0.29800000E+003
 0.29800000E+003
 0.29800000E+003
 0.29800000E+003
 0.29800000E+003
 0.29800000E+003
 0.29800000E+003
 0.29800000E+003
 0.29800000E+003
 0.29800000E+003
 0.29800000E+003
 0.29800000E+003
 0.29800000E+003
 0.29800000E+003
 0.29800000E+003
 0.29800000E+003
 0.29800000E+003
 0.29800000E+003
 0.29800000E+003
 0.29800000E+003
 0.29800000E+003
 0.29800000E+003
 0.29800000E+003
 0.29800000E+003
 0.13643916E+004
 0.13634022E+004
 0.13563834E+004
 0.13913094E+004
 0.29800000E+003
 0.29800000E+003
 0.29800000E+003
 0.29800000E+003
 0.29800000E+003
 0.29800000E+003
 0.29800000E+003
 0.29800000E+003
 0.29800000E+003
 0.29800000E+003
 0.29800000E+003
 0.29800000E+003
 0.29800000E+003
 0.29800000E+003
 0.29800000E+003
 0.29800000E+003
 0.29800000E+003
 0.29800000E+003
 0.29800000E+003
 0.29800000E+003
 0.29800000E+003
 0.29800000E+003
 0.29800000E+003
 0.29800000E+003
 0.29800000E+003
 0.29800000E+003
 0.29800000E+003
 0.29800000E+003
 0.29800000E+003
 0.29800000E+003
 0.29800000E+003
 0.29800000E+003
 0.14639627E+004
 0.14550428E+004
 0.14332035E+004
 0.14655589E+004
 0.29800000E+003
 0.29800000E+003
 0.29800000E+003
 0.29800000E+003
 0.29800000E+003
 0.29800000E+003
 0.29800000E+003
 0.29800000E+003
 0.29800000E+003
 0.29800000E+003
 0.29800000E+003
 0.29800000E+003
 0.29800000E+003
 0.29800000E+003
 0.29800000E+003
 0.29800000E+003
 0.12611522E+004
 0.12632154E+004
 0.12583569E+004
 0.12608336E+004
 0.46932256E+003
 0.86083892E+003
 0.46935175E+003
 0.86134947E+003
 0.46927844E+003
 0.86125960E+003
 0.46932191E+003
 0.86105857E+003
 0.16225285E+004
 0.15324553E+004
 0.15159298E+004
 0.14734843E+004
 0.16209240E+004
 0.14249208E+004
 0.13794153E+004
 0.13648541E+004
 0.10195158E+004
 0.14118910E+004
 0.11095173E+004
 0.13043132E+004
 0.17946596E+004
 0.13752778E+004
 0.12300278E+004
 0.13637330E+004
 0.10249607E+004
 0.11683958E+004
 0.13099130E+004
 0.10837741E+004
 0.12429344E+004
 0.17974691E+004
 0.13244993E+004
 0.10745049E+004
 0.13113360E+004
 0.10969719E+004
 0.13490688E+004
 0.13061335E+004
 0.13509071E+004
 0.13088791E+004
 0.13500176E+004
 0.13084646E+004
 0.13515272E+004
 0.13108232E+004
