GiD Post Results File 1.0
 
Result EXNOR ALYA  0.00000000E+00 Vector OnNodes
ComponentNames EXNOR_X,EXNOR_Y,EXNOR_Z
Values
          1  0.00000000E+000  0.10000000E+001
          2  0.00000000E+000  0.00000000E+000
          3  0.00000000E+000  0.10000000E+001
          4  0.00000000E+000  0.00000000E+000
          5  0.00000000E+000  0.00000000E+000
          6  0.00000000E+000  0.00000000E+000
          7  0.00000000E+000  0.00000000E+000
          8  0.00000000E+000  0.00000000E+000
          9  0.00000000E+000  0.00000000E+000
         10  0.00000000E+000  0.00000000E+000
         11  0.00000000E+000  0.00000000E+000
         12  0.00000000E+000  0.00000000E+000
         13  0.00000000E+000  0.00000000E+000
         14  0.00000000E+000  0.00000000E+000
         15  0.00000000E+000  0.00000000E+000
         16  0.00000000E+000  0.00000000E+000
         17  0.00000000E+000  0.00000000E+000
         18  0.00000000E+000  0.00000000E+000
         19  0.00000000E+000  0.00000000E+000
         20  0.00000000E+000  0.00000000E+000
         21  0.00000000E+000 -0.10000000E+001
         22  0.00000000E+000 -0.10000000E+001
End values

Result MASSM ALYA  0.00000000E+00 Scalar OnNodes
ComponentNames MASSM
Values
          1  0.50000000E-002
          2  0.10000000E-001
          3  0.50000000E-002
          4  0.10000000E-001
          5  0.10000000E-001
          6  0.10000000E-001
          7  0.10000000E-001
          8  0.10000000E-001
          9  0.10000000E-001
         10  0.10000000E-001
         11  0.10000000E-001
         12  0.10000000E-001
         13  0.10000000E-001
         14  0.10000000E-001
         15  0.10000000E-001
         16  0.10000000E-001
         17  0.10000000E-001
         18  0.10000000E-001
         19  0.10000000E-001
         20  0.10000000E-001
         21  0.50000000E-002
         22  0.50000000E-002
End values

