{
    "authors": [
        "alfonso.santiago@bsc.es",
        "cbutakoff@elem.bio"
    ],
    "comparisons": [
        {
            "file": "windk2d4el_impl-boundary.nsi.set",
            "method": "absolute",
            "tolerance": 0
        }
    ],
    "description": "Nastin 4 element windkessel boundary condition with prescribed flowrate. Implicit solver.",
    "exclude": [
        "special"
    ],
    "executions": [
        {
            "mpi": 1,
            "openmp": 0
        },
        {
            "mpi": 3,
            "openmp": 0
        }
    ],
    "modules": [
        "nastin"
    ],
    "name": "windk2d4el_impl",
    "postprocess": "alya2pos"
}
