BEATS= 100
CYCLELENGTH=  1000
IGNORE_STEADY_STATE ENDO MID EPI
MYOCYTE= MODIFIED
$------------------------
CONDUCTANCES
$!! Male Phenotype. Female Phenotype is commented below!!
INAME= HUMAN
$---1 conductance ito channel (GIto)
1.0 1.0 1.0 
$---2 conductance slow potassium channel (GKs) ****
1.0 1.0 1.0 
$---3 conductance potassium channel (GK1)  ****
1.0 1.0 1.0 
$---4 conductance rapid potassium channel (GKr) ****
1.0 1.0 1.0 
$---5 conductance sodium channel (GNa)  ****
1.0 1.0 1.0
$---6 conductance late sodium channel (GNaL)  ****
1.0 1.0 1.0 
$---7 conductance sodium calcium exchanger (GNaCa) ****
1.0 1.0 1.0
$---8 background potassium background current conductance (gKb) ****
1.0 1.0 1.0
$---9 L-type calcium current permeability (pCa equiv to gCaL)  ****
1.0 1.0 1.0 
$---10 sodium potassium pump current permeability (pNaK)
1.0 1.0 1.0 
$---11 Calmodulin
1.0 1.0 1.0 
$---12 Serca Pump (Jup)
1.0 1.0 1.0 
$---13 Sodium, Calcium, Potassium
1.0 1.0 1.0
$---14 Ik_atp 
0.0 0.0 0.0 

END_CONDUCTANCES
$------------------------
