2.68437317E-010
2.64350169E-010
2.37976725E-010
2.16113281E-010
1.97251774E-010
1.80562441E-010
1.65511287E-010
1.51732752E-010
1.38959475E-010
1.26981949E-010
1.15632566E-010
1.04793996E-010
9.44066199E-011
8.44521913E-011
7.49320324E-011
6.58549358E-011
5.72327753E-011
4.90794630E-011
4.14110887E-011
3.42465068E-011
2.76082255E-011
