 0.00000000E+000  0.00000000E+000  0.00000000E+000
 0.00000000E+000  0.00000000E+000  0.00000000E+000
 0.00000000E+000  0.00000000E+000  0.00000000E+000
 0.00000000E+000  0.00000000E+000  0.00000000E+000
 0.00000000E+000  0.00000000E+000  0.00000000E+000
 0.00000000E+000  0.00000000E+000  0.00000000E+000
 0.00000000E+000  0.00000000E+000  0.00000000E+000
 0.00000000E+000  0.00000000E+000  0.00000000E+000
 0.00000000E+000  0.00000000E+000  0.00000000E+000
 0.00000000E+000  0.00000000E+000  0.00000000E+000
 0.00000000E+000  0.00000000E+000  0.00000000E+000
 0.00000000E+000  0.00000000E+000  0.00000000E+000
 0.00000000E+000  0.00000000E+000  0.00000000E+000
 0.00000000E+000  0.00000000E+000  0.00000000E+000
 0.00000000E+000  0.00000000E+000  0.00000000E+000
 0.00000000E+000  0.00000000E+000  0.00000000E+000
 0.00000000E+000  0.00000000E+000  0.00000000E+000
 0.00000000E+000  0.00000000E+000  0.00000000E+000
 0.00000000E+000  0.00000000E+000  0.00000000E+000
 0.00000000E+000  0.00000000E+000  0.00000000E+000
 0.00000000E+000  0.00000000E+000  0.00000000E+000
 0.00000000E+000  0.00000000E+000  0.00000000E+000
 0.00000000E+000  0.00000000E+000  0.00000000E+000
 0.00000000E+000  0.00000000E+000  0.00000000E+000
 0.00000000E+000  0.00000000E+000  0.00000000E+000
 0.00000000E+000  0.00000000E+000  0.00000000E+000
 0.00000000E+000  0.00000000E+000  0.00000000E+000
 0.00000000E+000  0.00000000E+000  0.00000000E+000
 0.00000000E+000  0.00000000E+000  0.00000000E+000
 0.00000000E+000  0.00000000E+000  0.00000000E+000
 0.00000000E+000  0.00000000E+000  0.00000000E+000
 0.00000000E+000  0.00000000E+000  0.00000000E+000
 0.00000000E+000  0.00000000E+000  0.00000000E+000
 0.00000000E+000  0.00000000E+000  0.00000000E+000
 0.00000000E+000  0.00000000E+000  0.00000000E+000
 0.00000000E+000  0.00000000E+000  0.00000000E+000
 0.00000000E+000  0.00000000E+000  0.00000000E+000
 0.00000000E+000  0.00000000E+000  0.00000000E+000
 0.00000000E+000  0.00000000E+000  0.00000000E+000
 0.00000000E+000  0.00000000E+000  0.00000000E+000
 0.00000000E+000  0.00000000E+000  0.00000000E+000
 0.00000000E+000  0.00000000E+000  0.00000000E+000
 0.00000000E+000  0.00000000E+000  0.00000000E+000
 0.00000000E+000  0.00000000E+000  0.00000000E+000
 0.23747964E-003 -0.44227225E-003 -0.29614826E-011
 0.23747964E-003 -0.44227225E-003 -0.29614826E-011
 0.20466189E-003 -0.38115384E-003 -0.25522299E-011
 0.20466189E-003 -0.38115384E-003 -0.25522299E-011
 0.00000000E+000  0.00000000E+000  0.00000000E+000
 0.00000000E+000  0.00000000E+000  0.00000000E+000
 0.00000000E+000  0.00000000E+000  0.00000000E+000
 0.00000000E+000  0.00000000E+000  0.00000000E+000
 0.00000000E+000  0.00000000E+000  0.00000000E+000
 0.00000000E+000  0.00000000E+000  0.00000000E+000
 0.00000000E+000  0.00000000E+000  0.00000000E+000
 0.00000000E+000  0.00000000E+000  0.00000000E+000
 0.00000000E+000  0.00000000E+000  0.00000000E+000
 0.00000000E+000  0.00000000E+000  0.00000000E+000
 0.00000000E+000  0.00000000E+000  0.00000000E+000
 0.00000000E+000  0.00000000E+000  0.00000000E+000
 0.10200047E-003 -0.18996145E-003 -0.12719937E-011
 0.10200047E-003 -0.18996145E-003 -0.12719937E-011
 0.87904838E-004 -0.16371033E-003 -0.10962146E-011
 0.87904838E-004 -0.16371033E-003 -0.10962146E-011
