GiD Post Results File 1.0
 
Result TEMPE ALYA  0.00000000E+00 Scalar OnNodes
ComponentNames TEMPE
Values
          1  0.10000000E+002
          2  0.00000000E+000
          3  0.00000000E+000
          4  0.00000000E+000
          5  0.00000000E+000
          6  0.00000000E+000
          7  0.00000000E+000
          8  0.00000000E+000
          9  0.00000000E+000
         10  0.00000000E+000
         11  0.10000000E+002
         12  0.50000000E+001
         13  0.00000000E+000
         14  0.00000000E+000
         15  0.00000000E+000
         16  0.00000000E+000
         17  0.00000000E+000
         18  0.00000000E+000
         19  0.00000000E+000
         20  0.00000000E+000
         21  0.00000000E+000
         22  0.50000000E+001
End values

Result TEMPE ALYA  0.10000000E+00 Scalar OnNodes
ComponentNames TEMPE
Values
          1  0.10000000E+002
          2  0.99496020E+001
          3  0.97997856E+001
          4  0.95490717E+001
          5  0.91989667E+001
          6  0.87488938E+001
          7  0.81989667E+001
          8  0.75490717E+001
          9  0.67997856E+001
         10  0.59496020E+001
         11  0.10000000E+002
         12  0.50000000E+001
         13  0.99496020E+001
         14  0.97997856E+001
         15  0.95490717E+001
         16  0.91989667E+001
         17  0.87488938E+001
         18  0.81989667E+001
         19  0.75490717E+001
         20  0.67997856E+001
         21  0.59496020E+001
         22  0.50000000E+001
End values

