1	-0.19290533E+006
2	-0.19290533E+006
3	-0.19290533E+006
4	-0.19290533E+006
5	-0.19290533E+006
6	-0.19290533E+006
7	-0.19290533E+006
8	-0.19290533E+006
9	-0.19290533E+006
10	-0.19290533E+006
11	-0.19290533E+006
12	-0.19290533E+006
13	-0.19290533E+006
14	-0.19290533E+006
15	-0.19290533E+006
16	-0.19290533E+006
17	-0.19290533E+006
18	-0.19290533E+006
19	-0.19290533E+006
20	-0.19290533E+006
21	-0.19290533E+006
22	-0.19290533E+006
23	-0.19290533E+006
24	-0.19290534E+006
25	-0.19290527E+006
26	-0.19290070E+006
27	-0.19275875E+006
28	-0.19270764E+006
29	-0.19440007E+006
30	-0.19466413E+006
31	-0.19112125E+006
32	-0.19102126E+006
33	-0.19198457E+006
34	-0.19259791E+006
35	-0.19282927E+006
36	-0.19289057E+006
37	-0.19290297E+006
38	-0.19290501E+006
39	-0.19290529E+006
40	-0.19290533E+006
41	-0.19290533E+006
42	-0.19290533E+006
43	-0.19290533E+006
44	-0.19290533E+006
45	-0.19290533E+006
46	-0.19290533E+006
47	-0.19290533E+006
48	-0.19290533E+006
49	-0.19290533E+006
50	-0.19290533E+006
51	-0.19290533E+006
52	-0.19290533E+006
53	-0.19290533E+006
54	-0.19290533E+006
55	-0.19290533E+006
56	-0.19290533E+006
57	-0.19290533E+006
58	-0.19290533E+006
59	-0.19290533E+006
60	-0.19290533E+006
61	-0.19290533E+006
62	-0.19290533E+006
63	-0.19290533E+006
64	-0.19290533E+006
65	-0.19290533E+006
66	-0.19290533E+006
67	-0.19290533E+006
68	-0.19290529E+006
69	-0.19290501E+006
70	-0.19290297E+006
71	-0.19289057E+006
72	-0.19282927E+006
73	-0.19259791E+006
74	-0.19198457E+006
75	-0.19102126E+006
76	-0.19112125E+006
77	-0.19466414E+006
78	-0.19440003E+006
79	-0.19270762E+006
80	-0.19275876E+006
81	-0.19290070E+006
82	-0.19290527E+006
83	-0.19290534E+006
84	-0.19290533E+006
85	-0.19290533E+006
86	-0.19290533E+006
87	-0.19290533E+006
88	-0.19290533E+006
89	-0.19290533E+006
90	-0.19290533E+006
91	-0.19290533E+006
92	-0.19290533E+006
93	-0.19290533E+006
94	-0.19290533E+006
95	-0.19290533E+006
96	-0.19290533E+006
97	-0.19290533E+006
98	-0.19290533E+006
99	-0.19290533E+006
100	-0.19290533E+006
101	-0.19290533E+006
102	-0.19290533E+006
