{
    "authors": [
        "ambrus.both@bsc.es"
    ],
    "comparisons": [
        {
            "file": "single_drop_nsi_pts_hltabprop.pts.res-col5.out",
            "method": "absolute",
            "tolerance": "1.0e-7"
        },
        {
            "file": "single_drop_nsi_pts_hltabprop.pts.res-col6.out",
            "method": "absolute",
            "tolerance": "1.0e-8"
        },
        {
            "file": "single_drop_nsi_pts_hltabprop.pts.res-col13.out",
            "method": "absolute",
            "tolerance": "1.0e-5"
        },
        {
            "file": "single_drop_nsi_pts_hltabprop.pts.res-col14.out",
            "method": "absolute",
            "tolerance": "1.0e-16"
        },
        {
            "file": "single_drop_nsi_pts_hltabprop-MOMSK-00000010.post.mpio.txt",
            "method": "absolute",
            "tolerance": "1.0e-12"
        },
        {
            "file": "single_drop_nsi_pts_hltabprop-AVMOS-00000010.post.mpio.txt",
            "method": "absolute",
            "tolerance": "1.0e-12"
        },
        {
            "file": "single_drop_nsi_pts_hltabprop-VELOC-00000020.post.mpio.txt",
            "method": "absolute",
            "tolerance": "1.0e-6"
        }
    ],
    "description": "Heat and mass transfer of a single droplet with built in water liquid properties and a flamelet table with heat loss. Partis and Nastin coupled with one executable.",
    "include": [
		"normal"
	],
    "executions": [
        {
            "commands": {
                "postprocess": "[ALYA-PATH]/Utils/user/extractColumnFromFile.sh [NAME].pts.res 5 6 13 14; echo | [POST] [NAME]"
            },
            "mpi": 1,
            "openmp": 0
        },
        {
            "commands": {
                "postprocess": "[ALYA-PATH]/Utils/user/extractColumnFromFile.sh [NAME].pts.res 5 6 13 14; echo | [POST] [NAME]"
            },
            "mpi": 3,
            "openmp": 0
        },
        {
            "commands": {
                "postprocess": "[ALYA-PATH]/Utils/user/extractColumnFromFile.sh [NAME].pts.res 5 6 13 14; echo | [POST] [NAME]"
            },
            "mpi": 3,
            "openmp": 3
        }
    ],
    "modules": [
        "nastin",
        "partis"
    ],
    "name": "single_drop_nsi_pts_hltabprop",
    "postprocess": "mpio2txt"
}
