GiD Post Results File 1.0
 
Result VELOC ALYA  0.33020121E+02 Vector OnNodes
ComponentNames VELOC_X,VELOC_Y,VELOC_Z
Values
          1  0.00000000E+000  0.00000000E+000
          2  0.00000000E+000  0.00000000E+000
          3  0.00000000E+000  0.00000000E+000
          4 -0.10075496E-001  0.81029501E-002
          5  0.00000000E+000  0.00000000E+000
          6  0.00000000E+000  0.00000000E+000
          7 -0.27737367E-001  0.11232599E-001
          8 -0.18396925E-001  0.28478565E-001
          9 -0.50099666E-001  0.37186344E-001
         10  0.00000000E+000  0.00000000E+000
         11  0.00000000E+000  0.00000000E+000
         12 -0.46142023E-001  0.96004207E-002
         13 -0.24558840E-001  0.59707534E-001
         14 -0.82522149E-001  0.32016198E-001
         15 -0.66825279E-001  0.75776839E-001
         16  0.00000000E+000  0.00000000E+000
         17  0.00000000E+000  0.00000000E+000
         18 -0.59518757E-001  0.51601303E-002
         19 -0.28161419E-001  0.98722992E-001
         20 -0.11054242E+000  0.66435313E-001
         21 -0.10689318E+000  0.17801736E-001
         22 -0.75680581E-001  0.12297501E+000
         23  0.00000000E+000  0.00000000E+000
         24  0.00000000E+000  0.00000000E+000
         25 -0.14650070E+000  0.39715965E-001
         26 -0.12520387E+000  0.11056128E+000
         27 -0.63971747E-001 -0.10071858E-002
         28 -0.28905803E-001  0.14044617E+000
         29 -0.11634434E+000 -0.20423513E-002
         30 -0.73855528E-001  0.17105899E+000
         31 -0.16994048E+000  0.73486327E-001
         32 -0.16554780E+000  0.22913570E-003
         33 -0.11908280E+000  0.15661879E+000
         34  0.00000000E+000  0.00000000E+000
         35  0.00000000E+000  0.00000000E+000
         36 -0.57854592E-001 -0.74175256E-002
         37 -0.28264698E-001  0.17807667E+000
         38 -0.10727895E+000 -0.22702982E-001
         39 -0.61634034E-001  0.20859626E+000
         40 -0.20301109E+000  0.13167691E-001
         41 -0.16201633E+000  0.11475937E+000
         42 -0.15932485E+000 -0.42902948E-001
         43 -0.89391969E-001  0.19111227E+000
         44  0.00000000E+000  0.00000000E+000
         45  0.00000000E+000  0.00000000E+000
         46 -0.42630083E-001 -0.11923201E-001
         47 -0.31163293E-001  0.20401968E+000
         48 -0.20244231E+000  0.42925414E-001
         49 -0.21072468E+000 -0.60662353E-001
         50 -0.11455471E+000  0.14892044E+000
         51 -0.81324384E-001 -0.37717507E-001
         52 -0.45341251E-001  0.22190760E+000
         53 -0.12615777E+000 -0.76284477E-001
         54 -0.43064231E-001  0.19813582E+000
         55 -0.23297549E+000 -0.60935802E-001
         56 -0.14333250E+000  0.79541435E-001
         57  0.00000000E+000  0.00000000E+000
         58  0.00000000E+000  0.00000000E+000
         59 -0.23055693E-001 -0.12464566E-001
         60 -0.18035734E+000 -0.12485564E+000
         61 -0.39658894E-001  0.20606067E+000
         62 -0.35479105E-001  0.15743698E+000
         63 -0.45958313E-001 -0.40758788E-001
         64 -0.25033965E-001  0.19398036E+000
         65 -0.18215970E+000 -0.30370391E-001
         66 -0.74519755E-001 -0.86180880E-001
         67  0.19610405E-001  0.16167528E+000
         68 -0.22678566E+000 -0.17084111E+000
         69 -0.33672706E-001  0.98811390E-001
         70 -0.11490597E+000 -0.15197840E+000
         71  0.70800725E-001  0.12526217E+000
         72  0.00000000E+000  0.00000000E+000
         73  0.00000000E+000  0.00000000E+000
         74 -0.61411504E-002 -0.83539841E-002
         75  0.22314924E-001  0.13897789E+000
         76 -0.13364222E-001 -0.28630576E-001
         77 -0.22028140E+000 -0.18524614E+000
         78 -0.50169820E-001  0.12242916E-001
         79  0.99193393E-001  0.94113519E-001
         80 -0.16376548E+000 -0.23586812E+000
         81  0.11310398E+000  0.82983014E-001
         82 -0.22471000E-001 -0.63751709E-001
         83  0.19964358E+000  0.68443984E-001
         84 -0.37169779E-001 -0.12060676E+000
         85  0.29198414E+000  0.51271304E-001
         86 -0.10744095E+000 -0.13691010E+000
         87  0.00000000E+000  0.00000000E+000
         88  0.00000000E+000  0.00000000E+000
         89 -0.19836611E+000 -0.31739203E+000
         90  0.13265046E+000  0.28558668E-001
         91  0.00000000E+000  0.00000000E+000
         92  0.10000000E+001  0.00000000E+000
         93  0.10000000E+001  0.00000000E+000
         94  0.00000000E+000  0.00000000E+000
         95 -0.60022456E-001 -0.20724066E+000
         96  0.36295693E+000  0.35017874E-001
         97  0.00000000E+000  0.00000000E+000
         98  0.10000000E+001  0.00000000E+000
         99 -0.17199582E+000 -0.34786283E+000
        100  0.11310324E+000 -0.49619969E-001
        101  0.00000000E+000  0.00000000E+000
        102  0.10000000E+001  0.00000000E+000
        103 -0.87806734E-001 -0.32358465E+000
        104  0.40598857E+000  0.15868918E-001
        105  0.00000000E+000  0.00000000E+000
        106  0.10000000E+001  0.00000000E+000
        107 -0.13384775E-001 -0.26172422E+000
        108 -0.10587454E+000 -0.44744000E+000
        109  0.41506844E+000 -0.10603452E-001
        110  0.10000000E+001  0.00000000E+000
        111  0.00000000E+000  0.00000000E+000
        112 -0.76417436E-001 -0.52028227E+000
        113  0.38161971E+000 -0.57403023E-001
        114  0.00000000E+000  0.00000000E+000
        115  0.10000000E+001  0.00000000E+000
        116  0.11214731E+000 -0.43381306E+000
        117  0.10000000E+001  0.00000000E+000
        118  0.00000000E+000  0.00000000E+000
        119  0.10000000E+001  0.00000000E+000
        120  0.00000000E+000  0.00000000E+000
        121  0.00000000E+000  0.00000000E+000
End values

Result PRESS ALYA  0.33020121E+02 Scalar OnNodes
ComponentNames PRESS
Values
          1 -0.52452026E+000
          2 -0.52311375E+000
          3 -0.52523840E+000
          4 -0.52428296E+000
          5 -0.52223144E+000
          6 -0.52567514E+000
          7 -0.52490934E+000
          8 -0.52400365E+000
          9 -0.52492327E+000
         10 -0.52504966E+000
         11 -0.52373667E+000
         12 -0.52460998E+000
         13 -0.52608935E+000
         14 -0.52506059E+000
         15 -0.52750578E+000
         16 -0.52907962E+000
         17 -0.52334137E+000
         18 -0.52335309E+000
         19 -0.53199707E+000
         20 -0.52836712E+000
         21 -0.52436386E+000
         22 -0.53415700E+000
         23 -0.52078617E+000
         24 -0.53962077E+000
         25 -0.52843663E+000
         26 -0.53632166E+000
         27 -0.52123704E+000
         28 -0.54298393E+000
         29 -0.52263998E+000
         30 -0.54570494E+000
         31 -0.53804453E+000
         32 -0.52701692E+000
         33 -0.54940572E+000
         34 -0.51801165E+000
         35 -0.55709482E+000
         36 -0.51868175E+000
         37 -0.56023718E+000
         38 -0.52009124E+000
         39 -0.56146093E+000
         40 -0.53764622E+000
         41 -0.55395632E+000
         42 -0.52394957E+000
         43 -0.56519859E+000
         44 -0.51574856E+000
         45 -0.58651552E+000
         46 -0.51643417E+000
         47 -0.58614806E+000
         48 -0.55682705E+000
         49 -0.53387147E+000
         50 -0.57235579E+000
         51 -0.51755114E+000
         52 -0.57955217E+000
         53 -0.52033124E+000
         54 -0.57874779E+000
         55 -0.55379623E+000
         56 -0.58009638E+000
         57 -0.51465203E+000
         58 -0.64684178E+000
         59 -0.51521576E+000
         60 -0.52770460E+000
         61 -0.62827403E+000
         62 -0.58574048E+000
         63 -0.51607324E+000
         64 -0.59878114E+000
         65 -0.58168116E+000
         66 -0.51786764E+000
         67 -0.58579111E+000
         68 -0.54384484E+000
         69 -0.59649062E+000
         70 -0.52227679E+000
         71 -0.58871820E+000
         72 -0.79581777E+000
         73 -0.51472130E+000
         74 -0.51521922E+000
         75 -0.70349134E+000
         76 -0.51616801E+000
         77 -0.56952151E+000
         78 -0.60330151E+000
         79 -0.61949514E+000
         80 -0.53178767E+000
         81 -0.59890263E+000
         82 -0.51766291E+000
         83 -0.58570321E+000
         84 -0.52001082E+000
         85 -0.58253580E+000
         86 -0.59406716E+000
         87 -0.51538249E+000
         88 -0.97980502E+000
         89 -0.54637377E+000
         90 -0.60608454E+000
         91 -0.51604608E+000
         92 -0.92806826E+000
         93 -0.62553023E+000
         94 -0.51761491E+000
         95 -0.52267323E+000
         96 -0.59047520E+000
         97 -0.52002265E+000
         98 -0.56291866E+000
         99 -0.55730968E+000
        100 -0.59805051E+000
        101 -0.52305971E+000
        102 -0.55849119E+000
        103 -0.52024923E+000
        104 -0.59420610E+000
        105 -0.52475064E+000
        106 -0.56802988E+000
        107 -0.54657089E+000
        108 -0.49601624E+000
        109 -0.57675878E+000
        110 -0.57242078E+000
        111 -0.51700159E+000
        112 -0.41977122E+000
        113 -0.51016856E+000
        114 -0.48027489E+000
        115 -0.55127147E+000
        116 -0.27624732E+000
        117 -0.46351679E+000
        118 -0.38309751E+000
        119 -0.19622703E+000
        120 -0.20402284E+000
        121  0.00000000E+000
End values

